0 487 0 0 0 0
2 479 0 0 8 0
4.00004 484 0 0 5 0
6 472 0 0 16 0
8 466 0 0 14 0
10 477 0 0 16 0
12 477 0 0 16 0
14 469 0 0 18 0
16 478 0 0 11 0
18 468 0 0 16 0
20 478 0 0 11 0
22 493 0 0 8 0
24 491 0 0 9 0
26 489 0 0 13 0
28 478 0 0 13 0
30 473 0 0 18 0
32 482 0 0 9 0
34 493 0 0 12 0
36 491 0 0 15 0
38 493 0 0 17 0
40 486 0 0 20 0
42 494 0 0 13 0
44 487 0 0 11 0
46 481 0 0 16 0
48 474 0 0 11 0
50 479 0 0 14 0
52 463 0 0 10 0
54 452 0 1 21 0
56 461 0 11 19 1
58 459 0 16 19 1
60 452 0 24 13 5
62 448 0 35 9 5
64 432 0 48 11 1
66 415 0 58 12 3
68 406 0 60 9 2
70 391 0 74 6 2
72 376 0 89 13 4
74 358 0 100 9 9
76 349 0 122 7 5
78 345 0 135 8 6
80 331 0 140 10 4
82 332 0 149 10 3
84 330 0 159 6 6
86 312 0 175 5 9
88 295 0 186 11 3
90 289 0 199 7 8
92 273 0 215 6 7
94 266 0 209 3 8
96 253 0 219 8 7
98 245 0 228 4 7
100 240 0 228 7 7
102 234 0 238 6 8
104 233 0 253 5 6
106 220 0 260 9 17
108 206 0 270 8 10
110 205 0 294 3 6
112 195 0 293 4 10
114 188 0 299 2 9
116 178 0 297 5 6
118 173 0 297 4 9
120 164 0 302 9 6
122 160 0 310 3 14
124 147 0 324 5 10
126 141 0 329 4 10
128 137 0 338 2 11
130 131 0 349 2 4
132 128 0 336 2 9
134 118 0 341 5 16
136 117 0 340 4 15
138 112 0 360 3 8
140 107 0 360 2 11
142 103 0 362 3 15
144 94 0 365 5 17
146 92 0 376 2 12
148 93 0 371 2 13
150 87 0 376 1 12
152 82 0 375 1 14
154 77 0 392 2 11
156 75 0 386 1 13
158 68 0 403 2 11
160 69 0 399 1 14
162 65 0 400 1 9
164 64 0 406 2 10
166 63 0 406 0 11
168 58 0 426 1 7
170 58 0 428 2 11
172 56 0 428 1 18
174 56 0 424 0 12
176 51 0 424 1 15
178 47 0 433 1 18
180 46 0 430 1 8
182 43 0 418 2 13
184 41 0 421 1 21
186 36 0 418 4 16
188 38 0 417 1 17
190 37 0 427 0 10
192 34 0 424 0 12
194 33 0 421 0 19
196 32 0 441 0 10
198 32 0 440 0 15
200 32 0 439 0 20
