0 1453 0 0 0 0
2 1417 11 0 16 0
4.00004 1422 11 0 10 0
6 1422 7 0 11 0
8 1415 14 0 9 0
10 1414 8 0 12 0
12 1409 8 0 12 0
14 1418 10 0 10 0
16 1422 10 0 12 0
18 1419 8 0 10 0
20 1414 10 0 12 0
22 1417 5 0 10 0
24 1415 11 0 11 0
26 1422 4 0 9 0
28 1412 5 0 8 0
30 1401 12 0 11 0
32 1394 11 0 13 0
34 1383 6 0 21 0
36 1376 9 0 16 0
38 1386 7 0 13 0
40 1384 7 0 9 0
42 1383 7 0 9 0
44 1376 10 0 12 0
46 1378 6 0 14 0
48 1383 16 0 8 0
50 1386 10 0 14 0
52 1204 0 194 12 0
54 1038 0 337 12 3
56 926 0 452 8 1
58 806 0 563 8 1
60 737 0 639 4 2
62 676 0 698 6 4
64 607 0 763 7 5
66 558 0 819 5 5
68 501 1 881 6 4
70 453 0 914 9 6
72 420 1 946 2 6
74 383 0 985 4 6
76 355 1 1018 5 10
78 327 0 1051 1 5
80 284 0 1079 5 7
82 272 0 1087 2 8
84 258 0 1093 0 8
86 245 0 1093 3 10
88 213 0 1131 4 7
90 203 0 1143 2 6
92 190 0 1153 2 5
94 178 0 1174 2 8
96 176 0 1173 3 9
98 164 0 1169 3 13
100 159 0 1186 3 6
102 158 0 1183 3 11
104 146 0 1199 2 7
106 130 0 1200 5 7
108 128 0 1205 2 5
110 118 0 1204 3 13
112 113 0 1206 5 8
114 110 0 1205 4 8
116 102 0 1216 2 6
118 95 0 1215 2 10
120 92 0 1234 2 8
122 83 0 1230 2 10
124 83 0 1249 4 5
126 83 0 1249 1 7
128 78 0 1259 0 10
130 63 0 1269 2 8
132 66 0 1266 2 11
134 60 0 1285 0 7
136 48 0 1287 1 8
138 53 0 1286 1 11
140 49 0 1284 3 11
142 46 1 1285 3 10
144 49 0 1291 3 7
146 44 0 1287 4 12
148 53 0 1299 1 13
150 58 0 1295 0 10
152 59 0 1298 1 7
154 53 0 1289 0 6
156 50 0 1295 2 11
158 51 0 1296 0 11
160 47 0 1316 1 3
162 39 0 1308 1 13
164 34 0 1310 2 10
166 32 0 1307 1 8
168 31 0 1312 0 14
170 29 0 1321 1 9
172 29 0 1321 1 23
174 28 0 1335 0 6
176 28 0 1346 0 9
178 28 0 1338 2 16
180 29 0 1330 0 11
182 28 0 1329 2 8
184 32 0 1319 0 15
186 25 0 1331 0 7
188 24 0 1331 0 6
190 23 0 1325 1 8
192 19 0 1327 1 7
194 19 0 1323 0 8
196 19 0 1325 0 11
198 15 0 1332 1 9
200 17 0 1336 0 7
