0 1556 0 0 0 0
2 1537 11 0 18 0
4.00004 1550 8 0 17 0
6 1561 8 0 13 0
8 1562 14 0 15 0
10 1555 6 0 14 0
12 1560 7 0 17 0
14 1556 8 0 11 0
16 1579 4 0 10 0
18 1568 9 0 17 0
20 1583 5 0 13 0
22 1588 8 0 14 0
24 1590 8 0 13 0
26 1592 10 0 11 0
28 1587 12 0 15 0
30 1585 19 0 13 0
32 1593 12 0 18 0
34 1595 9 0 9 0
36 1587 10 0 19 0
38 1599 14 0 15 0
40 1618 7 0 11 0
42 1588 14 0 22 0
44 1595 9 0 21 0
46 1591 10 0 10 0
48 1572 5 0 15 0
50 1571 10 0 14 0
52 1357 2 215 18 2
54 1212 0 355 17 2
56 1093 0 479 8 2
58 968 0 597 9 2
60 863 0 697 9 3
62 772 0 799 9 4
64 716 0 871 8 5
66 629 0 970 8 5
68 573 0 1014 8 3
70 524 1 1053 9 11
72 495 0 1103 5 10
74 451 0 1158 4 3
76 397 0 1193 7 9
78 367 0 1224 6 18
80 347 0 1268 2 8
82 314 0 1289 7 7
84 291 1 1303 5 10
86 268 0 1330 6 9
88 251 0 1357 3 13
90 219 0 1386 5 14
92 208 1 1411 2 10
94 203 0 1409 5 18
96 188 0 1415 0 17
98 182 0 1439 1 8
100 170 0 1447 2 17
102 157 1 1454 3 17
104 139 0 1465 2 16
106 126 0 1465 2 11
108 124 0 1471 1 14
110 115 0 1485 0 13
112 107 0 1484 1 12
114 96 0 1515 2 13
116 90 0 1522 3 10
118 78 0 1517 1 21
120 73 0 1535 0 8
122 63 0 1530 0 15
124 57 0 1535 1 8
126 51 0 1548 1 8
128 52 0 1541 4 18
130 51 0 1551 1 8
132 47 0 1538 0 19
134 46 0 1542 1 14
136 49 0 1533 0 17
138 47 0 1534 1 13
140 40 0 1547 0 11
142 34 0 1527 1 20
144 30 0 1541 1 15
146 35 0 1541 1 14
148 32 0 1540 0 12
150 32 0 1527 2 11
152 32 0 1536 0 17
154 30 0 1540 2 13
156 25 0 1547 0 19
158 22 0 1545 0 22
160 24 0 1541 1 14
162 26 0 1556 0 13
164 20 0 1548 1 19
166 14 0 1562 0 18
168 12 0 1579 0 13
170 12 0 1571 0 14
172 10 0 1570 0 19
174 7 0 1578 0 13
176 5 0 1584 0 18
178 6 0 1578 0 18
180 5 0 1596 0 12
182 6 0 1587 0 12
184 5 0 1570 1 18
186 4 0 1578 0 11
188 3 0 1586 0 11
190 4 0 1572 0 19
192 3 0 1584 0 13
194 5 0 1576 0 16
196 4 1 1573 0 15
198 3 0 1575 0 16
200 4 0 1580 0 17
