0 396 0 0 0 0
2 370 0 0 8 0
4.00004 366 0 0 12 0
6 356 0 0 16 0
8 360 0 0 11 0
10 333 0 0 14 0
12 337 0 0 11 0
14 330 0 0 5 0
16 342 0 0 8 0
18 350 0 0 9 0
20 348 0 0 13 0
22 342 0 0 13 0
24 346 0 0 14 0
26 333 0 0 11 0
28 335 0 0 10 0
30 345 0 0 9 0
32 357 0 0 8 0
34 350 0 0 12 0
36 349 0 0 6 0
38 345 0 0 11 0
40 343 0 0 11 0
42 336 0 0 11 0
44 334 0 0 11 0
46 327 0 0 9 0
48 331 0 0 15 0
50 338 0 0 9 0
52 329 0 0 10 0
54 333 0 4 12 1
56 318 0 10 13 0
58 322 0 13 4 1
60 315 0 23 6 3
62 304 0 40 7 2
64 289 0 48 7 5
66 285 0 62 10 6
68 278 0 79 6 1
70 268 0 83 9 5
72 256 0 97 1 2
74 230 0 110 16 4
76 239 0 123 4 3
78 221 0 130 8 2
80 219 0 128 2 4
82 210 0 137 11 6
84 207 0 148 4 2
86 200 0 157 5 7
88 185 0 166 7 7
90 180 0 180 5 8
92 171 0 193 6 11
94 168 0 209 0 9
96 150 0 213 5 11
98 145 0 211 7 10
100 131 0 210 3 8
102 125 0 214 6 7
104 117 0 223 3 10
106 113 0 231 5 8
108 112 0 242 3 14
110 110 0 250 3 4
112 100 0 253 2 8
114 94 0 256 2 6
116 87 0 254 4 7
118 86 0 251 1 8
120 76 0 259 6 10
122 71 0 258 2 11
124 69 0 270 2 5
126 66 0 265 1 7
128 60 0 262 2 11
130 54 0 264 1 12
132 52 0 260 2 3
134 48 0 271 2 11
136 46 0 266 1 10
138 46 0 267 2 10
140 42 0 288 0 9
142 43 0 282 1 19
144 41 0 285 2 7
146 40 0 286 4 6
148 39 0 284 1 11
150 39 0 284 0 10
152 37 0 299 0 8
154 38 0 312 0 7
156 37 0 308 0 10
158 35 0 316 0 9
160 34 0 307 1 9
162 32 0 301 0 14
164 27 0 301 1 9
166 25 0 313 0 6
168 20 0 310 1 10
170 21 0 324 1 9
172 21 0 328 0 9
174 19 0 314 1 15
176 16 0 319 1 7
178 13 0 306 0 9
180 13 0 314 1 9
182 13 0 319 0 13
184 13 0 322 0 9
186 13 0 326 0 11
188 13 0 322 0 14
190 13 0 333 0 13
192 11 0 341 0 14
194 9 0 345 0 10
196 9 0 355 0 7
198 7 0 350 0 14
200 7 0 338 0 14
