0 1371 0 0 0 0
2 1343 5 0 11 0
4.00004 1334 8 0 16 0
6 1331 3 0 9 0
8 1321 7 0 13 0
10 1319 10 0 14 0
12 1332 13 0 10 0
14 1341 10 0 8 0
16 1332 10 0 16 0
18 1333 11 0 18 0
20 1344 10 0 9 0
22 1337 9 0 15 0
24 1339 13 0 8 0
26 1335 6 0 11 0
28 1334 9 0 9 0
30 1336 8 0 10 0
32 1334 7 0 15 0
34 1333 5 0 15 0
36 1323 9 0 18 0
38 1325 12 0 12 0
40 1340 4 0 13 0
42 1333 10 0 10 0
44 1352 9 0 15 0
46 1344 9 0 17 0
48 1342 10 0 14 0
50 1334 11 0 17 0
52 1179 0 173 8 0
54 1044 0 307 11 0
56 913 0 439 12 3
58 805 0 546 12 0
60 709 0 632 15 7
62 639 1 701 8 5
64 588 0 755 7 6
66 534 1 815 10 7
68 482 1 863 14 8
70 441 1 904 5 9
72 395 0 949 6 4
74 370 0 984 4 3
76 320 0 1023 6 9
78 298 0 1038 3 11
80 278 0 1053 5 8
82 255 0 1071 4 15
84 246 0 1086 4 12
86 231 0 1102 4 4
88 213 0 1120 5 12
90 197 0 1138 1 13
92 183 0 1148 3 8
94 173 0 1155 3 9
96 159 0 1162 4 8
98 145 0 1187 1 11
100 126 0 1201 2 15
102 128 0 1204 2 11
104 119 0 1222 2 10
106 117 1 1219 1 17
108 99 1 1234 4 9
110 101 0 1230 6 15
112 100 0 1235 3 9
114 99 0 1226 1 11
116 97 0 1229 2 12
118 105 0 1234 0 7
120 93 0 1233 3 17
122 86 0 1232 3 14
124 82 0 1228 3 15
126 77 0 1231 2 16
128 73 0 1247 2 13
130 68 0 1244 3 16
132 70 0 1262 0 8
134 65 0 1276 3 16
136 60 0 1290 1 8
138 58 0 1282 1 9
140 54 0 1282 1 14
142 54 0 1281 0 10
144 56 0 1280 0 19
146 51 0 1295 1 13
148 46 0 1290 0 17
150 40 0 1293 1 16
152 40 0 1296 1 16
154 33 0 1303 0 12
156 30 0 1293 3 22
158 33 0 1295 1 14
160 35 0 1284 1 14
162 34 0 1284 0 14
164 31 0 1299 1 12
166 29 0 1304 1 19
168 33 0 1322 2 10
170 27 0 1321 1 15
172 27 0 1334 0 10
174 22 0 1328 0 14
176 21 0 1331 0 15
178 18 0 1331 1 10
180 18 0 1317 2 19
182 16 0 1337 0 7
184 16 0 1324 0 13
186 16 0 1312 0 11
188 11 0 1313 1 6
190 11 0 1300 1 14
192 12 0 1324 0 10
194 10 0 1321 0 6
196 10 0 1332 1 20
198 10 0 1344 1 10
200 13 0 1332 1 14
