0 698 0 0 0 0
2 668 0 0 21 0
4.00004 672 0 0 15 0
6 658 0 0 28 0
8 685 0 0 11 0
10 689 0 0 13 0
12 666 0 0 24 0
14 674 0 0 20 0
16 686 0 0 12 0
18 665 0 0 15 0
20 643 0 0 21 0
22 642 0 0 22 0
24 649 0 0 12 0
26 635 0 0 20 0
28 637 0 0 17 0
30 630 0 0 20 0
32 639 0 0 18 0
34 642 0 0 13 0
36 646 0 0 11 0
38 640 0 0 18 0
40 643 0 0 17 0
42 641 0 0 10 0
44 630 0 0 16 0
46 645 0 0 15 0
48 642 0 0 11 0
50 620 0 0 20 0
52 629 0 0 8 0
54 627 0 3 13 0
56 622 0 7 15 1
58 618 0 15 11 3
60 607 0 21 12 1
62 587 0 27 14 3
64 571 0 34 13 1
66 564 0 51 9 2
68 545 0 62 19 1
70 543 0 65 9 2
72 530 0 71 9 2
74 519 0 83 8 3
76 511 0 94 9 3
78 499 0 110 7 0
80 485 0 113 12 7
82 481 0 131 9 8
84 472 0 149 14 5
86 464 0 162 11 8
88 452 0 172 12 5
90 441 0 188 13 9
92 435 0 197 5 12
94 418 0 212 9 9
96 398 0 226 9 5
98 386 0 237 10 4
100 376 0 239 12 8
102 357 0 245 7 9
104 352 0 257 9 9
106 343 0 277 11 3
108 323 0 278 12 12
110 325 0 291 5 8
112 303 0 290 7 14
114 302 0 302 6 10
116 298 0 312 2 8
118 279 0 324 5 10
120 268 0 329 5 10
122 261 0 339 8 9
124 249 0 339 10 12
126 241 0 354 3 5
128 238 0 348 3 13
130 231 0 366 4 12
132 230 0 376 6 10
134 230 0 400 1 6
136 224 0 402 3 11
138 216 0 415 5 7
140 205 0 417 4 13
142 196 0 414 6 15
144 192 0 418 3 15
146 192 0 426 1 6
148 182 0 431 7 10
150 183 0 441 0 12
152 178 0 440 4 12
154 168 0 458 1 6
156 168 0 464 2 18
158 164 0 484 5 7
160 162 0 491 2 9
162 156 0 495 2 15
164 155 0 509 0 15
166 151 0 505 0 15
168 144 0 518 5 13
170 141 0 524 3 19
172 133 0 531 3 11
174 129 0 546 1 14
176 127 0 549 0 15
178 119 0 550 3 11
180 122 0 549 1 15
182 118 0 542 1 13
184 112 0 546 4 15
186 111 0 536 2 22
188 107 0 535 2 18
190 107 0 541 0 13
192 103 0 553 1 11
194 103 0 557 0 13
196 98 0 563 3 13
198 98 0 557 1 18
200 91 0 570 2 14
