0 686 0 0 0 0
2 669 0 0 18 0
4.00004 680 0 0 8 0
6 683 0 0 13 0
8 691 0 0 13 0
10 692 0 0 13 0
12 696 0 0 8 0
14 697 0 0 8 0
16 692 0 0 13 0
18 688 0 0 14 0
20 691 0 0 10 0
22 679 0 0 21 0
24 689 0 0 16 0
26 691 0 0 9 0
28 691 0 0 12 0
30 692 0 0 10 0
32 689 0 0 11 0
34 679 0 0 14 0
36 685 0 0 10 0
38 669 0 0 10 0
40 654 0 0 15 0
42 648 0 0 17 0
44 638 0 0 10 0
46 640 0 0 10 0
48 639 0 0 14 0
50 651 0 0 7 0
52 636 0 0 13 0
54 642 0 5 11 3
56 633 0 13 9 0
58 637 0 22 3 3
60 627 0 35 5 1
62 598 0 39 20 1
64 589 0 47 12 3
66 586 0 64 8 0
68 573 0 67 10 9
70 567 0 82 6 3
72 555 0 95 7 3
74 540 0 112 11 0
76 541 0 119 8 2
78 530 0 133 10 6
80 510 0 150 6 2
82 500 0 164 9 3
84 494 0 171 6 1
86 478 0 188 8 4
88 474 0 194 7 6
90 470 0 210 2 5
92 452 0 218 3 1
94 442 0 232 6 6
96 426 0 238 11 6
98 422 0 248 11 5
100 409 0 263 6 7
102 396 0 271 9 3
104 395 0 279 3 9
106 378 0 288 6 8
108 372 0 302 3 14
110 357 0 318 3 8
112 342 0 329 6 6
114 335 0 339 4 14
116 323 0 351 8 11
118 314 0 355 6 8
120 313 0 363 3 4
122 300 0 372 5 6
124 295 0 371 5 8
126 285 0 380 5 13
128 275 0 393 3 2
130 263 0 394 5 5
132 251 0 408 2 5
134 246 0 415 3 3
136 229 0 424 4 4
138 222 0 422 4 13
140 215 0 437 5 10
142 201 0 450 5 8
144 198 0 444 1 20
146 192 0 446 2 12
148 186 0 455 5 7
150 179 0 452 4 11
152 180 0 461 2 6
154 167 0 467 5 10
156 168 0 463 0 5
158 160 0 466 1 8
160 159 0 484 1 6
162 152 0 490 2 9
164 148 0 494 2 9
166 140 0 489 5 12
168 140 0 498 0 11
170 135 0 501 5 17
172 130 0 513 2 10
174 128 0 509 2 17
176 124 0 521 2 11
178 121 0 512 1 14
180 122 0 518 0 14
182 118 0 520 3 10
184 111 0 523 2 9
186 105 0 525 4 9
188 103 0 523 4 10
190 100 0 524 2 5
192 100 0 523 0 11
194 96 0 523 2 11
196 91 0 519 1 14
198 86 0 524 0 13
200 84 0 531 0 9
