0 670 0 0 0 0
2 604 0 0 87 0
4.00004 604 0 0 74 0
6 629 0 0 63 0
8 629 0 0 74 0
10 640 0 0 86 0
12 648 0 0 86 0
14 628 0 0 85 0
16 624 0 0 58 0
18 599 0 0 98 0
20 653 0 0 82 0
22 647 0 0 98 0
24 654 0 0 83 0
26 634 0 0 97 0
28 671 0 0 82 0
30 686 0 0 80 0
32 672 0 0 99 0
34 687 0 0 81 0
36 671 0 0 99 0
38 661 0 0 102 0
40 671 0 0 93 0
42 681 0 0 103 0
44 665 0 0 90 0
46 667 0 0 71 0
48 654 0 0 91 0
50 650 0 0 90 0
52 668 0 1 80 2
54 636 0 20 92 5
56 618 0 39 78 6
58 597 0 57 82 9
60 591 0 77 75 9
62 572 0 104 59 15
64 547 0 113 66 23
66 542 0 139 63 19
68 520 0 155 63 25
70 502 0 180 63 12
72 496 0 179 55 37
74 466 0 203 53 25
76 439 0 214 52 42
78 414 0 232 46 47
80 393 0 240 49 36
82 358 0 272 47 41
84 366 0 290 40 43
86 350 0 302 34 34
88 331 0 304 42 48
90 307 0 334 30 48
92 289 0 356 42 46
94 279 0 350 31 59
96 253 0 362 26 48
98 266 0 393 31 57
100 250 0 389 30 65
102 227 0 390 38 68
104 211 0 396 27 57
106 208 0 412 21 61
108 198 0 438 22 47
110 177 0 455 25 65
112 166 0 467 25 65
114 155 0 492 25 59
116 134 0 481 26 49
118 131 0 480 16 65
120 122 0 484 23 67
122 120 0 500 12 56
124 113 0 518 14 54
126 109 0 516 15 49
128 110 0 492 9 67
130 101 0 504 9 68
132 103 0 531 9 78
134 95 0 536 6 62
136 83 0 519 9 80
138 80 0 528 10 75
140 77 0 551 13 74
142 73 0 561 10 67
144 70 0 553 11 72
146 76 0 551 5 66
148 62 0 578 10 100
150 62 0 589 7 79
152 54 0 584 12 94
154 52 0 575 7 85
156 56 0 585 7 82
158 49 0 595 8 82
160 49 0 604 6 94
162 46 0 601 9 78
164 51 0 582 5 82
166 46 0 584 3 91
168 38 0 607 3 86
170 38 0 628 5 100
172 38 0 636 6 93
174 40 0 655 5 77
176 41 0 644 0 91
178 39 0 639 2 87
180 34 0 634 3 78
182 33 0 633 7 99
184 27 0 621 4 98
186 31 0 648 3 74
188 27 0 683 1 87
190 26 0 663 4 79
192 24 0 645 2 83
194 19 0 633 5 76
196 21 0 631 4 83
198 26 0 618 3 86
200 22 0 612 2 80
