0 385 0 0 0 0
2 316 0 0 68 0
4.00004 339 0 0 65 0
6 344 0 0 64 0
8 335 0 0 67 0
10 333 0 0 68 0
12 335 0 0 69 0
14 346 0 0 62 0
16 352 0 0 77 0
18 363 0 0 64 0
20 362 0 0 77 0
22 333 0 0 91 0
24 343 0 0 73 0
26 327 0 0 77 0
28 357 0 0 60 0
30 375 0 0 58 0
32 366 0 0 54 0
34 363 0 0 64 0
36 348 0 0 71 0
38 310 0 0 70 0
40 324 0 0 78 0
42 337 0 0 63 0
44 345 0 0 71 0
46 360 0 0 75 0
48 350 0 0 74 0
50 332 0 0 58 0
52 326 0 0 56 0
54 329 0 8 52 8
56 315 0 30 53 8
58 280 0 40 59 12
60 267 0 64 47 9
62 245 0 70 48 21
64 232 0 80 32 30
66 237 0 99 29 23
68 220 0 109 43 36
70 217 0 129 26 29
72 194 0 139 33 29
74 186 0 154 32 24
76 177 0 176 33 24
78 169 0 163 37 51
80 162 0 181 18 37
82 143 0 194 18 33
84 128 0 211 25 43
86 133 0 222 20 48
88 133 0 229 11 39
90 115 0 231 18 42
92 97 0 254 21 43
94 97 0 258 19 59
96 84 0 270 15 54
98 79 0 273 19 49
100 78 0 281 14 48
102 75 0 283 12 54
104 73 0 291 13 44
106 66 0 291 7 64
108 55 0 271 10 61
110 55 0 298 11 58
112 47 0 277 5 44
114 36 0 287 7 67
116 43 0 293 4 47
118 39 0 271 12 59
120 38 0 282 5 55
122 38 0 298 6 59
124 30 0 293 2 52
126 28 0 310 2 50
128 32 0 314 3 61
130 24 0 311 6 69
132 28 0 324 3 44
134 25 0 316 4 52
136 26 0 334 4 56
138 23 0 344 5 57
140 25 0 354 3 39
142 22 0 343 3 62
144 22 0 334 5 69
146 17 0 331 3 65
148 18 0 335 1 74
150 14 0 336 0 59
152 11 0 313 2 64
154 13 0 320 3 77
156 14 0 329 1 72
158 11 0 322 0 66
160 10 0 328 2 64
162 9 0 308 1 63
164 8 0 325 2 37
166 4 0 323 0 59
168 3 0 328 2 74
170 7 0 345 0 62
172 3 0 363 0 57
174 4 0 351 1 72
176 3 0 340 0 72
178 3 0 311 0 56
180 2 0 334 0 68
182 3 0 354 0 66
184 4 0 345 1 61
186 3 0 343 0 61
188 4 0 343 0 64
190 4 0 343 0 67
192 4 0 336 1 45
194 4 0 329 1 56
196 5 0 340 0 67
198 4 0 337 2 65
200 5 0 344 1 72
