0 1260 0 0 0 0
2 1192 9 0 73 0
4.00004 1206 3 0 80 0
6 1201 5 0 81 0
8 1212 9 0 87 0
10 1203 12 0 83 0
12 1231 5 0 74 0
14 1250 8 0 71 0
16 1273 10 0 54 0
18 1251 4 0 67 0
20 1222 8 0 78 0
22 1241 14 0 65 0
24 1211 7 0 82 0
26 1221 6 0 84 0
28 1200 14 0 74 0
30 1209 6 0 66 0
32 1239 11 0 62 0
34 1249 7 0 63 0
36 1225 8 0 80 0
38 1218 9 0 70 0
40 1247 3 0 69 0
42 1218 9 0 84 0
44 1242 6 0 73 0
46 1240 12 0 64 0
48 1230 10 0 80 0
50 1230 9 0 71 0
52 1074 0 174 69 3
54 989 0 280 65 6
56 883 0 376 71 12
58 809 0 452 59 16
60 752 0 523 48 23
62 691 0 580 48 25
64 632 0 613 51 35
66 590 0 656 51 32
68 557 0 691 37 31
70 503 1 760 40 25
72 458 0 783 31 38
74 426 0 816 42 23
76 407 0 854 42 44
78 376 0 878 28 41
80 343 0 901 33 40
82 334 0 919 27 45
84 309 0 928 23 55
86 296 0 961 29 40
88 288 0 960 8 51
90 241 0 965 15 53
92 233 0 1003 13 57
94 213 0 1031 16 62
96 200 0 1035 22 56
98 187 0 1050 18 64
100 180 0 1052 21 52
102 173 0 1087 7 62
104 162 0 1116 14 57
106 157 0 1129 11 57
108 138 0 1119 10 65
110 140 0 1113 12 55
112 127 0 1124 7 66
114 109 0 1163 7 54
116 102 0 1146 8 68
118 88 0 1170 7 73
120 86 0 1170 8 53
122 89 0 1185 9 62
124 79 0 1165 11 66
126 76 0 1169 11 62
128 66 0 1161 6 61
130 52 0 1205 6 65
132 48 0 1208 3 65
134 49 0 1202 6 67
136 41 0 1179 7 80
138 38 0 1201 3 63
140 30 0 1225 6 66
142 37 0 1236 3 70
144 36 0 1234 5 68
146 33 0 1214 5 73
148 34 0 1235 6 65
150 38 0 1236 4 75
152 29 0 1229 3 67
154 29 0 1204 1 65
156 23 0 1204 6 56
158 18 0 1202 4 57
160 16 0 1177 3 68
162 17 0 1189 3 80
164 19 0 1173 2 91
166 19 0 1212 0 76
168 18 0 1225 1 80
170 16 0 1237 1 76
172 12 0 1227 2 66
174 13 0 1209 0 70
176 7 0 1232 1 71
178 7 0 1246 3 66
180 8 0 1239 0 71
182 10 0 1233 0 83
184 7 0 1255 2 54
186 7 0 1230 0 67
188 7 0 1210 2 49
190 7 0 1231 1 54
192 7 0 1223 1 82
194 9 0 1220 0 69
196 8 0 1218 0 80
198 8 0 1231 0 74
200 7 0 1220 0 63
