0 1266 0 0 0 0
2 1095 10 0 93 0
4.00004 1076 4 0 86 0
6 1088 7 0 69 0
8 1073 7 0 74 0
10 1019 4 0 82 0
12 1034 2 0 81 0
14 1018 4 0 74 0
16 994 6 0 87 0
18 984 7 0 85 0
20 1019 6 0 76 0
22 1009 2 0 81 0
24 1027 6 0 87 0
26 1027 9 0 86 0
28 1027 7 0 79 0
30 1021 4 0 81 0
32 1019 6 0 95 0
34 1009 5 0 81 0
36 983 8 0 86 0
38 1001 2 0 95 0
40 980 10 0 85 0
42 989 3 0 78 0
44 986 7 0 72 0
46 1015 6 0 66 0
48 1002 8 0 71 0
50 1005 9 0 75 0
52 888 0 127 73 5
54 833 0 205 70 2
56 733 0 280 73 10
58 693 1 331 69 15
60 635 0 385 64 13
62 590 0 423 56 12
64 567 1 443 57 25
66 509 0 510 54 33
68 466 0 536 52 17
70 445 0 550 45 37
72 427 0 577 43 44
74 394 0 599 55 41
76 386 0 610 45 35
78 361 0 640 41 32
80 346 0 688 45 33
82 317 1 712 26 46
84 307 0 715 45 51
86 287 0 726 36 45
88 280 0 724 31 57
90 244 0 741 32 56
92 236 0 775 35 56
94 225 0 802 31 41
96 226 0 807 17 60
98 206 0 787 25 60
100 210 0 802 23 60
102 198 1 808 25 53
104 186 1 820 24 54
106 192 0 846 23 67
108 170 0 852 20 60
110 163 0 854 20 57
112 172 0 860 16 56
114 155 0 857 20 63
116 141 0 888 21 52
118 142 0 898 26 52
120 135 0 887 14 57
122 125 0 895 13 82
124 116 0 898 16 61
126 108 0 900 15 73
128 100 0 884 16 84
130 89 1 884 8 79
132 98 0 891 9 67
134 91 0 904 8 67
136 83 0 904 8 75
138 78 0 914 7 67
140 86 0 904 7 81
142 75 0 916 5 75
144 69 0 947 5 62
146 75 0 957 6 76
148 68 0 955 7 72
150 62 0 937 4 75
152 54 0 941 12 75
154 51 0 943 6 73
156 52 0 986 7 71
158 45 1 997 7 78
160 49 1 951 3 90
162 42 0 945 10 78
164 45 0 967 3 71
166 39 0 990 5 75
168 38 0 990 3 68
170 37 0 950 7 80
172 43 0 968 4 87
174 42 0 969 5 70
176 38 0 989 7 71
178 37 0 976 3 79
180 32 0 985 3 84
182 32 0 998 2 83
184 28 0 991 2 86
186 27 0 991 4 82
188 27 0 1005 2 68
190 26 0 977 1 81
192 28 0 999 1 86
194 16 0 1017 2 70
196 18 0 998 4 77
198 14 0 996 0 82
200 13 0 998 7 82
