0 456 0 0 0 0
2 411 0 0 90 0
4.00004 423 0 0 101 0
6 447 0 0 90 0
8 465 0 0 105 0
10 480 0 0 98 0
12 505 0 0 102 0
14 490 0 0 93 0
16 507 0 0 97 0
18 489 0 0 85 0
20 500 0 0 81 0
22 489 0 0 121 0
24 515 0 0 101 0
26 507 0 0 99 0
28 516 0 0 94 0
30 513 0 0 101 0
32 489 0 0 105 0
34 512 0 0 94 0
36 481 0 0 91 0
38 495 0 0 105 0
40 501 0 0 106 0
42 512 0 0 97 0
44 519 0 0 88 0
46 520 0 0 91 0
48 527 0 0 82 0
50 524 0 0 116 0
52 524 0 0 121 0
54 520 0 8 112 4
56 501 0 30 94 5
58 458 0 41 104 11
60 480 0 58 95 14
62 446 0 87 74 15
64 432 0 96 71 30
66 405 0 111 81 27
68 394 0 144 72 32
70 377 0 164 57 40
72 350 0 176 59 50
74 311 0 205 59 39
76 298 0 235 60 47
78 274 0 226 53 54
80 271 0 275 49 39
82 247 0 256 53 57
84 257 0 272 34 54
86 232 0 276 42 66
88 221 0 295 28 55
90 202 0 312 36 91
92 184 0 320 42 67
94 163 0 318 34 78
96 151 0 365 39 63
98 139 0 378 33 74
100 143 0 371 21 78
102 144 0 408 24 73
104 126 0 412 12 83
106 117 0 410 19 90
108 114 0 417 12 97
110 109 0 420 16 76
112 97 0 435 15 82
114 86 0 421 22 100
116 85 0 432 20 82
118 83 0 428 11 95
120 80 0 438 20 98
122 78 0 426 14 90
124 72 0 450 12 83
126 64 0 440 12 96
128 64 0 445 6 95
130 57 0 482 11 95
132 52 0 446 10 104
134 47 0 470 9 88
136 48 0 491 11 102
138 42 0 474 7 90
140 41 0 469 4 87
142 32 0 449 9 92
144 31 0 456 8 98
146 40 0 469 1 88
148 36 0 434 5 103
150 27 0 471 4 99
152 28 0 468 5 90
154 29 0 478 6 109
156 32 0 481 3 100
158 24 0 499 7 88
160 25 0 465 6 105
162 25 0 466 2 109
164 20 0 515 4 85
166 20 0 485 3 107
168 20 0 491 5 116
170 20 0 480 3 114
172 12 0 500 2 117
174 14 0 478 3 103
176 17 0 463 1 101
178 17 0 477 1 117
180 16 0 472 2 83
182 13 0 502 1 85
184 12 0 481 3 105
186 16 0 468 2 87
188 14 0 481 1 78
190 13 0 483 1 91
192 13 0 469 4 95
194 11 0 468 2 93
196 12 0 481 1 97
198 12 0 506 2 102
200 12 0 489 1 109
