0 33 0 0 0 42
2 29 0 2 0 41
4.00004 28 0 4 0 34
6 29 0 3 0 47
8 30 0 2 0 39
10 27 0 5 0 36
12 27 0 5 0 41
14 28 0 4 0 39
16 31 0 1 0 39
18 28 1 4 0 33
20 30 1 2 0 37
22 28 1 4 0 37
24 31 1 1 0 39
26 30 0 2 1 35
28 31 1 3 0 36
30 29 1 5 0 38
32 31 2 1 0 36
34 28 3 4 0 30
36 31 3 0 0 31
38 29 2 2 1 33
40 29 3 2 0 31
42 29 3 2 0 33
44 27 3 4 0 26
46 28 2 3 1 32
48 31 3 0 0 31
50 30 3 1 0 34
52 29 3 2 0 38
54 30 3 1 0 31
56 31 3 0 0 36
58 29 3 2 0 37
60 28 2 3 1 37
62 31 4 0 0 30
64 31 4 0 0 30
66 28 4 3 0 36
68 29 3 2 1 31
70 30 4 1 0 32
72 31 5 0 0 42
74 29 5 2 0 31
76 31 4 0 1 32
78 29 5 2 0 41
80 30 5 1 0 31
82 29 5 2 0 33
84 27 5 4 0 29
86 29 5 2 0 26
88 29 5 2 0 33
90 26 5 4 0 35
92 28 5 1 0 39
94 28 5 1 2 44
96 27 5 1 2 32
98 26 7 2 0 35
100 25 7 3 0 42
102 27 4 1 3 31
104 21 7 6 0 37
106 23 6 3 1 36
108 25 7 1 0 30
110 23 7 3 0 33
112 24 6 2 1 43
114 24 6 2 1 34
116 23 7 3 0 31
118 25 6 1 1 36
120 25 7 1 0 37
122 23 6 3 2 36
124 25 7 1 2 41
126 26 8 0 1 35
128 24 9 2 0 30
130 25 9 1 0 34
132 26 9 0 0 42
134 25 8 1 1 35
136 26 9 0 1 35
138 23 10 3 0 36
140 23 9 3 1 31
142 24 11 2 0 25
144 26 12 0 0 34
146 24 13 2 0 29
148 26 12 0 1 43
150 26 13 0 0 36
152 26 13 0 1 37
154 26 14 0 0 33
156 25 11 1 3 34
158 25 13 1 1 40
160 24 15 2 0 45
162 23 13 3 2 34
164 24 15 2 0 43
166 23 17 3 1 40
168 25 18 1 0 34
170 23 17 3 1 41
172 26 18 0 0 31
174 23 17 3 2 32
176 24 17 2 2 36
178 24 19 2 0 33
180 24 17 2 2 35
182 26 20 0 0 39
184 24 18 2 2 38
186 25 19 1 1 36
188 26 19 0 1 24
190 23 19 3 1 31
192 24 19 2 1 33
194 23 20 2 0 35
196 24 19 1 1 35
198 23 18 2 2 38
200 23 20 2 0 37
202 22 18 3 2 33
204 21 19 4 1 43
206 24 18 1 2 29
208 22 19 3 1 31
210 23 18 2 2 40
