0 31 0 0 0 31
2 30 0 1 0 32
4.00004 29 0 2 0 33
6 29 0 2 0 32
8 29 0 2 0 33
10 27 0 4 0 34
12 32 0 0 0 34
14 31 0 1 0 37
16 27 0 5 0 26
18 29 0 3 0 34
20 30 0 2 0 32
22 30 0 2 0 42
24 30 0 1 0 35
26 28 0 3 0 34
28 30 0 1 0 36
30 24 0 7 0 31
32 27 0 3 0 38
34 28 0 2 0 34
36 27 0 3 0 25
38 29 0 1 1 29
40 29 1 1 0 29
42 28 1 2 0 30
44 28 1 2 0 31
46 26 1 4 0 44
48 29 1 1 0 26
50 29 1 1 0 30
52 29 0 1 1 32
54 27 1 2 0 39
56 27 0 2 1 36
58 27 1 2 0 37
60 27 1 2 0 40
62 27 1 2 0 43
64 25 1 4 0 41
66 23 1 5 0 27
68 25 1 3 0 32
70 25 1 3 0 27
72 26 1 2 0 35
74 24 0 2 1 27
76 25 1 1 0 41
78 25 1 1 0 38
80 22 1 4 0 34
82 25 1 1 0 40
84 24 1 2 0 33
86 25 3 1 0 35
88 24 3 2 0 28
90 23 3 3 1 30
92 24 2 2 2 32
94 22 3 4 1 32
96 23 3 2 1 30
98 24 4 1 0 26
100 25 2 0 2 32
102 22 3 3 1 35
104 25 4 0 0 36
106 23 4 2 0 28
108 24 4 1 0 31
110 23 4 2 1 37
112 22 5 2 0 35
114 22 5 2 0 30
116 21 4 3 1 30
118 21 5 3 0 27
120 22 5 2 0 32
122 24 4 0 1 33
124 24 4 0 0 33
126 19 4 5 1 31
128 22 5 2 0 27
130 23 5 1 0 34
132 21 4 3 1 32
134 20 3 3 2 36
136 21 5 2 0 34
138 22 4 1 1 37
140 21 5 1 0 44
142 21 5 1 0 32
144 17 5 4 0 43
146 21 4 0 1 44
148 21 4 0 1 34
150 19 5 2 0 30
152 18 5 3 0 34
154 19 4 2 1 43
156 19 4 2 1 35
158 19 6 2 0 36
160 19 6 2 0 36
162 18 6 2 0 29
164 19 6 1 1 35
166 16 6 4 1 32
168 18 5 2 1 26
170 18 4 2 1 42
172 19 5 1 0 39
174 15 5 4 0 33
176 15 4 4 1 39
178 18 8 0 0 30
180 17 8 1 0 38
182 18 8 0 0 31
184 17 7 1 1 30
186 16 8 2 0 27
188 18 8 0 0 33
190 15 8 3 0 30
192 15 8 3 0 31
194 17 7 1 1 29
196 16 7 2 1 38
198 17 7 1 1 33
200 17 7 1 2 28
202 18 9 0 0 37
204 17 9 1 0 37
206 18 9 0 0 36
208 15 9 3 0 40
210 14 9 3 0 33
