0 41 0 0 0 30
2 38 0 3 0 38
4.00004 36 0 5 0 33
6 38 0 2 0 36
8 39 0 0 0 32
10 38 0 1 0 33
12 0 37 0 1 33
14 0 39 0 0 43
16 0 39 0 0 33
18 0 37 0 2 39
20 0 37 0 1 34
22 0 37 0 1 34
24 0 33 0 5 33
26 0 35 0 3 31
28 0 39 0 0 35
30 0 37 0 2 36
32 0 37 0 2 35
34 0 34 0 3 36
36 0 36 0 1 35
38 0 37 0 1 35
40 0 35 0 3 39
42 0 35 0 3 39
44 0 34 0 4 34
46 0 36 0 4 37
48 0 36 0 3 40
50 0 39 0 1 40
52 0 38 0 2 40
54 0 34 0 5 37
56 0 39 0 1 33
58 0 40 0 0 31
60 0 37 0 3 36
62 0 38 0 3 36
64 0 40 0 1 38
66 0 40 0 1 31
68 0 35 0 6 36
70 0 36 0 7 45
72 0 39 0 3 43
74 0 41 0 1 41
76 0 39 0 3 30
78 0 37 0 5 35
80 0 39 0 3 36
82 0 40 0 2 38
84 0 36 0 5 38
86 0 40 0 1 33
88 0 37 0 5 41
90 0 41 0 1 43
92 0 41 0 1 40
94 0 39 0 3 36
96 0 39 0 3 36
98 0 38 0 2 37
100 0 37 0 3 37
102 0 39 0 1 35
104 0 37 0 4 38
106 0 41 0 2 32
108 0 37 0 4 38
110 0 41 0 1 34
112 0 40 0 3 41
114 0 38 0 4 37
116 0 42 0 1 32
118 0 40 0 2 39
120 0 40 0 2 34
122 0 41 0 2 39
124 0 38 0 4 35
126 0 40 0 2 43
128 0 38 0 5 48
130 0 43 0 1 36
132 0 44 0 1 36
134 0 42 0 3 33
136 0 43 0 4 39
138 0 43 0 1 41
140 0 42 0 2 31
142 0 43 0 0 30
144 0 42 0 2 35
146 0 42 0 3 42
148 0 43 0 4 38
150 0 45 0 2 39
152 0 44 0 3 37
154 0 46 0 3 37
156 0 46 0 3 42
158 0 42 0 4 36
160 0 41 0 2 30
162 0 39 0 4 41
164 0 41 0 2 30
166 0 41 0 2 40
168 0 41 0 2 38
170 0 41 0 2 33
172 0 41 0 2 29
174 0 42 0 2 29
176 0 39 0 4 36
178 0 41 0 2 40
180 0 40 0 2 31
182 0 40 0 3 34
184 0 40 0 1 37
186 0 38 0 2 32
188 0 37 0 4 34
190 0 40 0 2 37
192 0 39 0 3 29
194 0 40 0 3 39
196 0 39 0 3 37
198 0 38 0 3 29
200 0 37 0 5 39
202 0 41 0 2 38
204 0 39 0 4 36
206 0 41 0 2 38
208 0 41 0 3 30
210 0 40 0 4 32
