0 21 0 0 0 29
2 18 0 3 0 39
4.00004 20 0 0 0 33
6 20 0 1 0 33
8 20 0 3 0 40
10 20 0 3 0 35
12 20 0 2 0 24
14 21 0 1 0 36
16 20 0 1 0 33
18 19 0 2 0 37
20 20 0 1 0 33
22 19 0 3 0 26
24 21 0 2 0 37
26 22 0 2 0 28
28 22 0 2 0 28
30 20 0 4 0 37
32 20 0 4 0 40
34 22 0 1 0 30
36 20 1 2 0 37
38 20 2 2 0 36
40 19 2 2 0 33
42 17 2 4 0 45
44 19 2 2 0 38
46 19 2 1 0 32
48 18 2 2 0 37
50 15 2 3 0 29
52 15 3 3 0 29
54 15 3 3 0 38
56 17 3 1 0 37
58 15 3 2 0 34
60 16 3 1 0 39
62 12 2 4 1 42
64 14 4 2 0 36
66 12 4 4 0 35
68 11 4 5 0 28
70 15 4 1 0 41
72 14 3 2 1 38
74 14 4 2 0 38
76 16 4 0 0 30
78 13 4 3 0 35
80 13 3 3 1 40
82 14 3 2 1 31
84 15 3 1 2 32
86 13 4 3 1 37
88 14 3 2 2 36
90 11 6 5 0 32
92 15 6 1 0 33
94 15 6 0 0 38
96 14 6 1 0 35
98 11 6 4 0 39
100 12 5 3 1 36
102 14 7 1 0 29
104 15 5 0 0 39
106 13 5 2 0 34
108 15 5 0 0 35
110 15 5 0 0 32
112 13 5 2 0 38
114 15 5 0 1 36
116 13 5 2 1 35
118 13 6 2 0 35
120 15 6 0 0 32
122 14 6 1 0 33
124 14 5 1 1 34
126 13 7 1 0 33
128 13 7 1 0 28
130 12 6 2 0 34
132 11 6 2 0 35
134 9 6 3 0 38
136 11 6 1 0 35
138 10 5 2 1 35
140 11 4 1 2 41
142 10 6 2 0 30
144 10 4 2 3 30
146 10 5 2 2 37
148 12 5 0 1 40
150 10 7 2 0 36
152 12 6 0 1 38
154 8 5 3 2 37
156 10 6 1 1 41
158 9 5 1 2 34
160 9 5 0 2 38
162 8 5 0 2 40
164 8 6 0 1 36
166 7 7 1 0 37
168 7 8 1 0 40
170 8 8 0 0 30
172 8 8 0 0 34
174 7 7 1 2 38
176 7 9 1 0 38
178 7 9 1 0 28
180 6 8 1 0 42
182 5 8 2 0 36
184 7 6 0 1 36
186 7 7 0 1 38
188 7 8 0 0 37
190 6 6 1 2 38
192 7 8 0 0 35
194 7 8 0 0 32
196 7 7 0 1 35
198 6 8 1 1 35
200 7 9 0 0 32
202 6 7 1 2 30
204 7 6 0 3 29
206 6 8 1 1 34
208 6 7 1 2 28
210 6 9 1 0 33
