0 44 0 0 0 32
2 40 0 3 0 43
4.00004 42 0 2 0 32
6 41 0 5 0 37
8 43 0 2 0 46
10 44 0 1 0 30
12 44 0 1 0 27
14 43 0 2 0 29
16 45 0 1 0 39
18 43 0 3 0 36
20 43 0 3 0 41
22 43 0 3 0 34
24 46 0 0 0 35
26 45 0 0 0 34
28 39 0 6 0 33
30 39 0 6 0 37
32 39 0 4 0 29
34 39 0 3 0 30
36 40 0 2 0 33
38 40 0 2 0 44
40 41 0 1 0 37
42 40 0 2 0 38
44 38 0 4 0 33
46 41 0 1 0 37
48 35 0 6 0 33
50 38 0 3 0 40
52 41 1 0 0 36
54 37 1 4 0 30
56 37 1 4 0 41
58 39 1 2 0 31
60 39 1 2 0 34
62 39 1 1 0 37
64 38 1 2 0 31
66 36 1 4 0 35
68 37 0 2 0 34
70 37 0 2 0 40
72 36 0 3 0 38
74 38 0 1 0 41
76 38 0 0 0 32
78 35 0 3 0 33
80 36 0 2 0 33
82 34 0 4 0 42
84 37 0 1 0 33
86 34 0 4 0 34
88 36 0 1 0 32
90 35 1 3 1 37
92 34 2 3 0 34
94 33 2 4 0 38
96 36 2 1 0 36
98 36 2 1 0 31
100 35 2 2 0 34
102 34 2 3 0 35
104 33 2 3 1 34
106 35 2 0 1 34
108 32 3 2 0 39
110 32 3 1 0 39
112 31 3 2 0 36
114 29 3 4 0 44
116 31 4 2 0 37
118 31 5 2 0 35
120 31 5 2 0 40
122 30 5 3 1 28
124 33 5 0 0 31
126 32 4 1 1 33
128 30 4 3 1 38
130 31 6 2 0 41
132 27 5 6 1 35
134 30 5 2 1 36
136 30 5 2 2 36
138 28 6 4 0 33
140 30 7 3 1 34
142 32 8 1 0 34
144 29 7 4 1 38
146 30 7 3 1 33
148 31 7 2 1 33
150 30 6 2 2 34
152 31 7 1 0 39
154 30 7 2 0 36
156 30 7 2 0 36
158 31 7 1 0 39
160 32 8 0 0 35
162 30 8 2 0 38
164 32 8 0 0 39
166 31 8 1 0 37
168 30 8 2 0 32
170 29 8 3 0 33
172 32 8 0 0 36
174 31 8 1 0 40
176 31 8 1 0 34
178 32 7 0 1 33
180 31 6 1 2 34
182 29 8 2 0 28
184 31 8 0 0 32
186 28 6 3 2 29
188 31 8 0 0 34
190 30 8 1 0 31
192 29 8 2 0 37
194 30 8 1 0 32
196 30 7 1 1 33
198 29 8 2 0 35
200 30 6 1 1 36
202 29 7 2 0 33
204 27 6 4 1 26
206 27 6 3 1 40
208 28 7 1 0 40
210 25 7 4 0 37
