0 104 0 0 0 34
2 101 0 0 0 35
4.00004 95 0 1 0 29
6 91 0 1 0 32
8 86 0 2 0 34
10 86 0 2 0 44
12 8 72 2 0 35
14 5 71 0 0 44
16 2 70 0 2 31
18 0 67 0 2 38
20 0 65 1 0 33
22 1 63 0 1 34
24 0 61 0 3 42
26 2 62 1 1 34
28 4 62 0 0 27
30 4 58 0 3 36
32 3 59 0 0 39
34 1 60 0 0 29
36 1 60 0 1 37
38 3 59 0 1 34
40 1 55 0 3 35
42 0 52 0 2 32
44 0 50 0 1 39
46 0 46 0 0 36
48 0 42 0 1 34
50 1 40 0 2 33
52 1 42 1 2 26
54 2 43 0 0 39
56 0 43 0 2 37
58 1 42 0 2 30
60 1 39 0 1 40
62 0 36 0 5 38
64 1 36 0 0 36
66 1 32 1 2 34
68 1 33 0 2 45
70 0 32 1 2 34
72 0 38 1 0 36
74 0 34 0 3 31
76 0 33 0 1 35
78 1 34 1 0 36
80 1 34 0 2 39
82 1 32 0 1 34
84 3 35 0 0 31
86 0 36 0 4 35
88 1 36 0 0 33
90 0 35 0 0 35
92 0 34 0 0 28
94 1 34 1 0 34
96 0 35 1 2 32
98 3 37 0 0 42
100 2 35 1 3 33
102 3 38 1 0 36
104 1 34 0 2 37
106 0 34 0 3 34
108 0 35 1 3 30
110 0 37 0 0 35
112 0 33 1 1 34
114 1 32 0 0 37
116 0 36 0 0 33
118 1 37 1 0 36
120 1 35 0 3 31
122 2 37 0 1 36
124 0 40 0 1 36
126 1 41 0 1 35
128 2 44 2 0 43
130 2 45 0 2 39
132 2 43 0 0 36
134 2 46 0 0 41
136 1 44 0 1 36
138 0 41 0 2 39
140 0 45 0 0 37
142 0 44 0 0 37
144 0 43 0 1 38
146 0 47 0 0 36
148 1 44 1 1 43
150 0 44 0 2 32
152 0 47 0 1 33
154 0 44 1 4 32
156 0 44 0 4 35
158 0 45 0 2 36
160 0 44 1 3 31
162 0 44 0 4 33
164 0 48 1 0 36
166 1 46 0 0 37
168 1 44 0 1 37
170 0 44 0 1 37
172 0 45 1 0 34
174 0 44 1 3 35
176 1 44 0 1 39
178 1 41 0 2 40
180 1 43 0 1 37
182 1 41 1 1 36
184 1 41 0 1 41
186 0 42 0 1 38
188 0 44 0 2 39
190 0 44 0 0 40
192 0 41 0 2 35
194 0 43 1 1 36
196 0 46 0 1 31
198 0 44 1 6 42
200 0 48 0 1 39
202 0 44 0 5 43
204 0 46 0 0 36
206 0 47 0 0 34
208 1 42 0 0 30
210 0 40 1 5 39
