0 1025 0 0 0 0 0
2 1025 0 0 3 0 0
4.00004 1032 0 0 2 0 0
6 1033 0 0 4 0 0
8 1036 0 0 1 0 0
10 1041 0 0 2 0 0
12 1040 0 0 3 0 0
14 1034 0 0 2 0 0
16 1039 0 0 1 0 0
18 1034 0 0 3 0 0
20 1032 0 0 2 0 0
22 1036 0 0 4 0 0
24 1039 0 0 4 0 0
26 1039 0 0 2 0 0
28 1045 0 0 2 0 0
30 1040 0 0 2 0 0
32 1041 0 0 3 0 0
34 1046 0 0 3 0 0
36 1055 0 0 1 0 0
38 1057 0 0 3 0 0
40 1059 0 0 1 0 0
42 1058 0 0 0 0 0
44 1053 0 0 5 0 0
46 1054 0 0 0 0 0
48 1054 0 0 1 0 0
50 1053 0 0 1 0 0
52 1050 0 2 1 2 0
54 1043 0 11 0 3 0
56 1034 0 20 0 0 0
58 1019 0 25 2 0 0
60 1009 0 33 5 1 0
62 1008 0 39 1 0 0
64 1001 0 45 1 3 0
66 995 0 52 1 0 0
68 984 0 60 2 2 0
70 981 0 70 0 0 0
72 970 0 77 4 3 0
74 965 0 86 1 2 0
76 959 0 98 3 2 0
78 950 0 105 2 2 0
80 946 0 112 1 1 0
82 936 0 119 4 0 0
84 933 0 123 2 0 0
86 926 0 123 1 1 0
88 921 0 129 1 0 0
90 912 0 139 1 0 0
92 906 0 144 3 0 0
94 899 0 149 0 0 0
96 888 0 153 3 0 0
98 880 0 157 1 1 0
100 874 0 165 0 1 0
102 866 0 169 3 1 0
104 858 0 175 3 0 0
106 850 0 183 0 1 0
108 844 0 191 1 1 0
110 839 0 197 1 0 0
112 829 0 202 4 2 0
114 827 0 208 1 1 0
116 820 0 216 2 2 0
118 816 0 219 0 2 0
120 807 0 222 2 1 0
122 801 0 226 2 2 0
124 799 0 227 1 2 0
126 792 0 235 3 1 0
128 789 0 243 1 0 0
130 786 0 245 2 0 0
132 780 0 247 0 0 0
134 776 0 257 0 1 0
136 770 0 262 1 0 0
138 762 0 262 0 2 0
140 757 0 269 2 0 0
142 754 0 272 2 2 0
144 748 0 282 1 2 0
146 745 0 286 0 0 0
148 738 0 285 2 1 0
150 737 0 292 1 1 0
152 734 0 304 0 2 0
154 730 0 302 0 2 0
156 723 0 310 1 1 0
158 721 0 318 0 1 0
160 714 0 322 0 0 0
162 709 0 327 0 0 0
164 707 0 332 1 4 0
166 698 0 340 4 2 0
168 697 0 344 2 1 0
170 695 0 352 1 0 0
172 685 0 356 2 2 0
174 676 0 360 4 1 0
176 673 0 365 2 2 0
178 667 0 371 2 0 0
180 665 0 375 1 0 0
182 653 0 380 4 1 0
184 649 0 393 4 1 0
186 647 0 400 1 0 0
188 643 0 397 1 2 0
190 637 0 404 0 0 0
192 631 0 405 0 2 0
194 628 0 408 0 1 0
196 620 0 414 1 1 0
198 618 0 420 1 2 0
200 610 0 427 0 2 0
