0 774 0 0 0 0 0
2 732 37 0 2 0 0
4.00004 710 50 0 8 0 0
6 719 55 0 0 0 0
8 734 41 0 6 0 0
10 727 50 0 3 0 0
12 735 50 0 1 0 0
14 736 48 0 2 0 0
16 729 50 0 3 0 0
18 741 44 0 2 0 0
20 746 43 0 0 0 0
22 746 37 0 1 0 0
24 730 53 0 3 0 0
26 735 46 0 1 0 0
28 732 50 0 3 0 0
30 739 40 0 3 0 0
32 729 50 0 1 0 0
34 730 51 0 1 0 0
36 741 43 0 3 0 0
38 735 44 0 3 0 0
40 734 42 0 5 0 0
42 732 50 0 2 0 0
44 723 57 0 4 0 0
46 739 43 0 4 0 0
48 730 51 0 2 0 0
50 736 47 0 3 0 0
52 458 0 327 0 2 0
54 346 0 441 0 1 0
56 270 0 522 0 1 0
58 206 0 580 0 2 0
60 156 0 632 2 0 0
62 122 0 669 1 0 0
64 89 1 700 0 1 0
66 73 0 720 0 0 0
68 56 0 731 0 1 0
70 48 0 741 0 0 0
72 31 0 755 0 1 0
74 24 0 764 2 1 0
76 20 0 770 1 1 0
78 12 0 778 1 2 0
80 8 0 785 1 1 0
82 11 0 785 0 1 0
84 9 0 791 0 2 0
86 4 0 790 0 5 0
88 4 0 795 0 1 0
90 3 0 792 0 0 0
92 0 0 786 1 1 0
94 5 0 781 0 4 0
96 4 0 787 1 4 0
98 3 0 788 0 5 0
100 2 1 788 0 1 0
102 3 0 785 2 1 0
104 2 0 790 0 0 0
106 3 0 787 0 1 0
108 1 0 778 0 1 0
110 3 0 774 1 2 0
112 2 0 779 1 2 0
114 2 0 786 1 0 0
116 4 0 786 0 4 0
118 0 0 782 1 2 0
120 2 0 778 0 1 0
122 1 0 777 0 2 0
124 1 0 771 0 0 0
126 1 0 771 0 2 0
128 3 0 779 0 2 0
130 4 0 770 3 2 0
132 5 0 772 0 2 0
134 4 0 775 0 2 0
136 3 0 780 0 2 0
138 1 0 780 0 0 0
140 1 0 783 1 2 0
142 0 0 784 0 2 0
144 0 0 785 0 0 0
146 2 0 780 0 4 0
148 1 0 778 0 2 0
150 0 0 782 0 2 0
152 5 0 771 0 1 0
154 0 0 774 1 1 0
156 2 0 775 0 1 0
158 1 0 765 1 1 0
160 3 0 767 0 0 0
162 2 0 762 0 6 0
164 0 0 760 0 1 0
166 7 0 764 1 0 0
168 6 0 770 0 1 0
170 2 0 769 1 6 0
172 4 0 769 0 1 0
174 1 0 762 1 2 0
176 5 0 758 0 1 0
178 0 1 765 0 2 0
180 1 0 762 1 0 0
182 1 0 757 1 0 0
184 0 0 758 1 1 0
186 0 0 759 0 2 0
188 3 0 750 0 2 0
190 0 0 753 0 1 0
192 4 0 750 0 0 0
194 1 0 753 2 5 0
196 1 0 760 1 2 0
198 4 0 764 0 3 0
200 0 0 765 1 1 0
