0 988 0 0 0 0 0
2 950 41 0 0 0 0
4.00004 954 34 0 1 0 0
6 962 25 0 0 0 0
8 947 40 0 2 0 0
10 945 39 0 2 0 0
12 945 41 0 0 0 0
14 949 38 0 0 0 0
16 938 45 0 0 0 0
18 945 41 0 2 0 0
20 962 29 0 1 0 0
22 963 34 0 4 0 0
24 959 41 0 2 0 0
26 952 43 0 4 0 0
28 965 31 0 1 0 0
30 950 46 0 3 0 0
32 953 43 0 3 0 0
34 944 47 0 0 0 0
36 948 38 0 1 0 0
38 944 41 0 2 0 0
40 941 43 0 2 0 0
42 946 36 0 1 0 0
44 949 33 0 1 0 0
46 940 40 0 0 0 0
48 927 49 0 3 0 0
50 931 44 0 3 0 0
52 677 0 295 2 0 0
54 544 1 427 0 0 0
56 440 0 529 0 0 0
58 358 0 611 0 0 0
60 309 0 655 0 0 0
62 245 0 718 0 0 0
64 201 0 759 1 1 0
66 174 0 788 1 0 0
68 143 0 822 2 0 0
70 114 1 851 0 0 0
72 103 0 860 2 1 0
74 94 0 867 0 3 0
76 79 0 882 0 1 0
78 71 0 887 1 1 0
80 58 0 897 0 2 0
82 51 0 905 2 1 0
84 49 0 911 0 2 0
86 37 0 923 0 2 0
88 34 0 929 1 1 0
90 31 0 931 0 0 0
92 24 0 938 0 5 0
94 23 0 936 0 0 0
96 21 0 937 0 1 0
98 18 0 946 2 0 0
100 14 0 943 0 1 0
102 18 0 943 1 3 0
104 18 0 943 2 0 0
106 13 0 945 0 1 0
108 15 0 940 0 2 0
110 19 0 943 0 2 0
112 15 0 946 0 1 0
114 19 0 949 0 0 0
116 16 0 955 1 2 0
118 14 0 954 1 1 0
120 15 0 951 2 1 0
122 18 0 946 1 3 0
124 14 0 945 1 0 0
126 18 0 948 0 0 0
128 15 0 943 0 3 0
130 14 0 940 0 2 0
132 14 0 937 0 1 0
134 17 0 935 1 1 0
136 13 1 936 0 1 0
138 10 0 937 0 3 0
140 15 0 940 0 0 0
142 12 0 934 0 2 0
144 13 0 929 2 3 0
146 11 0 935 1 1 0
148 8 0 934 0 1 0
150 9 0 933 0 2 0
152 10 0 929 0 1 0
154 6 0 929 0 2 0
156 10 0 927 1 2 0
158 14 0 916 1 6 0
160 11 0 926 0 2 0
162 11 0 922 0 2 0
164 12 0 919 0 3 0
166 12 0 912 2 2 0
168 14 0 909 1 2 0
170 14 0 910 0 1 0
172 7 0 915 0 0 0
174 8 0 916 0 1 0
176 11 0 915 0 3 0
178 10 0 917 1 2 0
180 11 0 914 2 1 0
182 13 0 909 0 3 0
184 13 0 909 1 1 0
186 11 0 911 2 1 0
188 11 0 917 0 0 0
190 9 0 918 1 0 0
192 8 0 917 0 0 0
194 7 0 920 0 0 0
196 10 0 922 0 2 0
198 13 0 921 0 2 0
200 17 0 919 0 1 0
