0 878 0 0 0 0 0
2 860 16 0 2 0 0
4.00004 855 25 0 2 0 0
6 862 23 0 0 0 0
8 862 26 0 1 0 0
10 865 27 0 1 0 0
12 871 20 0 0 0 0
14 865 21 0 1 0 0
16 863 24 0 1 0 0
18 856 27 0 3 0 0
20 851 30 0 1 0 0
22 857 19 0 3 0 0
24 852 24 0 3 0 0
26 854 22 0 2 0 0
28 850 25 0 2 0 0
30 855 27 0 1 0 0
32 854 25 0 1 0 0
34 843 35 0 0 0 0
36 861 17 0 1 0 0
38 865 17 0 1 0 0
40 854 27 0 0 0 0
42 854 31 0 1 0 0
44 866 19 0 0 0 0
46 866 25 0 0 0 0
48 863 24 0 1 0 0
50 868 22 0 2 0 0
52 638 0 249 0 2 0
54 512 0 371 2 1 0
56 413 0 472 1 0 0
58 343 0 550 0 2 0
60 286 0 606 1 3 0
62 250 0 642 1 1 0
64 207 0 684 0 0 0
66 178 0 716 0 0 0
68 150 0 743 0 1 0
70 124 0 763 2 4 0
72 107 0 776 1 4 0
74 95 0 796 0 1 0
76 88 1 805 0 0 0
78 78 0 818 1 1 0
80 70 0 829 1 0 0
82 64 0 843 0 1 0
84 55 0 852 0 0 0
86 44 0 863 0 3 0
88 36 0 871 0 2 0
90 31 0 875 0 0 0
92 23 0 882 0 0 0
94 18 0 884 0 1 0
96 17 0 884 0 2 0
98 16 1 883 0 0 0
100 14 0 886 0 1 0
102 10 0 892 0 0 0
104 16 0 885 0 1 0
106 12 0 885 0 1 0
108 11 0 886 1 1 0
110 12 0 892 1 0 0
112 12 0 891 0 0 0
114 11 0 891 0 0 0
116 6 0 893 0 0 0
118 4 0 895 0 1 0
120 7 0 894 0 1 0
122 5 0 897 0 1 0
124 5 0 898 0 1 0
126 7 0 898 1 0 0
128 7 0 900 2 0 0
130 11 0 899 0 1 0
132 1 1 901 1 1 0
134 5 0 894 0 3 0
136 5 0 895 0 0 0
138 11 0 896 0 1 0
140 8 0 896 2 0 0
142 9 0 898 0 0 0
144 9 0 899 2 2 0
146 10 0 904 0 0 0
148 9 0 907 0 0 0
150 5 0 908 0 0 0
152 5 0 904 0 1 0
154 8 0 902 0 1 0
156 9 0 896 1 3 0
158 7 0 898 1 2 0
160 2 0 903 0 2 0
162 1 0 901 0 3 0
164 1 0 892 0 0 0
166 2 0 891 0 0 0
168 4 0 885 0 2 0
170 6 0 883 0 0 0
172 8 0 883 1 0 0
174 7 0 885 0 2 0
176 8 0 885 0 1 0
178 7 0 888 0 1 0
180 7 0 890 0 1 0
182 8 0 885 3 2 0
184 14 0 883 0 0 0
186 16 0 884 0 0 0
188 7 0 886 1 1 0
190 3 0 887 1 0 0
192 3 0 887 1 1 0
194 6 0 885 0 1 0
196 2 0 882 1 1 0
198 4 0 884 0 0 0
200 3 0 882 0 1 0
