0 988 0 0 0 0 0
2 990 0 0 1 0 0
4.00004 993 0 0 0 0 0
6 992 0 0 0 0 0
8 996 0 0 1 0 0
10 994 0 0 1 0 0
12 998 0 0 1 0 0
14 997 0 0 7 0 0
16 1005 0 0 1 0 0
18 999 0 0 2 0 0
20 997 0 0 1 0 0
22 991 0 0 2 0 0
24 989 0 0 1 0 0
26 997 0 0 0 0 0
28 993 0 0 2 0 0
30 991 0 0 2 0 0
32 988 0 0 2 0 0
34 990 0 0 2 0 0
36 987 0 0 2 0 0
38 985 0 0 1 0 0
40 986 0 0 2 0 0
42 985 0 0 4 0 0
44 989 0 0 0 0 0
46 991 0 0 0 0 0
48 985 0 0 1 0 0
50 981 0 0 0 0 0
52 977 0 1 1 1 0
54 973 0 3 2 0 0
56 973 0 10 0 1 0
58 967 0 16 1 1 0
60 966 0 16 2 0 0
62 963 0 21 0 2 0
64 957 0 25 0 0 0
66 950 0 28 0 0 0
68 948 0 33 0 1 0
70 943 0 37 0 1 0
72 939 0 44 1 2 0
74 936 0 46 2 0 0
76 932 0 47 1 0 0
78 926 0 51 2 0 0
80 925 0 55 1 0 0
82 918 0 60 1 2 0
84 910 0 64 2 1 0
86 907 0 67 1 1 0
88 907 0 72 0 0 0
90 901 0 77 0 1 0
92 898 0 86 0 1 0
94 895 0 90 0 1 0
96 891 0 93 1 0 0
98 889 0 97 3 2 0
100 886 0 105 1 1 0
102 880 0 107 1 0 0
104 878 0 114 1 1 0
106 873 0 117 1 1 0
108 866 0 118 0 1 0
110 857 0 126 2 1 0
112 851 0 131 2 2 0
114 850 0 138 0 1 0
116 844 0 144 0 0 0
118 841 0 150 0 0 0
120 839 0 154 0 1 0
122 833 0 155 0 0 0
124 830 0 158 0 1 0
126 826 0 164 1 0 0
128 822 0 168 1 0 0
130 820 0 172 0 1 0
132 814 0 174 0 0 0
134 808 0 178 1 0 0
136 803 0 178 0 0 0
138 800 0 184 1 0 0
140 798 0 185 3 1 0
142 796 0 191 1 0 0
144 794 0 193 1 1 0
146 790 0 198 2 0 0
148 789 0 201 1 2 0
150 784 0 207 2 1 0
152 782 0 213 1 1 0
154 777 0 214 1 2 0
156 775 0 221 2 0 0
158 773 0 225 0 0 0
160 769 0 225 2 1 0
162 768 0 225 0 0 0
164 760 0 228 1 1 0
166 760 0 231 1 1 0
168 757 0 237 0 0 0
170 755 0 241 0 0 0
172 753 0 239 1 2 0
174 752 0 243 0 0 0
176 751 0 246 1 2 0
178 746 0 251 0 1 0
180 743 0 257 0 1 0
182 739 0 261 1 2 0
184 730 0 264 2 0 0
186 729 0 269 0 1 0
188 726 0 271 1 0 0
190 725 0 277 1 1 0
192 721 0 280 1 0 0
194 719 0 288 1 0 0
196 719 0 290 0 0 0
198 717 0 288 1 1 0
200 716 0 295 0 2 0
