0 859 0 0 0 0 0
2 817 38 0 2 0 0
4.00004 818 35 0 2 0 0
6 815 39 0 0 0 0
8 815 40 0 1 0 0
10 821 35 0 3 0 0
12 818 34 0 2 0 0
14 823 35 0 1 0 0
16 839 23 0 0 0 0
18 824 40 0 0 0 0
20 826 39 0 0 0 0
22 837 28 0 1 0 0
24 839 27 0 1 0 0
26 842 27 0 2 0 0
28 839 30 0 1 0 0
30 831 38 0 0 0 0
32 833 38 0 1 0 0
34 831 40 0 0 0 0
36 841 34 0 3 0 0
38 835 38 0 1 0 0
40 845 31 0 4 0 0
42 839 39 0 1 0 0
44 850 26 0 2 0 0
46 845 33 0 3 0 0
48 837 48 0 1 0 0
50 855 33 0 1 0 0
52 571 1 317 1 2 0
54 425 0 468 2 1 0
56 341 1 545 1 3 0
58 288 0 604 0 1 0
60 224 0 665 0 2 0
62 185 0 710 0 0 0
64 155 0 740 0 0 0
66 131 0 755 0 3 0
68 113 1 777 0 2 0
70 96 0 796 0 1 0
72 78 0 815 0 0 0
74 69 0 821 0 1 0
76 54 0 831 1 0 0
78 40 0 838 0 1 0
80 36 0 847 0 1 0
82 23 0 855 0 1 0
84 16 0 858 0 1 0
86 11 0 864 0 3 0
88 14 0 866 0 2 0
90 11 0 868 2 0 0
92 8 0 870 0 0 0
94 7 0 874 1 0 0
96 4 0 876 2 0 0
98 4 0 873 0 1 0
100 6 0 871 1 1 0
102 3 0 875 0 0 0
104 3 0 871 0 3 0
106 5 0 872 1 2 0
108 3 0 877 0 0 0
110 3 0 874 1 2 0
112 3 0 877 0 1 0
114 3 0 877 0 4 0
116 2 0 885 0 1 0
118 1 0 884 0 2 0
120 1 0 884 1 1 0
122 2 0 881 0 1 0
124 1 0 879 0 2 0
126 1 0 879 0 1 0
128 1 0 879 2 1 0
130 2 0 876 0 2 0
132 1 0 873 0 0 0
134 6 0 872 0 0 0
136 2 0 873 0 0 0
138 3 0 870 0 2 0
140 3 0 872 0 1 0
142 1 0 874 0 0 0
144 0 0 875 2 2 0
146 1 0 875 0 2 0
148 2 0 870 0 2 0
150 2 0 870 0 3 0
152 3 0 869 0 3 0
154 2 0 873 0 1 0
156 1 0 877 0 2 0
158 1 0 880 0 0 0
160 5 0 883 0 0 0
162 0 0 881 1 2 0
164 3 0 883 0 3 0
166 0 0 892 0 1 0
168 1 0 891 0 1 0
170 1 0 896 0 0 0
172 0 0 898 0 0 0
174 0 0 901 0 0 0
176 1 0 899 1 2 0
178 3 0 901 0 0 0
180 1 0 904 0 2 0
182 1 0 902 0 2 0
184 1 0 903 0 2 0
186 0 0 905 1 0 0
188 2 0 902 0 1 0
190 2 0 900 0 1 0
192 5 0 896 2 2 0
194 0 0 896 0 2 0
196 2 0 895 0 1 0
198 6 0 891 2 0 0
200 2 0 890 0 1 0
