0 1121 0 0 0 0
2 1076 8 0 33 0
4.00004 1080 15 0 37 0
6 1092 9 0 28 0
8 1086 6 0 40 0
10 1093 8 0 35 0
12 1101 8 0 37 0
14 1100 9 0 27 0
16 1098 6 0 31 0
18 1094 10 0 34 0
20 1097 9 0 36 0
22 1109 11 0 25 0
24 1092 15 0 27 0
26 1104 8 0 25 0
28 1104 8 0 23 0
30 1100 6 0 27 0
32 1096 8 0 26 0
34 1104 12 0 27 0
36 1110 4 0 24 0
38 1115 5 0 19 0
40 1104 8 0 24 0
42 1103 10 0 29 0
44 1107 12 0 29 0
46 1125 9 0 20 0
48 1122 5 0 18 0
50 1124 5 0 26 0
52 915 0 215 32 2
54 782 1 359 19 5
56 655 0 477 23 4
58 573 0 572 16 3
60 496 0 635 26 6
62 422 0 706 25 13
64 365 0 773 18 8
66 331 0 815 19 9
68 273 0 873 20 6
70 235 1 909 16 13
72 205 0 938 22 19
74 189 0 959 19 23
76 178 0 986 13 15
78 146 0 1007 18 14
80 137 0 1025 6 13
82 124 0 1035 17 21
84 105 0 1057 8 14
86 103 0 1063 13 17
88 88 0 1078 15 16
90 77 0 1078 7 21
92 64 0 1083 10 23
94 60 0 1095 7 16
96 53 0 1091 9 29
98 54 0 1096 7 25
100 50 0 1103 5 27
102 49 0 1108 8 18
104 57 0 1100 7 24
106 61 0 1109 6 20
108 56 0 1108 12 17
110 58 0 1092 7 32
112 53 0 1098 4 30
114 51 0 1108 8 18
116 53 0 1108 7 15
118 56 0 1092 7 32
120 42 1 1106 8 23
122 47 0 1105 8 21
124 46 0 1097 5 28
126 42 0 1100 5 25
128 37 0 1113 8 20
130 37 0 1116 7 20
132 40 0 1120 3 13
134 34 0 1113 7 22
136 34 0 1117 5 13
138 34 0 1114 8 19
140 30 0 1110 4 33
142 30 0 1116 1 22
144 24 0 1123 6 25
146 28 0 1113 5 30
148 26 0 1117 5 19
150 26 0 1106 7 25
152 29 0 1100 5 38
154 28 0 1108 8 26
156 31 0 1096 10 28
158 35 0 1099 5 27
160 35 0 1108 5 17
162 38 0 1107 1 20
164 33 0 1097 11 27
166 35 0 1100 2 23
168 28 0 1094 7 27
170 31 0 1094 3 33
172 34 0 1094 9 29
174 38 0 1104 6 17
176 38 0 1104 9 20
178 32 0 1105 11 19
180 38 0 1097 8 28
182 40 0 1099 8 28
184 42 0 1105 8 21
186 43 0 1099 7 26
188 45 0 1102 7 17
190 45 0 1098 4 27
192 43 0 1103 2 14
194 41 0 1089 6 27
196 37 0 1106 5 19
198 35 0 1107 5 18
200 32 0 1117 6 15
