0 896 0 0 0 0
2 857 0 0 38 0
4.00004 875 0 0 35 0
6 868 0 0 45 0
8 878 0 0 34 0
10 876 0 0 32 0
12 877 0 0 28 0
14 871 0 0 30 0
16 861 0 0 40 0
18 881 0 0 36 0
20 888 0 0 28 0
22 880 0 0 27 0
24 877 0 0 33 0
26 882 0 0 29 0
28 879 0 0 18 0
30 878 0 0 35 0
32 894 0 0 30 0
34 900 0 0 29 0
36 905 0 0 28 0
38 901 0 0 31 0
40 897 0 0 32 0
42 896 0 0 33 0
44 914 0 0 24 0
46 900 0 0 37 0
48 904 0 0 36 0
50 916 0 0 31 0
52 922 0 0 35 0
54 912 0 0 38 0
56 916 0 0 34 0
58 912 0 0 33 0
60 919 0 3 28 0
62 912 0 3 30 0
64 916 0 5 38 0
66 913 0 7 35 0
68 898 0 9 41 0
70 902 0 12 35 1
72 902 0 17 30 1
74 903 0 20 30 1
76 902 0 21 11 4
78 875 0 24 38 4
80 885 0 32 30 4
82 874 0 31 30 2
84 875 0 37 33 1
86 882 0 39 26 6
88 866 0 45 35 4
90 873 0 45 25 5
92 873 0 54 23 4
94 866 0 57 25 6
96 856 0 69 33 10
98 864 0 77 25 5
100 857 0 74 22 10
102 851 0 75 21 12
104 845 0 79 23 10
106 850 0 88 20 10
108 846 0 96 20 10
110 848 0 99 19 16
112 835 0 107 23 9
114 820 0 113 28 14
116 827 0 123 15 9
118 816 0 120 27 13
120 820 0 128 23 11
122 811 0 128 19 15
124 805 0 128 20 9
126 796 0 132 24 8
128 807 0 135 14 13
130 805 0 137 21 8
132 789 0 139 24 10
134 782 0 137 28 6
136 781 0 139 19 11
138 777 0 141 22 15
140 771 0 149 22 13
142 766 0 164 19 8
144 760 0 161 19 18
146 760 0 172 20 9
148 742 0 181 27 9
150 750 0 183 17 11
152 748 0 189 19 11
154 742 0 204 22 8
156 735 0 194 23 16
158 743 0 197 19 16
160 726 0 200 25 15
162 719 0 218 24 11
164 721 0 210 22 15
166 726 0 205 18 21
168 709 0 227 27 5
170 716 0 220 19 14
172 704 0 221 26 16
174 718 0 233 12 15
176 704 0 246 19 10
178 700 0 239 23 24
180 699 0 251 21 17
182 690 0 252 26 17
184 695 0 252 19 20
186 697 0 272 16 8
188 691 0 269 23 12
190 680 0 264 21 20
192 676 0 280 24 15
194 682 0 280 14 15
196 669 0 278 22 20
198 668 0 274 23 20
200 660 0 290 29 15
