0 1074 0 0 0 0
2 1033 2 0 40 0
4.00004 1048 2 0 23 0
6 1035 5 0 40 0
8 1042 5 0 25 0
10 1037 6 0 34 0
12 1033 3 0 41 0
14 1036 5 0 33 0
16 1037 1 0 37 0
18 1034 4 0 33 0
20 1026 6 0 40 0
22 1027 1 0 44 0
24 1041 6 0 29 0
26 1048 2 0 30 0
28 1039 9 0 35 0
30 1053 6 0 32 0
32 1051 6 0 32 0
34 1040 4 0 46 0
36 1053 10 0 39 0
38 1049 7 0 44 0
40 1057 7 0 31 0
42 1051 4 0 36 0
44 1063 2 0 29 0
46 1051 4 0 29 0
48 1047 4 0 36 0
50 1046 5 0 41 0
52 912 0 142 33 0
54 816 1 233 39 1
56 726 0 332 25 3
58 639 0 410 32 3
60 572 0 478 30 7
62 527 1 527 25 6
64 480 1 579 27 5
66 432 1 624 28 8
68 386 0 669 20 14
70 330 0 705 29 16
72 322 0 734 22 14
74 286 0 769 26 9
76 255 0 791 31 17
78 235 0 817 27 16
80 227 0 836 22 12
82 202 0 843 18 17
84 199 0 860 12 15
86 176 0 878 17 16
88 159 0 893 11 14
90 146 0 909 12 10
92 145 0 907 11 16
94 129 0 925 7 12
96 119 0 930 22 16
98 121 0 934 15 15
100 106 0 944 17 16
102 102 0 947 14 13
104 106 0 945 9 17
106 98 0 951 13 19
108 93 0 964 14 15
110 86 0 962 14 27
112 88 0 973 14 18
114 83 0 968 11 24
116 81 0 973 19 21
118 87 0 976 8 17
120 77 0 975 7 23
122 77 0 983 19 22
124 77 0 987 10 18
126 74 0 987 12 26
128 75 0 990 7 25
130 63 0 992 11 26
132 65 0 998 12 23
134 68 0 992 9 24
136 64 0 988 9 26
138 59 0 985 12 27
140 61 0 994 7 17
142 56 0 999 6 17
144 61 0 1002 3 25
146 63 0 977 6 40
148 58 0 995 9 30
150 68 0 999 8 26
152 59 0 1001 7 28
154 53 0 1001 3 24
156 46 0 1004 9 20
158 52 0 994 10 26
160 53 0 990 8 33
162 56 0 984 9 27
164 55 0 987 10 31
166 59 0 990 6 29
168 49 0 986 10 34
170 54 0 997 7 23
172 55 0 997 11 23
174 55 0 998 3 20
176 54 0 993 6 19
178 53 0 1006 6 19
180 49 0 992 9 24
182 47 0 1001 8 21
184 49 0 993 3 30
186 43 0 1006 8 21
188 40 0 1010 7 24
190 46 0 1005 8 26
192 42 0 1007 10 25
194 43 0 1011 10 19
196 41 0 1009 9 20
198 43 0 997 6 29
200 46 0 1000 4 24
