0 981 0 0 0 0
2 956 0 0 28 0
4.00004 957 0 0 24 0
6 947 0 0 34 0
8 950 0 0 29 0
10 945 0 0 39 0
12 952 0 0 27 0
14 952 0 0 34 0
16 934 0 0 44 0
18 952 0 0 28 0
20 949 0 0 22 0
22 958 0 0 30 0
24 966 0 0 25 0
26 965 0 0 28 0
28 966 0 0 25 0
30 957 0 0 35 0
32 965 0 0 26 0
34 946 0 0 46 0
36 965 0 0 31 0
38 950 0 0 40 0
40 963 0 0 27 0
42 961 0 0 30 0
44 946 0 0 38 0
46 954 0 0 29 0
48 969 0 0 29 0
50 963 0 0 38 0
52 963 0 0 32 0
54 966 0 0 33 0
56 957 0 0 39 0
58 960 0 0 39 0
60 969 0 0 33 0
62 955 0 0 44 0
64 973 0 3 35 0
66 978 0 6 28 1
68 976 0 8 41 0
70 965 0 9 36 2
72 966 0 14 29 4
74 963 0 19 35 2
76 966 0 18 28 3
78 967 0 26 32 1
80 964 0 30 32 1
82 959 0 33 34 2
84 947 0 30 32 5
86 946 0 30 31 1
88 940 0 39 37 3
90 932 0 41 30 3
92 927 0 40 33 6
94 921 0 43 29 5
96 928 0 46 23 3
98 927 0 51 27 1
100 933 0 49 19 5
102 915 0 56 38 5
104 929 0 62 26 2
106 931 0 64 20 9
108 919 0 69 28 4
110 919 0 65 22 7
112 910 0 73 32 6
114 901 0 71 30 11
116 904 0 70 24 12
118 900 0 80 24 7
120 896 0 86 25 5
122 884 0 94 29 2
124 888 0 101 30 4
126 888 0 102 26 3
128 881 0 98 24 8
130 879 0 99 25 5
132 880 0 104 27 11
134 878 0 108 22 6
136 868 0 110 27 4
138 867 0 113 23 2
140 856 0 124 36 5
142 862 0 119 25 7
144 845 0 121 30 8
146 833 0 122 30 8
148 834 0 130 22 3
150 831 0 126 27 12
152 819 0 138 26 6
154 827 0 142 19 7
156 816 0 141 25 12
158 806 0 149 26 7
160 807 0 152 24 9
162 804 0 160 20 7
164 795 0 160 30 10
166 795 0 167 27 13
168 796 0 171 21 12
170 797 0 162 19 11
172 794 0 170 18 14
174 789 0 176 21 11
176 771 0 171 27 16
178 766 0 175 21 12
180 766 0 188 25 11
182 770 0 193 20 12
184 763 0 202 26 9
186 770 0 208 13 10
188 760 0 210 17 17
190 749 0 212 21 13
192 751 0 225 21 10
194 756 0 223 22 13
196 761 0 228 14 12
198 753 0 227 15 14
200 747 0 246 24 7
