0 938 0 0 0 0
2 911 0 0 27 0
4.00004 902 0 0 28 0
6 900 0 0 34 0
8 910 0 0 18 0
10 923 0 0 21 0
12 916 0 0 22 0
14 912 0 0 20 0
16 904 0 0 26 0
18 900 0 0 30 0
20 904 0 0 26 0
22 888 0 0 33 0
24 902 0 0 20 0
26 895 0 0 22 0
28 893 0 0 23 0
30 884 0 0 30 0
32 892 0 0 30 0
34 897 0 0 24 0
36 891 0 0 27 0
38 892 0 0 26 0
40 893 0 0 19 0
42 901 0 0 18 0
44 901 0 0 18 0
46 904 0 0 17 0
48 904 0 0 20 0
50 897 0 0 21 0
52 898 0 0 24 0
54 900 0 0 19 0
56 893 0 0 22 0
58 891 0 0 21 0
60 891 0 0 25 0
62 889 0 0 25 0
64 886 0 1 25 0
66 891 0 3 23 0
68 893 0 2 21 1
70 904 0 3 17 0
72 893 0 6 23 1
74 894 0 8 19 1
76 899 0 7 19 1
78 897 0 9 20 0
80 891 0 10 19 0
82 896 0 9 14 2
84 887 0 15 21 2
86 882 0 17 19 2
88 880 0 19 20 2
90 872 0 23 22 1
92 863 0 25 26 2
94 858 0 25 32 2
96 873 0 26 14 2
98 871 0 29 20 5
100 857 0 29 27 9
102 859 0 30 27 8
104 856 0 37 21 8
106 852 0 38 19 6
108 853 0 46 14 2
110 848 0 39 21 3
112 844 0 46 21 5
114 839 0 51 15 2
116 832 0 59 16 6
118 835 0 51 11 9
120 830 0 58 10 6
122 825 0 65 18 6
124 824 0 66 13 7
126 820 0 69 13 7
128 818 0 69 12 7
130 810 0 68 14 5
132 802 0 65 17 10
134 799 0 75 22 7
136 806 0 79 8 2
138 794 0 72 21 6
140 799 0 73 17 5
142 796 0 79 17 2
144 788 0 81 21 7
146 789 0 89 10 4
148 779 0 91 18 3
150 779 0 92 12 8
152 782 0 99 8 9
154 773 0 104 16 7
156 766 0 111 22 4
158 773 0 113 15 6
160 775 0 115 11 11
162 771 0 116 16 11
164 772 0 116 13 7
166 764 0 121 19 5
168 769 0 127 16 6
170 771 0 129 10 9
172 762 0 131 17 5
174 764 0 135 8 6
176 756 0 130 17 10
178 760 0 136 12 12
180 751 0 143 16 7
182 749 0 145 11 9
184 745 0 149 14 5
186 739 0 154 15 6
188 739 0 159 17 7
190 742 0 164 13 6
192 745 0 160 12 11
194 745 0 163 12 7
196 735 0 168 15 4
198 733 0 170 16 9
200 735 0 169 10 8
