0 1204 0 0 0 0
2 1163 5 0 39 0
4.00004 1167 9 0 32 0
6 1172 8 0 32 0
8 1184 6 0 23 0
10 1182 6 0 28 0
12 1179 9 0 23 0
14 1177 7 0 28 0
16 1173 6 0 28 0
18 1180 8 0 24 0
20 1179 8 0 24 0
22 1182 7 0 21 0
24 1177 10 0 26 0
26 1187 7 0 24 0
28 1175 11 0 29 0
30 1190 5 0 23 0
32 1188 5 0 29 0
34 1195 9 0 16 0
36 1177 7 0 24 0
38 1182 9 0 18 0
40 1188 6 0 16 0
42 1193 4 0 16 0
44 1173 10 0 32 0
46 1172 9 0 31 0
48 1183 4 0 25 0
50 1176 5 0 31 0
52 980 0 201 25 0
54 834 0 339 29 2
56 731 1 451 25 4
58 622 0 559 24 5
60 520 0 656 22 7
62 469 0 714 26 7
64 425 0 769 16 8
66 368 0 825 18 7
68 320 0 875 11 9
70 273 0 915 12 11
72 230 0 953 14 15
74 193 0 983 9 20
76 171 0 1009 10 16
78 163 0 1021 6 21
80 133 0 1038 9 23
82 117 0 1054 8 25
84 102 0 1062 8 20
86 90 0 1082 7 17
88 74 0 1097 8 16
90 72 0 1098 7 23
92 67 0 1105 8 16
94 62 0 1116 8 13
96 59 0 1123 6 15
98 62 0 1125 9 20
100 53 0 1127 8 23
102 49 0 1137 8 17
104 40 0 1149 8 20
106 47 0 1152 3 15
108 44 0 1146 8 16
110 39 0 1142 9 24
112 45 0 1147 4 16
114 44 0 1145 7 19
116 44 0 1137 7 23
118 40 0 1137 10 29
120 44 0 1130 5 33
122 43 0 1151 4 16
124 38 0 1150 7 23
126 42 0 1139 3 25
128 39 0 1146 4 19
130 38 0 1151 5 19
132 37 0 1149 7 21
134 36 0 1144 8 22
136 43 0 1147 6 19
138 34 0 1149 10 18
140 32 0 1144 9 20
142 28 0 1156 6 17
144 26 0 1144 10 22
146 27 0 1143 7 21
148 35 0 1146 4 18
150 28 0 1139 8 23
152 36 0 1139 5 21
154 31 0 1139 7 20
156 37 0 1150 8 18
158 33 0 1138 12 27
160 34 0 1140 5 25
162 33 0 1149 4 19
164 31 0 1156 7 16
166 28 0 1150 3 25
168 30 0 1150 3 24
170 22 0 1155 5 21
172 25 0 1146 3 25
174 17 0 1154 6 19
176 20 0 1146 2 26
178 20 0 1143 0 26
180 17 0 1139 5 22
182 21 0 1146 4 20
184 22 0 1141 5 20
186 24 0 1139 2 21
188 26 0 1143 1 18
190 21 0 1135 6 22
192 22 0 1126 3 29
194 23 0 1139 3 21
196 23 0 1148 3 15
198 25 0 1134 4 28
200 29 0 1149 5 12
