0 931 0 0 0 0
2 886 0 0 39 0
4.00004 883 0 0 43 0
6 881 0 0 44 0
8 890 0 0 38 0
10 879 0 0 35 0
12 876 0 0 34 0
14 874 0 0 31 0
16 874 0 0 34 0
18 881 0 0 33 0
20 875 0 0 43 0
22 874 0 0 40 0
24 877 0 0 41 0
26 881 0 0 37 0
28 880 0 0 40 0
30 873 0 0 41 0
32 875 0 0 42 0
34 883 0 0 41 0
36 873 0 0 44 0
38 874 0 0 33 0
40 866 0 0 31 0
42 856 0 0 34 0
44 864 0 0 35 0
46 867 0 0 33 0
48 854 0 0 35 0
50 855 0 0 36 0
52 871 0 0 27 0
54 856 0 0 33 0
56 848 0 1 41 0
58 852 0 1 28 1
60 854 0 2 32 0
62 842 0 3 37 0
64 845 0 4 33 4
66 853 0 6 33 2
68 849 0 7 41 1
70 841 0 10 38 0
72 835 0 12 39 0
74 834 0 16 37 3
76 832 0 17 28 8
78 831 0 24 24 4
80 824 0 27 27 5
82 813 0 34 28 3
84 821 0 36 25 5
86 803 0 40 25 3
88 802 0 44 23 8
90 800 0 48 25 4
92 798 0 50 29 10
94 799 0 59 22 7
96 799 0 62 21 11
98 791 0 69 24 5
100 778 0 73 31 9
102 786 0 81 24 10
104 778 0 91 29 8
106 776 0 92 23 7
108 783 0 93 20 12
110 774 0 101 27 12
112 770 0 109 22 12
114 762 0 120 24 12
116 764 0 117 20 15
118 762 0 117 14 11
120 748 0 119 30 14
122 745 0 133 25 8
124 745 0 136 25 8
126 747 0 133 17 5
128 748 0 142 17 5
130 738 0 143 25 13
132 739 0 144 17 13
134 730 0 152 16 8
136 725 0 147 13 12
138 727 0 165 13 11
140 724 0 160 19 16
142 716 0 170 18 12
144 709 0 176 23 10
146 714 0 177 20 12
148 703 0 189 23 6
150 708 0 189 19 20
152 695 0 197 31 9
154 695 0 207 26 6
156 706 0 217 11 9
158 697 0 213 21 18
160 699 0 223 18 13
162 694 0 225 24 12
164 697 0 227 20 15
166 689 0 231 25 14
168 686 0 234 24 21
170 688 0 240 19 13
172 680 0 237 24 16
174 672 0 242 31 17
176 668 0 241 29 16
178 668 0 257 31 16
180 670 0 255 23 20
182 671 0 265 20 15
184 675 0 265 17 16
186 666 0 275 20 8
188 662 0 265 15 20
190 657 0 281 17 8
192 651 0 286 16 13
194 648 0 287 19 15
196 643 0 294 27 16
198 644 0 302 20 9
200 644 0 299 20 15
