0 994 0 0 0 0
2 980 0 0 15 0
4.00004 972 0 0 18 0
6 971 0 0 24 0
8 982 0 0 21 0
10 986 0 0 21 0
12 988 0 0 19 0
14 982 0 0 20 0
16 984 0 0 14 0
18 986 0 0 18 0
20 976 0 0 22 0
22 975 0 0 17 0
24 975 0 0 19 0
26 982 0 0 22 0
28 991 0 0 16 0
30 980 0 0 21 0
32 989 0 0 15 0
34 988 0 0 25 0
36 997 0 0 11 0
38 996 0 0 18 0
40 986 0 0 27 0
42 997 0 0 19 0
44 994 0 0 19 0
46 1000 0 0 20 0
48 1000 0 0 16 0
50 997 0 0 25 0
52 997 0 0 15 0
54 994 0 0 26 0
56 991 0 0 19 0
58 995 0 0 15 0
60 992 0 0 17 1
62 992 0 0 19 2
64 989 0 2 19 0
66 1001 0 5 9 0
68 999 0 6 16 1
70 1001 0 7 17 0
72 990 0 7 17 2
74 988 0 7 13 1
76 991 0 14 12 1
78 981 0 14 28 2
80 988 0 13 16 2
82 988 0 15 15 4
84 985 0 18 19 2
86 983 0 22 14 4
88 974 0 25 17 3
90 975 0 30 14 2
92 976 0 30 12 1
94 970 0 37 14 5
96 967 0 40 11 5
98 961 0 37 12 7
100 955 0 39 13 6
102 961 0 45 13 4
104 951 0 45 18 4
106 946 0 50 15 2
108 950 0 49 9 4
110 946 0 50 14 4
112 951 0 52 12 7
114 945 0 54 11 4
116 941 0 56 12 6
118 936 0 58 17 3
120 934 0 60 17 2
122 930 0 59 18 6
124 932 0 66 19 6
126 924 0 70 16 3
128 924 0 71 15 6
130 936 0 72 3 7
132 924 0 79 17 7
134 923 0 78 12 7
136 922 0 85 9 4
138 915 0 83 13 5
140 911 0 85 14 9
142 914 0 88 13 6
144 919 0 92 8 3
146 910 0 95 12 3
148 905 0 91 13 5
150 903 0 96 13 3
152 905 0 102 11 3
154 906 0 107 6 2
156 898 0 108 15 5
158 897 0 110 12 3
160 893 0 118 13 6
162 889 0 118 13 9
164 881 0 125 16 5
166 885 0 123 7 11
168 873 0 131 18 3
170 880 0 126 11 5
172 874 0 131 14 4
174 878 0 135 11 4
176 874 0 130 14 3
178 871 0 128 11 9
180 866 0 139 15 3
182 861 0 140 16 3
184 861 0 139 15 9
186 860 0 140 11 7
188 857 0 146 16 3
190 860 0 141 8 6
192 854 0 147 16 3
194 860 0 153 10 2
196 849 0 153 13 6
198 847 0 155 11 7
200 853 0 155 4 7
