0 58 0 0 0
2 58 0 0 0
4.00004 57 0 0 0
6 57 0 0 0
8 57 0 0 0
10 57 0 0 0
12 57 0 0 0
14 57 0 0 0
16 57 0 0 0
18 57 0 0 0
20 57 0 0 0
22 57 0 0 0
24 58 0 0 0
26 58 0 0 0
28 58 1 0 0
30 58 1 0 0
32 58 2 0 0
34 58 2 0 0
36 58 2 0 0
38 57 2 0 0
40 57 2 0 0
42 57 2 0 0
44 56 2 0 0
46 56 2 0 0
48 56 2 0 0
50 56 2 0 0
52 55 2 0 0
54 55 2 0 0
56 55 3 0 0
58 55 4 0 0
60 55 4 0 0
62 55 5 0 0
64 55 4 0 0
66 54 5 0 0
68 55 5 0 0
70 54 5 0 0
72 54 6 0 0
74 54 6 0 0
76 54 6 0 0
78 53 7 0 0
80 53 7 0 0
82 52 7 0 0
84 52 8 0 0
86 52 8 0 0
88 52 8 0 0
90 52 8 0 0
92 52 8 0 0
94 52 8 0 0
96 52 8 0 0
98 52 8 0 0
100 51 8 0 0
102 51 8 0 0
104 51 8 0 0
106 51 8 0 0
108 51 9 0 0
110 51 9 0 0
112 51 10 0 0
114 50 10 0 0
116 50 10 0 0
118 50 10 0 0
120 50 10 0 0
122 50 10 0 0
124 49 10 1 0
126 50 10 0 0
128 50 10 0 0
130 50 10 0 0
132 50 10 0 0
134 50 10 0 0
136 49 10 0 0
138 50 10 0 0
140 50 10 0 0
142 50 10 0 0
144 50 11 0 0
146 50 12 0 0
148 50 12 0 0
150 50 12 0 0
152 50 12 0 0
154 50 13 0 0
156 50 13 0 0
158 50 14 0 0
160 49 14 0 0
162 50 14 0 0
164 50 16 0 0
166 50 16 0 0
168 50 16 0 0
170 50 16 0 0
172 50 16 0 0
174 50 16 0 0
176 50 16 0 0
178 50 17 0 0
180 50 16 0 0
182 50 16 0 0
184 50 16 0 0
186 50 17 0 0
188 50 17 0 0
190 50 17 0 0
192 50 17 0 0
194 50 17 0 0
196 50 17 0 0
198 50 17 0 0
200 50 18 0 0
202 50 19 0 0
204 50 20 0 0
206 50 20 0 0
208 50 20 0 0
210 50 20 0 0
212 49 20 0 0
214 49 20 0 0
216 49 20 0 0
218 49 20 0 0
220 49 20 0 0
222 49 20 0 0
224 49 19 0 0
226 49 19 0 0
228 49 20 0 0
230 49 19 0 0
232 49 20 0 0
234 49 20 0 0
236 49 20 0 0
238 49 20 0 0
240 49 20 0 0
242 49 20 0 0
244 49 20 0 0
246 47 20 0 0
248 47 21 0 0
250 47 21 0 0
252 47 21 0 0
254 47 21 0 0
256 47 20 0 0
258 47 20 0 0
260 47 21 0 0
262 47 20 0 0
264 46 19 0 0
266 46 19 0 0
268 46 20 0 0
270 45 19 0 0
272 45 19 0 0
274 44 19 0 0
276 43 19 0 0
278 43 19 0 0
280 43 20 0 0
282 42 21 0 0
284 41 20 0 0
286 41 20 0 0
288 41 20 0 0
290 40 20 0 0
292 40 21 0 0
294 40 21 0 0
296 40 21 0 0
298 40 21 0 0
300 40 21 0 0
302 40 21 0 0
304 40 21 0 0
306 40 21 0 0
308 40 22 0 0
310 40 22 0 0
