0 74 0 0 0
2 74 0 0 0
4.00004 74 0 0 0
6 74 0 0 0
8 74 0 0 0
10 74 0 0 0
12 74 0 0 0
14 74 0 0 0
16 74 0 0 0
18 74 0 0 0
20 74 0 0 0
22 74 0 0 0
24 74 0 0 0
26 73 0 0 0
28 73 0 0 0
30 73 1 0 0
32 71 1 0 0
34 71 1 0 0
36 71 1 0 0
38 68 1 0 0
40 68 1 0 0
42 68 1 0 0
44 68 2 0 0
46 67 2 0 0
48 67 3 0 0
50 67 3 0 0
52 66 3 0 0
54 66 3 0 0
56 66 3 0 0
58 66 3 0 0
60 66 3 0 0
62 66 4 0 0
64 66 5 0 0
66 66 5 0 0
68 65 5 0 0
70 64 5 0 0
72 64 6 0 0
74 63 6 0 0
76 61 6 1 0
78 61 6 0 0
80 61 6 0 0
82 61 6 0 0
84 61 6 0 0
86 61 6 0 0
88 61 6 0 0
90 60 6 0 0
92 60 6 0 0
94 60 6 0 0
96 60 6 0 0
98 60 6 0 0
100 60 6 0 0
102 60 6 0 0
104 60 7 0 0
106 60 7 0 0
108 60 7 0 0
110 60 8 0 0
112 60 7 0 0
114 60 7 0 0
116 60 8 0 0
118 60 8 0 0
120 60 8 0 0
122 59 8 0 0
124 59 8 0 0
126 59 8 0 0
128 60 8 0 0
130 60 8 0 0
132 60 8 0 0
134 60 8 0 0
136 60 9 0 0
138 60 9 0 0
140 59 9 0 0
142 59 10 0 0
144 59 10 0 0
146 59 10 0 0
148 59 10 0 0
150 59 10 0 0
152 59 10 0 0
154 58 11 0 0
156 58 11 0 0
158 58 11 0 0
160 58 11 0 0
162 58 11 0 0
164 58 11 0 0
166 57 11 0 0
168 57 11 0 0
170 57 11 0 0
172 57 11 0 0
174 56 12 0 0
176 56 12 0 0
178 56 12 0 0
180 56 12 0 0
182 56 11 0 0
184 56 11 0 0
186 56 10 0 0
188 56 11 0 0
190 56 11 0 0
192 56 10 0 0
194 56 11 0 0
196 56 11 0 0
198 56 11 0 0
200 56 11 0 0
202 56 12 0 0
204 56 12 0 0
206 56 12 0 0
208 56 12 0 0
210 56 13 0 0
212 55 13 0 0
214 55 13 0 0
216 55 13 0 0
218 55 14 0 0
220 55 14 0 0
222 54 14 0 0
224 54 14 0 0
226 54 14 0 0
228 52 14 0 0
230 52 14 0 0
232 52 14 0 0
234 52 14 0 0
236 52 14 0 0
238 52 14 0 0
240 52 15 0 0
242 52 15 0 0
244 51 15 0 0
246 51 15 0 0
248 51 15 0 0
250 51 15 0 0
252 51 15 0 0
254 51 15 0 0
256 51 15 0 0
258 51 16 0 0
260 51 16 0 0
262 51 15 0 0
264 51 17 0 0
266 51 16 0 0
268 51 16 0 0
270 51 16 0 0
272 51 16 0 0
274 51 16 0 0
276 50 16 0 0
278 50 16 0 0
280 50 16 0 0
282 50 16 0 0
284 50 17 0 0
286 50 17 0 0
288 50 18 0 0
290 49 19 0 0
292 48 19 1 0
294 49 19 0 0
296 49 19 0 0
298 49 19 0 0
300 49 19 0 0
302 49 18 0 0
304 49 18 0 0
306 49 18 0 0
308 48 18 0 0
310 48 20 0 0
