0 73 0 0 0
2 73 0 0 0
4.00004 73 0 0 0
6 73 0 0 0
8 72 0 0 0
10 72 0 0 0
12 73 0 0 0
14 73 0 0 0
16 73 0 0 0
18 73 0 0 0
20 73 0 0 0
22 73 0 0 0
24 73 0 0 0
26 74 0 0 0
28 74 0 0 0
30 74 0 0 0
32 74 0 0 0
34 73 0 0 0
36 73 0 0 0
38 72 0 0 0
40 72 0 0 0
42 72 0 0 0
44 71 0 0 0
46 71 1 0 0
48 70 1 1 0
50 71 1 0 0
52 70 1 0 0
54 70 1 0 0
56 70 1 0 0
58 70 1 0 0
60 70 2 0 0
62 70 2 0 0
64 70 2 0 0
66 70 2 0 0
68 70 2 0 0
70 70 2 0 0
72 70 3 0 0
74 70 3 0 0
76 69 4 1 0
78 68 4 1 0
80 68 4 0 0
82 68 4 0 0
84 68 4 0 0
86 68 4 0 0
88 68 4 0 0
90 68 4 0 0
92 68 4 0 0
94 68 4 0 0
96 68 3 0 0
98 68 3 0 0
100 68 4 0 0
102 68 4 0 0
104 68 4 0 0
106 68 4 0 0
108 67 4 0 0
110 66 4 0 0
112 66 4 0 0
114 66 5 0 0
116 65 4 0 0
118 65 4 0 0
120 65 4 0 0
122 65 4 0 0
124 65 4 0 0
126 65 4 0 0
128 65 4 0 0
130 65 4 0 0
132 65 5 0 0
134 64 5 0 0
136 64 5 0 0
138 64 5 0 0
140 64 5 0 0
142 64 5 0 0
144 64 6 0 0
146 64 6 0 0
148 64 6 0 0
150 64 6 0 0
152 63 6 0 0
154 63 6 0 0
156 63 6 0 0
158 63 6 0 0
160 63 6 0 0
162 63 6 0 0
164 62 6 0 0
166 62 6 0 0
168 62 6 0 0
170 62 6 0 0
172 62 6 0 0
174 62 7 0 0
176 62 7 0 0
178 61 7 0 0
180 61 7 0 0
182 61 7 0 0
184 61 7 0 0
186 59 7 0 0
188 59 7 0 0
190 59 7 0 0
192 59 7 0 0
194 59 7 0 0
196 59 7 0 0
198 59 8 0 0
200 59 9 0 0
202 59 8 0 0
204 59 8 0 0
206 59 8 0 0
208 59 8 0 0
210 59 8 0 0
212 58 8 0 0
214 58 8 0 0
216 57 8 0 0
218 57 8 0 0
220 56 8 0 0
222 56 9 0 0
224 56 9 0 0
226 56 9 0 0
228 56 9 0 0
230 55 9 0 0
232 55 9 0 0
234 55 9 0 0
236 55 9 0 0
238 55 9 0 0
240 55 9 0 0
242 55 9 0 0
244 55 9 0 0
246 55 9 0 0
248 54 9 0 0
250 53 9 0 0
252 53 9 0 0
254 53 9 0 0
256 52 9 0 0
258 52 9 0 0
260 52 10 0 0
262 52 10 0 0
264 52 10 0 0
266 52 10 0 0
268 52 11 0 0
270 52 11 0 0
272 51 11 0 0
274 51 11 0 0
276 51 11 0 0
278 51 11 0 0
280 51 11 0 0
282 51 11 0 0
284 51 11 0 0
286 51 12 0 0
288 51 12 0 0
290 51 12 0 0
292 51 12 0 0
294 50 13 0 0
296 50 13 0 0
298 49 14 0 0
300 49 13 0 0
302 49 13 0 0
304 49 13 0 0
306 49 13 0 0
308 49 13 0 0
310 49 13 0 0
