0 84 0 0 0
2 84 0 0 0
4.00004 84 0 0 0
6 84 0 0 0
8 85 0 0 0
10 85 0 0 0
12 76 9 0 0
14 62 23 0 0
16 55 30 0 0
18 50 36 0 0
20 46 40 0 0
22 41 46 0 0
24 35 52 0 0
26 33 55 0 0
28 31 57 0 0
30 26 61 0 0
32 25 62 0 0
34 18 69 0 0
36 14 72 0 0
38 11 75 0 0
40 10 76 0 0
42 10 76 0 0
44 9 77 0 0
46 9 77 0 0
48 7 79 0 0
50 7 79 0 0
52 6 80 0 0
54 6 81 0 0
56 5 81 1 0
58 5 82 0 0
60 5 81 0 0
62 5 81 0 0
64 5 81 0 0
66 4 82 0 0
68 4 82 0 0
70 4 83 0 0
72 4 83 0 0
74 4 83 0 0
76 3 83 0 0
78 3 83 0 0
80 1 85 0 0
82 1 85 0 0
84 0 86 0 0
86 0 86 0 0
88 0 86 0 0
90 1 86 0 0
92 1 86 0 0
94 1 85 0 0
96 1 84 0 0
98 1 84 0 0
100 1 84 0 0
102 1 84 0 0
104 1 84 0 0
106 1 84 0 0
108 1 84 0 0
110 1 84 0 0
112 1 83 0 0
114 1 83 0 0
116 1 83 0 0
118 1 83 0 0
120 1 81 0 0
122 1 81 0 0
124 1 80 0 0
126 0 81 0 0
128 0 81 0 0
130 0 80 0 0
132 0 79 0 0
134 1 80 0 0
136 1 79 0 0
138 2 80 0 0
140 2 80 0 0
142 2 80 0 0
144 2 80 0 0
146 2 80 0 0
148 1 81 0 0
150 1 81 0 0
152 1 81 0 0
154 2 81 0 0
156 2 81 0 0
158 2 81 0 0
160 2 81 0 0
162 2 80 0 0
164 2 80 0 0
166 1 81 0 0
168 0 81 0 0
170 0 80 0 0
172 0 80 0 0
174 1 79 0 0
176 1 79 0 0
178 1 79 0 0
180 1 79 0 0
182 1 79 0 0
184 1 79 0 0
186 1 78 0 0
188 2 78 0 0
190 2 78 0 0
192 2 78 0 0
194 0 80 0 0
196 1 79 0 0
198 2 80 0 0
200 1 80 0 0
202 0 81 0 0
204 0 81 0 0
206 0 81 0 0
208 1 81 0 0
210 2 81 0 0
212 2 81 0 0
214 2 81 0 0
216 2 80 0 0
218 2 80 0 0
220 2 80 0 0
222 2 80 0 0
224 2 80 0 0
226 2 80 0 0
228 0 82 0 0
230 0 82 0 0
232 1 82 0 0
234 1 82 0 0
236 1 82 0 0
238 1 82 0 0
240 1 82 0 0
242 1 82 0 0
244 1 81 0 0
246 1 81 0 0
248 1 81 0 0
250 2 80 0 0
252 2 80 0 0
254 3 81 0 0
256 3 81 0 0
258 2 82 0 0
260 2 82 0 0
262 2 83 0 0
264 2 83 0 0
266 2 83 0 0
268 2 84 0 0
270 2 84 0 0
272 1 83 0 0
274 1 83 0 0
276 1 83 0 0
278 1 83 0 0
280 1 83 0 0
282 1 83 0 0
284 1 83 0 0
286 1 83 0 0
288 2 83 0 0
290 2 83 0 0
292 1 84 0 0
294 1 85 0 0
296 1 85 0 0
298 1 85 0 0
300 1 85 0 0
302 1 85 0 0
304 1 84 0 0
306 2 85 0 0
308 3 85 0 0
310 3 85 0 0
