0 63 0 0 0
2 63 0 0 0
4.00004 63 0 0 0
6 63 0 0 0
8 63 0 0 0
10 63 0 0 0
12 63 0 0 0
14 64 0 0 0
16 64 0 0 0
18 64 0 0 0
20 64 0 0 0
22 63 0 0 0
24 63 0 0 0
26 62 0 0 0
28 63 0 0 0
30 63 0 0 0
32 64 0 0 0
34 63 0 0 0
36 63 0 0 0
38 62 0 0 0
40 61 0 0 0
42 61 0 0 0
44 61 0 0 0
46 61 0 0 0
48 61 0 0 0
50 62 1 0 0
52 62 2 0 0
54 62 2 0 0
56 62 2 0 0
58 62 2 0 0
60 62 2 0 0
62 62 2 0 0
64 62 2 0 0
66 61 2 0 0
68 61 2 0 0
70 61 2 0 0
72 61 2 0 0
74 60 2 0 0
76 60 2 0 0
78 60 2 0 0
80 60 2 0 0
82 60 2 0 0
84 60 2 0 0
86 60 2 0 0
88 60 2 0 0
90 60 2 0 0
92 60 2 0 0
94 60 2 0 0
96 60 2 0 0
98 60 2 0 0
100 59 2 0 0
102 59 2 0 0
104 59 2 0 0
106 59 2 0 0
108 58 2 0 0
110 58 2 0 0
112 59 3 0 0
114 59 3 0 0
116 59 3 0 0
118 59 2 0 0
120 59 2 0 0
122 59 3 0 0
124 59 3 0 0
126 58 3 0 0
128 58 3 0 0
130 58 3 0 0
132 58 4 0 0
134 58 5 0 0
136 58 5 0 0
138 58 5 0 0
140 57 5 0 0
142 57 5 0 0
144 57 5 0 0
146 57 5 0 0
148 57 5 0 0
150 57 6 0 0
152 57 6 0 0
154 57 6 0 0
156 57 6 0 0
158 57 6 0 0
160 57 6 0 0
162 57 6 0 0
164 57 7 0 0
166 57 7 0 0
168 57 7 0 0
170 57 8 0 0
172 57 8 0 0
174 57 8 0 0
176 57 8 0 0
178 57 8 0 0
180 57 8 0 0
182 57 8 0 0
184 57 8 0 0
186 57 8 0 0
188 57 8 0 0
190 57 8 0 0
192 57 9 0 0
194 57 9 0 0
196 57 10 0 0
198 57 10 0 0
200 57 10 0 0
202 57 10 0 0
204 57 10 0 0
206 57 10 0 0
208 57 10 0 0
210 57 10 0 0
212 56 10 0 0
214 57 10 0 0
216 57 10 0 0
218 57 10 0 0
220 57 10 0 0
222 57 10 0 0
224 57 11 0 0
226 57 11 0 0
228 57 11 0 0
230 57 11 0 0
232 57 12 0 0
234 56 12 0 0
236 56 12 0 0
238 56 12 0 0
240 56 12 0 0
242 56 12 0 0
244 56 12 0 0
246 56 12 0 0
248 56 12 0 0
250 56 13 0 0
252 56 13 0 0
254 56 13 0 0
256 56 13 0 0
258 56 13 0 0
260 56 13 0 0
262 56 13 0 0
264 56 13 0 0
266 55 13 0 0
268 55 13 0 0
270 55 13 0 0
272 55 13 0 0
274 55 13 0 0
276 55 14 0 0
278 55 14 0 0
280 55 15 0 0
282 55 15 0 0
284 54 14 0 0
286 53 15 0 0
288 53 15 0 0
290 53 14 0 0
292 53 14 0 0
294 53 14 0 0
296 52 14 0 0
298 52 14 0 0
300 52 15 0 0
302 52 15 0 0
304 52 16 0 0
306 52 16 0 0
308 52 16 0 0
310 52 16 0 0
