0 1009 0 0 0 0
2 1003 0 0 2 0
4.00004 1008 0 0 3 0
6 1006 0 0 2 0
8 1013 0 0 2 0
10 1002 0 0 1 0
12 999 0 0 3 0
14 997 0 0 0 0
16 1003 0 0 2 0
18 996 0 0 0 0
20 991 0 0 2 0
22 991 0 0 0 0
24 990 0 0 2 0
26 983 0 0 4 0
28 981 0 0 3 0
30 976 0 0 3 0
32 971 0 0 1 0
34 970 0 0 3 0
36 982 0 0 0 0
38 981 0 0 1 0
40 972 0 0 7 0
42 973 0 0 1 0
44 975 0 0 1 0
46 975 0 0 3 0
48 979 0 0 4 0
50 978 0 0 4 0
52 978 0 0 4 0
54 969 0 0 5 0
56 973 0 1 1 0
58 971 0 4 4 1
60 974 0 7 1 2
62 965 0 15 0 0
64 953 0 21 5 1
66 945 0 22 1 0
68 940 0 32 0 2
70 931 0 41 2 0
72 927 0 52 2 0
74 911 0 62 1 1
76 910 0 69 3 1
78 901 0 75 2 3
80 893 0 90 4 1
82 885 0 101 1 1
84 875 0 113 1 0
86 861 0 121 1 1
88 856 0 126 1 1
90 848 0 133 1 0
92 842 0 145 1 0
94 838 0 151 1 1
96 827 0 167 4 0
98 825 0 173 0 2
100 817 0 184 2 1
102 811 0 188 3 2
104 800 0 200 0 5
106 783 0 215 3 0
108 766 0 221 1 2
110 749 0 228 2 1
112 737 0 236 2 1
114 733 0 245 0 0
116 723 0 242 1 2
118 717 0 246 0 1
120 703 0 259 0 2
122 695 0 274 2 2
124 685 0 276 1 1
126 680 0 282 3 0
128 674 0 283 1 4
130 663 0 293 0 0
132 657 0 295 0 2
134 649 0 306 1 2
136 636 0 312 1 1
138 629 0 316 3 0
140 621 0 320 0 1
142 612 0 326 2 2
144 605 0 328 3 0
146 600 0 332 1 4
148 595 0 341 1 1
150 586 0 348 0 3
152 567 0 362 3 2
154 561 0 367 2 0
156 552 0 371 0 1
158 548 0 379 0 1
160 539 0 386 2 3
162 534 0 388 4 2
164 528 0 399 0 2
166 521 0 411 1 2
168 514 0 417 1 2
170 508 0 416 0 3
172 499 0 435 0 0
174 490 0 439 3 3
176 487 0 444 3 3
178 488 0 456 1 3
180 483 0 472 0 0
182 473 0 470 3 0
184 467 0 478 1 0
186 460 0 481 0 0
188 453 0 484 3 2
190 446 0 494 3 2
192 448 0 502 0 3
194 440 0 515 1 1
196 435 0 505 1 4
198 430 0 515 2 0
200 427 0 522 0 2
