0 1067 0 0 0 0
2 1047 6 0 3 0
4.00004 1041 8 0 6 0
6 1038 9 0 1 0
8 1043 7 0 3 0
10 1046 6 0 4 0
12 1041 12 0 2 0
14 1047 10 0 3 0
16 1044 3 0 7 0
18 1045 1 0 3 0
20 1036 8 0 0 0
22 1021 8 0 7 0
24 1017 8 0 5 0
26 1014 6 0 0 0
28 1016 14 0 0 0
30 1024 8 0 2 0
32 1035 2 0 3 0
34 1026 7 0 0 0
36 1027 7 0 3 0
38 1027 3 0 1 0
40 1035 5 0 2 0
42 1019 10 0 2 0
44 1025 8 0 1 0
46 1022 5 0 2 0
48 1005 7 0 2 0
50 1013 9 0 2 0
52 868 1 154 1 0
54 730 1 284 5 0
56 643 1 373 5 1
58 585 1 435 2 0
60 529 0 490 1 0
62 463 1 551 0 0
64 402 0 605 3 0
66 368 0 637 3 1
68 334 0 669 1 0
70 284 0 714 1 0
72 252 0 746 3 1
74 233 0 764 1 0
76 213 0 784 3 1
78 195 0 804 1 3
80 182 0 816 1 1
82 164 0 825 0 2
84 160 0 828 1 0
86 140 0 836 3 1
88 131 0 844 2 1
90 136 0 843 3 4
92 131 0 854 0 1
94 131 0 855 3 2
96 123 0 859 3 1
98 126 0 861 1 0
100 115 0 860 0 3
102 115 0 862 1 2
104 107 0 874 0 4
106 100 0 882 0 0
108 101 0 886 0 2
110 94 0 875 0 5
112 91 0 876 0 2
114 89 0 877 0 1
116 99 0 874 0 1
118 90 0 874 0 2
120 81 0 876 1 3
122 82 0 885 1 2
124 90 0 889 1 1
126 90 0 893 1 2
128 85 0 895 0 2
130 82 0 905 0 3
132 76 0 897 0 5
134 83 0 902 0 1
136 78 0 901 2 1
138 75 0 899 0 4
140 69 0 911 1 2
142 65 0 918 1 2
144 65 0 907 1 2
146 66 0 907 0 2
148 64 0 901 1 2
150 69 0 906 0 2
152 67 0 909 1 1
154 67 0 901 1 4
156 65 1 901 1 3
158 63 0 897 0 2
160 63 0 898 1 2
162 67 1 902 0 1
164 68 0 900 0 1
166 63 0 907 1 5
168 70 0 912 0 2
170 73 0 907 1 2
172 72 0 910 0 1
174 68 0 912 1 1
176 69 0 909 0 1
178 65 0 912 1 1
180 70 0 901 0 3
182 67 0 912 1 2
184 60 0 916 0 2
186 56 0 922 0 2
188 52 0 925 0 4
190 54 0 922 1 3
192 59 0 917 0 2
194 57 0 916 0 0
196 50 0 916 0 1
198 49 0 918 1 3
200 51 0 921 0 2
