0 1071 0 0 0 0
2 1065 0 0 2 0
4.00004 1075 0 0 3 0
6 1079 0 0 2 0
8 1070 0 0 4 0
10 1080 0 0 1 0
12 1086 0 0 4 0
14 1077 0 0 5 0
16 1067 0 0 2 0
18 1073 0 0 2 0
20 1071 0 0 4 0
22 1067 0 0 5 0
24 1085 0 0 2 0
26 1088 0 0 1 0
28 1078 0 0 10 0
30 1076 0 0 7 0
32 1075 0 0 1 0
34 1076 0 0 3 0
36 1071 0 0 3 0
38 1069 0 0 5 0
40 1082 0 0 3 0
42 1079 0 0 2 0
44 1081 0 0 5 0
46 1081 0 0 1 0
48 1080 0 0 4 0
50 1070 0 0 5 0
52 1073 0 0 0 0
54 1069 0 0 4 0
56 1075 0 1 1 0
58 1072 0 2 4 0
60 1079 0 4 5 0
62 1070 0 7 1 2
64 1071 0 11 0 1
66 1066 0 15 4 0
68 1058 0 24 3 1
70 1054 0 30 4 0
72 1047 0 36 3 0
74 1034 0 36 5 2
76 1038 0 39 0 3
78 1025 0 44 4 1
80 1023 0 48 2 1
82 1008 0 51 1 1
84 1006 0 61 4 0
86 999 0 68 3 0
88 987 0 75 4 0
90 985 0 79 2 1
92 977 0 89 2 0
94 971 0 99 3 0
96 960 0 106 2 1
98 954 0 117 0 0
100 942 0 120 7 2
102 946 0 128 2 0
104 937 0 137 2 0
106 927 0 147 3 0
108 916 0 153 4 0
110 909 0 157 1 1
112 901 0 166 1 1
114 891 0 171 1 5
116 885 0 183 4 0
118 881 0 194 1 0
120 874 0 194 2 0
122 869 0 200 0 0
124 858 0 207 1 1
126 866 0 214 3 0
128 858 0 221 2 1
130 852 0 229 0 4
132 843 0 237 1 1
134 838 0 245 2 1
136 836 0 264 0 1
138 833 0 274 2 2
140 825 0 285 0 2
142 822 0 295 1 1
144 813 0 296 2 1
146 806 0 301 0 3
148 795 0 306 2 3
150 788 0 316 1 0
152 779 0 328 3 3
154 779 0 333 0 0
156 771 0 338 3 1
158 768 0 344 1 1
160 749 0 346 4 1
162 743 0 355 0 1
164 734 0 361 1 1
166 727 0 360 1 0
168 723 0 363 4 1
170 720 0 370 1 1
172 708 0 374 1 0
174 707 0 375 0 5
176 696 0 378 1 1
178 683 0 382 1 0
180 684 0 386 1 2
182 678 0 392 1 2
184 675 0 397 0 1
186 667 0 397 0 4
188 657 0 403 1 1
190 655 0 413 1 1
192 643 0 425 3 0
194 644 0 428 3 0
196 642 0 420 1 0
198 639 0 426 1 3
200 634 0 438 0 2
