0 907 0 0 0 0
2 902 0 0 7 0
4.00004 918 0 0 1 0
6 923 0 0 2 0
8 916 0 0 2 0
10 922 0 0 3 0
12 927 0 0 4 0
14 928 0 0 2 0
16 935 0 0 3 0
18 943 0 0 0 0
20 940 0 0 3 0
22 944 0 0 1 0
24 949 0 0 3 0
26 943 0 0 2 0
28 952 0 0 2 0
30 958 0 0 3 0
32 955 0 0 2 0
34 954 0 0 2 0
36 949 0 0 4 0
38 951 0 0 4 0
40 960 0 0 0 0
42 960 0 0 2 0
44 965 0 0 3 0
46 972 0 0 2 0
48 992 0 0 0 0
50 992 0 0 5 0
52 985 0 0 1 0
54 985 0 3 2 0
56 987 0 5 1 0
58 983 0 7 4 0
60 985 0 10 1 1
62 983 0 21 2 0
64 973 0 28 2 1
66 963 0 34 1 2
68 945 0 50 2 0
70 934 0 51 2 0
72 923 0 62 3 1
74 901 0 70 3 1
76 892 0 81 4 1
78 893 0 94 2 2
80 880 0 107 3 0
82 867 0 113 2 1
84 853 0 123 3 0
86 845 0 142 2 4
88 842 0 166 2 0
90 825 0 171 0 1
92 813 0 183 1 0
94 800 0 189 6 1
96 793 0 205 2 2
98 784 0 225 2 1
100 769 0 246 3 4
102 759 0 253 1 2
104 745 0 266 2 2
106 733 0 268 1 1
108 723 0 278 1 2
110 717 0 287 0 0
112 703 0 295 4 0
114 697 0 309 3 2
116 688 0 332 3 2
118 679 0 338 2 1
120 676 0 350 1 1
122 672 0 357 1 1
124 658 0 363 0 0
126 652 0 374 1 2
128 641 0 392 1 1
130 626 0 409 3 2
132 621 0 415 1 2
134 609 0 422 2 2
136 600 0 437 3 1
138 593 0 445 2 0
140 588 0 450 0 0
142 586 0 450 0 5
144 576 0 460 1 2
146 571 0 474 0 1
148 566 0 480 0 1
150 555 0 487 3 2
152 550 0 497 2 3
154 545 0 506 1 1
156 542 0 525 1 0
158 533 0 534 1 1
160 522 0 539 2 0
162 516 0 552 2 2
164 508 0 560 1 3
166 506 0 568 1 2
168 500 0 582 1 0
170 491 0 586 0 1
172 484 0 588 0 1
174 476 0 608 1 2
176 466 0 606 1 1
178 461 0 613 2 2
180 457 0 619 0 1
182 454 0 627 0 1
184 439 0 626 4 3
186 435 0 643 2 2
188 430 0 651 1 3
190 426 0 656 2 0
192 423 0 652 0 2
194 417 0 661 0 0
196 410 0 668 0 0
198 406 0 676 0 2
200 396 0 678 0 6
