0 1056 0 0 0 0
2 1047 0 0 1 0
4.00004 1043 0 0 1 0
6 1038 0 0 1 0
8 1037 0 0 2 0
10 1037 0 0 2 0
12 1035 0 0 3 0
14 1033 0 0 3 0
16 1030 0 0 0 0
18 1028 0 0 1 0
20 1022 0 0 2 0
22 1030 0 0 3 0
24 1024 0 0 0 0
26 1016 0 0 3 0
28 1016 0 0 3 0
30 1019 0 0 4 0
32 1018 0 0 5 0
34 1032 0 0 1 0
36 1030 0 0 1 0
38 1039 0 0 3 0
40 1039 0 0 3 0
42 1029 0 0 3 0
44 1028 0 0 3 0
46 1023 0 0 5 0
48 1019 0 0 3 0
50 1013 0 0 2 0
52 1006 0 0 3 0
54 1005 0 0 2 0
56 1003 0 1 0 0
58 1007 0 3 3 0
60 1002 0 5 2 0
62 1001 0 4 1 0
64 995 0 7 4 1
66 982 0 10 4 0
68 979 0 12 8 1
70 988 0 17 2 1
72 983 0 27 0 1
74 975 0 28 1 2
76 970 0 39 1 0
78 957 0 45 3 0
80 950 0 53 2 0
82 944 0 55 3 1
84 940 0 66 2 1
86 927 0 70 1 0
88 913 0 70 4 2
90 916 0 77 1 1
92 910 0 86 3 1
94 897 0 100 3 1
96 889 0 109 5 1
98 882 0 123 1 1
100 875 0 135 2 1
102 864 0 139 4 2
104 860 0 142 0 1
106 857 0 148 1 2
108 843 0 156 2 0
110 835 0 161 1 0
112 831 0 171 2 0
114 822 0 179 1 2
116 817 0 184 0 1
118 806 0 188 0 0
120 802 0 190 0 1
122 793 0 192 1 1
124 786 0 201 1 0
126 779 0 210 0 1
128 771 0 217 2 1
130 770 0 220 1 1
132 762 0 228 2 0
134 755 0 231 1 3
136 744 0 243 0 0
138 743 0 257 0 0
140 738 0 270 1 1
142 733 0 276 0 4
144 721 0 291 1 1
146 715 0 292 2 4
148 704 0 303 1 2
150 701 0 309 2 0
152 691 0 311 1 0
154 677 0 316 1 1
156 668 0 315 2 2
158 662 0 319 0 1
160 665 0 330 2 1
162 660 0 328 1 2
164 655 0 330 2 3
166 650 0 341 2 3
168 646 0 348 1 0
170 643 0 352 1 2
172 636 0 355 1 2
174 636 0 374 1 3
176 629 0 375 0 1
178 618 0 373 2 2
180 616 0 380 1 0
182 613 0 389 1 3
184 614 0 399 0 1
186 616 0 401 1 1
188 613 0 409 1 2
190 604 0 420 0 0
192 598 0 429 1 3
194 597 0 429 1 4
196 589 0 432 0 1
198 580 0 430 2 0
200 576 0 430 0 0
