0 936 0 0 0 0
2 941 0 0 1 0
4.00004 935 0 0 4 0
6 925 0 0 6 0
8 924 0 0 7 0
10 926 0 0 5 0
12 923 0 0 3 0
14 927 0 0 0 0
16 930 0 0 7 0
18 932 0 0 4 0
20 930 0 0 4 0
22 937 0 0 3 0
24 932 0 0 3 0
26 942 0 0 6 0
28 939 0 0 2 0
30 946 0 0 3 0
32 952 0 0 4 0
34 951 0 0 3 0
36 960 0 0 2 0
38 954 0 0 2 0
40 955 0 0 4 0
42 961 0 0 2 0
44 965 0 0 2 0
46 960 0 0 8 0
48 956 0 0 1 0
50 957 0 0 2 0
52 940 0 0 7 0
54 947 0 0 4 0
56 942 0 4 5 0
58 945 0 10 3 0
60 937 0 13 4 0
62 933 0 15 3 0
64 922 0 19 4 2
66 919 0 29 1 0
68 908 0 41 4 1
70 905 0 52 0 2
72 891 0 62 0 1
74 875 0 71 2 0
76 862 0 78 3 1
78 853 0 91 1 2
80 838 0 104 2 3
82 820 0 115 3 1
84 810 0 125 5 0
86 801 0 137 0 2
88 789 0 150 4 0
90 771 0 161 1 1
92 763 0 172 1 6
94 758 0 183 4 2
96 755 0 192 1 2
98 743 0 201 2 1
100 741 0 210 1 3
102 730 0 215 0 2
104 716 0 223 1 1
106 709 0 233 2 1
108 696 0 249 0 2
110 690 0 260 1 1
112 672 0 271 0 3
114 655 0 286 2 1
116 636 0 299 1 1
118 636 0 313 1 3
120 628 0 317 2 0
122 617 0 337 0 0
124 601 0 342 3 1
126 595 0 346 3 5
128 584 0 357 1 3
130 578 0 369 2 0
132 570 0 378 1 1
134 567 0 390 0 1
136 554 0 407 0 0
138 549 0 409 0 3
140 537 0 410 2 2
142 530 0 411 4 3
144 521 0 425 2 1
146 504 0 427 2 1
148 502 0 432 1 1
150 487 0 432 0 4
152 483 0 438 0 1
154 473 0 439 1 3
156 473 0 442 1 5
158 472 0 453 0 4
160 466 0 459 2 3
162 455 0 469 1 1
164 451 0 478 1 2
166 450 0 485 1 2
168 440 0 484 0 0
170 430 0 488 0 2
172 423 0 489 0 3
174 419 0 496 0 2
176 409 0 499 0 3
178 402 0 506 1 3
180 396 0 514 0 1
182 380 0 517 1 2
184 374 0 525 1 1
186 363 0 524 4 2
188 362 0 530 1 1
190 354 0 540 0 1
192 348 0 545 1 4
194 349 0 548 0 6
196 342 0 566 0 5
198 338 0 576 1 0
200 331 0 589 0 2
