0 1029 0 0 0 0
2 1026 3 0 4 0
4.00004 1019 2 0 1 0
6 1015 3 0 1 0
8 1021 4 0 1 0
10 1003 11 0 5 0
12 1001 7 0 2 0
14 1006 8 0 4 0
16 1024 4 0 3 0
18 1017 4 0 4 0
20 1016 6 0 3 0
22 1021 5 0 2 0
24 1003 8 0 2 0
26 1005 4 0 2 0
28 1006 5 0 1 0
30 1005 10 0 2 0
32 1014 5 0 5 0
34 1013 5 0 3 0
36 1015 8 0 3 0
38 1016 7 0 3 0
40 1007 6 0 2 0
42 1012 4 0 3 0
44 1004 9 0 1 0
46 1008 7 0 3 0
48 1002 11 0 3 0
50 1012 11 0 2 0
52 854 1 168 4 0
54 751 0 274 2 0
56 667 0 350 6 0
58 600 0 417 5 0
60 522 0 486 4 0
62 477 0 542 1 0
64 434 0 582 1 0
66 408 2 601 3 1
68 388 0 625 1 0
70 354 0 657 0 1
72 334 0 677 2 1
74 310 0 709 2 2
76 282 0 735 3 0
78 275 0 746 1 4
80 256 0 768 1 1
82 245 0 792 1 1
84 217 0 811 1 0
86 202 0 825 1 2
88 201 0 831 2 0
90 186 0 845 2 0
92 187 0 844 1 0
94 180 0 840 4 3
96 180 1 849 0 1
98 181 0 847 0 1
100 173 0 856 0 0
102 162 0 859 2 1
104 160 0 860 1 3
106 160 0 857 2 4
108 158 0 864 1 4
110 155 0 875 0 2
112 153 0 877 0 1
114 145 0 882 3 2
116 140 1 886 0 1
118 137 0 884 2 1
120 136 0 892 0 2
122 136 0 895 0 0
124 139 0 890 1 3
126 118 0 897 1 1
128 119 0 897 1 1
130 121 0 891 0 3
132 118 0 899 1 0
134 111 0 899 2 2
136 107 0 887 2 3
138 102 0 884 1 2
140 102 0 881 3 2
142 98 0 882 0 1
144 99 0 884 1 4
146 101 0 887 2 0
148 104 0 889 0 1
150 105 0 887 1 2
152 105 0 881 1 0
154 98 0 886 1 3
156 96 0 887 1 3
158 91 0 894 0 1
160 100 0 898 0 2
162 105 0 894 0 2
164 108 0 892 0 3
166 106 0 903 2 1
168 101 0 904 2 2
170 104 0 901 1 2
172 113 0 903 0 1
174 106 0 905 1 1
176 111 0 909 0 4
178 119 0 913 1 1
180 116 0 911 0 0
182 112 0 911 2 2
184 111 1 913 1 1
186 107 0 923 0 2
188 110 0 926 1 1
190 107 0 922 1 0
192 112 0 915 1 1
194 104 0 920 0 1
196 99 0 934 1 3
198 96 0 932 1 2
200 94 0 932 0 0
