0 919 0 0 0 0
2 918 0 0 1 0
4.00004 920 0 0 2 0
6 921 0 0 3 0
8 924 0 0 5 0
10 921 0 0 3 0
12 914 0 0 1 0
14 909 0 0 2 0
16 906 0 0 2 0
18 899 0 0 0 0
20 903 0 0 2 0
22 908 0 0 3 0
24 917 0 0 3 0
26 908 0 0 3 0
28 906 0 0 3 0
30 905 0 0 1 0
32 906 0 0 1 0
34 908 0 0 2 0
36 909 0 0 2 0
38 908 0 0 1 0
40 907 0 0 6 0
42 916 0 0 1 0
44 920 0 0 2 0
46 919 0 0 1 0
48 918 0 0 4 0
50 930 0 0 3 0
52 921 0 0 3 0
54 929 0 0 1 0
56 927 0 0 2 0
58 930 0 0 1 0
60 922 0 0 2 1
62 921 0 4 3 0
64 924 0 7 2 2
66 916 0 12 0 0
68 908 0 17 2 1
70 908 0 20 2 1
72 901 0 23 5 0
74 896 0 26 3 0
76 884 0 35 3 0
78 876 0 41 3 0
80 870 0 42 2 0
82 863 0 46 2 0
84 853 0 54 0 1
86 842 0 61 1 0
88 835 0 66 1 1
90 835 0 69 0 2
92 828 0 76 2 0
94 814 0 81 2 2
96 813 0 89 0 0
98 799 0 96 2 2
100 795 0 97 2 2
102 778 0 101 1 4
104 769 0 104 3 1
106 773 0 109 1 1
108 766 0 112 1 1
110 749 0 116 2 0
112 747 0 127 3 0
114 744 0 133 1 1
116 745 0 138 0 0
118 741 0 138 1 3
120 733 0 148 1 1
122 720 0 156 2 1
124 713 0 162 0 2
126 705 0 172 0 0
128 696 0 180 0 2
130 691 0 188 0 0
132 683 0 198 0 0
134 678 0 205 1 0
136 676 0 216 0 1
138 670 0 218 2 2
140 662 0 226 1 0
142 652 0 229 5 4
144 646 0 241 3 1
146 643 0 247 0 4
148 638 0 253 1 0
150 630 0 261 0 1
152 626 0 267 0 1
154 618 0 270 0 0
156 614 0 276 0 0
158 605 0 272 1 1
160 605 0 279 0 1
162 599 0 289 1 2
164 593 0 288 1 1
166 586 0 291 2 1
168 583 0 293 0 1
170 575 0 305 1 1
172 571 0 305 2 0
174 562 0 312 2 0
176 553 0 314 1 2
178 548 0 322 1 0
180 544 0 326 0 0
182 542 0 334 2 0
184 541 0 339 0 1
186 533 0 350 0 2
188 531 0 356 1 0
190 524 0 361 1 0
192 521 0 366 1 0
194 521 0 373 0 3
196 516 0 376 1 1
198 511 0 380 0 3
200 506 0 392 1 1
