0 916 0 0 0 0
2 926 0 0 0 0
4.00004 927 0 0 3 0
6 930 0 0 3 0
8 924 0 0 4 0
10 933 0 0 2 0
12 939 0 0 1 0
14 935 0 0 3 0
16 932 0 0 3 0
18 940 0 0 3 0
20 946 0 0 1 0
22 946 0 0 2 0
24 939 0 0 3 0
26 944 0 0 4 0
28 944 0 0 1 0
30 950 0 0 2 0
32 962 0 0 1 0
34 972 0 0 1 0
36 967 0 0 3 0
38 954 0 0 2 0
40 955 0 0 0 0
42 969 0 0 3 0
44 975 0 0 3 0
46 977 0 0 1 0
48 973 0 0 2 0
50 986 0 0 0 0
52 990 0 0 0 0
54 996 0 0 1 0
56 994 0 1 1 0
58 990 0 4 1 0
60 996 0 5 1 1
62 994 0 7 2 1
64 991 0 9 1 0
66 995 0 11 1 1
68 993 0 19 2 1
70 986 0 25 1 0
72 970 0 28 4 0
74 966 0 36 1 1
76 962 0 37 1 2
78 968 0 40 0 0
80 968 0 48 1 0
82 961 0 57 1 0
84 950 0 59 2 3
86 943 0 63 3 0
88 936 0 69 1 1
90 933 0 71 2 1
92 930 0 72 2 0
94 922 0 80 1 1
96 920 0 90 2 0
98 917 0 96 1 0
100 911 0 105 1 0
102 906 0 108 1 1
104 897 0 115 1 1
106 896 0 124 1 0
108 891 0 138 3 0
110 883 0 144 2 1
112 880 0 151 0 2
114 876 0 160 2 0
116 873 0 168 1 0
118 866 0 173 1 1
120 854 0 177 1 0
122 854 0 180 1 0
124 851 0 185 0 0
126 848 0 196 0 1
128 842 0 207 0 0
130 834 0 206 0 1
132 829 0 212 0 0
134 822 0 214 0 0
136 820 0 225 1 0
138 815 0 234 1 0
140 811 0 236 2 0
142 804 0 245 0 1
144 794 0 252 1 2
146 787 0 262 2 2
148 780 0 275 2 1
150 772 0 280 2 0
152 770 0 282 0 0
154 761 0 289 2 1
156 756 0 295 2 2
158 751 0 298 1 0
160 746 0 308 0 1
162 745 0 311 1 0
164 740 0 316 0 0
166 737 0 321 0 0
168 730 0 331 0 0
170 729 0 339 1 0
172 729 0 346 0 1
174 719 0 352 3 1
176 718 0 351 2 2
178 715 0 356 0 4
180 708 0 363 1 1
182 701 0 365 1 2
184 697 0 370 1 0
186 696 0 370 2 0
188 696 0 373 1 4
190 696 0 379 0 1
192 686 0 380 2 0
194 684 0 382 2 2
196 680 0 389 0 0
198 673 0 388 0 1
200 666 0 391 0 2
