0 870 0 0 0 0
2 873 0 0 4 0
4.00004 871 0 0 5 0
6 872 0 0 1 0
8 869 0 0 4 0
10 863 0 0 5 0
12 864 0 0 5 0
14 862 0 0 4 0
16 854 0 0 3 0
18 850 0 0 1 0
20 855 0 0 7 0
22 861 0 0 3 0
24 856 0 0 3 0
26 853 0 0 5 0
28 846 0 0 7 0
30 860 0 0 1 0
32 849 0 0 4 0
34 855 0 0 6 0
36 842 0 0 4 0
38 829 0 0 5 0
40 833 0 0 5 0
42 831 0 0 3 0
44 836 0 0 4 0
46 840 0 0 2 0
48 839 0 0 5 0
50 844 0 0 4 0
52 854 0 0 5 0
54 849 0 0 2 0
56 845 0 4 6 0
58 838 0 6 2 0
60 845 0 17 5 0
62 837 0 24 3 0
64 828 0 29 0 0
66 802 0 33 1 0
68 784 0 47 2 1
70 771 0 54 2 0
72 758 0 70 5 0
74 751 0 83 0 3
76 741 0 92 5 2
78 738 0 102 2 1
80 724 0 116 4 2
82 708 0 131 1 0
84 701 0 140 0 2
86 679 0 154 2 0
88 666 0 167 1 1
90 655 0 176 1 3
92 642 0 198 1 1
94 630 0 198 2 2
96 624 0 221 0 1
98 609 0 239 3 2
100 602 0 244 1 1
102 595 0 253 2 0
104 584 0 257 0 2
106 576 0 262 5 3
108 567 0 269 1 2
110 556 0 288 2 1
112 538 0 304 2 2
114 528 0 312 2 2
116 515 0 313 1 1
118 504 0 316 3 2
120 498 0 324 1 3
122 487 0 335 1 3
124 482 0 347 1 1
126 464 0 352 1 2
128 451 0 362 1 0
130 444 0 364 3 4
132 438 0 374 1 7
134 434 0 391 2 0
136 426 0 396 2 1
138 421 0 405 1 2
140 413 0 407 1 3
142 405 0 417 1 3
144 398 0 429 1 6
146 396 0 431 1 2
148 392 0 431 2 4
150 387 0 434 0 2
152 378 0 436 1 3
154 373 0 449 1 2
156 369 0 446 2 2
158 360 0 447 3 5
160 351 0 468 2 1
162 340 0 477 3 3
164 330 0 470 1 7
166 323 0 481 1 3
168 319 0 489 1 4
170 308 0 484 1 2
172 307 0 489 0 2
174 302 0 499 3 5
176 301 0 507 2 3
178 297 0 517 1 3
180 287 0 520 0 2
182 286 0 521 0 1
184 287 0 532 1 2
186 278 0 539 0 2
188 272 0 545 1 3
190 269 0 556 1 3
192 263 0 564 0 2
194 256 0 571 1 2
196 254 0 578 1 3
198 245 0 581 1 4
200 244 0 572 0 2
