0 94 0 0 0
2 95 0 0 0
4.00004 95 0 0 0
6 96 0 0 0
8 97 0 0 0
10 96 0 0 0
12 79 16 1 0
14 64 32 0 0
16 56 40 0 0
18 54 42 0 0
20 47 49 0 0
22 43 55 0 0
24 39 60 0 0
26 38 62 0 0
28 36 64 0 0
30 31 68 0 0
32 29 70 0 0
34 25 72 1 0
36 23 75 0 0
38 20 77 0 0
40 19 79 0 0
42 17 80 0 0
44 16 80 0 1
46 15 81 0 1
48 12 85 0 0
50 10 86 0 1
52 9 86 0 1
54 9 87 0 0
56 9 87 0 0
58 8 88 0 0
60 6 90 0 0
62 6 88 0 1
64 7 89 0 0
66 6 89 0 0
68 4 91 0 0
70 4 90 0 1
72 4 91 0 0
74 4 90 0 0
76 5 90 0 0
78 5 88 0 1
80 5 89 0 0
82 4 89 2 0
84 7 88 0 0
86 8 88 0 0
88 6 89 0 0
90 6 87 0 0
92 6 88 1 0
94 6 88 0 0
96 6 88 0 0
98 6 88 0 0
100 5 89 0 0
102 6 89 0 0
104 3 92 0 0
106 3 91 0 0
108 2 92 0 0
110 1 93 0 0
112 1 93 0 0
114 1 93 0 0
116 1 91 0 1
118 2 91 0 1
120 2 92 1 0
122 3 91 0 0
124 5 92 0 0
126 5 91 0 0
128 3 93 0 0
130 3 92 0 1
132 3 92 0 0
134 2 93 0 0
136 4 93 0 0
138 3 94 0 0
140 3 91 0 3
142 3 94 0 0
144 3 94 0 0
146 3 94 0 0
148 3 94 0 1
150 3 95 0 0
152 4 95 0 0
154 4 95 0 0
156 3 96 0 0
158 3 96 0 0
160 4 94 0 1
162 4 96 0 0
164 4 94 0 2
166 4 96 0 0
168 3 96 0 1
170 3 95 0 1
172 3 95 0 1
174 3 95 0 0
176 3 95 0 0
178 3 95 0 0
180 2 96 0 0
182 3 96 0 0
184 4 96 0 0
186 3 95 0 0
188 1 98 0 0
190 1 98 0 0
192 1 98 0 0
194 1 99 0 0
196 2 99 0 0
198 2 100 0 0
200 2 99 0 0
202 2 97 0 1
204 1 98 0 0
206 1 96 0 0
208 1 96 0 0
210 1 97 0 0
