0 35 0 0 0
2 36 0 1 0
4.00004 38 0 0 0
6 36 0 1 0
8 37 0 1 0
10 38 0 0 0
12 38 0 0 0
14 38 0 1 0
16 39 0 0 0
18 36 0 2 0
20 39 0 0 0
22 39 0 0 0
24 38 0 1 0
26 37 0 0 0
28 38 0 0 0
30 37 0 0 0
32 35 0 1 0
34 36 0 0 0
36 36 0 0 0
38 36 0 0 0
40 34 1 1 0
42 35 1 0 0
44 35 1 0 0
46 35 1 0 0
48 34 1 0 0
50 34 1 0 0
52 33 1 0 0
54 34 2 0 0
56 32 2 2 0
58 33 2 0 0
60 32 2 0 0
62 32 2 0 0
64 32 2 0 0
66 30 2 2 1
68 31 4 0 0
70 31 3 0 1
72 31 4 0 0
74 31 4 0 0
76 31 5 0 0
78 31 5 0 0
80 31 6 0 0
82 31 7 0 0
84 31 7 0 1
86 31 8 0 0
88 31 8 0 0
90 31 9 0 0
92 30 9 0 0
94 30 9 0 0
96 30 9 0 0
98 30 8 0 1
100 30 10 0 0
102 30 10 0 0
104 30 10 0 0
106 30 10 0 0
108 30 10 0 0
110 29 10 1 0
112 30 10 0 0
114 29 10 1 0
116 30 10 0 0
118 30 10 0 0
120 30 10 0 0
122 30 10 0 0
124 29 11 0 0
126 28 11 0 0
128 28 12 0 0
130 28 12 0 1
132 28 13 0 0
134 28 12 0 0
136 28 12 0 0
138 28 12 0 0
140 27 12 1 0
142 27 12 0 0
144 27 12 0 0
146 27 12 0 0
148 26 13 1 0
150 27 15 0 0
152 27 15 0 0
154 26 16 1 0
156 27 17 0 0
158 27 17 0 1
160 27 19 0 0
162 27 19 0 1
164 27 19 0 1
166 27 20 0 0
168 26 19 1 0
170 27 19 0 0
172 27 18 0 0
174 27 18 0 0
176 26 18 1 0
178 27 19 0 0
180 27 19 0 0
182 26 19 0 0
184 25 17 1 1
186 26 19 0 1
188 26 20 0 0
190 26 20 0 0
192 25 20 0 0
194 26 20 0 0
196 25 20 0 0
198 25 20 0 0
200 25 21 0 0
202 23 20 1 1
204 25 20 0 0
206 24 20 1 1
208 24 21 1 0
210 24 21 0 0
