0 38 0 0 0
2 37 0 1 0
4.00004 38 0 0 0
6 39 0 0 0
8 39 0 0 0
10 39 0 0 0
12 40 0 1 0
14 39 0 2 1
16 38 1 1 0
18 39 1 0 0
20 38 1 1 0
22 39 2 0 0
24 40 2 0 0
26 39 2 1 0
28 40 2 0 0
30 40 2 0 0
32 38 2 0 0
34 36 2 1 0
36 37 2 0 0
38 37 3 0 1
40 37 4 0 1
42 36 5 0 0
44 36 6 0 1
46 37 7 0 0
48 37 7 0 0
50 37 7 0 0
52 37 7 0 0
54 37 7 0 0
56 37 8 0 0
58 37 7 0 0
60 37 8 0 0
62 36 8 1 0
64 36 8 0 1
66 36 7 0 0
68 36 7 0 0
70 34 7 1 0
72 35 7 0 0
74 35 7 0 0
76 34 7 0 0
78 33 8 0 0
80 32 7 1 0
82 31 7 0 1
84 30 7 1 1
86 31 9 0 0
88 30 9 1 0
90 30 10 0 0
92 30 10 0 0
94 30 10 1 0
96 31 10 0 0
98 31 11 0 0
100 31 11 0 0
102 30 10 0 1
104 30 12 0 0
106 29 11 1 0
108 30 11 0 0
110 29 11 0 0
112 29 11 0 0
114 29 13 0 0
116 29 13 0 0
118 29 14 0 0
120 29 14 0 0
122 29 14 0 0
124 29 15 0 1
126 28 15 1 0
128 29 14 0 1
130 27 14 0 0
132 27 14 0 0
134 26 14 1 0
136 27 14 0 0
138 26 14 0 0
140 26 13 0 1
142 26 14 0 0
144 26 15 0 0
146 26 15 0 0
148 26 15 0 0
150 26 15 0 0
152 26 14 0 0
154 26 14 0 0
156 25 14 0 0
158 25 14 0 0
160 25 14 0 0
162 25 14 0 0
164 25 14 0 0
166 25 14 0 0
168 25 14 0 0
170 25 14 0 0
172 24 14 0 0
174 22 14 0 0
176 21 14 0 0
178 21 14 0 0
180 19 14 1 0
182 20 14 0 0
184 20 14 0 0
186 20 16 0 0
188 19 16 0 0
190 19 16 0 0
192 19 16 0 0
194 19 16 0 0
196 19 16 0 0
198 18 16 0 0
200 18 17 0 0
202 18 16 0 1
204 18 17 0 0
206 18 16 0 0
208 18 16 0 0
210 17 16 1 0
