0 29 0 0 0
2 31 0 0 0
4.00004 31 0 0 0
6 30 0 0 0
8 29 0 0 0
10 29 0 0 0
12 30 0 0 0
14 30 0 0 0
16 30 0 0 0
18 30 0 0 0
20 29 0 0 0
22 28 0 1 0
24 29 0 0 0
26 29 0 0 0
28 29 0 0 0
30 30 0 0 0
32 30 0 1 0
34 31 0 0 0
36 31 0 0 1
38 31 0 0 0
40 30 1 1 0
42 30 1 0 0
44 29 1 1 0
46 28 1 0 0
48 28 1 0 1
50 28 2 0 0
52 27 3 1 0
54 27 3 1 0
56 28 3 0 0
58 28 4 0 0
60 28 4 0 0
62 26 4 0 0
64 26 4 0 1
66 26 5 0 0
68 25 6 1 0
70 26 8 0 0
72 24 8 1 0
74 24 7 0 1
76 24 8 0 0
78 24 8 0 0
80 24 8 0 0
82 24 8 0 0
84 24 9 0 0
86 24 8 0 0
88 24 9 0 0
90 24 11 0 0
92 23 10 1 2
94 23 11 0 0
96 23 11 0 0
98 23 12 0 0
100 23 12 0 0
102 23 11 0 1
104 23 12 0 0
106 23 12 0 0
108 23 12 0 0
110 23 11 0 1
112 23 13 0 0
114 23 13 0 0
116 22 13 0 0
118 22 13 0 0
120 21 13 1 0
122 21 14 1 0
124 22 15 0 0
126 21 15 1 0
128 22 15 0 0
130 21 15 0 0
132 20 14 1 1
134 21 13 0 1
136 21 14 0 0
138 19 14 2 0
140 21 13 0 1
142 21 14 0 0
144 21 14 0 0
146 21 14 0 0
148 20 12 0 2
150 20 14 0 0
152 20 13 0 0
154 20 13 0 0
156 20 13 0 0
158 20 13 0 0
160 19 13 1 0
162 20 13 0 1
164 20 14 0 0
166 20 14 0 0
168 19 14 0 0
170 18 14 0 0
172 18 14 0 0
174 17 14 0 0
176 17 14 0 0
178 17 14 0 0
180 17 13 0 1
182 16 13 1 0
184 17 13 0 0
186 17 14 0 0
188 16 13 0 1
190 16 14 0 1
192 16 14 0 1
194 16 16 0 0
196 16 16 0 1
198 15 17 0 0
200 15 17 0 0
202 15 16 0 1
204 15 17 0 0
206 14 17 1 0
208 15 17 0 0
210 15 17 0 0
