0 56 0 0 0
2 54 0 1 0
4.00004 55 0 0 0
6 53 0 1 0
8 53 0 0 0
10 54 0 0 0
12 53 0 1 0
14 54 0 0 0
16 52 0 2 0
18 53 0 1 0
20 54 0 0 0
22 52 0 0 0
24 50 0 1 0
26 50 0 0 0
28 50 0 0 0
30 51 0 0 0
32 51 0 0 0
34 51 1 0 0
36 51 1 0 0
38 50 2 1 0
40 50 2 0 0
42 50 3 0 0
44 50 3 0 0
46 50 3 0 0
48 50 3 0 0
50 50 3 0 0
52 50 4 0 0
54 50 4 0 0
56 49 4 1 0
58 50 4 0 0
60 50 4 0 0
62 50 5 0 0
64 49 5 0 0
66 49 6 0 0
68 49 6 0 0
70 49 6 0 0
72 49 6 0 0
74 48 7 1 0
76 48 7 0 0
78 48 8 0 0
80 48 7 0 1
82 47 8 0 0
84 46 9 0 0
86 45 9 0 0
88 45 9 0 1
90 44 11 1 1
92 44 11 0 0
94 45 11 0 0
96 45 11 0 0
98 44 11 1 0
100 45 11 0 0
102 43 11 1 0
104 44 11 0 0
106 44 11 0 1
108 43 12 1 0
110 44 12 0 0
112 44 12 0 0
114 44 11 0 1
116 44 13 0 0
118 43 13 0 0
120 42 13 0 0
122 41 13 1 1
124 40 13 0 0
126 40 14 0 0
128 40 14 0 0
130 40 14 0 0
132 40 15 0 0
134 39 15 1 0
136 38 15 0 0
138 38 14 0 1
140 37 15 1 0
142 38 15 0 0
144 38 15 0 0
146 38 15 0 0
148 38 14 0 0
150 38 14 0 0
152 37 14 0 0
154 37 14 0 0
156 37 14 0 0
158 37 14 0 0
160 36 14 0 1
162 36 14 0 0
164 36 14 0 0
166 36 14 0 0
168 36 14 0 0
170 36 15 0 0
172 36 15 0 0
174 36 16 0 0
176 36 16 0 0
178 36 16 0 0
180 36 16 0 0
182 34 14 1 2
184 34 16 0 0
186 34 16 1 1
188 35 16 0 0
190 35 16 0 0
192 35 16 0 0
194 35 15 0 0
196 34 15 0 0
198 33 15 0 0
200 32 16 1 0
202 33 17 0 0
204 33 18 0 0
206 33 20 0 0
208 33 20 0 0
210 33 19 0 0
