0 44 0 0 0
2 43 0 1 0
4.00004 43 0 0 0
6 43 0 0 0
8 43 0 0 0
10 43 0 0 0
12 42 0 0 0
14 41 0 2 0
16 42 0 0 0
18 43 0 0 0
20 43 0 0 0
22 43 0 0 0
24 43 0 0 0
26 41 0 0 0
28 41 0 0 0
30 41 0 0 0
32 39 0 1 0
34 38 0 0 0
36 37 0 1 0
38 38 0 0 0
40 37 1 0 0
42 36 1 0 1
44 34 2 1 0
46 34 2 1 0
48 35 2 0 0
50 35 2 0 0
52 35 2 0 0
54 35 2 0 0
56 35 2 0 0
58 35 1 0 1
60 34 2 1 0
62 35 3 0 0
64 35 3 0 0
66 34 3 0 1
68 33 4 0 0
70 31 5 1 0
72 32 5 0 1
74 31 6 0 0
76 31 6 0 0
78 30 6 0 0
80 30 6 0 0
82 30 6 0 0
84 30 6 0 0
86 29 6 0 0
88 29 6 0 0
90 29 6 0 0
92 29 6 0 0
94 27 6 1 0
96 29 6 0 0
98 29 6 0 0
100 28 8 0 0
102 27 8 1 0
104 27 8 0 0
106 27 9 0 0
108 27 9 0 0
110 27 9 0 0
112 27 9 0 0
114 27 9 0 0
116 27 10 0 0
118 27 10 0 0
120 27 10 0 0
122 26 10 0 0
124 26 10 0 0
126 25 10 0 0
128 24 10 1 0
130 24 10 0 0
132 24 10 0 0
134 23 10 0 0
136 22 10 0 0
138 22 10 0 0
140 22 10 0 1
142 22 12 0 1
144 22 13 0 0
146 21 12 1 0
148 22 13 0 0
150 22 13 0 0
152 22 13 0 0
154 22 13 0 0
156 22 13 0 0
158 22 13 0 0
160 22 15 0 0
162 22 15 0 0
164 21 15 0 1
166 21 15 0 0
168 21 16 0 0
170 20 16 0 0
172 20 16 0 0
174 20 16 0 0
176 20 17 0 0
178 20 17 0 0
180 19 17 0 1
182 19 17 0 0
184 19 18 0 0
186 19 18 0 1
188 18 19 0 0
190 18 18 0 1
192 18 19 0 0
194 18 20 0 0
196 18 20 0 0
198 18 20 0 0
200 18 19 0 0
202 18 19 0 0
204 18 18 0 0
206 18 17 0 0
208 18 17 0 0
210 18 17 0 0
