0 96 0 0 0
2 97 0 0 0
4.00004 98 0 0 0
6 97 0 0 0
8 97 0 1 0
10 96 0 1 0
12 82 13 1 0
14 71 25 0 0
16 66 31 0 0
18 57 40 1 0
20 53 46 0 0
22 45 52 0 2
24 41 57 0 1
26 33 67 0 0
28 31 67 0 0
30 27 69 0 1
32 22 73 0 1
34 18 77 0 0
36 16 79 0 0
38 14 81 0 0
40 14 80 0 0
42 11 83 0 0
44 11 81 0 1
46 11 82 0 0
48 10 83 0 0
50 10 83 0 0
52 8 85 0 0
54 6 86 1 0
56 7 86 0 0
58 7 86 0 0
60 7 86 0 0
62 5 86 0 1
64 6 87 0 0
66 7 86 0 1
68 8 86 0 0
70 8 86 0 0
72 6 88 0 0
74 6 88 0 0
76 6 88 0 0
78 6 89 0 0
80 5 87 0 2
82 5 87 0 1
84 5 86 0 1
86 4 86 0 1
88 4 87 0 0
90 4 86 0 1
92 4 87 0 0
94 4 87 0 0
96 4 87 0 0
98 4 86 1 1
100 4 88 0 0
102 5 88 0 0
104 4 89 0 0
106 4 88 0 0
108 3 89 0 0
110 3 89 0 0
112 3 88 0 0
114 3 85 0 2
116 4 85 0 0
118 3 86 0 0
120 2 84 0 3
122 2 88 0 0
124 2 85 0 1
126 2 86 0 0
128 2 85 0 1
130 2 83 0 1
132 1 85 0 0
134 2 85 1 0
136 3 85 1 0
138 3 84 0 0
140 3 83 0 1
142 3 84 0 0
144 2 85 0 0
146 2 85 0 0
148 2 84 0 0
150 2 84 0 0
152 2 84 0 0
154 2 85 0 0
156 2 84 0 2
158 3 85 0 0
160 3 83 0 1
162 3 84 0 0
164 3 84 0 0
166 4 84 0 0
168 4 84 0 1
170 2 86 0 0
172 1 87 0 0
174 1 86 0 0
176 2 85 0 0
178 2 85 0 0
180 2 84 0 0
182 2 84 0 0
184 2 85 0 0
186 4 85 0 0
188 4 86 0 0
190 4 84 0 1
192 3 86 0 0
194 4 85 0 1
196 4 85 0 0
198 4 85 1 1
200 4 85 1 0
202 4 85 0 0
204 3 85 0 0
206 3 86 0 0
208 2 86 0 0
210 2 86 0 0
