0 1078 0 0
2 1078 0 4
4.00004 1079 0 5
6 1075 0 6
8 1074 0 1
10 1066 0 8
12 1081 0 3
14 1075 0 3
16 1069 0 6
18 1068 0 6
20 1059 0 6
22 1071 0 6
24 1064 0 9
26 1070 0 7
28 1072 0 5
30 1065 0 3
32 1062 0 8
34 1058 0 8
36 1059 0 5
38 1059 0 8
40 1065 0 7
42 1063 0 8
44 1074 0 4
46 1073 0 6
48 1077 0 4
50 1093 0 4
52 928 159 1
54 810 279 1
56 709 374 0
58 642 450 0
60 583 511 0
62 531 570 0
64 467 627 0
66 427 662 0
68 390 699 0
70 343 741 0
72 307 769 1
74 284 802 0
76 257 827 2
78 229 859 0
80 212 872 0
82 195 888 0
84 182 899 0
86 173 909 0
88 166 913 0
90 161 925 0
92 157 930 0
94 150 943 0
96 141 948 1
98 133 960 0
100 128 965 0
102 127 972 0
104 126 964 0
106 119 963 0
108 117 967 0
110 109 965 0
112 109 972 0
114 109 975 0
116 108 979 0
118 115 981 0
120 117 989 0
122 112 991 0
124 102 998 0
126 97 1004 0
128 99 1011 0
130 93 1013 0
132 90 1006 0
134 92 1010 0
136 93 1010 0
138 95 1010 0
140 87 1007 0
142 84 1003 0
144 80 999 0
146 74 1004 0
148 74 1006 0
150 72 1005 0
152 74 1006 0
154 77 1010 0
156 77 1008 0
158 69 997 0
160 68 995 0
162 70 993 0
164 68 1000 0
166 64 1003 0
168 67 996 0
170 65 998 0
172 62 999 0
174 61 994 0
176 58 995 0
178 66 996 0
180 67 1002 0
182 67 1014 0
184 72 1009 0
186 78 1007 0
188 78 1006 0
190 67 1015 0
192 68 1018 0
194 61 1029 0
196 64 1026 0
198 63 1024 0
200 65 1025 0
