0 927 0 0
2 921 0 0
4.00004 918 0 0
6 923 0 0
8 914 0 0
10 924 0 0
12 933 0 0
14 929 0 0
16 930 0 0
18 932 0 0
20 941 0 0
22 942 0 0
24 943 0 0
26 937 0 0
28 937 0 0
30 939 0 0
32 932 0 0
34 935 0 0
36 942 0 0
38 940 0 0
40 937 0 0
42 939 0 0
44 948 0 0
46 952 0 0
48 953 0 0
50 956 0 0
52 954 0 0
54 955 0 0
56 953 1 0
58 953 5 0
60 956 6 0
62 950 12 0
64 952 16 0
66 954 22 0
68 957 26 0
70 953 30 0
72 941 35 0
74 939 45 0
76 929 46 0
78 927 55 0
80 919 63 0
82 918 75 0
84 910 81 0
86 903 84 0
88 892 98 0
90 882 107 0
92 874 112 0
94 863 116 0
96 861 125 0
98 852 144 0
100 849 153 0
102 839 164 0
104 835 164 0
106 826 171 0
108 816 175 0
110 803 181 0
112 798 196 0
114 788 208 0
116 772 211 0
118 766 218 0
120 761 231 0
122 748 238 0
124 740 244 0
126 730 257 0
128 720 260 0
130 706 273 0
132 701 280 0
134 690 285 0
136 683 296 0
138 676 306 0
140 670 313 0
142 663 326 0
144 653 329 0
146 651 337 0
148 634 349 0
150 623 361 0
152 616 370 0
154 613 378 0
156 606 382 0
158 600 386 0
160 595 394 0
162 584 403 0
164 580 417 0
166 577 424 0
168 573 431 0
170 566 440 0
172 559 448 0
174 549 462 0
176 538 470 0
178 532 472 0
180 521 482 0
182 511 484 0
184 512 495 0
186 512 503 0
188 497 508 0
190 495 519 0
192 489 517 0
194 486 523 0
196 481 529 0
198 472 531 0
200 465 541 0
