0 997 0 0
2 989 0 0
4.00004 988 0 0
6 988 0 0
8 990 0 0
10 995 0 0
12 992 0 0
14 991 0 0
16 1005 0 0
18 1002 0 0
20 1003 0 0
22 1002 0 0
24 1005 0 0
26 1004 0 0
28 999 0 0
30 1005 0 0
32 997 0 0
34 1003 0 0
36 1001 0 0
38 1005 0 0
40 1003 0 0
42 1001 0 0
44 994 0 0
46 996 0 0
48 997 0 0
50 997 0 0
52 993 0 0
54 996 1 0
56 989 1 0
58 994 1 0
60 992 4 0
62 993 6 0
64 991 6 0
66 987 10 0
68 989 10 0
70 985 18 0
72 978 19 0
74 978 20 0
76 973 22 0
78 968 24 0
80 964 30 0
82 962 33 0
84 959 36 0
86 955 41 0
88 944 48 0
90 946 51 0
92 936 60 0
94 930 66 0
96 923 72 0
98 920 83 0
100 911 84 0
102 901 84 0
104 896 87 0
106 890 99 0
108 886 102 0
110 879 110 0
112 879 113 0
114 874 122 0
116 870 123 0
118 867 127 0
120 863 131 0
122 864 135 0
124 860 138 0
126 860 143 0
128 854 148 0
130 854 152 0
132 849 166 0
134 850 170 0
136 835 169 0
138 832 172 0
140 828 182 0
142 818 185 0
144 810 188 0
146 806 192 0
148 799 190 0
150 795 198 0
152 786 205 0
154 784 209 0
156 782 216 0
158 776 221 0
160 770 224 0
162 763 227 0
164 756 237 0
166 752 242 0
168 745 249 0
170 744 249 0
172 737 262 0
174 733 263 0
176 731 269 0
178 724 268 0
180 722 269 0
182 712 271 0
184 705 276 0
186 699 283 0
188 691 285 0
190 685 292 0
192 685 295 0
194 678 298 0
196 676 301 0
198 674 302 0
200 671 313 0
