0 994 0 0
2 999 0 0
4.00004 1002 0 0
6 999 0 0
8 1002 0 0
10 999 0 0
12 1001 0 0
14 1010 0 0
16 1005 0 0
18 1009 0 0
20 1021 0 0
22 1022 0 0
24 1029 0 0
26 1027 0 0
28 1032 0 0
30 1029 0 0
32 1037 0 0
34 1040 0 0
36 1034 0 0
38 1033 0 0
40 1032 0 0
42 1036 0 0
44 1039 0 0
46 1050 0 0
48 1052 0 0
50 1055 0 0
52 1062 0 0
54 1059 0 0
56 1050 1 0
58 1051 3 0
60 1051 4 0
62 1052 5 0
64 1047 8 0
66 1047 10 0
68 1041 10 0
70 1037 14 0
72 1031 22 0
74 1021 23 0
76 1020 29 0
78 1012 37 0
80 1013 39 0
82 1005 44 0
84 999 48 0
86 987 56 0
88 985 58 0
90 979 63 0
92 976 68 0
94 974 78 0
96 971 82 0
98 965 93 0
100 962 97 0
102 960 103 0
104 957 108 0
106 948 121 0
108 940 126 0
110 932 127 0
112 925 132 0
114 921 143 0
116 919 153 0
118 909 155 0
120 901 163 0
122 893 170 0
124 890 169 0
126 887 175 0
128 879 183 0
130 872 187 0
132 867 197 0
134 858 203 0
136 855 210 0
138 845 210 0
140 841 212 0
142 835 217 0
144 825 228 0
146 813 231 0
148 808 239 0
150 805 241 0
152 802 251 0
154 800 257 0
156 792 260 0
158 784 261 0
160 778 268 0
162 776 267 0
164 772 275 0
166 768 287 0
168 765 295 0
170 761 297 0
172 751 304 0
174 747 304 0
176 739 309 0
178 733 310 0
180 722 314 0
182 720 316 0
184 716 325 0
186 715 333 0
188 708 336 0
190 699 349 0
192 697 359 0
194 694 374 0
196 690 382 0
198 682 382 0
200 677 380 0
