0 970 0 0
2 976 0 0
4.00004 980 0 0
6 979 0 0
8 980 0 0
10 982 0 0
12 994 0 0
14 994 0 0
16 1003 0 0
18 1003 0 0
20 1008 0 0
22 1009 0 0
24 1007 0 0
26 1012 0 0
28 1022 0 0
30 1024 0 0
32 1022 0 0
34 1015 0 0
36 1010 0 0
38 1009 0 0
40 1010 0 0
42 1013 0 0
44 1018 0 0
46 1013 0 0
48 1019 0 0
50 1027 0 0
52 1026 0 0
54 1034 0 0
56 1040 0 0
58 1039 1 0
60 1043 3 0
62 1043 8 0
64 1036 11 0
66 1028 17 0
68 1012 29 0
70 1005 32 0
72 999 37 0
74 1001 46 0
76 995 51 0
78 989 57 0
80 980 70 0
82 974 79 0
84 967 88 0
86 954 99 0
88 952 107 0
90 942 114 0
92 933 123 0
94 928 129 0
96 914 141 0
98 905 147 0
100 893 156 0
102 887 164 0
104 878 173 0
106 867 174 0
108 860 182 0
110 854 196 0
112 849 205 0
114 845 213 0
116 841 222 0
118 826 231 0
120 822 245 0
122 808 250 0
124 802 258 0
126 796 261 0
128 788 275 0
130 788 278 0
132 777 276 0
134 770 282 0
136 764 295 0
138 759 301 0
140 750 318 0
142 746 326 0
144 738 328 0
146 723 339 0
148 711 344 0
150 707 350 0
152 700 352 0
154 699 354 0
156 691 351 0
158 684 356 0
160 692 366 0
162 684 370 0
164 677 375 0
166 664 380 0
168 657 396 0
170 651 402 0
172 647 406 0
174 645 403 0
176 641 414 0
178 635 420 0
180 624 428 0
182 617 429 0
184 610 438 0
186 605 442 0
188 599 444 0
190 588 454 0
192 582 465 0
194 579 473 0
196 568 475 0
198 568 474 0
200 567 475 0
