0 910 0 0
2 915 0 0
4.00004 911 0 0
6 907 0 0
8 903 0 0
10 907 0 0
12 912 0 0
14 916 0 0
16 919 0 0
18 913 0 0
20 909 0 0
22 920 0 0
24 925 0 0
26 918 0 0
28 912 0 0
30 899 0 0
32 900 0 0
34 899 0 0
36 901 0 0
38 909 0 0
40 904 0 0
42 899 0 0
44 905 0 0
46 908 0 0
48 912 0 0
50 910 0 0
52 912 0 0
54 907 0 0
56 913 1 0
58 908 2 0
60 914 6 0
62 905 10 0
64 895 15 0
66 896 22 0
68 887 25 0
70 876 35 0
72 860 42 0
74 859 43 0
76 854 52 0
78 847 55 0
80 841 66 0
82 836 75 0
84 825 77 0
86 816 83 0
88 809 94 0
90 806 100 0
92 802 109 0
94 796 122 0
96 793 134 0
98 783 135 0
100 772 142 0
102 770 151 0
104 758 151 0
106 748 157 0
108 747 168 0
110 738 180 0
112 735 186 0
114 727 198 0
116 726 195 0
118 720 203 0
120 708 208 0
122 698 210 0
124 688 220 0
126 682 230 0
128 679 229 0
130 672 235 0
132 669 247 0
134 664 257 0
136 654 261 0
138 652 265 0
140 646 274 0
142 641 284 0
144 637 289 0
146 632 296 0
148 622 302 0
150 615 310 0
152 607 320 0
154 606 321 0
156 599 333 0
158 585 337 0
160 577 345 0
162 569 349 0
164 564 356 0
166 558 373 0
168 556 379 0
170 548 385 0
172 549 383 0
174 546 392 0
176 538 396 0
178 530 402 0
180 528 407 0
182 525 405 0
184 524 411 0
186 512 419 0
188 514 429 0
190 509 435 0
192 507 436 0
194 502 438 0
196 496 440 0
198 490 454 0
200 484 454 0
