0 489 0 0 0 0 563
2 471 0 0 12 0 594
4.00004 462 0 0 19 0 597
6 458 0 0 16 0 600
8 456 0 0 18 0 618
10 445 0 0 26 0 590
12 447 0 0 14 0 591
14 434 0 0 16 0 594
16 430 0 0 12 0 614
18 427 0 0 8 0 610
20 416 0 0 11 0 604
22 404 0 0 18 0 603
24 399 0 0 14 0 607
26 391 0 0 17 0 575
28 392 0 0 17 0 596
30 385 0 0 24 0 592
32 386 0 0 22 0 592
34 399 0 0 14 0 608
36 396 0 0 20 0 601
38 393 0 0 14 0 600
40 392 0 0 11 0 590
42 394 0 0 7 0 598
44 391 0 0 12 0 593
46 380 0 0 16 0 603
48 385 0 0 9 0 596
50 369 0 0 19 0 625
52 370 0 0 17 0 605
54 372 0 3 15 1 610
56 368 0 3 15 1 599
58 374 0 6 8 0 610
60 363 0 6 12 0 617
62 363 0 10 11 1 608
64 356 0 21 11 3 593
66 353 0 22 12 4 609
68 343 0 25 13 1 605
70 344 0 35 11 0 607
72 331 0 35 10 3 613
74 323 0 45 14 1 594
76 322 0 46 9 3 607
78 314 0 52 11 7 595
80 311 0 59 5 3 610
82 306 0 66 6 1 602
84 296 0 67 13 3 609
86 291 0 74 6 5 606
88 277 0 80 10 4 585
90 262 0 87 12 4 580
92 254 0 91 11 5 604
94 249 0 100 9 0 604
96 242 0 103 6 3 607
98 232 0 108 8 6 614
100 229 0 111 13 3 603
102 227 0 119 8 6 598
104 217 0 120 8 4 612
106 212 0 121 7 6 598
108 206 0 126 5 4 605
110 206 0 129 4 8 598
112 192 0 140 11 4 618
114 193 0 138 6 9 582
116 196 0 143 2 10 608
118 185 0 152 9 8 611
120 181 0 164 13 6 596
122 180 0 161 9 8 590
124 178 0 169 8 7 587
126 171 0 169 8 9 588
128 167 0 185 6 5 608
130 160 0 190 7 9 599
132 161 0 190 4 11 595
134 158 0 197 4 9 599
136 152 0 203 3 7 596
138 146 0 214 3 4 603
140 146 0 219 0 7 585
142 136 0 222 7 6 620
144 135 0 227 2 14 598
146 131 0 232 1 16 605
148 127 0 247 1 10 594
150 122 0 249 2 11 611
152 117 0 250 3 5 573
154 116 0 249 2 9 588
156 116 0 256 1 2 609
158 112 0 243 3 9 615
160 111 0 245 2 11 599
162 104 0 251 3 4 604
164 101 0 251 2 5 613
166 97 0 239 5 10 599
168 93 0 248 3 7 609
170 90 0 237 3 11 602
172 88 0 245 2 8 588
174 86 0 248 3 14 610
176 84 0 252 4 17 615
178 79 0 264 4 4 599
180 78 0 260 3 8 596
182 73 0 254 5 12 600
184 74 0 259 3 12 606
186 71 0 260 2 15 594
188 71 0 260 0 14 603
190 70 0 266 0 13 609
192 65 0 265 3 15 608
194 65 0 266 2 10 614
196 64 0 272 2 8 623
198 57 0 275 5 9 576
200 60 0 273 0 9 598
