0 1249 0 0 0 0 591
2 1228 7 0 15 0 583
4.00004 1219 2 0 13 0 596
6 1202 6 0 11 0 603
8 1197 6 0 11 0 598
10 1177 12 0 16 0 594
12 1179 7 0 21 0 602
14 1189 3 0 16 0 602
16 1187 6 0 12 0 597
18 1167 12 0 16 0 615
20 1165 9 0 20 0 598
22 1177 6 0 14 0 629
24 1164 8 0 19 0 611
26 1161 6 0 16 0 604
28 1147 4 0 14 0 609
30 1136 10 0 18 0 597
32 1138 2 0 18 0 586
34 1133 6 0 13 0 597
36 1121 4 0 20 0 607
38 1098 7 0 19 0 607
40 1108 10 0 11 0 609
42 1107 6 0 10 0 606
44 1106 6 0 14 0 619
46 1094 5 0 17 0 583
48 1093 7 0 17 0 589
50 1098 8 0 13 0 610
52 941 0 165 18 0 596
54 842 0 269 11 2 587
56 748 0 358 13 3 589
58 672 0 428 7 5 592
60 597 0 491 6 5 587
62 534 0 557 5 7 597
64 487 0 601 11 9 589
66 436 0 647 13 5 593
68 402 0 674 11 6 618
70 371 0 715 3 10 608
72 341 0 740 4 8 599
74 309 0 761 7 11 615
76 287 0 776 5 10 604
78 272 0 799 3 11 599
80 246 0 824 4 10 599
82 238 0 830 5 14 614
84 227 0 849 3 10 597
86 215 0 859 4 13 595
88 194 0 874 4 7 604
90 182 0 882 4 12 585
92 164 0 897 6 8 608
94 151 0 910 8 11 595
96 145 0 911 5 15 616
98 132 0 933 5 4 593
100 126 0 931 1 8 631
102 124 0 932 2 12 604
104 121 0 926 6 9 593
106 116 0 925 2 8 593
108 115 0 940 5 10 599
110 113 0 950 5 12 610
112 111 0 964 5 10 584
114 104 0 960 2 10 598
116 101 0 964 1 9 585
118 100 0 961 3 10 589
120 98 0 954 2 14 589
122 97 0 954 3 12 597
124 98 0 944 4 14 604
126 101 0 943 3 9 601
128 105 0 939 2 13 591
130 101 0 941 2 15 607
132 89 0 954 2 10 584
134 80 1 958 5 15 603
136 75 0 974 4 12 609
138 77 0 970 4 15 594
140 76 0 974 2 12 600
142 67 0 989 6 12 593
144 64 0 987 1 22 610
146 65 0 996 1 20 596
148 62 0 988 2 19 597
150 60 0 998 2 14 619
152 58 1 997 1 13 601
154 50 0 1002 3 14 605
156 53 0 998 1 18 588
158 51 0 1016 2 4 577
160 47 0 1005 1 15 593
162 48 0 1007 1 10 606
164 49 0 1000 0 12 598
166 49 0 999 3 10 592
168 51 1 991 2 13 598
170 53 0 990 3 12 599
172 51 0 992 0 11 595
174 49 0 1001 1 11 604
176 51 0 1009 0 15 593
178 45 0 1019 1 16 586
180 42 0 1015 0 19 593
182 44 0 1020 3 10 597
184 43 0 1016 3 15 579
186 42 0 1014 3 13 578
188 46 0 1006 0 15 598
190 44 0 1024 3 13 598
192 48 0 1035 1 8 622
194 46 0 1033 0 14 601
196 47 0 1035 1 9 596
198 43 0 1032 1 13 594
200 41 0 1026 1 16 591
