0 1283 0 0 0 0 0
2 1279 0 0 7 0 0
4.00004 1279 0 0 4 0 0
6 1276 0 0 3 0 0
8 1272 0 0 5 0 0
10 1269 0 0 5 0 0
12 1269 0 0 6 0 0
14 1272 0 0 3 0 0
16 1272 0 0 3 0 0
18 1270 0 0 5 0 0
20 1271 0 0 3 0 0
22 1249 0 0 7 0 0
24 1250 0 0 0 0 0
26 1252 0 0 1 0 0
28 1236 0 0 5 0 0
30 1225 0 0 3 0 0
32 1221 0 0 3 0 0
34 1212 0 0 6 0 0
36 1221 0 0 1 0 0
38 1218 0 0 3 0 0
40 1219 0 0 4 0 0
42 1215 0 0 4 0 0
44 1222 0 0 6 0 0
46 1217 0 0 1 0 0
48 1220 0 0 2 0 0
50 1213 0 0 2 0 0
52 1203 0 6 1 0 0
54 1189 0 16 4 0 0
56 1171 0 24 4 1 0
58 1161 0 37 5 3 0
60 1138 0 53 3 0 0
62 1120 0 65 4 0 0
64 1110 0 74 3 1 0
66 1096 0 87 2 0 0
68 1081 0 96 4 4 0
70 1074 0 103 3 0 0
72 1066 0 108 3 1 0
74 1053 0 122 0 1 0
76 1043 0 130 3 0 0
78 1028 0 142 5 1 0
80 1020 0 153 4 2 0
82 1012 0 166 1 1 0
84 1004 0 173 1 2 0
86 991 0 179 1 1 0
88 979 0 188 4 0 0
90 963 0 198 5 3 0
92 957 0 201 3 0 0
94 952 0 205 3 1 0
96 942 0 216 1 1 0
98 932 0 223 2 1 0
100 921 0 239 0 3 0
102 903 0 247 2 3 0
104 886 0 257 3 1 0
106 878 0 259 1 3 0
108 870 0 262 0 2 0
110 853 0 274 4 2 0
112 838 0 286 7 1 0
114 835 0 290 2 1 0
116 825 0 301 7 1 0
118 824 0 310 0 5 0
120 814 0 317 1 2 0
122 798 0 326 2 2 0
124 795 0 330 0 1 0
126 785 0 336 5 2 0
128 782 0 336 2 3 0
130 772 0 353 0 0 0
132 767 0 356 3 5 0
134 758 0 362 0 1 0
136 748 0 367 1 2 0
138 745 0 378 2 2 0
140 738 0 385 2 4 0
142 734 0 382 1 5 0
144 732 0 396 1 0 0
146 727 0 403 1 2 0
148 718 0 411 1 1 0
150 711 0 413 0 2 0
152 697 0 421 3 3 0
154 694 0 432 1 1 0
156 687 0 434 0 1 0
158 681 0 438 1 3 0
160 679 0 446 0 0 0
162 673 0 450 2 0 0
164 663 0 459 1 1 0
166 657 0 465 1 3 0
168 649 0 472 3 2 0
170 646 0 481 0 1 0
172 644 0 483 1 2 0
174 643 0 493 1 0 0
176 633 0 498 3 1 0
178 623 0 498 3 3 0
180 617 0 507 1 1 0
182 611 0 508 1 5 0
184 609 0 515 0 0 0
186 599 0 527 1 4 0
188 591 0 533 0 1 0
190 586 0 537 0 2 0
192 577 0 540 3 3 0
194 573 0 546 0 3 0
196 571 0 553 0 3 0
198 562 0 559 3 1 0
200 554 0 564 0 0 0
