0 1079 0 0 0 0 0
2 1034 34 0 6 0 0
4.00004 1028 44 0 6 0 0
6 1030 39 0 2 0 0
8 1034 34 0 1 0 0
10 1021 42 0 5 0 0
12 1017 40 0 0 0 0
14 1020 33 0 3 0 0
16 1016 31 0 3 0 0
18 999 45 0 8 0 0
20 1008 32 0 6 0 0
22 995 57 0 3 0 0
24 1013 41 0 4 0 0
26 1004 44 0 7 0 0
28 1000 45 0 2 0 0
30 1008 42 0 6 0 0
32 997 49 0 2 0 0
34 1020 37 0 1 0 0
36 1013 38 0 1 0 0
38 1013 41 0 5 0 0
40 1019 40 0 4 0 0
42 1005 48 0 9 0 0
44 1007 46 0 4 0 0
46 1008 38 0 6 0 0
48 1017 34 0 3 0 0
50 1021 32 0 3 0 0
52 769 0 278 0 2 0
54 654 1 402 0 0 0
56 566 0 483 1 3 0
58 494 0 558 1 3 0
60 437 0 617 1 3 0
62 395 2 654 2 3 0
64 340 1 709 0 4 0
66 288 0 758 2 3 0
68 255 0 796 0 1 0
70 227 0 830 1 2 0
72 197 0 866 0 2 0
74 170 0 897 0 2 0
76 151 0 916 1 4 0
78 134 0 936 1 2 0
80 120 0 958 0 2 0
82 107 0 974 1 3 0
84 92 0 984 0 2 0
86 77 0 996 1 3 0
88 65 0 1006 0 3 0
90 63 0 1015 1 4 0
92 63 1 1029 0 5 0
94 54 1 1045 1 4 0
96 45 0 1048 3 6 0
98 42 0 1057 0 3 0
100 31 0 1061 1 1 0
102 31 0 1061 1 3 0
104 25 0 1069 3 3 0
106 30 0 1073 0 2 0
108 16 0 1090 0 4 0
110 15 0 1099 1 2 0
112 13 0 1095 0 4 0
114 10 0 1102 0 4 0
116 10 0 1091 0 2 0
118 9 0 1093 1 4 0
120 8 0 1087 0 3 0
122 8 0 1092 0 2 0
124 8 0 1096 3 2 0
126 4 0 1099 0 4 0
128 10 0 1100 1 3 0
130 5 0 1101 0 5 0
132 3 0 1106 1 1 0
134 3 0 1103 1 1 0
136 4 0 1100 1 1 0
138 6 0 1093 0 2 0
140 4 0 1090 0 5 0
142 7 0 1087 0 5 0
144 3 0 1092 0 3 0
146 3 0 1087 0 4 0
148 8 0 1086 0 3 0
150 3 0 1085 1 3 0
152 7 0 1083 0 3 0
154 6 0 1099 1 0 0
156 6 0 1095 0 1 0
158 1 0 1093 1 2 0
160 5 0 1092 0 2 0
162 1 0 1090 0 4 0
164 5 0 1079 0 2 0
166 3 0 1075 2 3 0
168 3 0 1079 1 4 0
170 1 0 1080 0 3 0
172 2 0 1068 3 3 0
174 1 0 1066 0 6 0
176 2 0 1071 0 5 0
178 2 0 1073 1 5 0
180 2 0 1074 2 3 0
182 5 0 1078 0 3 0
184 1 0 1079 1 1 0
186 1 0 1082 0 2 0
188 1 0 1085 0 1 0
190 1 0 1082 1 5 0
192 4 0 1086 0 4 0
194 1 0 1091 1 2 0
196 0 0 1089 0 2 0
198 3 0 1088 0 2 0
200 2 0 1088 1 3 0
