0 1008 0 0 0 0 0
2 968 34 0 8 0 0
4.00004 969 30 0 3 0 0
6 960 35 0 5 0 0
8 957 42 0 4 0 0
10 965 28 0 5 0 0
12 952 35 0 3 0 0
14 951 34 0 2 0 0
16 945 40 0 3 0 0
18 937 45 0 5 0 0
20 937 43 0 2 0 0
22 926 42 0 2 0 0
24 937 36 0 3 0 0
26 931 42 0 3 0 0
28 950 21 0 2 0 0
30 941 26 0 4 0 0
32 940 32 0 1 0 0
34 934 35 0 3 0 0
36 952 27 0 2 0 0
38 951 26 0 3 0 0
40 945 32 0 6 0 0
42 948 27 0 5 0 0
44 944 32 0 3 0 0
46 948 27 0 3 0 0
48 945 22 0 6 0 0
50 932 35 0 2 0 0
52 654 0 315 1 0 0
54 516 0 460 1 0 0
56 408 0 564 1 3 0
58 318 0 659 0 2 0
60 272 0 712 1 1 0
62 213 1 764 1 5 0
64 174 0 812 2 1 0
66 154 0 829 1 3 0
68 125 0 854 2 0 0
70 103 0 881 1 0 0
72 75 0 904 3 2 0
74 59 1 917 4 3 0
76 41 0 922 0 1 0
78 40 0 928 3 1 0
80 35 0 930 2 0 0
82 28 0 933 5 2 0
84 26 0 941 1 0 0
86 25 0 947 2 2 0
88 26 0 948 6 1 0
90 23 0 953 1 4 0
92 21 0 948 1 3 0
94 18 0 954 2 1 0
96 22 0 955 0 3 0
98 20 0 963 0 1 0
100 19 0 958 2 5 0
102 21 0 956 0 5 0
104 19 1 962 1 3 0
106 21 0 958 1 4 0
108 15 0 974 2 0 0
110 16 0 969 3 4 0
112 11 0 969 3 2 0
114 14 0 966 0 3 0
116 10 0 970 0 1 0
118 15 0 972 1 3 0
120 9 0 978 1 3 0
122 14 0 976 0 2 0
124 11 0 977 1 1 0
126 16 0 984 0 2 0
128 15 0 985 3 1 0
130 14 0 990 1 4 0
132 15 0 987 1 3 0
134 12 0 992 2 3 0
136 13 0 995 1 2 0
138 9 0 998 2 6 0
140 12 0 1000 3 2 0
142 8 0 1003 0 1 0
144 9 0 993 1 4 0
146 6 0 994 0 4 0
148 8 0 991 1 3 0
150 7 0 994 1 1 0
152 16 0 986 0 5 0
154 12 0 999 1 0 0
156 11 0 990 3 2 0
158 10 1 999 2 1 0
160 17 0 990 0 4 0
162 18 0 1001 1 3 0
164 14 0 1002 0 1 0
166 10 0 1008 1 1 0
168 6 0 1007 0 1 0
170 8 0 1008 0 2 0
172 11 0 1012 0 3 0
174 3 0 1015 1 4 0
176 6 0 1007 1 3 0
178 13 0 1001 0 1 0
180 13 0 1003 0 1 0
182 11 0 1003 1 3 0
184 10 0 1006 0 4 0
186 3 0 1009 2 3 0
188 6 0 1011 0 2 0
190 7 0 1009 1 1 0
192 9 0 1012 0 1 0
194 7 0 1010 1 4 0
196 6 0 1011 0 1 0
198 7 0 1004 2 5 0
200 11 0 1001 1 4 0
