0 900 0 0 0 0 0
2 855 44 0 2 0 0
4.00004 841 42 0 4 0 0
6 828 57 0 2 0 0
8 832 51 0 8 0 0
10 823 52 0 3 0 0
12 832 46 0 7 0 0
14 834 49 0 5 0 0
16 846 48 0 1 0 0
18 841 61 0 2 0 0
20 848 51 0 7 0 0
22 859 46 0 3 0 0
24 849 57 0 3 0 0
26 852 50 0 6 0 0
28 865 33 0 8 0 0
30 842 54 0 3 0 0
32 845 49 0 6 0 0
34 855 40 0 5 0 0
36 837 60 0 2 0 0
38 856 47 0 5 0 0
40 858 49 0 3 0 0
42 853 54 0 5 0 0
44 856 55 0 4 0 0
46 869 44 0 5 0 0
48 873 51 0 5 0 0
50 871 55 0 7 0 0
52 564 0 364 4 0 0
54 410 0 515 5 2 0
56 303 0 617 0 8 0
58 228 1 698 4 1 0
60 180 0 756 2 3 0
62 139 0 800 4 5 0
64 112 0 837 1 2 0
66 84 0 862 5 0 0
68 64 0 884 2 1 0
70 49 0 898 1 2 0
72 40 0 911 1 6 0
74 36 0 918 0 4 0
76 20 0 922 1 6 0
78 26 1 923 3 4 0
80 18 0 932 5 6 0
82 15 1 934 2 2 0
84 12 0 945 0 4 0
86 20 0 930 0 4 0
88 14 0 928 1 4 0
90 16 0 930 4 5 0
92 12 0 935 2 4 0
94 18 0 932 0 0 0
96 15 0 932 1 2 0
98 11 0 937 3 3 0
100 12 0 931 3 5 0
102 17 0 932 1 1 0
104 19 0 936 1 1 0
106 9 0 945 2 3 0
108 12 0 942 1 3 0
110 10 0 934 2 4 0
112 12 0 943 1 5 0
114 18 0 949 1 2 0
116 15 0 949 2 2 0
118 17 0 959 2 1 0
120 11 1 966 1 4 0
122 13 0 969 1 7 0
124 11 0 959 0 8 0
126 11 0 962 3 2 0
128 11 0 963 1 4 0
130 12 0 964 1 2 0
132 10 0 964 1 2 0
134 10 0 965 1 2 0
136 13 0 959 1 3 0
138 12 0 965 2 1 0
140 12 0 965 0 5 0
142 12 0 966 1 4 0
144 12 0 968 0 4 0
146 11 0 971 1 4 0
148 10 0 972 1 4 0
150 9 0 977 1 6 0
152 11 0 977 1 2 0
154 10 0 965 1 7 0
156 12 0 960 1 8 0
158 11 0 963 2 2 0
160 13 0 963 1 5 0
162 14 0 970 0 3 0
164 14 0 974 1 5 0
166 15 0 979 2 7 0
168 12 0 980 0 5 0
170 9 0 978 1 6 0
172 6 0 975 2 4 0
174 10 0 985 2 2 0
176 10 0 975 1 0 0
178 15 0 982 1 3 0
180 15 0 980 1 4 0
182 8 0 982 0 5 0
184 11 0 991 0 2 0
186 8 0 994 1 2 0
188 9 0 989 1 4 0
190 10 0 997 0 2 0
192 10 0 994 0 6 0
194 10 0 994 0 1 0
196 12 1 997 1 2 0
198 9 0 996 0 4 0
200 10 0 1002 1 1 0
