0 1050 0 0 0 0 0
2 1041 0 0 8 0 0
4.00004 1044 0 0 9 0 0
6 1039 0 0 5 0 0
8 1039 0 0 2 0 0
10 1034 0 0 3 0 0
12 1045 0 0 2 0 0
14 1046 0 0 4 0 0
16 1048 0 0 0 0 0
18 1041 0 0 2 0 0
20 1045 0 0 3 0 0
22 1033 0 0 5 0 0
24 1045 0 0 1 0 0
26 1036 0 0 6 0 0
28 1037 0 0 4 0 0
30 1029 0 0 1 0 0
32 1026 0 0 6 0 0
34 1021 0 0 5 0 0
36 1028 0 0 3 0 0
38 1029 0 0 3 0 0
40 1019 0 0 6 0 0
42 1028 0 0 2 0 0
44 1024 0 0 5 0 0
46 1032 0 0 2 0 0
48 1033 0 0 8 0 0
50 1046 0 0 8 0 0
52 1033 0 3 2 1 0
54 1019 0 22 1 1 0
56 1000 0 31 6 0 0
58 990 0 46 3 3 0
60 976 0 69 3 2 0
62 960 0 75 3 3 0
64 952 0 89 1 6 0
66 938 0 106 1 1 0
68 925 0 121 2 2 0
70 914 0 138 3 0 0
72 900 0 147 5 2 0
74 892 0 161 3 1 0
76 874 0 169 5 1 0
78 862 0 182 4 3 0
80 852 0 194 3 2 0
82 847 0 210 2 1 0
84 831 0 224 5 1 0
86 826 0 234 4 2 0
88 819 0 250 2 4 0
90 808 0 271 4 2 0
92 790 0 274 4 5 0
94 782 0 287 2 2 0
96 776 0 293 2 3 0
98 766 0 302 5 4 0
100 761 0 315 3 0 0
102 752 0 323 3 4 0
104 738 0 342 2 5 0
106 729 0 355 3 3 0
108 714 0 361 2 2 0
110 705 0 372 0 3 0
112 692 0 382 4 0 0
114 689 0 394 1 2 0
116 674 0 408 2 2 0
118 668 0 421 0 7 0
120 658 0 433 1 3 0
122 649 0 441 1 3 0
124 640 0 446 1 3 0
126 633 0 456 2 4 0
128 622 0 465 1 2 0
130 612 0 478 1 2 0
132 605 0 489 4 2 0
134 597 0 490 1 4 0
136 590 0 496 3 3 0
138 582 0 504 1 5 0
140 575 0 521 3 5 0
142 572 0 529 1 3 0
144 559 0 531 2 5 0
146 544 0 536 1 4 0
148 535 0 539 3 9 0
150 531 0 554 2 4 0
152 522 0 569 0 3 0
154 514 0 565 1 4 0
156 510 0 573 1 2 0
158 502 0 588 3 2 0
160 499 0 603 1 1 0
162 494 0 601 0 6 0
164 485 0 604 1 2 0
166 481 0 621 0 2 0
168 475 0 615 2 6 0
170 469 0 626 1 4 0
172 463 0 628 1 2 0
174 455 0 638 3 3 0
176 451 0 645 2 1 0
178 448 0 642 0 2 0
180 442 0 648 1 2 0
182 434 0 647 2 4 0
184 426 0 644 1 3 0
186 420 0 651 1 1 0
188 407 0 664 2 4 0
190 410 0 674 1 2 0
192 401 0 683 4 2 0
194 402 0 695 0 2 0
196 399 0 702 0 5 0
198 390 0 714 1 2 0
200 384 0 723 2 5 0
