0 882 0 0 0 0 0
2 851 34 0 3 0 0
4.00004 841 42 0 4 0 0
6 842 44 0 3 0 0
8 838 40 0 2 0 0
10 848 35 0 5 0 0
12 846 42 0 4 0 0
14 829 47 0 4 0 0
16 837 36 0 4 0 0
18 825 47 0 6 0 0
20 851 31 0 3 0 0
22 837 43 0 6 0 0
24 854 30 0 3 0 0
26 852 36 0 3 0 0
28 835 59 0 4 0 0
30 854 47 0 1 0 0
32 843 58 0 2 0 0
34 848 49 0 4 0 0
36 855 46 0 5 0 0
38 846 51 0 4 0 0
40 856 37 0 3 0 0
42 850 36 0 2 0 0
44 850 33 0 4 0 0
46 841 46 0 3 0 0
48 857 32 0 3 0 0
50 846 33 0 4 0 0
52 580 1 292 1 1 0
54 442 1 428 1 1 0
56 333 1 539 1 2 0
58 269 0 608 1 1 0
60 210 0 661 1 3 0
62 172 0 694 1 3 0
64 141 0 725 0 5 0
66 114 0 748 2 4 0
68 90 1 767 0 5 0
70 70 0 791 1 3 0
72 56 0 808 2 2 0
74 50 0 817 0 4 0
76 37 0 827 2 5 0
78 36 0 827 0 4 0
80 27 0 835 0 3 0
82 24 0 848 1 1 0
84 16 0 855 1 3 0
86 15 0 859 0 1 0
88 12 0 860 2 0 0
90 10 0 859 0 4 0
92 9 0 859 2 1 0
94 15 0 860 0 3 0
96 9 0 869 1 2 0
98 10 0 868 0 4 0
100 8 0 869 0 3 0
102 6 0 865 0 4 0
104 5 0 863 1 3 0
106 9 0 866 0 6 0
108 5 0 866 0 4 0
110 10 0 865 1 1 0
112 3 0 872 1 4 0
114 3 0 861 1 3 0
116 4 0 864 0 2 0
118 4 0 869 0 1 0
120 5 0 863 0 3 0
122 4 0 868 0 2 0
124 1 0 866 0 3 0
126 9 0 853 0 3 0
128 0 0 858 0 1 0
130 4 0 845 0 7 0
132 4 0 847 1 2 0
134 4 0 844 0 4 0
136 1 0 847 1 2 0
138 3 0 853 0 4 0
140 4 0 856 1 2 0
142 4 0 864 0 3 0
144 4 0 860 0 3 0
146 4 0 862 1 5 0
148 3 0 861 0 5 0
150 5 0 863 1 2 0
152 2 0 859 0 1 0
154 2 0 855 1 4 0
156 4 0 860 4 3 0
158 3 1 857 0 1 0
160 5 0 852 1 3 0
162 2 0 851 1 5 0
164 5 0 864 0 1 0
166 5 0 865 0 4 0
168 3 0 867 0 4 0
170 2 0 874 1 2 0
172 3 0 876 0 4 0
174 1 0 878 0 3 0
176 2 0 879 0 2 0
178 1 0 878 1 3 0
180 2 0 876 0 7 0
182 5 0 879 0 1 0
184 4 0 875 1 5 0
186 2 0 876 1 1 0
188 7 0 873 0 2 0
190 3 0 880 1 3 0
192 3 0 882 0 2 0
194 1 0 871 1 7 0
196 2 0 873 0 1 0
198 3 0 876 1 4 0
200 4 0 877 2 2 0
