0 1125 0 0 0 0 0
2 1111 0 0 5 0 0
4.00004 1102 0 0 7 0 0
6 1099 0 0 5 0 0
8 1097 0 0 7 0 0
10 1100 0 0 5 0 0
12 1093 0 0 7 0 0
14 1098 0 0 9 0 0
16 1112 0 0 5 0 0
18 1103 0 0 2 0 0
20 1101 0 0 1 0 0
22 1094 0 0 6 0 0
24 1094 0 0 5 0 0
26 1103 0 0 3 0 0
28 1109 0 0 4 0 0
30 1097 0 0 6 0 0
32 1099 0 0 3 0 0
34 1092 0 0 8 0 0
36 1104 0 0 3 0 0
38 1094 0 0 9 0 0
40 1098 0 0 7 0 0
42 1099 0 0 4 0 0
44 1102 0 0 8 0 0
46 1105 0 0 5 0 0
48 1101 0 0 4 0 0
50 1088 0 0 5 0 0
52 1081 0 4 3 2 0
54 1073 0 14 0 0 0
56 1059 0 31 2 0 0
58 1046 0 45 3 1 0
60 1036 0 56 4 2 0
62 1024 0 65 1 1 0
64 1009 0 73 2 0 0
66 996 0 94 7 2 0
68 988 0 105 3 1 0
70 975 0 111 1 4 0
72 956 0 114 6 3 0
74 948 0 134 2 1 0
76 940 0 144 1 2 0
78 927 0 155 3 1 0
80 919 0 173 2 2 0
82 905 0 187 3 0 0
84 891 0 199 3 2 0
86 880 0 209 5 1 0
88 874 0 214 1 1 0
90 859 0 218 4 2 0
92 850 0 228 1 1 0
94 841 0 242 2 1 0
96 828 0 256 2 2 0
98 821 0 261 2 2 0
100 811 0 268 4 1 0
102 797 0 279 4 2 0
104 794 0 296 2 2 0
106 782 0 306 1 2 0
108 773 0 317 0 2 0
110 762 0 325 2 4 0
112 754 0 334 1 2 0
114 744 0 346 2 4 0
116 736 0 355 0 2 0
118 726 0 365 3 4 0
120 715 0 375 0 2 0
122 709 0 388 1 4 0
124 698 0 406 2 7 0
126 691 0 418 1 2 0
128 683 0 427 2 2 0
130 672 0 442 3 1 0
132 667 0 446 1 3 0
134 660 0 450 3 3 0
136 655 0 459 2 4 0
138 642 0 457 4 4 0
140 639 0 458 1 3 0
142 631 0 462 2 1 0
144 630 0 461 0 4 0
146 626 0 464 1 4 0
148 615 0 468 1 4 0
150 608 0 469 0 3 0
152 602 0 474 2 2 0
154 592 0 487 3 5 0
156 589 0 503 2 4 0
158 586 0 505 3 1 0
160 581 0 507 1 4 0
162 571 0 512 3 4 0
164 569 0 517 0 3 0
166 559 0 527 3 2 0
168 550 0 533 3 4 0
170 548 0 540 2 3 0
172 541 0 544 0 2 0
174 534 0 553 3 4 0
176 532 0 563 0 1 0
178 522 0 565 1 4 0
180 516 0 571 0 2 0
182 510 0 575 0 2 0
184 504 0 567 3 4 0
186 505 0 566 0 2 0
188 499 0 564 2 7 0
190 494 0 571 3 4 0
192 486 0 574 3 4 0
194 479 0 592 1 5 0
196 472 0 593 4 5 0
198 464 0 593 3 2 0
200 457 0 600 1 1 0
