0 1205 0 0 0 0 0
2 1195 0 0 4 0 0
4.00004 1199 0 0 0 0 0
6 1190 0 0 1 0 0
8 1190 0 0 5 0 0
10 1190 0 0 2 0 0
12 1198 0 0 0 0 0
14 1192 0 0 4 0 0
16 1193 0 0 2 0 0
18 1183 0 0 5 0 0
20 1186 0 0 4 0 0
22 1192 0 0 5 0 0
24 1185 0 0 4 0 0
26 1184 0 0 7 0 0
28 1188 0 0 6 0 0
30 1180 0 0 6 0 0
32 1184 0 0 3 0 0
34 1191 0 0 4 0 0
36 1190 0 0 7 0 0
38 1181 0 0 3 0 0
40 1176 0 0 1 0 0
42 1169 0 0 5 0 0
44 1178 0 0 1 0 0
46 1171 0 0 7 0 0
48 1178 0 0 1 0 0
50 1172 0 0 7 0 0
52 1163 0 3 3 0 0
54 1151 0 6 6 2 0
56 1146 0 13 0 2 0
58 1141 0 18 0 2 0
60 1137 0 26 1 0 0
62 1126 0 33 2 2 0
64 1116 0 41 1 0 0
66 1105 0 50 2 1 0
68 1102 0 57 2 0 0
70 1093 0 61 2 0 0
72 1080 0 64 1 2 0
74 1073 0 71 3 1 0
76 1062 0 76 1 2 0
78 1057 0 86 1 2 0
80 1050 0 90 2 3 0
82 1037 0 98 3 2 0
84 1023 0 108 2 1 0
86 1013 0 113 1 0 0
88 1003 0 123 2 2 0
90 994 0 135 1 3 0
92 989 0 139 1 2 0
94 982 0 144 0 3 0
96 972 0 151 3 0 0
98 968 0 157 0 1 0
100 958 0 167 2 3 0
102 954 0 175 0 2 0
104 944 0 183 2 0 0
106 936 0 185 0 1 0
108 925 0 192 2 2 0
110 924 0 201 0 2 0
112 917 0 208 1 3 0
114 912 0 214 1 2 0
116 905 0 220 1 1 0
118 896 0 225 0 4 0
120 887 0 235 4 2 0
122 882 0 245 1 0 0
124 872 0 252 0 2 0
126 863 0 262 1 2 0
128 858 0 271 1 2 0
130 851 0 272 1 2 0
132 843 0 283 2 1 0
134 839 0 290 1 1 0
136 832 0 299 1 3 0
138 827 0 312 0 2 0
140 818 0 318 1 1 0
142 810 0 319 4 1 0
144 805 0 325 1 2 0
146 803 0 330 0 3 0
148 800 0 333 2 3 0
150 794 0 341 2 1 0
152 792 0 346 0 0 0
154 790 0 348 0 3 0
156 784 0 356 0 3 0
158 777 0 360 1 5 0
160 766 0 367 1 1 0
162 760 0 369 2 4 0
164 755 0 376 1 1 0
166 751 0 386 1 1 0
168 747 0 396 0 1 0
170 738 0 396 2 1 0
172 737 0 396 0 3 0
174 731 0 406 1 1 0
176 724 0 408 2 1 0
178 720 0 414 3 1 0
180 717 0 418 1 2 0
182 711 0 431 1 3 0
184 707 0 439 1 1 0
186 702 0 448 0 0 0
188 696 0 453 0 4 0
190 687 0 455 3 2 0
192 684 0 462 1 1 0
194 677 0 475 1 3 0
196 669 0 474 0 5 0
198 662 0 484 2 4 0
200 658 0 495 3 1 0
