0 1153 0 0 0 0 0
2 1149 0 0 5 0 0
4.00004 1158 0 0 4 0 0
6 1147 0 0 3 0 0
8 1143 0 0 10 0 0
10 1134 0 0 5 0 0
12 1134 0 0 4 0 0
14 1133 0 0 3 0 0
16 1137 0 0 4 0 0
18 1122 0 0 4 0 0
20 1124 0 0 5 0 0
22 1126 0 0 1 0 0
24 1121 0 0 6 0 0
26 1123 0 0 4 0 0
28 1120 0 0 4 0 0
30 1122 0 0 4 0 0
32 1131 0 0 0 0 0
34 1129 0 0 4 0 0
36 1130 0 0 9 0 0
38 1120 0 0 4 0 0
40 1117 0 0 2 0 0
42 1113 0 0 3 0 0
44 1115 0 0 3 0 0
46 1113 0 0 4 0 0
48 1113 0 0 6 0 0
50 1110 0 0 5 0 0
52 1097 0 8 5 2 0
54 1079 0 20 6 4 0
56 1069 0 33 1 2 0
58 1048 0 49 5 2 0
60 1034 0 70 2 4 0
62 1021 0 77 4 2 0
64 1012 0 87 3 3 0
66 1002 0 95 1 0 0
68 983 0 109 5 0 0
70 976 0 121 0 0 0
72 957 0 134 2 5 0
74 952 0 144 1 2 0
76 936 0 153 2 2 0
78 926 0 171 3 0 0
80 906 0 177 5 0 0
82 894 0 192 2 3 0
84 886 0 199 3 0 0
86 877 0 206 6 2 0
88 873 0 229 2 2 0
90 863 0 236 3 1 0
92 846 0 244 5 0 0
94 843 0 248 1 3 0
96 830 0 260 0 2 0
98 812 0 271 1 2 0
100 807 0 276 0 4 0
102 791 0 290 5 5 0
104 781 0 301 1 2 0
106 763 0 312 0 0 0
108 756 0 319 0 0 0
110 741 0 330 5 0 0
112 735 0 338 2 2 0
114 724 0 344 0 0 0
116 715 0 352 1 2 0
118 708 0 367 3 3 0
120 703 0 370 0 4 0
122 688 0 373 4 4 0
124 681 0 385 2 4 0
126 669 0 395 3 3 0
128 667 0 400 1 5 0
130 653 0 412 4 1 0
132 640 0 429 5 1 0
134 640 0 436 0 5 0
136 633 0 446 2 2 0
138 619 0 456 2 3 0
140 608 0 465 1 1 0
142 600 0 466 1 4 0
144 594 0 472 1 3 0
146 588 0 472 3 2 0
148 575 0 481 3 2 0
150 573 0 482 0 2 0
152 569 0 492 0 2 0
154 561 0 500 5 3 0
156 557 0 510 0 3 0
158 548 0 516 1 1 0
160 535 0 510 6 4 0
162 529 0 515 2 3 0
164 526 0 524 0 2 0
166 517 0 534 2 3 0
168 511 0 545 1 2 0
170 506 0 553 0 5 0
172 499 0 564 2 2 0
174 489 0 573 3 3 0
176 482 0 572 2 3 0
178 475 0 583 2 4 0
180 475 0 591 1 1 0
182 468 0 599 2 0 0
184 450 0 593 2 6 0
186 442 0 603 2 4 0
188 437 0 608 1 5 0
190 432 0 610 0 2 0
192 430 0 612 1 5 0
194 427 0 617 0 1 0
196 424 0 618 0 1 0
198 421 0 620 0 2 0
200 416 0 629 0 4 0
