0 1115 0 0 0 0 0
2 1120 0 0 2 0 0
4.00004 1120 0 0 1 0 0
6 1119 0 0 5 0 0
8 1119 0 0 3 0 0
10 1123 0 0 4 0 0
12 1121 0 0 3 0 0
14 1127 0 0 7 0 0
16 1125 0 0 4 0 0
18 1128 0 0 5 0 0
20 1130 0 0 3 0 0
22 1126 0 0 5 0 0
24 1129 0 0 2 0 0
26 1143 0 0 2 0 0
28 1138 0 0 8 0 0
30 1136 0 0 5 0 0
32 1135 0 0 1 0 0
34 1130 0 0 1 0 0
36 1133 0 0 3 0 0
38 1121 0 0 5 0 0
40 1128 0 0 8 0 0
42 1119 0 0 6 0 0
44 1123 0 0 3 0 0
46 1132 0 0 5 0 0
48 1138 0 0 9 0 0
50 1146 0 0 5 0 0
52 1140 0 4 2 0 0
54 1125 0 14 4 0 0
56 1109 0 19 2 1 0
58 1103 0 31 3 1 0
60 1090 0 50 1 1 0
62 1076 0 62 4 3 0
64 1067 0 73 3 3 0
66 1058 0 86 4 3 0
68 1056 0 95 2 1 0
70 1046 0 108 2 1 0
72 1030 0 122 1 3 0
74 1012 0 133 1 1 0
76 1000 0 142 2 2 0
78 993 0 156 3 1 0
80 982 0 166 2 1 0
82 975 0 171 3 1 0
84 961 0 186 1 2 0
86 948 0 198 1 2 0
88 945 0 205 1 1 0
90 939 0 222 1 2 0
92 933 0 228 3 0 0
94 925 0 230 3 2 0
96 920 0 243 3 1 0
98 909 0 251 7 2 0
100 896 0 257 2 1 0
102 885 0 273 2 2 0
104 879 0 280 0 2 0
106 870 0 280 2 4 0
108 860 0 301 3 1 0
110 850 0 305 2 3 0
112 835 0 322 1 2 0
114 829 0 335 3 3 0
116 823 0 344 2 3 0
118 812 0 352 2 4 0
120 802 0 362 2 4 0
122 797 0 370 0 2 0
124 782 0 380 1 1 0
126 769 0 388 2 3 0
128 764 0 400 0 2 0
130 753 0 405 3 2 0
132 749 0 422 2 1 0
134 743 0 424 3 2 0
136 739 0 432 3 0 0
138 740 0 434 0 1 0
140 731 0 432 2 4 0
142 726 0 440 1 4 0
144 719 0 440 2 3 0
146 715 0 452 3 2 0
148 714 0 458 1 3 0
150 705 0 466 1 2 0
152 700 0 471 2 1 0
154 695 0 477 1 6 0
156 681 0 484 0 3 0
158 677 0 483 1 5 0
160 676 0 493 1 3 0
162 665 0 502 3 3 0
164 658 0 513 2 3 0
166 654 0 519 2 3 0
168 651 0 523 0 2 0
170 649 0 532 1 2 0
172 636 0 547 1 5 0
174 629 0 549 3 4 0
176 624 0 552 2 3 0
178 622 0 557 2 5 0
180 620 0 563 1 1 0
182 614 0 568 1 0 0
184 609 0 572 0 2 0
186 602 0 583 2 2 0
188 587 0 589 2 2 0
190 580 0 598 0 1 0
192 574 0 600 1 1 0
194 571 0 609 3 2 0
196 570 0 609 0 2 0
198 566 0 616 1 4 0
200 559 0 623 0 3 0
