0 1095 0 0 0 0 0
2 1063 0 0 27 0 0
4.00004 1064 0 0 32 0 0
6 1062 0 0 30 0 0
8 1055 0 0 38 0 0
10 1060 0 0 29 0 0
12 1058 0 0 26 0 0
14 1055 0 0 25 0 0
16 1055 0 0 34 0 0
18 1044 0 0 27 0 0
20 1039 0 0 32 0 0
22 1052 0 0 21 0 0
24 1034 0 0 37 0 0
26 1038 0 0 35 0 0
28 1042 0 0 32 0 0
30 1042 0 0 29 0 0
32 1052 0 0 22 0 0
34 1044 0 0 31 0 0
36 1036 0 0 33 0 0
38 1039 0 0 34 0 0
40 1047 0 0 21 0 0
42 1044 0 0 31 0 0
44 1041 0 0 26 0 0
46 1031 0 0 30 0 0
48 1036 0 0 29 0 0
50 1035 0 0 28 0 0
52 1029 0 2 30 3 0
54 1027 0 5 22 4 0
56 1002 0 11 31 7 0
58 998 0 22 20 6 0
60 1002 0 31 14 6 0
62 1002 0 27 11 13 0
64 983 0 34 23 12 0
66 979 0 41 23 6 0
68 972 0 45 22 11 0
70 971 0 55 20 7 0
72 958 0 57 23 10 0
74 960 0 60 16 6 0
76 952 0 65 14 13 0
78 944 0 67 15 17 0
80 941 0 72 16 14 0
82 925 0 83 20 6 0
84 928 0 85 17 6 0
86 924 0 87 17 11 0
88 918 0 93 17 4 0
90 917 0 97 15 9 0
92 908 0 104 16 13 0
94 902 0 108 18 6 0
96 903 0 112 14 11 0
98 900 0 119 13 10 0
100 898 0 123 8 12 0
102 891 0 126 8 14 0
104 879 0 129 17 18 0
106 879 0 131 15 14 0
108 875 0 139 14 16 0
110 868 0 143 17 14 0
112 866 0 150 15 14 0
114 860 0 155 19 17 0
116 855 0 163 15 12 0
118 853 0 163 13 13 0
120 849 0 167 12 18 0
122 845 0 181 14 9 0
124 834 0 176 18 13 0
126 831 0 190 19 14 0
128 827 0 186 18 16 0
130 830 0 200 12 13 0
132 831 0 194 10 14 0
134 822 0 197 16 11 0
136 813 0 204 18 14 0
138 813 0 213 13 17 0
140 810 0 215 10 19 0
142 804 0 227 11 18 0
144 802 0 226 11 15 0
146 795 0 231 14 16 0
148 785 0 234 17 15 0
150 793 0 242 9 13 0
152 778 0 238 17 15 0
154 780 0 243 13 16 0
156 776 0 239 12 19 0
158 778 0 247 10 17 0
160 778 0 256 4 14 0
162 760 0 256 18 15 0
164 765 0 262 9 16 0
166 756 0 265 11 16 0
168 747 0 278 16 12 0
170 747 0 282 14 16 0
172 741 0 284 13 17 0
174 739 0 292 14 17 0
176 737 0 296 13 14 0
178 725 0 302 22 17 0
180 724 0 305 15 10 0
182 720 0 311 14 16 0
184 720 0 320 11 13 0
186 719 0 315 7 22 0
188 709 0 327 10 17 0
190 704 0 333 15 21 0
192 696 0 330 13 22 0
194 696 0 338 10 19 0
196 688 0 338 11 24 0
198 690 0 345 8 21 0
200 684 0 352 12 14 0
