0 877 0 0 0 0 0
2 815 33 0 23 0 5
4.00004 824 26 0 30 0 0
6 810 44 0 23 0 4
8 803 33 0 27 0 4
10 824 23 0 26 0 3
12 813 33 0 26 0 4
14 816 32 0 21 0 5
16 792 47 0 25 0 4
18 791 43 0 25 0 5
20 798 40 0 27 0 2
22 807 29 0 25 0 4
24 810 37 0 28 0 1
26 808 28 0 30 0 5
28 807 29 0 23 0 3
30 798 29 0 23 0 3
32 798 27 0 25 0 4
34 791 36 0 24 0 2
36 795 33 0 22 0 0
38 800 24 0 30 0 3
40 786 31 0 30 0 5
42 810 24 0 15 0 3
44 793 39 0 23 0 3
46 778 41 0 31 0 1
48 786 32 0 37 0 5
50 794 31 0 30 0 6
52 725 0 106 11 19 0
54 704 0 131 10 11 0
56 675 0 156 8 14 0
58 642 0 182 11 20 0
60 618 0 205 13 16 0
62 599 0 216 16 26 0
64 588 0 241 8 18 0
66 563 0 264 11 14 0
68 553 0 273 4 32 0
70 533 0 293 15 25 0
72 525 0 300 10 25 0
74 507 0 316 16 22 0
76 495 0 343 8 20 0
78 480 0 352 10 25 0
80 461 0 368 11 20 0
82 447 0 395 9 21 0
84 432 0 396 7 28 0
86 421 0 417 7 18 0
88 408 0 429 8 22 0
90 400 0 421 7 27 0
92 390 0 457 6 18 0
94 378 0 459 6 24 1
96 372 0 476 4 17 0
98 358 0 481 5 25 0
100 344 0 490 6 25 0
102 332 0 497 7 29 0
104 324 0 507 4 28 0
106 304 0 542 7 12 0
108 296 0 531 5 31 0
110 273 0 558 8 22 0
112 278 0 568 5 20 0
114 271 0 571 6 25 0
116 258 0 563 8 26 0
118 245 0 575 5 23 0
120 235 0 576 3 30 0
122 226 0 590 7 16 0
124 225 0 596 6 20 0
126 212 0 601 7 25 0
128 211 0 597 5 25 0
130 215 0 591 1 34 0
132 198 0 612 3 26 0
134 198 0 622 2 26 1
136 191 0 619 3 30 0
138 186 0 629 2 21 0
140 182 0 633 3 29 0
142 176 0 637 4 33 0
144 171 0 641 2 25 0
146 166 0 649 3 28 0
148 167 0 655 3 28 0
150 157 1 659 3 34 0
152 148 0 659 2 34 0
154 144 0 672 2 25 0
156 138 0 679 3 27 0
158 138 0 682 3 22 0
160 137 0 687 1 25 0
162 130 0 679 8 36 0
164 125 1 693 4 25 0
166 121 0 692 3 21 0
168 112 0 693 2 24 0
170 117 0 692 3 41 0
172 120 0 696 1 27 0
174 110 0 698 2 28 0
176 107 0 708 2 22 0
178 104 0 704 1 31 0
180 97 0 706 4 34 0
182 95 1 709 6 26 0
184 95 0 711 1 26 0
186 93 0 712 3 31 0
188 88 0 728 2 25 0
190 82 0 726 5 26 0
192 85 0 720 1 26 0
194 76 0 725 4 31 0
196 73 0 744 3 27 0
198 72 0 741 1 25 0
200 68 0 732 1 25 0
