0 755 0 0 0 0 0
2 693 29 0 21 0 1
4.00004 707 30 0 13 0 1
6 714 31 0 11 0 1
8 724 25 0 10 0 3
10 703 35 0 16 0 2
12 693 31 0 14 0 4
14 680 41 0 21 0 0
16 685 44 0 13 0 2
18 690 35 0 22 0 1
20 682 34 0 18 0 5
22 690 30 0 15 0 6
24 698 33 0 13 0 3
26 699 30 0 17 0 1
28 699 32 0 14 0 1
30 700 34 0 11 0 5
32 705 32 0 10 0 0
34 703 32 0 17 0 0
36 686 40 0 12 0 2
38 687 32 0 17 0 3
40 688 26 0 11 0 1
42 675 38 0 15 0 4
44 675 33 0 16 0 3
46 692 24 0 12 0 1
48 683 28 0 20 0 2
50 678 37 0 13 0 5
52 622 0 90 5 12 0
54 603 0 110 3 10 0
56 585 0 116 2 12 0
58 562 0 134 3 16 0
60 539 1 166 6 7 0
62 526 0 169 5 14 0
64 502 0 191 4 20 0
66 485 0 210 4 15 0
68 471 0 225 2 12 0
70 458 0 237 4 17 0
72 441 0 262 2 14 0
74 424 0 282 4 11 0
76 409 0 288 6 13 0
78 393 0 301 3 15 0
80 378 0 315 5 15 0
82 363 0 334 5 8 0
84 351 0 344 2 8 0
86 342 0 352 4 10 0
88 329 0 364 1 12 0
90 317 0 364 7 7 0
92 299 0 384 5 14 0
94 294 0 392 2 24 0
96 281 0 404 5 19 0
98 270 0 416 2 12 0
100 265 0 416 2 17 0
102 253 0 430 3 15 0
104 249 0 436 1 9 0
106 242 0 442 0 16 0
108 225 0 458 2 10 0
110 218 0 448 1 15 0
112 211 0 462 3 10 0
114 207 0 460 3 15 0
116 198 0 470 2 17 0
118 191 0 480 2 13 0
120 183 0 482 4 9 0
122 174 0 489 6 17 0
124 167 0 497 4 18 0
126 167 0 499 1 17 0
128 164 1 506 2 11 0
130 157 0 510 4 16 0
132 153 0 517 2 15 0
134 147 0 523 2 14 0
136 144 0 525 0 12 0
138 139 0 529 1 14 0
140 135 0 526 2 19 0
142 130 0 534 2 9 0
144 123 0 536 1 14 0
146 120 0 554 1 10 0
148 118 0 542 1 15 0
150 112 0 556 1 14 0
152 105 1 553 3 17 0
154 103 0 564 2 16 0
156 100 0 564 1 17 0
158 93 0 571 0 16 0
160 91 0 574 1 18 0
162 87 0 582 3 13 0
164 85 0 582 1 14 0
166 81 0 583 0 22 0
168 81 0 586 0 15 0
170 75 0 582 2 14 0
172 75 0 587 1 21 0
174 72 0 590 0 16 0
176 70 0 593 1 15 0
178 66 0 596 0 18 0
180 64 0 598 3 18 0
182 60 0 615 1 15 0
184 57 0 615 1 16 0
186 54 0 618 2 12 0
188 51 0 620 1 19 0
190 50 0 615 1 25 0
192 49 0 625 0 18 0
194 46 0 620 0 19 0
196 44 0 617 1 19 0
198 42 0 616 4 16 0
200 40 0 622 1 9 0
