0 933 0 0 0 0 0
2 875 31 0 25 0 0
4.00004 875 31 0 22 0 0
6 871 31 0 25 0 1
8 877 25 0 20 0 0
10 872 34 0 16 0 1
12 874 31 0 16 0 2
14 878 25 0 21 0 1
16 867 28 0 27 0 1
18 865 40 0 19 0 1
20 872 29 0 24 0 1
22 859 32 0 28 0 0
24 881 25 0 20 0 2
26 868 28 0 27 0 0
28 868 33 0 22 0 1
30 888 31 0 15 0 1
32 875 27 0 26 0 3
34 872 36 0 17 0 0
36 867 35 0 16 0 2
38 869 33 0 21 0 4
40 872 32 0 25 0 0
42 862 34 0 23 0 2
44 868 34 0 24 0 1
46 870 32 0 17 0 3
48 871 35 0 23 0 0
50 878 28 0 16 0 1
52 819 0 85 6 11 0
54 805 0 96 6 11 0
56 791 0 100 8 15 0
58 772 0 128 8 8 0
60 749 0 144 6 12 0
62 733 0 152 8 16 0
64 722 0 173 8 6 0
66 716 0 187 6 10 0
68 711 1 192 5 7 0
70 698 0 205 5 9 0
72 687 0 207 7 17 0
74 676 0 225 4 11 0
76 664 0 241 7 11 0
78 658 1 250 3 12 0
80 644 0 271 6 9 0
82 630 0 284 7 12 0
84 620 1 288 4 14 0
86 613 0 300 2 13 0
88 601 0 316 4 11 0
90 583 0 313 3 27 0
92 571 0 331 4 13 0
94 564 1 338 7 14 0
96 556 0 339 3 19 0
98 547 0 341 1 15 0
100 536 0 348 2 21 0
102 530 0 354 3 15 0
104 520 0 359 5 22 0
106 515 0 372 1 9 0
108 504 0 381 5 13 0
110 496 0 383 5 17 0
112 488 0 399 3 15 0
114 485 0 405 1 13 0
116 472 0 417 6 16 0
118 458 0 434 3 12 0
120 452 0 437 1 15 0
122 448 0 446 5 16 0
124 435 0 444 3 24 0
126 428 0 461 4 18 0
128 419 2 471 4 15 0
130 415 0 483 3 11 0
132 404 0 479 4 22 0
134 400 0 487 6 13 0
136 389 0 493 4 22 0
138 387 0 502 6 15 0
140 380 0 503 4 25 0
142 373 0 512 2 21 0
144 364 0 526 4 20 0
146 361 0 534 7 14 0
148 359 0 531 4 26 0
150 349 0 534 6 24 0
152 346 0 552 5 13 0
154 338 0 557 2 25 0
156 323 0 572 2 18 0
158 319 0 572 2 15 0
160 312 0 581 5 15 0
162 305 0 577 3 22 0
164 307 1 578 4 19 0
166 303 0 591 2 19 0
168 299 0 597 1 14 0
170 291 0 591 6 16 0
172 284 0 593 4 16 0
174 275 0 599 3 23 0
176 267 0 614 1 24 0
178 260 0 614 2 25 0
180 256 0 627 4 17 0
182 254 0 630 4 13 0
184 247 0 640 2 14 0
186 245 0 631 3 19 0
188 244 0 634 1 15 0
190 243 0 630 2 18 0
192 239 0 631 3 19 0
194 236 0 629 2 17 0
196 237 0 627 1 21 0
198 232 0 635 1 17 0
200 226 0 635 2 21 0
