0 794 0 0 0 0 0
2 751 24 0 21 0 2
4.00004 751 26 0 18 0 5
6 754 29 0 12 0 2
8 757 28 0 15 0 2
10 762 20 0 20 0 7
12 752 27 0 25 0 0
14 758 30 0 18 0 3
16 761 20 0 18 0 4
18 762 18 0 19 0 5
20 761 18 0 21 0 6
22 746 28 0 22 0 1
24 750 25 0 20 0 3
26 764 19 0 16 0 4
28 757 18 0 25 0 3
30 754 20 0 21 0 2
32 759 27 0 11 0 1
34 749 22 0 20 0 4
36 754 17 0 18 0 2
38 757 19 0 21 0 4
40 765 16 0 17 0 4
42 757 23 0 13 0 4
44 758 20 0 11 0 5
46 751 20 0 13 0 3
48 743 26 0 17 0 3
50 754 19 0 11 0 2
52 719 0 50 4 6 0
54 708 0 55 7 14 0
56 686 0 79 5 19 0
58 666 0 112 9 13 0
60 659 0 117 8 10 0
62 639 0 133 6 8 0
64 636 0 138 3 12 0
66 618 0 155 8 10 0
68 600 0 175 6 6 0
70 590 0 182 9 15 0
72 576 0 193 7 18 0
74 562 0 211 4 15 0
76 552 0 219 7 17 0
78 543 0 229 7 19 0
80 534 0 238 3 22 0
82 522 0 253 8 19 0
84 509 0 271 6 17 0
86 498 0 278 7 18 0
88 489 0 292 1 16 0
90 474 0 304 2 18 0
92 464 0 316 1 22 0
94 451 0 318 8 15 0
96 447 0 320 8 21 0
98 440 0 325 4 25 0
100 432 0 337 4 18 0
102 424 0 346 1 17 0
104 416 0 362 2 11 0
106 410 0 357 3 16 0
108 405 0 368 3 14 0
110 397 0 365 7 29 0
112 387 0 390 3 14 0
114 377 0 397 3 15 0
116 373 0 398 3 15 0
118 366 0 395 2 22 0
120 359 0 408 3 15 0
122 360 0 410 2 23 0
124 345 0 427 1 24 1
126 343 0 432 1 21 0
128 334 0 442 4 15 0
130 339 0 436 1 18 0
132 331 0 442 6 17 0
134 327 0 450 3 10 0
136 323 0 467 2 12 0
138 314 0 458 4 19 0
140 308 1 464 6 16 0
142 303 0 472 1 16 0
144 298 0 473 5 13 0
146 290 0 475 6 15 1
148 287 0 492 4 16 0
150 277 0 484 6 23 0
152 269 0 506 3 11 0
154 259 0 509 4 16 0
156 252 0 522 5 10 0
158 252 0 527 3 11 0
160 252 0 531 3 15 0
162 247 0 544 3 21 0
164 246 0 543 4 18 0
166 236 0 551 6 17 0
168 229 0 560 3 19 0
170 225 0 557 4 24 0
172 224 0 565 5 11 0
174 220 0 576 2 17 0
176 222 0 579 1 16 0
178 213 0 585 3 14 0
180 216 0 587 1 17 0
182 214 0 586 5 23 0
184 202 0 589 10 20 0
186 206 0 587 4 19 0
188 200 0 598 4 12 0
190 193 0 605 1 17 0
192 185 0 611 3 18 0
194 189 0 610 0 19 0
196 187 0 601 2 25 0
198 180 0 608 1 22 0
200 179 0 609 2 16 0
