0 1077 0 0 0 0 0
2 1063 0 0 26 0 0
4.00004 1062 0 0 20 0 0
6 1055 0 0 26 0 0
8 1062 0 0 17 0 0
10 1049 0 0 26 0 0
12 1046 0 0 23 0 0
14 1049 0 0 20 0 0
16 1050 0 0 23 0 0
18 1052 0 0 21 0 0
20 1052 0 0 17 0 0
22 1050 0 0 27 0 0
24 1053 0 0 24 0 0
26 1051 0 0 17 0 0
28 1050 0 0 25 0 0
30 1039 0 0 27 0 0
32 1039 0 0 27 0 0
34 1040 0 0 23 0 0
36 1043 0 0 27 0 0
38 1041 0 0 27 0 0
40 1037 0 0 26 0 0
42 1051 0 0 24 0 0
44 1056 0 0 25 0 0
46 1050 0 0 26 0 0
48 1042 0 0 27 0 0
50 1046 0 0 30 0 0
52 1032 0 2 31 0 0
54 1024 0 7 23 0 0
56 1014 0 9 20 2 0
58 1006 0 20 16 2 0
60 999 0 25 24 2 0
62 998 0 28 22 3 0
64 991 0 33 23 7 0
66 988 0 34 25 5 0
68 982 0 38 19 10 0
70 975 0 46 18 5 0
72 968 0 52 18 1 0
74 969 0 55 17 5 0
76 962 0 60 20 11 0
78 946 0 71 29 9 0
80 950 0 88 19 8 0
82 949 0 88 14 7 0
84 947 0 90 14 3 0
86 942 0 97 15 8 0
88 935 0 104 11 13 0
90 925 0 113 15 7 0
92 922 0 111 13 10 0
94 919 0 115 16 10 0
96 915 0 130 12 5 0
98 905 0 133 19 8 0
100 910 0 137 13 11 0
102 903 0 141 15 10 0
104 901 0 142 17 11 0
106 896 0 150 20 12 0
108 889 0 149 13 13 0
110 889 0 156 11 5 0
112 886 0 151 10 8 0
114 880 0 164 15 8 0
116 872 0 172 16 7 0
118 872 0 169 13 9 0
120 865 0 174 15 6 0
122 863 0 167 10 17 0
124 855 0 178 12 13 0
126 845 0 188 17 9 0
128 845 0 190 12 8 0
130 850 0 189 7 15 0
132 841 0 197 15 10 0
134 834 0 196 12 17 0
136 832 0 204 17 11 0
138 831 0 209 16 11 0
140 831 0 210 8 11 0
142 828 0 222 7 7 0
144 823 0 211 9 19 0
146 817 0 224 13 11 0
148 810 0 227 16 12 0
150 812 0 234 9 11 0
152 809 0 249 9 8 0
154 803 0 255 12 10 0
156 802 0 246 10 12 0
158 796 0 244 12 16 0
160 792 0 254 11 13 0
162 784 0 270 12 13 0
164 780 0 273 11 13 0
166 776 0 276 10 16 0
168 776 0 281 10 7 0
170 771 0 286 11 11 0
172 769 0 279 11 18 0
174 761 0 292 11 16 0
176 754 0 296 16 11 0
178 754 0 303 13 15 0
180 746 0 310 17 16 0
182 745 0 310 12 12 0
184 740 0 313 11 8 0
186 735 0 309 14 17 0
188 739 0 320 11 14 0
190 731 0 319 11 16 0
192 731 0 313 7 13 0
194 722 0 302 14 22 0
196 719 0 320 11 16 0
198 713 0 322 13 14 0
200 710 0 331 12 13 0
