0 1136 0 0 0 0
2 1128 5 0 2 0
4.00004 1126 11 0 1 0
6 1136 8 0 0 0
8 1140 7 0 1 0
10 1143 3 0 3 0
12 1148 6 0 1 0
14 1147 7 0 3 0
16 1155 4 0 2 0
18 1148 11 0 0 0
20 1154 6 0 4 0
22 1156 5 0 2 0
24 1150 13 0 3 0
26 1155 11 0 1 0
28 1151 8 0 2 0
30 1149 9 0 2 0
32 1150 7 0 3 0
34 1148 9 0 3 0
36 1146 7 0 2 0
38 1145 6 0 3 0
40 1146 3 0 2 0
42 1137 10 0 3 0
44 1146 7 0 1 0
46 1139 7 0 2 0
48 1135 9 0 1 0
50 1139 6 0 1 0
52 953 1 192 1 0
54 832 0 316 1 0
56 718 1 427 2 0
58 633 1 517 1 1
60 551 0 591 1 1
62 490 0 655 4 0
64 441 2 702 1 2
66 378 0 776 2 1
68 333 0 823 1 0
70 303 0 851 0 1
72 276 1 882 1 1
74 242 0 908 1 4
76 220 0 938 1 1
78 201 0 960 0 0
80 171 0 987 0 0
82 159 0 997 3 0
84 148 0 1005 0 1
86 130 0 1016 0 1
88 115 0 1027 2 1
90 108 0 1035 1 2
92 94 0 1049 0 0
94 87 0 1052 1 2
96 85 0 1061 0 0
98 76 0 1073 2 2
100 79 0 1073 0 1
102 75 0 1070 1 0
104 71 0 1070 0 2
106 69 0 1078 1 0
108 63 0 1082 0 0
110 61 0 1081 1 2
112 59 0 1085 1 3
114 56 0 1094 1 1
116 50 0 1092 1 1
118 47 0 1092 1 2
120 43 0 1094 0 1
122 41 0 1095 0 2
124 43 0 1099 0 0
126 44 0 1089 2 1
128 47 0 1083 0 2
130 46 0 1089 0 4
132 45 0 1090 1 2
134 46 0 1089 1 1
136 44 0 1087 1 0
138 42 0 1086 0 0
140 39 0 1080 2 3
142 34 0 1084 0 2
144 36 0 1087 1 3
146 43 0 1082 2 1
148 44 0 1087 0 0
150 36 0 1102 0 0
152 36 1 1098 0 3
154 36 0 1084 0 8
156 37 0 1090 2 0
158 38 0 1084 1 5
160 38 0 1084 0 2
162 37 0 1088 0 0
164 36 0 1085 0 1
166 36 0 1088 1 3
168 37 0 1089 0 2
170 34 0 1087 0 0
172 36 0 1085 0 1
174 36 0 1088 0 1
176 30 0 1091 0 2
178 30 0 1097 0 1
180 31 0 1097 0 1
182 31 0 1099 1 1
184 35 0 1093 1 2
186 31 0 1095 0 1
188 29 0 1096 1 1
190 30 0 1093 0 2
192 29 2 1094 0 1
194 24 0 1102 0 1
196 28 0 1096 1 3
198 30 0 1095 0 1
200 29 0 1086 0 3
