0 980 0 0 0 0
2 980 0 0 2 0
4.00004 976 0 0 2 0
6 974 0 0 2 0
8 974 0 0 1 0
10 977 0 0 1 0
12 973 0 0 2 0
14 977 0 0 0 0
16 982 0 0 1 0
18 983 0 0 0 0
20 980 0 0 1 0
22 983 0 0 2 0
24 981 0 0 0 0
26 983 0 0 1 0
28 985 0 0 1 0
30 983 0 0 3 0
32 984 0 0 2 0
34 986 0 0 2 0
36 982 0 0 5 0
38 983 0 0 1 0
40 988 0 0 0 0
42 991 0 0 0 0
44 991 0 0 1 0
46 989 0 0 1 0
48 987 0 0 2 0
50 986 0 0 1 0
52 989 0 0 2 0
54 991 0 0 0 0
56 989 0 0 0 0
58 985 0 1 2 0
60 985 0 1 1 0
62 991 0 1 1 0
64 986 0 1 2 0
66 991 0 4 2 0
68 990 0 5 1 0
70 991 0 5 1 0
72 988 0 8 2 0
74 983 0 11 2 0
76 982 0 14 1 0
78 979 0 17 2 0
80 979 0 19 2 1
82 977 0 23 2 0
84 974 0 26 0 0
86 963 0 29 1 0
88 954 0 32 1 0
90 956 0 35 1 1
92 957 0 38 0 1
94 954 0 39 1 3
96 950 0 45 1 0
98 947 0 48 2 0
100 945 0 53 1 0
102 942 0 53 2 1
104 935 0 58 2 0
106 935 0 60 0 0
108 931 0 64 2 1
110 928 0 72 1 0
112 924 0 76 0 0
114 919 0 78 2 1
116 920 0 79 1 0
118 912 0 83 2 1
120 909 0 89 2 0
122 903 0 91 0 0
124 901 0 94 1 2
126 899 0 98 0 0
128 898 0 102 1 1
130 891 0 107 1 1
132 891 0 111 1 1
134 892 0 113 0 0
136 889 0 113 1 0
138 883 0 114 0 1
140 880 0 119 2 0
142 874 0 122 2 0
144 876 0 127 1 0
146 871 0 128 2 0
148 870 0 132 1 1
150 866 0 133 0 2
152 862 0 144 0 0
154 861 0 145 0 0
156 856 0 152 0 2
158 853 0 156 1 0
160 843 0 157 3 0
162 841 0 161 1 0
164 838 0 167 0 0
166 833 0 173 1 1
168 830 0 175 0 1
170 827 0 180 0 0
172 824 0 182 0 0
174 820 0 186 1 0
176 821 0 188 0 0
178 815 0 189 1 0
180 811 0 192 2 2
182 807 0 197 4 0
184 802 0 196 0 0
186 797 0 202 2 1
188 796 0 208 1 0
190 792 0 211 1 1
192 793 0 217 0 2
194 789 0 222 2 0
196 783 0 225 0 0
198 780 0 228 0 1
200 775 0 232 0 0
