0 861 0 0 0 0
2 862 0 0 3 0
4.00004 866 0 0 1 0
6 866 0 0 1 0
8 863 0 0 1 0
10 865 0 0 0 0
12 865 0 0 1 0
14 869 0 0 1 0
16 867 0 0 0 0
18 868 0 0 1 0
20 875 0 0 0 0
22 883 0 0 1 0
24 882 0 0 0 0
26 883 0 0 0 0
28 881 0 0 2 0
30 890 0 0 0 0
32 889 0 0 1 0
34 890 0 0 1 0
36 891 0 0 1 0
38 894 0 0 0 0
40 898 0 0 0 0
42 900 0 0 5 0
44 908 0 0 0 0
46 908 0 0 2 0
48 910 0 0 2 0
50 910 0 0 3 0
52 914 0 0 5 0
54 924 0 0 0 0
56 924 0 2 1 0
58 921 0 5 0 0
60 918 0 5 0 0
62 920 0 6 2 0
64 920 0 7 1 1
66 915 0 11 0 2
68 913 0 13 1 0
70 913 0 17 1 0
72 909 0 18 0 0
74 908 0 18 0 0
76 904 0 22 2 0
78 901 0 27 0 0
80 894 0 31 3 0
82 890 0 32 2 1
84 886 0 39 0 0
86 876 0 42 4 0
88 869 0 50 0 0
90 868 0 56 0 0
92 865 0 62 2 0
94 860 0 68 0 0
96 859 0 75 0 1
98 852 0 81 1 2
100 848 0 83 3 1
102 845 0 92 0 0
104 841 0 96 0 0
106 835 0 102 1 1
108 834 0 110 0 0
110 829 0 115 0 2
112 825 0 120 3 0
114 824 0 125 1 0
116 821 0 126 1 0
118 817 0 127 0 1
120 813 0 131 2 1
122 807 0 134 2 2
124 801 0 134 1 1
126 797 0 136 1 0
128 794 0 141 1 0
130 791 0 145 1 0
132 786 0 147 0 1
134 783 0 151 2 1
136 777 0 156 0 0
138 776 0 161 0 0
140 775 0 163 2 2
142 769 0 170 1 0
144 767 0 172 0 0
146 762 0 182 1 0
148 756 0 184 1 0
150 755 0 189 0 1
152 753 0 197 2 1
154 751 0 199 1 1
156 751 0 205 0 0
158 747 0 206 1 1
160 744 0 210 0 1
162 737 0 214 2 0
164 736 0 220 0 1
166 734 0 225 0 1
168 731 0 228 1 0
170 730 0 231 0 1
172 723 0 232 1 0
174 715 0 235 1 0
176 710 0 242 2 2
178 708 0 244 1 0
180 703 0 244 3 1
182 704 0 246 0 1
184 698 0 249 2 0
186 694 0 253 0 0
188 687 0 251 2 1
190 687 0 257 0 0
192 681 0 259 0 3
194 678 0 263 0 3
196 674 0 268 1 1
198 670 0 271 0 1
200 667 0 274 2 0
