0 964 0 0 0 0
2 963 6 0 0 0
4.00004 960 6 0 3 0
6 964 6 0 0 0
8 964 2 0 3 0
10 957 5 0 3 0
12 958 4 0 0 0
14 950 5 0 4 0
16 946 8 0 3 0
18 953 4 0 2 0
20 948 6 0 2 0
22 952 3 0 1 0
24 955 3 0 3 0
26 953 6 0 1 0
28 956 5 0 1 0
30 953 3 0 4 0
32 950 5 0 1 0
34 948 4 0 3 0
36 945 7 0 2 0
38 945 3 0 5 0
40 942 3 0 4 0
42 940 4 0 2 0
44 953 2 0 3 0
46 956 4 0 0 0
48 955 7 0 1 0
50 956 8 0 1 0
52 821 0 140 3 0
54 734 1 222 2 0
56 652 0 305 2 0
58 582 0 377 1 1
60 509 0 445 2 2
62 470 0 493 3 0
64 432 0 527 0 1
66 385 0 569 2 2
68 345 0 604 2 2
70 310 0 633 1 2
72 291 0 656 1 2
74 266 0 682 2 1
76 245 0 703 0 0
78 217 0 731 1 3
80 202 0 750 1 1
82 189 0 763 2 1
84 176 0 774 1 1
86 152 0 792 0 1
88 139 0 798 1 0
90 131 0 809 0 1
92 112 1 825 0 2
94 105 0 836 0 2
96 105 0 836 1 4
98 97 0 846 1 0
100 86 0 853 0 1
102 83 0 853 1 2
104 78 0 861 0 1
106 72 0 864 0 0
108 63 0 869 0 1
110 66 0 873 0 1
112 70 0 868 2 2
114 68 0 861 0 1
116 71 0 853 1 3
118 68 0 845 0 1
120 61 0 850 0 0
122 54 0 861 1 1
124 54 0 860 1 1
126 51 0 859 2 1
128 48 0 867 0 0
130 50 0 867 0 1
132 43 0 869 1 2
134 42 0 869 0 3
136 42 0 870 0 0
138 40 0 867 0 1
140 46 0 862 0 1
142 42 0 863 1 2
144 47 0 862 1 2
146 49 0 863 2 1
148 51 0 862 0 1
150 49 0 860 0 1
152 47 0 857 1 2
154 50 0 858 0 1
156 46 0 862 1 3
158 51 0 868 0 0
160 48 0 865 1 1
162 46 0 868 0 3
164 48 0 866 0 1
166 44 0 870 0 1
168 41 1 872 1 0
170 43 0 870 0 1
172 42 0 872 1 3
174 43 0 865 1 3
176 44 0 867 1 3
178 46 0 866 1 1
180 45 0 867 0 1
182 49 0 855 0 0
184 53 0 855 0 2
186 55 0 853 1 1
188 57 0 853 0 1
190 52 1 856 1 2
192 53 0 863 0 1
194 53 0 862 1 1
196 54 0 854 0 0
198 51 0 858 0 1
200 53 0 855 1 1
