0 1088 0 0 0 0
2 1078 3 0 2 0
4.00004 1077 1 0 1 0
6 1065 7 0 4 0
8 1070 5 0 1 0
10 1067 4 0 1 0
12 1073 3 0 1 0
14 1071 5 0 2 0
16 1072 6 0 1 0
18 1073 0 0 3 0
20 1067 3 0 1 0
22 1070 1 0 1 0
24 1069 2 0 1 0
26 1051 6 0 1 0
28 1049 7 0 1 0
30 1054 7 0 1 0
32 1058 1 0 1 0
34 1058 4 0 1 0
36 1062 5 0 1 0
38 1061 7 0 2 0
40 1066 3 0 3 0
42 1066 6 0 2 0
44 1069 3 0 3 0
46 1071 2 0 2 0
48 1064 4 0 1 0
50 1068 3 0 1 0
52 964 0 108 1 0
54 882 0 190 2 0
56 811 0 255 2 0
58 749 0 319 0 0
60 677 0 388 1 0
62 628 0 438 0 0
64 577 0 485 2 1
66 525 0 542 1 0
68 475 1 590 1 0
70 438 0 635 0 0
72 406 0 667 1 0
74 376 0 694 0 2
76 343 0 725 3 1
78 327 0 745 1 0
80 300 0 769 1 2
82 276 0 793 0 1
84 254 1 818 0 2
86 233 1 836 0 0
88 226 0 846 0 0
90 209 0 859 0 0
92 188 0 871 1 1
94 183 0 883 1 0
96 174 0 888 0 0
98 165 0 897 1 1
100 162 0 902 0 1
102 151 0 914 1 0
104 140 0 928 1 0
106 128 0 939 1 0
108 129 0 944 1 0
110 123 0 949 0 1
112 120 0 956 2 0
114 114 0 964 0 1
116 112 0 966 0 2
118 109 0 966 1 1
120 101 0 975 0 1
122 100 0 974 2 2
124 96 0 976 0 1
126 95 0 976 1 2
128 95 0 972 0 3
130 94 0 974 0 1
132 92 0 977 0 1
134 86 0 981 0 1
136 86 0 988 0 2
138 84 0 990 0 1
140 79 0 993 0 0
142 75 0 995 0 1
144 73 0 997 0 1
146 65 0 1001 1 1
148 64 0 997 0 0
150 65 0 999 0 1
152 64 0 994 0 3
154 59 0 1005 1 2
156 57 0 1005 1 3
158 58 0 1007 1 0
160 56 0 1009 0 1
162 54 0 1011 1 1
164 54 0 1015 0 0
166 52 0 1015 0 2
168 54 0 1015 2 1
170 54 0 1015 0 1
172 58 0 1011 0 0
174 57 0 1011 1 1
176 56 0 1009 0 2
178 56 0 1008 0 3
180 59 0 1010 1 0
182 57 0 1011 0 0
184 52 0 1011 0 1
186 52 0 1009 0 2
188 52 0 1009 0 0
190 50 0 1012 0 2
192 52 0 1014 0 1
194 47 0 1015 2 1
196 51 0 1014 0 0
198 49 0 1008 0 1
200 48 0 1012 0 0
