0 1036 0 0 0 0
2 1023 8 0 1 0
4.00004 1019 9 0 1 0
6 1017 10 0 3 0
8 1022 4 0 2 0
10 1015 6 0 3 0
12 1015 6 0 1 0
14 1015 5 0 6 0
16 1022 5 0 5 0
18 1025 7 0 1 0
20 1022 6 0 0 0
22 1025 4 0 3 0
24 1022 6 0 1 0
26 1023 3 0 2 0
28 1020 7 0 2 0
30 1027 3 0 1 0
32 1023 6 0 4 0
34 1017 10 0 1 0
36 1026 3 0 1 0
38 1017 6 0 2 0
40 1025 2 0 4 0
42 1024 4 0 1 0
44 1030 1 0 1 0
46 1024 4 0 3 0
48 1022 9 0 1 0
50 1018 12 0 1 0
52 895 0 134 7 0
54 785 0 241 2 0
56 689 2 328 0 0
58 601 0 410 3 1
60 536 0 471 2 0
62 465 0 540 4 0
64 412 0 594 3 0
66 379 0 623 3 2
68 341 0 667 1 0
70 312 0 698 4 0
72 291 0 726 1 1
74 264 0 754 2 1
76 237 0 785 1 2
78 220 0 794 2 6
80 202 0 823 0 0
82 189 0 835 0 2
84 182 0 849 0 0
86 165 0 859 2 2
88 154 0 871 0 0
90 138 0 880 0 2
92 126 0 888 2 3
94 122 0 893 0 1
96 112 0 896 3 2
98 109 0 898 3 1
100 106 0 904 0 1
102 104 0 901 2 3
104 98 0 906 0 2
106 94 0 907 0 3
108 88 0 913 2 1
110 83 0 916 0 5
112 83 0 912 0 5
114 84 0 920 1 0
116 80 0 925 0 0
118 72 0 927 2 2
120 68 0 933 0 2
122 69 0 935 0 2
124 65 0 932 0 3
126 63 0 930 0 1
128 68 0 929 1 3
130 57 0 935 1 0
132 55 0 938 1 1
134 59 0 931 0 2
136 52 0 940 1 0
138 55 0 940 0 0
140 54 0 936 1 1
142 54 0 937 0 0
144 54 0 927 0 4
146 56 0 933 0 1
148 57 0 935 0 1
150 59 0 937 0 6
152 57 0 935 0 0
154 55 0 936 0 1
156 53 0 935 1 0
158 51 0 934 1 1
160 49 0 935 1 1
162 48 0 934 0 2
164 48 0 923 1 2
166 47 0 923 1 0
168 44 0 927 0 1
170 45 0 923 0 2
172 49 0 922 0 1
174 53 0 921 0 4
176 55 0 922 0 2
178 54 0 921 1 1
180 53 0 924 0 1
182 53 0 923 0 3
184 48 0 925 1 1
186 51 0 925 1 0
188 49 0 929 0 0
190 53 0 927 0 2
192 48 0 930 1 1
194 47 0 928 2 2
196 46 0 931 2 1
198 46 0 936 1 2
200 49 0 930 3 3
