0 942 0 0 0 0
2 934 0 0 3 0
4.00004 928 0 0 3 0
6 925 0 0 2 0
8 929 0 0 0 0
10 924 0 0 2 0
12 929 0 0 0 0
14 928 0 0 1 0
16 928 0 0 1 0
18 925 0 0 1 0
20 924 0 0 2 0
22 925 0 0 2 0
24 921 0 0 4 0
26 924 0 0 2 0
28 929 0 0 3 0
30 937 0 0 0 0
32 938 0 0 2 0
34 940 0 0 1 0
36 944 0 0 1 0
38 938 0 0 2 0
40 941 0 0 0 0
42 939 0 0 0 0
44 939 0 0 3 0
46 942 0 0 0 0
48 938 0 0 2 0
50 942 0 0 2 0
52 948 0 0 2 0
54 946 0 0 1 0
56 944 0 1 0 0
58 944 0 2 1 0
60 941 0 2 2 0
62 940 0 3 1 0
64 938 0 5 3 0
66 938 0 5 3 0
68 937 0 5 0 0
70 928 0 5 3 1
72 925 0 9 0 0
74 918 0 17 0 0
76 921 0 18 1 0
78 921 0 19 1 0
80 914 0 20 0 0
82 903 0 21 3 0
84 903 0 21 2 1
86 899 0 24 1 0
88 900 0 29 0 0
90 893 0 31 1 0
92 890 0 35 1 0
94 883 0 37 1 0
96 881 0 43 0 1
98 879 0 47 1 1
100 875 0 55 0 0
102 873 0 58 0 0
104 868 0 60 2 0
106 867 0 63 0 3
108 864 0 66 2 0
110 862 0 69 2 1
112 860 0 72 3 0
114 857 0 75 0 0
116 855 0 76 1 0
118 850 0 80 0 0
120 849 0 82 0 0
122 844 0 84 2 1
124 844 0 87 0 0
126 836 0 91 2 1
128 835 0 98 3 0
130 834 0 102 1 1
132 828 0 112 0 0
134 820 0 115 0 2
136 815 0 120 3 0
138 812 0 128 0 0
140 807 0 129 2 0
142 805 0 133 0 1
144 802 0 140 0 0
146 802 0 141 1 0
148 798 0 148 2 0
150 795 0 148 2 0
152 788 0 152 1 0
154 786 0 149 0 1
156 783 0 152 0 2
158 777 0 153 1 0
160 773 0 157 3 0
162 774 0 157 0 1
164 771 0 160 1 3
166 770 0 162 0 0
168 767 0 168 3 0
170 763 0 169 1 0
172 758 0 167 2 1
174 756 0 165 0 1
176 752 0 166 0 0
178 748 0 167 1 0
180 746 0 171 0 0
182 745 0 178 1 1
184 739 0 177 0 0
186 738 0 181 0 1
188 732 0 184 0 1
190 730 0 188 0 2
192 724 0 194 1 0
194 721 0 198 2 0
196 717 0 205 0 1
198 712 0 206 3 0
200 714 0 206 0 1
