0 1004 0 0 0 0 0
2 933 8 0 40 0 42
4.00004 906 10 0 63 0 33
6 923 3 0 66 0 24
8 896 9 0 91 0 25
10 877 7 0 111 0 26
12 860 8 0 121 0 33
14 840 9 0 139 0 32
16 833 5 0 139 0 37
18 826 9 0 150 0 31
20 825 5 0 158 0 28
22 824 6 0 168 0 22
24 815 8 0 169 0 24
26 817 7 0 166 0 27
28 822 4 0 170 0 29
30 824 5 0 158 0 21
32 810 8 0 167 0 30
34 811 9 0 163 0 30
36 803 4 0 189 0 29
38 779 7 0 200 0 40
40 783 4 0 214 0 29
42 788 5 0 209 0 21
44 797 4 0 206 0 25
46 793 7 0 206 0 30
48 785 5 0 199 0 33
50 779 7 0 215 0 32
52 580 0 210 159 76 0
54 463 1 326 146 93 1
56 384 0 416 133 91 0
58 306 0 485 124 113 0
60 246 0 551 110 111 0
62 200 0 593 106 125 0
64 167 0 619 95 137 1
66 131 0 663 106 132 0
68 104 0 693 115 135 0
70 85 0 713 106 134 0
72 68 0 726 102 138 0
74 52 0 740 99 145 0
76 44 0 758 89 149 0
78 37 1 765 84 146 0
80 29 0 776 85 150 0
82 23 0 790 77 140 0
84 21 0 773 73 168 0
86 13 0 790 69 164 0
88 10 0 773 66 186 0
90 6 0 782 73 182 0
92 5 0 767 64 200 0
94 4 0 782 55 193 0
96 4 0 775 62 195 0
98 4 0 778 58 195 0
100 3 0 794 62 173 0
102 3 0 789 63 186 0
104 3 0 791 63 183 0
106 1 0 786 62 198 0
108 0 0 780 60 192 0
110 0 0 780 63 195 0
112 0 0 789 54 190 0
114 0 0 798 43 183 0
116 0 0 805 46 174 0
118 0 0 808 46 179 0
120 0 0 802 43 181 0
122 0 0 812 41 167 0
124 0 0 789 41 189 0
126 0 0 790 45 186 0
128 0 0 803 49 175 0
130 0 0 800 48 173 0
132 0 0 796 46 180 0
134 0 0 801 58 179 0
136 0 0 798 60 174 0
138 0 0 801 49 177 0
140 0 0 803 56 180 0
142 0 0 800 55 178 0
144 0 0 783 49 194 0
146 0 0 780 57 192 0
148 0 0 794 53 182 0
150 0 0 803 58 162 0
152 0 0 791 54 185 0
154 0 0 813 54 165 0
156 0 0 802 55 181 0
158 0 0 811 54 171 0
160 0 0 793 53 186 0
162 0 0 790 46 204 0
164 0 0 794 39 205 0
166 0 0 798 44 191 0
168 0 0 805 40 188 0
170 0 0 809 39 183 0
172 0 0 792 40 196 0
174 0 0 807 43 180 0
176 0 0 801 51 193 0
178 0 0 786 54 206 0
180 0 0 801 51 194 0
182 0 0 806 43 190 0
184 0 0 787 44 202 0
186 0 0 797 41 202 0
188 0 0 800 39 193 0
190 0 0 809 39 189 0
192 0 0 798 34 197 0
194 0 0 806 37 181 0
196 0 0 801 39 191 0
198 0 0 808 45 180 0
200 0 0 803 48 184 0
