0 821 0 0 0 0 0
2 739 23 0 36 0 11
4.00004 731 9 0 55 0 14
6 716 16 0 74 0 5
8 711 16 0 63 0 14
10 692 19 0 81 0 19
12 704 16 0 77 0 14
14 710 19 0 85 0 17
16 717 15 0 94 0 15
18 723 14 0 92 0 21
20 722 16 0 94 0 19
22 748 17 0 81 0 15
24 743 17 0 86 0 12
26 734 10 0 96 0 19
28 746 15 0 83 0 15
30 751 16 0 79 0 18
32 747 14 0 89 0 17
34 737 17 0 90 0 22
36 737 20 0 100 0 17
38 755 21 0 98 0 13
40 771 19 0 84 0 19
42 786 15 0 87 0 14
44 800 17 0 76 0 18
46 803 17 0 68 0 18
48 803 19 0 89 0 12
50 810 15 0 75 0 24
52 637 0 189 38 70 0
54 533 0 292 30 76 0
56 447 0 375 25 82 0
58 362 1 457 21 87 0
60 305 0 517 18 82 0
62 255 0 571 19 68 0
64 217 0 600 28 80 0
66 177 0 638 18 89 0
68 147 0 672 19 91 0
70 119 0 692 27 95 1
72 93 0 722 20 92 0
74 72 0 741 27 98 1
76 58 0 760 28 90 0
78 49 0 775 15 103 0
80 43 0 796 15 86 0
82 35 0 809 17 82 0
84 28 0 808 13 94 0
86 20 0 817 18 108 0
88 16 0 820 15 108 0
90 13 0 822 12 100 0
92 12 0 824 14 79 0
94 10 0 821 17 85 0
96 9 0 814 23 92 0
98 6 0 817 22 96 0
100 4 0 817 21 95 0
102 3 0 834 20 89 0
104 3 0 843 16 96 0
106 3 0 842 16 95 0
108 2 0 845 19 89 0
110 2 0 844 11 99 0
112 2 0 853 10 96 0
114 1 0 863 10 76 0
116 1 0 860 12 73 0
118 1 0 870 11 72 0
120 1 0 846 14 90 0
122 1 0 844 14 95 0
124 1 0 848 22 96 0
126 1 0 855 12 93 0
128 1 0 855 16 94 0
130 1 0 859 21 80 0
132 1 0 841 15 110 1
134 0 0 857 11 85 0
136 0 0 851 17 91 0
138 0 0 854 11 105 0
140 0 0 845 11 110 0
142 0 0 868 11 90 0
144 0 0 865 16 85 0
146 0 0 867 12 88 0
148 0 0 869 13 104 1
150 0 0 878 13 93 0
152 0 0 870 12 101 0
154 0 0 884 13 100 0
156 0 0 880 12 102 0
158 0 0 873 13 103 0
160 0 0 870 17 101 0
162 0 0 878 9 105 0
164 0 0 893 6 97 0
166 0 0 903 9 79 0
168 0 0 900 10 85 0
170 0 0 884 11 98 0
172 0 0 870 6 125 0
174 0 0 879 9 111 0
176 0 0 889 12 94 0
178 0 0 892 15 95 0
180 0 0 889 10 93 0
182 0 0 888 9 104 0
184 0 0 885 11 107 0
186 0 0 878 8 108 0
188 0 0 878 9 103 0
190 0 0 874 8 115 0
192 0 0 874 7 112 0
194 0 0 886 3 96 0
196 0 0 888 6 101 0
198 0 0 904 8 87 0
200 0 0 893 8 105 0
