0 1084 0 0 0 0 0
2 1032 0 0 43 0 0
4.00004 1033 0 0 55 0 0
6 1001 0 0 100 0 0
8 998 0 0 91 0 0
10 992 0 0 104 0 0
12 969 0 0 123 0 0
14 977 0 0 119 0 0
16 968 0 0 129 0 0
18 964 0 0 130 0 0
20 953 0 0 147 0 0
22 941 0 0 159 0 0
24 944 0 0 150 0 0
26 943 0 0 147 0 0
28 945 0 0 142 0 0
30 937 0 0 158 0 0
32 942 0 0 149 0 0
34 937 0 0 159 0 0
36 937 0 0 152 0 0
38 934 0 0 152 0 0
40 928 0 0 163 0 0
42 925 0 0 167 0 0
44 927 0 0 163 0 0
46 907 0 0 184 0 0
48 914 0 0 176 0 0
50 925 0 0 169 0 0
52 917 0 0 167 0 0
54 918 0 0 160 1 0
56 933 0 0 150 5 0
58 929 0 0 153 7 0
60 934 0 1 139 13 0
62 937 0 2 140 12 0
64 931 0 3 135 22 0
66 935 0 3 122 28 0
68 922 0 8 134 29 0
70 915 0 8 140 37 0
72 916 0 8 128 41 0
74 913 0 11 122 44 0
76 903 0 17 130 40 0
78 905 0 20 121 38 0
80 889 0 22 127 40 0
82 891 0 25 128 34 0
84 896 0 31 120 40 0
86 896 0 32 111 43 0
88 896 0 36 115 39 0
90 883 0 40 121 47 0
92 890 0 45 113 50 0
94 883 0 42 112 56 0
96 870 0 54 121 52 0
98 873 0 55 114 52 0
100 858 0 55 128 55 0
102 870 0 56 116 53 0
104 857 0 58 117 62 0
106 861 0 64 107 51 0
108 859 0 72 101 50 0
110 861 0 72 98 62 0
112 843 0 70 110 64 0
114 847 0 76 100 55 0
116 838 0 81 111 61 0
118 827 0 83 108 53 0
120 827 0 90 106 49 0
122 822 0 89 103 60 0
124 821 0 94 106 59 0
126 824 0 101 97 53 0
128 811 0 101 98 67 0
130 806 0 105 104 67 0
132 808 0 111 103 65 0
134 804 0 113 100 67 0
136 807 0 117 96 65 0
138 799 0 115 102 79 0
140 803 0 116 101 82 0
142 797 0 124 101 77 0
144 787 0 139 105 70 0
146 783 0 141 98 75 0
148 776 0 148 103 72 0
150 772 0 150 99 72 0
152 775 0 150 98 79 0
154 779 0 154 88 84 0
156 774 0 159 85 83 0
158 772 0 163 85 79 0
160 758 0 171 99 78 0
162 757 0 179 89 74 0
164 750 0 181 100 72 0
166 751 0 180 98 80 0
168 742 0 185 105 81 0
170 739 0 184 102 82 0
172 735 0 196 103 86 0
174 739 0 199 95 89 0
176 732 0 208 93 80 0
178 732 0 208 92 79 0
180 721 0 210 99 83 0
182 702 0 211 116 86 0
184 697 0 221 116 90 0
186 694 0 221 119 82 0
188 707 0 225 100 75 0
190 706 0 234 89 67 0
192 698 0 234 91 72 0
194 702 0 238 87 71 0
196 701 0 232 90 79 0
198 688 0 236 97 81 0
200 683 0 233 94 76 0
