0 1279 0 0 0 0 0
2 1213 0 0 73 0 0
4.00004 1160 0 0 112 0 0
6 1143 0 0 128 0 0
8 1128 0 0 153 0 0
10 1116 0 0 147 0 0
12 1116 0 0 155 0 0
14 1105 0 0 181 0 0
16 1099 0 0 172 0 0
18 1103 0 0 170 0 0
20 1105 0 0 160 0 0
22 1105 0 0 161 0 0
24 1096 0 0 191 0 0
26 1119 0 0 167 0 0
28 1123 0 0 164 0 0
30 1129 0 0 152 0 0
32 1129 0 0 165 0 0
34 1135 0 0 164 0 0
36 1112 0 0 187 0 0
38 1120 0 0 157 0 0
40 1124 0 0 161 0 0
42 1129 0 0 166 0 0
44 1147 0 0 156 0 0
46 1124 0 0 163 0 0
48 1139 0 0 170 0 0
50 1161 0 0 151 0 0
52 1155 0 0 149 7 0
54 1156 0 4 135 17 0
56 1152 0 8 121 28 0
58 1133 0 19 133 36 0
60 1136 0 29 113 44 0
62 1119 0 43 105 43 0
64 1108 0 55 102 66 0
66 1076 0 77 116 51 0
68 1069 0 89 101 55 0
70 1048 0 107 113 66 0
72 1043 0 120 97 55 0
74 1025 0 133 106 58 0
76 1015 0 138 99 59 0
78 998 0 159 105 56 0
80 983 0 176 105 63 0
82 972 0 190 97 56 0
84 945 0 202 112 51 0
86 942 0 210 95 67 0
88 932 0 214 91 87 0
90 921 0 230 86 82 0
92 916 0 257 74 73 0
94 896 0 277 85 67 0
96 881 0 289 87 72 0
98 876 0 302 76 70 0
100 843 0 308 92 76 0
102 839 0 319 84 84 0
104 816 0 339 97 83 0
106 817 0 359 78 69 0
108 798 0 364 87 72 0
110 781 0 367 90 84 0
112 792 0 374 73 83 0
114 773 0 373 81 89 0
116 766 0 384 75 76 0
118 750 0 394 77 78 0
120 755 0 399 63 85 0
122 739 0 398 74 93 0
124 730 0 411 69 93 0
126 711 0 406 71 98 0
128 698 0 407 73 98 0
130 681 0 427 83 93 0
132 683 0 446 70 84 0
134 670 0 449 76 106 0
136 666 0 452 64 102 0
138 658 0 461 65 100 0
140 638 0 452 69 115 0
142 636 0 473 70 95 0
144 635 0 477 66 103 0
146 629 0 497 54 102 0
148 603 0 504 74 107 0
150 593 0 515 70 109 0
152 583 0 530 69 94 0
154 574 0 532 67 103 0
156 564 0 533 65 97 0
158 564 0 550 57 84 0
160 558 0 554 55 97 0
162 554 0 553 55 105 0
164 541 0 551 59 124 0
166 540 0 577 55 96 0
168 524 0 579 59 106 0
170 528 0 592 50 109 0
172 516 0 600 50 97 0
174 506 0 598 57 110 0
176 492 0 610 55 109 0
178 500 0 612 42 119 0
180 488 0 626 45 112 0
182 475 0 628 58 109 0
184 473 0 636 50 105 0
186 470 0 632 44 105 0
188 455 0 635 51 106 0
190 459 0 635 38 117 0
192 434 0 634 58 124 0
194 438 0 639 49 124 0
196 433 0 649 46 127 0
198 435 0 654 37 117 0
200 425 0 664 44 117 0
