0 938 0 0 0 0 0
2 842 16 0 45 0 32
4.00004 831 7 0 71 0 33
6 807 5 0 101 0 33
8 788 12 0 110 0 29
10 771 10 0 132 0 33
12 761 6 0 138 0 43
14 749 12 0 145 0 42
16 751 10 0 148 0 41
18 753 16 0 134 0 48
20 753 9 0 162 0 26
22 748 8 0 168 0 40
24 743 12 0 177 0 34
26 750 9 0 167 0 48
28 762 13 0 141 0 44
30 761 11 0 155 0 42
32 755 14 0 142 0 44
34 762 13 0 160 0 39
36 760 10 0 164 0 44
38 768 9 0 153 0 31
40 752 16 0 147 0 42
42 746 16 0 160 0 32
44 733 10 0 171 0 47
46 716 16 0 176 0 48
48 717 17 0 184 0 47
50 728 11 0 184 0 39
52 558 1 183 99 128 0
54 459 0 293 75 151 0
56 386 0 374 69 146 1
58 313 0 438 80 169 0
60 265 1 511 63 156 0
62 215 0 549 60 189 1
64 175 0 598 48 185 0
66 154 0 623 42 188 0
68 131 0 642 41 195 0
70 114 0 641 38 218 0
72 95 0 684 35 188 0
74 78 0 722 48 176 0
76 68 0 719 43 198 0
78 57 0 750 40 179 0
80 48 0 740 38 192 0
82 42 0 765 34 175 0
84 39 0 775 31 181 0
86 34 0 772 28 191 0
88 27 0 781 34 186 0
90 22 0 785 26 191 0
92 18 0 793 29 184 0
94 18 0 778 35 205 0
96 16 0 782 36 198 0
98 12 0 802 26 175 1
100 9 0 827 34 161 0
102 8 0 823 29 172 0
104 7 0 828 28 167 0
106 5 0 817 33 183 0
108 5 0 811 33 200 0
110 4 0 825 24 176 0
112 3 0 818 20 176 0
114 3 0 816 26 182 0
116 3 0 820 26 178 0
118 2 0 819 33 186 0
120 2 0 820 26 179 0
122 2 0 804 33 196 0
124 0 0 809 35 193 0
126 0 0 813 25 198 0
128 0 0 811 31 193 0
130 0 0 819 29 198 0
132 0 0 834 29 196 0
134 0 0 834 33 195 0
136 0 0 841 28 195 0
138 0 0 842 23 202 0
140 0 0 833 19 202 0
142 0 0 832 17 198 0
144 0 0 837 22 189 0
146 0 0 824 21 179 0
148 0 0 810 24 196 0
150 0 0 811 26 206 0
152 0 0 786 23 222 0
154 0 0 791 34 198 0
156 0 0 795 27 217 0
158 0 0 796 21 207 0
160 0 0 808 16 199 0
162 0 0 806 16 207 0
164 0 0 810 14 201 0
166 0 0 821 12 180 0
168 0 0 810 16 197 0
170 0 0 794 20 220 0
172 0 0 829 15 185 0
174 0 0 828 27 189 0
176 0 0 820 30 191 0
178 0 0 813 28 210 0
180 0 0 831 14 196 0
182 0 0 835 16 192 0
184 0 0 836 15 194 0
186 0 0 831 18 197 0
188 0 0 832 17 185 0
190 0 0 822 11 195 0
192 0 0 841 19 188 0
194 0 0 847 14 182 0
196 0 0 853 19 183 0
198 0 0 856 16 179 0
200 0 0 868 16 162 0
