0 875 0 0 0 0 0
2 785 30 0 48 0 19
4.00004 765 25 0 73 0 11
6 761 17 0 85 0 14
8 752 18 0 92 0 18
10 744 19 0 102 0 16
12 741 14 0 116 0 12
14 726 16 0 128 0 22
16 712 15 0 134 0 18
18 712 16 0 132 0 15
20 706 23 0 133 0 11
22 717 9 0 134 0 17
24 708 14 0 137 0 20
26 705 15 0 156 0 17
28 688 25 0 161 0 21
30 697 19 0 166 0 18
32 698 18 0 170 0 15
34 682 23 0 176 0 19
36 692 24 0 165 0 18
38 703 10 0 173 0 23
40 701 13 0 174 0 13
42 704 20 0 152 0 14
44 691 21 0 178 0 15
46 704 14 0 180 0 16
48 683 20 0 185 0 21
50 699 14 0 184 0 17
52 467 0 231 128 74 0
54 355 0 344 98 100 0
56 286 0 422 98 102 0
58 205 0 496 86 107 0
60 157 0 551 76 105 0
62 119 0 583 76 115 0
64 91 0 616 66 124 0
66 71 0 616 68 146 0
68 57 0 637 59 139 0
70 43 0 657 56 126 0
72 32 0 675 54 127 0
74 25 0 667 55 143 0
76 22 0 662 48 148 0
78 19 0 671 47 150 0
80 16 0 680 50 153 0
82 14 0 674 54 155 0
84 10 0 679 48 160 0
86 7 0 675 43 169 0
88 6 0 659 43 185 0
90 6 0 669 54 171 0
92 5 0 685 47 149 0
94 4 0 681 48 159 0
96 2 0 679 43 164 0
98 0 0 680 46 170 0
100 0 0 688 52 165 0
102 0 0 670 45 181 0
104 0 0 691 45 167 0
106 0 0 705 49 156 0
108 0 0 687 46 168 0
110 0 0 688 43 168 0
112 0 0 689 43 178 1
114 0 0 694 37 180 0
116 0 0 698 48 178 0
118 0 0 689 41 185 0
120 0 0 702 43 170 0
122 0 0 719 37 158 0
124 0 0 724 33 161 0
126 0 0 736 37 144 0
128 0 0 733 35 156 0
130 0 0 733 36 153 0
132 0 0 730 27 165 0
134 0 0 722 35 162 0
136 0 0 718 37 164 0
138 0 0 715 48 167 0
140 0 0 721 46 158 0
142 0 0 699 41 182 0
144 0 0 709 35 170 0
146 0 0 713 41 168 0
148 0 0 703 39 178 0
150 0 0 708 38 167 0
152 0 0 715 31 157 0
154 0 0 721 36 146 0
156 0 0 708 30 162 0
158 0 0 726 35 144 0
160 0 0 708 29 167 0
162 0 0 709 35 161 0
164 0 0 707 32 168 0
166 0 0 701 25 187 0
168 0 0 728 22 154 0
170 0 0 725 27 149 0
172 0 0 715 34 158 0
174 0 0 726 32 160 0
176 0 0 720 35 159 0
178 0 0 717 46 171 0
180 0 0 711 45 174 0
182 0 0 730 40 156 0
184 0 0 734 43 154 0
186 0 0 731 33 155 0
188 0 0 741 27 148 0
190 0 0 744 31 151 0
192 0 0 746 27 146 0
194 0 0 745 30 152 0
196 0 0 729 33 172 0
198 0 0 720 30 180 0
200 0 0 730 31 160 0
