0 1017 0 0 0 0 0
2 881 22 0 78 0 37
4.00004 879 28 0 98 0 26
6 848 29 0 120 0 29
8 835 22 0 134 0 38
10 834 19 0 150 0 29
12 832 22 0 149 0 23
14 800 20 0 181 0 37
16 796 16 0 194 0 35
18 801 7 0 187 0 50
20 787 26 0 191 0 35
22 779 16 0 198 0 32
24 785 29 0 195 0 28
26 754 23 0 220 0 41
28 756 33 0 221 0 29
30 772 15 0 218 0 37
32 773 23 0 215 0 27
34 770 17 0 216 0 34
36 767 18 0 219 0 30
38 752 16 0 237 0 31
40 734 17 0 256 0 32
42 740 22 0 259 0 24
44 726 30 0 242 0 35
46 726 17 0 251 0 39
48 748 18 0 259 0 30
50 739 17 0 258 0 37
52 506 0 257 171 108 0
54 395 1 373 136 133 0
56 309 0 457 115 150 0
58 227 1 527 106 170 0
60 182 0 577 105 174 0
62 136 0 609 97 188 0
64 102 0 649 87 187 0
66 71 0 687 69 188 0
68 61 0 691 71 200 0
70 45 1 707 67 192 0
72 33 0 704 71 207 0
74 24 0 717 71 204 0
76 19 0 718 81 205 0
78 16 0 721 66 217 0
80 14 0 710 69 237 0
82 11 0 722 61 233 0
84 9 0 732 63 220 0
86 7 0 741 56 217 0
88 5 0 736 58 232 0
90 4 0 733 66 240 0
92 4 0 744 68 232 0
94 3 0 751 67 225 0
96 2 0 746 50 228 0
98 2 0 739 55 231 0
100 2 0 731 56 234 0
102 1 0 750 52 209 1
104 1 0 747 57 218 0
106 1 0 754 45 218 0
108 0 0 755 53 227 0
110 0 0 750 58 231 0
112 0 0 770 56 208 0
114 0 0 757 56 234 0
116 0 0 756 49 223 0
118 0 0 755 49 232 0
120 0 0 776 44 211 0
122 0 0 769 43 214 0
124 0 0 760 43 235 0
126 0 0 775 47 223 0
128 0 0 756 43 233 0
130 0 0 739 51 251 0
132 0 0 748 40 247 0
134 0 0 749 36 258 0
136 0 0 758 41 251 0
138 0 0 769 40 236 0
140 0 0 787 43 222 0
142 0 0 768 43 239 0
144 0 0 770 39 225 0
146 0 0 758 42 249 0
148 0 0 768 37 226 0
150 0 0 765 33 229 0
152 0 0 758 35 224 0
154 0 0 749 40 239 0
156 0 0 745 38 246 0
158 0 0 748 41 253 0
160 0 0 743 46 250 0
162 0 0 747 41 255 0
164 0 0 729 47 270 0
166 0 0 746 44 254 0
168 0 0 744 44 253 0
170 0 0 752 44 261 0
172 0 0 766 40 236 0
174 0 0 758 41 251 0
176 0 0 742 54 269 0
178 0 0 746 49 260 0
180 0 0 747 69 263 0
182 0 0 757 53 241 0
184 0 0 735 54 262 0
186 0 0 747 50 252 0
188 0 0 757 42 245 1
190 0 0 768 43 240 0
192 0 0 776 43 234 0
194 0 0 779 45 234 0
196 0 0 785 45 232 0
198 0 0 773 41 241 0
200 0 0 775 39 243 0
