0 48 0 1508
2 47 0 1548
4.00004 46 0 1601
6 45 0 1579
8 45 0 1574
10 47 0 1592
12 44 0 1571
14 42 0 1559
16 40 0 1525
18 40 1 1576
20 45 1 1526
22 49 1 1564
24 44 1 1554
26 47 2 1569
28 51 2 1586
30 51 3 1575
32 50 3 1584
34 49 3 1562
36 48 3 1556
38 47 3 1543
40 49 3 1524
42 46 2 1538
44 43 4 1511
46 49 5 1537
48 46 6 1523
50 47 5 1517
52 46 4 1513
54 49 2 1519
56 49 3 1525
58 42 4 1522
60 41 3 1529
62 39 4 1530
64 37 2 1536
66 36 2 1523
68 36 4 1518
70 38 4 1526
72 40 5 1534
74 41 3 1552
76 41 4 1523
78 44 3 1505
80 40 3 1494
82 40 3 1474
84 38 4 1468
86 41 4 1447
88 44 3 1475
90 48 2 1508
92 49 1 1490
94 51 1 1496
96 49 3 1501
98 51 2 1516
100 51 2 1548
102 51 3 1519
104 51 3 1554
106 49 5 1562
108 47 5 1570
110 46 4 1570
112 43 5 1570
114 41 5 1587
116 44 4 1559
118 46 5 1554
120 46 4 1575
122 44 3 1562
124 42 2 1559
126 41 6 1548
128 46 5 1546
130 46 5 1556
132 47 5 1568
134 41 5 1575
136 38 5 1560
138 35 7 1555
140 34 5 1559
142 34 5 1550
144 37 4 1542
146 37 6 1515
148 28 4 1517
150 24 6 1488
152 29 7 1494
154 25 8 1502
156 30 7 1493
158 38 9 1492
160 38 8 1494
162 33 7 1493
164 34 8 1494
166 33 7 1482
168 34 11 1490
170 38 13 1487
172 42 16 1481
174 41 16 1496
176 45 14 1501
178 44 13 1523
180 46 13 1515
182 42 14 1526
184 43 15 1519
186 45 17 1526
188 43 15 1522
190 40 14 1531
192 46 15 1531
194 49 14 1531
196 42 14 1541
198 46 16 1563
200 49 16 1543
