0 47 0 1583
2 45 0 1670
4.00004 44 0 1699
6 48 0 1708
8 48 0 1719
10 53 0 1771
12 52 0 1771
14 58 0 1758
16 57 1 1771
18 56 2 1811
20 58 3 1839
22 58 3 1847
24 58 4 1853
26 51 5 1858
28 52 6 1845
30 52 8 1850
32 54 11 1845
34 52 12 1847
36 48 12 1843
38 44 11 1837
40 44 14 1821
42 42 11 1799
44 46 14 1780
46 41 14 1748
48 43 16 1759
50 45 15 1758
52 41 15 1754
54 35 15 1746
56 36 15 1746
58 37 14 1734
60 37 16 1713
62 38 15 1711
64 40 15 1691
66 42 13 1701
68 44 12 1712
70 46 13 1695
72 46 14 1689
74 44 16 1706
76 46 17 1699
78 45 19 1699
80 42 21 1700
82 45 20 1658
84 48 22 1658
86 47 23 1643
88 44 21 1649
90 45 21 1651
92 46 22 1675
94 50 20 1686
96 50 23 1693
98 53 23 1699
100 49 21 1719
102 51 22 1732
104 51 23 1721
106 50 21 1722
108 54 20 1731
110 56 21 1752
112 53 23 1752
114 53 21 1746
116 53 22 1753
118 55 21 1774
120 52 21 1784
122 55 24 1794
124 52 23 1803
126 52 25 1810
128 47 27 1815
130 52 26 1820
132 51 25 1826
134 54 27 1828
136 54 29 1828
138 53 31 1825
140 53 34 1829
142 54 36 1841
144 56 33 1849
146 55 35 1864
148 59 35 1872
150 59 34 1882
152 56 34 1893
154 55 35 1889
156 52 34 1881
158 55 34 1887
160 51 33 1890
162 48 30 1893
164 46 28 1904
166 49 31 1917
168 46 35 1901
170 44 37 1899
172 45 36 1901
174 45 35 1904
176 44 35 1916
178 42 34 1914
180 44 39 1908
182 46 37 1911
184 45 41 1908
186 49 40 1919
188 48 41 1927
190 50 43 1932
192 49 39 1926
194 49 38 1936
196 47 35 1935
198 44 39 1935
200 44 38 1950
