0 102 0 3492
2 94 9 3452
4.00004 95 9 3399
6 95 10 3421
8 94 11 3426
10 91 12 3408
12 94 12 3429
14 94 14 3441
16 95 15 3475
18 95 14 3424
20 90 14 3474
22 85 15 3436
24 89 16 3446
26 85 16 3431
28 81 16 3414
30 81 15 3425
32 81 16 3416
34 81 17 3438
36 82 17 3444
38 83 17 3457
40 81 17 3476
42 84 18 3462
44 87 16 3489
46 80 16 3463
48 83 15 3477
50 82 16 3483
52 83 17 3487
54 80 19 3481
56 80 18 3475
58 87 17 3478
60 88 18 3471
62 90 17 3470
64 92 19 3464
66 93 19 3477
68 93 17 3482
70 91 17 3474
72 89 16 3466
74 87 19 3448
76 87 18 3477
78 84 19 3495
80 88 19 3506
82 88 19 3526
84 90 18 3532
86 87 18 3553
88 84 19 3525
90 80 20 3492
92 79 21 3510
94 77 21 3504
96 79 19 3499
98 77 20 3484
100 76 21 3452
102 76 20 3481
104 76 20 3446
106 78 18 3438
108 78 20 3430
110 79 21 3430
112 82 20 3430
114 83 21 3413
116 80 22 3441
118 76 23 3446
120 76 24 3425
122 77 26 3438
124 79 27 3441
126 80 23 3452
128 74 25 3454
130 73 26 3444
132 72 26 3432
134 77 27 3425
136 79 28 3440
138 82 26 3445
140 82 29 3441
142 82 29 3450
144 79 30 3458
146 79 28 3485
148 87 31 3483
150 91 29 3512
152 86 28 3506
154 90 27 3498
156 85 28 3507
158 77 26 3508
160 77 27 3506
162 82 28 3507
164 81 27 3506
166 80 30 3518
168 79 26 3510
170 74 25 3513
172 70 22 3519
174 70 23 3504
176 66 25 3499
178 66 27 3477
180 62 29 3485
182 66 28 3474
184 65 27 3481
186 63 25 3474
188 65 27 3478
190 68 28 3469
192 62 27 3469
194 59 28 3469
196 65 29 3459
198 61 27 3437
200 58 27 3457
