0 58 0 1629
2 56 0 1594
4.00004 63 0 1629
6 67 1 1645
8 64 1 1677
10 65 2 1696
12 65 2 1679
14 67 2 1639
16 66 2 1660
18 65 2 1686
20 65 2 1682
22 64 2 1727
24 63 2 1636
26 63 1 1613
28 56 1 1654
30 65 1 1682
32 67 2 1652
34 64 3 1693
36 62 4 1686
38 64 5 1684
40 59 6 1677
42 65 4 1705
44 66 4 1699
46 63 9 1713
48 67 11 1693
50 67 9 1682
52 65 10 1667
54 67 10 1677
56 63 11 1703
58 67 13 1668
60 70 15 1678
62 67 15 1623
64 72 18 1643
66 76 16 1658
68 77 17 1649
70 77 19 1615
72 73 14 1622
74 73 19 1626
76 79 21 1637
78 74 18 1643
80 72 18 1598
82 79 19 1613
84 79 20 1598
86 77 18 1599
88 77 19 1594
90 78 21 1595
92 77 21 1606
94 78 21 1604
96 79 22 1585
98 76 23 1552
100 71 21 1543
102 73 21 1590
104 79 21 1547
106 70 20 1574
108 72 20 1619
110 77 22 1604
112 78 23 1572
114 67 25 1557
116 67 24 1570
118 66 28 1588
120 71 27 1596
122 73 28 1607
124 74 29 1605
126 76 28 1582
128 75 27 1614
130 76 27 1592
132 74 29 1582
134 76 31 1587
136 73 33 1603
138 70 31 1582
140 71 31 1562
142 65 30 1579
144 65 29 1558
146 68 29 1559
148 68 31 1579
150 71 31 1568
152 72 31 1565
154 72 30 1557
156 72 29 1570
158 75 30 1572
160 71 32 1612
162 67 31 1587
164 67 33 1599
166 63 35 1608
168 63 35 1594
170 62 32 1616
172 66 34 1644
174 66 32 1635
176 63 34 1632
178 55 30 1663
180 57 35 1640
182 57 33 1618
184 55 34 1638
186 60 33 1665
188 55 37 1645
190 62 36 1651
192 64 35 1676
194 63 32 1678
196 63 32 1684
198 56 33 1673
200 55 35 1666
