0 30 0 1315
2 35 0 1368
4.00004 34 0 1477
6 29 0 1508
8 24 0 1533
10 27 0 1499
12 28 0 1470
14 30 0 1501
16 29 0 1508
18 31 0 1485
20 25 0 1471
22 24 0 1432
24 23 1 1421
26 24 1 1391
28 21 2 1389
30 28 1 1408
32 33 1 1439
34 30 1 1447
36 32 2 1451
38 27 2 1459
40 29 1 1472
42 40 2 1471
44 41 2 1487
46 38 1 1485
48 45 3 1483
50 46 2 1475
52 46 2 1490
54 49 3 1498
56 46 4 1511
58 52 3 1510
60 56 3 1519
62 56 3 1543
64 53 4 1529
66 52 4 1521
68 56 3 1540
70 53 2 1545
72 50 3 1542
74 53 4 1542
76 55 4 1542
78 53 3 1541
80 52 3 1538
82 45 3 1548
84 48 4 1538
86 49 4 1541
88 45 4 1539
90 49 4 1532
92 43 5 1525
94 44 6 1520
96 42 7 1490
98 42 6 1507
100 42 6 1502
102 38 5 1501
104 45 2 1502
106 49 2 1508
108 47 2 1514
110 48 2 1494
112 45 2 1486
114 51 3 1483
116 49 6 1469
118 52 6 1456
120 52 5 1460
122 49 5 1464
124 54 8 1474
126 50 7 1473
128 46 8 1467
130 50 9 1467
132 47 9 1473
134 43 9 1482
136 43 7 1459
138 37 5 1475
140 36 11 1472
142 38 9 1473
144 40 8 1479
146 37 11 1472
148 39 13 1486
150 39 15 1477
152 34 15 1475
154 35 15 1474
156 32 15 1472
158 35 11 1472
160 35 12 1459
162 39 12 1465
164 40 15 1460
166 37 14 1457
168 39 15 1454
170 41 12 1444
172 43 14 1447
174 43 13 1432
176 44 13 1433
178 49 14 1425
180 48 14 1410
182 51 15 1412
184 52 15 1406
186 55 19 1413
188 60 23 1413
190 54 24 1421
192 55 23 1427
194 59 25 1433
196 53 25 1438
198 54 26 1433
200 54 24 1434
