0 123 0 4083
2 117 5 4003
4.00004 116 7 4040
6 117 8 4074
8 115 14 4052
10 115 15 4122
12 119 14 4092
14 116 15 4071
16 115 13 4125
18 117 13 4117
20 121 13 4126
22 117 13 4119
24 114 14 4128
26 110 16 4133
28 112 15 4165
30 110 17 4175
32 115 17 4187
34 117 15 4154
36 109 16 4133
38 108 15 4138
40 107 14 4150
42 103 14 4132
44 95 13 4133
46 98 13 4131
48 101 13 4106
50 93 13 4081
52 94 14 4094
54 99 14 4087
56 97 14 4090
58 96 14 4081
60 93 13 4080
62 94 14 4078
64 90 16 4077
66 87 14 4084
68 86 16 4081
70 82 17 4081
72 83 18 4075
74 75 19 4061
76 79 20 4048
78 80 18 4082
80 78 17 4086
82 80 18 4091
84 79 16 4081
86 81 17 4063
88 78 16 4026
90 76 17 4004
92 85 16 3998
94 83 18 4004
96 83 16 4025
98 79 18 4010
100 86 19 3997
102 91 19 4004
104 91 24 4037
106 88 25 4064
108 84 24 4054
110 88 22 4013
112 80 21 3997
114 84 20 3988
116 80 19 3951
118 83 19 3953
120 83 21 3944
122 83 21 3953
124 87 20 3933
126 86 22 3957
128 85 22 3958
130 88 24 3954
132 89 26 3937
134 91 26 3957
136 92 29 3963
138 98 30 4007
140 101 30 4044
142 98 29 4083
144 95 26 4088
146 98 27 4084
148 99 26 4104
150 96 26 4122
152 93 27 4130
154 92 27 4143
156 91 25 4119
158 87 24 4124
160 83 24 4077
162 83 27 4073
164 78 27 4037
166 78 25 4036
168 81 27 4046
170 86 26 4030
172 81 25 3998
174 78 25 3993
176 77 24 3966
178 80 27 3945
180 77 26 3954
182 75 24 3948
184 74 25 3943
186 79 27 3944
188 80 30 3946
190 81 28 3918
192 77 26 3927
194 79 26 3909
196 79 32 3907
198 81 35 3936
200 82 38 3995
