0 787 0 0 0 0
2 789 0 0 2 0
4.00004 791 0 0 0 0
6 788 0 0 1 0
8 789 0 0 0 0
10 792 0 0 0 0
12 794 0 0 0 0
14 803 0 0 2 0
16 807 0 0 0 0
18 815 0 0 0 0
20 811 0 0 0 0
22 822 0 0 1 0
24 824 0 0 1 0
26 823 0 0 1 0
28 820 0 0 0 0
30 827 0 0 1 0
32 833 0 0 0 0
34 836 0 0 0 0
36 837 0 0 0 0
38 844 0 0 0 0
40 852 0 0 0 0
42 849 0 0 2 0
44 859 0 0 0 0
46 858 0 0 0 0
48 863 0 0 0 0
50 862 0 0 0 0
52 866 0 0 0 0
54 871 0 0 0 0
56 874 0 2 0 0
58 875 0 5 2 0
60 881 0 8 0 0
62 866 0 10 1 0
64 865 0 14 0 0
66 862 0 18 0 0
68 856 0 23 0 0
70 848 0 28 1 0
72 845 0 35 1 1
74 841 0 41 1 0
76 833 0 47 1 0
78 834 0 52 1 0
80 826 0 61 0 0
82 816 0 59 0 0
84 805 0 66 0 0
86 799 0 74 1 0
88 791 0 78 0 0
90 785 0 86 0 0
92 773 0 92 1 0
94 769 0 101 0 0
96 761 0 102 0 0
98 756 0 107 0 0
100 754 0 113 0 0
102 744 0 121 1 0
104 735 0 127 1 0
106 728 0 131 0 0
108 721 0 138 1 0
110 716 0 141 0 0
112 710 0 151 0 0
114 702 0 168 0 0
116 690 0 174 0 0
118 678 0 179 0 0
120 672 0 182 2 0
122 666 0 187 0 0
124 655 0 184 0 0
126 650 0 192 0 0
128 636 0 203 0 0
130 631 0 209 1 0
132 628 0 209 0 0
134 622 0 224 1 0
136 617 0 227 0 0
138 613 0 234 0 0
140 607 0 237 0 0
142 602 0 242 0 0
144 593 0 248 1 0
146 586 0 257 0 0
148 578 0 264 0 0
150 574 0 262 0 0
152 570 0 261 0 0
154 562 0 267 0 2
156 550 0 276 1 0
158 547 0 279 0 0
160 546 0 286 0 0
162 542 0 293 0 0
164 540 0 302 0 0
166 532 0 301 0 1
168 528 0 307 0 1
170 526 0 309 0 0
172 519 0 303 0 1
174 512 0 307 0 1
176 510 0 310 0 0
178 510 0 315 0 1
180 500 0 326 0 0
182 494 0 331 1 0
184 487 0 336 0 0
186 482 0 340 1 0
188 476 0 348 0 0
190 474 0 361 0 0
192 465 0 371 0 0
194 461 0 367 0 1
196 457 0 366 0 0
198 455 0 367 0 0
200 450 0 370 0 0
