0 992 0 0 0 0
2 985 3 0 0 0
4.00004 986 1 0 0 0
6 988 4 0 0 0
8 988 4 0 1 0
10 984 1 0 0 0
12 976 2 0 0 0
14 967 5 0 0 0
16 970 6 0 0 0
18 973 6 0 0 0
20 986 3 0 1 0
22 975 7 0 0 0
24 968 12 0 0 0
26 972 4 0 1 0
28 981 4 0 0 0
30 983 5 0 0 0
32 984 9 0 0 0
34 987 2 0 1 0
36 989 6 0 0 0
38 986 6 0 0 0
40 993 1 0 1 0
42 987 4 0 0 0
44 986 4 0 0 0
46 981 3 0 1 0
48 978 3 0 0 0
50 978 3 0 1 0
52 856 3 124 0 0
54 776 0 208 2 0
56 711 0 280 1 0
58 637 0 352 0 0
60 586 0 413 0 0
62 532 0 464 0 0
64 488 1 511 0 0
66 439 0 555 1 0
68 411 0 582 2 0
70 386 0 612 0 0
72 368 0 631 0 0
74 342 0 654 0 0
76 322 0 679 0 0
78 302 1 694 0 0
80 269 0 718 0 0
82 236 0 749 0 0
84 210 0 774 0 0
86 193 0 785 0 1
88 175 0 799 2 0
90 165 0 806 0 0
92 163 0 819 0 0
94 162 0 824 0 0
96 162 0 824 0 0
98 152 0 828 0 0
100 147 0 832 0 0
102 148 0 837 0 0
104 144 0 837 0 0
106 131 0 844 0 0
108 126 0 851 1 0
110 128 0 849 0 0
112 130 0 847 1 0
114 119 0 854 0 1
116 122 0 865 0 0
118 115 0 860 1 0
120 108 0 861 0 1
122 105 0 855 0 2
124 107 0 849 1 0
126 110 0 846 1 0
128 105 0 847 0 0
130 102 0 850 0 0
132 106 0 839 1 2
134 103 0 853 0 0
136 97 0 848 0 0
138 100 0 844 0 0
140 98 0 841 0 0
142 96 0 849 1 0
144 101 0 847 0 0
146 98 0 858 0 1
148 94 0 861 0 1
150 92 0 858 1 0
152 87 0 859 0 0
154 87 0 868 0 1
156 91 0 868 0 0
158 82 0 872 1 1
160 83 0 869 0 0
162 85 0 872 0 0
164 89 0 878 0 0
166 85 0 871 0 1
168 76 0 880 0 0
170 74 0 878 1 0
172 77 0 888 1 1
174 79 0 888 0 1
176 79 0 893 0 0
178 71 0 901 0 0
180 67 0 907 0 0
182 73 0 911 0 0
184 74 0 912 0 1
186 73 0 909 0 0
188 74 0 909 0 0
190 76 0 909 0 1
192 73 0 905 0 0
194 74 0 910 0 0
196 74 0 910 0 1
198 70 0 904 1 0
200 70 1 905 0 0
