0 920 0 0 0 0
2 919 0 0 0 0
4.00004 913 0 0 0 0
6 906 0 0 1 0
8 912 0 0 1 0
10 906 0 0 1 0
12 906 0 0 1 0
14 892 0 0 1 0
16 888 0 0 0 0
18 894 0 0 1 0
20 881 0 0 1 0
22 887 0 0 1 0
24 876 0 0 0 0
26 864 0 0 0 0
28 869 0 0 2 0
30 870 0 0 0 0
32 866 0 0 2 0
34 876 0 0 0 0
36 871 0 0 0 0
38 879 0 0 0 0
40 879 0 0 3 0
42 882 0 0 1 0
44 884 0 0 1 0
46 881 0 0 0 0
48 884 0 0 2 0
50 881 0 0 1 0
52 882 0 0 0 0
54 882 0 0 1 0
56 881 0 1 0 0
58 869 0 2 2 0
60 871 0 5 0 0
62 862 0 10 0 0
64 864 0 17 1 0
66 852 0 22 1 0
68 838 0 30 2 0
70 835 0 31 0 0
72 822 0 39 0 0
74 819 0 46 1 1
76 816 0 51 0 0
78 815 0 61 1 0
80 805 0 63 0 0
82 795 0 72 0 1
84 790 0 79 0 0
86 785 0 84 0 0
88 774 0 91 2 0
90 778 0 103 0 1
92 776 0 109 1 0
94 765 0 117 0 0
96 755 0 123 2 0
98 752 0 133 0 0
100 750 0 141 0 0
102 734 0 151 1 0
104 732 0 165 0 0
106 727 0 168 0 0
108 714 0 182 2 0
110 709 0 192 0 2
112 699 0 198 0 1
114 691 0 207 0 0
116 683 0 210 0 0
118 675 0 214 0 0
120 668 0 225 1 1
122 667 0 233 0 1
124 658 0 248 0 0
126 648 0 251 0 0
128 641 0 252 0 1
130 635 0 262 0 0
132 630 0 266 0 0
134 623 0 272 0 1
136 616 0 275 1 0
138 603 0 277 1 2
140 599 0 286 1 0
142 588 0 296 0 0
144 583 0 294 0 1
146 576 0 301 0 1
148 568 0 310 0 0
150 562 0 309 0 1
152 555 0 314 1 1
154 548 0 322 0 0
156 542 0 328 1 0
158 538 0 334 1 1
160 534 0 343 0 0
162 528 0 348 0 0
164 519 0 355 2 0
166 517 0 359 0 0
168 508 0 362 0 0
170 506 0 362 0 0
172 497 0 370 1 0
174 491 0 377 0 0
176 485 0 394 1 0
178 481 0 405 0 0
180 476 0 407 0 0
182 472 0 415 0 1
184 460 0 419 0 0
186 448 0 419 0 2
188 437 0 425 0 0
190 431 0 432 0 0
192 424 0 434 0 3
194 419 0 436 0 1
196 413 0 442 0 0
198 409 0 447 0 0
200 402 0 450 0 0
