0 1117 0 0 0 0
2 1110 10 0 0 0
4.00004 1124 4 0 1 0
6 1127 3 0 1 0
8 1133 5 0 1 0
10 1142 4 0 0 0
12 1146 3 0 1 0
14 1143 9 0 0 0
16 1156 7 0 2 0
18 1146 16 0 0 0
20 1158 7 0 0 0
22 1159 8 0 0 0
24 1159 8 0 1 0
26 1174 7 0 0 0
28 1178 10 0 1 0
30 1182 2 0 0 0
32 1168 5 0 2 0
34 1167 9 0 1 0
36 1165 7 0 1 0
38 1166 8 0 1 0
40 1171 9 0 1 0
42 1187 2 0 0 0
44 1181 7 0 0 0
46 1174 9 0 1 0
48 1179 9 0 0 0
50 1188 5 0 1 0
52 1006 0 187 0 0
54 878 0 321 0 0
56 770 0 424 0 0
58 689 0 508 2 0
60 625 1 575 1 0
62 542 0 649 2 0
64 482 0 706 1 0
66 435 0 761 0 0
68 390 0 810 2 0
70 359 0 849 0 0
72 333 0 876 0 0
74 306 0 912 0 0
76 275 0 950 0 1
78 250 0 960 0 0
80 225 0 985 0 0
82 211 0 999 1 0
84 188 0 1017 0 0
86 173 0 1039 0 0
88 154 1 1053 0 0
90 145 0 1064 0 0
92 133 0 1072 0 0
94 123 0 1084 0 0
96 120 0 1092 0 0
98 113 0 1104 0 0
100 116 1 1114 0 0
102 113 0 1120 0 1
104 112 0 1127 0 0
106 106 0 1140 0 0
108 106 0 1136 0 0
110 100 0 1142 0 1
112 102 0 1145 0 1
114 98 0 1162 0 0
116 89 0 1165 0 0
118 88 0 1168 0 0
120 87 0 1166 0 0
122 91 0 1161 0 0
124 86 0 1165 0 0
126 89 0 1163 0 0
128 94 0 1165 0 0
130 87 0 1164 0 1
132 88 0 1173 0 0
134 82 0 1181 0 1
136 81 0 1167 0 1
138 75 0 1167 0 2
140 77 0 1167 0 1
142 82 0 1175 0 0
144 78 0 1178 0 1
146 75 0 1169 0 1
148 79 0 1168 0 1
150 72 0 1174 0 1
152 71 0 1180 0 0
154 65 0 1182 0 0
156 63 0 1180 1 0
158 63 0 1189 0 0
160 57 0 1192 0 1
162 60 0 1195 0 0
164 61 0 1190 0 2
166 62 0 1187 0 0
168 62 0 1190 0 0
170 59 0 1197 0 0
172 61 0 1188 0 2
174 62 0 1191 0 0
176 63 0 1188 0 1
178 61 0 1184 0 0
180 60 0 1183 0 0
182 57 0 1186 0 1
184 51 0 1200 1 0
186 48 0 1199 0 0
188 51 0 1193 0 1
190 55 0 1192 0 0
192 53 0 1199 0 0
194 51 0 1209 0 0
196 45 0 1209 0 2
198 42 0 1210 0 2
200 43 0 1211 0 0
