0 837 0 0 0 0
2 835 0 0 1 0
4.00004 835 0 0 0 0
6 829 0 0 0 0
8 824 0 0 0 0
10 825 0 0 1 0
12 835 0 0 0 0
14 834 0 0 0 0
16 833 0 0 1 0
18 836 0 0 0 0
20 834 0 0 0 0
22 834 0 0 1 0
24 825 0 0 0 0
26 829 0 0 0 0
28 815 0 0 1 0
30 819 0 0 1 0
32 820 0 0 0 0
34 811 0 0 0 0
36 815 0 0 0 0
38 820 0 0 1 0
40 816 0 0 0 0
42 808 0 0 0 0
44 806 0 0 1 0
46 800 0 0 1 0
48 798 0 0 2 0
50 803 0 0 0 0
52 797 0 0 1 0
54 796 0 0 0 0
56 798 0 1 0 0
58 802 0 1 0 0
60 795 0 0 1 0
62 795 0 1 0 0
64 789 0 6 1 0
66 796 0 9 0 0
68 794 0 11 0 0
70 795 0 18 0 0
72 789 0 19 0 0
74 784 0 24 0 0
76 780 0 33 0 0
78 772 0 35 0 0
80 771 0 38 0 0
82 767 0 46 1 0
84 755 0 53 0 0
86 752 0 61 0 0
88 744 0 65 0 0
90 738 0 75 1 0
92 739 0 76 0 0
94 727 0 80 1 0
96 716 0 92 0 0
98 710 0 100 2 0
100 704 0 106 0 1
102 700 0 116 0 0
104 697 0 122 0 0
106 688 0 125 0 0
108 680 0 123 0 1
110 672 0 134 0 0
112 674 0 134 0 1
114 669 0 141 0 0
116 667 0 146 0 1
118 654 0 155 0 0
120 648 0 161 0 0
122 644 0 164 1 0
124 640 0 172 0 0
126 636 0 178 0 0
128 630 0 184 0 2
130 627 0 180 0 0
132 622 0 181 0 0
134 614 0 194 0 0
136 609 0 198 0 0
138 605 0 200 1 0
140 601 0 214 0 0
142 595 0 216 1 0
144 589 0 230 0 0
146 579 0 234 0 0
148 569 0 235 1 0
150 568 0 237 0 0
152 566 0 244 0 1
154 565 0 248 0 0
156 558 0 256 0 0
158 556 0 259 0 0
160 550 0 265 0 0
162 545 0 274 0 0
164 540 0 291 0 1
166 534 0 295 1 1
168 532 0 296 0 1
170 528 0 300 0 0
172 528 0 297 0 0
174 527 0 298 0 0
176 525 0 305 0 0
178 512 0 311 0 0
180 510 0 315 0 0
182 505 0 323 0 1
184 502 0 328 0 1
186 500 0 329 0 0
188 494 0 334 0 1
190 491 0 335 0 0
192 484 0 335 0 1
194 474 0 347 1 0
196 473 0 351 0 0
198 469 0 349 0 0
200 462 0 349 0 1
