0 656 0 0 0 0
2 654 0 0 0 0
4.00004 654 0 0 0 0
6 654 0 0 0 0
8 654 0 0 0 0
10 654 0 0 0 0
12 654 0 0 0 0
14 654 0 0 0 0
16 654 0 0 0 0
18 654 0 0 0 0
20 654 0 0 0 0
22 654 0 0 0 0
24 654 0 0 0 0
26 654 0 0 0 0
28 654 0 0 0 0
30 654 0 0 0 0
32 654 0 0 0 0
34 654 0 0 0 0
36 654 0 0 0 0
38 654 0 0 0 0
40 654 0 0 0 0
42 654 0 0 0 0
44 654 0 0 0 0
46 654 0 0 0 0
48 654 0 0 0 0
50 654 0 0 0 0
52 654 0 0 0 0
54 654 0 0 0 0
56 654 0 0 0 0
58 654 0 0 0 0
60 653 0 0 1 0
62 652 0 0 0 0
64 652 0 0 0 0
66 651 0 0 0 0
68 651 0 0 0 0
70 651 0 0 0 0
72 651 0 0 0 0
74 651 0 0 0 0
76 651 0 0 0 0
78 651 0 0 0 0
80 651 0 0 0 0
82 651 0 0 0 0
84 651 0 0 0 0
86 651 0 0 0 0
88 650 0 1 0 0
90 650 0 1 0 0
92 650 0 1 0 0
94 650 0 1 0 0
96 650 0 1 0 0
98 650 0 1 0 0
100 650 0 2 0 0
102 650 0 2 0 0
104 650 0 2 0 0
106 650 0 2 0 0
108 650 0 2 0 0
110 650 0 2 0 0
112 650 0 2 0 0
114 650 0 2 0 0
116 650 0 2 0 0
118 650 0 2 0 0
120 650 0 2 0 0
122 650 0 2 0 0
124 650 0 2 0 0
126 650 0 2 0 0
128 650 0 2 0 0
130 649 0 2 0 0
132 649 0 2 0 0
134 649 0 2 0 0
136 649 0 2 0 0
138 649 0 2 0 0
140 649 0 2 0 0
142 649 0 2 0 0
144 649 0 2 0 0
146 649 0 2 0 0
148 649 0 2 0 0
150 649 0 2 0 0
152 649 0 2 0 0
154 649 0 2 0 0
156 649 0 2 0 0
158 649 0 2 0 0
160 649 0 2 0 0
162 649 0 2 0 0
164 649 0 2 0 0
166 649 0 2 0 0
168 649 0 2 0 0
170 648 0 2 0 0
172 648 0 2 0 0
174 648 0 2 0 0
176 648 0 2 0 0
178 648 0 2 0 0
180 648 0 2 0 0
182 648 0 2 0 0
184 648 0 3 0 0
186 647 0 3 0 0
188 647 0 4 0 0
190 647 0 4 0 0
192 647 0 4 0 0
194 647 0 4 0 0
196 647 0 4 0 0
198 647 0 4 0 0
200 647 0 4 0 0
