0 1522 0 0 0 0
2 1507 9 0 0 0
4.00004 1508 8 0 0 0
6 1509 7 0 0 0
8 1511 5 0 0 0
10 1503 13 0 0 0
12 1504 12 0 0 0
14 1510 6 0 0 0
16 1509 7 0 0 0
18 1506 11 0 0 0
20 1507 10 0 0 0
22 1508 9 0 0 0
24 1510 7 0 0 0
26 1511 7 0 0 0
28 1508 10 0 0 0
30 1509 9 0 0 0
32 1509 8 0 0 0
34 1502 15 0 0 0
36 1508 8 0 0 0
38 1505 11 0 0 0
40 1511 5 0 0 0
42 1513 3 0 0 0
44 1503 13 0 0 0
46 1505 11 0 0 0
48 1501 15 0 0 0
50 1505 11 0 0 0
52 1321 1 194 0 0
54 1174 0 342 0 0
56 1061 0 455 0 0
58 926 0 590 0 0
60 847 0 669 0 0
62 758 0 758 0 0
64 678 0 838 0 0
66 610 0 906 0 0
68 552 0 964 0 0
70 500 0 1016 0 0
72 442 0 1074 0 0
74 394 0 1122 0 0
76 353 0 1163 0 0
78 318 0 1198 0 0
80 290 1 1225 0 0
82 255 0 1261 0 0
84 241 0 1275 0 0
86 210 0 1306 0 0
88 190 0 1326 0 0
90 160 0 1356 0 0
92 143 0 1373 0 0
94 135 0 1381 0 0
96 124 0 1392 0 0
98 112 0 1404 0 0
100 96 0 1420 0 0
102 86 0 1430 0 0
104 76 0 1440 0 0
106 71 0 1446 0 0
108 65 0 1452 0 0
110 57 0 1460 0 0
112 48 0 1469 0 0
114 40 0 1477 0 0
116 34 0 1483 0 0
118 29 0 1488 0 0
120 23 0 1494 0 0
122 21 0 1496 0 0
124 19 0 1498 0 0
126 16 0 1501 0 0
128 15 0 1502 0 0
130 14 0 1503 0 0
132 12 0 1505 0 0
134 11 0 1506 0 0
136 10 0 1507 0 0
138 8 0 1509 0 0
140 6 0 1511 0 0
142 5 0 1512 0 0
144 5 0 1512 0 0
146 5 0 1512 0 0
148 5 0 1512 0 0
150 4 0 1513 0 0
152 4 0 1513 0 0
154 4 0 1513 0 0
156 3 0 1514 0 0
158 3 0 1515 0 0
160 2 0 1516 0 0
162 2 0 1516 0 0
164 2 0 1516 0 0
166 2 0 1516 0 0
168 2 0 1516 0 0
170 2 0 1516 0 0
172 2 0 1516 0 0
174 2 0 1516 0 0
176 2 0 1516 0 0
178 2 0 1516 0 0
180 2 0 1516 0 0
182 2 0 1516 0 0
184 1 0 1517 0 0
186 0 0 1518 0 0
188 0 0 1518 0 0
190 0 0 1518 0 0
192 0 0 1518 0 0
194 0 0 1518 0 0
196 0 0 1518 0 0
198 0 0 1518 0 0
200 0 0 1518 0 0
