0 572 0 0 0 0
2 570 0 0 0 0
4.00004 570 0 0 0 0
6 570 0 0 0 0
8 570 0 0 0 0
10 570 0 0 0 0
12 570 0 0 0 0
14 570 0 0 0 0
16 570 0 0 0 0
18 570 0 0 0 0
20 570 0 0 1 0
22 570 0 0 0 0
24 570 0 0 0 0
26 570 0 0 0 0
28 570 0 0 0 0
30 569 0 0 1 0
32 570 0 0 0 0
34 570 0 0 0 0
36 570 0 0 0 0
38 570 0 0 0 0
40 570 0 0 0 0
42 570 0 0 0 0
44 570 0 0 0 0
46 570 0 0 0 0
48 569 0 0 0 0
50 569 0 0 0 0
52 569 0 0 0 0
54 569 0 0 0 0
56 569 0 0 0 0
58 569 0 0 0 0
60 569 0 0 0 0
62 569 0 0 0 0
64 568 0 0 0 0
66 568 0 0 0 0
68 568 0 0 0 0
70 568 0 0 0 0
72 568 0 0 0 0
74 568 0 0 0 0
76 568 0 0 0 0
78 568 0 0 0 0
80 568 0 0 0 0
82 568 0 0 0 0
84 568 0 0 0 0
86 568 0 0 0 0
88 568 0 0 0 0
90 568 0 0 0 0
92 568 0 0 0 0
94 567 0 0 0 0
96 567 0 0 0 0
98 567 0 0 0 0
100 567 0 0 0 0
102 567 0 0 0 0
104 567 0 0 0 0
106 567 0 0 0 0
108 567 0 0 0 0
110 567 0 0 0 0
112 566 0 0 1 0
114 567 0 0 0 0
116 567 0 0 0 0
118 567 0 0 0 0
120 567 0 1 0 0
122 567 0 1 0 0
124 567 0 1 0 0
126 567 0 1 0 0
128 567 0 2 0 0
130 567 0 2 0 0
132 567 0 2 0 0
134 567 0 2 0 0
136 567 0 2 0 0
138 566 0 2 0 0
140 566 0 2 0 0
142 566 0 2 0 0
144 566 0 2 0 0
146 566 0 2 0 0
148 566 0 2 0 0
150 566 0 2 0 0
152 566 0 2 0 0
154 566 0 2 0 0
156 566 0 2 0 0
158 565 0 2 0 0
160 565 0 2 0 0
162 565 0 2 0 0
164 564 0 2 0 0
166 564 0 2 0 0
168 563 0 2 0 0
170 563 0 2 0 0
172 563 0 2 0 0
174 563 0 2 0 0
176 563 0 2 0 0
178 563 0 2 0 0
180 562 0 2 0 0
182 562 0 2 0 0
184 562 0 3 0 0
186 562 0 3 0 0
188 562 0 3 0 0
190 562 0 3 0 0
192 562 0 3 0 0
194 562 0 3 0 0
196 562 0 3 0 0
198 562 0 3 0 0
200 562 0 3 0 0
