0 112 0 0 0 20
2 111 0 3 0 19
4.00004 111 0 3 0 21
6 111 0 2 0 15
8 112 0 0 0 18
10 112 0 0 0 17
12 99 11 2 0 15
14 94 16 2 0 20
16 85 24 2 0 18
18 79 30 3 1 15
20 72 40 0 0 23
22 65 45 1 1 18
24 61 48 2 1 20
26 53 57 2 0 20
28 52 59 0 1 22
30 48 61 1 1 16
32 44 66 0 0 21
34 45 66 0 1 20
36 37 70 2 0 23
38 40 70 0 0 18
40 34 72 2 1 19
42 34 75 0 1 21
44 32 77 0 0 21
46 26 82 0 1 16
48 24 83 0 2 16
50 24 82 0 4 21
52 21 87 1 0 16
54 19 87 0 2 17
56 18 90 0 0 20
58 15 92 0 1 21
60 14 93 1 0 18
62 11 95 1 0 23
64 10 96 2 0 16
66 10 96 2 0 18
68 11 95 0 2 15
70 11 93 0 2 23
72 11 93 0 3 19
74 10 96 0 2 18
76 10 95 0 3 14
78 9 92 0 6 21
80 9 99 1 1 15
82 10 100 0 0 22
84 8 102 0 1 22
86 9 101 1 3 17
88 10 102 0 1 18
90 9 102 0 2 20
92 8 105 0 0 25
94 8 105 0 0 18
96 6 103 1 3 22
98 7 107 0 0 24
100 6 108 0 1 23
102 7 104 0 5 25
104 6 108 0 0 22
106 6 107 0 1 20
108 5 107 0 1 15
110 5 106 1 1 23
112 6 106 0 2 22
114 4 108 0 1 22
116 4 106 0 1 17
118 5 107 0 0 22
120 5 106 2 1 18
122 4 106 1 2 27
124 6 107 0 2 22
126 6 106 0 3 20
128 6 103 0 5 24
130 6 103 0 2 27
132 7 104 0 1 23
134 5 103 1 3 23
136 4 101 1 3 18
138 5 104 1 1 15
140 4 102 1 2 18
142 4 104 2 0 21
144 5 100 1 2 16
146 6 103 0 0 19
148 6 103 0 1 24
150 7 104 0 1 24
152 8 103 0 1 20
154 7 102 1 2 23
156 6 104 0 1 16
158 6 103 0 2 22
160 5 104 1 1 16
162 6 102 0 1 21
164 6 100 0 4 18
166 5 103 1 1 16
168 6 103 1 2 19
170 7 105 0 0 20
172 6 105 0 3 14
174 5 107 0 1 14
176 3 112 1 2 18
178 3 114 0 1 19
180 3 113 0 2 21
182 3 112 0 1 20
184 3 111 0 0 23
186 3 108 1 2 19
188 3 109 0 2 19
190 3 111 0 0 19
192 2 110 0 3 16
194 2 113 0 0 24
196 2 110 0 2 21
198 2 113 0 0 20
200 2 113 0 1 23
202 2 113 0 1 21
204 2 113 0 1 20
206 1 113 0 1 17
208 1 114 0 1 26
210 1 115 0 0 15
