0 75 0 529
2 67 8 530
4 63 12 516
6.00001 58 18 523
8.00001 58 18 514
10 56 19 512
12 49 23 506
14 42 28 512
16 37 33 504
18 36 35 503
20 33 38 502
22 33 38 503
24 31 37 515
26 29 40 514
28 25 42 519
30 23 45 517
32 22 46 525
34 19 49 517
36 19 50 514
38 18 52 520
40 15 55 504
42 13 57 510
44 13 57 503
46 12 57 510
48 12 57 513
50 11 59 499
52 10 60 505
54 9 58 512
56 9 58 511
58 9 58 507
60 10 57 519
62 9 58 507
64 11 58 501
66 11 59 492
68 10 59 501
70 10 58 506
72 9 59 509
74 9 58 496
76 10 60 485
78 9 61 496
80 12 61 493
82 14 61 489
84 15 61 492
86 14 61 487
88 13 62 495
90 12 63 492
92 10 65 493
94 12 64 493
96 11 63 497
98 12 63 483
100 11 64 497
102 11 65 492
104 11 65 500
106 10 65 500
108 9 65 493
110 10 65 493
112 9 67 486
114 7 67 488
116 6 68 496
118 5 69 489
120 5 69 486
122 5 69 494
124 5 68 487
126 5 69 488
128 5 69 484
130 6 69 479
132 5 70 471
134 8 70 478
136 8 70 491
138 7 70 480
140 7 71 484
142 8 71 485
144 8 71 482
146 9 71 480
148 10 70 479
150 10 70 492
152 11 70 483
154 10 69 489
156 10 69 495
158 9 71 482
160 8 72 484
162 8 71 480
164 7 72 479
166 8 68 483
168 8 66 487
170 6 67 486
172 5 68 500
174 5 65 494
176 7 65 492
178 7 66 483
180 7 65 478
182 7 66 484
184 7 66 497
186 7 65 477
188 8 65 477
190 7 67 479
192 6 66 486
194 6 66 485
196 6 66 481
198 5 66 482
200 6 67 483
202 7 66 485
204 7 66 469
206 6 66 470
208 7 66 472
210 7 64 467
212 7 63 466
214 8 64 473
216 9 63 486
218 9 62 492
220 9 63 485
222 9 63 485
224 10 63 488
226 11 63 489
228 10 63 490
230 10 64 493
232 9 66 482
234 10 66 474
236 11 66 485
238 9 68 483
240 9 68 483
242 9 67 490
244 9 68 483
246 11 68 482
248 10 70 483
250 9 69 478
252 9 69 482
254 7 70 492
256 6 71 498
258 6 72 487
260 5 71 489
262 5 70 499
264 5 69 503
266 4 68 504
268 4 67 497
270 4 66 499
272 5 65 490
274 4 65 491
276 4 65 484
278 4 63 485
280 2 67 476
282 2 63 480
284 3 63 480
286 4 64 481
288 3 63 494
290 4 62 490
292 5 63 483
294 5 63 483
296 6 64 483
298 7 64 486
300 7 62 496
