0 85 0 527
2 85 0 525
4 86 0 521
6.00001 87 0 519
8.00001 86 0 520
10 87 0 521
12 87 0 523
14 86 0 525
16 84 0 511
18 83 0 494
20 82 0 511
22 81 0 500
24 81 0 509
26 81 0 512
28 81 1 499
30 82 1 498
32 82 1 505
34 82 1 502
36 82 1 509
38 82 1 515
40 82 1 519
42 82 1 525
44 82 3 528
46 81 2 535
48 81 2 524
50 81 2 532
52 80 1 539
54 80 1 531
56 80 1 534
58 79 1 531
60 78 1 533
62 79 1 531
64 78 1 528
66 78 1 534
68 78 3 534
70 79 3 543
72 79 4 543
74 79 3 533
76 79 3 540
78 80 4 533
80 79 5 536
82 78 5 534
84 78 5 540
86 79 5 550
88 80 6 539
90 80 6 536
92 78 6 535
94 78 6 537
96 78 6 529
98 78 6 539
100 77 7 533
102 77 6 540
104 77 8 548
106 77 8 544
108 77 8 551
110 77 8 557
112 77 8 554
114 75 9 554
116 74 9 554
118 74 10 542
120 74 11 555
122 74 10 551
124 74 11 551
126 74 12 547
128 73 12 541
130 73 11 533
132 71 11 537
134 69 11 540
136 69 12 544
138 68 12 552
140 67 11 550
142 67 11 549
144 65 12 549
146 64 12 554
148 66 12 552
150 67 12 547
152 67 13 551
154 68 13 553
156 68 13 554
158 68 13 550
160 66 13 551
162 66 13 553
164 67 13 550
166 66 13 549
168 66 15 552
170 66 15 563
172 66 15 560
174 66 16 555
176 66 16 559
178 66 17 553
180 65 18 551
182 65 19 560
184 64 18 551
186 64 18 554
188 64 18 553
190 64 19 546
192 62 19 555
194 62 19 559
196 62 19 560
198 62 20 561
200 62 20 558
202 62 22 557
204 62 22 563
206 62 22 552
208 62 22 555
210 61 21 551
212 60 21 554
214 60 22 546
216 58 21 552
218 58 21 551
220 58 21 559
222 58 21 550
224 59 21 553
226 58 21 561
228 59 21 552
230 59 21 549
232 58 21 542
234 58 21 546
236 58 21 542
238 58 21 539
240 57 21 535
242 57 22 540
244 57 22 543
246 57 23 543
248 57 23 545
250 57 21 551
252 57 21 547
254 56 21 554
256 56 21 554
258 56 22 554
260 55 22 548
262 55 22 547
264 55 22 548
266 53 23 553
268 52 23 555
270 52 24 548
272 52 25 553
274 52 25 555
276 53 26 550
278 53 26 551
280 51 26 554
282 49 27 556
284 50 27 552
286 50 26 554
288 50 27 547
290 50 27 546
292 50 25 556
294 49 25 550
296 48 25 550
298 48 25 544
300 48 25 545
