0 93 0 621
2 87 6 635
4 79 13 626
6.00001 69 23 617
8.00001 66 27 611
10 60 33 617
12 59 34 618
14 52 40 628
16 49 43 615
18 46 46 624
20 43 49 625
22 42 50 607
24 40 51 613
26 40 52 605
28 36 55 600
30 35 57 608
32 36 56 598
34 33 58 605
36 32 59 603
38 29 62 597
40 27 66 599
42 26 67 600
44 23 69 602
46 21 71 610
48 20 72 618
50 19 72 619
52 17 75 617
54 16 73 618
56 14 75 626
58 14 74 629
60 14 75 643
62 12 75 639
64 9 77 653
66 8 75 658
68 8 75 661
70 10 75 659
72 11 75 654
74 10 77 659
76 9 77 654
78 10 77 648
80 10 77 651
82 11 77 649
84 11 77 638
86 10 79 640
88 10 79 640
90 13 79 645
92 13 77 633
94 14 76 645
96 14 77 647
98 14 77 651
100 14 77 647
102 14 77 648
104 14 78 644
106 13 79 642
108 13 80 631
110 12 81 637
112 12 81 638
114 13 81 635
116 13 81 631
118 13 82 628
120 12 83 635
122 12 83 637
124 9 85 625
126 7 86 626
128 7 86 631
130 6 86 627
132 6 87 626
134 7 88 622
136 7 88 622
138 8 89 626
140 9 89 628
142 9 91 622
144 9 89 625
146 9 89 619
148 8 89 616
150 7 89 613
152 7 89 619
154 5 92 624
156 5 92 612
158 5 90 626
160 5 91 613
162 5 90 618
164 6 90 619
166 6 88 624
168 6 89 630
170 7 87 622
172 6 88 619
174 6 86 611
176 6 85 616
178 7 86 627
180 7 85 619
182 7 86 623
184 6 84 611
186 5 85 605
188 5 85 606
190 5 85 607
192 5 85 616
194 5 85 612
196 5 85 625
198 3 86 624
200 3 85 614
202 3 85 613
204 3 84 615
206 2 84 609
208 3 83 616
210 4 83 624
212 3 83 624
214 3 82 627
216 3 83 618
218 3 83 613
220 3 83 605
222 4 82 615
224 4 82 620
226 4 82 617
228 4 82 613
230 4 79 615
232 4 78 617
234 5 79 621
236 6 80 608
238 7 79 616
240 7 79 614
242 7 79 613
244 6 82 616
246 7 82 619
248 6 81 621
250 6 82 633
252 6 82 642
254 7 81 644
256 7 82 643
258 5 83 639
260 5 82 640
262 5 84 631
264 4 84 639
266 4 85 638
268 3 84 643
270 3 83 630
272 3 83 633
274 3 84 636
276 3 84 643
278 3 84 642
280 3 83 637
282 4 82 634
284 4 82 645
286 3 82 636
288 3 83 627
290 3 83 621
292 4 82 625
294 5 82 626
296 6 81 619
298 7 80 617
300 7 78 607
