0 81 0 515
2 70 10 511
4 67 13 516
6.00001 57 22 506
8.00001 50 29 507
10 45 34 504
12 40 39 509
14 36 43 523
16 30 50 517
18 27 51 519
20 27 51 525
22 26 53 521
24 22 55 513
26 22 57 505
28 18 60 506
30 17 61 515
32 17 61 518
34 16 62 506
36 21 62 511
38 18 62 522
40 17 63 517
42 15 64 525
44 18 63 516
46 17 63 520
48 17 63 513
50 16 64 521
52 15 66 504
54 15 66 501
56 15 68 498
58 16 65 482
60 14 66 486
62 11 67 484
64 10 68 482
66 8 69 478
68 9 69 493
70 9 70 493
72 11 71 490
74 12 71 488
76 11 72 480
78 12 70 477
80 12 70 473
82 10 70 471
84 10 71 477
86 8 73 476
88 8 74 477
90 8 73 467
92 9 72 471
94 7 74 488
96 7 74 476
98 6 74 471
100 6 74 470
102 6 75 466
104 6 76 468
106 9 76 466
108 7 77 465
110 10 77 470
112 10 78 478
114 11 78 478
116 11 79 480
118 10 79 474
120 8 82 475
122 6 83 482
124 9 84 479
126 10 85 472
128 10 85 475
130 9 84 479
132 9 83 483
134 7 84 489
136 9 84 474
138 7 86 474
140 8 84 472
142 7 83 468
144 7 82 475
146 6 82 475
148 6 81 476
150 7 81 474
152 8 83 481
154 8 84 476
156 8 82 490
158 7 82 493
160 8 81 491
162 7 80 495
164 7 81 496
166 7 82 497
168 6 83 488
170 6 82 491
172 4 83 495
174 5 83 489
176 5 82 497
178 6 83 483
180 6 81 490
182 6 83 491
184 6 81 493
186 5 83 491
188 5 81 498
190 4 80 492
192 4 80 499
194 5 82 504
196 8 82 502
198 6 82 497
200 8 81 495
202 8 83 498
204 8 82 498
206 7 80 495
208 6 80 495
210 5 79 492
212 5 81 491
214 7 81 484
216 8 80 480
218 8 81 485
220 9 81 485
222 9 80 496
224 9 78 509
226 9 80 502
228 9 80 507
230 7 79 511
232 8 81 513
234 9 82 515
236 9 82 511
238 9 82 511
240 7 82 514
242 7 82 507
244 7 80 497
246 7 78 500
248 8 77 502
250 10 79 500
252 12 79 509
254 10 81 509
256 10 82 502
258 8 85 506
260 7 87 514
262 7 88 522
264 8 87 520
266 8 87 531
268 6 89 537
270 6 89 539
272 6 90 542
274 6 90 535
276 7 89 532
278 7 88 530
280 8 89 535
282 7 90 532
284 9 90 532
286 7 89 527
288 5 89 537
290 4 90 532
292 5 90 526
294 5 89 520
296 4 89 520
298 4 87 527
300 4 87 530
