0 90 0 582
2 82 8 568
4 73 14 568
6.00001 68 19 575
8.00001 64 22 570
10 62 25 563
12 57 30 571
14 57 32 570
16 54 36 568
18 53 37 567
20 53 38 573
22 48 43 578
24 45 47 578
26 43 49 571
28 40 53 569
30 39 54 562
32 40 54 573
34 39 55 575
36 38 56 579
38 38 56 573
40 37 57 575
42 36 57 586
44 33 59 588
46 29 63 591
48 27 63 593
50 24 68 586
52 23 68 584
54 24 70 580
56 23 70 573
58 22 71 575
60 19 75 579
62 17 78 576
64 14 79 577
66 14 79 559
68 14 78 566
70 13 79 563
72 13 80 574
74 13 80 577
76 13 81 578
78 11 82 575
80 10 83 568
82 9 84 575
84 8 85 564
86 8 85 562
88 9 85 553
90 8 86 548
92 7 86 544
94 6 87 554
96 6 85 554
98 7 84 558
100 5 86 551
102 5 85 560
104 4 86 566
106 5 86 571
108 5 87 579
110 5 86 573
112 5 87 578
114 4 86 581
116 4 83 579
118 4 85 578
120 6 86 579
122 6 87 577
124 7 84 575
126 6 85 578
128 6 85 575
130 6 86 570
132 6 86 575
134 6 86 577
136 5 87 555
138 4 88 566
140 4 87 559
142 5 86 565
144 5 86 563
146 5 86 561
148 4 87 564
150 4 87 554
152 5 88 549
154 4 89 549
156 4 89 557
158 5 89 561
160 6 89 567
162 6 89 575
164 6 88 570
166 6 88 570
168 5 88 564
170 5 88 560
172 4 89 560
174 4 90 571
176 5 89 567
178 5 89 565
180 5 88 567
182 4 89 569
184 5 89 558
186 6 89 561
188 6 89 564
190 7 89 564
192 7 86 564
194 5 88 573
196 4 89 567
198 2 89 567
200 2 88 567
202 2 88 565
204 3 87 555
206 2 88 562
208 2 88 558
210 2 88 553
212 4 88 565
214 4 88 561
216 4 89 555
218 4 89 558
220 3 88 553
222 3 88 552
224 3 88 545
226 6 88 556
228 6 88 564
230 6 88 560
232 6 89 565
234 6 89 571
236 5 88 574
238 5 88 571
240 4 87 568
242 4 87 571
244 4 87 575
246 4 88 572
248 4 88 574
250 4 88 574
252 4 88 575
254 3 89 576
256 4 89 574
258 4 89 564
260 2 91 566
262 3 90 560
264 3 90 563
266 3 90 574
268 3 90 574
270 3 90 577
272 3 89 569
274 3 90 573
276 3 89 565
278 3 89 577
280 2 89 571
282 2 89 576
284 2 88 572
286 2 87 578
288 2 87 577
290 2 87 569
292 2 87 592
294 2 88 586
296 2 88 589
298 2 88 584
300 2 86 583
