0 55 0 456
2 54 0 441
4 55 0 441
6.00001 55 0 438
8.00001 55 0 446
10 56 1 448
12 56 0 449
14 56 2 442
16 55 2 443
18 56 3 440
20 58 3 445
22 58 3 441
24 57 3 438
26 55 4 434
28 55 5 441
30 56 5 436
32 58 6 451
34 55 6 442
36 56 6 442
38 55 9 447
40 55 9 434
42 55 9 430
44 55 9 422
46 53 10 417
48 52 11 428
50 50 10 428
52 48 11 427
54 49 11 436
56 49 11 430
58 49 13 417
60 49 13 425
62 46 13 437
64 44 14 429
66 44 14 422
68 45 14 427
70 45 15 430
72 45 15 441
74 44 17 443
76 41 14 446
78 40 16 442
80 38 15 447
82 38 16 459
84 38 17 455
86 38 15 459
88 38 17 459
90 38 16 457
92 38 17 463
94 37 18 449
96 36 20 446
98 36 22 450
100 36 22 438
102 35 21 445
104 35 21 440
106 34 23 436
108 34 25 439
110 32 24 444
112 31 25 437
114 30 25 428
116 29 26 423
118 30 26 419
120 29 28 427
122 28 27 442
124 28 29 454
126 28 30 460
128 27 30 456
130 27 31 452
132 27 30 463
134 27 30 471
136 27 31 463
138 27 30 466
140 27 29 463
142 26 29 467
144 26 29 471
146 26 30 474
148 25 32 484
150 25 33 495
152 25 33 482
154 24 33 484
156 24 33 468
158 24 33 473
160 24 32 468
162 23 31 456
164 23 32 463
166 23 32 455
168 23 32 462
170 23 33 466
172 23 35 455
174 23 35 450
176 23 37 459
178 23 37 439
180 23 37 444
182 23 37 438
184 23 38 445
186 23 37 454
188 23 36 445
190 23 37 437
192 22 39 441
194 22 37 436
196 22 38 437
198 22 38 437
200 22 37 428
202 21 37 443
204 21 38 437
206 21 39 439
208 21 38 450
210 22 40 438
212 22 39 445
214 20 39 444
216 20 39 437
218 19 40 442
220 19 39 434
222 19 41 436
224 19 38 441
226 19 38 457
228 18 40 439
230 18 40 426
232 18 42 438
234 18 43 426
236 18 42 426
238 17 42 424
240 16 44 442
242 16 46 441
244 16 47 431
246 15 49 433
248 15 49 436
250 15 50 439
252 15 49 447
254 14 49 450
256 14 50 453
258 14 46 450
260 14 47 452
262 14 48 459
264 14 50 448
266 14 47 439
268 14 47 433
270 14 49 439
272 14 49 440
274 14 49 446
276 14 50 439
278 14 50 439
280 13 50 454
282 14 49 441
284 14 48 444
286 14 49 459
288 13 51 457
290 13 51 454
292 14 51 443
294 14 51 432
296 14 52 439
298 14 53 437
300 14 54 436
