0 60 0 418
2 60 0 432
4 63 0 432
6.00001 63 0 425
8.00001 64 0 430
10 63 0 437
12 63 0 429
14 61 0 430
16 60 0 432
18 60 0 433
20 59 0 427
22 59 0 422
24 58 0 422
26 58 0 429
28 57 0 431
30 56 1 438
32 55 1 427
34 55 1 425
36 55 1 421
38 55 1 427
40 55 1 425
42 56 1 414
44 56 2 412
46 56 2 409
48 57 3 407
50 55 3 414
52 55 4 416
54 52 4 420
56 53 4 427
58 53 4 425
60 52 4 421
62 52 3 424
64 54 3 423
66 54 3 441
68 54 4 434
70 54 4 437
72 53 4 426
74 53 4 423
76 52 4 422
78 52 5 425
80 52 5 432
82 52 5 425
84 52 5 436
86 52 5 438
88 51 5 447
90 51 5 452
92 51 6 456
94 51 6 446
96 51 8 446
98 50 9 442
100 50 9 449
102 50 10 440
104 50 10 434
106 49 10 429
108 49 9 421
110 49 10 427
112 49 9 422
114 49 11 419
116 49 14 421
118 48 13 422
120 46 12 421
122 46 11 423
124 45 14 425
126 45 14 422
128 45 14 425
130 45 13 430
132 45 13 425
134 45 13 423
136 45 13 445
138 45 13 434
140 45 14 441
142 44 15 435
144 44 15 437
146 44 15 439
148 44 15 436
150 44 15 446
152 43 14 451
154 43 14 451
156 43 14 443
158 42 14 439
160 41 14 433
162 41 14 425
164 41 15 430
166 41 15 430
168 41 16 436
170 41 16 440
172 41 16 440
174 40 16 429
176 39 17 433
178 39 17 435
180 39 18 433
182 39 18 431
184 38 18 442
186 37 18 439
188 37 18 436
190 36 18 436
192 36 21 436
194 36 21 427
196 36 21 433
198 37 22 433
200 37 23 433
202 37 23 435
204 36 24 445
206 37 23 438
208 37 23 442
210 37 23 447
212 35 23 435
214 35 23 439
216 35 22 445
218 35 22 442
220 36 23 447
222 36 23 448
224 36 23 455
226 33 23 444
228 33 23 436
230 33 23 440
232 33 22 435
234 33 22 429
236 34 23 426
238 33 24 429
240 34 25 432
242 34 25 429
244 34 25 425
246 34 24 428
248 34 24 426
250 34 24 426
252 34 24 425
254 34 24 424
256 33 24 426
258 33 24 436
260 33 24 434
262 32 25 440
264 32 25 437
266 32 25 426
268 32 25 426
270 32 25 423
272 32 26 431
274 32 25 427
276 32 26 435
278 32 26 423
280 32 27 429
282 32 27 424
284 32 28 428
286 32 29 422
288 32 29 423
290 32 29 431
292 32 29 408
294 32 28 414
296 32 28 411
298 32 28 416
300 32 30 417
