0 71 0 431
2 71 0 431
4 72 0 424
6.00001 72 0 426
8.00001 70 0 422
10 71 0 424
12 69 0 428
14 70 0 426
16 70 0 426
18 71 0 419
20 71 1 427
22 71 1 425
24 71 1 423
26 71 1 427
28 71 1 421
30 70 1 422
32 70 1 418
34 70 2 416
36 69 2 423
38 68 3 425
40 66 3 420
42 68 3 421
44 68 3 428
46 68 4 423
48 67 5 419
50 66 5 430
52 65 5 432
54 65 6 437
56 65 7 437
58 64 8 441
60 65 9 434
62 63 8 434
64 61 8 433
66 62 9 438
68 60 9 445
70 59 11 439
72 60 11 437
74 59 13 432
76 59 14 436
78 61 13 446
80 60 13 445
82 59 13 451
84 58 13 453
86 59 13 456
88 56 13 450
90 55 14 444
92 55 14 451
94 55 15 452
96 55 17 454
98 55 18 451
100 55 19 443
102 55 20 437
104 55 21 445
106 55 22 449
108 55 20 441
110 55 20 439
112 54 21 447
114 53 21 449
116 53 22 444
118 53 22 451
120 52 22 445
122 52 22 436
124 53 20 437
126 53 19 434
128 54 20 428
130 54 20 430
132 54 23 435
134 54 25 446
136 54 25 441
138 54 24 434
140 53 23 433
142 53 23 428
144 53 23 430
146 53 25 418
148 52 25 414
150 52 27 411
152 51 26 409
154 52 27 408
156 52 26 402
158 50 27 392
160 50 27 397
162 50 29 392
164 50 32 392
166 50 33 387
168 50 32 400
170 49 31 394
172 49 32 404
174 49 34 396
176 49 35 404
178 49 35 401
180 49 36 397
182 48 37 397
184 48 37 401
186 48 38 406
188 48 38 406
190 48 37 412
192 48 37 415
194 48 38 417
196 48 37 413
198 47 37 407
200 47 35 414
202 45 36 398
204 45 36 405
206 46 37 404
208 46 37 406
210 47 37 419
212 47 37 421
214 46 37 423
216 45 37 419
218 45 37 420
220 43 38 419
222 43 38 425
224 41 37 425
226 40 38 413
228 41 38 414
230 41 38 405
232 41 40 402
234 41 40 419
236 41 38 418
238 41 37 419
240 41 37 411
242 39 37 417
244 39 38 414
246 38 36 412
248 39 36 415
250 39 36 416
252 39 35 417
254 39 33 410
256 38 32 415
258 38 33 413
260 38 35 416
262 37 35 412
264 37 34 407
266 37 35 397
268 37 34 417
270 34 34 419
272 34 36 412
274 34 36 414
276 34 35 421
278 35 35 417
280 34 37 424
282 34 37 428
284 34 35 434
286 34 34 441
288 34 36 445
290 34 33 446
292 34 33 436
294 34 34 436
296 34 34 438
298 34 33 435
300 34 35 435
