0 72 0 583
2 64 6 586
4 58 13 590
6.00001 54 18 587
8.00001 51 21 588
10 46 26 590
12 43 28 598
14 42 30 592
16 36 35 589
18 32 39 590
20 30 40 591
22 25 44 583
24 24 47 591
26 22 49 578
28 20 50 581
30 19 53 578
32 16 55 587
34 13 59 573
36 12 59 581
38 12 59 579
40 11 60 573
42 10 61 568
44 10 62 568
46 10 62 576
48 10 62 581
50 9 62 584
52 10 62 580
54 8 63 572
56 8 64 576
58 8 64 581
60 8 63 579
62 8 64 571
64 8 63 569
66 9 62 574
68 8 62 567
70 8 61 574
72 8 60 573
74 9 61 580
76 9 61 568
78 7 64 565
80 7 63 567
82 8 63 569
84 8 63 578
86 9 61 574
88 7 63 568
90 8 63 566
92 9 63 566
94 11 63 565
96 9 62 566
98 8 60 566
100 8 61 563
102 7 62 567
104 8 63 571
106 7 64 579
108 7 64 574
110 7 63 592
112 7 62 591
114 7 63 590
116 8 63 601
118 8 62 604
120 9 61 603
122 10 61 614
124 10 63 612
126 11 62 611
128 11 61 614
130 11 61 607
132 10 61 607
134 10 59 606
136 7 62 606
138 8 64 593
140 7 64 601
142 7 64 599
144 6 64 606
146 6 64 605
148 7 63 609
150 8 63 604
152 7 60 613
154 7 60 614
156 7 61 603
158 5 65 604
160 7 64 612
162 7 63 619
164 6 63 621
166 5 61 615
168 5 63 612
170 5 63 615
172 5 62 609
174 5 62 608
176 8 61 607
178 8 60 611
180 9 60 608
182 9 61 609
184 8 62 608
186 7 63 609
188 7 61 615
190 7 62 609
192 6 62 609
194 6 62 605
196 7 61 601
198 7 61 605
200 5 65 596
202 5 64 595
204 5 63 599
206 6 63 599
208 5 65 600
210 6 65 601
212 7 64 607
214 8 65 596
216 6 64 610
218 6 66 606
220 6 67 604
222 6 66 609
224 5 65 598
226 6 65 591
228 7 65 580
230 6 65 584
232 6 65 575
234 6 65 583
236 6 65 588
238 6 64 588
240 7 64 588
242 8 65 593
244 8 66 583
246 6 66 575
248 6 65 580
250 6 65 573
252 5 66 591
254 6 68 591
256 4 66 581
258 5 65 582
260 6 65 586
262 7 65 574
264 6 67 575
266 7 68 574
268 7 67 577
270 6 68 583
272 5 70 585
274 5 70 596
276 5 71 594
278 4 70 592
280 4 71 583
282 6 69 586
284 7 70 588
286 7 71 577
288 6 71 582
290 4 73 578
292 5 74 585
294 5 74 583
296 3 75 603
298 3 76 602
300 4 75 591
