0 443 0 0 0 0
2 429 0 0 13 0
4.00004 439 0 0 7 0
6 440 0 0 8 0
8 435 0 0 5 0
10 435 0 0 5 0
12 432 0 0 5 0
14 438 0 0 7 0
16 434 0 0 8 0
18 442 0 0 9 0
20 448 0 0 4 0
22 447 0 0 10 0
24 436 0 0 6 0
26 433 0 0 6 0
28 439 0 0 7 0
30 442 0 0 9 0
32 442 0 0 8 0
34 437 0 0 10 0
36 421 0 0 13 0
38 421 0 0 4 0
40 406 0 0 8 0
42 414 0 0 4 0
44 410 0 0 8 0
46 409 0 0 9 0
48 404 0 0 8 0
50 410 0 0 5 0
52 404 0 0 7 0
54 404 0 0 6 1
56 402 0 3 11 1
58 391 0 9 5 0
60 379 0 15 6 0
62 378 0 19 3 1
64 374 0 26 5 0
66 361 0 35 5 3
68 353 0 46 4 0
70 335 0 60 4 1
72 321 0 73 4 2
74 313 0 88 5 2
76 304 0 92 4 6
78 295 0 100 7 2
80 282 0 113 9 1
82 280 0 114 3 2
84 262 0 115 5 5
86 255 0 123 3 4
88 247 0 132 3 2
90 240 0 132 3 4
92 233 0 142 4 1
94 219 0 154 3 7
96 212 0 161 5 4
98 209 0 163 3 3
100 200 0 170 1 4
102 194 0 178 2 3
104 188 0 181 3 4
106 188 0 181 2 6
108 179 0 192 6 3
110 175 0 193 5 5
112 171 0 199 2 3
114 163 0 210 2 4
116 159 0 212 2 9
118 152 0 234 2 1
120 144 0 246 4 6
122 141 0 251 1 4
124 133 0 254 1 3
126 132 0 261 1 5
128 130 0 265 2 4
130 122 0 268 1 7
132 112 0 271 4 5
134 111 0 266 4 3
136 113 0 268 0 4
138 110 0 269 2 8
140 108 0 274 1 10
142 107 0 278 3 6
144 105 0 284 1 10
146 102 0 297 0 2
148 97 0 291 1 7
150 91 0 299 2 5
152 85 0 310 2 2
154 83 0 313 1 9
156 79 0 314 1 5
158 77 0 320 1 6
160 74 0 318 1 6
162 72 0 321 2 5
164 69 0 324 0 3
166 66 0 325 0 4
168 62 0 321 0 7
170 58 0 330 1 3
172 58 0 328 1 6
174 55 0 344 0 4
176 52 0 343 1 5
178 50 0 348 2 6
180 48 0 334 1 12
182 47 0 330 1 13
184 47 0 334 1 3
186 43 0 330 3 7
188 44 0 326 0 7
190 42 0 324 0 6
192 42 0 326 0 5
194 36 0 335 0 2
196 34 0 339 0 4
198 35 0 343 0 10
200 32 0 346 0 1
