0 391 0 0 0 0
2 381 0 0 11 0
4.00004 378 0 0 11 0
6 367 0 0 9 0
8 368 0 0 12 0
10 367 0 0 5 0
12 358 0 0 9 0
14 359 0 0 7 0
16 367 0 0 10 0
18 370 0 0 7 0
20 361 0 0 12 0
22 362 0 0 7 0
24 354 0 0 13 0
26 349 0 0 11 0
28 355 0 0 4 0
30 348 0 0 7 0
32 344 0 0 5 0
34 341 0 0 12 0
36 354 0 0 10 0
38 359 0 0 7 0
40 358 0 0 5 0
42 355 0 0 7 0
44 356 0 0 9 0
46 364 0 0 5 0
48 365 0 0 9 0
50 373 0 0 8 0
52 365 0 1 10 0
54 367 0 3 11 1
56 365 0 10 7 0
58 359 0 19 7 0
60 357 0 24 4 0
62 351 0 29 8 1
64 344 0 35 13 0
66 327 0 38 12 4
68 328 0 57 3 0
70 311 0 72 2 2
72 288 0 86 9 3
74 279 0 88 4 3
76 268 0 100 5 4
78 252 0 116 8 4
80 249 0 127 3 4
82 240 0 138 6 2
84 226 0 138 4 2
86 213 0 151 4 4
88 206 0 152 0 5
90 196 0 162 2 6
92 182 0 176 4 4
94 179 0 189 2 4
96 171 0 202 5 4
98 163 0 205 7 5
100 157 0 218 3 4
102 152 0 220 1 4
104 138 0 217 3 14
106 134 0 222 5 6
108 127 0 219 3 5
110 119 0 223 7 3
112 116 0 232 2 5
114 112 0 234 3 9
116 107 0 231 1 8
118 105 0 235 1 5
120 98 0 245 2 7
122 88 0 251 1 8
124 83 0 264 2 5
126 80 0 261 0 5
128 78 0 261 1 3
130 75 0 266 1 9
132 73 0 269 1 8
134 69 0 284 3 7
136 69 0 285 1 7
138 63 0 300 0 3
140 63 0 284 0 14
142 58 0 300 2 7
144 59 0 308 0 10
146 55 0 313 0 8
148 52 0 316 0 7
150 50 0 310 1 9
152 47 0 310 0 9
154 46 0 314 0 11
156 42 0 312 1 9
158 41 0 308 1 8
160 38 0 307 0 6
162 36 0 319 2 6
164 35 0 317 0 5
166 34 0 334 0 5
168 31 0 326 1 6
170 31 0 337 0 5
172 32 0 343 0 4
174 32 0 344 0 5
176 29 0 362 0 3
178 27 0 363 0 10
180 26 0 363 0 9
182 23 0 355 2 3
184 24 0 348 0 8
186 24 0 350 0 4
188 23 0 346 0 9
190 22 0 351 0 8
192 22 0 358 0 7
194 22 0 357 0 7
196 21 0 337 0 10
198 19 0 352 0 7
200 18 0 344 0 8
