0 567 0 0 0 0
2 568 0 0 6 0
4.00004 561 0 0 10 0
6 561 0 0 9 0
8 559 0 0 8 0
10 561 0 0 10 0
12 566 0 0 6 0
14 555 0 0 8 0
16 551 0 0 13 0
18 551 0 0 7 0
20 547 0 0 12 0
22 560 0 0 7 0
24 556 0 0 11 0
26 556 0 0 10 0
28 556 0 0 12 0
30 554 0 0 10 0
32 562 0 0 9 0
34 568 0 0 6 0
36 556 0 0 11 0
38 558 0 0 11 0
40 574 0 0 8 0
42 568 0 0 10 0
44 563 0 0 9 0
46 562 0 0 11 0
48 553 0 0 6 0
50 547 0 0 6 0
52 548 0 2 4 0
54 555 0 2 9 0
56 569 0 6 4 1
58 556 0 14 5 1
60 547 0 23 6 0
62 540 0 27 9 1
64 532 0 33 5 3
66 522 0 46 9 4
68 520 0 60 7 1
70 511 0 61 2 2
72 484 0 74 9 0
74 465 0 84 10 2
76 459 0 98 3 2
78 451 0 116 6 0
80 445 0 123 5 1
82 430 0 132 5 4
84 421 0 138 5 3
86 407 0 148 4 4
88 393 0 155 3 7
90 381 0 173 6 3
92 367 0 185 1 5
94 358 0 195 3 2
96 346 0 200 3 4
98 335 0 214 4 6
100 322 0 229 5 1
102 318 0 235 2 3
104 307 0 244 6 4
106 297 0 258 5 4
108 292 0 268 3 7
110 280 0 278 5 2
112 278 0 284 5 5
114 272 0 295 2 1
116 266 0 300 1 6
118 256 0 309 3 3
120 248 0 310 3 10
122 243 0 326 2 0
124 233 0 337 3 2
126 223 0 350 4 3
128 217 0 357 7 7
130 214 0 358 3 8
132 206 0 368 3 4
134 204 0 385 2 4
136 201 0 392 1 7
138 192 0 406 3 9
140 189 0 416 1 9
142 184 0 420 2 5
144 178 0 434 0 7
146 174 0 445 3 6
148 160 0 446 5 5
150 160 0 458 2 4
152 158 0 449 2 7
154 155 0 453 3 5
156 153 0 446 4 10
158 152 0 453 2 4
160 149 0 453 4 9
162 142 0 469 6 8
164 143 0 476 0 7
166 135 0 487 3 12
168 135 0 492 1 7
170 131 0 489 0 10
172 125 0 501 2 7
174 120 0 502 2 6
176 115 0 494 2 14
178 116 0 495 0 5
180 110 0 493 0 8
182 106 0 501 5 3
184 105 0 493 0 13
186 103 0 501 0 5
188 100 0 511 0 5
190 96 0 509 0 6
192 92 0 514 0 10
194 89 0 510 0 7
196 83 0 516 2 8
198 82 0 526 1 7
200 79 0 530 1 8
