0 708 0 0 0 0
2 689 0 0 9 0
4.00004 685 0 0 6 0
6 677 0 0 9 0
8 675 0 0 6 0
10 665 0 0 11 0
12 667 0 0 9 0
14 670 0 0 12 0
16 670 0 0 6 0
18 665 0 0 5 0
20 656 0 0 13 0
22 659 0 0 7 0
24 654 0 0 8 0
26 649 0 0 10 0
28 654 0 0 11 0
30 652 0 0 8 0
32 652 0 0 8 0
34 638 0 0 13 0
36 640 0 0 4 0
38 636 0 0 13 0
40 634 0 0 8 0
42 633 0 0 5 0
44 637 0 0 9 0
46 638 0 0 4 0
48 638 0 0 10 0
50 640 0 0 9 0
52 652 0 0 6 0
54 643 0 1 12 0
56 640 0 5 4 1
58 636 0 9 9 0
60 633 0 16 13 2
62 627 0 24 10 2
64 611 0 32 12 0
66 609 0 38 3 0
68 594 0 41 4 2
70 585 0 50 5 1
72 574 0 63 13 3
74 567 0 77 9 4
76 547 0 88 10 2
78 549 0 99 4 1
80 537 0 106 5 4
82 533 0 118 4 0
84 521 0 124 1 2
86 509 0 137 5 4
88 497 0 148 4 2
90 488 0 155 5 3
92 483 0 172 3 3
94 481 0 183 3 0
96 464 0 186 6 6
98 454 0 202 9 1
100 448 0 211 5 1
102 438 0 224 4 3
104 427 0 232 3 1
106 414 0 231 9 3
108 414 0 238 5 3
110 404 0 245 4 6
112 403 0 256 1 6
114 394 0 270 2 6
116 384 0 279 3 4
118 367 0 288 6 1
120 362 0 288 5 7
122 354 0 305 3 3
124 344 0 308 4 5
126 337 0 318 8 6
128 332 0 332 4 10
130 325 0 343 2 9
132 316 0 351 4 6
134 313 0 365 4 3
136 303 0 366 4 6
138 299 0 369 4 6
140 289 0 377 4 4
142 278 0 379 5 13
144 275 0 382 2 7
146 269 0 400 2 4
148 261 0 403 3 7
150 254 0 408 5 11
152 250 0 414 4 4
154 247 0 425 1 7
156 240 0 423 0 8
158 233 0 434 2 5
160 225 0 431 3 12
162 225 0 441 1 8
164 220 0 448 1 7
166 219 0 457 0 8
168 211 0 460 5 8
170 215 0 456 1 8
172 207 0 469 5 6
174 208 0 482 1 8
176 204 0 484 1 8
178 201 0 487 1 8
180 196 0 493 2 9
182 191 0 499 2 3
184 183 0 497 4 10
186 184 0 513 1 4
188 180 0 513 4 5
190 182 0 509 1 9
192 175 0 514 2 9
194 167 0 514 5 9
196 169 0 519 1 11
198 167 0 523 1 9
200 163 0 529 0 4
