0 87 0 0 0
2 87 0 0 0
4.00004 87 0 0 0
6 86 0 0 0
8 87 0 0 0
10 87 0 0 0
12 87 0 0 0
14 86 0 1 0
16 87 0 0 0
18 86 0 1 0
20 87 0 0 0
22 85 0 2 0
24 85 0 1 0
26 84 0 1 0
28 85 0 0 0
30 84 0 1 0
32 84 0 0 0
34 84 0 0 0
36 83 0 1 0
38 85 0 0 0
40 83 0 0 0
42 83 0 0 0
44 83 0 1 0
46 84 0 0 0
48 83 0 1 0
50 84 0 0 0
52 60 24 0 0
54 54 30 0 0
56 49 34 1 0
58 38 42 2 0
60 35 47 0 0
62 30 52 0 0
64 24 58 1 0
66 22 60 1 0
68 20 63 0 0
70 16 66 0 0
72 14 68 0 0
74 11 70 1 0
76 10 72 1 0
78 10 73 0 0
80 10 73 0 0
82 8 75 0 0
84 7 75 1 0
86 6 76 1 0
88 6 77 0 0
90 6 77 0 0
92 5 78 0 0
94 5 78 0 0
96 4 78 1 0
98 3 79 0 1
100 3 80 0 0
102 3 78 0 2
104 3 79 0 1
106 3 80 0 0
108 4 80 0 0
110 4 79 0 1
112 5 80 0 0
114 5 80 0 0
116 4 80 0 1
118 4 81 0 0
120 4 81 0 0
122 4 81 0 0
124 3 81 0 0
126 3 81 0 0
128 3 81 0 0
130 3 80 0 1
132 3 81 0 0
134 3 81 1 0
136 4 81 0 0
138 4 81 0 0
140 3 81 0 0
142 3 81 0 0
144 3 81 0 0
146 3 79 0 2
148 3 81 0 0
150 2 80 1 1
152 3 80 0 1
154 3 79 0 1
156 3 79 0 1
158 2 79 0 1
160 2 79 0 1
162 1 80 1 0
164 2 79 0 1
166 2 80 0 0
168 2 80 0 0
170 2 79 0 1
172 2 80 0 0
174 2 80 0 0
176 1 79 1 1
178 2 79 0 1
180 3 80 0 0
182 3 80 0 0
184 3 80 0 0
186 3 80 0 0
188 3 80 0 0
190 3 79 0 1
192 2 80 0 0
194 2 80 0 0
196 1 80 1 0
198 2 80 0 0
200 2 80 0 0
202 2 80 0 0
204 1 81 0 0
206 1 81 0 0
208 1 81 1 0
210 2 82 0 0
212 2 82 0 0
214 3 82 0 0
216 2 82 1 0
218 2 82 0 0
220 2 82 0 0
222 2 82 0 0
224 2 82 1 0
226 3 82 0 0
228 3 82 0 0
230 3 82 0 0
232 3 82 0 0
234 3 82 0 0
236 3 82 0 0
238 2 82 1 0
240 3 82 0 0
242 3 82 0 0
244 3 81 0 1
246 3 82 0 0
248 3 82 0 0
250 3 82 0 0
252 3 82 0 0
254 3 82 0 0
256 3 82 0 0
258 4 82 0 0
260 3 82 0 0
262 3 82 0 0
264 3 81 0 0
266 3 81 0 0
268 4 80 0 0
270 4 80 0 0
272 4 80 0 0
274 4 80 0 0
276 4 80 0 0
278 3 81 0 0
280 2 82 0 0
282 2 82 0 0
284 2 82 1 0
286 3 84 0 0
288 2 84 0 0
290 1 84 1 0
292 1 84 1 0
294 2 84 0 0
296 1 84 0 0
298 0 84 0 0
300 0 84 0 0
302 0 84 0 0
304 0 84 0 0
306 0 83 0 1
308 0 84 0 0
310 0 84 0 0
312 0 84 0 0
314 0 84 0 0
316 0 83 0 1
318 0 84 0 0
320 0 84 0 0
322 0 84 0 0
324 0 84 0 0
326 0 84 0 0
328 1 84 0 0
330 0 83 1 1
332 1 84 0 0
334 1 84 0 0
336 2 84 0 0
338 2 84 0 0
340 2 83 0 0
342 1 84 0 0
344 1 84 0 0
346 1 84 0 0
348 1 84 0 0
350 1 84 0 0
