0 67 0 0 0
2 68 0 0 0
4.00004 67 0 1 0
6 68 0 0 0
8 67 0 1 0
10 69 0 0 0
12 69 0 0 0
14 68 0 1 0
16 68 0 1 0
18 69 0 0 0
20 69 0 0 0
22 67 0 1 0
24 68 0 0 0
26 69 0 0 0
28 69 0 0 0
30 69 0 0 0
32 68 0 1 0
34 70 0 0 0
36 70 0 0 0
38 69 0 0 0
40 69 0 1 0
42 70 0 0 0
44 71 0 0 0
46 70 0 1 0
48 70 0 1 0
50 70 0 0 0
52 70 0 0 0
54 69 0 1 0
56 71 0 0 0
58 69 0 1 0
60 70 0 0 0
62 70 0 0 0
64 69 0 1 0
66 70 0 0 0
68 71 0 0 0
70 70 0 1 0
72 71 0 0 0
74 71 0 0 0
76 71 0 0 0
78 71 0 0 0
80 71 0 0 0
82 70 0 1 0
84 68 0 2 0
86 69 0 1 0
88 69 0 1 0
90 68 0 2 0
92 69 0 1 0
94 70 0 0 0
96 70 0 0 0
98 68 0 1 0
100 69 0 0 0
102 68 0 1 0
104 69 0 0 0
106 68 0 0 0
108 68 0 1 0
110 69 0 0 0
112 67 0 2 0
114 67 0 2 0
116 69 0 1 0
118 68 0 1 0
120 67 0 1 0
122 68 0 0 0
124 68 0 0 0
126 66 0 2 0
128 68 0 0 0
130 66 0 2 0
132 69 0 0 0
134 69 0 0 0
136 70 0 0 0
138 70 0 0 0
140 68 1 2 0
142 69 1 1 0
144 69 1 1 0
146 69 1 0 0
148 68 1 0 0
150 68 1 0 0
152 67 1 1 0
154 68 1 0 0
156 67 1 1 0
158 68 1 0 0
160 69 1 0 0
162 69 2 0 0
164 69 2 0 0
166 69 2 0 0
168 69 2 0 0
170 69 1 0 0
172 68 1 1 0
174 69 1 0 0
176 69 1 0 0
178 68 1 0 0
180 68 1 0 0
182 68 2 0 0
184 68 0 0 1
186 68 1 0 0
188 69 1 0 0
190 68 1 1 0
192 69 1 0 0
194 69 1 0 0
196 69 1 0 0
198 69 1 0 0
200 69 1 0 0
202 68 1 1 0
204 68 0 1 0
206 68 0 1 0
208 66 0 1 0
210 67 0 0 0
212 67 0 0 0
214 67 0 0 1
216 67 0 0 0
218 66 0 1 0
220 67 0 0 0
222 66 0 1 0
224 67 0 0 1
226 67 1 0 0
228 68 1 0 0
230 68 1 0 0
232 68 0 0 1
234 68 0 0 0
236 68 0 0 0
238 69 0 0 0
240 69 0 0 0
242 68 0 0 0
244 68 0 0 0
246 68 0 0 0
248 68 0 0 0
250 68 1 1 0
252 68 1 0 0
254 67 1 1 0
256 68 1 0 0
258 68 1 0 0
260 67 1 1 0
262 68 1 0 0
264 69 1 0 0
266 69 1 0 0
268 69 1 0 0
270 69 1 0 0
272 69 2 0 0
274 69 2 0 0
276 69 2 0 0
278 69 1 0 1
280 69 2 0 0
282 69 2 0 0
284 69 2 0 0
286 69 2 0 0
288 68 1 0 1
290 68 2 0 0
292 68 3 0 0
294 68 3 0 0
296 67 3 1 0
298 68 3 0 0
300 69 3 0 0
302 68 3 0 0
304 68 3 0 0
306 68 3 0 0
308 68 3 0 0
310 67 3 0 0
312 67 3 0 0
314 67 3 0 0
316 67 3 0 0
318 67 2 0 0
320 67 2 0 0
322 67 2 0 0
324 67 2 0 0
326 67 2 0 0
328 67 1 0 1
330 67 2 0 0
332 67 2 0 0
334 65 2 2 0
336 67 2 0 0
338 67 2 0 0
340 68 2 0 0
342 67 2 1 0
344 68 2 0 0
346 68 2 0 0
348 68 2 0 0
350 68 3 0 0
