0 62 0 0 0
2 61 0 1 0
4.00004 63 0 0 0
6 62 0 0 0
8 59 0 2 0
10 60 0 1 0
12 60 0 1 0
14 61 0 0 0
16 61 0 0 0
18 61 0 0 0
20 61 0 0 0
22 61 0 0 0
24 61 0 0 0
26 61 0 0 0
28 61 0 1 0
30 62 0 0 0
32 62 0 0 0
34 61 0 1 0
36 62 0 0 0
38 62 0 0 0
40 62 0 0 0
42 61 0 1 0
44 62 0 0 0
46 62 0 0 0
48 61 0 1 0
50 61 0 1 0
52 62 0 0 0
54 61 0 1 0
56 62 0 0 0
58 62 0 0 0
60 61 0 1 0
62 60 0 2 0
64 60 0 1 0
66 59 0 2 0
68 59 0 1 0
70 60 0 0 0
72 58 0 2 0
74 59 0 0 0
76 60 0 0 0
78 60 0 0 0
80 60 0 0 0
82 59 0 1 0
84 60 0 0 0
86 59 0 1 0
88 59 0 1 0
90 60 0 0 0
92 60 0 0 0
94 60 0 0 0
96 60 0 0 0
98 60 0 0 0
100 60 0 1 0
102 60 0 1 0
104 60 0 0 0
106 60 1 0 0
108 60 1 0 0
110 60 1 0 0
112 59 1 1 0
114 60 1 0 0
116 59 1 1 0
118 60 1 1 0
120 61 1 0 0
122 61 1 0 0
124 60 1 1 0
126 62 1 0 0
128 61 1 1 0
130 62 1 0 0
132 62 0 0 1
134 61 1 1 0
136 62 1 0 0
138 61 1 1 0
140 62 1 0 0
142 61 1 1 0
144 61 1 1 0
146 61 1 0 0
148 61 1 0 0
150 60 1 0 0
152 59 1 1 0
154 60 1 0 0
156 60 1 0 0
158 59 1 1 0
160 60 1 0 0
162 60 1 0 0
164 59 1 1 0
166 61 1 0 0
168 61 1 0 0
170 61 1 0 0
172 61 1 0 0
174 61 1 0 0
176 61 1 0 0
178 61 1 0 0
180 61 1 0 0
182 61 1 0 0
184 61 1 0 0
186 61 1 0 0
188 61 1 0 0
190 61 1 0 0
192 60 1 1 0
194 60 1 0 0
196 60 1 0 0
198 60 1 0 0
200 61 1 0 0
202 60 1 1 0
204 61 1 1 0
206 62 1 0 0
208 60 1 2 0
210 62 1 0 0
212 62 1 0 0
214 61 1 0 0
216 61 1 0 0
218 61 1 0 0
220 61 1 0 0
222 61 1 0 0
224 62 1 0 0
226 61 1 1 0
228 62 1 0 0
230 62 1 0 0
232 60 1 2 0
234 62 1 0 0
236 61 1 1 0
238 61 1 1 0
240 61 1 1 0
242 61 1 1 0
244 61 1 1 0
246 62 1 0 0
248 62 1 0 0
250 61 1 1 0
252 61 1 1 0
254 60 1 1 0
256 60 1 1 0
258 61 1 0 0
260 60 1 1 0
262 61 1 0 0
264 61 1 0 0
266 62 1 0 0
268 62 1 0 0
270 62 1 0 0
272 61 1 1 0
274 62 1 0 0
276 61 1 1 0
278 61 1 0 0
280 61 1 0 0
282 59 1 2 0
284 61 1 0 0
286 61 1 0 0
288 61 1 0 0
290 60 1 0 0
292 60 1 1 0
294 61 1 0 0
296 60 1 0 0
298 58 1 2 0
300 60 1 0 0
302 59 1 1 0
304 60 1 0 0
306 60 1 0 0
308 59 1 1 0
310 60 1 0 0
312 60 1 0 0
314 60 1 0 0
316 60 1 0 0
318 60 1 0 0
320 59 1 1 0
322 60 1 0 0
324 60 1 0 0
326 60 1 0 0
328 60 1 0 0
330 60 2 0 0
332 61 2 0 0
334 60 2 1 0
336 61 2 0 0
338 61 2 0 0
340 60 2 1 0
342 61 2 0 0
344 60 2 1 0
346 61 2 0 0
348 61 2 0 0
350 61 2 0 0
