0 98 0 0 0
2 98 0 0 0
4.00004 98 0 0 0
6 97 0 1 0
8 98 0 0 0
10 98 0 0 0
12 98 0 0 0
14 100 0 0 0
16 100 0 0 0
18 100 0 0 0
20 100 0 0 0
22 99 0 0 0
24 98 0 1 0
26 98 0 1 0
28 98 0 2 0
30 99 0 1 0
32 100 0 0 0
34 99 0 1 0
36 100 0 0 0
38 99 0 0 0
40 99 0 0 0
42 99 0 0 0
44 99 0 0 0
46 99 0 0 0
48 99 0 0 0
50 99 0 0 0
52 83 16 0 0
54 74 26 0 0
56 68 32 0 0
58 63 37 0 0
60 61 39 0 0
62 58 42 0 0
64 52 48 0 0
66 48 52 0 0
68 45 55 0 0
70 39 60 1 0
72 35 64 1 0
74 35 66 0 0
76 30 71 0 0
78 29 72 0 0
80 22 78 0 0
82 21 79 0 0
84 20 80 0 0
86 19 81 0 0
88 17 83 0 0
90 18 83 0 0
92 18 83 0 0
94 14 86 0 0
96 14 86 0 0
98 12 88 0 0
100 11 89 0 0
102 11 90 0 0
104 10 91 0 0
106 8 92 0 0
108 7 93 0 0
110 7 93 0 0
112 6 94 0 0
114 6 94 0 0
116 6 94 0 0
118 4 95 1 0
120 5 94 0 0
122 4 95 0 0
124 4 95 0 0
126 4 95 0 0
128 4 95 0 0
130 3 96 0 0
132 2 97 0 0
134 2 97 0 0
136 1 98 0 0
138 1 98 0 0
140 1 98 0 0
142 1 98 0 0
144 1 98 0 0
146 1 98 0 0
148 1 98 0 0
150 0 99 0 0
152 0 98 0 1
154 0 99 0 0
156 0 99 0 0
158 0 99 0 0
160 0 99 0 0
162 0 99 0 0
164 0 99 0 0
166 0 99 0 0
168 0 99 0 0
170 0 99 0 0
172 0 99 0 0
174 0 99 0 0
176 0 99 0 0
178 0 99 0 0
180 0 99 0 0
182 0 99 0 0
184 0 99 0 0
186 0 99 0 0
188 0 99 0 0
190 0 99 0 0
192 0 98 0 0
194 0 98 0 0
196 0 98 0 0
198 0 99 0 0
200 0 99 0 0
202 0 99 0 0
204 0 98 0 1
206 0 99 0 0
208 0 99 0 0
210 0 99 0 0
212 0 99 0 0
214 0 99 0 0
216 0 98 0 1
218 0 99 0 0
220 0 99 0 0
222 0 99 0 0
224 0 99 0 0
226 0 99 0 0
228 0 98 0 1
230 0 98 0 1
232 0 99 0 0
234 0 99 0 0
236 0 99 0 0
238 0 99 0 0
240 0 99 0 0
242 0 99 0 0
244 0 99 0 0
246 0 98 0 1
248 0 99 0 0
250 0 99 0 0
252 0 98 0 0
254 0 97 0 1
256 1 98 0 0
258 1 98 0 0
260 1 98 0 0
262 1 98 0 0
264 1 98 0 0
266 1 98 0 0
268 1 98 0 0
270 1 98 0 0
272 1 98 0 0
274 1 98 0 0
276 1 98 0 0
278 1 98 0 0
280 1 98 0 0
282 1 98 0 0
284 1 98 0 0
286 1 98 0 0
288 1 98 0 0
290 1 98 0 0
292 1 98 0 0
294 1 98 0 0
296 1 98 0 0
298 1 98 0 0
300 1 98 0 0
302 1 98 0 0
304 0 98 0 0
306 1 98 0 0
308 1 98 0 0
310 1 98 0 0
312 1 98 0 0
314 1 98 0 0
316 1 98 0 0
318 1 98 0 0
320 1 98 0 0
322 1 98 0 0
324 1 98 0 0
326 1 97 0 1
328 1 98 0 0
330 1 98 0 0
332 1 98 0 0
334 1 98 0 0
336 1 98 0 0
338 1 98 0 0
340 1 98 0 0
342 1 98 0 0
344 1 98 0 0
346 1 97 0 0
348 1 98 0 0
350 1 98 0 0
