0 75 0 0 0
2 75 0 0 0
4.00004 74 0 1 0
6 75 0 0 0
8 76 0 0 0
10 75 0 0 0
12 74 0 0 0
14 74 0 0 0
16 74 0 0 0
18 75 0 0 0
20 75 0 0 0
22 75 0 0 0
24 75 0 0 0
26 75 0 0 0
28 74 0 1 0
30 75 0 0 0
32 75 0 0 0
34 75 0 0 0
36 74 0 1 0
38 75 0 0 0
40 74 0 1 0
42 75 0 0 0
44 75 0 0 0
46 75 0 0 0
48 74 0 1 0
50 75 0 0 0
52 59 15 1 0
54 55 20 0 0
56 47 28 0 0
58 43 32 0 0
60 38 37 0 0
62 35 40 0 0
64 30 45 0 0
66 30 45 0 0
68 25 48 2 0
70 23 52 0 0
72 22 53 0 0
74 20 55 0 0
76 18 57 0 0
78 15 59 0 0
80 11 63 0 0
82 10 65 0 0
84 10 65 0 0
86 10 65 0 0
88 9 66 0 0
90 8 67 0 0
92 8 67 0 0
94 8 67 0 0
96 9 67 0 0
98 8 67 0 1
100 8 68 0 0
102 5 70 0 1
104 3 72 0 0
106 3 71 0 1
108 2 72 1 0
110 2 73 1 0
112 3 72 0 0
114 3 72 0 0
116 2 72 0 1
118 2 73 0 0
120 2 73 0 0
122 1 74 0 0
124 1 74 0 0
126 1 74 0 0
128 1 74 0 0
130 1 74 0 0
132 1 74 0 0
134 1 74 0 0
136 1 74 0 0
138 1 73 0 1
140 1 73 0 0
142 1 73 0 0
144 1 73 1 0
146 2 73 0 0
148 2 74 0 0
150 2 73 0 1
152 2 73 0 0
154 2 74 0 0
156 2 73 0 1
158 2 73 0 1
160 2 74 0 0
162 2 74 0 0
164 2 74 0 0
166 2 74 0 0
168 2 74 0 0
170 2 72 0 1
172 2 72 0 1
174 2 73 0 0
176 2 72 0 1
178 2 71 0 2
180 2 73 0 0
182 2 73 0 0
184 2 73 0 0
186 2 73 0 0
188 2 73 0 0
190 2 73 0 0
192 2 73 0 0
194 2 73 0 0
196 2 73 0 0
198 2 73 0 0
200 2 73 0 0
202 2 73 0 0
204 2 73 0 0
206 2 73 0 0
208 2 73 0 0
210 2 73 0 0
212 2 73 0 0
214 2 73 0 0
216 2 73 0 0
218 2 73 0 0
220 3 72 0 1
222 2 73 0 0
224 2 72 0 1
226 2 73 0 0
228 2 73 0 0
230 2 73 0 0
232 2 73 1 0
234 2 73 0 0
236 2 72 0 1
238 1 72 1 0
240 2 72 0 0
242 2 72 0 0
244 2 72 0 0
246 4 72 0 0
248 4 72 0 0
250 4 72 0 0
252 2 73 0 0
254 2 74 0 0
256 2 74 0 0
258 2 74 0 0
260 2 74 0 0
262 2 74 0 0
264 2 73 0 0
266 2 73 0 0
268 2 73 0 0
270 2 72 0 1
272 2 72 0 1
274 2 71 0 1
276 0 72 0 0
278 0 72 0 0
280 0 72 0 0
282 0 71 0 1
284 0 72 0 0
286 0 72 0 0
288 0 72 0 0
290 0 72 0 0
292 0 71 0 1
294 0 72 0 0
296 0 72 0 0
298 0 72 0 0
300 0 72 0 0
302 0 72 1 0
304 1 72 0 0
306 1 72 0 0
308 1 72 0 0
310 1 72 0 0
312 1 71 0 1
314 1 72 0 0
316 1 73 0 0
318 1 74 0 0
320 1 73 0 0
322 1 73 0 1
324 2 73 0 1
326 2 74 1 0
328 2 74 0 0
330 2 74 0 0
332 2 73 0 1
334 2 72 0 2
336 2 74 0 0
338 2 74 0 0
340 1 74 1 0
342 3 74 0 0
344 2 74 1 0
346 2 74 0 0
348 2 74 0 0
350 2 74 0 0
