0 80 0 0 0
2 79 0 1 0
4.00004 80 0 0 0
6 80 0 0 0
8 80 0 0 0
10 80 0 0 0
12 79 0 1 0
14 79 0 1 0
16 79 0 0 0
18 79 0 0 0
20 78 0 0 0
22 79 0 0 0
24 78 0 1 0
26 80 0 0 0
28 80 0 0 0
30 79 0 1 0
32 79 0 0 0
34 79 0 0 0
36 79 0 0 0
38 78 0 1 0
40 79 0 0 0
42 77 0 2 0
44 79 0 0 0
46 79 0 0 0
48 79 0 0 0
50 77 0 2 0
52 67 10 2 0
54 60 19 0 0
56 49 29 1 0
58 45 33 1 0
60 40 39 0 0
62 34 44 0 0
64 32 46 0 0
66 25 52 1 0
68 22 56 0 0
70 17 60 2 0
72 16 63 0 0
74 14 65 1 0
76 13 65 0 2
78 12 67 1 0
80 8 72 0 0
82 8 71 1 1
84 9 72 0 0
86 8 72 0 0
88 7 73 0 0
90 6 74 0 0
92 5 75 0 0
94 5 75 0 0
96 3 76 1 0
98 5 76 0 0
100 5 76 0 0
102 5 76 0 0
104 4 77 0 0
106 5 77 0 0
108 5 77 0 0
110 3 76 2 1
112 5 77 0 0
114 4 77 1 0
116 5 77 0 0
118 6 77 0 0
120 6 77 0 0
122 5 77 0 0
124 3 77 2 0
126 5 77 0 0
128 4 77 1 0
130 4 77 1 0
132 5 76 0 1
134 5 77 0 0
136 4 77 1 0
138 5 77 0 0
140 4 77 1 0
142 4 77 1 0
144 6 76 0 1
146 6 77 0 0
148 6 77 0 0
150 6 77 0 0
152 6 76 0 1
154 4 76 1 1
156 5 77 0 0
158 5 77 0 0
160 4 77 1 0
162 5 77 0 0
164 5 77 0 0
166 4 76 0 1
168 3 77 0 1
170 3 78 0 0
172 3 76 0 2
174 3 78 0 0
176 3 78 0 0
178 3 78 0 0
180 3 78 0 0
182 3 78 0 0
184 3 78 0 0
186 3 78 0 0
188 2 78 1 0
190 2 78 1 0
192 2 78 1 0
194 3 78 0 0
196 3 78 0 0
198 3 78 0 0
200 3 78 0 0
202 3 78 0 0
204 3 78 1 0
206 3 78 0 1
208 2 78 1 1
210 2 79 0 1
212 2 80 0 0
214 2 79 1 1
216 2 80 0 0
218 2 80 0 0
220 2 80 0 0
222 2 80 0 0
224 2 80 0 0
226 2 80 0 0
228 2 80 0 0
230 2 80 0 0
232 2 80 0 0
234 2 79 0 1
236 2 79 0 1
238 2 80 0 0
240 2 80 0 0
242 2 80 0 0
244 1 80 1 0
246 2 80 0 0
248 2 80 0 0
250 2 80 0 0
252 2 80 0 0
254 2 80 0 0
256 2 80 0 0
258 2 79 0 0
260 2 79 0 0
262 2 79 0 0
264 2 79 0 0
266 2 79 0 0
268 2 79 0 0
270 2 79 0 0
272 2 79 0 0
274 2 79 0 0
276 2 79 0 0
278 1 79 0 0
280 1 79 0 0
282 0 79 1 0
284 1 79 0 0
286 1 78 0 1
288 1 79 0 0
290 1 79 0 0
292 1 79 0 0
294 1 79 0 0
296 1 79 0 0
298 1 79 0 0
300 1 79 0 0
302 0 79 1 0
304 1 79 0 0
306 1 79 0 0
308 1 79 0 0
310 1 79 0 0
312 2 78 0 0
314 2 78 0 0
316 2 78 0 0
318 2 78 0 0
320 3 78 0 0
322 3 78 0 0
324 3 78 0 0
326 3 78 0 0
328 3 78 0 0
330 2 78 1 0
332 3 78 0 0
334 2 77 0 1
336 1 77 1 1
338 2 78 0 0
340 2 78 0 0
342 2 78 0 0
344 2 78 0 0
346 0 78 2 0
348 2 78 0 0
350 2 78 0 0
