0 110 0 0 0
2 109 0 1 0
4.00004 110 0 0 0
6 110 0 0 0
8 110 0 0 0
10 110 0 0 0
12 85 24 0 0
14 71 38 0 0
16 67 42 0 0
18 58 51 0 0
20 50 59 1 0
22 42 69 0 0
24 38 73 0 0
26 35 75 0 1
28 31 79 0 0
30 28 83 0 0
32 25 87 0 0
34 22 88 0 1
36 22 90 0 0
38 20 93 0 0
40 16 96 0 0
42 14 98 0 0
44 14 98 0 0
46 12 100 0 0
48 10 102 0 0
50 9 103 0 0
52 8 104 0 0
54 8 104 0 0
56 7 105 0 0
58 7 105 0 0
60 7 105 0 0
62 6 106 0 0
64 5 107 0 0
66 5 106 0 0
68 3 107 1 0
70 3 107 0 0
72 3 106 0 0
74 3 106 0 0
76 4 106 0 0
78 4 106 0 0
80 4 106 0 0
82 4 106 0 0
84 3 107 0 0
86 3 107 0 0
88 2 108 0 0
90 2 108 0 0
92 2 108 0 0
94 2 108 0 0
96 2 108 0 0
98 2 108 0 0
100 2 109 0 1
102 2 110 0 0
104 1 110 0 0
106 2 109 0 0
108 2 109 0 0
110 2 109 0 0
112 2 109 0 0
114 2 109 0 0
116 2 108 0 0
118 2 108 0 0
120 3 108 0 0
122 2 109 0 0
124 2 109 0 0
126 2 109 0 0
128 1 109 0 1
130 1 109 0 1
132 1 110 0 0
134 1 108 0 1
136 0 109 0 0
138 0 109 0 0
140 0 109 1 0
142 0 110 0 0
144 1 110 0 0
146 1 110 0 0
148 1 110 0 0
150 0 111 0 0
152 0 111 0 0
154 0 112 0 0
156 1 112 0 0
158 1 112 0 0
160 1 112 0 0
162 1 112 0 0
164 1 112 0 0
166 1 112 0 0
168 2 112 0 0
170 2 112 1 0
172 2 112 0 0
174 1 112 0 0
176 1 112 0 0
178 0 112 0 0
180 0 112 0 0
182 0 112 0 0
184 0 111 0 0
186 0 111 1 0
188 1 111 0 0
190 1 111 0 0
192 2 111 0 0
194 2 111 0 0
196 2 111 0 0
198 2 110 0 1
200 2 112 0 0
202 2 112 0 0
204 2 112 0 0
206 3 112 0 0
208 1 113 0 0
210 1 113 0 0
