0 112 0 0 0
2 112 0 0 0
4.00004 112 0 0 0
6 113 0 0 0
8 114 0 1 0
10 114 0 0 0
12 103 11 0 0
14 97 17 0 0
16 89 25 0 0
18 81 33 0 0
20 71 43 0 0
22 66 46 0 1
24 62 52 0 0
26 57 58 0 0
28 51 64 0 0
30 45 70 0 0
32 44 71 0 0
34 39 76 0 0
36 33 81 0 0
38 30 84 0 0
40 30 84 0 1
42 29 86 1 0
44 25 88 2 0
46 27 88 0 0
48 23 91 0 0
50 20 95 0 0
52 19 97 0 0
54 15 100 0 1
56 14 101 0 1
58 13 103 0 0
60 12 104 0 0
62 12 105 0 0
64 11 105 0 1
66 10 107 0 0
68 11 108 0 0
70 10 109 0 0
72 10 109 0 0
74 9 110 0 0
76 9 110 0 0
78 8 111 0 0
80 6 113 0 0
82 4 115 0 0
84 2 117 0 0
86 2 117 0 0
88 3 117 0 0
90 3 116 0 0
92 3 116 0 0
94 4 116 0 0
96 3 117 0 0
98 3 116 0 0
100 4 115 0 0
102 4 115 0 0
104 5 115 0 0
106 5 115 0 1
108 5 116 0 0
110 6 116 0 0
112 6 116 0 0
114 6 116 0 0
116 6 116 0 0
118 6 116 0 0
120 5 115 0 0
122 3 114 0 1
124 3 115 0 0
126 3 115 0 0
128 3 115 0 0
130 1 117 0 0
132 2 117 0 0
134 3 117 0 0
136 3 118 0 0
138 4 117 0 1
140 3 119 0 0
142 3 119 0 0
144 1 121 0 0
146 1 120 0 0
148 0 120 0 1
150 1 121 0 0
152 2 121 0 0
154 2 121 0 0
156 2 121 0 0
158 2 120 0 1
160 2 120 0 0
162 2 120 0 0
164 2 119 0 0
166 2 119 0 0
168 2 118 0 0
170 4 117 0 0
172 3 117 0 1
174 3 118 0 0
176 3 118 0 0
178 3 117 0 0
180 3 117 0 0
182 2 118 0 0
184 2 117 0 1
186 2 117 0 0
188 2 116 0 1
190 2 115 0 1
192 2 116 0 0
194 2 116 0 0
196 2 116 0 0
198 2 115 0 1
200 1 116 0 0
202 2 116 0 0
204 2 116 0 0
206 2 116 0 0
208 2 116 0 0
210 1 117 0 0
