0 46 0 0 0
2 45 0 0 0
4.00004 45 0 0 0
6 46 0 0 0
8 47 0 0 0
10 48 0 1 0
12 48 0 0 0
14 48 0 1 0
16 48 1 0 0
18 47 1 1 0
20 47 1 0 0
22 47 1 0 0
24 47 1 0 0
26 47 1 0 0
28 47 1 0 0
30 46 1 1 0
32 47 2 0 0
34 47 3 0 0
36 47 3 0 0
38 45 4 0 0
40 44 4 0 1
42 44 5 0 0
44 44 5 0 0
46 43 5 0 0
48 41 5 1 0
50 41 5 0 0
52 41 4 0 0
54 41 4 0 0
56 41 4 0 1
58 41 5 0 0
60 40 6 1 0
62 41 7 0 0
64 41 7 0 0
66 41 7 0 0
68 41 7 0 0
70 39 7 1 0
72 40 8 0 0
74 40 8 0 0
76 40 10 0 0
78 40 10 0 0
80 38 10 0 0
82 37 10 0 0
84 34 10 1 0
86 35 10 0 0
88 35 9 0 1
90 35 10 0 0
92 35 10 0 0
94 34 10 0 0
96 34 10 0 0
98 34 10 0 0
100 34 10 0 0
102 33 12 0 0
104 32 12 1 0
106 32 12 0 0
108 32 11 0 1
110 32 11 0 0
112 32 12 0 0
114 32 12 0 0
116 32 12 0 0
118 31 13 1 0
120 32 13 0 0
122 31 13 0 0
124 30 13 0 0
126 30 13 0 0
128 30 13 0 0
130 30 16 0 0
132 30 16 0 0
134 30 16 0 0
136 30 16 0 0
138 30 17 0 0
140 30 17 0 0
142 30 18 0 0
144 29 19 0 0
146 29 19 0 0
148 29 19 0 2
150 29 21 0 0
152 29 21 0 0
154 29 21 0 0
156 29 21 0 0
158 29 21 0 1
160 29 21 0 0
162 28 21 0 0
164 28 21 0 0
166 28 21 0 0
168 28 21 0 1
170 28 21 0 0
172 28 21 0 0
174 28 21 0 0
176 28 21 0 0
178 27 21 1 0
180 27 21 1 0
182 28 21 0 0
184 28 21 0 0
186 28 21 0 1
188 28 21 0 0
190 27 22 0 0
192 26 22 1 0
194 27 23 0 0
196 27 22 0 0
198 27 22 0 0
200 27 22 0 0
202 27 22 0 0
204 27 22 0 0
206 27 22 0 0
208 27 21 0 1
210 27 22 0 0
