0 42 0 0 0
2 41 0 0 0
4.00004 41 0 0 0
6 44 0 0 0
8 44 0 0 0
10 43 0 0 0
12 44 0 1 0
14 45 0 0 0
16 44 0 1 0
18 45 0 0 0
20 45 1 0 0
22 45 1 1 0
24 44 1 0 0
26 45 1 0 0
28 44 1 0 0
30 45 2 0 0
32 46 2 0 0
34 46 2 0 0
36 46 3 0 0
38 45 3 1 0
40 46 3 0 0
42 46 3 0 0
44 46 3 0 0
46 46 3 0 0
48 46 3 0 0
50 47 3 0 0
52 46 3 0 0
54 46 3 0 0
56 46 3 0 0
58 46 3 0 0
60 45 3 1 0
62 45 3 0 0
64 45 4 0 0
66 45 5 0 0
68 44 5 0 0
70 45 5 0 0
72 44 5 1 0
74 45 5 0 0
76 45 6 0 0
78 45 6 0 0
80 45 6 0 0
82 45 7 0 0
84 45 7 0 0
86 45 7 0 0
88 44 7 0 0
90 44 8 0 0
92 44 8 0 0
94 43 8 0 0
96 43 9 0 0
98 43 9 0 0
100 43 9 0 0
102 43 9 0 1
104 42 11 1 0
106 43 11 0 0
108 43 12 0 0
110 43 12 0 0
112 43 13 0 0
114 41 13 1 0
116 42 12 0 0
118 41 12 0 0
120 40 12 0 0
122 39 12 1 0
124 39 12 0 0
126 39 12 0 0
128 38 13 0 0
130 37 13 0 0
132 37 13 0 0
134 37 12 0 1
136 36 13 0 0
138 37 12 0 1
140 37 12 0 0
142 37 12 0 0
144 37 12 0 0
146 37 13 0 0
148 37 13 0 0
150 36 13 0 0
152 35 13 0 0
154 34 13 0 0
156 34 13 0 1
158 34 14 0 0
160 33 14 0 1
162 31 15 2 0
164 33 15 0 0
166 33 15 0 0
168 33 15 0 0
170 33 14 0 1
172 33 16 0 0
174 33 16 0 0
176 33 16 0 0
178 32 16 0 0
180 32 15 0 0
182 32 15 0 0
184 32 15 0 0
186 31 16 1 0
188 32 16 0 0
190 32 15 0 0
192 32 15 0 0
194 31 15 0 0
196 30 15 0 0
198 30 14 0 0
200 29 15 0 0
202 29 15 0 0
204 29 15 0 0
206 29 14 0 0
208 29 14 0 0
210 29 15 0 0
