0 108 0 0 0
2 109 0 0 0
4.00004 108 0 1 0
6 106 0 0 0
8 106 0 0 0
10 106 0 1 0
12 93 12 0 0
14 82 23 0 0
16 71 34 0 0
18 62 42 0 1
20 57 47 0 0
22 52 51 0 0
24 44 60 1 0
26 39 65 0 0
28 38 66 1 0
30 34 67 1 1
32 33 69 0 0
34 31 71 0 0
36 30 71 0 0
38 27 74 0 0
40 25 76 0 0
42 21 80 0 0
44 21 80 0 0
46 17 84 0 0
48 15 86 0 0
50 13 87 0 0
52 10 90 1 0
54 10 91 0 0
56 9 91 0 1
58 8 93 0 0
60 7 94 0 0
62 7 95 0 0
64 6 94 0 1
66 5 95 0 0
68 6 95 0 0
70 5 95 0 0
72 5 95 0 0
74 5 95 0 0
76 5 94 0 0
78 5 94 0 0
80 5 94 0 0
82 3 95 0 0
84 3 95 0 0
86 3 95 0 0
88 3 96 0 0
90 2 96 0 0
92 2 96 0 0
94 3 96 0 0
96 2 96 0 0
98 2 96 0 0
100 1 97 0 0
102 1 96 0 0
104 1 95 0 0
106 1 95 0 0
108 0 95 0 0
110 0 95 0 0
112 0 94 0 0
114 1 94 0 0
116 1 95 0 0
118 1 95 1 0
120 3 95 0 0
122 3 95 0 0
124 4 95 0 0
126 3 96 0 0
128 4 95 0 0
130 4 96 0 0
132 4 96 0 0
134 4 96 0 0
136 3 97 1 0
138 2 98 0 0
140 2 99 0 0
142 1 100 0 0
144 1 100 0 0
146 0 100 0 0
148 0 100 0 0
150 1 100 0 0
152 2 100 0 0
154 3 100 0 0
156 3 98 0 1
158 2 100 0 0
160 3 99 0 0
162 3 99 0 0
164 3 99 0 0
166 3 99 0 0
168 2 100 0 0
170 1 100 0 1
172 1 100 0 0
174 0 101 0 0
176 0 101 0 0
178 1 101 0 0
180 1 102 0 0
182 1 102 0 0
184 1 102 0 0
186 1 101 0 0
188 1 101 0 0
190 1 102 0 0
192 1 102 0 0
194 2 102 0 0
196 3 102 0 0
198 3 102 0 1
200 3 102 1 0
202 3 103 0 0
204 3 103 0 0
206 3 104 0 0
208 3 103 0 1
210 3 103 0 0
