0 47 0 0 0
2 48 0 0 0
4.00004 49 0 0 0
6 49 0 0 0
8 49 0 0 0
10 49 0 0 0
12 48 0 0 0
14 48 0 0 0
16 48 0 0 0
18 48 1 0 0
20 48 1 0 0
22 48 1 0 0
24 47 1 0 0
26 47 1 0 0
28 47 1 0 0
30 47 2 0 0
32 47 2 1 0
34 48 2 0 0
36 48 2 0 0
38 47 2 1 0
40 47 2 0 0
42 47 2 1 0
44 48 2 0 0
46 48 2 0 0
48 47 2 1 0
50 48 2 0 0
52 48 2 0 0
54 48 2 0 0
56 48 2 0 0
58 48 2 0 0
60 48 2 0 0
62 48 3 0 0
64 48 3 0 0
66 48 3 0 0
68 48 3 0 0
70 48 4 0 0
72 48 4 0 0
74 48 4 0 0
76 48 4 0 0
78 47 4 1 0
80 48 4 0 0
82 48 4 0 0
84 48 4 0 0
86 48 4 0 0
88 48 4 0 0
90 48 4 0 0
92 48 4 0 1
94 48 5 0 0
96 48 5 0 0
98 48 5 0 0
100 47 5 1 0
102 48 6 0 0
104 48 6 0 0
106 47 6 0 0
108 47 6 0 0
110 47 6 0 0
112 47 6 0 0
114 47 6 0 0
116 47 7 0 0
118 47 7 0 0
120 47 7 0 0
122 47 7 0 0
124 47 7 0 0
126 46 7 1 0
128 47 7 0 0
130 47 8 0 0
132 47 8 0 0
134 47 8 0 0
136 46 8 1 0
138 47 8 0 0
140 47 8 0 0
142 47 8 0 0
144 47 8 0 0
146 47 8 0 0
148 46 9 0 0
150 46 9 0 0
152 46 9 0 0
154 46 9 0 0
156 46 9 0 0
158 46 9 0 0
160 45 9 0 0
162 45 9 0 0
164 45 9 0 0
166 44 9 0 0
168 42 9 0 0
170 42 9 0 0
172 42 9 0 0
174 41 9 0 0
176 41 10 0 0
178 40 10 0 0
180 40 11 0 0
182 40 11 0 0
184 40 11 0 0
186 40 11 0 0
188 39 11 1 0
190 40 11 0 0
192 40 11 0 0
194 40 11 0 0
196 40 11 0 0
198 40 11 0 0
200 40 11 0 0
202 40 11 0 0
204 40 11 0 0
206 39 11 1 0
208 39 11 0 0
210 39 11 0 0
