0 4090 0 910 0
2.0001 2703 1355 785 157
4 1885 2157 580 378
6.0001 1337 2700 389 574
8.0001 908 3150 281 661
10.0001 648 3417 189 746
12.0001 465 3612 124 799
14.0001 312 3720 107 861
16.0001 224 3811 72 893
18.0001 162 3927 43 868
20.0001 114 3964 31 891
22.0001 79 4002 25 894
24.0001 55 4028 19 898
26.0001 36 4015 12 937
28.0001 21 4055 7 917
30.0001 13 4048 6 933
32.0001 13 4048 3 936
34 13 4017 2 968
36 10 3981 1 1008
38 4 4056 0 939
40 3 4037 1 959
42 3 4032 1 964
44 3 4021 1 975
46 1 4003 2 994
48 1 4046 2 951
50 1 4058 1 940
52 1 4044 1 954
54 2 4060 0 938
56 0 4088 0 912
58 0 4052 0 948
60 0 4033 0 967
62 0 4000 0 1000
64 0 4049 0 951
66 0 4068 0 930
68 0 3987 0 1013
70 0 4009 0 991
72 0 4051 0 949
74 0 4025 0 975
76 0 4077 0 923
78 0 4053 0 947
80 0 4068 0 932
82 0 4041 0 959
84 0 4030 0 970
86 0 4046 0 954
88 0 4019 0 981
90 0 4083 0 917
92 0 4029 0 971
94 0 4062 0 938
96 0 3998 0 1002
98 0 4050 0 950
100 0 4030 0 970
