0 4050 0 950 0
2.0001 2701 1310 838 151
4 1945 2114 601 340
6.0001 1373 2689 447 491
8.0001 980 3060 314 646
10.0001 693 3348 206 753
12.0001 516 3528 157 799
14.0001 354 3717 118 811
16.0001 250 3764 75 911
18.0001 184 3875 40 901
20.0001 126 3901 34 939
22.0001 89 3878 29 1004
24.0001 70 3948 16 966
26.0001 44 3976 8 972
28.0001 29 4009 5 957
30.0001 23 4040 5 932
32.0001 14 4068 5 913
34 11 4003 3 983
36 8 4007 2 983
38 5 4029 2 964
40 4 3992 2 1002
42 4 4046 1 949
44 3 4060 2 935
46 1 4015 0 984
48 1 4041 0 957
50 0 4071 0 929
52 0 3992 0 1008
54 0 4036 0 964
56 0 4015 0 985
58 0 4039 0 961
60 0 4050 0 950
62 0 4043 0 957
64 0 4038 0 962
66 0 4059 0 941
68 0 4105 0 895
70 0 4036 0 964
72 0 4016 0 984
74 0 4057 0 943
76 0 4036 0 964
78 0 3997 0 1003
80 0 4058 0 942
82 0 4046 0 954
84 0 4061 0 939
86 0 4046 0 954
88 0 4045 0 955
90 0 4046 0 954
92 0 4017 0 983
94 0 4030 0 970
96 0 3965 0 1035
98 0 4044 0 956
100 0 4046 0 954
