0 4027 0 973 0
2.0001 2668 1364 807 161
4 1882 2184 568 366
6.0001 1346 2696 410 548
8.0001 935 3100 293 672
10.0001 679 3396 191 734
12.0001 473 3567 151 809
14.0001 337 3729 105 829
16.0001 260 3754 67 919
18.0001 175 3831 56 937
20.0001 132 3872 35 961
22.0001 84 3970 25 921
24.0001 61 3976 9 954
26.0001 38 3969 14 979
28.0001 32 3958 11 999
30.0001 13 4029 9 949
32.0001 17 4020 2 961
34 9 4050 3 938
36 5 3979 3 1013
38 5 4037 0 958
40 4 4058 1 937
42 3 4084 0 913
44 2 4061 1 936
46 1 4035 1 963
48 1 4046 0 953
50 1 4064 0 935
52 1 4066 0 933
54 1 4017 0 982
56 0 4001 0 999
58 0 3987 0 1013
60 0 4040 0 960
62 0 4058 0 942
64 0 4066 0 934
66 0 4035 0 965
68 0 4019 0 981
70 0 4045 0 955
72 0 4059 0 941
74 0 4005 0 995
76 0 4066 0 934
78 0 4092 0 908
80 0 4061 0 939
82 0 4039 0 961
84 0 4055 0 945
86 0 4083 0 917
88 0 4041 0 959
90 0 4006 0 994
92 0 4030 0 970
94 0 4042 0 958
96 0 4046 0 954
98 0 4029 0 971
100 0 4040 0 960
