0 4052 0 948 0
2.0001 2676 1387 771 165
4 1843 2217 567 373
6.0001 1286 2722 433 559
8.0001 905 3114 303 678
10.0001 648 3395 207 750
12.0001 443 3586 152 819
14.0001 312 3740 101 847
16.0001 211 3827 68 894
18.0001 143 3930 42 885
20.0001 92 3926 36 946
22.0001 79 3976 20 925
24.0001 52 3959 18 970
26.0001 35 4015 12 938
28.0001 26 4017 6 951
30.0001 18 4056 3 923
32.0001 8 4003 8 981
34 8 4036 4 952
36 7 4040 3 950
38 2 4043 3 952
40 1 4065 2 932
42 2 4029 0 969
44 1 4052 1 946
46 1 4037 0 962
48 0 3984 1 1015
50 1 4041 0 958
52 0 4122 0 878
54 0 4037 0 963
56 0 4031 0 969
58 0 4017 0 983
60 0 4036 0 964
62 0 4048 0 952
64 0 4053 0 947
66 0 4080 0 920
68 0 4081 0 919
70 0 3989 0 1011
72 0 4043 0 957
74 0 4031 0 969
76 0 4023 0 977
78 0 3997 0 1003
80 0 4028 0 972
82 0 4018 0 982
84 0 4039 0 961
86 0 4046 0 954
88 0 4035 0 965
90 0 4073 0 927
92 0 4021 0 979
94 0 4003 0 997
96 0 4024 0 976
98 0 4044 0 956
100 0 4031 0 969
