0 4037 0 963 0
2.0001 2640 1382 815 163
4 1917 2136 558 389
6.0001 1384 2692 408 516
8.0001 923 3136 288 653
10.0001 673 3349 202 776
12.0001 462 3562 157 819
14.0001 350 3692 98 860
16.0001 264 3775 63 898
18.0001 178 3849 51 921
20.0001 120 3893 41 946
22.0001 85 3962 35 918
24.0001 70 3960 16 954
26.0001 39 3966 13 982
28.0001 24 4023 12 941
30.0001 21 4025 4 949
32.0001 13 3971 4 1012
34 11 4026 3 960
36 11 4029 2 958
38 4 4035 4 957
40 4 4024 4 968
42 4 4061 0 935
44 1 4056 2 941
46 2 3975 0 1023
48 0 4017 1 982
50 0 4042 0 958
52 0 4060 0 940
54 0 4058 0 942
56 0 4023 0 977
58 0 4050 0 950
60 0 4031 0 969
62 0 4073 0 927
64 0 4084 0 916
66 0 4073 0 927
68 0 3957 0 1043
70 0 4037 0 962
72 0 4007 0 993
74 0 4043 0 957
76 0 4011 0 989
78 0 4096 0 904
80 0 4051 0 949
82 0 3974 0 1026
84 0 4033 0 967
86 0 4089 0 911
88 0 4028 0 971
90 0 4019 0 981
92 0 4054 0 946
94 0 4045 0 955
96 0 4056 0 944
98 0 4055 0 945
100 0 4049 0 950
