0 4045 0 955 0
2.0001 2746 1363 732 159
4 1970 2103 539 388
6.0001 1378 2680 354 588
8.0001 963 3106 283 648
10.0001 673 3424 201 702
12.0001 492 3593 156 759
14.0001 348 3728 101 823
16.0001 239 3845 74 842
18.0001 163 3864 52 921
20.0001 120 3888 37 955
22.0001 84 3973 26 917
24.0001 57 3940 23 980
26.0001 48 4038 13 901
28.0001 27 3995 12 966
30.0001 21 4012 6 961
32.0001 18 4029 3 950
34 7 4072 3 918
36 5 4080 1 914
38 3 4047 1 949
40 2 4051 1 946
42 2 4047 0 951
44 0 4008 0 992
46 0 4054 0 946
48 0 4087 0 913
50 0 4007 0 993
52 0 4071 0 929
54 0 4019 0 981
56 0 4066 0 934
58 0 4059 0 941
60 0 4070 0 930
62 0 4085 0 915
64 0 4056 0 944
66 0 4032 0 968
68 0 4029 0 971
70 0 4057 0 943
72 0 4039 0 961
74 0 4040 0 960
76 0 4042 0 958
78 0 4019 0 981
80 0 4027 0 973
82 0 4035 0 965
84 0 4061 0 939
86 0 4063 0 935
88 0 4070 0 930
90 0 4060 0 940
92 0 4034 0 966
94 0 4088 0 912
96 0 4076 0 924
98 0 4045 0 955
100 0 4021 0 979
