0 4075 0 925 0
2.0001 2656 1386 799 159
4 1903 2117 578 402
6.0001 1345 2674 421 560
8.0001 967 3086 297 650
10.0001 704 3355 225 716
12.0001 517 3577 146 760
14.0001 382 3717 101 800
16.0001 267 3809 68 856
18.0001 180 3890 59 871
20.0001 127 3884 41 948
22.0001 73 3946 41 940
24.0001 58 3983 27 932
26.0001 56 3984 10 950
28.0001 40 4006 11 943
30.0001 29 4000 9 962
32.0001 19 4035 6 940
34 10 4033 4 953
36 7 4035 3 955
38 8 3995 1 996
40 5 4001 1 993
42 4 3996 1 999
44 1 4016 1 982
46 1 4074 0 925
48 0 4093 1 906
50 1 4053 0 946
52 0 4073 0 927
54 0 4035 0 965
56 0 4061 0 939
58 0 4074 0 926
60 0 4090 0 909
62 0 4020 0 980
64 0 4036 0 964
66 0 4037 0 963
68 0 4062 0 938
70 0 4053 0 947
72 0 4062 0 937
74 0 4077 0 923
76 0 4045 0 955
78 0 4052 0 948
80 0 4081 0 919
82 0 4035 0 965
84 0 4049 0 951
86 0 4042 0 958
88 0 4036 0 964
90 0 4065 0 935
92 0 4075 0 924
94 0 4019 0 981
96 0 4014 0 986
98 0 4039 0 961
100 0 4012 0 988
