0 4043 0 957 0
2.0001 2709 1369 764 158
4 1899 2171 573 357
6.0001 1341 2682 419 558
8.0001 993 3046 287 674
10.0001 694 3333 226 747
12.0001 524 3557 145 774
14.0001 355 3684 126 835
16.0001 254 3783 85 878
18.0001 175 3862 71 892
20.0001 131 3982 44 843
22.0001 93 3937 28 942
24.0001 59 3971 23 947
26.0001 50 3967 8 975
28.0001 33 3994 6 967
30.0001 23 3987 6 984
32.0001 16 4035 5 944
34 14 4026 3 957
36 7 4074 2 917
38 5 4045 1 949
40 2 4021 1 976
42 1 4081 1 917
44 0 4029 1 970
46 0 4115 0 885
48 0 4023 0 977
50 0 4023 0 977
52 0 3997 0 1003
54 0 4059 0 941
56 0 4060 0 940
58 0 4039 0 961
60 0 4044 0 955
62 0 4077 0 923
64 0 4046 0 954
66 0 4036 0 964
68 0 3988 0 1012
70 0 4061 0 939
72 0 4089 0 911
74 0 4066 0 934
76 0 4043 0 957
78 0 4074 0 926
80 0 4054 0 946
82 0 4034 0 966
84 0 4091 0 909
86 0 4031 0 969
88 0 4053 0 947
90 0 4032 0 968
92 0 3994 0 1006
94 0 4007 0 993
96 0 4033 0 967
98 0 4017 0 983
100 0 4017 0 983
