0 3994 0 1006 0
2.0001 2571 1534 730 165
4 1577 2456 564 403
6.0001 1038 2985 358 619
8.0001 662 3377 265 696
10.0001 467 3553 145 835
12.0001 285 3737 91 887
14.0001 186 3816 62 936
16.0001 130 3874 47 949
18.0001 83 3966 34 917
20.0001 61 3971 19 949
22.0001 34 3990 22 954
24.0001 28 4036 13 923
26.0001 22 4049 6 923
28.0001 9 4002 7 982
30.0001 8 4064 4 924
32.0001 5 4027 4 964
34 7 3986 2 1005
36 3 4026 3 968
38 4 4058 0 938
40 1 3985 1 1013
42 2 4017 0 981
44 0 3996 0 1003
46 0 4019 0 981
48 0 3983 0 1017
50 0 4049 0 951
52 0 4017 0 983
54 0 4014 0 986
56 0 4005 0 995
58 0 4030 0 970
60 0 4054 0 946
62 0 4002 0 998
64 0 4023 0 977
66 0 4072 0 928
68 0 4064 0 936
70 0 4111 0 889
72 0 4060 0 940
74 0 4074 0 926
76 0 4045 0 955
78 0 4045 0 955
80 0 4005 0 995
82 0 4024 0 976
84 0 4006 0 994
86 0 4026 0 974
88 0 4000 0 1000
90 0 4020 0 980
92 0 3986 0 1014
94 0 4051 0 949
96 0 4068 0 932
98 0 4035 0 965
100 0 4035 0 965
