0 4085 0 915 0
2.0001 2421 1656 752 171
4 1604 2479 487 430
6.0001 1051 2973 354 622
8.0001 709 3318 244 729
10.0001 455 3580 157 808
12.0001 290 3739 91 880
14.0001 187 3891 61 861
16.0001 117 3907 41 935
18.0001 71 3949 31 949
20.0001 59 3987 11 943
22.0001 36 4001 14 949
24.0001 25 4015 10 950
26.0001 20 4006 6 968
28.0001 12 4061 6 921
30.0001 9 4086 3 902
32.0001 5 4023 3 969
34 6 4036 1 957
36 6 4055 0 939
38 2 4015 0 983
40 0 4062 0 938
42 0 4054 0 946
44 0 4073 0 927
46 0 4032 0 968
48 0 4058 0 942
50 0 4016 0 984
52 0 4022 0 978
54 0 4067 0 933
56 0 4009 0 991
58 0 4045 0 955
60 0 4051 0 949
62 0 4098 0 902
64 0 4050 0 950
66 0 4066 0 934
68 0 3984 0 1015
70 0 4055 0 945
72 0 4029 0 971
74 0 4044 0 956
76 0 4000 0 1000
78 0 4053 0 947
80 0 4080 0 920
82 0 4059 0 941
84 0 4068 0 932
86 0 4057 0 943
88 0 4073 0 927
90 0 4058 0 942
92 0 4060 0 940
94 0 4055 0 945
96 0 4051 0 949
98 0 4049 0 950
100 0 4096 0 904
