0 4052 0 948 0
2.0001 2512 1525 760 203
4 1580 2427 549 444
6.0001 1076 2969 319 636
8.0001 722 3324 219 735
10.0001 445 3588 158 809
12.0001 283 3713 107 897
14.0001 196 3818 62 924
16.0001 128 3944 41 887
18.0001 101 3941 16 942
20.0001 62 3971 18 949
22.0001 40 3972 12 976
24.0001 31 3961 4 1003
26.0001 16 4004 4 976
28.0001 9 4020 3 968
30.0001 7 4009 3 981
32.0001 3 4013 3 980
34 5 4003 0 992
36 2 4066 1 931
38 2 3997 0 1001
40 2 4027 0 971
42 1 4037 0 962
44 1 4076 0 923
46 1 4055 0 944
48 0 4079 0 921
50 0 4063 0 937
52 0 4103 0 897
54 0 4021 0 979
56 0 4049 0 951
58 0 4064 0 936
60 0 4124 0 876
62 0 4013 0 987
64 0 4066 0 934
66 0 4030 0 970
68 0 4042 0 958
70 0 4033 0 967
72 0 4059 0 941
74 0 4046 0 954
76 0 4017 0 983
78 0 4037 0 963
80 0 4001 0 999
82 0 4018 0 982
84 0 3968 0 1032
86 0 4019 0 981
88 0 4003 0 997
90 0 4075 0 925
92 0 4075 0 925
94 0 4074 0 926
96 0 4049 0 951
98 0 4090 0 910
100 0 4020 0 980
