0 4046 0 954 0
2.0001 2449 1584 762 205
4 1587 2511 506 396
6.0001 1070 3011 338 581
8.0001 665 3372 225 738
10.0001 419 3596 173 812
12.0001 309 3751 91 849
14.0001 198 3818 76 908
16.0001 127 3876 49 948
18.0001 98 3954 30 918
20.0001 65 3988 18 929
22.0001 45 4045 10 900
24.0001 24 4043 6 927
26.0001 9 4058 8 925
28.0001 10 4107 2 881
30.0001 7 4065 2 925
32.0001 3 4032 0 965
34 1 4010 0 989
36 1 4025 0 974
38 0 4036 1 963
40 0 4091 1 908
42 0 4031 1 968
44 1 4099 0 900
46 1 4039 0 960
48 1 3975 0 1024
50 1 4006 0 993
52 0 4038 0 962
54 0 4047 0 953
56 0 4035 0 965
58 0 4073 0 927
60 0 4082 0 918
62 0 4100 0 900
64 0 4059 0 941
66 0 4031 0 969
68 0 4073 0 927
70 0 4059 0 941
72 0 4035 0 965
74 0 4022 0 978
76 0 4041 0 959
78 0 4008 0 992
80 0 4043 0 957
82 0 4083 0 917
84 0 4060 0 940
86 0 4047 0 953
88 0 4047 0 953
90 0 4044 0 956
92 0 4056 0 944
94 0 4036 0 964
96 0 4060 0 940
98 0 4031 0 968
100 0 4054 0 946
