0 4066 0 934 0
2.0001 2433 1550 820 197
4 1602 2426 541 431
6.0001 1077 2992 346 585
8.0001 687 3365 222 726
10.0001 452 3626 145 777
12.0001 282 3726 117 875
14.0001 190 3853 69 888
16.0001 131 3936 40 893
18.0001 84 3973 30 913
20.0001 57 4012 19 912
22.0001 33 3994 20 953
24.0001 27 4035 6 932
26.0001 16 3993 6 984
28.0001 9 4021 5 965
30.0001 6 4035 2 957
32.0001 6 4040 0 954
34 3 4067 2 928
36 2 4022 0 976
38 1 4068 0 931
40 0 4022 0 978
42 0 4045 0 955
44 0 4045 0 955
46 0 4041 0 959
48 0 4054 0 946
50 0 4024 0 976
52 0 4035 0 965
54 0 4004 0 996
56 0 4081 0 919
58 0 4045 0 955
60 0 4089 0 911
62 0 4059 0 941
64 0 4059 0 941
66 0 4062 0 938
68 0 4067 0 933
70 0 4062 0 938
72 0 4029 0 971
74 0 4059 0 941
76 0 4057 0 943
78 0 4038 0 962
80 0 3983 0 1017
82 0 4026 0 974
84 0 3982 0 1018
86 0 4038 0 962
88 0 4058 0 942
90 0 4046 0 954
92 0 4065 0 935
94 0 4024 0 976
96 0 4010 0 990
98 0 4011 0 989
100 0 4059 0 941
