0 4073 0 927 0
2.0001 2519 1586 709 186
4 1660 2374 531 435
6.0001 1113 2908 346 633
8.0001 712 3316 223 749
10.0001 454 3590 157 799
12.0001 335 3689 98 878
14.0001 230 3838 57 875
16.0001 137 3919 50 894
18.0001 89 3931 38 942
20.0001 56 3969 21 954
22.0001 49 3981 13 957
24.0001 33 4030 12 925
26.0001 30 4009 6 955
28.0001 17 3981 6 996
30.0001 11 4038 4 947
32.0001 7 4071 2 920
34 3 4068 1 928
36 2 4049 1 948
38 3 4032 0 965
40 1 4042 1 956
42 1 4074 1 924
44 0 4054 0 946
46 0 4024 0 976
48 0 4035 0 964
50 0 4024 0 976
52 0 4058 0 942
54 0 4072 0 928
56 0 4033 0 967
58 0 3970 0 1030
60 0 4070 0 930
62 0 4073 0 927
64 0 4067 0 932
66 0 4079 0 921
68 0 4091 0 909
70 0 4043 0 957
72 0 4086 0 914
74 0 4047 0 953
76 0 4050 0 950
78 0 4056 0 944
80 0 4011 0 989
82 0 4086 0 914
84 0 4056 0 944
86 0 4005 0 995
88 0 4061 0 939
90 0 4009 0 991
92 0 4024 0 976
94 0 4029 0 971
96 0 4065 0 935
98 0 4010 0 990
100 0 4052 0 948
