0 4051 0 949 0
2.0001 2504 1576 731 189
4 1627 2389 545 439
6.0001 1097 2939 349 615
8.0001 754 3291 217 738
10.0001 498 3554 151 797
12.0001 350 3659 103 888
14.0001 206 3828 79 887
16.0001 142 3877 57 924
18.0001 108 3890 25 977
20.0001 60 3980 19 941
22.0001 40 3992 12 956
24.0001 31 3995 5 969
26.0001 18 4040 5 937
28.0001 14 3991 4 991
30.0001 8 4011 3 978
32.0001 6 4033 2 959
34 4 4075 0 921
36 1 4026 1 972
38 2 4052 0 946
40 2 4024 0 974
42 1 4081 0 918
44 1 4042 0 957
46 1 4023 0 976
48 1 4101 0 898
50 0 4050 0 950
52 0 4061 0 939
54 0 4059 0 941
56 0 4064 0 936
58 0 4004 0 996
60 0 4060 0 940
62 0 4018 0 982
64 0 4048 0 952
66 0 4053 0 947
68 0 4043 0 957
70 0 3982 0 1018
72 0 4066 0 934
74 0 4028 0 972
76 0 4062 0 938
78 0 4127 0 873
80 0 3988 0 1012
82 0 4025 0 975
84 0 4000 0 1000
86 0 4045 0 955
88 0 4018 0 982
90 0 4045 0 955
92 0 4051 0 949
94 0 4028 0 972
96 0 4043 0 957
98 0 4070 0 930
100 0 4046 0 954
