0 4076 0 924 0
2.0001 2445 1604 773 178
4 1573 2469 518 440
6.0001 1020 3034 350 596
8.0001 649 3388 234 729
10.0001 431 3612 140 817
12.0001 253 3737 113 897
14.0001 194 3814 67 925
16.0001 125 3915 48 912
18.0001 90 3938 31 941
20.0001 65 3984 19 932
22.0001 38 3984 15 963
24.0001 26 4037 9 928
26.0001 20 4015 6 959
28.0001 11 4044 3 942
30.0001 6 3995 2 997
32.0001 3 4014 1 982
34 0 4035 2 963
36 1 4023 1 975
38 0 4031 0 969
40 0 3994 0 1006
42 0 4023 0 977
44 0 4043 0 957
46 0 3940 0 1060
48 0 4029 0 971
50 0 4060 0 940
52 0 4035 0 965
54 0 4059 0 941
56 0 4072 0 928
58 0 4023 0 977
60 0 4051 0 949
62 0 4041 0 959
64 0 4012 0 988
66 0 3988 0 1012
68 0 4078 0 922
70 0 4038 0 962
72 0 4028 0 972
74 0 4051 0 949
76 0 4076 0 923
78 0 3982 0 1018
80 0 4042 0 958
82 0 4026 0 974
84 0 4016 0 984
86 0 4019 0 981
88 0 4053 0 947
90 0 4077 0 923
92 0 4063 0 937
94 0 4031 0 969
96 0 4067 0 933
98 0 4051 0 949
100 0 4024 0 976
