0 1183 0 0 0 0 0
2 1143 36 0 1 0 0
4.00004 1142 38 0 1 0 0
6 1142 35 0 3 0 0
8 1137 38 0 5 0 0
10 1133 45 0 1 0 0
12 1138 31 0 0 0 0
14 1127 35 0 3 0 0
16 1117 40 0 3 0 0
18 1120 40 0 1 0 0
20 1122 41 0 3 0 0
22 1119 39 0 3 0 0
24 1117 40 0 2 0 0
26 1113 43 0 5 0 0
28 1119 44 0 5 0 0
30 1123 38 0 3 0 0
32 1126 37 0 2 0 0
34 1127 36 0 2 0 0
36 1123 34 0 2 0 0
38 1120 34 0 3 0 0
40 1118 29 0 8 0 0
42 1112 33 0 3 0 0
44 1113 38 0 6 0 0
46 1117 37 0 6 0 0
48 1112 47 0 1 0 0
50 1109 48 0 3 0 0
52 875 4 268 1 1 0
54 744 0 393 0 2 0
56 649 0 489 0 2 0
58 571 0 569 0 2 0
60 491 0 650 0 3 0
62 429 0 706 0 2 0
64 372 0 771 2 2 0
66 328 0 822 2 0 0
68 284 0 857 0 3 0
70 260 0 879 0 3 0
72 231 0 902 2 4 0
74 191 1 942 2 1 0
76 167 0 972 1 0 0
78 145 0 991 0 1 0
80 125 0 1007 1 1 0
82 113 0 1017 0 1 0
84 103 0 1015 0 4 0
86 99 0 1022 2 2 0
88 87 0 1030 0 2 0
90 74 0 1048 2 3 0
92 66 0 1051 2 3 0
94 63 0 1065 1 0 0
96 51 1 1082 0 2 0
98 46 0 1088 1 1 0
100 39 0 1086 1 3 0
102 35 0 1096 0 3 0
104 34 0 1096 0 2 0
106 34 0 1097 1 3 0
108 30 0 1095 0 3 0
110 27 0 1100 1 1 0
112 22 0 1098 0 6 0
114 17 0 1098 0 2 0
116 16 0 1101 0 1 0
118 15 0 1096 1 7 0
120 9 0 1101 0 1 0
122 11 0 1098 0 2 0
124 12 0 1103 1 5 0
126 10 0 1102 1 2 0
128 9 0 1097 1 4 0
130 9 0 1087 0 3 0
132 8 0 1090 1 2 0
134 6 0 1086 1 3 0
136 3 0 1087 0 1 0
138 6 0 1072 0 6 0
140 8 0 1078 0 2 0
142 5 0 1083 1 5 0
144 4 0 1088 0 3 0
146 6 0 1084 1 3 0
148 6 0 1083 1 4 0
150 6 0 1069 1 4 0
152 8 0 1069 0 3 0
154 8 0 1062 2 4 0
156 5 0 1068 1 2 0
158 5 0 1071 0 2 0
160 2 0 1066 0 4 0
162 4 0 1070 0 2 0
164 2 0 1074 0 3 0
166 2 0 1070 0 3 0
168 2 0 1070 2 3 0
170 2 0 1077 0 3 0
172 5 0 1079 1 2 0
174 3 0 1087 1 1 0
176 7 0 1087 0 2 0
178 0 0 1089 0 5 0
180 3 0 1085 0 2 0
182 3 0 1087 0 2 0
184 2 1 1083 0 3 0
186 5 0 1087 1 1 0
188 5 0 1086 0 3 0
190 5 0 1091 0 2 0
192 7 0 1098 1 2 0
194 4 0 1101 0 2 0
196 2 0 1106 1 2 0
198 2 0 1098 0 1 0
200 5 0 1103 0 5 0
