0 1071 0 0 0 0 0
2 1024 39 0 3 0 0
4.00004 1009 46 0 4 0 0
6 1014 45 0 3 0 0
8 1016 35 0 6 0 0
10 1003 50 0 3 0 0
12 1011 50 0 5 0 0
14 1008 44 0 1 0 0
16 1019 26 0 3 0 0
18 1010 40 0 4 0 0
20 1010 35 0 3 0 0
22 996 43 0 3 0 0
24 993 46 0 3 0 0
26 991 43 0 0 0 0
28 989 42 0 6 0 0
30 997 39 0 4 0 0
32 995 39 0 5 0 0
34 997 37 0 2 0 0
36 995 38 0 2 0 0
38 990 37 0 8 0 0
40 985 43 0 3 0 0
42 987 46 0 7 0 0
44 991 49 0 6 0 0
46 987 53 0 7 0 0
48 1003 39 0 3 0 0
50 994 40 0 5 0 0
52 759 0 272 0 0 0
54 646 0 386 1 2 0
56 556 1 475 2 3 0
58 470 0 562 0 1 0
60 425 0 620 0 2 0
62 362 0 683 0 3 0
64 322 0 718 1 1 0
66 295 0 749 1 0 0
68 273 0 771 2 4 0
70 243 0 806 0 2 0
72 207 0 844 0 2 0
74 188 0 864 2 2 0
76 172 0 890 0 0 0
78 150 0 906 1 3 0
80 124 0 935 0 3 0
82 109 0 951 1 3 0
84 95 0 966 0 5 0
86 86 0 972 2 1 0
88 81 0 979 1 2 0
90 66 0 987 1 4 0
92 55 0 995 1 6 0
94 55 0 1005 1 2 0
96 45 0 1015 0 2 0
98 39 0 1014 3 4 0
100 36 0 1016 0 1 0
102 27 0 1015 2 3 0
104 26 0 1005 0 5 0
106 29 0 1009 1 2 0
108 29 0 1013 1 1 0
110 28 0 1016 1 5 0
112 17 0 1021 0 2 0
114 18 0 1018 0 1 0
116 15 0 1022 3 1 0
118 18 0 1022 2 0 0
120 17 0 1023 0 5 0
122 14 0 1028 0 1 0
124 19 0 1028 1 2 0
126 16 0 1027 3 1 0
128 15 0 1031 0 0 0
130 12 0 1032 1 1 0
132 10 0 1028 1 1 0
134 8 0 1026 2 4 0
136 4 0 1026 1 3 0
138 5 1 1022 0 6 0
140 5 1 1025 1 1 0
142 7 0 1023 0 1 0
144 6 0 1019 0 1 0
146 4 0 1021 0 1 0
148 9 0 1014 1 1 0
150 5 1 1015 1 1 0
152 8 0 1016 1 3 0
154 10 0 1025 0 4 0
156 8 0 1033 1 1 0
158 5 0 1028 1 4 0
160 8 0 1021 1 2 0
162 6 0 1020 0 3 0
164 14 0 1020 1 2 0
166 14 0 1023 1 2 0
168 12 0 1019 1 0 0
170 4 0 1024 1 2 0
172 6 0 1022 1 2 0
174 8 0 1013 1 5 0
176 11 0 1020 1 0 0
178 9 0 1020 0 2 0
180 11 0 1019 0 1 0
182 10 0 1020 0 2 0
184 5 0 1015 2 1 0
186 6 0 1016 2 1 0
188 9 0 1004 0 5 0
190 6 0 1001 1 1 0
192 8 0 1006 0 4 0
194 9 0 1013 2 2 0
196 10 0 1015 1 4 0
198 6 0 1020 0 4 0
200 7 0 1020 1 4 0
