0 1087 0 0 0 0 0
2 1061 23 0 4 0 0
4.00004 1039 41 0 3 0 0
6 1052 35 0 3 0 0
8 1047 41 0 2 0 0
10 1068 27 0 2 0 0
12 1055 37 0 4 0 0
14 1058 38 0 4 0 0
16 1050 41 0 2 0 0
18 1059 33 0 4 0 0
20 1058 36 0 4 0 0
22 1055 41 0 2 0 0
24 1054 37 0 0 0 0
26 1048 35 0 3 0 0
28 1054 36 0 5 0 0
30 1045 38 0 3 0 0
32 1041 47 0 0 0 0
34 1051 33 0 2 0 0
36 1046 35 0 5 0 0
38 1062 31 0 3 0 0
40 1057 35 0 4 0 0
42 1039 46 0 8 0 0
44 1049 35 0 2 0 0
46 1042 38 0 3 0 0
48 1052 36 0 4 0 0
50 1062 27 0 0 0 0
52 853 1 237 0 2 0
54 740 1 346 3 2 0
56 649 0 445 2 1 0
58 576 0 514 1 0 0
60 534 2 559 3 3 0
62 473 1 620 1 1 0
64 418 0 674 2 1 0
66 372 0 718 0 0 0
68 336 0 760 2 3 0
70 303 0 793 1 0 0
72 272 0 819 1 4 0
74 259 0 844 2 1 0
76 223 0 884 2 1 0
78 195 0 910 0 1 0
80 171 0 927 1 2 0
82 156 0 942 0 0 0
84 144 0 954 3 4 0
86 131 0 974 0 0 0
88 118 0 986 0 2 0
90 105 0 999 0 3 0
92 94 0 1003 1 4 0
94 87 0 1019 1 2 0
96 86 0 1014 0 1 0
98 77 0 1024 0 1 0
100 65 0 1034 2 3 0
102 64 0 1043 1 0 0
104 55 0 1053 0 6 0
106 51 0 1059 1 1 0
108 49 0 1055 0 5 0
110 46 0 1063 0 3 0
112 45 0 1062 0 3 0
114 38 0 1063 0 5 0
116 33 0 1062 2 2 0
118 29 0 1066 0 1 0
120 23 0 1061 1 1 0
122 24 0 1061 1 3 0
124 26 0 1064 0 3 0
126 24 0 1063 3 3 0
128 26 0 1065 0 2 0
130 25 0 1074 0 2 0
132 19 0 1078 0 1 0
134 16 0 1078 0 3 0
136 18 0 1078 0 3 0
138 19 0 1077 0 3 0
140 18 0 1082 0 2 0
142 12 1 1084 2 1 0
144 12 0 1085 1 2 0
146 11 0 1093 1 1 0
148 10 0 1095 0 1 0
150 17 0 1090 2 1 0
152 10 0 1098 0 1 0
154 10 0 1097 0 3 0
156 10 0 1094 0 3 0
158 12 0 1088 0 3 0
160 10 0 1096 1 3 0
162 7 0 1100 2 0 0
164 6 0 1091 1 3 0
166 8 0 1086 2 1 0
168 6 0 1088 0 3 0
170 7 0 1090 1 1 0
172 9 0 1085 0 3 0
174 8 0 1091 2 2 0
176 10 0 1090 3 4 0
178 8 0 1089 0 2 0
180 8 0 1090 0 4 0
182 9 0 1092 0 4 0
184 6 0 1091 0 1 0
186 5 0 1089 0 3 0
188 7 0 1090 0 0 0
190 6 0 1087 0 3 0
192 5 0 1082 2 3 0
194 8 0 1086 1 0 0
196 11 0 1090 2 2 0
198 8 0 1087 1 2 0
200 7 0 1093 0 0 0
