0 998 0 0 0 0 0
2 988 0 0 4 0 0
4.00004 999 0 0 1 0 0
6 1008 0 0 2 0 0
8 1007 0 0 2 0 0
10 1000 0 0 5 0 0
12 1006 0 0 5 0 0
14 1007 0 0 1 0 0
16 1005 0 0 7 0 0
18 1009 0 0 4 0 0
20 1015 0 0 4 0 0
22 1022 0 0 2 0 0
24 1022 0 0 7 0 0
26 1030 0 0 2 0 0
28 1029 0 0 5 0 0
30 1033 0 0 3 0 0
32 1036 0 0 2 0 0
34 1038 0 0 3 0 0
36 1041 0 0 2 0 0
38 1044 0 0 7 0 0
40 1047 0 0 5 0 0
42 1056 0 0 4 0 0
44 1055 0 0 3 0 0
46 1055 0 0 1 0 0
48 1051 0 0 6 0 0
50 1061 0 0 4 0 0
52 1056 0 9 2 0 0
54 1040 0 16 1 1 0
56 1021 0 28 5 3 0
58 1014 0 41 2 1 0
60 1006 0 53 2 3 0
62 999 0 66 1 5 0
64 989 0 74 2 2 0
66 976 0 91 2 1 0
68 972 0 105 1 3 0
70 960 0 121 4 1 0
72 962 0 125 2 1 0
74 945 0 135 3 1 0
76 940 0 144 0 1 0
78 927 0 155 1 1 0
80 923 0 163 2 3 0
82 912 0 174 0 2 0
84 899 0 188 1 4 0
86 892 0 199 2 3 0
88 878 0 214 3 4 0
90 872 0 226 2 1 0
92 862 0 237 1 0 0
94 851 0 245 3 2 0
96 841 0 257 2 1 0
98 836 0 260 1 1 0
100 820 0 268 1 1 0
102 812 0 277 4 1 0
104 800 0 287 5 1 0
106 790 0 290 1 2 0
108 782 0 300 1 1 0
110 768 0 313 4 1 0
112 763 0 325 1 5 0
114 747 0 337 2 5 0
116 742 0 350 0 1 0
118 737 0 357 2 1 0
120 725 0 367 1 3 0
122 721 0 371 0 3 0
124 711 0 382 3 4 0
126 706 0 389 1 3 0
128 699 0 395 0 1 0
130 693 0 411 1 1 0
132 689 0 415 2 2 0
134 681 0 426 1 1 0
136 674 0 438 2 2 0
138 657 0 440 3 4 0
140 655 0 445 0 3 0
142 644 0 453 4 4 0
144 642 0 461 0 2 0
146 633 0 458 2 5 0
148 632 0 461 0 1 0
150 621 0 471 2 2 0
152 613 0 480 0 0 0
154 608 0 488 1 1 0
156 599 0 495 1 1 0
158 595 0 497 0 3 0
160 588 0 503 1 3 0
162 584 0 516 2 3 0
164 573 0 523 5 1 0
166 566 0 528 0 1 0
168 561 0 541 2 1 0
170 558 0 549 1 6 0
172 552 0 565 1 0 0
174 548 0 574 3 1 0
176 542 0 581 0 2 0
178 538 0 586 0 1 0
180 526 0 589 1 3 0
182 522 0 602 1 1 0
184 517 0 606 2 0 0
186 510 0 609 4 3 0
188 504 0 613 0 2 0
190 496 0 618 2 2 0
192 491 0 624 0 2 0
194 485 0 631 0 1 0
196 481 0 624 1 3 0
198 477 0 628 1 3 0
200 466 0 635 1 5 0
