0 1082 0 0 0 0 0
2 1080 0 0 3 0 0
4.00004 1086 0 0 2 0 0
6 1093 0 0 2 0 0
8 1098 0 0 3 0 0
10 1091 0 0 4 0 0
12 1090 0 0 0 0 0
14 1089 0 0 8 0 0
16 1098 0 0 1 0 0
18 1091 0 0 3 0 0
20 1086 0 0 3 0 0
22 1075 0 0 4 0 0
24 1078 0 0 1 0 0
26 1072 0 0 5 0 0
28 1065 0 0 2 0 0
30 1071 0 0 2 0 0
32 1072 0 0 2 0 0
34 1076 0 0 2 0 0
36 1071 0 0 2 0 0
38 1068 0 0 1 0 0
40 1062 0 0 4 0 0
42 1059 0 0 1 0 0
44 1066 0 0 3 0 0
46 1066 0 0 2 0 0
48 1066 0 0 6 0 0
50 1066 0 0 3 0 0
52 1068 0 1 2 0 0
54 1053 0 4 2 1 0
56 1043 0 15 3 1 0
58 1029 0 26 2 1 0
60 1017 0 37 2 4 0
62 1011 0 49 4 2 0
64 1003 0 60 3 1 0
66 991 0 65 1 2 0
68 978 0 75 4 2 0
70 969 0 87 4 2 0
72 956 0 102 2 1 0
74 955 0 118 1 2 0
76 944 0 123 1 4 0
78 937 0 131 2 0 0
80 924 0 140 3 2 0
82 914 0 145 4 2 0
84 905 0 160 6 5 0
86 894 0 172 2 0 0
88 884 0 177 2 2 0
90 866 0 178 2 4 0
92 862 0 186 3 2 0
94 851 0 192 2 1 0
96 840 0 202 2 0 0
98 833 0 212 1 5 0
100 825 0 214 0 1 0
102 815 0 222 2 4 0
104 809 0 228 2 5 0
106 802 0 235 3 0 0
108 793 0 230 1 4 0
110 785 0 247 1 3 0
112 782 0 256 0 0 0
114 776 0 258 1 0 0
116 768 0 268 2 3 0
118 760 0 278 2 3 0
120 753 0 290 2 4 0
122 744 0 293 4 1 0
124 735 0 306 3 4 0
126 737 0 309 0 2 0
128 731 0 315 1 1 0
130 724 0 318 2 3 0
132 718 0 333 2 3 0
134 711 0 340 1 3 0
136 698 0 344 1 1 0
138 698 0 353 1 1 0
140 689 0 358 3 3 0
142 681 0 370 0 2 0
144 674 0 376 2 1 0
146 667 0 375 0 4 0
148 659 0 388 2 1 0
150 654 0 394 1 2 0
152 648 0 406 2 0 0
154 636 0 412 2 1 0
156 629 0 423 1 1 0
158 626 0 426 1 2 0
160 616 0 424 0 4 0
162 611 0 435 1 3 0
164 606 0 439 1 2 0
166 598 0 444 1 3 0
168 595 0 456 0 5 0
170 586 0 463 2 2 0
172 577 0 466 1 2 0
174 572 0 475 2 0 0
176 567 0 481 1 3 0
178 567 0 487 0 3 0
180 561 0 497 0 5 0
182 556 0 504 2 2 0
184 548 0 507 2 2 0
186 546 0 516 1 3 0
188 542 0 520 1 4 0
190 539 0 526 2 2 0
192 535 0 531 0 3 0
194 531 0 534 1 4 0
196 525 0 543 2 1 0
198 518 0 547 1 1 0
200 516 0 560 1 2 0
