0 21 0 0 0 54
2 19 0 2 0 49
4.00004 17 0 5 0 46
6 19 0 4 0 52
8 19 0 4 0 51
10 17 0 6 0 52
12 17 0 6 0 54
14 14 0 10 0 54
16 20 0 4 0 49
18 13 0 11 0 52
20 16 0 8 1 52
22 15 0 9 2 45
24 18 2 6 0 44
26 20 2 4 0 48
28 17 1 7 0 50
30 15 1 9 0 58
32 16 1 8 0 48
34 19 1 5 1 52
36 17 2 7 0 44
38 19 1 5 1 55
40 19 1 5 1 52
42 19 2 3 0 52
44 17 2 5 1 60
46 14 2 8 1 43
48 13 3 9 1 51
50 14 0 8 4 54
52 16 3 5 1 51
54 17 4 5 1 54
56 20 3 2 3 64
58 14 5 8 1 60
60 17 4 5 2 44
62 15 4 6 2 45
64 14 5 7 1 47
66 12 6 9 1 52
68 16 5 5 3 54
70 18 4 3 4 49
72 13 4 8 5 44
74 14 9 7 0 48
76 17 6 4 3 49
78 19 8 2 1 55
80 17 6 4 3 53
82 13 8 7 2 47
84 17 7 3 4 44
86 12 12 7 0 50
88 16 10 3 2 59
90 16 7 2 5 51
92 12 10 6 3 57
94 16 8 2 4 51
96 14 9 4 3 54
98 15 9 3 4 54
100 13 12 5 1 49
102 14 8 5 5 49
104 13 10 5 4 47
106 14 11 5 4 56
108 14 14 4 2 50
110 9 8 9 9 48
112 14 12 5 5 49
114 12 10 6 6 52
116 11 11 7 5 55
118 13 11 5 5 51
120 13 12 5 4 54
122 15 13 3 3 53
124 14 15 4 2 50
126 15 15 3 2 57
128 9 14 9 4 47
130 13 15 5 4 48
132 15 14 3 5 48
134 14 11 4 8 40
136 14 12 4 8 55
138 12 17 4 3 45
140 10 16 5 4 53
142 14 12 2 9 52
144 14 15 1 8 50
146 13 18 2 4 50
148 9 13 6 10 57
150 13 15 2 7 49
152 13 17 1 6 51
154 12 18 2 5 51
156 8 15 5 8 48
158 12 14 1 9 55
160 9 18 4 5 49
162 10 20 3 3 39
164 9 16 4 7 53
166 12 18 1 5 54
168 10 17 3 6 47
170 10 16 3 7 48
172 10 19 3 4 55
174 12 17 1 6 47
176 7 18 6 5 60
178 10 18 3 5 49
180 10 14 3 10 54
182 9 17 4 7 48
184 7 19 3 7 59
186 6 18 3 7 48
188 4 19 5 7 59
190 6 17 3 9 52
192 8 17 1 9 47
194 6 19 3 8 52
196 4 23 5 4 49
198 7 20 2 8 46
200 8 20 1 8 51
202 5 21 4 5 62
204 5 19 4 8 47
206 7 19 2 7 52
208 7 21 2 6 45
210 5 20 4 7 44
