0 36 0 0 0 44
2 29 0 7 0 56
4.00004 21 0 14 0 42
6 26 0 9 0 48
8 26 0 9 0 47
10 28 0 6 0 50
12 25 0 11 0 53
14 28 0 8 0 46
16 30 0 7 0 46
18 24 0 13 0 50
20 31 0 6 0 51
22 22 0 12 0 52
24 24 0 11 0 51
26 25 0 11 0 51
28 23 0 10 0 58
30 23 0 10 0 60
32 24 0 9 0 47
34 28 0 7 0 53
36 28 1 6 0 51
38 23 2 11 0 54
40 24 1 11 2 49
42 26 3 7 0 45
44 29 2 5 3 51
46 26 4 8 2 39
48 27 5 6 2 56
50 21 2 10 4 49
52 25 5 6 1 56
54 26 5 4 2 55
56 23 6 8 2 56
58 23 5 7 3 43
60 24 6 6 2 51
62 23 7 6 2 47
64 21 8 5 3 53
66 16 8 9 3 51
68 20 9 3 3 44
70 20 6 3 6 50
72 19 9 6 2 44
74 19 7 5 6 42
76 20 9 4 3 33
78 17 8 5 4 50
80 22 11 1 2 51
82 16 11 7 2 52
84 15 10 6 5 49
86 18 6 4 8 63
88 17 11 4 4 54
90 16 9 4 7 50
92 16 11 3 3 52
94 12 12 6 4 46
96 11 12 6 3 51
98 11 11 6 4 42
100 11 10 6 5 52
102 13 10 4 5 45
104 14 12 3 7 52
106 11 13 5 6 49
108 15 14 0 3 53
110 13 13 2 2 62
112 12 14 3 2 52
114 10 11 4 5 51
116 9 10 4 6 58
118 7 12 4 4 59
120 10 13 2 3 54
122 6 8 5 6 52
124 5 9 4 3 43
126 7 9 2 7 44
128 8 16 1 3 51
130 8 13 1 3 47
132 6 12 3 4 50
134 8 14 1 3 48
136 6 13 3 2 45
138 7 11 1 6 56
140 5 13 3 5 41
142 4 15 3 3 59
144 6 12 1 8 50
146 4 10 3 10 45
148 4 12 2 8 42
150 5 16 1 4 44
152 6 13 0 6 45
154 5 13 1 5 50
156 4 13 1 5 56
158 4 13 1 5 47
160 5 14 0 4 47
162 3 13 2 5 48
164 3 16 2 2 49
166 4 13 1 5 49
168 4 11 2 7 55
170 3 14 3 4 58
172 4 12 2 6 52
174 3 14 3 4 49
176 5 13 1 5 53
178 4 11 2 7 50
180 4 10 2 10 45
182 4 18 2 3 42
184 4 16 2 5 54
186 5 19 1 4 46
188 6 17 0 6 51
190 5 16 1 7 51
192 5 21 1 4 43
194 5 17 1 6 56
196 5 16 1 8 46
198 5 14 0 9 51
200 3 19 2 5 44
202 3 16 2 9 51
204 3 18 2 8 46
206 4 20 1 6 53
208 3 16 1 9 51
210 3 22 1 6 56
