0 105 0 0 0 50
2 91 0 10 0 42
4.00004 86 0 14 0 37
6 91 0 9 0 50
8 84 0 16 0 51
10 88 0 14 0 46
12 74 15 13 1 51
14 75 16 8 5 49
16 63 22 14 5 58
18 58 32 9 2 51
20 53 30 10 5 55
22 49 34 10 5 56
24 46 40 6 5 45
26 42 43 7 5 49
28 36 49 8 4 58
30 39 49 5 5 51
32 36 55 5 2 44
34 31 58 3 6 56
36 28 61 2 8 47
38 24 64 0 11 57
40 21 74 0 4 50
42 17 78 2 3 43
44 14 75 5 6 58
46 15 75 2 5 42
48 15 75 1 6 68
50 13 73 1 10 54
52 10 79 2 7 49
54 8 80 2 8 56
56 6 81 1 10 38
58 5 82 2 9 39
60 7 82 0 10 44
62 6 84 0 11 52
64 5 82 1 13 39
66 5 89 0 7 52
68 5 89 0 7 52
70 3 91 1 6 56
72 3 91 0 7 49
74 3 92 0 6 52
76 3 88 1 10 47
78 3 88 0 10 45
80 4 89 0 9 50
82 3 90 0 9 48
84 4 87 1 11 45
86 5 84 0 13 50
88 5 84 0 13 52
90 4 88 1 8 48
92 6 89 2 7 53
94 7 87 1 8 45
96 7 80 0 15 53
98 3 88 0 9 48
100 2 85 1 12 45
102 3 86 0 11 43
104 3 88 0 10 50
106 2 86 0 12 55
108 1 88 1 10 50
110 1 93 0 6 53
112 1 88 0 11 46
114 1 89 0 10 54
116 1 84 0 14 55
118 1 80 0 18 53
120 1 87 0 10 48
122 1 86 0 11 47
124 1 89 0 8 47
126 1 90 0 7 40
128 1 89 0 8 54
130 2 87 0 10 54
132 1 86 1 11 47
134 2 84 0 13 58
136 1 84 2 13 50
138 3 88 0 9 53
140 1 91 1 7 50
142 2 88 0 11 47
144 1 87 1 12 49
146 1 88 1 11 48
148 2 88 0 10 52
150 2 89 0 9 55
152 1 82 1 16 56
154 2 90 0 7 50
156 2 86 1 10 58
158 2 86 0 10 49
160 2 87 0 9 52
162 1 84 0 14 47
164 2 85 0 13 49
166 2 84 2 14 56
168 3 83 3 13 48
170 6 84 2 10 50
172 6 83 2 9 47
174 6 88 1 7 53
176 5 90 1 6 56
178 5 84 1 12 52
180 5 88 0 8 51
182 4 89 0 8 56
184 3 89 1 8 60
186 3 87 1 10 43
188 2 85 0 13 44
190 2 83 0 15 52
192 1 88 2 10 50
194 1 84 1 15 49
196 2 88 0 11 52
198 2 84 0 15 50
200 1 87 0 13 48
202 1 90 1 10 47
204 2 84 0 16 60
206 2 89 0 11 55
208 2 86 1 13 52
210 2 86 0 14 46
