0 49 0 0 0 43
2 35 0 13 0 50
4.00004 43 0 6 0 43
6 42 0 7 0 41
8 39 0 10 0 45
10 41 0 8 0 57
12 42 0 8 0 46
14 39 0 11 0 44
16 31 0 17 0 44
18 36 0 14 0 38
20 38 0 11 0 38
22 37 0 12 0 52
24 36 0 14 0 52
26 43 0 4 1 52
28 40 0 10 2 58
30 40 2 10 0 51
32 40 2 10 0 51
34 40 2 10 0 47
36 39 1 11 2 49
38 38 2 12 1 57
40 40 1 10 2 45
42 42 2 8 2 53
44 35 4 13 1 42
46 36 1 9 4 49
48 34 3 10 4 51
50 32 5 11 3 51
52 32 5 10 3 59
54 37 7 5 1 53
56 30 7 12 1 45
58 37 7 4 1 46
60 33 6 8 2 48
62 35 6 6 2 60
64 30 4 10 5 48
66 31 8 8 0 44
68 32 4 6 5 45
70 26 6 10 2 51
72 30 6 5 2 51
74 31 8 3 1 59
76 25 9 9 1 53
78 33 9 2 3 46
80 23 10 12 2 45
82 25 10 9 2 47
84 29 9 5 3 53
86 29 7 5 4 42
88 30 5 4 7 49
90 27 8 7 5 46
92 23 12 11 2 51
94 22 10 12 4 50
96 21 11 13 4 56
98 27 11 7 5 48
100 17 13 17 3 51
102 29 13 2 3 47
104 21 14 10 3 47
106 23 14 8 3 46
108 27 11 3 4 48
110 24 13 5 5 55
112 18 14 10 5 48
114 19 14 7 7 39
116 21 19 5 3 46
118 19 20 6 3 49
120 20 17 5 5 47
122 19 19 6 4 47
124 20 17 5 5 47
126 20 15 5 6 58
128 21 17 4 6 46
130 20 18 4 7 47
132 20 18 4 6 61
134 20 19 4 8 50
136 16 24 8 4 52
138 19 21 5 8 47
140 20 22 3 6 46
142 20 21 2 9 49
144 18 24 4 3 53
146 19 24 4 3 45
148 15 22 6 5 43
150 18 22 3 6 35
152 17 20 4 8 53
154 15 20 7 9 56
156 17 19 4 10 46
158 18 23 4 5 41
160 16 23 6 7 55
162 19 28 3 4 52
164 14 24 8 9 62
166 17 21 5 11 58
168 15 22 7 7 46
170 16 22 6 8 50
172 15 27 6 4 55
174 18 30 4 5 53
176 14 33 7 6 49
178 14 35 6 7 53
180 16 34 1 7 51
182 14 36 4 5 51
184 13 33 5 9 43
186 15 32 4 9 49
188 14 34 4 7 46
190 16 37 2 6 56
192 14 32 4 10 47
194 13 27 5 13 57
196 14 34 2 7 51
198 11 25 5 16 50
200 15 29 1 13 47
202 13 34 2 8 43
204 12 36 3 6 45
206 12 35 3 7 58
208 12 38 2 6 52
210 10 34 5 10 55
