0 893 0 0 0 0 0
2 823 0 0 49 0 0
4.00004 812 0 0 65 0 0
6 789 0 0 79 0 0
8 802 0 0 62 0 0
10 792 0 0 77 0 0
12 782 0 0 82 0 0
14 787 0 0 85 0 0
16 788 0 0 81 0 0
18 791 0 0 80 0 0
20 788 0 0 86 0 0
22 787 0 0 86 0 0
24 786 0 0 87 0 0
26 790 0 0 76 0 0
28 781 0 0 84 0 0
30 781 0 0 84 0 0
32 777 0 0 99 0 0
34 775 0 0 101 0 0
36 776 0 0 105 0 0
38 774 0 0 108 0 0
40 789 0 0 90 0 0
42 774 0 0 109 0 0
44 780 0 0 94 0 0
46 775 0 0 95 0 0
48 769 0 0 104 0 0
50 769 0 0 111 0 0
52 761 0 0 117 2 0
54 759 0 0 121 4 0
56 777 0 1 90 9 0
58 765 0 2 105 10 0
60 768 0 4 85 13 0
62 774 0 3 69 19 0
64 761 0 9 77 30 0
66 764 0 12 71 25 0
68 759 0 18 68 31 0
70 766 0 21 57 32 0
72 757 0 25 66 29 0
74 745 0 31 72 30 0
76 741 0 34 73 29 0
78 743 0 38 66 31 0
80 729 0 46 75 29 0
82 712 0 49 85 39 0
84 710 0 54 83 32 0
86 708 0 60 78 30 0
88 703 0 62 74 33 0
90 701 0 65 72 33 0
92 697 0 73 74 31 0
94 688 0 75 75 36 0
96 700 0 81 61 35 0
98 681 0 84 80 37 0
100 686 0 91 69 40 0
102 690 0 93 59 40 0
104 687 0 99 62 40 0
106 690 0 104 55 43 0
108 682 0 104 65 47 0
110 671 0 110 73 48 0
112 682 0 115 51 45 0
114 684 0 114 40 49 0
116 679 0 124 44 42 0
118 673 0 126 51 43 0
120 668 0 134 54 39 0
122 659 0 134 57 43 0
124 659 0 141 51 39 0
126 651 0 147 52 39 0
128 645 0 152 54 39 0
130 645 0 162 49 37 0
132 643 0 165 46 40 0
134 628 0 169 58 38 0
136 623 0 174 63 35 0
138 626 0 175 55 40 0
140 615 0 174 60 45 0
142 610 0 172 57 54 0
144 609 0 180 54 51 0
146 608 0 184 48 41 0
148 596 0 186 55 49 0
150 589 0 188 52 47 0
152 593 0 184 43 54 0
154 588 0 185 46 51 0
156 579 0 183 54 57 0
158 580 0 195 48 54 0
160 580 0 194 42 57 0
162 580 0 205 40 47 0
164 570 0 203 50 52 0
166 568 0 209 49 61 0
168 555 0 216 54 56 0
170 552 0 220 51 62 0
172 547 0 232 52 47 0
174 537 0 230 62 56 0
176 541 0 231 56 53 0
178 539 0 231 52 53 0
180 540 0 236 50 57 0
182 538 0 241 47 56 0
184 545 0 243 36 53 0
186 537 0 248 45 60 0
188 519 0 249 62 57 0
190 525 0 260 53 51 0
192 520 0 268 55 45 0
194 525 0 273 45 45 0
196 523 0 277 42 42 0
198 526 0 281 34 42 0
200 511 0 284 51 40 0
