0 1019 0 0 0 0 0
2 988 5 0 23 0 10
4.00004 986 0 0 25 0 10
6 978 1 0 27 0 15
8 980 1 0 34 0 10
10 971 0 0 45 0 13
12 967 0 0 44 0 13
14 970 0 0 33 0 16
16 963 0 0 36 0 20
18 961 0 0 49 0 10
20 961 0 0 45 0 12
22 958 0 0 51 0 10
24 957 0 0 44 0 14
26 957 0 0 50 0 7
28 950 0 0 49 0 13
30 945 0 0 52 0 13
32 959 0 0 37 0 13
34 955 0 0 44 0 10
36 961 0 0 44 0 11
38 965 0 0 49 0 5
40 953 0 0 44 0 17
42 955 0 0 45 0 18
44 960 0 0 44 0 14
46 967 0 0 34 0 10
48 965 0 0 33 0 11
50 961 0 0 39 0 16
52 915 0 58 21 19 0
54 846 0 106 14 44 1
56 804 0 149 11 47 0
58 759 0 197 13 49 0
60 719 0 231 9 63 0
62 682 0 279 9 46 1
64 640 0 319 6 48 1
66 609 0 348 9 48 0
68 582 0 369 5 44 0
70 534 0 398 8 62 0
72 497 0 433 12 57 1
74 471 0 463 6 66 0
76 440 0 496 6 59 0
78 419 0 520 7 56 0
80 404 0 532 9 52 1
82 370 0 566 13 48 0
84 351 0 592 8 49 0
86 341 0 604 9 45 0
88 326 0 627 9 42 0
90 306 0 636 10 51 0
92 282 0 661 9 52 0
94 266 0 685 6 47 0
96 249 0 701 9 45 0
98 234 0 720 7 46 0
100 218 0 731 9 55 0
102 206 0 747 9 47 0
104 199 0 744 10 54 0
106 191 0 761 10 45 1
108 179 0 766 4 54 0
110 168 0 773 6 52 0
112 160 0 781 7 54 0
114 156 0 788 3 53 0
116 145 0 800 6 51 1
118 136 0 813 8 48 0
120 126 0 823 11 50 0
122 120 0 835 9 40 0
124 117 0 838 12 47 0
126 114 0 839 11 57 0
128 101 0 849 8 57 0
130 94 0 856 9 58 0
132 91 0 863 7 55 0
134 87 0 872 6 55 0
136 80 0 873 7 56 0
138 73 0 887 4 47 0
140 72 0 885 4 56 0
142 66 0 886 9 54 0
144 61 0 879 9 71 0
146 55 0 893 6 69 0
148 53 0 897 6 63 0
150 51 0 905 6 54 0
152 48 0 915 8 47 0
154 47 0 906 10 59 0
156 43 0 913 8 59 0
158 42 0 915 8 54 0
160 39 0 912 6 63 0
162 36 0 921 2 55 0
164 29 0 926 2 54 0
166 27 0 916 6 58 0
168 25 0 925 5 50 0
170 23 0 924 8 47 0
172 22 0 925 5 51 0
174 22 0 921 5 50 0
176 22 0 922 3 49 0
178 22 0 911 7 59 0
180 20 0 910 6 64 0
182 21 0 910 5 63 0
184 19 0 907 4 66 0
186 18 0 910 5 71 0
188 18 0 916 7 60 0
190 15 0 913 8 67 0
192 14 0 910 6 66 0
194 14 0 911 5 61 0
196 13 0 910 7 70 0
198 13 0 913 5 61 0
200 13 0 909 6 67 0
