0 749 0 0 0 0 0
2 731 0 0 23 0 0
4.00004 721 0 0 38 0 0
6 724 0 0 41 0 0
8 719 0 0 46 0 0
10 724 0 0 44 0 0
12 725 0 0 44 0 0
14 725 0 0 51 0 0
16 729 0 0 46 0 0
18 744 0 0 37 0 0
20 739 0 0 41 0 0
22 733 0 0 52 0 0
24 744 0 0 36 0 0
26 746 0 0 48 0 0
28 748 0 0 44 0 0
30 745 0 0 46 0 0
32 745 0 0 49 0 0
34 744 0 0 47 0 0
36 748 0 0 45 0 0
38 751 0 0 43 0 0
40 747 0 0 41 0 0
42 738 0 0 54 0 0
44 728 0 0 59 0 0
46 749 0 0 42 0 0
48 751 0 0 39 0 0
50 764 0 0 30 0 0
52 756 0 0 36 6 0
54 759 0 2 25 12 0
56 745 0 11 32 10 0
58 745 0 17 27 23 0
60 744 0 21 25 17 0
62 739 0 28 23 13 0
64 729 0 32 23 19 0
66 723 0 38 27 20 0
68 726 0 43 22 18 0
70 717 0 51 26 21 0
72 712 0 58 26 15 0
74 709 0 60 26 22 0
76 693 0 69 34 16 0
78 696 0 74 28 17 0
80 691 0 75 26 21 0
82 687 0 84 24 12 0
84 672 0 90 36 13 0
86 678 0 95 26 20 0
88 661 0 104 37 14 0
90 661 0 108 26 18 0
92 664 0 113 19 23 0
94 651 0 119 27 22 0
96 649 0 127 24 18 0
98 644 0 132 22 18 0
100 631 0 136 29 21 0
102 624 0 143 31 23 0
104 623 0 153 22 20 0
106 614 0 157 27 22 0
108 612 0 158 27 29 0
110 599 0 168 34 27 0
112 602 0 171 18 29 0
114 593 0 179 23 25 0
116 586 0 193 23 13 0
118 584 0 190 18 26 0
120 579 0 191 16 25 0
122 571 0 195 18 28 0
124 571 0 206 16 22 0
126 565 0 207 17 18 0
128 555 0 210 20 32 0
130 555 0 223 20 23 0
132 544 0 229 23 21 0
134 539 0 232 26 25 0
136 531 0 240 27 19 0
138 529 0 237 22 33 0
140 527 0 243 18 29 0
142 514 0 253 25 25 0
144 514 0 257 21 22 0
146 512 0 254 14 33 0
148 508 0 262 14 33 0
150 503 0 274 19 25 0
152 502 0 285 13 25 0
154 492 0 289 23 23 0
156 483 0 292 27 33 0
158 485 0 301 22 29 0
160 487 0 299 14 31 0
162 482 0 308 14 30 0
164 477 0 316 14 29 0
166 474 0 313 14 27 0
168 464 0 321 20 37 0
170 463 0 329 17 30 0
172 458 0 329 17 31 0
174 448 0 335 18 33 0
176 444 0 346 18 29 0
178 436 0 347 19 30 0
180 434 0 349 17 25 0
182 429 0 350 18 29 0
184 427 0 355 14 27 0
186 423 0 353 19 34 0
188 424 0 352 13 40 0
190 420 0 372 13 28 0
192 416 0 375 14 34 0
194 414 0 367 12 41 0
196 407 0 365 15 42 0
198 401 0 378 15 27 0
200 397 0 382 17 30 0
