0 952 0 0 0 0 0
2 918 10 0 19 0 11
4.00004 923 3 0 26 0 10
6 906 3 0 31 0 13
8 901 5 0 41 0 13
10 905 3 0 45 0 11
12 885 3 0 63 0 11
14 890 0 0 65 0 15
16 890 2 0 67 0 10
18 893 2 0 56 0 17
20 888 0 0 68 0 13
22 874 0 0 76 0 14
24 878 0 0 77 0 13
26 873 0 0 86 0 15
28 873 0 0 83 0 14
30 870 0 0 87 0 11
32 870 0 0 80 0 8
34 861 0 0 78 0 22
36 871 0 0 77 0 15
38 868 0 0 70 0 19
40 876 0 0 68 0 14
42 872 0 0 80 0 14
44 870 0 0 75 0 12
46 862 0 0 81 0 10
48 858 0 0 82 0 14
50 864 0 0 75 0 16
52 831 0 22 52 47 1
54 805 0 57 35 54 0
56 773 0 78 38 61 0
58 757 0 103 34 58 0
60 736 0 132 28 54 1
62 710 0 149 33 59 0
64 685 0 172 22 68 0
66 669 0 191 20 62 0
68 647 0 210 30 61 0
70 627 0 219 28 75 0
72 605 0 235 21 81 0
74 585 0 250 20 91 0
76 560 0 265 24 94 1
78 545 0 292 16 89 0
80 523 0 327 21 77 0
82 509 0 344 19 67 0
84 485 0 348 29 80 0
86 477 0 356 25 86 0
88 464 0 373 20 85 0
90 447 0 395 15 74 0
92 439 0 405 11 77 0
94 420 0 420 20 81 0
96 409 0 435 8 79 0
98 400 0 439 13 77 0
100 384 0 440 15 90 0
102 374 0 456 20 82 0
104 365 0 469 17 77 0
106 350 0 478 19 81 0
108 335 0 492 17 75 0
110 327 0 501 19 81 0
112 316 0 514 20 83 0
114 301 0 524 20 80 0
116 294 0 544 16 74 0
118 286 0 542 19 77 0
120 281 0 544 22 81 1
122 270 0 549 18 91 0
124 261 0 564 13 90 0
126 251 0 568 11 91 0
128 240 0 584 17 92 0
130 240 0 597 15 72 0
132 229 0 598 19 82 0
134 223 0 604 18 78 0
136 218 0 609 19 79 0
138 208 0 625 18 79 0
140 199 0 632 24 79 0
142 193 0 642 15 76 0
144 186 0 640 12 85 0
146 176 0 651 23 83 0
148 175 0 658 19 84 0
150 174 0 666 15 82 0
152 168 0 663 15 96 1
154 162 0 669 18 94 0
156 157 0 679 19 90 0
158 151 0 686 13 88 0
160 146 0 697 12 90 0
162 138 0 702 14 79 0
164 131 0 710 14 86 0
166 125 0 719 12 82 0
168 123 0 730 13 75 0
170 117 0 727 10 77 0
172 115 0 728 11 85 0
174 111 0 732 13 77 0
176 109 0 744 11 66 0
178 103 0 739 13 76 0
180 101 0 739 10 72 0
182 98 0 740 12 77 0
184 92 0 741 12 81 0
186 90 0 743 10 81 0
188 91 0 750 10 70 0
190 88 0 750 15 68 0
192 85 0 748 9 86 0
194 82 0 751 10 83 0
196 77 0 747 13 85 0
198 77 0 754 12 80 0
200 71 0 752 14 86 0
