0 895 0 0 0 0 0
2 873 0 0 24 0 0
4.00004 855 0 0 35 0 0
6 846 0 0 41 0 0
8 845 0 0 38 0 0
10 845 0 0 43 0 0
12 838 0 0 47 0 0
14 836 0 0 50 0 0
16 834 0 0 52 0 0
18 830 0 0 53 0 0
20 847 0 0 36 0 0
22 844 0 0 35 0 0
24 836 0 0 44 0 0
26 836 0 0 46 0 0
28 840 0 0 44 0 0
30 839 0 0 51 0 0
32 830 0 0 59 0 0
34 835 0 0 53 0 0
36 836 0 0 50 0 0
38 839 0 0 48 0 0
40 841 0 0 48 0 0
42 833 0 0 57 0 0
44 833 0 0 52 0 0
46 827 0 0 62 0 0
48 825 0 0 64 0 0
50 829 0 0 61 0 0
52 832 0 0 58 1 0
54 826 0 0 56 4 0
56 835 0 1 44 7 0
58 832 0 2 49 11 0
60 828 0 3 41 14 0
62 819 0 6 51 16 0
64 817 0 10 45 18 0
66 818 0 14 38 16 0
68 814 0 18 34 17 0
70 808 0 21 35 20 0
72 812 0 25 27 20 0
74 807 0 27 30 21 0
76 803 0 33 34 23 0
78 798 0 37 38 16 0
80 795 0 37 37 23 0
82 789 0 40 37 20 0
84 783 0 43 35 21 0
86 785 0 50 28 19 0
88 785 0 52 21 17 0
90 780 0 55 29 21 0
92 778 0 59 29 10 0
94 777 0 59 25 15 0
96 770 0 63 30 10 0
98 768 0 63 30 21 0
100 768 0 68 33 19 0
102 761 0 72 38 14 0
104 762 0 75 35 17 0
106 752 0 79 40 18 0
108 751 0 85 42 14 0
110 760 0 89 27 16 0
112 761 0 87 26 22 0
114 761 0 91 23 14 0
116 746 0 96 33 17 0
118 742 0 96 32 21 0
120 749 0 97 23 21 0
122 736 0 96 28 19 0
124 734 0 99 34 17 0
126 734 0 99 27 18 0
128 731 0 108 25 10 0
130 724 0 109 31 15 0
132 725 0 110 29 14 0
134 719 0 113 32 23 0
136 721 0 114 27 24 0
138 714 0 119 32 24 0
140 709 0 120 34 22 0
142 703 0 126 35 19 0
144 704 0 126 29 24 0
146 693 0 134 37 19 0
148 693 0 134 33 19 0
150 687 0 138 40 18 0
152 685 0 140 37 19 0
154 684 0 141 34 19 0
156 685 0 146 26 12 0
158 681 0 145 28 19 0
160 685 0 148 21 19 0
162 678 0 153 31 22 0
164 681 0 157 22 20 0
166 670 0 155 35 23 0
168 664 0 161 34 20 0
170 673 0 164 24 15 0
172 668 0 166 26 21 0
174 657 0 169 34 23 0
176 661 0 168 31 29 0
178 661 0 175 27 22 0
180 663 0 178 26 22 0
182 656 0 180 26 20 0
184 661 0 183 22 20 0
186 658 0 188 22 23 0
188 658 0 185 22 30 0
190 656 0 192 25 27 0
192 652 0 197 25 22 0
194 649 0 201 25 14 0
196 644 0 201 23 13 0
198 639 0 202 30 13 0
200 639 0 195 27 28 0
