0 835 0 0 0 0 0
2 787 0 0 44 0 0
4.00004 774 0 0 48 0 0
6 770 0 0 57 0 0
8 765 0 0 67 0 0
10 757 0 0 73 0 0
12 750 0 0 75 0 0
14 741 0 0 93 0 0
16 757 0 0 76 0 0
18 770 0 0 66 0 0
20 769 0 0 63 0 0
22 759 0 0 68 0 0
24 762 0 0 64 0 0
26 750 0 0 83 0 0
28 744 0 0 91 0 0
30 749 0 0 72 0 0
32 745 0 0 83 0 0
34 746 0 0 73 0 0
36 744 0 0 74 0 0
38 749 0 0 63 0 0
40 750 0 0 69 0 0
42 739 0 0 73 0 0
44 736 0 0 77 0 0
46 739 0 0 69 0 0
48 742 0 0 66 0 0
50 738 0 0 71 0 0
52 733 0 0 64 4 0
54 733 0 3 64 10 0
56 725 0 5 63 17 0
58 716 0 7 68 19 0
60 720 0 11 61 24 0
62 718 0 17 55 21 0
64 717 0 18 49 19 0
66 711 0 22 50 27 0
68 703 0 27 49 32 0
70 701 0 39 49 22 0
72 689 0 42 51 29 0
74 682 0 46 55 29 0
76 668 0 49 61 26 0
78 673 0 56 53 31 0
80 662 0 62 53 27 0
82 666 0 71 43 20 0
84 651 0 73 53 23 0
86 653 0 78 42 30 0
88 647 0 84 40 33 0
90 646 0 85 42 32 0
92 637 0 94 46 26 0
94 634 0 101 46 27 0
96 621 0 107 51 27 0
98 613 0 113 56 31 0
100 605 0 111 59 32 0
102 605 0 116 50 30 0
104 599 0 115 40 35 0
106 593 0 124 44 28 0
108 582 0 122 45 47 0
110 583 0 127 39 44 0
112 583 0 142 42 36 0
114 581 0 145 43 42 0
116 581 0 148 36 40 0
118 571 0 150 41 43 0
120 565 0 159 43 32 0
122 566 0 162 35 39 0
124 561 0 161 37 45 0
126 554 0 168 37 38 0
128 546 0 173 38 40 0
130 540 0 180 40 31 0
132 538 0 176 42 48 0
134 544 0 180 32 47 0
136 539 0 191 31 42 0
138 523 0 193 43 30 0
140 527 0 199 33 34 0
142 519 0 206 37 39 0
144 513 0 210 39 37 0
146 512 0 208 33 42 0
148 507 0 211 35 34 0
150 507 0 214 32 44 0
152 496 0 224 35 42 0
154 490 0 227 37 40 0
156 487 0 233 34 46 0
158 483 0 235 37 47 0
160 480 0 241 36 38 0
162 482 0 243 28 52 0
164 477 0 250 29 34 0
166 468 0 241 38 46 0
168 465 0 253 31 34 0
170 467 0 252 30 35 0
172 467 0 254 29 39 0
174 456 0 262 38 41 0
176 448 0 258 36 54 0
178 456 0 265 24 48 0
180 442 0 273 35 44 0
182 437 0 279 32 43 0
184 430 0 280 34 50 0
186 422 0 284 38 46 0
188 413 0 290 47 48 0
190 415 0 284 43 54 0
192 412 0 292 41 42 0
194 403 0 303 46 32 0
196 408 0 297 32 43 0
198 413 0 307 21 39 0
200 407 0 316 24 39 0
