0 1071 0 0 0 0 0
2 1026 10 0 26 0 10
4.00004 1016 6 0 35 0 19
6 1001 2 0 46 0 18
8 997 1 0 52 0 18
10 992 1 0 54 0 17
12 989 1 0 62 0 19
14 976 0 0 65 0 22
16 968 0 0 66 0 26
18 954 0 0 79 0 24
20 954 0 0 74 0 30
22 969 0 0 71 0 24
24 966 0 0 87 0 17
26 965 0 0 87 0 20
28 955 0 0 82 0 27
30 947 0 0 91 0 27
32 959 0 0 96 0 19
34 950 0 0 96 0 27
36 955 0 0 87 0 22
38 953 0 0 86 0 29
40 965 0 0 81 0 18
42 955 0 0 78 0 25
44 945 0 0 92 0 21
46 955 0 0 86 0 23
48 958 0 0 80 0 24
50 954 0 0 95 0 18
52 913 0 39 49 62 1
54 878 0 87 38 68 0
56 835 0 110 31 86 0
58 796 0 155 30 84 0
60 761 0 193 19 85 0
62 716 0 230 25 82 0
64 686 0 267 31 83 0
66 651 0 295 22 97 0
68 618 0 331 26 91 0
70 586 0 357 21 95 0
72 563 0 393 21 85 0
74 530 0 424 19 87 1
76 507 0 443 17 98 0
78 483 0 481 14 85 0
80 455 0 519 12 80 0
82 439 0 530 12 87 0
84 409 0 546 12 100 0
86 384 0 581 16 87 0
88 364 0 597 20 81 0
90 346 0 613 18 84 0
92 327 0 636 21 91 0
94 312 0 656 16 88 0
96 299 0 659 15 102 0
98 285 0 669 24 97 0
100 274 0 681 13 97 0
102 261 0 694 16 92 0
104 247 0 701 12 96 0
106 232 0 729 17 91 0
108 228 0 731 16 91 0
110 215 0 742 18 91 0
112 208 0 751 18 90 0
114 196 0 758 16 95 1
116 188 0 777 17 96 0
118 179 0 778 12 107 0
120 168 0 793 18 94 0
122 159 0 795 14 110 0
124 153 0 807 11 102 0
126 141 0 828 15 80 0
128 138 0 836 15 84 0
130 128 0 842 15 86 0
132 122 0 851 14 86 0
134 116 0 850 15 90 0
136 111 0 863 18 79 0
138 109 0 856 11 87 0
140 102 0 866 14 78 0
142 99 0 870 13 83 0
144 98 0 872 13 78 0
146 95 0 872 10 87 0
148 93 0 869 10 92 0
150 85 0 864 12 106 0
152 83 0 872 14 104 0
154 80 0 878 8 104 0
156 78 0 873 13 104 0
158 75 0 878 7 100 0
160 70 0 879 13 106 0
162 67 0 882 14 100 0
164 63 0 878 18 105 0
166 62 0 896 10 91 0
168 58 0 894 12 91 0
170 56 0 888 15 99 0
172 52 0 897 20 99 0
174 50 0 886 13 111 0
176 46 0 892 12 105 0
178 44 0 900 11 109 0
180 42 0 894 17 121 0
182 39 0 904 13 118 0
184 36 0 908 12 109 0
186 36 0 905 12 107 0
188 35 0 910 14 98 0
190 32 0 920 8 85 1
192 30 0 895 17 113 0
194 27 0 901 15 124 0
196 28 0 893 11 130 0
198 26 0 903 12 116 0
200 25 0 900 9 111 0
