0 1136 0 0 0 0 0
2 1097 2 0 16 0 12
4.00004 1089 0 0 28 0 23
6 1094 0 0 29 0 13
8 1090 0 0 30 0 14
10 1090 0 0 25 0 15
12 1077 0 0 31 0 16
14 1074 0 0 33 0 16
16 1079 0 0 34 0 12
18 1085 0 0 31 0 14
20 1074 0 0 35 0 22
22 1075 0 0 45 0 14
24 1075 0 0 52 0 15
26 1077 0 0 42 0 20
28 1090 0 0 36 0 15
30 1089 0 0 37 0 19
32 1100 0 0 42 0 14
34 1096 0 0 37 0 12
36 1093 0 0 43 0 11
38 1092 0 0 43 0 15
40 1091 0 0 52 0 12
42 1093 0 0 42 0 18
44 1096 0 0 42 0 13
46 1093 0 0 43 0 17
48 1105 0 0 33 0 19
50 1112 0 0 33 0 11
52 1038 0 67 14 36 0
54 986 0 128 11 34 0
56 938 0 181 13 34 1
58 881 0 238 10 45 0
60 819 0 297 13 48 0
62 770 0 341 9 58 1
64 723 0 396 10 60 0
66 665 0 451 7 58 0
68 628 0 505 10 47 0
70 598 0 545 10 43 0
72 564 0 572 10 51 0
74 535 0 610 8 47 0
76 500 0 646 10 42 0
78 471 0 680 11 44 0
80 452 0 700 13 42 1
82 428 0 718 10 53 0
84 402 0 748 4 52 0
86 377 0 777 8 47 0
88 355 0 794 7 52 0
90 342 0 830 6 34 0
92 316 0 836 6 52 0
94 291 0 858 9 55 0
96 273 0 891 7 51 0
98 256 0 907 4 53 1
100 237 0 929 7 48 0
102 216 0 953 9 54 0
104 197 0 977 4 60 0
106 187 0 1010 6 34 0
108 167 0 1019 9 46 0
110 157 0 1032 7 40 0
112 145 0 1039 3 52 0
114 134 0 1048 4 47 0
116 126 0 1060 8 48 0
118 117 0 1071 7 50 0
120 108 0 1079 5 39 1
122 102 0 1074 3 51 0
124 94 0 1081 5 55 0
126 87 0 1096 7 56 0
128 84 0 1104 9 48 0
130 81 0 1110 7 45 0
132 76 0 1114 3 44 0
134 68 0 1123 7 43 0
136 64 0 1128 7 48 0
138 59 0 1146 4 40 0
140 56 0 1148 3 38 0
142 48 0 1144 10 47 0
144 46 0 1146 2 48 0
146 43 0 1154 3 39 0
148 38 0 1145 5 49 0
150 38 0 1141 3 56 0
152 37 0 1154 4 45 0
154 33 0 1159 2 51 0
156 33 0 1171 2 36 0
158 30 0 1170 1 46 0
160 27 0 1177 1 42 0
162 24 0 1173 2 47 0
164 23 0 1186 1 37 0
166 21 0 1191 6 38 0
168 21 0 1205 7 31 0
170 20 0 1208 3 34 0
172 18 0 1203 3 42 0
174 17 0 1206 6 41 0
176 15 0 1208 3 39 0
178 13 0 1206 3 44 0
180 13 0 1204 4 53 0
182 13 0 1205 4 48 0
184 13 0 1205 5 50 0
186 11 0 1208 5 54 0
188 11 0 1203 4 59 0
190 11 0 1216 3 52 0
192 11 0 1215 1 47 0
194 11 0 1213 4 49 0
196 10 0 1215 3 50 0
198 10 0 1216 6 47 0
200 9 0 1217 6 45 0
