0 973 0 0 0 0 0
2 955 4 0 14 0 6
4.00004 940 4 0 29 0 15
6 935 4 0 45 0 11
8 943 1 0 37 0 10
10 928 0 0 44 0 6
12 917 0 0 52 0 10
14 912 1 0 51 0 13
16 912 1 0 47 0 18
18 914 0 0 56 0 11
20 909 0 0 57 0 19
22 905 0 0 68 0 11
24 901 1 0 61 0 20
26 896 0 0 72 0 15
28 890 0 0 70 0 16
30 897 0 0 72 0 14
32 893 0 0 73 0 10
34 881 0 0 82 0 19
36 883 0 0 83 0 19
38 880 0 0 93 0 12
40 885 0 0 82 0 17
42 886 0 0 88 0 6
44 893 0 0 82 0 3
46 889 0 0 86 0 13
48 886 0 0 77 0 16
50 878 0 0 88 0 11
52 857 0 26 52 43 0
54 828 0 49 41 58 0
56 794 0 78 34 68 0
58 769 0 100 33 71 0
60 745 0 127 35 71 0
62 723 0 146 36 74 0
64 702 0 172 35 72 0
66 683 0 186 30 78 0
68 669 0 208 26 79 0
70 641 0 235 24 71 0
72 618 0 246 26 79 0
74 600 0 260 31 88 0
76 577 0 282 27 92 0
78 566 0 293 19 100 0
80 549 0 308 25 96 0
82 536 0 328 22 87 0
84 519 0 348 22 87 0
86 502 0 372 24 76 0
88 489 0 381 26 79 0
90 476 0 398 19 82 0
92 457 0 422 16 86 0
94 437 0 437 18 87 0
96 431 0 452 12 76 0
98 418 0 462 16 71 0
100 411 0 471 15 64 0
102 404 0 473 17 69 0
104 385 0 489 19 66 0
106 372 0 509 17 71 0
108 361 0 517 14 69 0
110 352 0 528 19 70 0
112 346 0 531 15 74 0
114 335 0 537 15 81 0
116 319 0 549 18 72 0
118 315 0 554 9 77 0
120 307 0 561 18 76 0
122 298 0 571 16 76 0
124 286 0 584 19 76 0
126 279 0 589 15 76 0
128 270 0 599 19 75 1
130 263 0 606 19 72 0
132 258 0 602 15 86 0
134 246 0 617 16 77 0
136 236 0 622 17 80 0
138 226 0 633 15 83 0
140 216 0 641 12 85 0
142 212 0 650 14 75 0
144 208 0 654 10 79 0
146 202 0 677 5 61 0
148 193 0 676 6 68 0
150 188 0 689 11 62 0
152 181 0 686 16 69 0
154 178 0 704 12 57 0
156 170 0 710 14 62 0
158 167 0 714 12 63 0
160 162 0 715 16 67 0
162 155 0 722 17 75 0
164 153 0 722 17 80 0
166 146 0 722 16 88 0
168 143 0 735 13 77 0
170 136 0 736 16 83 0
172 129 0 747 14 76 0
174 124 0 745 15 91 0
176 122 0 764 10 71 0
178 121 0 767 8 76 0
180 118 0 771 14 76 0
182 115 0 770 12 82 0
184 113 0 779 15 77 0
186 107 0 785 12 71 0
188 106 0 782 16 81 0
190 105 0 787 15 76 0
192 98 0 780 12 95 0
194 97 0 795 11 84 0
196 94 0 791 13 87 0
198 90 0 802 13 79 0
200 86 0 790 15 95 0
