0 1087 0 0 0 0 0
2 1046 1 0 14 0 12
4.00004 1048 3 0 25 0 5
6 1049 2 0 23 0 7
8 1044 3 0 26 0 9
10 1048 0 0 28 0 11
12 1041 0 0 35 0 11
14 1033 0 0 33 0 19
16 1029 0 0 41 0 15
18 1033 0 0 37 0 8
20 1036 0 0 33 0 8
22 1028 0 0 41 0 10
24 1025 0 0 46 0 8
26 1022 0 0 47 0 12
28 1020 0 0 43 0 18
30 1015 0 0 46 0 17
32 1019 0 0 47 0 12
34 1018 0 0 43 0 12
36 1015 0 0 48 0 10
38 1021 0 0 42 0 10
40 1022 0 0 43 0 6
42 1022 0 0 38 0 10
44 1014 0 0 38 0 17
46 1015 0 0 43 0 15
48 1022 0 0 40 0 12
50 1022 0 0 37 0 11
52 974 0 51 24 24 0
54 930 0 91 19 35 0
56 890 0 126 15 41 0
58 849 0 166 12 43 0
60 804 0 206 16 47 0
62 757 0 254 16 43 1
64 727 0 285 11 46 0
66 695 0 321 5 45 0
68 660 0 356 13 42 0
70 627 0 389 7 41 0
72 606 0 400 9 46 0
74 576 0 423 8 54 0
76 541 0 457 14 47 0
78 515 0 495 10 36 0
80 490 0 519 17 36 0
82 469 0 537 9 47 0
84 456 0 562 8 39 0
86 434 0 580 8 44 0
88 412 0 595 13 48 0
90 393 0 617 11 36 1
92 385 0 626 6 42 0
94 370 0 639 11 48 0
96 346 0 665 15 47 0
98 329 0 681 12 50 0
100 313 0 697 10 53 0
102 298 0 718 9 45 0
104 283 0 738 7 41 0
106 273 0 752 9 37 0
108 257 0 765 6 39 0
110 245 0 770 6 47 0
112 234 0 784 10 42 0
114 227 0 790 9 40 0
116 215 0 802 13 43 0
118 199 0 821 12 33 0
120 186 0 827 10 49 0
122 178 0 834 11 48 0
124 175 0 844 9 43 0
126 167 0 843 8 50 0
128 156 0 853 2 56 0
130 151 0 859 6 57 0
132 143 0 866 9 47 0
134 138 0 867 5 55 0
136 128 0 877 9 51 0
138 127 0 890 7 41 0
140 123 0 897 6 41 0
142 118 0 898 7 46 0
144 115 0 903 7 46 0
146 111 0 912 8 41 0
148 106 0 917 9 40 0
150 100 0 922 9 45 0
152 95 0 928 11 47 0
154 92 0 933 10 44 0
156 89 0 938 7 47 0
158 87 0 929 10 58 0
160 85 0 941 8 44 0
162 82 0 945 7 47 0
164 76 0 959 7 36 0
166 69 0 947 2 55 0
168 67 0 951 7 48 0
170 64 0 954 11 49 0
172 63 0 955 9 53 0
174 59 0 959 7 54 0
176 56 0 961 10 55 0
178 50 0 968 9 52 0
180 48 0 974 4 52 0
182 45 0 974 9 54 0
184 42 0 980 9 52 0
186 42 0 975 7 53 0
188 42 0 982 9 54 0
190 36 0 988 7 58 0
192 36 0 1000 5 45 0
194 35 0 1005 8 45 0
196 34 0 1001 7 44 0
198 33 0 1009 6 39 0
200 31 0 1000 5 56 0
