0 1139 0 0 0 0 0
2 1141 3 0 0 0 3
4.00004 1145 1 0 0 0 2
6 1142 1 0 0 0 4
8 1134 1 0 0 0 4
10 1134 1 0 0 0 4
12 1135 1 0 0 0 6
14 1130 2 0 0 0 2
16 1133 1 0 0 0 0
18 1128 1 0 0 0 5
20 1141 0 0 0 0 2
22 1145 0 0 0 0 1
24 1145 1 0 0 0 4
26 1143 2 0 0 0 7
28 1139 4 0 0 0 5
30 1140 0 0 0 0 0
32 1129 4 0 0 0 6
34 1138 0 0 0 0 3
36 1139 0 0 0 0 4
38 1137 2 0 0 0 2
40 1134 3 0 0 0 6
42 1138 2 0 0 0 3
44 1147 0 0 0 0 0
46 1151 3 0 0 0 1
48 1145 1 0 0 0 1
50 1132 0 0 0 0 2
52 1055 0 68 0 6 1
54 1018 0 120 0 1 0
56 986 0 151 0 4 0
58 940 0 197 0 1 0
60 908 0 221 0 3 0
62 884 0 244 0 6 0
64 864 0 268 0 2 0
66 830 0 307 0 0 0
68 808 0 335 0 1 0
70 785 0 350 0 1 0
72 760 0 383 0 1 0
74 731 0 414 0 6 0
76 709 0 445 0 4 0
78 686 0 471 0 3 0
80 666 0 480 0 4 0
82 644 0 504 0 4 0
84 628 0 520 0 2 0
86 608 0 534 0 2 0
88 586 0 565 0 3 0
90 573 0 577 0 4 0
92 553 0 602 0 3 0
94 535 0 617 0 1 0
96 523 0 623 0 3 0
98 510 0 641 0 2 0
100 498 0 657 0 4 0
102 482 0 674 0 5 0
104 461 0 694 0 3 0
106 446 0 704 0 3 0
108 430 0 719 0 4 0
110 413 0 730 0 7 0
112 400 0 750 0 6 1
114 388 1 760 0 1 0
116 381 0 779 0 2 0
118 365 0 804 0 3 0
120 356 0 815 0 1 0
122 352 0 814 0 3 0
124 343 0 825 0 3 0
126 334 0 828 0 4 0
128 327 0 836 0 2 0
130 321 0 837 0 3 0
132 313 0 849 0 1 0
134 302 0 862 0 1 0
136 295 0 871 0 8 0
138 290 0 884 0 3 0
140 282 0 894 0 2 0
142 271 1 905 0 5 0
144 259 0 919 0 3 0
146 253 0 920 0 3 0
148 251 0 913 0 5 0
150 241 0 927 0 1 0
152 232 0 933 0 3 0
154 226 0 944 0 2 0
156 220 0 950 0 4 0
158 213 0 958 0 1 0
160 209 0 953 0 3 0
162 200 0 967 0 4 0
164 189 0 983 0 0 0
166 182 0 987 0 1 0
168 176 0 994 0 3 0
170 172 0 994 0 4 0
172 167 0 999 0 2 0
174 162 0 1010 0 0 0
176 157 0 1014 0 4 0
178 155 0 1016 0 2 0
180 152 0 1026 0 2 0
182 148 0 1027 0 3 0
184 144 0 1030 0 4 0
186 138 0 1034 0 2 0
188 131 0 1029 0 3 0
190 131 0 1035 0 2 0
192 129 0 1037 0 3 0
194 126 0 1032 0 3 0
196 122 0 1028 0 11 0
198 117 0 1049 0 3 0
200 112 0 1052 0 2 0
