0 859 0 0 0 0 0
2 845 0 0 0 0 5
4.00004 841 0 0 0 0 7
6 833 3 0 0 0 6
8 827 2 0 0 0 6
10 831 2 0 0 0 2
12 833 2 0 0 0 8
14 835 4 0 0 0 8
16 843 1 0 0 0 9
18 846 1 0 0 0 4
20 839 1 0 0 0 3
22 839 1 0 0 0 6
24 846 1 0 0 0 3
26 847 1 0 0 0 4
28 838 1 0 0 0 9
30 833 1 0 0 0 1
32 833 0 0 0 0 4
34 825 0 0 0 0 5
36 827 2 0 0 0 5
38 834 1 0 0 0 4
40 833 0 0 0 0 4
42 827 1 0 0 0 6
44 824 3 0 0 0 5
46 829 2 0 0 0 4
48 830 2 0 0 0 7
50 833 1 0 0 0 7
52 697 0 127 0 6 0
54 640 0 185 0 3 0
56 580 1 238 0 6 0
58 530 0 298 0 3 0
60 474 0 360 0 2 0
62 428 0 408 0 4 1
64 397 0 423 0 6 0
66 353 1 468 0 3 0
68 317 0 502 0 6 0
70 286 0 527 0 3 0
72 255 0 556 0 3 0
74 230 0 576 0 3 0
76 215 0 589 0 1 0
78 199 0 600 0 5 0
80 179 0 624 0 7 0
82 167 0 632 0 9 0
84 149 0 656 0 3 0
86 138 0 672 0 3 0
88 129 0 669 0 5 0
90 120 0 674 0 5 0
92 101 0 689 0 6 0
94 91 0 705 0 8 0
96 82 0 714 0 5 0
98 75 0 715 0 2 0
100 72 0 717 0 3 0
102 65 0 729 0 3 0
104 59 0 731 0 3 0
106 53 0 738 0 5 0
108 48 0 732 0 6 0
110 46 0 749 0 5 0
112 41 0 745 0 5 0
114 39 0 752 0 4 0
116 35 0 758 0 2 0
118 35 0 753 0 5 0
120 32 0 763 0 4 0
122 28 0 771 0 3 0
124 23 0 772 0 6 0
126 21 0 779 0 4 0
128 19 0 782 0 5 0
130 16 0 790 0 7 0
132 13 0 785 0 2 0
134 13 0 791 0 4 0
136 11 0 789 0 5 0
138 10 0 777 0 8 0
140 9 0 788 0 5 0
142 9 0 782 0 2 0
144 7 0 787 0 2 0
146 6 0 786 0 4 0
148 5 0 791 0 1 0
150 4 0 800 0 3 0
152 4 0 804 0 3 0
154 4 0 803 0 4 0
156 2 0 806 0 3 0
158 2 0 804 0 7 0
160 1 0 796 0 5 0
162 1 0 804 0 0 0
164 1 0 800 0 4 0
166 1 0 797 0 2 0
168 1 0 790 0 12 0
170 1 0 802 0 3 0
172 1 0 798 0 5 0
174 0 0 799 0 4 0
176 0 0 811 0 3 0
178 0 0 815 0 4 0
180 0 0 805 0 6 0
182 0 0 812 0 4 0
184 0 0 819 0 5 0
186 0 0 822 0 7 0
188 0 0 828 0 3 0
190 0 0 828 0 5 0
192 0 0 827 0 5 0
194 0 0 831 0 7 0
196 0 0 833 0 6 0
198 0 0 841 0 2 0
200 0 0 831 0 6 0
