0 1090 0 0 0 0 0
2 1090 0 0 0 0 1
4.00004 1088 1 0 0 0 2
6 1095 2 0 0 0 3
8 1093 2 0 0 0 6
10 1103 1 0 0 0 1
12 1100 2 0 0 0 3
14 1107 3 0 0 0 2
16 1109 0 0 0 0 1
18 1111 0 0 0 0 1
20 1103 0 0 0 0 6
22 1103 4 0 0 0 6
24 1102 1 0 0 0 3
26 1115 1 0 0 0 4
28 1113 0 0 0 0 1
30 1102 2 0 0 0 6
32 1109 0 0 0 0 6
34 1108 3 0 0 0 3
36 1110 1 0 0 0 7
38 1112 1 0 0 0 4
40 1118 1 0 0 0 11
42 1127 0 0 0 0 3
44 1120 2 0 0 0 5
46 1126 0 0 0 0 0
48 1123 1 0 0 0 3
50 1119 3 0 0 0 5
52 1009 0 103 0 9 0
54 946 0 161 0 6 1
56 900 0 201 0 7 0
58 855 0 254 0 3 0
60 821 0 285 0 4 0
62 784 0 324 0 1 0
64 755 0 345 0 1 0
66 712 0 388 0 1 0
68 673 0 425 0 6 0
70 647 0 456 0 4 0
72 611 0 492 0 3 0
74 574 1 530 0 6 0
76 547 0 561 0 3 0
78 521 0 580 0 2 0
80 505 1 599 0 3 0
82 483 0 629 0 2 0
84 455 0 654 0 5 0
86 430 0 679 0 3 0
88 409 0 710 0 1 0
90 387 0 730 0 5 0
92 370 0 752 0 0 0
94 358 0 750 0 4 0
96 340 0 756 0 3 0
98 320 0 770 0 6 0
100 307 0 784 0 7 0
102 293 0 804 0 4 0
104 282 0 818 0 1 0
106 271 0 814 0 4 0
108 256 0 835 0 4 0
110 245 0 849 0 5 0
112 240 0 849 0 4 0
114 230 0 862 0 3 0
116 220 0 869 0 4 0
118 210 0 877 0 7 0
120 203 0 891 0 4 0
122 193 0 903 0 5 0
124 183 0 912 0 6 0
126 174 0 925 0 3 0
128 168 0 934 0 2 0
130 162 0 945 0 4 0
132 149 1 954 0 1 0
134 142 0 967 0 8 0
136 130 0 980 0 3 0
138 127 0 993 0 3 0
140 123 0 984 0 1 0
142 116 0 985 0 4 0
144 112 0 986 0 4 0
146 109 0 992 0 2 0
148 103 0 1003 0 1 0
150 97 0 995 0 8 0
152 90 0 1014 0 3 0
154 83 0 1026 0 4 0
156 82 0 1029 0 4 0
158 79 0 1032 0 1 0
160 77 0 1040 0 1 0
162 69 0 1048 0 6 0
164 67 0 1063 0 2 0
166 62 0 1063 0 3 0
168 60 0 1062 0 5 0
170 59 0 1059 0 6 0
172 58 0 1064 0 8 0
174 55 0 1068 0 1 0
176 53 0 1061 0 1 0
178 52 0 1059 0 3 0
180 52 0 1058 0 6 0
182 48 0 1064 0 5 0
184 46 0 1058 0 5 0
186 45 0 1065 0 5 0
188 43 0 1064 0 4 0
190 43 0 1070 0 1 0
192 41 0 1080 0 5 0
194 41 0 1080 0 2 0
196 40 0 1083 0 3 0
198 36 0 1092 0 3 0
200 34 0 1095 0 1 1
