0 1274 0 0 0 0
2 954 4 0 297 0
4.00004 812 3 0 422 0
6 704 3 0 511 0
8 619 3 0 561 0
10 554 3 0 591 0
12 514 6 0 585 0
14 462 3 0 612 0
16 402 3 0 648 0
18 369 2 0 654 0
20 359 1 0 621 0
22 329 1 0 646 0
24 293 3 0 648 0
26 279 2 0 659 0
28 249 2 0 676 0
30 231 2 0 677 0
32 218 1 0 674 0
34 192 3 0 689 0
36 174 4 0 658 0
38 158 1 0 709 0
40 145 2 0 713 0
42 142 0 0 691 0
44 132 1 0 686 0
46 127 0 0 697 0
48 124 0 0 699 0
50 120 2 0 700 0
52 96 0 17 755 0
54 90 0 32 726 2
56 90 0 38 698 7
58 74 0 45 746 10
60 85 0 46 703 15
62 68 0 47 708 16
64 72 0 52 689 18
66 65 0 54 686 20
68 61 0 53 674 27
70 50 0 54 648 31
72 51 0 47 670 42
74 55 0 44 676 43
76 52 0 46 676 43
78 49 0 44 668 36
80 40 0 50 694 36
82 50 0 41 680 51
84 48 0 39 654 56
86 41 0 40 662 53
88 43 0 40 654 58
90 36 0 48 645 46
92 36 0 45 659 62
94 37 0 41 642 60
96 37 0 45 674 66
98 35 0 47 658 60
100 37 0 46 655 63
102 34 0 50 688 71
104 31 0 52 644 69
106 38 0 54 640 67
108 43 0 55 633 70
110 57 0 54 617 80
112 41 0 52 597 79
114 40 0 54 612 77
116 46 0 47 611 87
118 44 0 48 602 87
120 43 0 44 610 96
122 49 0 44 609 97
124 47 0 49 637 96
126 50 0 52 606 101
128 46 0 47 602 102
130 44 0 43 594 100
132 38 0 47 614 101
134 44 0 47 601 105
136 48 0 52 590 99
138 40 0 46 607 111
140 40 0 43 608 108
142 36 0 47 625 115
144 36 0 42 616 110
146 32 0 39 599 111
148 33 0 39 604 120
150 39 0 36 598 123
152 37 0 33 592 123
154 41 0 30 562 134
156 38 0 32 590 139
158 36 0 40 604 146
160 32 0 43 595 135
162 25 0 44 592 130
164 23 0 43 596 130
166 28 0 45 593 132
168 34 0 41 566 130
170 33 0 41 581 128
172 36 0 42 574 125
174 30 0 43 601 124
176 38 0 46 582 125
178 35 0 53 555 129
180 36 0 54 571 137
182 35 0 55 553 146
184 34 0 53 567 137
186 38 0 51 539 165
188 32 0 52 541 160
190 34 0 49 525 169
192 38 0 51 540 162
194 36 0 56 550 149
196 44 0 57 525 162
198 41 0 56 519 165
200 37 0 58 521 171
