0 1554 0 0 0 0
2 1223 9 0 326 0
4.00004 1095 8 0 422 0
6 999 6 0 493 0
8 907 7 0 569 0
10 833 5 0 608 0
12 764 11 0 622 0
14 709 3 0 639 0
16 664 7 0 655 0
18 607 5 0 678 0
20 567 3 0 677 0
22 535 1 0 666 0
24 496 3 0 696 0
26 468 2 0 693 0
28 455 6 0 692 0
30 431 3 0 689 0
32 402 3 0 681 0
34 368 4 0 725 0
36 337 1 0 750 0
38 308 3 0 762 0
40 297 2 0 740 0
42 290 1 0 742 0
44 272 5 0 732 0
46 252 1 0 721 0
48 248 4 0 736 0
50 258 1 0 731 0
52 213 0 30 774 2
54 183 0 45 720 10
56 169 0 63 728 12
58 150 0 73 719 19
60 143 0 81 727 29
62 136 0 84 692 33
64 119 0 96 696 35
66 117 0 101 680 39
68 105 0 106 667 51
70 115 0 106 704 52
72 116 0 112 690 49
74 95 0 117 706 62
76 100 0 112 669 63
78 97 0 119 651 70
80 90 0 113 650 84
82 85 0 115 670 75
84 86 0 112 641 86
86 85 0 110 648 86
88 73 0 112 643 98
90 66 0 108 629 98
92 68 0 103 622 105
94 76 0 98 644 102
96 79 0 106 654 108
98 66 0 111 619 114
100 74 0 116 618 107
102 73 0 116 623 116
104 67 0 108 644 123
106 71 0 105 632 127
108 72 0 109 598 115
110 74 0 103 596 138
112 64 0 99 616 139
114 66 0 100 625 143
116 72 0 92 618 152
118 67 0 102 620 148
120 68 0 98 610 158
122 69 0 94 590 164
124 65 0 89 624 152
126 82 0 96 603 156
128 77 0 90 596 170
130 78 0 97 590 162
132 72 0 98 566 160
134 73 1 103 585 168
136 81 0 93 604 181
138 76 0 100 568 175
140 69 0 100 574 181
142 76 0 101 557 185
144 74 0 93 570 205
146 70 0 97 559 197
148 65 0 104 540 202
150 66 0 93 539 209
152 64 0 102 544 193
154 64 0 99 555 206
156 65 0 109 570 221
158 66 0 109 557 211
160 59 0 110 554 213
162 61 0 108 533 206
164 59 0 113 525 202
166 51 0 103 531 208
168 55 0 106 511 228
170 49 0 113 503 208
172 57 0 108 523 211
174 61 0 107 555 221
176 58 0 110 539 222
178 61 0 102 516 226
180 68 0 98 538 248
182 58 0 97 530 257
184 57 0 95 537 245
186 61 0 95 532 249
188 48 0 95 528 248
190 44 0 97 519 248
192 40 0 91 520 266
194 55 0 93 505 257
196 54 0 99 504 263
198 46 0 105 533 250
200 51 0 104 482 245
