0 1406 0 0 0 0
2 1085 9 0 316 0
4.00004 959 6 0 422 0
6 862 7 0 465 0
8 792 4 0 488 0
10 729 2 0 508 0
12 661 3 0 581 0
14 606 2 0 573 0
16 551 0 0 610 0
18 516 2 0 576 0
20 481 4 0 582 0
22 440 3 0 579 0
24 417 0 0 590 0
26 382 3 0 607 0
28 349 2 0 555 0
30 329 1 0 565 0
32 298 1 0 568 0
34 272 2 0 596 0
36 255 1 0 597 0
38 244 1 0 574 0
40 206 2 0 576 0
42 206 0 0 570 0
44 197 0 0 548 0
46 187 2 0 550 0
48 176 2 0 550 0
50 174 0 0 567 0
52 134 0 21 558 1
54 130 0 29 560 4
56 106 0 43 578 10
58 94 0 51 565 10
60 71 0 61 556 15
62 75 0 65 512 17
64 64 0 67 525 23
66 61 0 63 525 31
68 48 0 72 512 28
70 52 0 72 498 32
72 51 0 63 554 40
74 51 0 68 524 29
76 54 0 63 520 43
78 53 0 64 496 41
80 53 0 64 527 44
82 54 0 77 499 41
84 48 0 75 531 43
86 50 0 73 497 44
88 54 0 76 469 41
90 53 0 66 468 53
92 40 0 64 487 51
94 41 0 60 467 56
96 45 0 60 481 55
98 47 0 58 477 52
100 40 1 54 495 59
102 38 0 54 472 57
104 40 0 53 496 51
106 35 0 55 476 55
108 34 0 51 490 64
110 33 0 50 489 61
112 36 0 48 500 67
114 40 1 44 500 67
116 39 0 46 497 71
118 32 0 50 506 75
120 33 0 52 513 63
122 34 0 51 522 74
124 32 0 54 511 67
126 25 0 49 490 78
128 25 0 49 482 76
130 29 0 49 487 78
132 27 0 47 456 78
134 36 0 43 456 79
136 43 0 48 479 72
138 43 0 47 490 75
140 36 0 49 481 76
142 38 0 48 449 73
144 38 0 54 448 88
146 43 0 53 476 84
148 33 0 58 486 79
150 31 0 51 508 85
152 36 0 50 454 88
154 43 0 56 448 75
156 45 0 56 461 75
158 45 0 54 488 90
160 40 0 54 456 111
162 38 0 60 441 103
164 36 0 54 448 116
166 34 0 54 438 112
168 34 0 48 452 114
170 39 0 55 474 105
172 50 0 57 458 101
174 49 0 56 458 104
176 57 0 54 432 121
178 47 0 56 423 121
180 39 0 68 431 94
182 40 0 64 449 111
184 42 0 64 453 105
186 29 0 68 443 104
188 32 0 65 412 118
190 28 0 65 427 106
192 30 0 58 444 106
194 41 0 61 440 109
196 44 0 63 416 107
198 51 0 56 412 98
200 49 0 56 434 117
