0 606 0 0 0 0
2 239 0 0 373 0
4.00004 152 0 0 507 0
6 108 0 0 575 0
8 84 0 0 626 0
10 57 0 0 677 0
12 41 0 0 703 0
14 38 0 0 723 0
16 53 0 0 775 0
18 54 0 0 817 0
20 49 0 0 845 0
22 43 0 0 883 0
24 43 0 0 904 0
26 54 0 0 918 0
28 57 0 0 918 0
30 55 0 0 941 0
32 47 0 0 953 0
34 42 0 0 971 0
36 41 0 0 993 0
38 42 0 0 994 0
40 51 0 0 1018 0
42 57 0 0 1019 0
44 62 0 0 1046 0
46 56 0 0 1087 0
48 58 0 0 1109 0
50 48 0 0 1147 0
52 49 0 0 1137 0
54 56 0 0 1138 0
56 61 0 0 1137 2
58 58 0 0 1133 4
60 53 0 1 1134 11
62 52 0 0 1139 18
64 45 0 1 1142 28
66 46 0 0 1125 34
68 48 0 0 1108 44
70 48 0 0 1131 54
72 58 0 1 1102 61
74 53 0 3 1128 70
76 52 0 1 1093 87
78 50 0 4 1090 94
80 44 0 3 1089 99
82 60 0 6 1081 110
84 57 0 2 1087 119
86 56 0 5 1085 132
88 57 0 2 1083 142
90 41 0 5 1061 146
92 60 0 8 1035 153
94 58 0 6 1020 162
96 52 0 4 1040 167
98 45 0 9 1051 178
100 44 0 6 1026 199
102 46 0 4 1002 199
104 49 0 2 1029 219
106 47 0 5 989 227
108 40 0 14 990 218
110 42 0 14 1002 229
112 44 0 10 984 234
114 41 0 11 988 250
116 39 0 5 980 263
118 33 0 7 977 268
120 48 0 8 940 274
122 44 0 11 962 279
124 32 0 15 955 287
126 40 0 16 935 304
128 40 0 14 932 317
130 38 0 15 917 306
132 35 0 20 922 313
134 36 0 18 910 310
136 30 0 13 929 317
138 28 0 14 937 336
140 44 0 13 889 341
142 36 0 14 892 340
144 45 0 23 869 342
146 45 0 20 844 340
148 43 0 19 830 363
150 38 0 22 820 373
152 33 0 23 814 368
154 42 0 17 833 390
156 40 0 16 801 408
158 33 0 15 802 416
160 34 0 26 797 413
162 26 0 22 817 408
164 21 0 21 816 409
166 37 0 25 789 403
168 34 0 30 772 405
170 31 0 28 780 421
172 33 0 20 775 421
174 32 0 18 778 437
176 32 0 19 768 449
178 30 0 16 759 470
180 33 0 17 763 485
182 38 0 21 734 477
184 37 0 23 733 479
186 34 0 24 734 495
188 21 0 21 752 514
190 25 0 15 745 518
192 35 0 30 710 516
194 34 0 30 704 535
196 37 0 29 708 540
198 31 0 26 717 557
200 22 0 27 704 542
