0 416 0 0 0 0
2 178 0 0 248 0
4.00004 119 0 0 319 0
6 79 0 0 383 0
8 66 0 0 409 0
10 55 0 0 443 0
12 61 0 0 484 0
14 56 0 0 510 0
16 45 0 0 544 0
18 52 0 0 571 0
20 53 0 0 592 0
22 54 0 0 632 0
24 50 0 0 650 0
26 41 0 0 716 0
28 47 0 0 740 0
30 42 0 0 769 0
32 48 0 0 765 0
34 50 0 0 766 0
36 46 0 0 806 0
38 49 0 0 834 0
40 60 0 0 836 0
42 59 0 0 835 0
44 57 0 0 831 0
46 56 0 0 889 0
48 48 0 0 871 0
50 58 0 0 891 0
52 61 0 0 921 0
54 55 0 0 893 1
56 63 0 0 921 3
58 51 0 0 937 2
60 54 0 0 958 6
62 52 0 1 968 8
64 48 0 2 971 10
66 49 0 0 982 12
68 50 0 0 957 23
70 54 0 0 970 19
72 56 0 2 957 28
74 49 0 0 957 35
76 46 0 0 984 42
78 70 0 3 933 45
80 70 0 2 974 52
82 70 0 3 947 55
84 60 0 4 950 54
86 65 0 4 950 60
88 54 0 3 936 75
90 49 0 2 914 71
92 50 0 1 915 81
94 50 0 4 913 89
96 51 0 2 920 87
98 50 0 7 895 92
100 49 0 9 896 93
102 53 0 7 877 107
104 57 0 6 882 116
106 49 0 8 863 128
108 50 0 9 861 129
110 56 0 5 842 130
112 50 0 11 845 130
114 48 0 8 871 136
116 50 0 14 853 142
118 47 0 12 856 149
120 45 0 15 850 163
122 39 0 7 850 173
124 42 0 11 828 179
126 30 0 13 850 180
128 47 0 11 829 203
130 46 0 7 853 203
132 57 0 9 813 213
134 59 0 12 801 210
136 57 0 15 793 209
138 45 0 12 793 215
140 43 0 13 823 226
142 43 0 16 790 214
144 45 0 18 791 216
146 41 0 24 793 214
148 47 0 20 800 235
150 44 0 16 815 241
152 40 0 21 792 240
154 50 0 20 801 244
156 42 0 19 780 249
158 48 0 18 767 253
160 46 0 8 756 264
162 41 0 12 767 272
164 46 0 12 757 264
166 37 0 14 769 265
168 47 0 11 738 273
170 51 0 14 727 285
172 54 0 11 719 294
174 37 0 14 741 296
176 48 0 16 728 301
178 43 0 13 704 303
180 37 0 19 700 294
182 39 0 20 729 312
184 43 0 17 694 315
186 42 0 27 688 324
188 39 0 23 677 338
190 49 0 22 655 336
192 49 0 19 694 327
194 40 0 16 693 334
196 36 0 15 692 333
198 38 0 25 666 330
200 49 0 21 671 360
