0 626 0 0 0 0
2 313 0 0 332 0
4.00004 209 0 0 454 0
6 172 0 0 510 0
8 128 0 0 589 0
10 133 0 0 619 0
12 124 0 0 671 0
14 126 0 0 697 0
16 123 0 0 724 0
18 121 0 0 754 0
20 132 0 0 787 0
22 112 0 0 812 0
24 126 0 0 830 0
26 125 0 0 835 0
28 130 0 0 843 0
30 144 0 0 846 0
32 145 0 0 862 0
34 142 0 0 874 0
36 144 0 0 920 0
38 152 0 0 880 0
40 138 0 0 902 0
42 152 0 0 915 0
44 150 0 0 931 0
46 117 0 0 959 0
48 136 0 0 941 0
50 140 0 0 938 0
52 148 0 0 884 0
54 123 0 0 927 0
56 121 0 0 946 0
58 120 0 0 902 3
60 147 0 0 901 3
62 128 0 0 926 7
64 120 0 0 939 10
66 128 0 1 934 12
68 119 0 1 950 15
70 121 0 3 976 17
72 139 0 2 932 17
74 139 0 4 918 21
76 134 0 1 921 27
78 129 0 3 931 40
80 119 0 4 915 42
82 136 0 4 898 40
84 130 0 5 925 43
86 137 0 6 911 50
88 120 0 3 925 57
90 119 0 7 935 64
92 124 0 11 909 54
94 108 0 10 938 64
96 122 0 11 884 61
98 119 0 9 900 72
100 116 0 9 899 75
102 127 0 10 848 72
104 118 0 10 896 80
106 120 0 9 887 85
108 117 0 7 889 86
110 126 0 8 878 80
112 128 0 8 905 90
114 128 0 12 887 90
116 136 0 11 873 89
118 125 0 8 890 96
120 117 0 6 886 98
122 119 0 10 877 95
124 119 0 13 841 98
126 127 0 15 852 97
128 146 0 16 837 104
130 125 0 16 865 113
132 129 0 11 842 118
134 133 0 12 839 119
136 112 0 9 864 126
138 124 0 13 841 118
140 110 0 13 848 130
142 106 0 13 828 130
144 117 0 15 825 139
146 126 0 13 833 147
148 117 0 18 830 139
150 137 0 19 807 141
152 143 0 20 803 149
154 118 0 16 850 149
156 113 0 21 827 140
158 126 0 26 793 129
160 111 0 15 817 152
162 115 0 16 817 161
164 112 0 15 816 165
166 116 0 24 804 158
168 116 0 18 820 175
170 122 0 19 796 180
172 112 0 26 807 178
174 103 0 24 792 183
176 116 0 22 785 186
178 106 0 24 819 179
180 122 0 24 778 178
182 121 0 22 793 175
184 118 0 19 778 194
186 122 0 25 795 165
188 105 0 30 810 170
190 120 0 22 807 174
192 119 0 23 785 182
194 103 0 26 787 193
196 122 0 26 779 185
198 134 0 21 771 193
200 123 0 30 781 179
