0 1227 0 0 0 0
2 929 8 0 288 0
4.00004 822 2 0 401 0
6 720 8 0 490 0
8 615 6 0 619 0
10 533 5 0 656 0
12 495 3 0 670 0
14 447 4 0 725 0
16 409 0 0 739 0
18 364 2 0 773 0
20 331 2 0 798 0
22 323 1 0 816 0
24 296 2 0 805 0
26 280 2 0 819 0
28 259 0 0 820 0
30 237 2 0 837 0
32 230 2 0 853 0
34 223 2 0 808 0
36 198 0 0 823 0
38 181 2 0 811 0
40 190 0 0 826 0
42 197 1 0 801 0
44 192 1 0 776 0
46 182 2 0 813 0
48 176 1 0 812 0
50 173 1 0 811 0
52 150 0 19 814 5
54 136 1 36 800 5
56 133 0 43 772 17
58 118 0 43 795 26
60 119 0 44 800 36
62 103 0 49 779 43
64 109 0 53 749 42
66 107 0 59 766 41
68 111 0 62 760 55
70 103 0 56 723 63
72 90 0 67 725 61
74 97 0 65 720 64
76 95 0 68 706 69
78 91 0 74 709 70
80 88 0 82 730 74
82 73 0 74 751 83
84 62 0 69 740 93
86 64 0 66 744 99
88 64 1 67 726 98
90 67 0 67 722 100
92 82 0 66 714 112
94 80 0 64 697 115
96 72 0 67 690 118
98 76 0 62 662 128
100 75 0 68 636 119
102 71 0 71 645 121
104 63 0 79 667 127
106 72 0 75 636 127
108 79 0 73 642 141
110 70 0 71 658 148
112 71 0 67 637 158
114 76 0 68 641 169
116 65 0 63 645 164
118 68 0 64 628 156
120 56 0 63 647 154
122 69 0 58 634 156
124 62 0 71 675 144
126 66 1 62 649 154
128 63 0 67 638 149
130 58 0 78 604 151
132 54 0 75 625 161
134 63 0 70 622 169
136 63 0 80 610 167
138 59 0 76 606 182
140 57 0 75 586 200
142 59 0 70 606 192
144 53 0 63 610 202
146 64 0 68 605 179
148 52 0 64 603 209
150 63 0 66 590 193
152 62 0 67 590 207
154 56 0 74 571 211
156 53 0 73 596 214
158 54 0 76 600 206
160 45 0 80 584 200
162 48 0 76 582 223
164 47 0 69 571 220
166 59 0 76 578 237
168 61 0 72 560 234
170 55 0 82 571 238
172 47 0 91 579 234
174 48 0 82 546 235
176 50 0 87 568 228
178 58 0 86 554 239
180 63 0 85 544 246
182 56 0 89 556 241
184 58 0 87 573 242
186 65 0 79 537 250
188 55 0 97 570 245
190 61 0 88 553 260
192 57 0 91 514 255
194 53 0 88 494 261
196 56 0 89 501 281
198 54 0 80 516 269
200 54 0 86 503 281
