0 1270 0 0 0 0 903
2 1252 8 0 26 0 910
4.00004 1271 9 0 19 0 885
6 1285 4 0 29 0 896
8 1287 8 0 29 0 871
10 1303 7 0 24 0 886
12 1318 5 0 27 0 897
14 1324 6 0 19 0 877
16 1306 11 0 32 0 885
18 1330 8 0 21 0 910
20 1340 3 0 25 0 905
22 1336 6 0 23 0 895
24 1346 5 0 22 0 852
26 1358 7 0 22 0 912
28 1362 9 0 24 0 907
30 1378 7 0 21 0 905
32 1393 8 0 19 0 914
34 1388 7 0 21 0 911
36 1385 7 0 25 0 892
38 1382 6 0 36 0 902
40 1386 11 0 30 0 897
42 1384 11 0 24 0 930
44 1401 8 0 24 0 903
46 1413 7 0 15 0 891
48 1414 8 0 32 0 873
50 1431 8 0 24 0 890
52 1253 0 196 16 0 912
54 1133 0 322 18 3 879
56 1020 0 445 17 3 892
58 931 0 541 10 4 861
60 859 0 620 17 3 882
62 788 0 694 14 5 915
64 707 0 773 15 7 882
66 633 1 836 16 10 886
68 588 0 897 10 6 895
70 523 0 958 7 11 897
72 483 0 999 12 14 884
74 446 0 1035 9 18 894
76 433 0 1058 9 12 897
78 389 0 1100 6 10 891
80 362 1 1121 7 20 911
82 337 0 1154 13 12 920
84 323 0 1168 8 13 911
86 295 1 1180 5 22 916
88 269 0 1217 6 15 898
90 249 0 1234 3 23 915
92 225 0 1254 5 20 911
94 209 1 1277 3 25 876
96 205 0 1293 2 21 877
98 189 0 1298 7 24 894
100 183 0 1318 1 17 922
102 166 0 1327 2 23 913
104 158 0 1344 6 20 923
106 156 0 1357 1 19 883
108 137 0 1366 5 20 895
110 130 0 1367 5 18 906
112 126 0 1374 6 20 910
114 122 0 1382 4 21 914
116 111 0 1391 2 25 882
118 108 0 1402 1 19 883
120 102 0 1413 3 14 917
122 96 0 1422 2 19 919
124 93 0 1433 3 21 879
126 89 0 1439 1 21 905
128 88 0 1428 0 26 887
130 80 0 1432 1 23 896
132 79 0 1446 1 14 863
134 75 0 1430 2 24 895
136 74 0 1439 2 27 905
138 71 0 1446 2 22 903
140 73 0 1445 1 26 897
142 71 0 1441 0 24 918
144 64 0 1441 2 26 921
146 65 0 1443 0 24 934
148 64 0 1436 1 27 915
150 63 0 1458 2 13 890
152 61 0 1449 2 26 887
154 55 0 1459 0 16 887
156 57 0 1462 0 15 894
158 53 0 1455 0 30 870
160 53 0 1453 0 23 900
162 49 0 1457 1 29 867
164 47 0 1467 1 16 915
166 45 0 1467 2 21 929
168 38 0 1474 0 21 894
170 40 0 1480 0 22 907
172 34 0 1488 2 19 911
174 32 0 1483 1 24 887
176 26 0 1485 2 24 899
178 27 0 1487 0 28 925
180 24 0 1491 0 19 894
182 25 0 1480 0 28 873
184 24 0 1493 0 20 929
186 22 0 1499 0 19 915
188 19 0 1513 1 14 935
190 17 0 1498 1 19 882
192 17 0 1501 0 23 919
194 17 0 1497 0 25 899
196 15 0 1507 1 22 900
198 16 0 1509 0 18 908
200 15 0 1505 1 23 893
