0 1253 0 0 0 0 934
2 1221 6 0 20 0 893
4.00004 1219 10 0 18 0 912
6 1214 3 0 20 0 904
8 1208 9 0 15 0 918
10 1213 5 0 11 0 914
12 1198 5 0 22 0 914
14 1200 8 0 14 0 892
16 1198 6 0 21 0 895
18 1200 8 0 11 0 887
20 1204 5 0 19 0 919
22 1193 9 0 27 0 898
24 1193 14 0 22 0 887
26 1207 7 0 20 0 915
28 1205 4 0 27 0 876
30 1203 8 0 29 0 904
32 1219 3 0 24 0 880
34 1224 5 0 19 0 885
36 1229 7 0 14 0 916
38 1225 6 0 13 0 902
40 1211 5 0 20 0 889
42 1190 8 0 25 0 927
44 1200 5 0 19 0 941
46 1192 6 0 16 0 906
48 1186 4 0 25 0 911
50 1181 10 0 20 0 885
52 1031 1 157 25 2 907
54 911 0 269 23 4 901
56 830 1 361 15 1 903
58 748 0 445 16 8 902
60 675 0 508 12 6 925
62 595 0 576 9 9 902
64 530 1 638 5 10 898
66 478 1 682 10 15 910
68 447 0 715 8 12 894
70 401 0 759 10 15 898
72 370 0 794 7 11 922
74 341 0 827 6 10 893
76 324 0 841 5 12 894
78 286 0 878 6 16 901
80 267 0 900 6 12 902
82 245 0 917 7 15 899
84 219 0 941 11 13 889
86 205 0 958 6 9 900
88 186 0 971 2 14 898
90 161 0 994 5 14 888
92 162 0 1001 5 14 880
94 153 0 1004 5 17 873
96 151 0 1009 5 12 910
98 144 0 1014 2 14 904
100 134 0 1022 8 15 897
102 124 0 1027 5 18 899
104 119 0 1032 3 17 916
106 112 0 1032 6 16 900
108 109 0 1032 5 22 938
110 112 0 1032 0 25 901
112 111 0 1036 3 20 877
114 105 0 1048 5 12 882
116 108 0 1037 3 18 951
118 103 0 1041 3 17 936
120 106 0 1038 3 15 903
122 98 0 1053 3 13 920
124 98 0 1049 0 22 898
126 90 0 1053 2 21 889
128 86 0 1060 2 12 875
130 80 0 1057 2 24 889
132 79 0 1070 2 15 869
134 73 0 1074 2 14 913
136 67 0 1087 2 11 911
138 66 0 1092 2 14 950
140 58 0 1093 1 16 899
142 55 0 1090 2 20 871
144 62 0 1091 2 17 865
146 56 0 1097 4 18 905
148 65 0 1087 1 23 893
150 55 0 1090 1 13 916
152 55 0 1085 1 23 888
154 56 0 1088 1 15 895
156 56 0 1076 4 26 908
158 53 0 1096 4 19 906
160 55 0 1092 3 23 886
162 56 0 1091 3 16 901
164 55 0 1082 1 19 886
166 54 0 1099 2 12 889
168 52 0 1092 3 28 925
170 52 0 1109 3 16 912
172 53 0 1112 3 9 912
174 55 0 1105 2 15 889
176 52 0 1111 3 10 896
178 46 0 1115 1 15 901
180 47 0 1108 1 18 923
182 51 0 1108 1 17 873
184 51 0 1104 1 17 922
186 46 0 1104 0 19 911
188 45 0 1103 1 13 892
190 48 0 1096 2 21 914
192 41 0 1098 0 19 899
194 40 0 1091 1 25 922
196 36 0 1081 2 20 899
198 36 0 1083 1 19 894
200 38 0 1082 2 24 884
