0 647 0 0 0 0 866
2 639 0 0 14 0 907
4.00004 631 0 0 22 0 888
6 643 0 0 20 0 896
8 646 0 0 22 0 882
10 650 0 0 21 0 886
12 645 0 0 30 0 886
14 654 0 0 24 0 908
16 651 0 0 24 0 905
18 661 0 0 20 0 913
20 649 0 0 23 0 881
22 654 0 0 17 0 902
24 649 0 0 22 0 913
26 642 0 0 24 0 885
28 641 0 0 23 0 924
30 631 0 0 29 0 896
32 628 0 0 26 0 920
34 633 0 0 19 0 915
36 630 0 0 20 0 884
38 630 0 0 26 0 898
40 632 0 0 32 0 911
42 660 0 0 17 0 873
44 648 0 0 28 0 859
46 661 0 0 25 0 894
48 660 0 0 25 0 889
50 665 0 0 24 0 915
52 653 0 1 29 1 893
54 672 0 2 19 0 899
56 661 0 5 26 0 897
58 657 0 10 15 1 898
60 660 0 20 19 0 875
62 664 0 29 18 0 898
64 664 0 29 16 7 902
66 655 0 40 17 2 890
68 642 0 47 27 2 906
70 630 0 54 29 2 902
72 632 0 62 21 3 878
74 627 0 69 16 4 907
76 613 0 76 22 7 906
78 605 0 87 19 3 899
80 597 0 97 18 3 898
82 598 0 103 11 4 901
84 579 0 109 21 7 911
86 584 0 121 10 7 900
88 564 0 130 26 7 902
90 563 0 139 21 3 912
92 548 0 146 18 6 920
94 542 0 156 16 7 927
96 532 0 167 15 9 890
98 536 0 178 7 5 896
100 513 0 185 19 4 903
102 517 0 188 11 10 901
104 503 0 201 17 8 884
106 492 0 218 20 4 900
108 490 0 219 13 10 862
110 477 0 226 18 10 899
112 468 0 232 14 16 923
114 459 0 251 12 8 918
116 451 0 262 11 10 849
118 438 0 268 22 8 864
120 435 0 275 15 13 897
122 427 0 280 14 12 880
124 421 0 285 13 12 902
126 414 0 301 13 6 911
128 413 0 307 10 10 925
130 407 0 299 12 19 911
132 404 0 308 8 14 931
134 396 0 313 12 16 887
136 392 0 322 11 8 889
138 389 0 315 7 15 850
140 389 0 326 9 8 901
142 377 0 329 14 13 929
144 367 0 338 13 10 935
146 361 0 339 13 12 895
148 355 0 348 11 10 907
150 352 0 363 10 16 884
152 348 0 359 8 21 912
154 338 0 376 11 15 905
156 333 0 388 8 9 892
158 328 0 378 7 15 894
160 316 0 381 15 15 914
162 312 0 402 12 8 899
164 312 0 399 9 23 914
166 310 0 407 5 11 911
168 300 0 404 10 11 875
170 292 0 404 15 9 888
172 288 0 408 14 13 888
174 284 0 415 14 10 911
176 283 0 418 11 12 904
178 282 0 423 7 11 899
180 278 0 427 8 13 877
182 270 0 421 10 22 927
184 270 0 434 7 16 878
186 267 0 443 7 14 889
188 266 0 445 6 21 908
190 255 0 460 7 11 886
192 252 0 455 9 26 901
194 248 0 464 9 22 878
196 250 0 489 6 16 901
198 246 0 490 5 20 906
200 232 0 492 12 18 916
