0 1444 0 0 0 0 897
2 1389 12 0 12 0 925
4.00004 1358 5 0 11 0 864
6 1340 7 0 10 0 911
8 1328 7 0 14 0 906
10 1314 6 0 15 0 934
12 1308 5 0 20 0 875
14 1312 2 0 17 0 901
16 1301 12 0 10 0 857
18 1303 5 0 10 0 905
20 1294 5 0 12 0 908
22 1284 11 0 14 0 898
24 1286 5 0 9 0 904
26 1279 6 0 14 0 900
28 1276 4 0 11 0 904
30 1271 12 0 11 0 934
32 1287 3 0 11 0 918
34 1275 3 0 15 0 886
36 1260 9 0 10 0 912
38 1257 5 0 12 0 908
40 1241 8 0 8 0 910
42 1241 10 0 10 0 879
44 1252 3 0 11 0 875
46 1233 8 0 14 0 880
48 1237 7 0 8 0 912
50 1230 4 0 13 0 884
52 1108 0 120 11 0 891
54 1003 0 221 11 0 902
56 916 0 305 11 0 896
58 846 1 381 10 0 905
60 788 0 448 5 2 886
62 724 0 514 7 4 906
64 669 0 574 8 4 919
66 607 1 634 12 1 921
68 575 0 658 18 4 903
70 521 1 715 10 5 926
72 493 0 747 8 1 896
74 449 0 783 9 4 915
76 425 0 817 10 1 900
78 408 0 827 4 7 877
80 379 0 850 6 5 927
82 360 1 860 2 5 899
84 325 1 892 7 5 924
86 295 1 911 6 8 898
88 281 0 924 8 9 900
90 261 0 946 5 7 895
92 243 0 954 4 6 897
94 222 0 968 2 7 882
96 218 0 969 7 10 930
98 201 0 999 7 5 925
100 202 0 999 6 7 898
102 195 0 1013 1 5 910
104 180 0 1024 2 7 904
106 173 0 1026 2 9 913
108 172 0 1039 3 6 906
110 168 0 1039 3 10 925
112 157 0 1054 6 2 906
114 169 0 1036 3 9 882
116 165 0 1040 4 7 908
118 164 0 1033 5 11 915
120 163 0 1030 6 9 888
122 159 0 1048 2 6 908
124 156 0 1051 3 5 905
126 153 0 1054 3 9 915
128 140 0 1059 5 13 897
130 129 0 1067 2 4 905
132 127 0 1060 3 7 862
134 123 0 1067 3 3 919
136 117 0 1069 3 9 903
138 120 0 1080 5 6 904
140 110 1 1085 2 7 917
142 102 0 1099 1 14 915
144 103 1 1098 2 12 902
146 98 0 1089 3 10 877
148 99 0 1097 4 9 899
150 104 0 1094 2 19 902
152 95 0 1101 5 11 898
154 87 0 1115 0 10 913
156 86 0 1111 2 12 908
158 87 0 1127 2 10 902
160 73 0 1139 0 7 914
162 74 0 1136 1 5 907
164 78 0 1131 1 12 932
166 72 0 1131 1 13 889
168 71 0 1133 1 11 901
170 67 0 1138 0 13 875
172 60 0 1139 7 6 877
174 61 0 1132 2 13 912
176 63 0 1130 2 13 878
178 66 0 1131 1 8 873
180 61 0 1139 0 4 898
182 54 0 1144 1 8 878
184 50 0 1135 0 11 916
186 47 0 1124 1 15 919
188 47 0 1125 1 8 899
190 47 0 1124 1 12 904
192 46 0 1127 0 10 894
194 45 0 1119 1 11 892
196 35 0 1135 0 8 925
198 33 0 1132 2 7 898
200 39 0 1131 0 14 909
