0 1418 0 0 0 0 884
2 1444 4 0 28 0 901
4.00004 1477 10 0 28 0 866
6 1526 13 0 23 0 881
8 1555 11 0 29 0 883
10 1585 16 0 20 0 871
12 1596 11 0 32 0 888
14 1625 10 0 27 0 887
16 1651 12 0 29 0 896
18 1679 12 0 19 0 911
20 1687 11 0 26 0 909
22 1691 15 0 23 0 898
24 1710 7 0 23 0 893
26 1718 14 0 21 0 862
28 1722 21 0 19 0 880
30 1734 12 0 17 0 906
32 1737 10 0 19 0 881
34 1743 14 0 15 0 953
36 1750 11 0 24 0 891
38 1754 11 0 20 0 893
40 1750 8 0 20 0 886
42 1752 13 0 18 0 888
44 1759 10 0 21 0 889
46 1755 12 0 21 0 898
48 1755 10 0 31 0 892
50 1781 7 0 17 0 911
52 1524 1 260 18 0 954
54 1349 0 423 27 3 885
56 1194 0 591 13 4 892
58 1060 0 721 13 8 885
60 944 1 834 9 13 924
62 845 1 932 13 8 860
64 748 0 1021 8 16 874
66 671 0 1104 8 6 882
68 609 0 1158 15 16 927
70 545 0 1241 9 10 907
72 481 0 1309 4 13 896
74 427 0 1347 4 18 908
76 377 0 1389 2 15 903
78 339 0 1433 3 20 906
80 295 0 1472 6 17 895
82 260 0 1506 3 15 924
84 242 0 1534 1 14 896
86 206 0 1558 6 20 889
88 191 0 1581 1 11 884
90 175 0 1586 3 16 909
92 153 0 1606 2 18 896
94 140 0 1619 1 19 889
96 132 0 1634 2 23 904
98 119 1 1660 0 22 890
100 111 0 1662 0 22 907
102 97 0 1676 3 19 899
104 88 0 1692 1 18 907
106 81 0 1710 1 16 909
108 76 0 1718 2 17 897
110 71 0 1729 2 14 908
112 67 0 1727 1 16 902
114 58 0 1727 1 24 932
116 51 0 1736 1 15 892
118 46 0 1742 0 13 904
120 37 0 1738 2 28 923
122 36 0 1741 0 20 910
124 32 0 1739 0 26 902
126 30 0 1741 0 29 902
128 26 0 1745 0 23 883
130 27 0 1745 0 28 914
132 24 0 1758 2 20 864
134 24 0 1765 0 17 881
136 21 0 1760 0 24 902
138 18 0 1777 1 18 928
140 19 0 1765 0 25 909
142 17 0 1769 0 19 881
144 16 0 1772 0 15 913
146 14 0 1761 0 21 894
148 14 0 1759 0 29 906
150 13 0 1756 0 32 915
152 13 0 1764 0 28 872
154 12 0 1762 1 29 908
156 11 0 1773 0 20 906
158 10 0 1787 1 20 901
160 8 0 1779 0 24 861
162 8 0 1790 0 18 884
164 8 0 1777 0 26 884
166 6 0 1772 0 28 912
168 4 0 1790 0 19 890
170 2 0 1788 0 17 895
172 2 0 1790 0 17 909
174 1 0 1783 0 21 893
176 0 0 1786 0 14 933
178 0 0 1779 0 21 886
180 0 0 1777 0 18 893
182 0 0 1774 0 19 883
184 0 0 1788 0 19 888
186 1 0 1784 0 21 886
188 1 0 1781 0 20 889
190 1 0 1780 0 24 908
192 1 0 1778 0 21 935
194 0 0 1784 0 19 881
196 0 0 1784 0 24 892
198 0 0 1790 0 16 889
200 0 0 1784 0 29 888
