0 110 0 0 0 70
2 97 0 12 0 63
4.00004 102 0 8 0 59
6 103 0 7 0 51
8 104 0 6 0 60
10 98 0 13 0 53
12 94 11 9 0 66
14 89 20 6 0 73
16 80 30 5 0 61
18 72 36 6 1 61
20 63 45 5 2 64
22 56 49 7 3 58
24 46 57 9 3 62
26 44 62 4 4 72
28 45 64 2 3 56
30 38 71 4 1 60
32 38 64 1 11 56
34 34 70 2 8 65
36 29 75 3 8 64
38 23 77 7 9 56
40 25 77 5 10 58
42 22 80 4 10 76
44 19 83 3 11 52
46 17 89 1 9 59
48 12 90 1 12 70
50 10 98 3 5 55
52 7 93 4 12 70
54 9 96 2 9 62
56 11 93 0 12 65
58 8 96 3 9 58
60 8 90 1 17 66
62 6 99 0 11 66
64 4 99 1 13 48
66 6 99 1 11 73
68 4 98 1 14 66
70 4 103 1 9 55
72 1 102 1 11 69
74 1 94 0 20 59
76 1 102 0 12 63
78 1 97 0 17 66
80 1 100 0 14 61
82 1 102 0 12 69
84 1 108 0 6 64
86 1 107 3 6 67
88 2 110 1 3 69
90 2 106 0 8 58
92 3 104 0 10 49
94 0 105 2 10 71
96 0 108 2 7 57
98 2 109 0 6 65
100 2 107 0 7 61
102 2 100 0 14 73
104 2 109 0 5 53
106 2 106 0 8 61
108 1 106 0 9 67
110 1 101 0 14 62
112 1 102 0 13 72
114 0 103 0 13 64
116 0 107 0 9 69
118 0 107 1 9 66
120 1 107 0 9 65
122 1 103 0 13 69
124 1 112 0 4 64
126 1 106 0 9 61
128 1 106 0 9 70
130 1 110 0 5 71
132 1 110 0 5 54
134 1 107 0 8 61
136 1 106 0 9 69
138 1 108 0 8 57
140 1 105 0 10 68
142 1 102 0 13 65
144 2 98 0 17 54
146 1 99 2 16 68
148 1 101 2 12 68
150 3 98 0 15 59
152 2 105 1 8 60
154 4 98 0 15 66
156 2 102 1 12 51
158 3 108 0 7 63
160 3 108 0 7 62
162 3 106 0 9 65
164 1 104 2 11 62
166 2 104 1 9 62
168 1 100 1 14 67
170 3 105 1 8 63
172 2 106 2 7 65
174 3 110 1 5 69
176 2 106 2 8 57
178 3 102 1 12 52
180 3 102 1 13 58
182 4 103 0 12 63
184 2 107 0 10 71
186 2 107 1 10 57
188 3 101 1 16 55
190 4 106 0 11 64
192 4 102 1 15 70
194 4 105 0 13 61
196 3 101 0 18 64
198 3 107 0 12 61
200 3 105 0 13 60
202 3 103 0 15 55
204 2 104 2 14 66
206 3 104 1 14 65
208 2 102 2 16 65
210 4 109 0 9 57
