0 29 0 0 0 63
2 24 0 7 0 62
4.00004 20 0 11 0 62
6 27 0 6 0 68
8 25 0 8 0 70
10 24 0 10 0 56
12 23 0 11 0 59
14 22 0 11 0 62
16 17 0 15 0 59
18 21 0 12 0 63
20 29 0 5 0 56
22 24 0 10 0 53
24 23 0 11 0 68
26 25 0 9 0 65
28 28 0 5 0 64
30 28 2 5 0 67
32 21 2 12 0 70
34 22 2 11 0 60
36 22 2 11 0 68
38 25 2 8 0 58
40 21 2 12 0 62
42 20 2 13 0 55
44 24 2 9 0 70
46 22 1 11 1 59
48 21 2 12 0 59
50 28 2 5 0 73
52 26 1 7 1 67
54 23 2 10 0 60
56 24 2 8 0 57
58 22 2 10 0 60
60 27 1 5 2 55
62 27 2 5 2 68
64 25 1 7 3 57
66 20 3 12 1 74
68 23 2 9 2 66
70 25 2 7 2 61
72 23 3 8 2 67
74 25 1 6 4 67
76 25 4 6 1 65
78 23 3 8 3 67
80 24 4 7 2 49
82 21 5 10 1 70
84 21 2 10 4 61
86 23 2 8 4 72
88 23 5 8 1 54
90 22 3 9 4 62
92 19 5 11 3 60
94 22 8 8 1 73
96 20 8 10 2 55
98 23 7 7 3 66
100 20 6 10 4 59
102 22 7 8 3 59
104 23 9 7 1 64
106 18 9 12 1 60
108 20 10 7 0 69
110 21 9 5 1 63
112 17 8 9 2 60
114 18 8 8 2 64
116 20 8 6 2 57
118 22 9 3 2 58
120 20 6 5 5 73
122 19 6 6 5 55
124 20 9 5 2 63
126 17 8 8 3 62
128 19 8 6 3 61
130 19 6 6 5 53
132 21 7 4 4 57
134 20 9 5 2 77
136 22 9 3 4 63
138 19 9 6 4 76
140 17 11 8 2 63
142 20 11 4 2 51
144 22 13 3 1 60
146 20 9 5 5 69
148 20 11 5 3 66
150 20 8 5 6 65
152 18 10 7 4 71
154 21 11 4 3 60
156 17 12 7 3 68
158 19 12 5 3 62
160 22 9 2 6 68
162 16 10 8 5 53
164 17 13 7 2 69
166 17 14 7 1 57
168 14 8 10 7 73
170 16 12 8 3 66
172 16 13 8 2 60
174 20 14 4 2 54
176 17 13 7 3 67
178 21 13 2 3 68
180 17 12 6 5 61
182 17 14 6 3 63
184 16 15 7 2 63
186 18 16 5 3 59
188 17 14 6 5 62
190 19 15 4 4 62
192 19 15 4 4 66
194 17 15 6 5 65
196 14 13 9 7 61
198 18 19 5 1 72
200 21 21 2 2 75
202 17 18 6 5 57
204 18 17 5 6 60
206 17 18 6 6 64
208 18 20 5 4 63
210 14 18 9 6 71
