0 21 0 0 0 67
2 17 0 5 0 55
4.00004 17 0 5 0 61
6 15 0 7 0 63
8 16 0 6 0 66
10 17 0 5 0 63
12 17 0 5 0 63
14 17 0 5 0 61
16 18 0 4 0 65
18 16 0 6 0 49
20 16 0 6 0 70
22 18 0 4 0 67
24 14 0 8 0 55
26 14 0 8 0 68
28 16 0 6 0 58
30 16 1 6 0 66
32 15 1 6 0 66
34 14 1 6 0 74
36 12 1 8 0 57
38 18 1 2 0 62
40 17 1 3 0 65
42 18 1 2 0 62
44 8 1 12 0 59
46 13 1 7 0 58
48 14 0 5 1 72
50 14 0 5 1 56
52 15 1 4 0 62
54 14 1 5 0 77
56 17 0 2 2 70
58 13 1 6 1 49
60 14 0 5 2 62
62 17 2 2 0 53
64 12 1 7 1 56
66 13 2 5 0 75
68 12 2 6 0 64
70 13 2 5 0 68
72 15 2 3 1 62
74 14 3 4 0 60
76 14 3 4 0 56
78 17 2 1 1 62
80 10 3 8 1 66
82 14 3 4 1 70
84 13 4 5 0 58
86 15 2 3 2 54
88 13 3 5 1 57
90 10 4 8 0 59
92 13 3 5 1 64
94 13 3 5 1 60
96 15 3 3 1 61
98 14 4 4 0 62
100 14 3 4 1 73
102 18 4 0 0 63
104 14 3 4 1 65
106 15 4 3 0 67
108 14 4 4 0 57
110 12 4 6 0 59
112 13 3 5 1 50
114 14 2 4 1 65
116 12 2 6 3 52
118 13 5 5 0 64
120 14 4 3 1 61
122 12 4 5 2 71
124 13 4 4 3 57
126 12 5 5 2 62
128 13 7 4 0 67
130 12 6 5 1 65
132 11 6 6 1 73
134 11 6 6 1 60
136 12 7 5 0 56
138 15 3 2 3 71
140 13 6 3 2 65
142 12 8 4 0 63
144 12 9 4 1 69
146 12 7 4 3 60
148 10 9 6 1 66
150 14 8 2 2 62
152 11 7 5 3 72
154 7 9 9 1 68
156 14 9 2 1 61
158 12 7 4 3 60
160 11 9 5 1 70
162 10 8 6 2 68
164 15 8 1 2 62
166 8 9 8 1 73
168 11 7 4 4 62
170 11 9 4 5 61
172 11 10 4 4 58
174 9 12 5 2 71
176 12 12 2 2 70
178 12 10 2 5 62
180 10 9 3 6 68
182 8 11 5 4 54
184 9 8 4 7 66
186 10 10 3 4 68
188 9 9 4 5 57
190 10 9 3 4 71
192 10 11 2 3 66
194 7 9 3 5 64
196 6 12 5 3 60
198 8 13 3 2 67
200 9 10 2 5 63
202 10 11 1 4 58
204 6 12 5 3 66
206 7 14 4 1 53
208 7 14 4 2 55
210 7 13 4 3 62
