0 111 0 0 0 75
2 105 0 6 0 68
4.00004 105 0 6 0 61
6 103 0 8 0 66
8 107 0 4 0 60
10 101 0 10 0 68
12 96 10 5 0 60
14 86 15 9 1 62
16 76 24 10 1 72
18 69 36 6 0 68
20 68 38 3 2 62
22 60 39 9 3 67
24 59 46 5 1 69
26 55 49 4 3 65
28 46 58 6 1 63
30 45 54 5 7 63
32 45 59 2 5 63
34 41 62 4 4 64
36 36 68 2 5 64
38 33 68 3 7 67
40 31 75 1 4 64
42 28 77 2 4 53
44 26 82 1 2 64
46 23 80 3 5 57
48 19 82 3 7 57
50 15 86 3 7 63
52 14 90 3 4 69
54 13 91 2 5 52
56 10 89 3 9 65
58 10 95 1 5 64
60 8 93 3 7 61
62 8 95 1 7 58
64 9 96 0 6 60
66 9 92 0 10 73
68 8 91 1 11 68
70 6 94 2 9 63
72 7 93 0 11 63
74 3 99 3 6 64
76 4 99 2 6 58
78 5 99 0 7 68
80 5 96 0 10 64
82 4 99 1 7 64
84 3 104 1 3 69
86 3 96 1 11 65
88 4 99 0 8 62
90 2 100 1 8 53
92 2 96 1 12 66
94 2 94 1 14 57
96 3 98 0 10 71
98 3 95 0 13 68
100 2 96 0 13 65
102 2 103 0 6 64
104 2 101 0 8 60
106 2 101 0 8 67
108 2 102 0 7 63
110 1 105 0 5 62
112 0 102 1 8 71
114 0 101 1 9 64
116 0 100 1 10 65
118 1 101 0 9 54
120 1 97 0 13 60
122 1 102 0 8 59
124 0 97 1 13 60
126 0 103 1 7 68
128 1 97 0 13 59
130 1 98 0 12 63
132 1 105 0 5 66
134 1 101 0 9 52
136 0 103 0 8 61
138 0 102 0 9 69
140 0 100 0 11 58
142 0 98 0 13 63
144 0 105 0 6 64
146 0 101 0 10 63
148 0 104 0 7 69
150 0 102 0 9 60
152 0 101 0 10 73
154 0 106 0 5 70
156 0 99 0 12 57
158 0 105 0 6 58
160 0 102 0 9 67
162 0 104 0 7 77
164 0 100 0 11 67
166 0 102 0 9 59
168 0 105 0 6 60
170 0 97 0 14 59
172 0 105 0 6 64
174 0 103 0 8 67
176 0 106 0 5 57
178 0 101 0 10 60
180 0 98 0 13 62
182 0 104 0 7 56
184 0 103 0 8 62
186 0 105 0 6 64
188 0 102 0 9 52
190 0 105 0 6 61
192 0 103 0 8 65
194 0 103 0 8 71
196 0 105 0 6 67
198 0 103 0 8 71
200 0 101 0 10 67
202 0 101 0 10 55
204 0 98 0 13 65
206 0 104 0 7 60
208 0 104 0 7 61
210 0 97 0 14 55
