0 128 0 0 0 57
2 118 0 8 0 72
4.00004 117 0 9 0 71
6 115 0 11 0 63
8 115 0 11 0 71
10 111 0 15 0 56
12 101 10 15 0 58
14 102 14 10 0 63
16 94 21 11 0 63
18 85 28 11 2 76
20 83 33 6 4 54
22 68 42 12 4 53
24 65 49 9 3 64
26 64 56 4 2 57
28 54 59 8 5 64
30 55 63 1 7 70
32 46 70 5 4 66
34 48 65 2 11 61
36 45 72 1 8 69
38 41 79 2 4 55
40 38 78 2 8 63
42 30 88 4 4 59
44 28 87 3 8 59
46 26 87 5 10 56
48 28 90 1 9 58
50 24 93 3 8 66
52 21 100 2 5 67
54 17 101 3 7 69
56 18 99 2 9 62
58 16 103 2 7 57
60 14 107 3 4 68
62 13 108 3 4 59
64 14 107 1 6 60
66 14 104 1 9 62
68 12 109 0 7 65
70 9 112 2 5 61
72 9 116 1 2 62
74 4 114 3 7 55
76 5 116 1 6 67
78 6 116 0 6 73
80 5 115 0 8 59
82 4 113 1 10 60
84 3 110 1 14 62
86 3 115 0 10 64
88 1 120 0 7 62
90 1 115 0 12 54
92 1 110 0 17 69
94 1 115 0 12 68
96 1 116 0 11 59
98 1 120 0 7 53
100 1 115 0 12 58
102 0 110 0 18 63
104 0 117 1 11 68
106 1 123 0 5 54
108 1 118 1 9 55
110 2 118 1 9 68
112 2 120 1 7 66
114 3 118 0 9 64
116 3 119 1 8 63
118 4 121 0 6 65
120 3 116 0 12 65
122 3 121 0 7 74
124 2 121 0 8 62
126 2 121 0 8 64
128 2 121 0 8 64
130 2 119 0 10 54
132 2 120 0 9 59
134 0 120 0 11 67
136 0 122 0 9 68
138 0 120 0 11 64
140 0 123 0 8 57
142 0 120 0 11 59
144 0 121 0 10 63
146 0 120 0 10 63
148 0 122 0 8 64
150 0 120 0 10 63
152 0 115 0 15 72
154 0 117 0 13 65
156 0 115 0 15 55
158 0 117 0 13 67
160 0 114 0 16 70
162 0 122 1 8 58
164 1 117 0 13 56
166 1 116 0 14 55
168 1 121 0 9 55
170 1 116 0 14 65
172 1 119 0 11 61
174 1 119 0 11 49
176 1 117 0 13 57
178 0 120 0 11 66
180 0 119 0 12 64
182 0 121 0 10 66
184 0 123 0 8 66
186 0 123 0 8 64
188 0 122 0 9 74
190 0 123 0 8 71
192 0 122 0 9 60
194 0 122 0 9 67
196 0 123 0 8 60
198 0 125 0 6 64
200 0 123 1 8 62
202 0 120 0 10 75
204 0 116 0 14 75
206 0 119 0 11 60
208 0 113 0 17 53
210 0 120 0 10 54
