0 93 0 0 0
2 94 0 0 0
4.00004 94 0 0 0
6 95 0 0 0
8 95 0 0 0
10 95 0 0 0
12 63 32 0 0
14 54 41 0 0
16 46 49 0 0
18 35 60 0 0
20 26 68 0 0
22 23 71 0 0
24 21 73 0 0
26 18 77 0 0
28 19 76 0 1
30 17 79 0 0
32 16 81 0 0
34 13 84 0 0
36 13 84 0 0
38 13 84 0 0
40 10 87 0 0
42 9 88 0 0
44 7 90 0 0
46 7 90 0 0
48 4 93 0 0
50 4 93 0 0
52 2 95 0 0
54 2 95 0 0
56 2 95 0 0
58 2 95 0 0
60 2 95 0 0
62 2 95 0 0
64 2 95 0 0
66 2 95 0 0
68 3 95 0 0
70 1 97 0 0
72 0 98 0 0
74 0 98 0 0
76 0 98 0 0
78 0 98 0 0
80 0 98 0 0
82 0 98 0 0
84 0 98 0 0
86 0 98 0 0
88 0 98 0 0
90 0 98 0 0
92 0 98 0 0
94 1 98 0 0
96 1 98 0 0
98 1 98 0 0
100 1 98 0 0
102 1 98 0 0
104 0 99 0 0
106 0 99 0 0
108 0 99 0 0
110 0 99 0 0
112 0 99 0 0
114 0 99 0 0
116 1 99 0 0
118 1 99 0 0
120 1 99 0 0
122 1 99 0 0
124 0 100 0 0
126 0 100 0 0
128 1 100 0 0
130 1 99 0 0
132 1 99 0 0
134 1 99 0 0
136 1 99 0 0
138 1 99 0 0
140 1 99 0 0
142 0 100 0 0
144 0 100 0 0
146 0 100 0 0
148 0 100 0 0
150 0 100 0 0
152 0 100 0 0
154 0 100 0 0
156 0 100 0 0
158 0 100 0 0
160 0 100 0 0
162 0 100 0 0
164 0 100 0 0
166 0 100 0 0
168 0 100 0 0
170 0 100 0 0
172 0 100 0 0
174 0 100 0 0
176 0 100 0 0
178 0 100 0 0
180 0 100 0 0
182 1 100 0 0
184 1 100 0 0
186 1 100 0 0
188 1 99 0 1
190 0 101 0 0
192 0 101 0 0
194 0 101 0 0
196 0 101 0 0
198 0 101 0 0
200 0 101 0 0
202 0 101 0 0
204 0 101 0 0
206 0 101 0 0
208 0 101 0 0
210 0 101 0 0
