0 71 0 0 0
2 71 0 0 0
4.00004 71 0 0 0
6 71 0 0 0
8 71 0 0 0
10 71 0 0 0
12 58 13 0 0
14 47 24 0 0
16 37 34 0 0
18 34 37 0 0
20 33 38 0 0
22 31 40 0 0
24 25 46 1 0
26 18 53 0 0
28 14 57 0 0
30 14 57 0 0
32 12 59 0 0
34 9 62 0 0
36 8 63 0 0
38 6 65 0 0
40 4 67 0 0
42 4 67 1 0
44 5 67 0 0
46 3 69 0 0
48 3 70 0 0
50 3 70 0 0
52 3 70 0 0
54 3 70 0 0
56 3 70 0 0
58 2 71 0 0
60 2 72 0 0
62 1 73 0 0
64 0 73 0 0
66 0 73 1 0
68 1 73 0 0
70 1 73 0 0
72 1 73 0 0
74 1 72 0 0
76 1 72 0 0
78 1 72 0 0
80 1 72 0 0
82 1 72 0 0
84 1 72 0 0
86 1 72 0 0
88 1 72 0 0
90 0 73 0 0
92 0 73 0 0
94 1 73 0 0
96 1 73 0 0
98 1 73 0 0
100 1 73 0 0
102 2 73 0 0
104 2 73 0 0
106 2 73 0 0
108 2 73 0 0
110 2 74 0 0
112 2 74 0 0
114 2 73 0 0
116 1 74 0 0
118 1 74 0 0
120 1 73 0 0
122 1 73 0 0
124 1 73 0 0
126 1 73 0 0
128 1 73 0 0
130 1 73 0 0
132 2 73 0 0
134 2 73 0 0
136 2 73 0 0
138 2 73 0 0
140 2 73 0 0
142 2 73 0 0
144 2 73 0 0
146 2 73 0 0
148 2 73 0 0
150 2 73 0 0
152 2 73 0 0
154 1 74 0 0
156 0 75 0 0
158 0 74 0 0
160 0 74 0 0
162 0 74 0 0
164 0 74 0 0
166 0 74 0 0
168 0 74 0 0
170 0 74 0 0
172 0 74 0 0
174 0 74 0 0
176 0 74 0 0
178 0 74 0 0
180 0 74 0 0
182 0 74 0 0
184 0 74 0 0
186 0 74 0 0
188 1 74 0 0
190 1 74 0 0
192 1 74 0 0
194 1 74 0 0
196 1 74 0 0
198 1 74 0 0
200 1 74 0 0
202 1 74 1 0
204 2 74 0 0
206 2 74 0 0
208 2 74 0 0
210 2 74 0 0
