0 70 0 0 0
2 70 0 0 0
4.00004 70 0 0 0
6 70 0 0 0
8 70 0 0 0
10 70 0 0 0
12 63 7 0 0
14 61 9 0 0
16 56 14 0 0
18 50 20 0 0
20 46 24 0 0
22 42 28 0 0
24 39 31 0 0
26 35 35 0 0
28 31 39 0 0
30 29 40 0 0
32 26 42 1 0
34 23 45 0 0
36 21 47 0 0
38 19 49 0 0
40 19 49 0 0
42 17 51 0 0
44 16 52 0 0
46 13 55 0 0
48 12 56 0 0
50 11 57 0 0
52 9 59 0 0
54 8 60 0 0
56 5 63 0 0
58 4 64 0 0
60 4 64 0 0
62 4 64 0 0
64 4 63 0 0
66 3 64 0 0
68 2 65 0 0
70 2 65 0 0
72 2 65 0 0
74 2 65 0 0
76 2 65 0 0
78 2 65 0 0
80 1 66 0 0
82 1 66 0 0
84 1 66 0 0
86 1 64 0 0
88 1 64 0 0
90 1 64 0 0
92 1 64 0 0
94 1 64 0 0
96 0 65 0 0
98 0 65 0 0
100 0 65 0 0
102 0 65 0 0
104 0 65 0 0
106 0 65 0 0
108 0 65 0 0
110 0 65 0 0
112 0 65 0 0
114 0 65 0 0
116 0 65 0 0
118 0 65 0 0
120 0 65 0 0
122 0 65 0 0
124 1 65 0 0
126 1 65 0 0
128 1 65 0 0
130 1 65 0 0
132 1 65 0 0
134 1 65 0 0
136 1 65 0 0
138 1 64 0 0
140 1 63 0 1
142 1 64 0 0
144 1 64 0 0
146 0 65 0 0
148 1 65 0 0
150 1 65 0 0
152 1 65 0 0
154 1 65 0 0
156 2 65 0 0
158 2 65 0 0
160 1 66 0 0
162 1 66 0 0
164 1 66 0 0
166 1 66 0 0
168 1 66 0 0
170 1 65 0 0
172 1 65 0 0
174 1 65 0 0
176 1 66 0 0
178 1 66 0 0
180 1 66 0 0
182 1 66 0 0
184 1 66 0 0
186 1 66 0 0
188 1 66 0 0
190 1 66 0 0
192 1 66 0 0
194 1 66 0 0
196 1 66 0 0
198 1 67 1 0
200 1 67 0 0
202 1 67 0 0
204 1 67 0 0
206 1 67 0 0
208 1 67 0 0
210 1 67 0 0
