0 80 0 0 0
2 80 0 0 0
4.00004 80 0 0 0
6 80 0 0 0
8 80 0 0 0
10 80 0 0 0
12 80 0 0 0
14 80 0 0 0
16 80 0 0 0
18 80 0 0 0
20 80 0 0 0
22 80 0 0 0
24 80 0 0 0
26 80 0 0 0
28 80 0 0 0
30 81 0 0 0
32 81 0 0 0
34 82 0 0 0
36 82 0 0 0
38 82 0 0 0
40 82 0 0 0
42 82 0 0 0
44 82 0 0 0
46 82 0 0 0
48 82 0 0 0
50 82 0 0 0
52 82 0 0 0
54 82 0 0 0
56 82 0 0 0
58 82 0 0 0
60 82 0 0 0
62 82 0 0 0
64 82 1 0 0
66 82 1 0 0
68 81 1 1 0
70 82 1 0 0
72 82 1 0 0
74 82 1 0 0
76 82 1 0 0
78 82 1 0 0
80 82 1 0 0
82 82 1 0 0
84 82 1 0 0
86 82 3 0 0
88 82 3 0 0
90 82 3 0 0
92 82 3 0 0
94 82 3 0 0
96 82 3 0 0
98 82 3 0 0
100 82 3 0 0
102 82 3 0 0
104 82 3 0 0
106 82 3 0 0
108 82 3 0 0
110 82 3 0 0
112 82 3 0 0
114 82 3 0 0
116 82 3 0 0
118 82 3 0 0
120 82 3 0 0
122 81 3 1 0
124 81 3 0 0
126 81 3 0 0
128 81 3 0 0
130 81 3 0 0
132 81 3 0 0
134 81 3 0 0
136 81 3 0 0
138 81 4 0 0
140 81 4 0 0
142 81 4 0 0
144 81 4 0 0
146 81 4 0 0
148 80 4 0 0
150 80 4 0 0
152 80 4 0 0
154 80 4 0 0
156 79 4 0 0
158 79 4 0 0
160 79 4 0 0
162 79 4 0 0
164 79 4 0 0
166 79 4 0 0
168 79 4 0 0
170 79 5 0 0
172 79 5 0 0
174 79 5 0 0
176 79 4 0 0
178 79 4 0 0
180 78 4 1 0
182 79 4 0 0
184 79 4 0 0
186 79 4 0 0
188 79 4 0 0
190 79 4 0 0
192 79 4 0 0
194 79 4 0 0
196 79 4 0 0
198 77 4 0 0
200 78 4 0 0
202 78 4 0 0
204 78 4 0 0
206 78 4 0 0
208 78 4 0 0
210 78 4 0 0
