0 88 0 0 0
2 88 0 0 0
4.00004 89 0 0 0
6 89 0 0 0
8 89 0 0 0
10 88 0 0 0
12 88 0 0 0
14 88 0 0 0
16 88 0 0 0
18 88 0 0 0
20 88 0 0 0
22 87 0 1 0
24 88 0 0 0
26 88 0 0 0
28 87 0 0 0
30 87 0 0 0
32 87 1 0 1
34 87 2 0 0
36 85 2 2 0
38 86 2 0 0
40 86 2 0 0
42 86 2 0 0
44 86 2 0 0
46 86 2 0 0
48 86 2 0 0
50 86 2 0 0
52 86 2 0 0
54 86 2 0 0
56 86 2 0 0
58 86 2 0 0
60 86 2 0 0
62 86 2 0 0
64 86 2 0 0
66 86 2 0 0
68 86 2 0 0
70 86 2 0 0
72 86 2 0 0
74 86 2 0 0
76 86 2 0 0
78 86 3 0 0
80 86 3 0 0
82 86 3 0 0
84 86 3 0 0
86 86 3 0 0
88 86 3 0 0
90 86 3 0 0
92 86 3 0 0
94 86 3 0 0
96 86 3 0 0
98 86 3 0 0
100 85 4 1 0
102 86 4 0 0
104 86 5 0 0
106 86 5 0 0
108 86 5 0 0
110 86 5 0 0
112 86 5 0 0
114 86 5 0 0
116 86 5 0 0
118 86 5 0 0
120 85 5 0 0
122 85 5 0 0
124 85 5 0 0
126 85 5 0 0
128 85 5 0 0
130 85 5 0 1
132 85 6 0 0
134 85 6 0 0
136 85 6 0 0
138 85 6 0 0
140 85 6 0 0
142 85 6 0 0
144 85 6 0 0
146 85 6 0 0
148 85 6 0 0
150 85 6 0 0
152 85 6 0 0
154 85 6 0 0
156 85 6 0 0
158 85 6 0 0
160 85 6 0 0
162 85 6 0 0
164 85 6 0 0
166 85 6 0 0
168 85 6 0 0
170 85 6 0 0
172 85 6 0 0
174 85 8 0 0
176 85 8 0 0
178 85 8 0 0
180 85 8 0 0
182 85 8 0 0
184 85 8 0 0
186 85 8 0 0
188 85 8 0 0
190 85 8 0 0
192 85 8 0 0
194 85 8 0 0
196 84 8 0 0
198 84 8 0 0
200 84 8 0 0
202 84 8 0 0
204 84 9 0 0
206 84 9 0 0
208 83 9 1 0
210 84 9 0 0
