0 101 0 0 0
2 101 0 0 0
4.00004 101 0 0 0
6 101 0 0 0
8 101 0 0 0
10 101 0 0 0
12 77 24 0 0
14 69 32 0 0
16 61 40 0 0
18 49 52 0 0
20 43 58 0 0
22 39 62 0 0
24 36 65 0 0
26 33 68 0 0
28 30 71 0 0
30 30 71 0 0
32 29 72 0 0
34 26 75 0 0
36 23 78 0 0
38 20 82 0 0
40 18 84 0 0
42 13 90 0 0
44 12 91 0 0
46 11 92 0 0
48 10 93 0 0
50 9 91 0 2
52 8 94 0 0
54 7 94 0 0
56 6 95 0 0
58 5 96 0 0
60 4 97 0 0
62 4 96 0 0
64 1 99 0 0
66 1 99 0 0
68 1 99 0 0
70 1 99 0 0
72 1 99 0 0
74 1 99 0 0
76 1 99 0 0
78 1 99 0 0
80 1 99 1 0
82 2 99 0 0
84 2 99 0 0
86 2 99 0 0
88 2 99 0 0
90 2 99 0 0
92 0 101 0 0
94 0 101 0 0
96 0 101 0 0
98 0 101 0 0
100 0 101 0 0
102 0 101 0 0
104 0 100 0 0
106 0 100 0 0
108 0 100 0 0
110 0 100 0 0
112 0 100 0 0
114 1 100 0 0
116 1 100 0 0
118 1 100 0 0
120 2 100 0 0
122 2 100 0 0
124 1 101 0 0
126 0 102 0 0
128 0 102 0 0
130 0 102 0 0
132 0 102 0 0
134 0 102 0 0
136 0 102 0 0
138 0 102 0 0
140 0 102 0 0
142 0 102 0 0
144 0 102 0 0
146 0 102 0 0
148 0 102 0 0
150 0 99 0 1
152 1 99 0 0
154 1 99 0 0
156 0 100 0 0
158 0 100 0 0
160 0 100 0 0
162 0 98 0 0
164 0 98 0 0
166 0 98 0 0
168 0 98 0 0
170 0 98 0 0
172 0 98 0 0
174 0 98 0 0
176 0 98 0 0
178 0 98 0 0
180 0 98 0 0
182 0 98 0 0
184 0 98 0 0
186 0 98 0 0
188 0 98 0 0
190 0 98 0 0
192 0 98 0 0
194 0 98 0 0
196 1 98 0 0
198 1 98 0 0
200 1 98 0 0
202 1 97 0 0
204 0 98 0 0
206 0 98 0 0
208 0 98 0 0
210 0 98 0 0
