0 57 0 0 0
2 56 0 0 0
4.00004 56 0 0 0
6 55 0 0 0
8 55 0 0 0
10 55 0 0 0
12 55 0 0 0
14 55 0 0 0
16 55 0 0 0
18 55 0 0 0
20 56 0 0 0
22 56 0 0 0
24 56 0 0 0
26 54 0 1 0
28 54 0 0 0
30 54 0 0 0
32 53 0 0 0
34 53 0 0 0
36 53 0 0 0
38 53 0 0 0
40 53 0 0 0
42 53 0 0 0
44 53 0 0 0
46 53 0 0 0
48 53 0 0 0
50 53 0 0 0
52 53 0 0 0
54 53 0 0 0
56 53 0 0 0
58 53 0 0 0
60 53 0 0 0
62 53 0 0 0
64 53 0 0 0
66 53 0 0 0
68 52 0 0 0
70 52 0 0 0
72 52 0 0 0
74 52 0 0 0
76 52 0 0 0
78 52 0 0 0
80 52 0 0 0
82 51 0 1 0
84 52 0 0 0
86 52 0 0 0
88 52 0 0 0
90 52 0 0 0
92 52 0 0 0
94 51 0 0 0
96 51 0 0 0
98 51 0 0 0
100 51 0 0 0
102 51 0 0 0
104 51 0 0 0
106 50 0 1 0
108 51 0 0 0
110 51 0 0 0
112 51 0 0 0
114 50 0 1 0
116 50 0 0 0
118 50 0 0 0
120 50 0 0 0
122 50 0 0 0
124 50 0 0 0
126 50 0 0 0
128 49 0 0 0
130 49 1 0 0
132 49 1 0 0
134 49 1 0 0
136 49 1 0 0
138 49 1 0 0
140 49 1 0 0
142 49 1 0 0
144 49 1 0 0
146 49 1 0 0
148 49 1 0 0
150 49 1 0 0
152 49 1 0 0
154 49 1 0 0
156 49 1 0 0
158 49 1 0 0
160 49 1 0 0
162 49 1 0 0
164 49 1 0 0
166 49 1 0 0
168 49 1 0 0
170 49 1 0 0
172 49 1 0 0
174 49 1 0 0
176 49 1 0 0
178 49 1 0 0
180 49 1 0 0
182 48 1 0 0
184 48 1 0 0
186 48 1 0 0
188 48 1 0 0
190 48 1 0 0
192 48 1 0 0
194 48 1 0 0
196 48 1 0 0
198 48 1 0 0
200 48 1 0 0
202 48 1 0 0
204 48 1 0 0
206 48 1 0 0
208 48 1 0 0
210 48 1 0 0
