0 1034 0 0 0 0 0
2 1038 0 0 2 0 0
4.00004 1044 0 0 0 0 0
6 1043 0 0 1 0 0
8 1043 0 0 6 0 0
10 1052 0 0 4 0 0
12 1055 0 0 4 0 0
14 1062 0 0 3 0 0
16 1063 0 0 3 0 0
18 1058 0 0 3 0 0
20 1052 0 0 2 0 0
22 1052 0 0 4 0 0
24 1051 0 0 6 0 0
26 1050 0 0 3 0 0
28 1041 0 0 3 0 0
30 1041 0 0 4 0 0
32 1039 0 0 1 0 0
34 1038 0 0 4 0 0
36 1038 0 0 6 0 0
38 1034 0 0 5 0 0
40 1035 0 0 1 0 0
42 1026 0 0 3 0 0
44 1021 0 0 7 0 0
46 1025 0 0 3 0 0
48 1029 0 0 2 0 0
50 1030 0 0 3 0 0
52 1023 0 3 3 0 0
54 1018 0 14 0 1 0
56 1008 0 31 3 0 0
58 998 0 43 2 1 0
60 978 0 51 3 5 0
62 974 0 74 1 3 0
64 962 0 87 3 1 0
66 945 0 90 5 1 0
68 934 0 100 2 0 0
70 922 0 102 6 1 0
72 923 0 111 2 0 0
74 913 0 120 2 3 0
76 908 0 132 1 2 0
78 895 0 143 5 2 0
80 896 0 149 2 0 0
82 882 0 155 3 2 0
84 864 0 162 5 0 0
86 860 0 168 2 2 0
88 840 0 180 6 0 0
90 836 0 189 3 2 0
92 825 0 194 0 0 0
94 815 0 200 1 1 0
96 802 0 210 3 3 0
98 798 0 219 1 4 0
100 789 0 223 0 3 0
102 781 0 232 1 5 0
104 771 0 246 2 1 0
106 764 0 255 3 1 0
108 751 0 262 2 1 0
110 745 0 264 1 0 0
112 730 0 269 6 1 0
114 712 0 282 3 3 0
116 702 0 293 3 2 0
118 700 0 296 2 2 0
120 691 0 307 2 2 0
122 689 0 319 0 2 0
124 681 0 322 2 0 0
126 669 0 332 4 3 0
128 663 0 348 0 0 0
130 651 0 359 3 3 0
132 644 0 364 0 3 0
134 640 0 375 0 3 0
136 633 0 389 1 4 0
138 628 0 402 1 4 0
140 622 0 406 2 1 0
142 619 0 414 1 3 0
144 616 0 412 1 1 0
146 611 0 416 0 4 0
148 607 0 418 1 3 0
150 602 0 425 0 3 0
152 595 0 429 0 1 0
154 588 0 427 4 2 0
156 582 0 444 3 5 0
158 576 0 450 2 2 0
160 574 0 459 1 1 0
162 566 0 465 2 2 0
164 561 0 473 0 0 0
166 552 0 480 1 0 0
168 545 0 486 2 1 0
170 538 0 487 2 3 0
172 535 0 494 3 2 0
174 530 0 501 0 3 0
176 523 0 504 1 1 0
178 523 0 505 0 2 0
180 518 0 514 0 2 0
182 514 0 529 0 1 0
184 509 0 530 0 1 0
186 508 0 534 0 2 0
188 497 0 540 0 2 0
190 489 0 546 1 2 0
192 481 0 553 2 2 0
194 478 0 555 1 4 0
196 475 0 554 1 5 0
198 473 0 558 0 1 0
200 463 0 566 3 3 0
