0 1113 0 0 0 0 0
2 1114 0 0 3 0 0
4.00004 1112 0 0 4 0 0
6 1108 0 0 2 0 0
8 1113 0 0 2 0 0
10 1117 0 0 2 0 0
12 1123 0 0 0 0 0
14 1119 0 0 4 0 0
16 1121 0 0 4 0 0
18 1131 0 0 9 0 0
20 1131 0 0 6 0 0
22 1140 0 0 0 0 0
24 1132 0 0 4 0 0
26 1134 0 0 5 0 0
28 1134 0 0 0 0 0
30 1138 0 0 6 0 0
32 1145 0 0 2 0 0
34 1138 0 0 3 0 0
36 1140 0 0 5 0 0
38 1144 0 0 4 0 0
40 1143 0 0 5 0 0
42 1139 0 0 2 0 0
44 1132 0 0 4 0 0
46 1126 0 0 5 0 0
48 1122 0 0 5 0 0
50 1129 0 0 2 0 0
52 1129 0 8 0 0 0
54 1118 0 21 1 2 0
56 1107 0 32 3 2 0
58 1105 0 42 0 1 0
60 1088 0 45 2 2 0
62 1080 0 57 2 1 0
64 1067 0 66 3 2 0
66 1054 0 76 1 2 0
68 1040 0 88 3 2 0
70 1029 0 102 3 2 0
72 1020 0 111 4 1 0
74 1006 0 117 2 1 0
76 1003 0 125 0 3 0
78 989 0 140 3 1 0
80 980 0 148 3 3 0
82 969 0 154 2 1 0
84 959 0 166 5 2 0
86 951 0 173 2 0 0
88 946 0 189 1 0 0
90 933 0 192 1 1 0
92 925 0 200 1 3 0
94 918 0 208 2 0 0
96 918 0 217 0 1 0
98 908 0 234 2 1 0
100 900 0 244 2 1 0
102 891 0 249 1 3 0
104 885 0 261 2 1 0
106 881 0 269 1 4 0
108 874 0 274 2 0 0
110 873 0 278 0 0 0
112 869 0 286 2 0 0
114 863 0 288 1 3 0
116 848 0 297 1 2 0
118 839 0 304 3 3 0
120 840 0 310 0 1 0
122 835 0 313 2 2 0
124 823 0 320 6 3 0
126 816 0 329 4 1 0
128 810 0 338 1 2 0
130 801 0 345 1 3 0
132 794 0 347 1 2 0
134 790 0 360 1 1 0
136 784 0 366 0 4 0
138 779 0 377 2 2 0
140 772 0 377 2 2 0
142 769 0 379 0 7 0
144 762 0 391 0 4 0
146 754 0 397 1 2 0
148 742 0 407 5 1 0
150 731 0 409 1 1 0
152 727 0 416 0 2 0
154 717 0 428 5 2 0
156 717 0 438 0 1 0
158 711 0 439 0 3 0
160 702 0 444 2 5 0
162 698 0 445 1 1 0
164 688 0 453 1 3 0
166 680 0 463 0 3 0
168 672 0 467 1 1 0
170 665 0 480 1 2 0
172 657 0 495 0 1 0
174 651 0 499 0 2 0
176 640 0 500 2 2 0
178 641 0 500 0 2 0
180 635 0 508 1 0 0
182 632 0 506 1 2 0
184 616 0 508 1 1 0
186 609 0 515 1 3 0
188 600 0 517 2 7 0
190 593 0 526 1 6 0
192 588 0 531 0 4 0
194 582 0 539 1 4 0
196 577 0 545 1 4 0
198 572 0 554 1 3 0
200 566 0 560 0 2 0
