0 1174 0 0 0 0 0
2 1173 0 0 4 0 0
4.00004 1173 0 0 4 0 0
6 1164 0 0 7 0 0
8 1169 0 0 8 0 0
10 1177 0 0 6 0 0
12 1184 0 0 6 0 0
14 1188 0 0 6 0 0
16 1186 0 0 9 0 0
18 1198 0 0 3 0 0
20 1198 0 0 10 0 0
22 1198 0 0 9 0 0
24 1194 0 0 6 0 0
26 1188 0 0 3 0 0
28 1186 0 0 8 0 0
30 1192 0 0 5 0 0
32 1187 0 0 4 0 0
34 1190 0 0 2 0 0
36 1195 0 0 3 0 0
38 1195 0 0 5 0 0
40 1190 0 0 6 0 0
42 1193 0 0 9 0 0
44 1201 0 0 7 0 0
46 1203 0 0 10 0 0
48 1205 0 0 6 0 0
50 1204 0 0 4 0 0
52 1189 0 8 4 1 0
54 1169 0 27 7 0 0
56 1140 0 41 7 1 0
58 1123 0 54 5 1 0
60 1106 0 72 4 2 0
62 1091 0 88 3 3 0
64 1072 0 100 6 0 0
66 1049 0 113 4 3 0
68 1038 0 133 3 2 0
70 1025 0 147 1 1 0
72 1006 0 160 3 1 0
74 998 0 172 1 4 0
76 982 0 182 1 1 0
78 966 0 196 0 4 0
80 954 0 209 4 5 0
82 940 0 214 0 5 0
84 922 0 234 5 4 0
86 912 0 253 3 4 0
88 894 0 265 2 1 0
90 883 0 281 4 4 0
92 868 0 296 6 0 0
94 860 0 309 2 2 0
96 856 0 318 1 3 0
98 844 0 328 3 6 0
100 828 0 344 2 1 0
102 819 0 358 1 0 0
104 804 0 361 4 4 0
106 796 0 371 3 2 0
108 774 0 382 2 3 0
110 764 0 387 2 5 0
112 750 0 410 5 3 0
114 733 0 417 3 5 0
116 726 0 421 0 7 0
118 708 0 429 3 2 0
120 696 0 437 2 3 0
122 691 0 438 2 4 0
124 680 0 446 3 1 0
126 673 0 451 1 3 0
128 662 0 454 4 5 0
130 656 0 470 1 4 0
132 643 0 478 0 6 0
134 632 0 483 4 3 0
136 624 0 489 4 2 0
138 618 0 498 1 4 0
140 608 0 512 2 6 0
142 598 0 518 1 6 0
144 589 0 525 3 1 0
146 584 0 528 1 6 0
148 577 0 532 2 7 0
150 567 0 542 4 2 0
152 560 0 545 1 2 0
154 557 0 549 1 5 0
156 548 0 557 3 4 0
158 542 0 565 0 4 0
160 534 0 570 2 7 0
162 522 0 571 4 8 0
164 514 0 577 3 4 0
166 510 0 590 2 5 0
168 500 0 599 2 7 0
170 490 0 616 4 2 0
172 485 0 625 2 5 0
174 478 0 633 3 3 0
176 478 0 644 2 5 0
178 471 0 655 0 2 0
180 461 0 657 1 5 0
182 457 0 662 1 6 0
184 449 0 663 0 3 0
186 441 0 670 0 9 0
188 433 0 682 1 3 0
190 426 0 689 2 2 0
192 422 0 699 1 4 0
194 418 0 703 3 6 0
196 413 0 720 2 6 0
198 403 0 722 2 8 0
200 400 0 727 1 3 0
