0 1151 0 0 0 0 0
2 1153 0 0 4 0 0
4.00004 1153 0 0 4 0 0
6 1156 0 0 2 0 0
8 1153 0 0 1 0 0
10 1151 0 0 1 0 0
12 1152 0 0 3 0 0
14 1153 0 0 2 0 0
16 1145 0 0 2 0 0
18 1143 0 0 1 0 0
20 1142 0 0 0 0 0
22 1138 0 0 5 0 0
24 1140 0 0 3 0 0
26 1139 0 0 2 0 0
28 1136 0 0 4 0 0
30 1139 0 0 2 0 0
32 1141 0 0 3 0 0
34 1130 0 0 4 0 0
36 1136 0 0 4 0 0
38 1136 0 0 5 0 0
40 1136 0 0 2 0 0
42 1131 0 0 4 0 0
44 1127 0 0 4 0 0
46 1129 0 0 3 0 0
48 1128 0 0 4 0 0
50 1124 0 0 3 0 0
52 1118 0 2 2 0 0
54 1108 0 17 4 0 0
56 1104 0 24 1 0 0
58 1094 0 37 2 1 0
60 1085 0 45 0 0 0
62 1075 0 55 2 1 0
64 1067 0 62 2 1 0
66 1062 0 67 0 0 0
68 1056 0 74 2 1 0
70 1050 0 79 1 1 0
72 1042 0 87 0 1 0
74 1037 0 95 2 1 0
76 1032 0 105 1 1 0
78 1023 0 110 1 2 0
80 1019 0 117 1 4 0
82 1007 0 123 1 0 0
84 997 0 131 0 1 0
86 988 0 131 1 3 0
88 983 0 134 3 0 0
90 978 0 142 0 2 0
92 970 0 149 2 0 0
94 963 0 148 0 0 0
96 952 0 151 4 2 0
98 948 0 162 1 0 0
100 938 0 165 2 3 0
102 933 0 175 3 1 0
104 928 0 179 1 2 0
106 922 0 190 0 2 0
108 907 0 201 1 1 0
110 903 0 212 3 0 0
112 898 0 217 4 1 0
114 889 0 220 1 0 0
116 884 0 224 1 2 0
118 879 0 230 2 1 0
120 871 0 236 0 2 0
122 864 0 242 3 1 0
124 858 0 251 1 2 0
126 850 0 251 1 2 0
128 844 0 264 0 1 0
130 834 0 268 3 2 0
132 830 0 271 1 1 0
134 821 0 273 2 1 0
136 816 0 277 0 3 0
138 808 0 282 0 1 0
140 803 0 287 0 2 0
142 796 0 284 2 4 0
144 795 0 294 1 1 0
146 790 0 304 0 1 0
148 784 0 309 1 1 0
150 775 0 317 0 1 0
152 771 0 316 1 1 0
154 766 0 316 2 3 0
156 763 0 323 0 0 0
158 759 0 328 1 1 0
160 754 0 337 0 0 0
162 750 0 340 1 2 0
164 746 0 340 0 1 0
166 741 0 350 1 1 0
168 734 0 358 0 2 0
170 730 0 362 1 1 0
172 727 0 368 1 2 0
174 720 0 374 1 1 0
176 715 0 378 1 0 0
178 713 0 380 0 2 0
180 702 0 383 1 1 0
182 693 0 383 4 3 0
184 695 0 386 0 2 0
186 692 0 387 0 3 0
188 684 0 394 2 0 0
190 678 0 394 1 2 0
192 677 0 400 0 1 0
194 673 0 406 1 2 0
196 668 0 408 1 3 0
198 661 0 407 1 1 0
200 656 0 419 1 1 0
