0 1120 0 0 0 0 0
2 1113 0 0 7 0 0
4.00004 1107 0 0 5 0 0
6 1102 0 0 3 0 0
8 1096 0 0 7 0 0
10 1095 0 0 5 0 0
12 1091 0 0 4 0 0
14 1087 0 0 2 0 0
16 1093 0 0 4 0 0
18 1092 0 0 4 0 0
20 1103 0 0 4 0 0
22 1105 0 0 4 0 0
24 1102 0 0 6 0 0
26 1101 0 0 3 0 0
28 1097 0 0 1 0 0
30 1088 0 0 5 0 0
32 1077 0 0 6 0 0
34 1069 0 0 4 0 0
36 1065 0 0 1 0 0
38 1058 0 0 4 0 0
40 1048 0 0 3 0 0
42 1046 0 0 3 0 0
44 1050 0 0 5 0 0
46 1043 0 0 3 0 0
48 1048 0 0 4 0 0
50 1042 0 0 3 0 0
52 1032 0 8 5 0 0
54 1022 0 21 1 1 0
56 1012 0 34 0 1 0
58 990 0 42 7 2 0
60 983 0 55 2 2 0
62 966 0 69 6 0 0
64 952 0 81 2 3 0
66 946 0 89 0 0 0
68 930 0 94 2 3 0
70 922 0 103 0 0 0
72 909 0 112 0 2 0
74 897 0 118 1 2 0
76 879 0 133 4 3 0
78 870 0 138 4 1 0
80 858 0 153 3 2 0
82 850 0 166 1 2 0
84 844 0 173 0 1 0
86 840 0 178 2 3 0
88 824 0 186 2 3 0
90 806 0 199 5 1 0
92 805 0 204 3 1 0
94 798 0 214 2 1 0
96 780 0 224 2 3 0
98 773 0 233 0 1 0
100 759 0 241 4 1 0
102 756 0 251 1 1 0
104 744 0 256 1 5 0
106 732 0 267 1 1 0
108 721 0 273 1 1 0
110 708 0 287 3 1 0
112 702 0 294 0 2 0
114 693 0 302 1 1 0
116 678 0 307 4 3 0
118 665 0 312 3 2 0
120 660 0 316 1 3 0
122 651 0 326 0 4 0
124 644 0 339 2 2 0
126 631 0 347 1 1 0
128 622 0 355 2 3 0
130 612 0 365 2 0 0
132 600 0 363 2 2 0
134 595 0 367 2 1 0
136 587 0 366 1 5 0
138 579 0 379 4 5 0
140 572 0 377 0 5 0
142 562 0 381 4 1 0
144 553 0 390 2 2 0
146 546 0 404 3 1 0
148 538 0 406 5 6 0
150 528 0 418 2 2 0
152 515 0 422 1 4 0
154 509 0 438 1 1 0
156 502 0 443 2 3 0
158 497 0 449 1 0 0
160 490 0 454 2 4 0
162 485 0 457 0 2 0
164 478 0 468 2 3 0
166 474 0 474 1 2 0
168 467 0 482 1 4 0
170 458 0 485 0 1 0
172 452 0 492 1 1 0
174 450 0 495 0 1 0
176 448 0 498 0 3 0
178 448 0 507 0 4 0
180 446 0 512 0 2 0
182 439 0 513 1 4 0
184 431 0 525 2 2 0
186 426 0 531 1 5 0
188 419 0 538 1 2 0
190 413 0 536 1 1 0
192 410 0 547 0 1 0
194 400 0 548 1 6 0
196 396 0 554 0 3 0
198 388 0 560 3 6 0
200 380 0 565 6 5 0
