0 1007 0 0 0 0 0
2 976 28 0 2 0 0
4.00004 974 26 0 6 0 0
6 973 28 0 2 0 0
8 961 32 0 4 0 0
10 966 33 0 1 0 0
12 963 30 0 1 0 0
14 967 24 0 4 0 0
16 965 30 0 2 0 0
18 962 32 0 4 0 0
20 953 43 0 5 0 0
22 966 29 0 1 0 0
24 965 34 0 5 0 0
26 961 30 0 5 0 0
28 965 33 0 1 0 0
30 962 30 0 2 0 0
32 940 45 0 4 0 0
34 948 33 0 1 0 0
36 952 29 0 2 0 0
38 964 27 0 6 0 0
40 963 29 0 3 0 0
42 946 35 0 5 0 0
44 945 32 0 2 0 0
46 939 38 0 2 0 0
48 941 34 0 4 0 0
50 941 35 0 3 0 0
52 764 1 218 1 0 0
54 665 0 323 3 1 0
56 602 0 392 3 0 0
58 542 0 456 3 2 0
60 478 0 518 0 0 0
62 421 0 570 3 2 0
64 391 0 600 0 3 0
66 358 1 630 2 3 0
68 316 0 676 0 4 0
70 284 0 713 2 2 0
72 259 0 736 0 5 0
74 225 0 777 1 0 0
76 205 0 801 0 0 0
78 180 0 822 1 5 0
80 156 0 848 3 1 0
82 137 1 869 0 0 0
84 120 0 887 0 0 0
86 111 0 890 1 3 0
88 103 0 895 0 2 0
90 85 0 911 3 0 0
92 82 0 920 0 1 0
94 73 0 927 0 1 0
96 61 0 933 1 2 0
98 65 0 937 0 1 0
100 59 0 951 0 1 0
102 54 0 948 1 6 0
104 52 0 957 0 4 0
106 46 0 966 0 2 0
108 41 0 972 0 5 0
110 35 0 977 0 2 0
112 34 0 976 1 3 0
114 32 0 987 0 3 0
116 31 0 994 2 2 0
118 23 0 1005 1 1 0
120 21 0 1006 2 5 0
122 19 0 1013 1 2 0
124 16 0 1007 0 6 0
126 15 0 1010 0 2 0
128 12 0 1010 0 0 0
130 14 0 1008 0 2 0
132 15 0 1007 3 2 0
134 13 0 1004 1 1 0
136 9 0 1005 1 2 0
138 9 1 1005 0 2 0
140 7 0 1004 0 2 0
142 7 0 1006 0 2 0
144 10 0 1006 1 1 0
146 8 0 1007 1 0 0
148 6 0 1004 0 5 0
150 7 0 1006 0 0 0
152 6 0 1008 0 3 0
154 7 0 1004 1 3 0
156 3 0 1003 0 3 0
158 8 0 999 0 4 0
160 6 0 997 1 2 0
162 4 0 996 0 2 0
164 5 0 998 2 2 0
166 3 0 1000 1 4 0
168 3 0 1002 0 3 0
170 4 0 1005 0 2 0
172 3 0 1003 0 2 0
174 7 1 1003 0 1 0
176 8 0 1007 0 0 0
178 2 0 1008 1 2 0
180 1 0 1014 1 1 0
182 4 0 1014 0 2 0
184 5 0 1010 0 2 0
186 5 0 1013 0 2 0
188 8 0 1007 0 2 0
190 7 0 1013 0 0 0
192 6 0 1012 0 4 0
194 8 0 1014 0 1 0
196 4 0 1015 0 4 0
198 7 0 1024 0 2 0
200 5 0 1024 0 2 0
