0 852 0 0 0 0 0
2 798 44 0 4 0 0
4.00004 800 35 0 2 0 0
6 786 49 0 3 0 0
8 783 51 0 5 0 0
10 794 48 0 5 0 0
12 799 52 0 1 0 0
14 795 64 0 4 0 0
16 815 51 0 6 0 0
18 815 58 0 4 0 0
20 829 40 0 6 0 0
22 816 51 0 5 0 0
24 819 55 0 2 0 0
26 822 56 0 4 0 0
28 827 54 0 3 0 0
30 835 45 0 2 0 0
32 835 55 0 5 0 0
34 848 45 0 3 0 0
36 853 37 0 1 0 0
38 843 48 0 2 0 0
40 845 57 0 4 0 0
42 855 43 0 7 0 0
44 845 52 0 1 0 0
46 845 54 0 0 0 0
48 865 35 0 3 0 0
50 848 51 0 5 0 0
52 610 0 294 0 2 0
54 494 0 414 1 1 0
56 421 3 495 1 2 0
58 362 0 557 1 2 0
60 305 0 614 1 2 0
62 248 0 671 0 5 0
64 206 0 715 1 2 0
66 171 1 743 2 2 0
68 144 0 775 0 4 0
70 123 0 799 0 3 0
72 101 0 824 2 3 0
74 87 0 845 1 1 0
76 79 0 860 0 3 0
78 73 0 871 2 2 0
80 54 0 889 1 2 0
82 50 1 892 2 5 0
84 41 0 898 1 8 0
86 35 0 909 1 4 0
88 30 0 920 3 6 0
90 33 1 924 0 2 0
92 24 0 921 1 2 0
94 20 0 924 1 4 0
96 19 0 935 2 2 0
98 23 0 935 3 1 0
100 15 0 936 0 1 0
102 15 0 942 1 3 0
104 15 0 947 3 6 0
106 16 0 945 0 5 0
108 12 0 952 1 2 0
110 18 0 955 1 3 0
112 16 1 958 1 4 0
114 16 0 956 4 3 0
116 12 0 963 2 4 0
118 11 0 963 4 2 0
120 12 0 961 2 3 0
122 15 0 960 1 3 0
124 10 0 965 0 3 0
126 9 0 954 1 4 0
128 10 0 948 1 4 0
130 14 0 954 2 5 0
132 10 0 952 0 4 0
134 6 0 962 0 1 0
136 7 0 958 2 2 0
138 7 0 954 1 4 0
140 11 0 954 3 2 0
142 12 0 953 2 2 0
144 5 0 954 1 5 0
146 9 0 955 0 4 0
148 9 0 956 0 7 0
150 8 0 952 2 5 0
152 2 1 960 0 2 0
154 3 0 954 2 6 0
156 6 0 961 0 2 0
158 7 0 961 0 4 0
160 6 0 950 1 3 0
162 5 0 943 0 5 0
164 8 0 950 1 9 0
166 5 0 955 0 4 0
168 9 0 957 0 4 0
170 7 0 963 0 3 0
172 5 0 965 1 3 0
174 5 0 963 1 5 0
176 5 0 967 4 5 0
178 10 0 979 0 3 0
180 6 0 989 0 4 0
182 2 0 997 2 4 0
184 3 0 991 0 1 0
186 8 0 979 0 5 0
188 2 0 980 1 5 0
190 4 0 977 0 8 0
192 6 0 983 2 2 0
194 7 0 982 0 7 0
196 4 0 985 1 0 0
198 2 0 972 0 6 0
200 4 0 962 0 5 0
