0 895 0 0 0 0 0
2 890 0 0 2 0 0
4.00004 893 0 0 2 0 0
6 893 0 0 3 0 0
8 898 0 0 3 0 0
10 903 0 0 0 0 0
12 901 0 0 2 0 0
14 900 0 0 1 0 0
16 900 0 0 0 0 0
18 902 0 0 1 0 0
20 898 0 0 3 0 0
22 902 0 0 0 0 0
24 902 0 0 0 0 0
26 901 0 0 0 0 0
28 902 0 0 1 0 0
30 899 0 0 6 0 0
32 909 0 0 2 0 0
34 906 0 0 3 0 0
36 907 0 0 1 0 0
38 906 0 0 3 0 0
40 905 0 0 0 0 0
42 908 0 0 0 0 0
44 910 0 0 2 0 0
46 911 0 0 3 0 0
48 911 0 0 0 0 0
50 915 0 0 0 0 0
52 916 0 2 1 1 0
54 916 0 9 0 0 0
56 912 0 13 1 0 0
58 907 0 18 0 1 0
60 896 0 23 2 0 0
62 891 0 27 2 1 0
64 888 0 35 0 2 0
66 882 0 40 1 0 0
68 876 0 45 1 1 0
70 873 0 48 0 1 0
72 869 0 54 0 0 0
74 864 0 65 3 0 0
76 856 0 68 3 1 0
78 854 0 73 1 0 0
80 851 0 78 0 2 0
82 846 0 86 2 0 0
84 840 0 89 3 0 0
86 836 0 93 0 0 0
88 832 0 97 1 1 0
90 827 0 103 2 0 0
92 820 0 107 1 0 0
94 815 0 110 0 0 0
96 809 0 112 1 1 0
98 803 0 126 0 2 0
100 796 0 131 2 1 0
102 788 0 141 4 1 0
104 787 0 143 1 1 0
106 783 0 146 2 2 0
108 778 0 150 3 0 0
110 773 0 154 2 1 0
112 762 0 167 3 0 0
114 764 0 170 1 0 0
116 755 0 177 1 1 0
118 752 0 182 1 0 0
120 749 0 193 1 1 0
122 750 0 198 0 1 0
124 744 0 203 0 0 0
126 738 0 203 3 2 0
128 730 0 210 0 1 0
130 726 0 213 2 0 0
132 722 0 217 0 1 0
134 720 0 216 0 1 0
136 715 0 220 2 2 0
138 713 0 222 0 0 0
140 709 0 225 3 0 0
142 707 0 232 1 0 0
144 707 0 233 0 0 0
146 700 0 239 1 0 0
148 696 0 242 1 1 0
150 697 0 245 0 0 0
152 692 0 245 0 0 0
154 688 0 250 0 1 0
156 685 0 256 1 0 0
158 683 0 263 0 1 0
160 676 0 274 3 1 0
162 674 0 281 1 1 0
164 670 0 280 2 3 0
166 666 0 287 1 0 0
168 662 0 293 1 1 0
170 658 0 300 1 0 0
172 651 0 302 0 0 0
174 648 0 303 1 3 0
176 646 0 307 0 1 0
178 641 0 313 0 2 0
180 636 0 319 4 0 0
182 632 0 319 2 0 0
184 629 0 324 1 1 0
186 627 0 323 1 2 0
188 619 0 329 1 2 0
190 619 0 330 0 2 0
192 617 0 337 1 0 0
194 617 0 339 0 1 0
196 611 0 341 1 1 0
198 609 0 346 0 0 0
200 604 0 345 1 1 0
