0 873 0 0 0 0 0
2 870 0 0 1 0 0
4.00004 871 0 0 3 0 0
6 871 0 0 1 0 0
8 870 0 0 0 0 0
10 872 0 0 1 0 0
12 869 0 0 1 0 0
14 874 0 0 3 0 0
16 876 0 0 0 0 0
18 878 0 0 2 0 0
20 878 0 0 1 0 0
22 880 0 0 1 0 0
24 880 0 0 1 0 0
26 886 0 0 1 0 0
28 885 0 0 1 0 0
30 878 0 0 2 0 0
32 879 0 0 1 0 0
34 874 0 0 4 0 0
36 878 0 0 1 0 0
38 880 0 0 1 0 0
40 882 0 0 1 0 0
42 880 0 0 2 0 0
44 876 0 0 0 0 0
46 875 0 0 2 0 0
48 868 0 0 0 0 0
50 868 0 0 1 0 0
52 867 0 2 2 0 0
54 866 0 6 3 0 0
56 864 0 11 1 0 0
58 858 0 14 1 0 0
60 854 0 21 2 2 0
62 852 0 28 1 0 0
64 849 0 33 0 0 0
66 846 0 37 1 1 0
68 844 0 44 2 0 0
70 844 0 47 0 0 0
72 841 0 49 0 0 0
74 837 0 51 0 0 0
76 834 0 54 2 0 0
78 831 0 56 1 1 0
80 827 0 64 1 1 0
82 825 0 68 0 0 0
84 822 0 70 1 0 0
86 812 0 72 1 1 0
88 808 0 75 0 2 0
90 804 0 80 0 1 0
92 802 0 85 0 0 0
94 793 0 92 0 0 0
96 791 0 102 1 0 0
98 785 0 107 0 0 0
100 782 0 109 1 1 0
102 779 0 111 0 0 0
104 775 0 115 0 0 0
106 767 0 119 1 1 0
108 764 0 122 0 1 0
110 760 0 131 1 0 0
112 758 0 134 0 1 0
114 755 0 139 1 1 0
116 750 0 143 0 1 0
118 744 0 146 0 1 0
120 739 0 150 0 2 0
122 735 0 154 2 1 0
124 734 0 157 1 0 0
126 732 0 165 1 1 0
128 730 0 171 1 1 0
130 727 0 174 0 0 0
132 726 0 175 1 1 0
134 721 0 177 1 0 0
136 717 0 181 1 0 0
138 715 0 180 1 3 0
140 713 0 181 2 1 0
142 708 0 186 0 1 0
144 701 0 188 2 0 0
146 697 0 189 0 2 0
148 691 0 192 1 2 0
150 693 0 198 0 1 0
152 691 0 199 0 2 0
154 691 0 201 0 0 0
156 687 0 202 0 1 0
158 684 0 208 0 1 0
160 677 0 209 0 0 0
162 672 0 218 0 1 0
164 671 0 229 0 1 0
166 670 0 236 0 0 0
168 667 0 239 0 0 0
170 665 0 239 1 2 0
172 662 0 243 0 2 0
174 657 0 250 1 1 0
176 654 0 247 0 0 0
178 650 0 252 0 1 0
180 644 0 253 2 2 0
182 637 0 253 1 1 0
184 631 0 258 0 1 0
186 625 0 265 1 0 0
188 625 0 270 0 2 0
190 621 0 273 0 3 0
192 620 0 274 0 1 0
194 615 0 277 2 0 0
196 610 0 276 2 0 0
198 610 0 275 2 1 0
200 610 0 280 1 2 0
