0 870 0 0 0 0 0
2 872 0 0 0 0 0
4.00004 872 0 0 1 0 0
6 872 0 0 1 0 0
8 870 0 0 2 0 0
10 876 0 0 0 0 0
12 874 0 0 2 0 0
14 872 0 0 3 0 0
16 877 0 0 0 0 0
18 877 0 0 2 0 0
20 879 0 0 0 0 0
22 877 0 0 1 0 0
24 876 0 0 1 0 0
26 876 0 0 1 0 0
28 880 0 0 0 0 0
30 881 0 0 3 0 0
32 880 0 0 0 0 0
34 877 0 0 0 0 0
36 874 0 0 3 0 0
38 876 0 0 0 0 0
40 879 0 0 1 0 0
42 877 0 0 0 0 0
44 875 0 0 0 0 0
46 869 0 0 2 0 0
48 865 0 0 3 0 0
50 863 0 0 1 0 0
52 864 0 0 1 0 0
54 857 0 6 2 0 0
56 853 0 10 0 0 0
58 853 0 15 0 1 0
60 851 0 20 0 0 0
62 842 0 22 0 0 0
64 838 0 26 1 1 0
66 833 0 28 0 0 0
68 830 0 30 1 2 0
70 826 0 35 2 0 0
72 818 0 38 1 0 0
74 816 0 43 0 1 0
76 813 0 50 0 0 0
78 805 0 56 1 0 0
80 802 0 60 0 0 0
82 801 0 65 2 2 0
84 797 0 73 1 1 0
86 793 0 78 2 0 0
88 791 0 81 0 0 0
90 784 0 83 0 0 0
92 778 0 88 0 1 0
94 775 0 93 1 0 0
96 772 0 99 1 0 0
98 770 0 105 1 1 0
100 766 0 106 1 1 0
102 762 0 113 0 1 0
104 759 0 120 0 1 0
106 757 0 125 1 1 0
108 754 0 130 1 0 0
110 754 0 129 0 0 0
112 750 0 130 2 0 0
114 750 0 129 1 1 0
116 747 0 133 2 0 0
118 745 0 132 2 1 0
120 743 0 137 0 0 0
122 738 0 140 1 0 0
124 735 0 141 3 0 0
126 736 0 142 0 0 0
128 733 0 144 0 0 0
130 728 0 149 0 0 0
132 723 0 156 1 0 0
134 715 0 159 1 1 0
136 712 0 166 0 0 0
138 707 0 168 0 0 0
140 705 0 170 0 1 0
142 701 0 170 1 0 0
144 696 0 172 2 0 0
146 695 0 173 1 0 0
148 693 0 175 0 1 0
150 688 0 181 1 1 0
152 688 0 183 1 0 0
154 685 0 189 1 1 0
156 684 0 189 0 1 0
158 684 0 189 0 2 0
160 683 0 193 0 1 0
162 680 0 194 1 1 0
164 680 0 197 0 1 0
166 677 0 197 0 0 0
168 674 0 200 0 1 0
170 672 0 204 0 0 0
172 671 0 207 0 0 0
174 666 0 209 1 0 0
176 661 0 210 1 0 0
178 658 0 215 0 1 0
180 653 0 215 1 0 0
182 653 0 221 0 0 0
184 646 0 224 1 0 0
186 642 0 231 0 0 0
188 641 0 234 0 0 0
190 637 0 239 2 0 0
192 639 0 242 0 2 0
194 636 0 246 1 0 0
196 634 0 251 0 0 0
198 631 0 254 1 2 0
200 629 0 258 0 2 0
