0 825 0 0 0 0 0
2 817 0 0 2 0 0
4.00004 818 0 0 3 0 0
6 831 0 0 1 0 0
8 829 0 0 2 0 0
10 830 0 0 1 0 0
12 829 0 0 4 0 0
14 831 0 0 2 0 0
16 834 0 0 3 0 0
18 829 0 0 1 0 0
20 829 0 0 5 0 0
22 828 0 0 3 0 0
24 830 0 0 5 0 0
26 829 0 0 2 0 0
28 828 0 0 2 0 0
30 822 0 0 3 0 0
32 822 0 0 2 0 0
34 819 0 0 2 0 0
36 818 0 0 2 0 0
38 818 0 0 2 0 0
40 815 0 0 4 0 0
42 821 0 0 2 0 0
44 821 0 0 1 0 0
46 824 0 0 1 0 0
48 827 0 0 1 0 0
50 826 0 0 3 0 0
52 828 0 3 0 1 0
54 822 0 9 1 0 0
56 813 0 24 2 1 0
58 808 0 31 1 0 0
60 796 0 38 2 3 0
62 783 0 52 2 1 0
64 775 0 57 1 1 0
66 766 0 68 0 0 0
68 757 0 70 4 0 0
70 752 0 80 0 1 0
72 744 0 86 4 2 0
74 736 0 91 2 2 0
76 735 0 100 2 1 0
78 730 0 111 0 0 0
80 721 0 118 0 1 0
82 713 0 119 0 0 0
84 705 0 121 0 1 0
86 697 0 128 2 1 0
88 689 0 133 2 2 0
90 686 0 140 1 0 0
92 675 0 143 4 3 0
94 674 0 149 0 1 0
96 670 0 161 1 1 0
98 665 0 168 1 0 0
100 661 0 165 2 0 0
102 649 0 177 3 1 0
104 642 0 183 1 0 0
106 637 0 191 1 2 0
108 631 0 194 2 4 0
110 624 0 203 4 1 0
112 625 0 211 0 1 0
114 616 0 214 1 1 0
116 614 0 216 0 1 0
118 606 0 222 1 0 0
120 600 0 227 1 1 0
122 598 0 230 1 1 0
124 596 0 238 0 3 0
126 589 0 253 1 0 0
128 585 0 254 1 1 0
130 577 0 258 0 3 0
132 575 0 268 0 1 0
134 567 0 269 0 1 0
136 564 0 272 0 1 0
138 558 0 283 1 0 0
140 551 0 286 0 1 0
142 548 0 294 0 2 0
144 540 0 301 1 3 0
146 535 0 311 1 2 0
148 530 0 319 0 1 0
150 527 0 323 1 3 0
152 522 0 330 0 1 0
154 517 0 330 2 2 0
156 509 0 331 1 2 0
158 502 0 337 1 1 0
160 499 0 346 1 0 0
162 489 0 346 1 1 0
164 487 0 361 0 1 0
166 486 0 361 0 2 0
168 485 0 364 0 2 0
170 480 0 369 1 1 0
172 473 0 374 0 1 0
174 469 0 381 0 1 0
176 465 0 383 0 1 0
178 462 0 390 0 0 0
180 455 0 391 2 3 0
182 451 0 398 0 0 0
184 446 0 405 1 0 0
186 442 0 410 0 0 0
188 433 0 412 2 0 0
190 432 0 415 0 1 0
192 427 0 418 2 1 0
194 427 0 424 0 2 0
196 425 0 428 2 2 0
198 425 0 432 0 1 0
200 422 0 437 1 0 0
