0 1071 0 0 0 0
2 1040 11 0 11 0
4.00004 1032 6 0 23 0
6 1030 4 0 22 0
8 1024 7 0 28 0
10 1023 9 0 23 0
12 1027 7 0 23 0
14 1028 6 0 22 0
16 1028 2 0 26 0
18 1035 7 0 18 0
20 1031 13 0 18 0
22 1045 2 0 20 0
24 1041 8 0 21 0
26 1038 7 0 25 0
28 1039 6 0 30 0
30 1025 10 0 38 0
32 1030 6 0 36 0
34 1033 7 0 27 0
36 1026 11 0 34 0
38 1039 9 0 23 0
40 1039 4 0 27 0
42 1043 9 0 23 0
44 1043 7 0 26 0
46 1044 6 0 27 0
48 1036 8 0 32 0
50 1039 10 0 31 0
52 849 0 208 21 1
54 715 0 338 22 3
56 596 0 455 27 4
58 484 0 565 24 5
60 416 1 632 18 9
62 353 0 688 17 14
64 310 0 741 18 7
66 263 1 785 18 8
68 224 0 827 5 14
70 190 0 857 5 14
72 157 0 888 12 11
74 137 0 911 7 11
76 115 0 926 11 16
78 105 0 941 8 15
80 87 0 953 10 21
82 80 0 954 6 26
84 75 0 961 7 21
86 64 0 979 2 14
88 53 0 978 12 28
90 51 0 986 5 26
92 46 0 989 5 25
94 44 0 993 4 22
96 37 0 999 2 22
98 33 0 997 8 26
100 33 0 998 6 31
102 26 0 1005 10 29
104 17 0 1018 12 21
106 17 0 1025 15 15
108 16 0 1022 11 18
110 16 0 1018 5 23
112 13 0 1018 7 25
114 11 0 1027 6 20
116 12 0 1029 4 19
118 15 0 1026 4 22
120 16 0 1028 2 22
122 16 0 1024 2 25
124 13 0 1021 3 28
126 10 0 1024 4 23
128 9 0 1020 6 25
130 6 0 1024 4 21
132 7 0 1022 1 28
134 8 0 1033 5 17
136 10 0 1024 2 24
138 10 0 1036 2 13
140 9 0 1034 7 15
142 9 0 1027 2 20
144 9 0 1029 7 16
146 11 0 1021 9 26
148 9 0 1026 6 22
150 11 0 1030 3 14
152 13 0 1023 7 20
154 10 0 1023 7 20
156 12 0 1029 6 14
158 11 0 1021 7 26
160 9 0 1030 8 18
162 12 0 1028 5 19
164 9 0 1036 5 16
166 9 0 1034 5 20
168 9 0 1037 4 15
170 10 0 1034 8 19
172 11 0 1035 8 19
174 14 0 1033 7 21
176 14 0 1033 6 17
178 13 0 1029 8 19
180 14 0 1026 4 27
182 12 0 1035 4 15
184 8 0 1038 1 19
186 8 0 1037 8 19
188 7 0 1043 7 16
190 11 0 1038 2 17
192 10 0 1031 4 24
194 9 0 1027 5 30
196 11 0 1025 4 30
198 11 0 1027 5 25
200 9 0 1032 4 23
