0 1103 0 0 0 0
2 1083 7 0 12 0
4.00004 1068 5 0 22 0
6 1053 7 0 27 0
8 1061 4 0 26 0
10 1058 6 0 23 0
12 1063 2 0 23 0
14 1056 8 0 24 0
16 1052 9 0 26 0
18 1053 9 0 29 0
20 1045 9 0 36 0
22 1054 7 0 31 0
24 1046 10 0 39 0
26 1046 3 0 40 0
28 1052 3 0 33 0
30 1051 3 0 31 0
32 1052 5 0 30 0
34 1048 8 0 25 0
36 1053 3 0 27 0
38 1055 5 0 20 0
40 1055 4 0 23 0
42 1052 3 0 26 0
44 1043 8 0 33 0
46 1044 7 0 30 0
48 1048 5 0 30 0
50 1049 3 0 34 0
52 900 0 152 37 0
54 795 0 266 24 0
56 721 0 341 29 1
58 651 0 409 26 5
60 573 1 485 25 7
62 518 0 546 20 7
64 459 0 597 28 7
66 421 0 639 21 11
68 379 0 678 20 10
70 347 0 713 19 8
72 315 0 749 14 6
74 289 0 774 17 7
76 265 0 798 16 11
78 239 0 823 15 12
80 210 0 847 17 16
82 191 0 873 16 12
84 168 0 888 16 17
86 151 0 909 14 13
88 137 0 922 17 14
90 131 0 933 12 13
92 113 0 946 14 19
94 105 0 953 14 20
96 101 0 961 9 16
98 88 0 975 8 16
100 81 0 974 7 24
102 74 0 988 2 19
104 59 0 1000 5 20
106 56 0 995 7 28
108 49 0 1005 6 24
110 40 0 1022 7 14
112 39 0 1015 5 25
114 31 0 1028 3 18
116 32 0 1022 5 24
118 28 0 1024 9 29
120 24 0 1029 10 23
122 26 0 1025 10 27
124 24 0 1036 7 17
126 23 0 1031 4 20
128 18 0 1039 9 21
130 17 0 1038 8 21
132 17 0 1034 9 23
134 13 0 1037 12 26
136 13 0 1040 13 23
138 9 0 1040 13 27
140 7 0 1046 12 20
142 8 0 1044 10 22
144 5 0 1046 11 21
146 6 0 1049 9 20
148 8 0 1045 6 22
150 8 0 1045 5 24
152 8 0 1044 1 23
154 7 0 1047 5 18
156 6 0 1043 6 24
158 5 0 1040 10 24
160 5 0 1043 7 26
162 6 0 1043 5 24
164 5 0 1044 7 26
166 5 0 1049 9 20
168 5 0 1049 6 18
170 5 0 1046 7 19
172 6 0 1045 6 22
174 6 0 1048 11 18
176 7 0 1041 8 22
178 7 0 1039 12 25
180 7 0 1040 9 22
182 6 0 1045 11 19
184 4 0 1049 17 17
186 6 0 1041 15 25
188 6 0 1038 17 27
190 7 0 1050 16 15
192 9 0 1044 11 20
194 8 0 1043 7 24
196 8 0 1048 9 20
198 8 0 1050 7 22
200 8 0 1052 9 17
