0 990 0 0 0 0
2 968 0 0 20 0
4.00004 969 0 0 25 0
6 974 0 0 20 0
8 969 0 0 23 0
10 964 0 0 27 0
12 972 0 0 21 0
14 971 0 0 23 0
16 970 0 0 23 0
18 971 0 0 25 0
20 972 0 0 27 0
22 968 0 0 28 0
24 965 0 0 34 0
26 960 0 0 34 0
28 965 0 0 32 0
30 965 0 0 35 0
32 973 0 0 30 0
34 964 0 0 37 0
36 969 0 0 33 0
38 966 0 0 37 0
40 968 0 0 31 0
42 964 0 0 35 0
44 973 0 0 25 0
46 968 0 0 32 0
48 965 0 0 32 0
50 971 0 0 25 0
52 969 0 0 28 0
54 974 0 0 22 0
56 970 0 0 21 1
58 970 0 0 28 1
60 969 0 0 25 1
62 974 0 0 19 2
64 970 0 0 25 0
66 968 0 0 22 4
68 972 0 0 22 4
70 972 0 2 21 5
72 975 0 3 14 6
74 966 0 3 26 6
76 967 0 3 24 9
78 969 0 7 17 7
80 963 0 7 23 4
82 960 0 7 24 5
84 959 0 8 24 5
86 957 0 9 23 3
88 959 0 10 25 5
90 951 0 9 26 7
92 953 0 13 22 4
94 947 0 14 25 3
96 947 0 14 23 5
98 947 0 15 22 3
100 944 0 16 23 3
102 944 0 18 23 9
104 945 0 18 22 6
106 942 0 19 24 7
108 948 0 20 20 13
110 942 0 26 26 7
112 946 0 27 19 10
114 939 0 29 26 6
116 940 0 31 21 6
118 944 0 31 16 6
120 940 0 31 22 8
122 940 0 35 19 6
124 933 0 34 25 10
126 929 0 35 25 13
128 930 0 40 18 13
130 933 0 43 17 10
132 931 0 45 17 9
134 930 0 48 15 7
136 929 0 49 16 9
138 925 0 51 17 11
140 916 0 52 26 10
142 918 0 54 21 8
144 922 0 54 16 12
146 918 0 55 15 8
148 916 0 54 16 11
150 910 0 59 20 10
152 900 0 59 33 12
154 905 0 64 22 6
156 897 0 65 28 6
158 890 0 67 30 5
160 896 0 69 24 6
162 895 0 67 22 16
164 896 0 70 16 13
166 895 0 75 20 11
168 894 0 78 19 10
170 889 0 81 23 10
172 895 0 84 16 8
174 891 0 88 18 3
176 887 0 88 18 9
178 882 0 89 25 9
180 875 0 88 27 8
182 880 0 90 21 7
184 877 0 93 23 6
186 875 0 92 26 7
188 878 0 90 18 12
190 873 0 89 22 14
192 873 0 95 21 8
194 877 0 96 16 11
196 872 0 98 20 8
198 877 0 97 16 7
200 871 0 97 21 13
