0 1099 0 0 0 0
2 1095 3 0 9 0
4.00004 1085 8 0 9 0
6 1086 4 0 14 0
8 1082 4 0 13 0
10 1072 10 0 20 0
12 1078 6 0 15 0
14 1075 7 0 13 0
16 1084 3 0 9 0
18 1074 7 0 15 0
20 1085 4 0 10 0
22 1078 9 0 13 0
24 1079 9 0 6 0
26 1070 8 0 16 0
28 1070 9 0 14 0
30 1061 8 0 21 0
32 1067 7 0 21 0
34 1071 3 0 18 0
36 1069 4 0 10 0
38 1065 9 0 11 0
40 1068 4 0 14 0
42 1063 7 0 12 0
44 1064 3 0 15 0
46 1063 6 0 10 0
48 1062 4 0 18 0
50 1062 6 0 13 0
52 908 0 161 15 0
54 805 0 264 15 1
56 706 0 359 14 5
58 619 1 443 11 8
60 546 0 517 10 7
62 477 0 581 15 8
64 412 0 651 15 6
66 374 0 693 7 6
68 325 0 732 12 12
70 289 1 766 9 9
72 252 0 805 9 9
74 226 0 840 6 5
76 194 0 867 5 10
78 165 0 901 8 4
80 149 0 924 1 3
82 128 0 936 6 14
84 118 1 942 3 13
86 111 0 952 5 11
88 96 0 968 7 7
90 89 0 981 4 9
92 84 0 982 3 13
94 72 0 1000 3 7
96 62 0 1005 5 12
98 53 0 1012 2 10
100 47 0 1022 3 8
102 46 0 1018 4 9
104 38 0 1028 2 8
106 34 0 1029 4 11
108 30 0 1034 4 10
110 29 0 1035 2 11
112 28 0 1037 3 10
114 27 0 1038 1 8
116 24 0 1041 1 6
118 23 0 1041 1 6
120 19 0 1039 4 12
122 19 0 1042 3 12
124 16 0 1051 1 8
126 13 0 1051 4 8
128 14 0 1051 3 8
130 14 0 1050 6 7
132 18 0 1040 3 14
134 21 0 1033 5 15
136 22 0 1037 4 9
138 19 0 1037 2 13
140 18 0 1033 1 15
142 17 0 1031 0 15
144 13 0 1031 4 14
146 9 0 1038 5 12
148 10 0 1036 4 13
150 11 0 1036 4 12
152 14 0 1037 8 11
154 18 0 1033 5 14
156 21 0 1031 5 14
158 22 0 1031 5 13
160 20 0 1032 7 9
162 18 0 1033 1 9
164 19 0 1029 0 8
166 13 0 1034 1 7
168 14 0 1030 2 10
170 15 0 1027 3 8
172 14 0 1028 1 8
174 14 0 1024 3 9
176 15 0 1021 3 10
178 13 0 1018 6 11
180 16 0 1020 3 7
182 15 0 1019 3 10
184 13 0 1021 3 6
186 15 0 1018 2 7
188 14 0 1020 2 7
190 15 0 1011 1 16
192 16 0 1009 1 11
194 15 0 1001 1 18
196 13 0 1004 1 16
198 11 0 1006 3 11
200 12 0 1002 3 13
