0 1002 0 0 0 0
2 995 5 0 15 0
4.00004 970 11 0 21 0
6 962 10 0 27 0
8 982 2 0 25 0
10 974 8 0 27 0
12 966 9 0 33 0
14 964 9 0 36 0
16 963 6 0 42 0
18 954 10 0 46 0
20 962 6 0 46 0
22 965 7 0 40 0
24 964 7 0 42 0
26 949 15 0 51 0
28 961 9 0 46 0
30 962 7 0 42 0
32 965 4 0 44 0
34 954 12 0 47 0
36 958 6 0 48 0
38 950 13 0 44 0
40 949 12 0 51 0
42 954 8 0 50 0
44 944 9 0 63 0
46 948 4 0 64 0
48 945 8 0 61 0
50 951 8 0 52 0
52 757 0 200 49 1
54 622 0 340 36 3
56 512 0 449 39 3
58 412 0 546 44 7
60 339 0 615 45 10
62 275 0 676 46 12
64 219 0 728 41 19
66 187 0 773 37 14
68 154 0 803 32 17
70 120 0 839 30 17
72 96 0 858 27 22
74 79 0 873 30 28
76 69 0 890 19 23
78 58 0 904 28 22
80 50 0 911 24 26
82 42 0 916 22 29
84 39 0 924 25 25
86 33 0 928 23 30
88 30 0 932 22 30
90 25 0 943 18 20
92 25 0 946 18 18
94 21 0 949 17 27
96 23 0 951 16 25
98 22 0 946 17 33
100 12 0 952 18 36
102 13 0 950 18 40
104 16 0 949 13 41
106 14 0 951 17 39
108 12 0 957 14 37
110 12 0 958 9 41
112 11 0 956 13 42
114 9 0 951 16 46
116 10 0 948 16 48
118 6 0 950 13 49
120 9 0 954 9 38
122 7 0 959 9 36
124 5 0 962 12 27
126 5 0 956 9 36
128 5 0 949 10 41
130 5 0 946 9 47
132 6 0 939 11 54
134 5 0 943 16 49
136 8 0 947 16 47
138 9 0 954 16 43
140 9 0 953 12 46
142 10 0 954 11 43
144 8 0 962 12 38
146 12 0 953 8 46
148 12 0 959 7 38
150 11 0 958 10 42
152 9 0 959 10 41
154 8 0 944 8 53
156 6 0 955 9 46
158 7 0 964 12 40
160 7 0 964 12 38
162 8 0 962 14 32
164 7 0 962 17 35
166 8 0 961 14 37
168 10 0 961 14 37
170 9 0 963 13 35
172 11 0 961 9 37
174 10 0 970 12 30
176 10 0 964 13 38
178 7 0 958 12 44
180 6 0 955 21 48
182 7 0 959 19 43
184 7 0 959 19 38
186 8 0 956 22 40
188 11 0 964 19 31
190 10 0 959 15 37
192 14 0 966 12 33
194 13 0 967 12 32
196 15 0 965 12 33
198 15 0 958 10 41
200 15 0 959 11 38
