0 932 0 0 0 0
2 912 0 0 19 0
4.00004 911 0 0 17 0
6 915 0 0 14 0
8 916 0 0 14 0
10 918 0 0 14 0
12 914 0 0 21 0
14 919 0 0 16 0
16 915 0 0 20 0
18 918 0 0 18 0
20 917 0 0 12 0
22 919 0 0 14 0
24 918 0 0 13 0
26 922 0 0 9 0
28 914 0 0 15 0
30 915 0 0 18 0
32 918 0 0 17 0
34 917 0 0 17 0
36 915 0 0 16 0
38 909 0 0 26 0
40 911 0 0 25 0
42 912 0 0 24 0
44 917 0 0 22 0
46 916 0 0 20 0
48 921 0 0 15 0
50 923 0 0 14 0
52 922 0 0 14 0
54 920 0 0 19 0
56 924 0 0 15 1
58 920 0 1 18 2
60 916 0 2 18 0
62 917 0 2 10 3
64 913 0 3 14 4
66 911 0 4 18 1
68 916 0 5 13 1
70 917 0 5 9 3
72 916 0 4 8 5
74 913 0 8 13 3
76 908 0 10 18 4
78 906 0 12 13 1
80 904 0 13 13 1
82 905 0 13 14 1
84 903 0 13 11 2
86 903 0 15 11 3
88 898 0 15 14 6
90 899 0 17 15 5
92 902 0 18 10 5
94 900 0 18 10 2
96 893 0 18 17 7
98 898 0 22 10 4
100 891 0 23 15 7
102 892 0 25 9 6
104 888 0 29 10 1
106 883 0 30 14 4
108 882 0 32 15 8
110 878 0 35 18 5
112 880 0 37 16 4
114 879 0 38 14 3
116 871 0 39 17 4
118 871 0 40 17 4
120 879 0 40 9 1
122 880 0 40 7 4
124 875 0 41 9 2
126 870 0 41 14 3
128 871 0 40 11 3
130 866 0 42 13 6
132 866 0 44 12 8
134 866 0 46 9 8
136 864 0 50 11 6
138 863 0 54 11 6
140 852 0 57 18 4
142 857 0 58 14 6
144 859 0 60 12 6
146 857 0 61 14 3
148 861 0 62 8 6
150 856 0 64 12 3
152 854 0 65 13 5
154 854 0 68 15 6
156 851 0 70 14 4
158 850 0 71 13 3
160 842 0 72 15 6
162 844 0 72 12 7
164 842 0 76 11 8
166 839 0 77 12 6
168 831 0 79 17 5
170 831 0 80 18 8
172 836 0 83 9 5
174 834 0 85 10 6
176 830 0 87 15 5
178 830 0 90 13 5
180 824 0 91 15 6
182 824 0 94 12 7
184 820 0 93 15 10
186 823 0 96 12 10
188 820 0 102 14 5
190 819 0 101 11 8
192 817 0 104 13 5
194 814 0 106 14 5
196 814 0 107 14 4
198 815 0 106 13 7
200 814 0 108 11 5
