0 725 0 0 0 0
2 711 0 0 10 0
4.00004 709 0 0 15 0
6 703 0 0 22 0
8 708 0 0 15 0
10 712 0 0 16 0
12 711 0 0 19 0
14 718 0 0 17 0
16 719 0 0 17 0
18 722 0 0 16 0
20 727 0 0 16 0
22 725 0 0 21 0
24 729 0 0 19 0
26 731 0 0 9 0
28 725 0 0 15 0
30 729 0 0 12 0
32 730 0 0 19 0
34 731 0 0 19 0
36 735 0 0 15 0
38 733 0 0 13 0
40 732 0 0 17 0
42 730 0 0 17 0
44 732 0 0 20 0
46 728 0 0 24 0
48 729 0 0 21 0
50 732 0 0 16 0
52 737 0 0 16 0
54 736 0 0 12 0
56 737 0 0 15 0
58 739 0 0 11 1
60 732 0 0 17 1
62 733 0 0 18 0
64 733 0 0 16 1
66 738 0 1 9 0
68 736 0 1 9 1
70 732 0 2 12 5
72 730 0 5 14 4
74 729 0 5 18 5
76 730 0 7 13 3
78 733 0 8 12 1
80 733 0 8 12 6
82 728 0 12 15 3
84 724 0 14 17 6
86 728 0 16 9 7
88 724 0 19 13 5
90 722 0 21 14 4
92 716 0 23 21 3
94 722 0 24 13 5
96 717 0 25 20 4
98 721 0 27 14 3
100 722 0 30 10 4
102 721 0 32 11 4
104 722 0 34 5 4
106 717 0 38 12 8
108 723 0 44 4 2
110 719 0 46 8 3
112 719 0 47 5 8
114 712 0 52 10 6
116 707 0 56 12 4
118 708 0 59 10 1
120 707 0 60 9 1
122 707 0 60 7 4
124 711 0 61 5 3
126 705 0 63 10 2
128 701 0 63 11 2
130 697 0 61 12 8
132 693 0 64 13 5
134 687 0 67 15 4
136 691 0 70 8 5
138 690 0 74 8 2
140 691 0 74 5 7
142 684 0 79 11 3
144 685 0 82 9 7
146 685 0 85 9 5
148 681 0 86 10 8
150 672 0 87 19 7
152 675 0 91 10 12
154 675 0 96 8 11
156 674 0 97 8 9
158 667 0 98 12 8
160 669 0 102 9 5
162 662 0 103 14 8
164 661 0 106 16 6
166 666 0 108 4 5
168 659 0 108 13 7
170 661 0 108 8 9
172 657 0 113 12 5
174 651 0 115 14 7
176 653 0 120 11 8
178 645 0 126 14 6
180 645 0 122 13 12
182 635 0 125 19 8
184 642 0 132 8 5
186 641 0 133 7 3
188 637 0 137 11 6
190 642 0 138 3 4
192 640 0 134 6 7
194 635 0 133 10 8
196 626 0 136 16 7
198 631 0 137 8 3
200 627 0 138 12 6
