0 902 0 0 0 0
2 893 0 0 8 0
4.00004 874 0 0 16 0
6 879 0 0 16 0
8 878 0 0 21 0
10 882 0 0 19 0
12 873 0 0 26 0
14 870 0 0 20 0
16 872 0 0 18 0
18 869 0 0 25 0
20 871 0 0 24 0
22 874 0 0 21 0
24 871 0 0 26 0
26 870 0 0 28 0
28 867 0 0 29 0
30 868 0 0 23 0
32 864 0 0 31 0
34 866 0 0 27 0
36 865 0 0 33 0
38 860 0 0 38 0
40 859 0 0 33 0
42 862 0 0 29 0
44 859 0 0 34 0
46 860 0 0 31 0
48 858 0 0 31 0
50 860 0 0 32 0
52 862 0 0 34 0
54 858 0 0 36 0
56 859 0 0 33 0
58 855 0 0 38 0
60 861 0 0 29 0
62 860 0 0 31 0
64 859 0 0 35 0
66 864 0 0 30 1
68 868 0 1 27 0
70 862 0 1 35 1
72 865 0 1 31 3
74 859 0 1 40 1
76 860 0 1 35 4
78 866 0 1 28 4
80 867 0 1 25 3
82 868 0 2 25 3
84 866 0 2 29 4
86 868 0 2 23 3
88 868 0 3 27 2
90 869 0 3 28 3
92 866 0 2 33 5
94 862 0 4 36 2
96 869 0 4 31 4
98 872 0 4 24 4
100 873 0 5 23 9
102 864 0 5 24 7
104 867 0 6 22 7
106 867 0 8 21 3
108 867 0 9 23 6
110 863 0 8 28 8
112 855 0 10 34 7
114 860 0 10 32 5
116 855 0 10 32 8
118 855 0 10 29 9
120 857 0 12 31 7
122 860 0 12 29 8
124 865 0 14 22 7
126 865 0 15 23 11
128 861 0 15 26 9
130 861 0 15 22 11
132 865 0 15 19 14
134 862 0 13 25 15
136 862 0 16 22 10
138 860 0 17 27 10
140 854 0 18 30 10
142 854 0 18 27 9
144 855 0 17 23 14
146 852 0 19 28 13
148 854 0 21 24 8
150 849 0 22 23 9
152 845 0 22 29 10
154 843 0 25 30 8
156 846 0 26 26 6
158 845 0 27 30 6
160 848 0 28 27 6
162 849 0 28 25 8
164 845 0 28 26 5
166 840 0 29 29 6
168 841 0 29 26 10
170 842 0 31 26 11
172 840 0 31 26 11
174 839 0 34 29 7
176 846 0 35 22 6
178 845 0 35 23 9
180 841 0 36 23 10
182 838 0 38 26 9
184 839 0 38 25 9
186 837 0 38 26 6
188 840 0 39 26 2
190 840 0 37 24 11
192 833 0 40 30 5
194 836 0 39 28 5
196 835 0 39 27 10
198 835 0 40 26 11
200 832 0 42 29 8
