0 1044 0 0 0 0
2 1019 8 0 12 0
4.00004 1028 9 0 13 0
6 1026 7 0 17 0
8 1017 17 0 23 0
10 1018 3 0 31 0
12 1016 7 0 25 0
14 1012 6 0 29 0
16 1005 10 0 33 0
18 991 8 0 51 0
20 1002 8 0 34 0
22 1008 5 0 29 0
24 999 6 0 39 0
26 997 8 0 38 0
28 993 9 0 43 0
30 994 9 0 37 0
32 987 7 0 48 0
34 982 8 0 42 0
36 988 3 0 40 0
38 990 3 0 42 0
40 990 3 0 42 0
42 986 6 0 43 0
44 981 6 0 40 0
46 986 8 0 38 0
48 986 4 0 45 0
50 983 13 0 35 0
52 813 0 187 29 0
54 677 0 313 41 5
56 558 0 429 43 5
58 472 0 513 47 8
60 417 1 570 36 10
62 354 1 636 35 7
64 289 0 706 29 8
66 237 0 746 28 18
68 202 0 785 28 16
70 174 0 807 24 23
72 146 0 838 26 22
74 128 0 856 25 25
76 113 0 877 20 21
78 102 0 894 20 17
80 89 0 903 13 26
82 80 0 916 13 23
84 60 0 927 15 30
86 56 0 935 11 28
88 38 0 949 12 32
90 31 0 962 14 25
92 27 0 950 13 40
94 25 0 962 11 30
96 21 0 965 14 29
98 22 0 953 9 40
100 21 0 956 10 37
102 17 0 954 12 40
104 16 0 964 12 34
106 18 0 966 13 27
108 14 0 964 18 30
110 17 0 966 9 29
112 17 0 964 11 31
114 18 0 960 12 33
116 16 0 954 9 40
118 17 0 960 9 32
120 18 0 963 11 22
122 18 0 959 9 28
124 14 0 964 10 26
126 15 0 955 9 35
128 15 0 958 10 31
130 16 0 965 8 24
132 14 0 969 8 23
134 13 0 966 4 27
136 10 0 970 6 23
138 13 0 967 3 27
140 11 0 973 6 20
142 8 0 973 10 28
144 10 0 966 5 33
146 10 0 968 8 26
148 10 0 967 7 32
150 7 0 974 8 26
152 8 0 975 3 20
154 8 0 967 4 31
156 7 0 966 5 37
158 5 0 968 8 30
160 5 0 965 8 36
162 4 0 976 11 26
164 8 0 967 7 34
166 8 0 974 13 29
168 7 0 968 12 33
170 6 0 964 12 36
172 5 0 966 11 35
174 8 0 960 9 38
176 9 0 968 5 31
178 9 0 977 5 21
180 10 0 970 9 26
182 10 0 970 8 26
184 11 0 972 9 23
186 9 0 973 7 26
188 12 0 970 6 27
190 11 0 961 12 32
192 15 0 965 8 30
194 15 0 967 10 31
196 14 0 969 8 28
198 12 0 980 8 17
200 12 0 974 11 24
