0 977 0 0 0 0
2 939 8 0 15 0
4.00004 947 7 0 12 0
6 944 10 0 17 0
8 954 6 0 17 0
10 948 4 0 18 0
12 941 4 0 30 0
14 941 4 0 25 0
16 945 3 0 28 0
18 940 10 0 26 0
20 936 7 0 32 0
22 945 5 0 25 0
24 949 3 0 24 0
26 942 3 0 29 0
28 937 13 0 25 0
30 943 4 0 28 0
32 934 9 0 28 0
34 938 4 0 31 0
36 933 7 0 33 0
38 936 4 0 29 0
40 931 9 0 30 0
42 936 5 0 30 0
44 939 2 0 28 0
46 927 10 0 32 0
48 926 6 0 39 0
50 925 3 0 41 0
52 786 0 145 41 1
54 670 0 257 45 3
56 590 0 337 41 6
58 525 0 404 38 9
60 463 0 468 33 12
62 408 0 521 30 15
64 359 0 574 30 11
66 310 0 620 26 15
68 258 0 674 27 12
70 218 0 710 25 18
72 179 0 750 20 16
74 161 0 772 23 12
76 138 0 794 14 17
78 119 0 812 17 18
80 108 0 823 22 18
82 92 0 836 18 22
84 83 0 850 15 19
86 72 0 859 16 20
88 66 0 865 18 21
90 56 0 866 16 27
92 52 0 865 15 32
94 47 0 870 10 29
96 42 0 882 11 23
98 35 0 887 11 24
100 32 0 888 15 30
102 28 0 897 16 27
104 23 0 902 12 24
106 22 0 903 10 26
108 21 0 908 10 24
110 23 0 907 11 21
112 17 0 910 14 27
114 16 0 909 10 34
116 15 0 912 9 31
118 14 0 910 8 32
120 11 0 912 10 34
122 12 0 911 10 31
124 14 0 908 8 33
126 14 0 910 8 31
128 11 0 917 9 32
130 13 0 916 7 33
132 11 0 918 8 31
134 13 0 917 5 30
136 10 0 924 6 24
138 8 0 918 6 31
140 10 0 922 6 27
142 9 0 922 4 26
144 8 0 926 5 22
146 7 0 920 9 27
148 5 0 918 13 28
150 5 0 916 11 34
152 3 0 921 10 33
154 3 0 928 6 26
156 3 0 931 6 19
158 3 0 932 5 20
160 4 0 929 3 25
162 4 0 922 5 33
164 5 0 924 4 27
166 5 0 920 2 29
168 3 0 917 1 32
170 3 0 920 3 27
172 1 0 919 2 32
174 1 0 913 3 38
176 1 0 913 6 35
178 1 0 916 5 31
180 2 0 919 4 26
182 3 0 918 6 27
184 3 0 917 6 32
186 4 0 910 8 37
188 4 0 906 8 43
190 4 0 911 7 35
192 6 0 915 6 28
194 7 0 916 6 26
196 8 0 913 5 29
198 8 0 909 5 34
200 7 0 913 4 29
