0 965 0 0 0 0 0
2 929 0 0 36 0 0
4.00004 940 0 0 31 0 0
6 937 0 0 40 0 0
8 948 0 0 28 0 0
10 957 0 0 20 0 0
12 954 0 0 24 0 0
14 951 0 0 23 0 0
16 929 0 0 26 0 0
18 929 0 0 33 0 0
20 937 0 0 18 0 0
22 935 0 0 25 0 0
24 944 0 0 19 0 0
26 947 0 0 19 0 0
28 946 0 0 29 0 0
30 955 0 0 22 0 0
32 962 0 0 17 0 0
34 948 0 0 24 0 0
36 943 0 0 25 0 0
38 943 0 0 25 0 0
40 929 0 0 26 0 0
42 931 0 0 24 0 0
44 943 0 0 21 0 0
46 938 0 0 18 0 0
48 931 0 0 17 0 0
50 936 0 0 18 0 0
52 936 0 1 17 0 0
54 941 0 5 13 0 0
56 931 0 8 20 2 0
58 928 0 14 22 2 0
60 928 0 18 18 5 0
62 911 0 21 22 6 0
64 906 0 30 18 2 0
66 891 0 29 21 7 0
68 901 0 46 15 3 0
70 892 0 48 16 7 0
72 889 0 52 13 5 0
74 883 0 56 20 5 0
76 875 0 63 19 7 0
78 862 0 61 23 10 0
80 861 0 71 19 4 0
82 861 0 76 17 9 0
84 853 0 80 17 1 0
86 846 0 76 22 6 0
88 839 0 71 21 11 0
90 840 0 82 19 6 0
92 844 0 81 15 8 0
94 842 0 81 13 8 0
96 843 0 90 11 6 0
98 838 0 92 13 6 0
100 830 0 97 18 8 0
102 827 0 105 16 7 0
104 825 0 108 13 10 0
106 822 0 109 13 6 0
108 808 0 110 14 10 0
110 815 0 114 5 6 0
112 803 0 121 18 10 0
114 808 0 119 11 7 0
116 806 0 118 10 6 0
118 806 0 128 9 6 0
120 795 0 130 16 7 0
122 796 0 132 15 8 0
124 791 0 130 13 11 0
126 784 0 138 16 10 0
128 783 0 140 15 8 0
130 782 0 147 10 4 0
132 773 0 150 14 8 0
134 765 0 148 19 8 0
136 768 0 156 15 5 0
138 764 0 154 12 6 0
140 765 0 156 11 8 0
142 752 0 161 18 7 0
144 762 0 158 9 9 0
146 753 0 163 16 7 0
148 755 0 163 9 6 0
150 745 0 173 16 2 0
152 742 0 176 15 6 0
154 741 0 179 19 6 0
156 737 0 181 16 2 0
158 725 0 182 26 3 0
160 739 0 192 11 7 0
162 733 0 188 13 10 0
164 730 0 195 12 10 0
166 726 0 203 11 10 0
168 721 0 204 12 10 0
170 722 0 196 12 14 0
172 717 0 205 13 9 0
174 714 0 202 13 12 0
176 708 0 207 13 7 0
178 700 0 210 20 7 0
180 691 0 211 27 9 0
182 690 0 205 19 10 0
184 693 0 222 15 2 0
186 693 0 215 12 6 0
188 681 0 212 17 12 0
190 680 0 213 13 8 0
192 676 0 221 15 8 0
194 681 0 224 7 10 0
196 683 0 231 7 9 0
198 662 0 217 19 17 0
200 661 0 227 14 6 0
