0 961 0 0 0 0 0
2 921 0 0 47 0 0
4.00004 927 0 0 42 0 0
6 927 0 0 35 0 0
8 919 0 0 47 0 0
10 933 0 0 30 0 0
12 943 0 0 25 0 0
14 928 0 0 41 0 0
16 934 0 0 32 0 0
18 927 0 0 41 0 0
20 929 0 0 47 0 0
22 942 0 0 32 0 0
24 943 0 0 37 0 0
26 932 0 0 42 0 0
28 933 0 0 51 0 0
30 938 0 0 43 0 0
32 928 0 0 45 0 0
34 933 0 0 42 0 0
36 923 0 0 45 0 0
38 929 0 0 52 0 0
40 921 0 0 44 0 0
42 925 0 0 30 0 0
44 925 0 0 45 0 0
46 936 0 0 33 0 0
48 946 0 0 39 0 0
50 937 0 0 40 0 0
52 922 0 2 44 1 0
54 913 0 7 53 0 0
56 913 0 9 57 3 0
58 925 0 18 36 3 0
60 920 0 23 31 5 0
62 912 0 22 41 7 0
64 916 0 32 31 4 0
66 906 0 33 31 8 0
68 910 0 45 18 6 0
70 881 0 39 38 9 0
72 873 0 50 34 11 0
74 864 0 50 36 9 0
76 870 0 55 27 11 0
78 861 0 56 32 10 0
80 862 0 67 27 9 0
82 858 0 68 23 10 0
84 851 0 78 30 6 0
86 838 0 79 34 12 0
88 825 0 83 41 12 0
90 839 0 88 27 16 0
92 835 0 87 26 14 0
94 821 0 92 32 12 0
96 821 0 103 31 11 0
98 816 0 104 33 20 0
100 822 0 114 20 11 0
102 816 0 98 24 21 0
104 814 0 115 23 16 0
106 807 0 118 24 10 0
108 803 0 121 18 12 0
110 787 0 123 24 13 0
112 793 0 128 16 10 0
114 797 0 120 13 18 0
116 784 0 136 22 19 0
118 787 0 152 20 12 0
120 779 0 142 24 20 0
122 780 0 154 22 11 0
124 777 0 153 19 15 0
126 758 0 157 32 16 0
128 752 0 164 34 14 0
130 754 0 160 23 15 0
132 753 0 167 22 19 0
134 740 0 177 24 12 0
136 739 0 176 22 14 0
138 737 0 176 27 22 0
140 736 0 179 24 15 0
142 732 0 196 24 12 0
144 721 0 184 31 18 0
146 723 0 187 24 24 0
148 722 0 213 19 4 0
150 717 0 208 16 16 0
152 711 0 208 24 18 0
154 712 0 198 16 23 0
156 704 0 213 20 21 0
158 700 0 207 24 23 0
160 699 0 222 18 12 0
162 692 0 210 22 24 0
164 693 0 228 22 17 0
166 675 0 229 33 20 0
168 680 0 227 27 26 0
170 683 0 244 16 13 0
172 678 0 237 20 18 0
174 677 0 240 20 25 0
176 660 0 255 30 21 0
178 672 0 255 18 20 0
180 663 0 257 22 22 0
182 659 0 270 19 20 0
184 657 0 270 18 23 0
186 654 0 270 18 28 0
188 653 0 282 15 13 0
190 637 0 270 22 21 0
192 638 0 280 20 20 0
194 636 0 281 21 23 0
196 635 0 285 21 22 0
198 634 0 286 19 27 0
200 625 0 295 27 15 0
