0 868 0 0 0 0 0
2 850 0 0 26 0 0
4.00004 840 0 0 32 0 0
6 843 0 0 25 0 0
8 847 0 0 23 0 0
10 845 0 0 19 0 0
12 848 0 0 26 0 0
14 848 0 0 31 0 0
16 857 0 0 19 0 0
18 851 0 0 26 0 0
20 854 0 0 27 0 0
22 852 0 0 28 0 0
24 856 0 0 30 0 0
26 860 0 0 32 0 0
28 864 0 0 20 0 0
30 861 0 0 22 0 0
32 854 0 0 31 0 0
34 860 0 0 19 0 0
36 864 0 0 17 0 0
38 862 0 0 19 0 0
40 868 0 0 21 0 0
42 854 0 0 25 0 0
44 860 0 0 18 0 0
46 855 0 0 24 0 0
48 859 0 0 22 0 0
50 852 0 0 28 0 0
52 863 0 4 19 0 0
54 851 0 11 20 2 0
56 842 0 13 23 5 0
58 841 0 22 16 7 0
60 842 0 29 12 6 0
62 834 0 36 17 9 0
64 831 0 43 17 5 0
66 825 0 44 19 13 0
68 818 0 42 18 13 0
70 819 0 52 11 9 0
72 818 0 57 9 11 0
74 805 0 64 15 8 0
76 803 0 63 10 6 0
78 802 0 70 12 6 0
80 794 0 78 15 5 0
82 786 0 85 17 9 0
84 784 0 92 15 8 0
86 778 0 100 19 8 0
88 781 0 98 9 11 0
90 768 0 101 20 11 0
92 772 0 108 16 9 0
94 773 0 112 8 8 0
96 758 0 114 20 15 0
98 760 0 118 16 10 0
100 755 0 126 17 4 0
102 756 0 132 13 8 0
104 753 0 137 13 12 0
106 748 0 141 12 13 0
108 752 0 142 7 9 0
110 745 0 147 13 12 0
112 741 0 155 16 5 0
114 739 0 162 17 13 0
116 737 0 164 16 12 0
118 733 0 171 13 6 0
120 728 0 172 13 9 0
122 723 0 169 14 8 0
124 715 0 171 16 11 0
126 716 0 172 10 10 0
128 708 0 183 18 10 0
130 708 0 183 15 14 0
132 704 0 185 12 14 0
134 703 0 187 12 13 0
136 690 0 189 14 13 0
138 694 0 200 13 9 0
140 686 0 206 17 10 0
142 682 0 197 15 14 0
144 684 0 194 11 18 0
146 683 0 197 7 7 0
148 678 0 201 8 9 0
150 675 0 195 6 12 0
152 669 0 203 11 11 0
154 664 0 210 12 11 0
156 663 0 215 10 13 0
158 649 0 221 15 7 0
160 652 0 223 9 6 0
162 649 0 225 12 16 0
164 643 0 234 11 12 0
166 644 0 225 10 17 0
168 642 0 228 11 15 0
170 636 0 238 13 13 0
172 638 0 236 11 13 0
174 633 0 237 10 12 0
176 625 0 246 15 11 0
178 624 0 250 13 8 0
180 626 0 253 8 7 0
182 623 0 253 8 15 0
184 614 0 272 13 10 0
186 613 0 272 13 12 0
188 604 0 274 14 12 0
190 607 0 275 6 12 0
192 600 0 281 10 10 0
194 596 0 288 13 11 0
196 603 0 283 5 15 0
198 596 0 280 9 18 0
200 592 0 290 12 10 0
