0 939 0 0 0 0 0
2 891 10 0 25 0 6
4.00004 879 12 0 37 0 3
6 882 11 0 39 0 6
8 891 7 0 26 0 10
10 882 8 0 40 0 7
12 887 7 0 31 0 7
14 866 12 0 41 0 12
16 888 8 0 31 0 7
18 875 10 0 34 0 13
20 871 11 0 29 0 13
22 864 14 0 36 0 12
24 877 5 0 33 0 5
26 866 7 0 40 0 13
28 864 13 0 30 0 9
30 858 13 0 40 0 8
32 866 11 0 36 0 14
34 876 11 0 30 0 8
36 871 9 0 41 0 11
38 866 9 0 34 0 10
40 881 16 0 31 0 7
42 895 11 0 29 0 10
44 874 15 0 30 0 11
46 881 8 0 32 0 10
48 877 10 0 24 0 4
50 875 9 0 32 0 7
52 758 0 137 18 18 0
54 730 0 157 15 25 0
56 704 0 182 8 24 0
58 692 0 181 9 36 0
60 679 1 212 8 21 0
62 648 0 227 11 32 0
64 643 0 248 7 19 0
66 638 0 252 6 26 0
68 630 0 248 10 33 0
70 616 0 281 9 27 0
72 604 0 289 9 30 0
74 589 0 299 12 41 0
76 578 0 317 8 34 0
78 564 0 331 6 40 0
80 553 0 344 7 31 0
82 543 0 357 8 32 1
84 528 0 354 8 45 0
86 522 0 362 12 41 0
88 515 0 393 9 22 0
90 508 0 396 5 20 1
92 494 0 394 11 39 0
94 492 0 421 7 23 0
96 479 0 429 7 19 0
98 473 0 427 6 21 0
100 476 0 424 4 29 0
102 464 0 430 7 40 0
104 451 0 446 9 26 0
106 444 0 458 8 31 0
108 445 0 468 2 31 0
110 442 0 472 10 29 0
112 436 0 473 6 38 0
114 419 0 505 4 24 0
116 412 0 493 5 29 0
118 398 0 497 6 28 0
120 395 0 505 1 34 0
122 388 0 519 0 26 0
124 386 0 507 5 38 0
126 386 0 516 2 33 0
128 374 0 527 7 28 0
130 380 0 533 2 33 0
132 373 0 535 3 28 0
134 371 0 540 7 29 0
136 366 0 547 6 30 0
138 353 0 546 8 31 0
140 354 0 565 4 23 0
142 353 0 556 3 24 0
144 342 0 566 9 29 0
146 337 0 575 5 25 0
148 335 0 571 4 32 0
150 332 0 573 7 31 0
152 321 0 582 1 35 0
154 317 0 598 7 29 0
156 312 0 592 4 33 1
158 306 0 612 4 24 0
160 305 0 602 6 35 1
162 292 0 617 9 34 0
164 290 0 615 4 31 0
166 284 0 619 6 34 0
168 280 0 619 4 37 0
170 280 0 625 3 36 0
172 274 0 638 2 33 0
174 263 0 633 5 37 0
176 265 0 618 3 48 0
178 257 0 642 3 33 0
180 253 0 653 4 26 0
182 250 0 643 3 36 0
184 243 0 652 7 30 0
186 239 0 650 4 37 0
188 233 0 664 4 36 0
190 238 0 680 2 30 0
192 229 0 679 2 32 0
194 221 0 677 5 36 0
196 219 0 681 3 34 0
198 212 0 685 5 32 0
200 212 0 683 4 39 0
