0 898 0 0 0 0 0
2 879 0 0 22 0 0
4.00004 880 0 0 25 0 0
6 887 0 0 23 0 0
8 883 0 0 18 0 0
10 888 0 0 20 0 0
12 886 0 0 19 0 0
14 874 0 0 28 0 0
16 880 0 0 21 0 0
18 883 0 0 14 0 0
20 891 0 0 14 0 0
22 874 0 0 26 0 0
24 890 0 0 14 0 0
26 880 0 0 21 0 0
28 882 0 0 17 0 0
30 882 0 0 18 0 0
32 870 0 0 21 0 0
34 873 0 0 14 0 0
36 880 0 0 13 0 0
38 877 0 0 18 0 0
40 870 0 0 22 0 0
42 886 0 0 11 0 0
44 882 0 0 17 0 0
46 883 0 0 16 0 0
48 877 0 0 20 0 0
50 875 0 0 20 0 0
52 873 0 2 21 0 0
54 881 0 6 12 3 0
56 867 0 12 20 1 0
58 870 0 14 15 3 0
60 856 0 19 19 2 0
62 852 0 17 20 2 0
64 857 0 24 14 3 0
66 857 0 29 14 2 0
68 853 0 26 14 6 0
70 840 0 29 20 6 0
72 837 0 30 17 5 0
74 838 0 35 13 6 0
76 832 0 43 14 6 0
78 829 0 48 9 9 0
80 815 0 50 18 7 0
82 817 0 50 13 4 0
84 815 0 58 16 5 0
86 812 0 60 14 12 0
88 802 0 64 19 8 0
90 802 0 74 8 2 0
92 794 0 66 17 12 0
94 789 0 73 16 5 0
96 788 0 70 11 7 0
98 781 0 82 10 9 0
100 783 0 87 8 8 0
102 778 0 86 9 9 0
104 778 0 97 8 7 0
106 772 0 99 13 8 0
108 767 0 103 12 7 0
110 761 0 106 13 13 0
112 761 0 117 8 3 0
114 759 0 117 9 8 0
116 751 0 120 11 3 0
118 745 0 123 13 9 0
120 746 0 126 11 7 0
122 741 0 138 9 3 0
124 743 0 134 8 7 0
126 737 0 138 9 9 0
128 726 0 132 14 17 0
130 724 0 137 11 11 0
132 722 0 142 7 8 0
134 719 0 150 7 7 0
136 713 0 156 9 9 0
138 706 0 156 16 10 0
140 715 0 162 5 5 0
142 710 0 164 9 5 0
144 709 0 161 9 10 0
146 710 0 168 7 4 0
148 706 0 170 8 9 0
150 703 0 178 6 8 0
152 698 0 178 8 7 0
154 700 0 173 5 8 0
156 698 0 189 6 1 0
158 696 0 189 7 3 0
160 674 0 182 22 11 0
162 684 0 182 10 8 0
164 681 0 185 11 9 0
166 677 0 183 10 11 0
168 673 0 190 13 7 0
170 673 0 195 7 6 0
172 667 0 192 6 9 0
174 665 0 196 6 5 0
176 655 0 208 11 5 0
178 655 0 212 9 5 0
180 656 0 211 5 8 0
182 653 0 216 8 11 0
184 655 0 216 6 8 0
186 647 0 223 12 6 0
188 646 0 221 8 6 0
190 645 0 223 8 9 0
192 641 0 235 9 4 0
194 640 0 225 11 10 0
196 637 0 237 10 5 0
198 638 0 234 5 12 0
200 626 0 239 10 5 0
