0 1088 0 0 0 0 0
2 1029 34 0 27 0 1
4.00004 1034 38 0 18 0 1
6 1029 33 0 22 0 4
8 1035 35 0 22 0 4
10 1031 30 0 27 0 6
12 1031 36 0 27 0 4
14 1042 40 0 21 0 1
16 1039 27 0 29 0 4
18 1028 38 0 25 0 3
20 1028 33 0 25 0 5
22 1040 27 0 20 0 7
24 1033 41 0 19 0 3
26 1053 23 0 33 0 3
28 1038 35 0 31 0 1
30 1041 32 0 29 0 1
32 1033 39 0 30 0 3
34 1054 29 0 26 0 4
36 1044 37 0 28 0 3
38 1047 45 0 26 0 1
40 1055 39 0 21 0 3
42 1053 33 0 28 0 2
44 1048 34 0 24 0 2
46 1043 42 0 24 0 3
48 1054 35 0 22 0 4
50 1063 28 0 20 0 2
52 1003 0 85 11 16 0
54 968 0 111 15 16 0
56 959 0 124 11 22 0
58 938 0 156 13 9 1
60 923 0 183 5 10 0
62 895 0 204 11 15 0
64 867 0 217 14 26 0
66 869 0 235 6 14 0
68 852 0 242 11 23 0
70 831 0 262 7 19 0
72 811 0 276 6 19 0
74 797 0 300 8 20 0
76 785 0 318 7 15 0
78 774 0 320 8 21 0
80 755 0 335 11 14 0
82 743 0 348 14 22 0
84 728 0 363 11 22 0
86 719 0 380 3 15 0
88 702 0 400 4 20 0
90 685 0 415 9 21 0
92 665 0 437 6 20 0
94 659 0 437 6 20 0
96 647 0 446 3 21 0
98 637 0 452 4 21 0
100 621 0 473 5 23 0
102 602 0 490 12 23 0
104 595 0 511 5 17 0
106 585 0 520 5 18 0
108 574 0 522 6 21 0
110 561 0 533 7 25 0
112 552 0 548 1 21 0
114 541 0 550 5 27 0
116 530 0 555 5 25 0
118 521 0 577 6 20 0
120 523 0 575 2 21 0
122 497 0 599 7 17 0
124 489 0 591 6 34 0
126 484 0 611 3 23 0
128 473 0 628 2 19 0
130 464 0 623 6 15 0
132 460 0 632 4 16 0
134 453 0 637 2 24 0
136 448 0 644 2 29 0
138 440 0 653 3 22 0
140 439 0 672 4 19 0
142 433 0 673 3 21 0
144 421 0 675 2 35 0
146 416 0 692 3 25 0
148 411 0 701 4 19 0
150 401 0 705 1 24 0
152 395 0 710 3 18 0
154 382 0 727 4 19 0
156 370 0 726 4 26 0
158 364 0 726 3 32 0
160 363 0 741 3 29 0
162 354 0 747 3 23 0
164 344 0 761 5 23 0
166 343 0 765 4 24 0
168 340 0 768 1 24 0
170 332 0 763 5 25 0
172 331 0 774 4 22 0
174 329 0 755 1 23 0
176 320 0 773 3 21 0
178 316 0 762 4 22 0
180 306 0 775 2 21 0
182 301 0 782 3 21 0
184 293 0 802 2 25 0
186 282 0 805 3 30 0
188 280 0 809 3 26 0
190 271 0 815 3 24 0
192 272 0 820 1 25 0
194 270 0 816 3 29 0
196 262 0 825 5 26 0
198 255 0 843 4 21 0
200 255 0 848 2 25 0
