0 848 0 0 0 0 0
2 807 0 0 36 0 0
4.00004 809 0 0 35 0 0
6 830 0 0 25 0 0
8 808 0 0 40 0 0
10 799 0 0 33 0 0
12 793 0 0 35 0 0
14 809 0 0 29 0 0
16 818 0 0 23 0 0
18 825 0 0 22 0 0
20 813 0 0 32 0 0
22 812 0 0 25 0 0
24 810 0 0 27 0 0
26 809 0 0 29 0 0
28 813 0 0 36 0 0
30 820 0 0 35 0 0
32 818 0 0 36 0 0
34 816 0 0 34 0 0
36 826 0 0 31 0 0
38 825 0 0 30 0 0
40 821 0 0 32 0 0
42 829 0 0 26 0 0
44 828 0 0 29 0 0
46 819 0 0 27 0 0
48 814 0 0 39 0 0
50 819 0 0 34 0 0
52 818 0 0 29 0 0
54 826 0 7 26 1 0
56 808 0 12 30 2 0
58 804 0 16 22 5 0
60 795 0 29 26 4 0
62 786 0 39 25 5 0
64 779 0 45 19 8 0
66 773 0 54 18 6 0
68 766 0 58 17 5 0
70 751 0 58 25 10 0
72 753 0 70 17 4 0
74 744 0 79 22 7 0
76 731 0 82 31 10 0
78 731 0 83 21 13 0
80 718 0 96 20 6 0
82 725 0 96 16 12 0
84 716 0 106 17 8 0
86 704 0 112 26 14 0
88 698 0 119 26 16 0
90 691 0 122 28 9 0
92 688 0 125 26 9 0
94 686 0 131 22 11 0
96 680 0 140 21 11 0
98 686 0 140 16 11 0
100 676 0 154 25 11 0
102 683 0 155 11 16 0
104 658 0 165 24 11 0
106 659 0 167 20 16 0
108 654 0 179 20 15 0
110 640 0 183 27 14 0
112 644 0 180 20 9 0
114 633 0 179 26 11 0
116 619 0 188 32 11 0
118 624 0 191 22 18 0
120 620 0 196 20 13 0
122 619 0 203 13 8 0
124 616 0 216 22 6 0
126 614 0 204 21 28 0
128 607 0 224 20 11 0
130 604 0 224 17 12 0
132 597 0 236 21 7 0
134 587 0 238 17 7 0
136 584 0 241 17 12 0
138 570 0 234 22 25 0
140 568 0 244 17 14 0
142 565 0 252 12 12 0
144 551 0 243 18 15 0
146 548 0 246 16 15 0
148 543 0 250 22 17 0
150 548 0 258 17 14 0
152 545 0 272 16 11 0
154 537 0 275 19 19 0
156 543 0 285 13 15 0
158 540 0 292 11 16 0
160 529 0 296 17 15 0
162 524 0 293 20 21 0
164 526 0 300 15 9 0
166 526 0 304 14 10 0
168 515 0 307 15 17 0
170 509 0 319 18 17 0
172 505 0 322 17 19 0
174 503 0 328 13 11 0
176 495 0 327 13 14 0
178 489 0 329 14 19 0
180 482 0 335 16 13 0
182 485 0 329 10 21 0
184 484 0 339 6 20 0
186 470 0 345 13 20 0
188 470 0 345 10 15 0
190 461 0 343 15 18 0
192 461 0 337 13 25 0
194 461 0 348 9 20 0
196 451 0 359 15 13 0
198 446 0 356 15 17 0
200 439 0 364 15 16 0
