0 903 0 0 0 0 0
2 807 0 0 81 0 0
4.00004 778 0 0 113 0 0
6 754 0 0 149 0 0
8 734 0 0 165 0 0
10 737 0 0 168 0 0
12 723 0 0 183 0 0
14 734 0 0 168 0 0
16 730 0 0 176 0 0
18 709 0 0 215 0 0
20 713 0 0 224 0 0
22 702 0 0 228 0 0
24 718 0 0 212 0 0
26 705 0 0 228 0 0
28 716 0 0 217 0 0
30 707 0 0 222 0 0
32 706 0 0 219 0 0
34 710 0 0 220 0 0
36 710 0 0 207 0 0
38 696 0 0 217 0 0
40 700 0 0 218 0 0
42 699 0 0 221 0 0
44 706 0 0 217 0 0
46 715 0 0 211 0 0
48 728 0 0 196 0 0
50 704 0 0 225 0 0
52 695 0 0 233 8 0
54 698 0 0 204 23 0
56 689 0 3 199 31 0
58 687 0 5 182 53 0
60 689 0 10 168 52 0
62 675 0 19 181 54 0
64 684 0 21 153 77 0
66 676 0 29 146 86 0
68 660 0 44 148 76 0
70 655 0 50 144 81 0
72 646 0 63 135 88 0
74 642 0 74 133 88 0
76 630 0 83 141 92 0
78 620 0 91 136 100 0
80 625 0 100 119 93 0
82 625 0 109 101 98 0
84 626 0 118 95 89 0
86 600 0 123 121 112 0
88 583 0 126 127 111 0
90 584 0 135 122 107 0
92 568 0 141 123 121 0
94 557 0 148 124 116 0
96 554 0 155 127 110 0
98 552 0 164 118 111 0
100 545 0 175 120 112 0
102 538 0 164 118 139 0
104 531 0 182 117 124 0
106 528 0 182 112 142 0
108 529 0 191 100 143 0
110 517 0 200 104 144 0
112 510 0 211 104 134 0
114 503 0 229 104 123 0
116 493 0 231 108 132 0
118 488 0 236 106 141 0
120 483 0 237 99 147 0
122 480 0 243 96 154 0
124 459 0 265 114 140 0
126 461 0 273 95 130 0
128 443 0 281 106 134 0
130 440 0 279 103 149 0
132 441 0 289 93 148 0
134 425 0 315 103 134 0
136 422 0 321 99 141 0
138 405 0 334 104 129 0
140 400 0 328 100 131 0
142 396 0 332 86 141 0
144 400 0 345 79 151 0
146 397 0 345 77 157 0
148 376 0 358 91 158 0
150 379 0 361 85 147 0
152 371 0 372 82 147 0
154 364 0 383 85 153 0
156 357 0 374 88 182 0
158 347 0 380 93 174 0
160 347 0 376 82 169 0
162 349 0 379 78 168 0
164 348 0 375 71 173 0
166 344 0 367 72 196 0
168 341 0 380 71 181 0
170 347 0 383 60 171 0
172 346 0 394 57 169 0
174 351 0 401 47 162 0
176 340 0 403 54 163 0
178 323 0 418 61 149 0
180 319 0 407 63 153 0
182 306 0 413 67 169 0
184 300 0 435 64 158 0
186 294 0 431 62 165 0
188 290 0 434 63 188 0
190 287 0 427 63 180 0
192 292 0 445 48 171 0
194 280 0 448 54 176 0
196 278 0 459 49 169 0
198 269 0 465 57 182 0
200 277 0 470 36 180 0
