0 1012 0 0 0 0 0
2 961 0 0 45 0 0
4.00004 930 0 0 85 0 0
6 915 0 0 91 0 0
8 906 0 0 103 0 0
10 884 0 0 118 0 0
12 869 0 0 129 0 0
14 864 0 0 124 0 0
16 843 0 0 153 0 0
18 857 0 0 145 0 0
20 852 0 0 148 0 0
22 857 0 0 151 0 0
24 843 0 0 162 0 0
26 842 0 0 160 0 0
28 839 0 0 168 0 0
30 839 0 0 165 0 0
32 838 0 0 154 0 0
34 844 0 0 158 0 0
36 857 0 0 143 0 0
38 841 0 0 155 0 0
40 840 0 0 158 0 0
42 835 0 0 169 0 0
44 836 0 0 169 0 0
46 841 0 0 160 0 0
48 830 0 0 168 0 0
50 835 0 0 163 0 0
52 830 0 0 155 2 0
54 810 0 0 165 7 0
56 824 0 0 153 13 0
58 826 0 0 145 24 0
60 826 0 1 132 32 0
62 824 0 4 115 35 0
64 812 0 9 124 43 0
66 798 0 11 134 37 0
68 793 0 17 133 44 0
70 787 0 18 129 62 0
72 788 0 22 116 61 0
74 780 0 28 123 63 0
76 785 0 38 109 60 0
78 769 0 45 116 61 0
80 767 0 53 111 60 0
82 767 0 59 101 59 0
84 757 0 62 106 70 0
86 745 0 65 119 71 0
88 748 0 71 106 66 0
90 738 0 77 115 74 0
92 739 0 78 107 79 0
94 738 0 86 109 73 0
96 745 0 91 97 64 0
98 734 0 96 102 72 0
100 736 0 97 97 73 0
102 726 0 98 96 74 0
104 721 0 106 97 75 0
106 710 0 109 99 80 0
108 710 0 114 97 72 0
110 704 0 125 95 70 0
112 705 0 132 93 64 0
114 687 0 137 101 64 0
116 684 0 138 101 66 0
118 671 0 136 111 78 0
120 667 0 142 107 78 0
122 648 0 151 124 74 0
124 653 0 156 107 73 0
126 637 0 155 120 72 0
128 644 0 162 105 76 0
130 635 0 168 108 84 0
132 636 0 170 100 82 0
134 640 0 169 87 90 0
136 638 0 181 83 79 0
138 626 0 185 90 77 0
140 620 0 184 93 91 0
142 608 0 190 97 90 0
144 594 0 192 106 88 0
146 595 0 200 102 90 0
148 598 0 198 93 102 0
150 609 0 204 79 107 0
152 598 0 214 79 100 0
154 599 0 213 78 102 0
156 579 0 224 96 93 0
158 579 0 231 89 86 0
160 571 0 236 91 82 0
162 567 0 236 88 95 0
164 555 0 238 97 96 0
166 549 0 237 94 102 0
168 549 0 236 96 111 0
170 550 0 242 87 109 0
172 549 0 241 83 110 0
174 550 0 261 78 95 0
176 555 0 272 67 88 0
178 546 0 277 77 89 0
180 541 0 276 80 93 0
182 531 0 278 80 95 0
184 535 0 276 70 98 0
186 528 0 284 76 88 0
188 514 0 286 85 90 0
190 512 0 290 78 99 0
192 512 0 287 80 101 0
194 504 0 301 86 99 0
196 508 0 302 73 95 0
198 500 0 305 78 99 0
200 499 0 311 75 95 0
