0 1083 0 0 0 0 0
2 985 15 0 60 0 8
4.00004 968 9 0 81 0 13
6 942 5 0 92 0 21
8 938 1 0 104 0 14
10 907 1 0 119 0 26
12 902 0 0 116 0 42
14 912 1 0 128 0 25
16 899 0 0 138 0 28
18 869 1 0 149 0 46
20 867 0 0 172 0 30
22 859 0 0 166 0 46
24 854 0 0 169 0 50
26 844 0 0 174 0 44
28 843 0 0 174 0 52
30 833 0 0 181 0 54
32 822 0 0 193 0 49
34 826 0 0 187 0 50
36 824 0 0 212 0 44
38 822 0 0 193 0 54
40 843 0 0 200 0 39
42 838 0 0 184 0 60
44 837 0 0 193 0 41
46 847 0 0 178 0 42
48 845 0 0 177 0 50
50 849 0 0 186 0 46
52 809 0 34 88 149 1
54 772 0 75 85 161 0
56 742 0 109 58 185 0
58 714 0 143 54 186 2
60 676 0 168 63 185 0
62 660 0 199 41 194 0
64 625 0 217 41 202 0
66 600 0 244 45 201 0
68 578 0 261 36 215 0
70 552 0 282 45 207 0
72 536 0 305 36 220 0
74 509 0 328 42 206 0
76 495 0 345 32 213 1
78 471 0 364 31 221 0
80 445 0 393 29 228 0
82 421 0 448 39 196 0
84 408 0 458 46 196 0
86 390 0 458 40 221 0
88 373 0 480 35 218 1
90 363 0 501 26 213 0
92 359 0 511 26 212 0
94 340 0 525 29 215 0
96 330 0 535 30 217 0
98 322 0 553 26 198 1
100 309 0 563 30 203 0
102 294 0 579 23 207 0
104 283 0 575 23 225 0
106 275 0 592 29 215 0
108 266 0 618 26 191 0
110 243 0 625 26 215 0
112 232 0 619 21 242 0
114 226 0 640 23 221 1
116 215 0 644 25 227 0
118 206 0 650 24 240 0
120 193 0 656 28 229 0
122 193 0 677 18 224 0
124 186 0 683 20 230 0
126 177 0 696 24 222 0
128 171 0 707 26 209 0
130 166 0 691 15 235 0
132 161 0 696 22 225 0
134 154 0 711 11 229 0
136 142 0 718 14 238 0
138 141 0 733 16 214 0
140 133 0 731 12 235 0
142 128 0 743 15 228 0
144 127 0 737 13 231 0
146 122 0 743 15 241 1
148 112 0 757 16 229 0
150 113 0 766 13 221 0
152 105 0 762 15 231 0
154 103 0 781 18 216 0
156 97 0 780 15 216 0
158 98 0 784 12 214 0
160 93 0 781 17 214 0
162 92 0 761 11 235 0
164 87 0 763 15 226 0
166 83 0 765 11 228 0
168 79 0 766 13 236 0
170 73 0 766 11 225 0
172 66 0 757 12 252 0
174 64 0 770 9 229 0
176 61 0 770 10 238 0
178 55 0 771 10 241 0
180 50 0 756 10 253 0
182 48 0 766 11 250 0
184 47 0 764 6 248 0
186 47 0 768 6 235 0
188 44 0 769 11 239 0
190 41 0 766 12 243 0
192 40 0 788 11 213 0
194 42 0 781 7 224 0
196 38 0 793 11 205 0
198 38 0 790 9 213 0
200 35 0 785 10 228 0
