0 846 0 0 0 0 0
2 747 0 0 101 0 0
4.00004 710 0 0 130 0 0
6 699 0 0 135 0 0
8 674 0 0 165 0 0
10 683 0 0 152 0 0
12 674 0 0 168 0 0
14 675 0 0 153 0 0
16 682 0 0 151 0 0
18 670 0 0 168 0 0
20 678 0 0 150 0 0
22 681 0 0 162 0 0
24 668 0 0 161 0 0
26 669 0 0 164 0 0
28 652 0 0 173 0 0
30 651 0 0 161 0 0
32 647 0 0 164 0 0
34 655 0 0 150 0 0
36 642 0 0 164 0 0
38 643 0 0 165 0 0
40 641 0 0 166 0 0
42 644 0 0 175 0 0
44 655 0 0 159 0 0
46 641 0 0 171 0 0
48 642 0 0 162 0 0
50 636 0 0 174 0 0
52 631 0 4 144 31 0
54 619 0 15 133 57 0
56 610 0 30 113 74 0
58 587 0 49 105 78 0
60 579 0 64 95 87 0
62 558 0 88 84 66 0
64 536 0 108 88 75 0
66 510 0 131 93 68 0
68 502 0 134 88 90 0
70 479 0 154 92 94 0
72 483 0 165 76 90 0
74 473 0 181 72 91 0
76 461 0 205 71 93 0
78 443 0 219 72 90 0
80 437 0 226 64 90 0
82 424 0 238 63 105 0
84 404 0 242 64 109 0
86 397 0 259 66 110 0
88 384 0 279 68 113 0
90 389 0 289 54 109 0
92 371 0 295 57 101 0
94 366 0 296 48 109 0
96 349 0 313 53 115 0
98 336 0 316 60 122 0
100 337 0 335 38 126 0
102 334 0 339 34 130 0
104 319 0 350 42 114 0
106 313 0 355 40 138 0
108 306 0 374 37 117 0
110 298 0 380 37 121 0
112 282 0 387 44 133 0
114 282 0 383 38 143 0
116 276 0 389 33 149 0
118 268 0 402 37 141 0
120 252 0 405 44 123 0
122 247 0 429 37 119 0
124 237 0 427 36 137 0
126 232 0 433 31 132 0
128 220 0 425 37 139 0
130 226 0 441 21 140 0
132 209 0 437 28 134 0
134 204 0 452 29 134 0
136 196 0 455 27 127 0
138 191 0 469 30 125 0
140 192 0 474 21 139 0
142 190 0 452 23 157 0
144 189 0 474 22 127 0
146 178 0 468 29 143 0
148 169 0 479 30 144 0
150 170 0 486 22 136 0
152 162 0 495 26 127 0
154 158 0 506 26 129 0
156 152 0 499 27 146 0
158 158 0 497 19 153 0
160 150 0 522 26 148 0
162 144 0 530 27 136 0
164 143 0 534 26 134 0
166 134 0 548 32 126 0
168 131 0 519 29 153 0
170 130 0 523 23 142 0
172 127 0 532 19 155 0
174 126 0 530 16 152 0
176 122 0 535 23 149 0
178 122 0 532 19 147 0
180 115 0 531 22 165 0
182 114 0 540 17 157 0
184 107 0 547 22 158 0
186 109 0 540 15 173 0
188 102 0 533 22 165 0
190 101 0 535 16 162 0
192 96 0 549 16 167 0
194 90 0 568 17 144 0
196 91 0 562 13 155 0
198 91 0 572 10 160 0
200 89 0 577 12 146 0
