0 1091 0 0 0 0 0
2 1015 18 0 52 0 12
4.00004 982 8 0 77 0 29
6 971 2 0 97 0 24
8 955 2 0 100 0 31
10 948 1 0 98 0 35
12 941 0 0 107 0 33
14 936 0 0 122 0 32
16 923 0 0 132 0 25
18 911 0 0 129 0 35
20 917 0 0 136 0 29
22 920 0 0 133 0 25
24 917 0 0 132 0 24
26 905 0 0 128 0 39
28 890 0 0 153 0 38
30 891 0 0 161 0 38
32 881 0 0 150 0 43
34 876 0 0 167 0 40
36 884 0 0 138 0 33
38 870 0 0 164 0 43
40 858 0 0 161 0 50
42 862 0 0 161 0 45
44 861 0 0 166 0 38
46 862 0 0 168 0 40
48 867 0 0 151 0 40
50 860 0 0 151 0 36
52 821 0 27 67 122 0
54 783 0 70 57 129 0
56 769 0 95 59 133 0
58 737 0 134 54 131 0
60 705 0 161 57 148 0
62 676 0 192 40 157 0
64 642 0 216 37 165 0
66 616 0 250 30 149 0
68 590 0 277 30 160 0
70 571 0 301 27 159 0
72 545 0 320 31 154 0
74 523 0 338 28 162 0
76 499 0 362 33 167 0
78 476 0 386 20 166 0
80 456 0 400 30 164 0
82 441 0 433 19 150 0
84 433 0 448 20 140 0
86 410 0 459 21 162 0
88 397 0 473 16 164 0
90 372 0 491 21 159 0
92 360 0 506 28 151 0
94 348 0 520 18 158 0
96 333 0 541 25 146 0
98 314 0 538 22 154 0
100 308 0 557 20 146 0
102 301 0 567 24 140 0
104 288 0 565 23 165 0
106 282 0 581 17 161 0
108 271 0 594 21 152 0
110 263 0 601 20 158 0
112 245 0 619 23 150 0
114 239 0 626 18 148 0
116 236 0 621 11 165 0
118 221 0 616 20 175 0
120 212 0 630 22 176 0
122 212 0 636 16 166 0
124 205 0 644 13 177 0
126 197 0 663 14 165 0
128 187 0 674 18 160 0
130 175 0 678 12 168 0
132 171 0 709 13 139 0
134 165 0 709 19 150 0
136 160 0 698 12 161 0
138 156 0 710 15 167 0
140 142 0 695 18 183 0
142 138 0 712 12 182 0
144 133 0 713 11 178 0
146 134 0 717 8 175 0
148 128 0 733 10 159 0
150 124 0 739 10 153 0
152 119 0 735 9 143 0
154 112 0 737 15 146 0
156 112 0 730 9 160 0
158 105 0 744 15 159 0
160 94 0 736 19 181 0
162 89 0 749 15 169 0
164 89 0 747 16 169 0
166 85 0 752 13 172 0
168 84 0 750 9 183 0
170 80 0 756 9 187 0
172 77 0 769 9 168 0
174 75 0 761 10 171 0
176 70 0 774 10 155 0
178 67 0 769 9 161 0
180 63 0 760 13 168 0
182 60 0 774 19 163 0
184 59 0 768 16 172 0
186 59 0 763 8 190 0
188 59 0 768 8 169 0
190 57 0 766 14 169 0
192 55 0 768 7 171 0
194 54 0 767 8 179 0
196 53 0 780 14 172 0
198 47 0 799 12 162 0
200 47 0 793 12 175 0
