0 40 0 250
2 40 0 260
4 40 0 239
6.00001 39 0 239
8.00001 39 0 225
10 40 0 228
12 42 0 206
14 42 0 215
16 42 0 231
18 42 0 228
20 38 0 247
22 38 0 247
24 37 1 275
26 38 1 256
28 36 1 258
30 38 2 246
32 38 3 240
34 38 3 240
36 39 4 227
38 39 5 233
40 39 5 244
42 36 6 230
44 37 7 234
46 32 7 226
48 31 8 229
50 30 9 222
52 31 9 237
54 30 9 246
56 31 10 228
58 30 11 222
60 29 11 217
62 30 13 218
64 30 13 214
66 29 13 204
68 26 12 236
70 27 12 247
72 27 12 255
74 27 13 252
76 26 14 230
78 25 15 245
80 26 15 236
82 27 15 218
84 26 15 247
86 25 16 236
88 26 16 221
90 26 18 218
92 26 18 219
94 26 18 199
96 25 17 225
98 25 17 231
100 25 16 247
102 25 17 261
104 24 17 251
106 24 18 268
108 24 17 263
110 24 16 269
112 24 16 268
114 23 17 276
116 22 17 247
118 21 18 251
120 21 18 254
122 20 20 264
124 18 20 271
126 18 20 265
128 18 20 259
130 16 20 243
132 17 21 234
134 16 21 234
136 16 21 249
138 15 21 237
140 15 21 258
142 15 20 262
144 15 21 245
146 15 20 246
148 15 19 240
150 15 20 226
152 14 20 263
154 11 23 283
156 12 23 255
158 12 23 234
160 12 24 240
162 12 26 247
164 12 26 263
166 12 25 250
168 12 25 233
170 12 26 234
172 12 25 233
174 12 25 240
176 12 26 248
178 12 25 231
180 12 26 254
182 12 25 266
184 12 24 247
186 12 24 258
188 12 26 257
190 12 28 247
192 12 27 225
194 12 29 244
196 12 29 223
198 12 28 204
200 12 27 239
