0 39 0 254
2 39 0 259
4 39 0 239
6.00001 39 0 269
8.00001 39 1 260
10 40 1 247
12 39 1 256
14 37 1 258
16 38 1 233
18 38 2 250
20 39 2 251
22 36 2 248
24 36 3 241
26 36 3 267
28 35 3 259
30 35 3 234
32 34 3 263
34 34 3 274
36 34 3 243
38 32 5 255
40 34 4 250
42 34 5 252
44 33 5 259
46 32 5 258
48 33 5 273
50 34 6 263
52 33 6 254
54 33 6 245
56 33 6 251
58 31 7 248
60 31 7 237
62 30 8 262
64 29 8 245
66 27 10 251
68 27 10 275
70 27 11 229
72 27 12 252
74 26 13 240
76 26 14 226
78 26 14 236
80 27 14 240
82 26 14 243
84 26 15 233
86 26 16 225
88 26 16 238
90 27 14 268
92 25 12 268
94 25 12 274
96 25 13 270
98 25 12 262
100 25 14 269
102 26 14 276
104 24 13 268
106 24 14 270
108 24 15 272
110 24 17 265
112 24 16 264
114 23 18 260
116 23 19 250
118 21 19 257
120 21 20 248
122 19 20 270
124 19 19 268
126 19 20 271
128 19 21 249
130 18 21 253
132 18 21 256
134 18 21 262
136 16 21 264
138 17 23 261
140 18 24 250
142 18 26 257
144 16 25 256
146 14 25 248
148 13 25 256
150 13 25 242
152 12 25 253
154 11 23 279
156 11 24 268
158 11 24 276
160 11 25 272
162 11 26 281
164 11 27 256
166 11 27 253
168 10 27 242
170 9 26 243
172 9 27 240
174 9 25 242
176 9 25 260
178 9 26 260
180 9 25 272
182 9 25 256
184 9 25 265
186 9 24 275
188 8 24 271
190 9 24 280
192 9 25 254
194 9 25 260
196 8 27 248
198 8 28 244
200 8 28 267
