0 40 0 293
2 40 0 316
4 38 0 308
6.00001 38 1 326
8.00001 38 1 330
10 39 1 344
12 39 2 301
14 39 2 311
16 38 2 302
18 38 4 322
20 39 3 324
22 40 4 320
24 42 5 314
26 40 6 314
28 38 7 318
30 36 9 292
32 35 8 289
34 32 8 305
36 31 10 311
38 31 10 299
40 30 11 288
42 29 11 281
44 30 13 295
46 30 15 306
48 31 14 321
50 30 17 321
52 30 16 318
54 28 17 315
56 29 18 281
58 29 19 280
60 27 20 266
62 26 20 283
64 25 20 295
66 25 25 289
68 25 25 291
70 24 24 291
72 24 24 255
74 24 25 272
76 24 26 285
78 24 27 298
80 23 29 283
82 23 30 276
84 23 31 269
86 22 32 280
88 21 30 289
90 21 29 299
92 21 29 302
94 21 28 294
96 21 27 294
98 20 29 289
100 20 30 307
102 20 34 280
104 19 33 292
106 19 32 284
108 19 33 293
110 19 33 273
112 19 32 277
114 19 31 307
116 19 33 287
118 18 32 311
120 17 32 298
122 16 29 309
124 16 29 301
126 14 29 288
128 13 29 304
130 12 29 280
132 13 29 290
134 14 29 297
136 13 30 316
138 13 30 309
140 12 30 310
142 12 29 318
144 12 29 301
146 12 29 292
148 12 28 291
150 11 28 324
152 11 29 326
154 11 30 318
156 10 30 324
158 12 31 293
160 12 32 281
162 12 32 286
164 11 35 291
166 11 33 285
168 11 35 271
170 10 35 254
172 10 35 248
174 10 36 277
176 11 35 296
178 11 34 292
180 10 35 301
182 9 36 297
184 9 36 310
186 9 37 294
188 9 36 278
190 10 34 284
192 9 32 287
194 9 32 297
196 9 31 299
198 9 33 309
200 9 32 318
