0 34 0 264
2 37 0 261
4 37 0 278
6.00001 39 0 259
8.00001 40 0 279
10 40 0 276
12 40 0 285
14 38 0 275
16 38 0 278
18 38 0 292
20 36 0 279
22 35 0 270
24 35 0 270
26 36 0 277
28 35 0 287
30 32 1 303
32 31 1 297
34 31 1 302
36 32 1 284
38 34 1 291
40 33 2 300
42 34 2 283
44 34 2 299
46 33 3 297
48 32 3 284
50 30 4 285
52 30 5 273
54 27 5 264
56 27 7 283
58 27 8 286
60 28 8 294
62 27 9 285
64 26 9 262
66 26 9 265
68 26 9 274
70 26 9 287
72 26 9 289
74 26 10 273
76 26 13 278
78 26 14 260
80 26 15 259
82 25 15 252
84 25 14 264
86 24 14 269
88 24 13 256
90 24 13 266
92 24 13 259
94 23 11 295
96 23 12 243
98 23 14 261
100 23 13 277
102 23 13 247
104 22 13 258
106 22 14 235
108 22 15 232
110 22 16 253
112 22 18 260
114 22 18 250
116 22 20 246
118 21 18 241
120 20 20 259
122 20 21 283
124 20 22 279
126 20 22 235
128 20 22 288
130 20 23 300
132 20 22 266
134 20 22 263
136 18 22 272
138 18 21 239
140 18 20 269
142 17 20 254
144 15 18 272
146 15 18 280
148 15 18 281
150 15 18 260
152 13 19 239
154 13 19 260
156 14 19 247
158 14 21 252
160 14 21 260
162 14 21 277
164 14 21 254
166 13 20 271
168 13 19 257
170 12 21 276
172 12 21 276
174 12 22 262
176 12 22 252
178 11 23 283
180 11 24 279
182 11 25 288
184 11 25 280
186 11 24 279
188 10 24 279
190 10 23 299
192 9 23 287
194 9 23 278
196 9 23 296
198 9 24 272
200 9 26 273
