0 90 0 690
2 82 8 658
4 71 21 673
6.00001 63 26 669
8.00001 63 29 692
10 56 33 668
12 50 37 657
14 48 42 694
16 43 45 681
18 38 47 693
20 37 51 678
22 39 53 691
24 34 57 673
26 31 58 647
28 26 61 657
30 24 62 659
32 27 61 671
34 25 60 678
36 22 62 673
38 19 64 684
40 19 65 673
42 21 65 689
44 23 65 694
46 23 66 680
48 22 66 693
50 24 65 710
52 24 66 691
54 24 66 697
56 22 70 680
58 22 70 691
60 22 72 681
62 21 74 686
64 19 76 693
66 16 80 707
68 17 79 692
70 18 79 659
72 19 80 696
74 21 78 688
76 18 79 667
78 17 81 688
80 16 81 682
82 15 82 671
84 15 84 655
86 16 86 687
88 16 86 662
90 16 85 640
92 15 86 663
94 14 88 657
96 14 89 649
98 15 87 658
100 13 87 652
102 14 87 666
104 14 87 686
106 14 87 676
108 16 86 656
110 13 90 659
112 11 90 699
114 12 91 688
116 12 90 712
118 10 92 688
120 9 91 647
122 9 92 669
124 9 89 655
126 9 89 670
128 9 91 663
130 8 91 672
132 8 91 656
134 8 92 662
136 9 90 668
138 7 94 677
140 8 97 669
142 9 97 652
144 8 99 654
146 9 100 638
148 8 99 643
150 9 98 656
152 10 100 641
154 10 99 632
156 10 99 654
158 10 98 643
160 11 96 651
162 11 93 649
164 10 93 645
166 9 94 632
168 7 95 648
170 7 96 652
172 6 99 662
174 6 99 659
176 5 98 645
178 5 98 686
180 5 98 656
182 5 95 645
184 5 93 657
186 5 94 666
188 5 94 669
190 5 92 661
192 5 93 673
194 5 92 666
196 5 90 656
198 4 90 678
200 3 91 676
