0 113 0 735
2 100 14 742
4 95 19 760
6.00001 93 21 748
8.00001 91 24 738
10 88 26 733
12 82 32 724
14 77 37 757
16 70 45 757
18 65 50 767
20 62 53 746
22 59 56 750
24 59 60 726
26 58 61 736
28 57 64 728
30 58 64 733
32 56 68 736
34 52 73 725
36 50 74 747
38 49 74 764
40 46 76 750
42 46 77 727
44 47 77 715
46 44 80 722
48 42 82 737
50 39 85 718
52 38 86 717
54 37 86 739
56 31 91 730
58 30 92 753
60 28 94 739
62 26 96 733
64 26 97 720
66 26 98 726
68 22 101 726
70 22 101 750
72 22 102 749
74 20 103 728
76 20 104 744
78 20 104 732
80 20 105 732
82 20 105 738
84 20 104 716
86 20 104 764
88 17 106 736
90 16 107 738
92 14 108 720
94 13 110 725
96 12 111 744
98 12 111 749
100 12 110 734
102 11 112 724
104 10 113 719
106 10 113 715
108 12 112 722
110 12 112 715
112 12 112 728
114 12 112 729
116 9 114 720
118 9 115 742
120 10 113 767
122 10 112 751
124 10 111 747
126 8 113 736
128 7 113 751
130 8 112 729
132 7 113 742
134 7 115 717
136 5 116 704
138 5 115 707
140 5 115 702
142 4 117 732
144 4 116 736
146 3 118 724
148 2 118 731
150 3 116 732
152 5 116 730
154 5 116 733
156 5 115 753
158 5 116 712
160 3 117 722
162 4 117 710
164 4 117 735
166 3 119 723
168 3 118 723
170 3 117 738
172 3 116 746
174 4 116 752
176 4 115 759
178 3 116 745
180 3 117 736
182 3 117 709
184 3 117 724
186 1 118 717
188 2 118 715
190 3 118 723
192 4 119 741
194 4 119 719
196 4 116 726
198 5 116 713
200 5 116 742
