0 60 0 310
2 60 0 342
4 58 0 327
6.00001 60 1 331
8.00001 56 2 308
10 57 4 332
12 59 4 343
14 57 3 306
16 57 5 319
18 57 8 307
20 54 8 322
22 50 8 309
24 51 8 327
26 52 9 353
28 53 10 343
30 53 11 341
32 50 12 329
34 50 15 322
36 50 16 327
38 51 16 316
40 50 16 327
42 48 16 311
44 46 16 306
46 46 15 320
48 46 16 307
50 43 18 290
52 42 18 309
54 41 19 303
56 40 18 320
58 39 19 309
60 37 19 319
62 36 19 314
64 37 18 307
66 38 16 293
68 37 17 308
70 35 18 341
72 34 17 304
74 32 19 312
76 33 20 333
78 33 19 312
80 33 20 318
82 33 20 329
84 32 19 345
86 30 18 313
88 30 18 338
90 30 19 360
92 30 19 337
94 29 19 343
96 29 18 351
98 28 20 342
100 29 21 348
102 27 22 334
104 26 23 314
106 25 24 324
108 23 25 344
110 24 23 341
112 25 24 301
114 22 25 312
116 22 26 288
118 22 26 312
120 23 27 353
122 23 26 331
124 23 29 345
126 23 29 330
128 22 28 337
130 22 29 328
132 21 30 344
134 20 30 338
136 19 32 332
138 18 31 323
140 17 28 331
142 16 28 348
144 16 27 346
146 14 27 362
148 14 29 357
150 13 30 344
152 11 29 359
154 11 30 368
156 10 31 346
158 10 32 357
160 9 34 349
162 9 37 351
164 9 38 355
166 9 38 368
168 9 39 352
170 9 38 348
172 9 36 338
174 9 36 341
176 9 38 355
178 9 38 314
180 9 38 344
182 9 41 355
184 9 43 343
186 9 42 334
188 9 42 331
190 9 44 339
192 8 44 327
194 8 45 334
196 8 47 344
198 8 48 322
200 9 47 324
