0 49 0 0 0 25
2 45 0 4 0 26
4.00004 48 0 2 0 27
6 47 0 3 0 28
8 46 0 5 0 24
10 46 0 4 0 29
12 45 0 3 0 27
14 44 0 3 0 31
16 45 0 3 0 25
18 45 0 2 0 28
20 43 0 3 0 25
22 45 0 2 0 28
24 45 1 2 0 22
26 42 1 4 0 25
28 44 1 2 0 24
30 44 1 1 0 26
32 41 1 5 0 26
34 44 1 2 0 16
36 45 1 1 0 23
38 45 1 1 0 32
40 46 1 0 0 32
42 45 2 1 0 27
44 40 2 6 0 23
46 41 3 5 0 26
48 42 4 2 0 31
50 42 4 2 0 22
52 38 5 6 0 26
54 42 5 1 0 25
56 40 5 3 0 30
58 41 5 1 1 22
60 36 10 3 0 25
62 37 9 2 0 25
64 35 8 4 1 29
66 36 9 3 0 28
68 37 9 2 0 30
70 37 10 1 1 27
72 36 15 1 0 23
74 35 14 1 1 28
76 33 16 3 1 27
78 33 16 3 1 30
80 33 17 2 2 27
82 31 19 4 0 28
84 31 17 3 2 25
86 33 18 1 1 20
88 33 18 2 2 25
90 31 20 4 1 17
92 33 20 1 1 27
94 29 21 3 0 33
96 32 20 0 2 24
98 30 21 1 1 25
100 31 21 0 2 24
102 28 24 3 0 28
104 30 22 1 2 21
106 29 22 1 2 22
108 30 22 0 2 31
110 28 23 1 0 25
112 27 22 2 1 25
114 29 24 0 3 25
116 27 23 2 5 26
118 27 26 1 2 21
120 27 26 1 1 26
122 27 25 0 2 26
124 25 27 1 0 27
126 24 25 2 2 28
128 24 26 1 1 26
130 25 25 0 2 26
132 23 27 0 0 25
134 23 28 0 0 25
136 22 26 1 2 21
138 23 27 0 0 25
140 22 26 0 1 26
142 21 27 1 2 29
144 22 26 0 3 28
146 21 27 2 2 25
148 19 27 3 2 21
150 21 28 0 1 16
152 20 28 1 0 25
154 20 29 1 1 22
156 21 29 0 2 25
158 21 29 0 1 28
160 19 27 2 2 26
162 19 25 2 3 15
164 21 27 0 0 21
166 18 27 3 1 28
168 18 26 1 1 19
170 18 26 0 1 29
172 16 26 2 0 25
174 15 24 1 2 28
176 15 25 0 2 28
178 13 25 2 2 22
180 14 25 2 1 25
182 13 24 0 2 27
184 11 25 1 1 25
186 12 24 0 1 20
188 14 25 0 3 24
190 14 26 0 3 30
192 13 28 1 0 23
194 14 27 0 1 25
196 13 26 1 2 26
198 12 29 1 0 25
200 12 28 0 2 23
202 12 28 0 1 25
204 12 26 0 3 31
206 12 29 0 1 26
208 12 32 0 0 20
210 12 35 0 0 24
