0 41 0 0 0 27
2 38 0 2 0 27
4.00004 37 0 3 0 19
6 37 0 2 0 25
8 39 0 1 0 27
10 35 0 5 0 25
12 38 0 2 0 25
14 39 1 1 0 31
16 36 1 3 0 18
18 35 1 4 0 19
20 33 1 5 1 21
22 31 1 7 0 29
24 36 2 3 0 25
26 37 2 1 0 27
28 35 2 2 1 23
30 35 3 1 0 25
32 31 4 4 0 29
34 31 3 3 1 26
36 34 3 0 1 29
38 31 5 2 1 20
40 30 5 2 1 21
42 26 6 5 0 22
44 26 6 4 0 29
46 27 6 3 0 30
48 30 6 1 0 33
50 29 5 1 1 21
52 28 5 0 0 22
54 27 8 1 0 25
56 27 6 2 2 18
58 26 8 3 2 23
60 24 9 3 0 23
62 25 8 1 2 24
64 19 10 5 1 27
66 20 10 2 1 26
68 21 11 1 2 28
70 21 10 1 3 29
72 19 14 2 0 25
74 18 13 4 1 25
76 19 12 2 1 31
78 21 11 0 2 27
80 19 16 2 0 29
82 19 16 2 1 27
84 21 16 0 1 27
86 20 16 1 1 23
88 21 17 0 1 25
90 21 16 0 0 27
92 20 17 0 1 29
94 19 19 1 0 23
96 20 18 0 2 24
98 16 19 3 0 25
100 14 20 4 1 26
102 15 20 1 1 28
104 16 19 0 2 20
106 15 20 1 0 21
108 15 19 1 2 20
110 14 20 2 2 21
112 13 22 2 1 18
114 14 19 1 3 18
116 12 18 1 1 26
118 12 20 0 0 22
120 12 19 0 1 28
122 12 17 1 2 21
124 13 17 0 2 21
126 9 18 4 2 20
128 12 19 0 1 27
130 12 16 0 2 28
132 12 14 0 4 19
134 12 16 0 0 30
136 11 15 0 1 17
138 10 16 1 0 21
140 10 15 1 1 27
142 9 15 1 1 34
144 10 17 0 2 25
146 10 19 0 0 24
148 10 21 0 0 20
150 9 19 1 3 26
152 10 19 0 3 30
154 9 21 1 1 31
156 8 17 1 2 29
158 8 18 1 3 24
160 8 21 0 1 24
162 3 18 4 4 28
164 6 19 0 2 23
166 6 20 0 2 19
168 6 18 0 2 25
170 6 17 0 5 21
172 4 19 1 4 25
174 5 20 0 1 24
176 3 19 1 2 35
178 5 20 0 1 30
180 4 20 1 1 25
182 5 21 0 1 21
184 4 24 1 1 23
186 5 23 0 1 28
188 5 26 0 0 26
190 4 24 0 2 30
192 4 22 0 4 24
194 4 26 0 0 23
196 4 25 0 1 27
198 4 22 0 3 25
200 4 24 0 1 26
202 4 23 0 2 23
204 3 24 1 1 32
206 4 26 0 0 25
208 4 25 0 1 29
210 3 23 1 3 21
