0 120 0 0 0 27
2 113 0 5 0 27
4.00004 112 0 3 0 26
6 112 0 2 0 25
8 114 0 0 0 25
10 111 0 3 0 21
12 106 9 0 0 28
14 104 10 2 0 27
16 91 23 0 0 21
18 81 31 1 0 19
20 71 40 0 0 16
22 61 46 1 1 25
24 60 47 1 1 26
26 52 53 2 0 28
28 49 57 1 0 25
30 45 61 0 1 26
32 41 64 1 0 24
34 35 70 0 1 18
36 33 69 2 2 29
38 34 70 0 2 27
40 32 71 1 1 28
42 28 75 0 0 28
44 26 74 0 2 27
46 24 75 1 2 25
48 22 77 1 1 23
50 21 77 0 2 26
52 16 80 2 2 30
54 16 81 1 1 27
56 16 80 1 2 25
58 13 83 0 0 28
60 13 84 0 1 21
62 13 82 1 2 29
64 14 83 0 2 26
66 13 83 0 2 30
68 11 86 1 1 22
70 12 86 1 1 24
72 12 85 0 2 25
74 14 85 0 1 20
76 12 84 0 3 24
78 11 86 1 1 26
80 11 84 0 3 24
82 10 83 1 1 27
84 10 87 0 0 22
86 10 84 0 1 22
88 7 84 2 1 24
90 8 85 0 1 21
92 7 84 0 1 26
94 7 82 0 3 22
96 7 79 0 5 27
98 6 86 0 1 24
100 4 86 1 0 27
102 5 85 0 0 24
104 6 82 0 3 28
106 4 80 2 4 29
108 6 84 1 1 28
110 7 83 0 2 20
112 6 81 0 3 26
114 5 81 1 2 25
116 4 84 0 1 26
118 4 84 0 2 28
120 5 84 0 2 21
122 5 82 1 2 24
124 8 82 0 1 22
126 6 84 2 1 29
128 7 84 0 2 21
130 7 85 0 1 25
132 7 87 1 1 27
134 8 87 0 1 22
136 6 89 1 0 24
138 6 88 0 0 23
140 6 85 0 3 22
142 5 86 3 3 23
144 6 89 2 0 29
146 7 90 0 0 28
148 5 89 0 2 27
150 6 89 0 2 22
152 6 87 0 3 28
154 5 88 0 2 29
156 5 87 0 4 23
158 4 92 0 2 29
160 4 93 0 1 24
162 2 93 2 2 26
164 3 91 0 4 22
166 4 91 0 2 29
168 3 93 0 2 23
170 3 95 0 0 25
172 2 97 0 0 24
174 2 94 0 3 27
176 3 95 0 0 27
178 3 93 0 1 24
180 3 89 0 2 24
182 4 88 0 3 26
184 5 89 0 1 23
186 4 90 1 0 27
188 6 87 0 2 24
190 6 88 0 1 22
192 8 88 0 2 23
194 8 88 0 3 26
196 8 88 1 2 32
198 8 88 1 2 23
200 9 89 0 1 21
202 9 89 0 1 24
204 9 88 0 1 19
206 8 87 1 1 23
208 8 85 0 2 24
210 8 87 0 0 25
