0 91 0 0 0 23
2 91 0 1 0 25
4.00004 89 0 3 0 28
6 91 0 2 0 26
8 91 0 3 0 20
10 92 0 3 0 28
12 78 12 3 0 26
14 69 20 3 1 27
16 64 29 0 1 26
18 58 32 4 0 29
20 53 35 2 3 23
22 50 40 1 2 19
24 46 44 2 2 31
26 41 50 1 2 28
28 37 52 0 4 27
30 33 57 1 1 25
32 32 58 2 0 22
34 31 59 0 0 25
36 31 57 0 1 24
38 25 60 1 3 26
40 24 63 0 2 29
42 26 63 0 3 21
44 23 67 0 2 28
46 23 69 0 2 28
48 21 72 0 1 27
50 17 73 1 3 27
52 16 75 1 1 25
54 16 77 0 0 22
56 15 75 1 4 28
58 14 79 0 2 26
60 13 83 1 0 22
62 11 87 0 0 21
64 12 85 1 2 24
66 12 86 0 2 27
68 13 87 0 0 31
70 13 87 0 2 23
72 13 87 1 1 20
74 14 88 0 1 24
76 13 86 0 4 27
78 12 89 2 1 29
80 13 89 0 2 28
82 13 91 0 1 24
84 9 95 0 1 25
86 8 95 1 1 19
88 8 94 1 3 27
90 9 94 0 3 18
92 8 94 2 2 28
94 11 95 0 1 21
96 11 96 0 0 24
98 11 97 0 1 27
100 10 97 0 2 23
102 10 98 0 1 19
104 10 98 0 1 23
106 7 97 2 3 31
108 9 94 0 6 22
110 9 97 2 1 26
112 10 99 0 0 27
114 10 98 0 1 28
116 9 99 0 1 25
118 9 98 2 2 24
120 10 99 0 2 30
122 10 99 0 2 24
124 11 97 0 3 28
126 10 100 0 1 24
128 10 98 0 2 25
130 7 99 1 3 24
132 7 100 0 2 23
134 5 100 0 3 23
136 3 104 1 1 26
138 4 103 0 2 20
140 3 105 0 1 25
142 3 103 0 2 24
144 4 102 0 3 29
146 3 101 0 3 23
148 3 101 1 2 25
150 4 102 0 2 24
152 2 102 0 3 21
154 2 104 1 0 20
156 1 102 1 2 21
158 4 101 1 3 26
160 6 101 0 3 28
162 5 103 1 1 31
164 5 102 0 2 22
166 4 104 0 1 28
168 2 104 0 4 23
170 3 101 0 5 26
172 3 104 0 2 23
174 3 102 0 3 25
176 3 103 0 2 28
178 3 102 0 3 20
180 2 102 0 4 19
182 2 104 0 2 29
184 2 102 0 4 23
186 0 107 0 1 26
188 0 102 0 5 29
190 0 103 0 3 26
192 0 101 0 5 21
194 0 105 1 1 25
196 1 100 0 5 21
198 1 101 0 2 33
200 1 102 0 1 28
202 0 101 0 2 25
204 0 103 0 1 22
206 0 99 0 5 27
208 0 103 0 2 30
210 0 100 0 4 26
