0 36 0 0 0 22
2 34 0 0 0 23
4.00004 32 0 3 0 20
6 33 0 4 0 26
8 35 0 0 0 27
10 35 0 0 0 26
12 35 0 0 0 22
14 28 0 6 0 19
16 32 0 3 0 25
18 34 0 1 0 22
20 31 1 4 0 18
22 34 1 1 0 27
24 33 1 1 0 30
26 31 1 2 0 24
28 29 2 3 0 28
30 30 2 1 0 25
32 29 4 3 0 25
34 29 6 3 2 24
36 33 8 1 0 23
38 31 9 3 0 29
40 33 8 1 1 21
42 33 8 1 0 20
44 34 7 1 2 26
46 33 9 1 0 22
48 33 10 0 1 23
50 31 11 2 1 30
52 30 10 2 2 23
54 28 11 2 2 31
56 27 11 3 2 25
58 27 13 2 1 26
60 28 14 1 1 23
62 24 14 2 1 27
64 24 14 1 1 33
66 22 17 2 0 29
68 23 16 1 3 32
70 22 19 2 2 27
72 22 19 2 2 22
74 23 20 1 1 22
76 21 21 2 0 24
78 22 22 1 0 25
80 21 22 2 0 21
82 24 22 1 1 25
84 24 23 1 1 24
86 25 24 0 0 27
88 23 22 2 3 22
90 23 21 1 2 27
92 24 22 0 2 28
94 24 21 0 4 27
96 22 23 1 2 24
98 23 20 0 5 25
100 21 23 1 3 19
102 21 21 1 2 22
104 21 23 0 0 21
106 19 22 2 1 24
108 19 22 2 1 24
110 20 23 1 0 28
112 18 20 2 4 28
114 19 25 2 0 27
116 20 20 0 3 25
118 18 21 2 1 28
120 16 19 3 4 21
122 16 22 3 5 30
124 17 28 1 3 20
126 17 30 0 2 26
128 15 30 1 1 27
130 14 30 1 2 27
132 15 31 0 1 25
134 15 29 0 4 24
136 16 30 0 4 25
138 15 32 1 1 23
140 15 29 1 5 33
142 16 30 0 5 22
144 16 30 0 2 28
146 16 31 0 3 23
148 15 30 1 4 28
150 15 33 1 2 35
152 16 32 0 2 26
154 16 33 0 2 24
156 16 35 0 3 23
158 16 36 0 1 27
160 15 35 1 3 30
162 15 36 1 4 20
164 16 40 0 2 23
166 15 39 0 1 28
168 15 38 1 2 25
170 14 40 1 2 26
172 13 39 2 4 23
174 12 44 2 0 23
176 14 43 0 1 27
178 12 41 1 2 32
180 13 39 1 4 27
182 14 41 0 2 30
184 15 38 0 2 25
186 14 38 1 1 27
188 14 36 1 2 20
190 12 38 2 0 25
192 12 36 1 4 19
194 13 38 0 2 20
196 12 40 1 0 28
198 12 39 1 1 26
200 12 36 1 4 25
202 12 36 0 5 30
204 9 38 2 3 29
206 9 37 1 5 25
208 10 39 0 3 25
210 10 41 0 2 24
