0 1011 0 0 0 0 0
2 980 10 0 26 0 5
4.00004 973 2 0 38 0 5
6 976 1 0 29 0 10
8 969 0 0 38 0 9
10 971 0 0 27 0 8
12 959 0 0 44 0 9
14 957 0 0 40 0 18
16 953 0 0 48 0 16
18 953 0 0 42 0 18
20 964 0 0 38 0 10
22 966 0 0 43 0 6
24 959 0 0 39 0 15
26 949 0 0 52 0 18
28 960 0 0 41 0 14
30 955 0 0 48 0 20
32 955 0 0 43 0 15
34 949 0 0 41 0 19
36 953 0 0 40 0 15
38 945 0 0 47 0 17
40 935 0 0 47 0 23
42 943 0 0 56 0 22
44 943 0 0 55 0 13
46 950 0 0 48 0 11
48 952 0 0 32 0 21
50 941 0 0 43 0 18
52 937 0 5 17 40 0
54 923 0 13 15 52 0
56 901 0 33 21 56 0
58 893 0 52 21 41 0
60 883 0 62 13 45 0
62 867 0 69 15 46 0
64 852 0 84 16 46 0
66 844 0 99 13 32 0
68 821 0 108 16 52 0
70 810 0 127 16 39 0
72 803 0 138 14 39 1
74 799 0 149 6 44 0
76 785 0 155 12 38 0
78 776 0 162 12 53 0
80 772 0 181 11 39 0
82 760 0 181 10 45 0
84 748 0 195 13 44 0
86 742 0 203 9 50 0
88 729 0 215 12 39 0
90 712 0 224 14 48 0
92 695 0 245 14 39 0
94 685 0 254 16 40 0
96 679 0 258 12 46 0
98 665 0 267 15 51 0
100 649 0 277 19 52 0
102 650 0 284 7 53 0
104 638 0 290 10 55 0
106 620 0 305 15 51 0
108 610 0 314 10 49 0
110 599 0 322 11 49 0
112 592 0 320 9 56 0
114 581 0 327 11 65 0
116 575 0 346 6 53 0
118 564 0 349 8 55 0
120 552 0 363 9 50 0
122 534 0 371 14 48 0
124 529 0 379 6 54 0
126 516 0 386 13 56 0
128 507 0 388 9 57 0
130 501 0 401 6 51 0
132 490 0 404 13 56 0
134 486 0 423 7 52 0
136 477 0 434 10 41 0
138 471 0 434 5 52 0
140 460 0 442 7 49 1
142 451 0 455 9 50 0
144 450 0 458 7 49 0
146 442 0 463 8 46 0
148 432 0 471 7 47 0
150 425 0 482 6 49 0
152 416 0 490 9 47 0
154 402 0 504 10 49 0
156 391 0 509 12 55 0
158 385 0 518 9 49 0
160 384 0 530 5 41 0
162 375 0 533 9 56 0
164 375 0 533 3 60 0
166 362 0 538 9 58 0
168 358 0 545 7 58 0
170 356 0 552 4 55 0
172 351 0 565 7 48 0
174 346 0 574 6 46 0
176 337 0 576 10 51 0
178 332 0 586 7 55 0
180 332 0 592 4 53 0
182 323 0 598 8 53 0
184 320 0 599 7 61 0
186 314 0 602 8 65 0
188 307 0 608 9 62 0
190 299 0 610 8 66 0
192 299 0 612 7 61 0
194 295 0 609 5 75 0
196 288 0 621 6 64 0
198 280 0 640 6 53 0
200 276 0 645 7 58 0
