0 1031 0 0 0 0 0
2 989 7 0 34 0 3
4.00004 988 2 0 33 0 10
6 978 1 0 40 0 11
8 971 1 0 43 0 11
10 978 0 0 40 0 11
12 965 0 0 50 0 15
14 966 0 0 48 0 13
16 960 0 0 48 0 15
18 963 0 0 44 0 13
20 964 0 0 43 0 10
22 961 0 0 49 0 13
24 960 0 0 51 0 13
26 954 0 0 65 0 9
28 950 0 0 67 0 11
30 966 0 0 42 0 21
32 965 0 0 57 0 5
34 958 0 0 51 0 14
36 958 0 0 48 0 19
38 964 0 0 40 0 15
40 953 0 0 58 0 11
42 953 0 0 58 0 17
44 961 0 0 49 0 18
46 960 0 0 54 0 17
48 972 0 0 40 0 15
50 958 0 0 50 0 14
52 948 0 10 26 44 0
54 934 0 23 21 46 0
56 914 0 34 24 38 0
58 897 0 50 28 42 0
60 893 0 55 20 51 1
62 886 0 72 15 39 0
64 865 0 84 22 40 0
66 855 0 97 16 48 0
68 843 0 101 16 53 0
70 837 0 115 12 53 0
72 823 0 126 17 47 0
74 805 0 135 18 52 1
76 791 0 148 20 60 0
78 785 0 162 16 46 0
80 782 0 178 14 36 0
82 775 0 183 14 38 0
84 760 0 192 18 44 0
86 748 0 207 26 40 0
88 742 0 215 20 42 0
90 732 0 217 17 59 0
92 727 0 233 13 47 0
94 713 0 242 14 51 0
96 701 0 256 17 40 0
98 691 0 261 14 54 0
100 685 0 263 11 51 0
102 670 0 280 19 53 0
104 660 0 290 17 54 1
106 651 0 307 10 48 0
108 647 0 305 9 56 0
110 635 0 318 13 42 0
112 621 0 323 17 48 0
114 615 0 335 10 50 0
116 608 0 340 10 52 0
118 603 0 349 7 48 0
120 593 0 349 11 50 0
122 584 0 355 14 50 0
124 576 0 365 10 45 0
126 569 0 380 9 49 0
128 564 0 388 11 43 0
130 554 0 391 11 47 0
132 555 0 397 7 46 0
134 546 0 398 14 47 0
136 542 0 408 8 40 0
138 537 0 408 7 49 0
140 530 0 410 7 45 1
142 523 0 416 11 48 0
144 516 0 423 11 46 0
146 506 0 429 15 55 0
148 506 0 436 10 50 0
150 496 0 438 11 56 0
152 493 0 450 10 47 0
154 482 0 451 14 57 0
156 477 0 459 6 58 0
158 466 0 455 15 63 0
160 452 0 469 17 63 0
162 450 0 472 10 61 0
164 443 0 482 7 62 0
166 437 0 485 9 58 0
168 429 0 500 10 59 0
170 425 0 511 6 59 0
172 416 0 513 7 69 0
174 407 0 527 10 57 1
176 406 0 537 5 49 0
178 401 0 541 7 51 0
180 393 0 555 10 53 0
182 394 0 552 4 61 0
184 387 0 564 7 55 0
186 381 0 570 10 51 0
188 382 0 577 7 43 0
190 375 0 574 9 43 0
192 368 0 572 11 56 0
194 368 0 581 4 48 0
196 355 0 587 13 46 0
198 355 0 596 7 45 0
200 352 0 598 9 43 0
