0 902 0 0 0 0 0
2 856 0 0 41 0 0
4.00004 839 0 0 58 0 0
6 835 0 0 59 0 0
8 821 0 0 77 0 0
10 813 0 0 87 0 0
12 803 0 0 93 0 0
14 815 0 0 80 0 0
16 807 0 0 103 0 0
18 804 0 0 103 0 0
20 798 0 0 118 0 0
22 802 0 0 110 0 0
24 802 0 0 118 0 0
26 813 0 0 100 0 0
28 814 0 0 100 0 0
30 808 0 0 113 0 0
32 806 0 0 109 0 0
34 814 0 0 102 0 0
36 814 0 0 97 0 0
38 808 0 0 104 0 0
40 818 0 0 98 0 0
42 815 0 0 105 0 0
44 817 0 0 99 0 0
46 811 0 0 98 0 0
48 817 0 0 92 0 0
50 808 0 0 116 0 0
52 815 0 0 93 19 0
54 825 0 1 66 37 0
56 817 0 9 65 48 0
58 818 0 21 53 43 0
60 803 0 26 57 47 0
62 792 0 31 60 60 0
64 786 0 49 56 41 0
66 775 0 60 58 53 0
68 758 0 73 66 45 0
70 754 0 76 61 56 0
72 749 0 87 53 50 0
74 745 0 97 46 48 0
76 729 0 105 52 48 0
78 716 0 108 61 66 0
80 717 0 112 54 73 0
82 703 0 124 56 64 0
84 706 0 131 46 71 0
86 699 0 138 48 60 0
88 688 0 153 51 60 0
90 679 0 160 45 59 0
92 674 0 168 43 56 0
94 667 0 171 47 59 0
96 656 0 172 50 63 0
98 650 0 189 49 63 0
100 643 0 195 53 59 0
102 636 0 198 50 68 0
104 625 0 212 57 62 0
106 615 0 217 58 64 0
108 619 0 222 39 70 0
110 604 0 233 50 68 0
112 606 0 239 43 76 0
114 612 0 245 29 75 0
116 606 0 259 28 55 0
118 595 0 261 37 70 0
120 586 0 270 41 61 0
122 576 0 272 46 60 0
124 582 0 286 34 57 0
126 569 0 293 41 55 0
128 563 0 297 41 63 0
130 563 0 295 35 64 0
132 560 0 308 29 64 0
134 557 0 318 30 60 0
136 553 0 318 30 65 0
138 544 0 320 36 67 0
140 532 0 332 45 68 0
142 521 0 333 47 58 0
144 521 0 336 36 62 0
146 521 0 333 31 78 0
148 511 0 345 37 71 0
150 504 0 350 39 67 0
152 502 0 355 34 68 0
154 498 0 354 33 80 0
156 484 0 356 43 80 0
158 484 0 371 37 75 0
160 482 0 371 35 74 0
162 477 0 379 37 55 0
164 475 0 387 36 55 0
166 471 0 386 33 64 0
168 471 0 383 30 64 0
170 460 0 387 34 69 0
172 461 0 394 29 66 0
174 452 0 389 33 67 0
176 451 0 395 33 72 0
178 440 0 405 39 68 0
180 447 0 410 27 72 0
182 442 0 411 27 82 0
184 438 0 429 28 69 0
186 425 0 439 39 69 0
188 428 0 432 30 78 0
190 425 0 447 27 71 0
192 416 0 453 28 69 0
194 415 0 452 23 72 0
196 412 0 451 21 63 0
198 404 0 454 28 67 0
200 413 0 456 16 71 0
