0 998 0 0 0 0 0
2 948 13 0 38 0 4
4.00004 925 7 0 62 0 9
6 923 3 0 59 0 21
8 918 1 0 62 0 21
10 912 2 0 74 0 12
12 907 0 0 67 0 30
14 904 0 0 77 0 24
16 887 0 0 81 0 22
18 898 0 0 87 0 8
20 873 0 0 97 0 14
22 891 0 0 74 0 23
24 879 0 0 75 0 26
26 879 0 0 82 0 26
28 884 0 0 81 0 21
30 883 0 0 79 0 17
32 878 0 0 86 0 21
34 886 0 0 68 0 30
36 874 0 0 85 0 30
38 888 0 0 75 0 25
40 877 0 0 85 0 22
42 883 0 0 76 0 21
44 883 0 0 76 0 25
46 879 0 0 86 0 26
48 875 0 0 87 0 29
50 867 0 0 88 0 21
52 844 0 14 42 72 1
54 834 0 29 27 80 1
56 815 0 45 27 74 0
58 801 0 59 19 86 0
60 781 0 73 29 84 0
62 759 0 93 27 78 0
64 740 0 114 29 85 0
66 733 0 131 20 70 0
68 712 0 137 26 83 0
70 691 0 150 23 89 0
72 672 0 167 27 94 1
74 647 0 183 22 112 0
76 635 0 201 15 114 1
78 602 0 227 27 93 0
80 594 0 240 18 92 0
82 573 0 247 25 108 0
84 568 0 262 18 98 0
86 552 0 278 20 105 0
88 534 0 288 23 103 0
90 526 0 297 22 112 0
92 516 0 322 17 104 0
94 500 0 333 15 108 0
96 484 0 348 16 111 0
98 469 0 354 16 110 0
100 462 0 368 14 106 0
102 449 0 382 20 97 0
104 440 0 386 18 100 0
106 427 0 396 16 107 0
108 417 0 398 17 118 0
110 404 0 415 15 111 0
112 394 0 435 15 92 0
114 384 0 444 10 101 0
116 372 0 453 15 112 0
118 354 0 467 15 100 1
120 354 0 476 8 103 1
122 342 0 484 11 109 0
124 335 0 496 12 98 0
126 322 0 502 15 103 0
128 319 0 508 11 98 0
130 312 0 524 10 97 0
132 314 0 530 5 90 0
134 307 0 540 10 78 0
136 302 0 539 5 88 0
138 297 0 543 5 87 1
140 288 0 541 6 88 0
142 284 0 549 10 98 0
144 275 0 554 14 102 0
146 268 0 559 9 101 0
148 258 0 572 8 98 0
150 252 0 574 5 109 0
152 246 0 592 11 92 0
154 243 0 593 8 91 0
156 238 0 604 8 87 0
158 232 0 612 8 81 0
160 224 0 607 9 98 0
162 224 0 622 5 101 0
164 208 0 628 17 94 0
166 205 0 634 6 101 0
168 191 0 646 13 102 0
170 191 0 648 7 104 0
172 187 0 667 4 92 0
174 186 0 667 6 100 0
176 175 0 667 10 97 0
178 172 0 667 9 100 0
180 174 0 668 3 98 1
182 166 0 662 7 102 1
184 164 0 663 7 102 0
186 161 0 667 6 94 0
188 159 0 669 7 97 0
190 157 0 654 3 116 0
192 155 0 675 4 100 0
194 146 0 682 10 100 0
196 146 0 694 6 107 0
198 142 0 708 4 93 0
200 140 0 712 7 85 0
