0 885 0 0 0 0 0
2 863 0 0 24 0 0
4.00004 851 0 0 35 0 0
6 845 0 0 39 0 0
8 847 0 0 41 0 0
10 840 0 0 49 0 0
12 841 0 0 51 0 0
14 840 0 0 56 0 0
16 835 0 0 62 0 0
18 840 0 0 62 0 0
20 828 0 0 70 0 0
22 838 0 0 57 0 0
24 834 0 0 58 0 0
26 829 0 0 57 0 0
28 835 0 0 56 0 0
30 835 0 0 59 0 0
32 837 0 0 53 0 0
34 838 0 0 46 0 0
36 822 0 0 64 0 0
38 829 0 0 60 0 0
40 833 0 0 60 0 0
42 837 0 0 46 0 0
44 831 0 0 55 0 0
46 832 0 0 54 0 0
48 828 0 0 59 0 0
50 835 0 0 52 0 0
52 826 0 0 61 3 0
54 834 0 0 43 11 0
56 824 0 1 46 9 0
58 826 0 1 40 16 0
60 835 0 4 26 17 0
62 823 0 7 37 17 0
64 822 0 9 36 20 0
66 813 0 11 36 18 0
68 817 0 11 29 24 0
70 812 0 20 34 23 0
72 802 0 23 37 23 0
74 803 0 28 37 21 0
76 800 0 30 35 23 0
78 800 0 31 34 22 0
80 801 0 32 30 24 0
82 794 0 36 35 28 0
84 790 0 43 37 24 0
86 788 0 46 34 28 0
88 775 0 49 44 26 0
90 768 0 51 45 31 0
92 761 0 56 43 27 0
94 762 0 57 35 27 0
96 756 0 65 38 25 0
98 753 0 67 34 30 0
100 749 0 74 33 30 0
102 745 0 78 32 27 0
104 741 0 79 33 30 0
106 742 0 82 31 31 0
108 734 0 83 37 33 0
110 728 0 82 41 31 0
112 725 0 89 41 27 0
114 723 0 95 36 22 0
116 717 0 99 40 33 0
118 716 0 102 37 28 0
120 714 0 109 35 30 0
122 716 0 112 31 24 0
124 714 0 117 29 27 0
126 712 0 119 27 27 0
128 709 0 116 28 32 0
130 708 0 124 29 25 0
132 708 0 129 28 27 0
134 704 0 130 30 26 0
136 702 0 128 33 31 0
138 699 0 130 32 35 0
140 701 0 134 26 31 0
142 697 0 133 30 29 0
144 694 0 138 30 25 0
146 682 0 135 36 28 0
148 673 0 141 46 27 0
150 678 0 141 36 27 0
152 683 0 145 28 27 0
154 688 0 148 21 29 0
156 685 0 146 22 26 0
158 683 0 151 24 25 0
160 677 0 148 27 26 0
162 678 0 155 24 20 0
164 671 0 153 29 33 0
166 672 0 153 26 39 0
168 667 0 155 30 39 0
170 672 0 165 23 29 0
172 660 0 162 32 32 0
174 662 0 160 30 41 0
176 650 0 160 37 39 0
178 651 0 161 31 35 0
180 652 0 159 28 38 0
182 645 0 165 35 34 0
184 641 0 170 38 31 0
186 640 0 170 30 30 0
188 635 0 172 34 42 0
190 637 0 176 31 39 0
192 635 0 181 30 40 0
194 631 0 183 32 42 0
196 636 0 185 25 49 0
198 634 0 190 23 45 0
200 629 0 195 28 45 0
