0 1015 0 0 0 0 0
2 981 15 0 15 0 2
4.00004 970 7 0 36 0 1
6 974 3 0 29 0 10
8 965 2 0 36 0 9
10 949 2 0 54 0 6
12 955 0 0 42 0 11
14 951 1 0 45 0 7
16 936 0 0 58 0 9
18 941 0 0 47 0 10
20 946 0 0 44 0 12
22 946 0 0 45 0 14
24 942 1 0 50 0 15
26 937 0 0 59 0 18
28 954 0 0 43 0 12
30 950 0 0 42 0 14
32 949 0 0 52 0 9
34 939 0 0 69 0 8
36 944 0 0 55 0 15
38 941 0 0 58 0 12
40 954 0 0 38 0 15
42 945 0 0 60 0 12
44 945 0 0 55 0 14
46 950 0 0 49 0 15
48 946 0 0 55 0 12
50 952 0 0 52 0 9
52 948 0 3 17 42 0
54 943 0 10 18 41 0
56 932 0 19 21 48 0
58 923 0 28 14 52 0
60 917 0 36 17 48 0
62 908 0 43 18 47 0
64 904 0 59 12 38 0
66 890 0 66 23 43 0
68 888 0 70 13 48 0
70 883 0 76 10 42 0
72 869 0 82 21 43 0
74 855 0 86 19 51 0
76 839 0 96 30 47 0
78 839 0 104 18 52 0
80 836 0 111 11 55 0
82 826 0 113 14 54 0
84 821 0 122 11 52 0
86 810 0 129 18 47 0
88 808 0 134 13 51 0
90 798 0 143 20 44 0
92 790 0 152 18 53 0
94 790 0 163 14 52 0
96 786 0 170 9 50 1
98 782 0 170 10 54 0
100 773 0 176 15 50 0
102 766 0 185 13 54 0
104 762 0 187 10 58 0
106 751 0 203 13 47 0
108 743 0 212 16 42 0
110 739 0 215 15 49 0
112 727 0 221 14 56 0
114 721 0 231 11 61 0
116 716 0 238 12 45 0
118 712 0 249 14 42 0
120 709 0 255 10 38 0
122 697 0 256 12 52 0
124 691 0 264 12 46 0
126 682 0 268 13 52 0
128 672 0 274 19 50 0
130 670 0 287 9 48 0
132 663 0 292 12 41 0
134 658 0 291 15 46 0
136 647 0 302 17 40 0
138 641 0 305 15 43 0
140 637 0 311 16 44 0
142 637 0 319 7 48 0
144 631 0 324 12 46 0
146 623 0 330 14 52 0
148 618 0 338 9 48 0
150 616 0 347 12 43 0
152 609 0 346 11 51 0
154 608 0 351 8 47 0
156 598 0 359 13 51 0
158 595 0 362 14 46 0
160 589 0 363 13 57 0
162 583 0 370 14 56 0
164 577 0 376 11 50 0
166 567 0 385 15 43 0
168 569 0 378 7 55 0
170 561 0 391 11 48 0
172 560 0 399 8 47 0
174 551 0 399 11 46 0
176 547 0 409 11 47 0
178 534 0 411 20 57 0
180 527 0 415 15 66 0
182 523 0 419 8 71 0
184 517 0 423 8 72 0
186 505 0 430 16 79 0
188 497 0 445 10 65 0
190 493 0 450 8 66 0
192 479 0 456 19 60 0
194 478 0 453 10 71 0
196 468 0 467 13 56 1
198 465 0 472 10 61 0
200 462 0 471 11 59 0
