0 823 0 0 0 0 0
2 794 0 0 22 0 0
4.00004 789 0 0 32 0 0
6 791 0 0 38 0 0
8 801 0 0 33 0 0
10 791 0 0 36 0 0
12 797 0 0 37 0 0
14 802 0 0 24 0 0
16 812 0 0 35 0 0
18 809 0 0 30 0 0
20 808 0 0 44 0 0
22 823 0 0 28 0 0
24 828 0 0 30 0 0
26 826 0 0 31 0 0
28 835 0 0 26 0 0
30 832 0 0 35 0 0
32 832 0 0 34 0 0
34 839 0 0 26 0 0
36 841 0 0 27 0 0
38 841 0 0 39 0 0
40 848 0 0 34 0 0
42 849 0 0 35 0 0
44 855 0 0 36 0 0
46 847 0 0 47 0 0
48 859 0 0 36 0 0
50 861 0 0 37 0 0
52 860 0 8 17 16 0
54 843 0 20 19 20 0
56 831 0 40 16 17 0
58 818 0 57 18 14 0
60 805 0 71 17 12 0
62 780 0 79 23 17 0
64 780 0 94 10 18 0
66 767 0 103 12 18 0
68 755 0 122 17 19 0
70 749 0 135 9 19 0
72 725 0 146 18 18 0
74 719 0 159 13 27 0
76 717 0 175 10 17 0
78 702 0 189 18 9 0
80 700 0 195 12 19 0
82 690 0 205 11 19 0
84 675 0 218 12 16 0
86 668 0 230 9 22 0
88 651 0 235 15 20 0
90 637 0 241 17 26 0
92 622 0 255 14 24 0
94 613 0 270 18 21 0
96 612 0 284 11 17 0
98 599 0 285 15 21 0
100 602 0 295 7 18 0
102 583 0 306 15 25 0
104 573 0 324 13 11 0
106 564 0 330 14 19 0
108 554 0 346 11 19 0
110 545 0 349 8 27 0
112 535 0 361 10 23 0
114 530 0 372 7 25 0
116 521 0 384 10 24 0
118 513 0 398 8 20 0
120 504 0 416 7 24 0
122 493 0 420 12 19 0
124 480 0 423 16 24 0
126 477 0 433 12 21 0
128 472 0 431 10 23 0
130 468 0 430 7 38 0
132 456 0 440 8 30 0
134 449 0 456 10 25 0
136 441 0 462 11 28 0
138 438 0 480 7 22 0
140 428 0 497 10 17 0
142 421 0 497 9 20 0
144 414 0 500 11 26 0
146 407 0 509 9 22 0
148 400 0 512 7 27 0
150 393 0 519 6 25 0
152 378 0 526 15 34 0
154 377 0 538 6 27 0
156 366 0 539 10 37 0
158 363 0 552 7 28 0
160 360 0 550 4 24 0
162 359 0 553 3 24 0
164 351 0 542 9 43 0
166 347 0 563 8 28 0
168 345 0 577 5 23 0
170 336 0 577 8 30 0
172 328 0 580 9 39 0
174 327 0 587 6 31 0
176 323 0 601 6 28 0
178 323 0 605 4 23 0
180 321 0 609 4 22 0
182 315 0 600 4 34 0
184 304 0 607 6 35 0
186 299 0 616 5 30 0
188 295 0 615 3 45 0
190 287 0 622 7 33 0
192 285 0 627 7 29 0
194 279 0 633 6 30 0
196 273 0 638 8 34 0
198 269 0 646 6 32 0
200 264 0 643 7 32 0
