0 1019 0 0 0 0 0
2 972 11 0 32 0 2
4.00004 972 15 0 33 0 4
6 971 4 0 42 0 3
8 954 3 0 57 0 4
10 964 6 0 43 0 5
12 957 4 0 53 0 7
14 956 1 0 56 0 12
16 946 2 0 59 0 8
18 947 0 0 58 0 11
20 936 0 0 68 0 12
22 947 0 0 57 0 11
24 936 0 0 66 0 16
26 940 0 0 68 0 12
28 934 0 0 64 0 20
30 919 0 0 81 0 17
32 918 0 0 77 0 16
34 906 0 0 87 0 17
36 911 0 0 71 0 19
38 907 0 0 85 0 17
40 907 0 0 86 0 16
42 909 0 0 79 0 19
44 918 0 0 77 0 14
46 922 0 0 70 0 14
48 908 0 0 93 0 14
50 918 0 0 76 0 16
52 915 0 1 42 54 0
54 903 0 13 37 60 0
56 903 0 19 30 57 0
58 899 0 27 27 58 0
60 893 0 35 19 66 0
62 879 0 46 30 70 0
64 866 0 55 33 67 0
66 863 0 64 27 66 0
68 852 0 76 27 67 0
70 848 0 82 21 69 0
72 833 0 90 30 58 0
74 834 0 91 19 75 0
76 823 0 94 23 86 0
78 821 0 96 20 86 0
80 806 0 110 32 76 0
82 794 0 119 33 74 0
84 791 0 128 27 71 0
86 779 0 132 30 77 0
88 778 0 142 23 78 0
90 767 0 150 30 80 0
92 756 0 160 32 80 0
94 760 0 173 21 63 0
96 758 0 174 20 73 0
98 747 0 179 22 71 0
100 741 0 188 20 72 0
102 729 0 196 26 68 0
104 724 0 200 24 71 0
106 715 0 203 28 82 0
108 709 0 213 21 80 0
110 697 0 222 28 69 0
112 695 0 229 21 63 0
114 684 0 236 23 69 0
116 683 0 238 23 76 0
118 676 0 244 22 78 0
120 667 0 240 19 95 0
122 659 0 252 21 87 0
124 652 0 261 20 91 1
126 646 0 274 18 89 0
128 633 0 278 22 89 0
130 628 0 289 20 80 0
132 625 0 298 18 79 0
134 614 0 308 29 72 0
136 611 0 311 23 77 0
138 602 0 316 24 78 0
140 601 0 322 22 82 0
142 595 0 326 23 79 0
144 583 0 327 22 87 0
146 582 0 335 16 83 0
148 576 0 339 15 79 0
150 576 0 349 10 79 0
152 573 0 353 10 74 0
154 565 0 357 12 79 0
156 559 0 359 19 70 0
158 556 0 357 16 75 0
160 546 0 355 18 95 0
162 538 0 368 18 91 0
164 528 0 375 26 82 0
166 527 0 378 14 86 0
168 520 0 387 14 95 0
170 510 0 397 17 99 1
172 505 0 405 12 98 0
174 493 0 415 19 87 0
176 488 0 419 15 86 0
178 485 0 417 20 93 0
180 483 0 427 16 80 0
182 480 0 431 13 82 0
184 475 0 436 17 83 0
186 473 0 435 14 90 0
188 470 0 437 12 93 0
190 466 0 450 17 79 0
192 459 0 452 14 79 0
194 452 0 457 19 78 0
196 452 0 465 13 75 0
198 443 0 468 15 82 0
200 437 0 471 17 84 0
