0 870 0 0 0 0 0
2 848 0 0 16 0 7
4.00004 844 0 0 24 0 3
6 845 0 0 21 0 1
8 833 0 0 24 0 8
10 836 0 0 21 0 10
12 847 0 0 16 0 8
14 854 0 0 19 0 5
16 856 0 0 19 0 7
18 859 0 0 22 0 5
20 862 0 0 24 0 2
22 856 0 0 19 0 5
24 850 0 0 24 0 3
26 855 0 0 27 0 5
28 857 0 0 24 0 3
30 873 0 0 11 0 9
32 863 0 0 31 0 7
34 867 0 0 22 0 10
36 869 0 0 20 0 1
38 871 0 0 16 0 4
40 872 0 0 19 0 4
42 866 0 0 23 0 7
44 865 0 0 21 0 1
46 854 0 0 27 0 6
48 859 0 0 15 0 9
50 851 0 0 22 0 10
52 795 0 50 19 12 0
54 777 0 77 17 8 0
56 766 0 87 14 7 0
58 750 0 88 21 21 0
60 744 0 97 19 19 0
62 742 0 108 11 17 0
64 730 0 121 12 19 0
66 726 0 131 9 21 0
68 716 0 134 10 18 0
70 704 0 139 12 10 0
72 700 0 139 9 16 0
74 697 0 149 5 20 0
76 682 0 169 12 11 0
78 675 0 168 13 16 0
80 669 0 171 12 21 0
82 669 0 189 4 12 0
84 656 0 191 13 19 0
86 650 0 206 6 21 0
88 647 0 214 6 19 0
90 639 0 198 10 30 0
92 635 0 235 6 17 0
94 628 0 241 10 11 0
96 621 0 243 9 17 1
98 617 0 251 10 18 0
100 607 0 255 11 22 0
102 601 0 266 8 21 0
104 582 0 272 18 21 0
106 585 0 279 10 17 0
108 575 0 290 9 15 0
110 566 0 292 9 18 0
112 557 0 300 7 20 0
114 549 0 311 8 26 0
116 543 0 324 5 19 0
118 537 0 320 8 24 0
120 531 0 333 8 20 0
122 528 0 346 3 16 0
124 519 0 354 7 16 0
126 510 0 362 8 18 0
128 508 0 350 8 24 0
130 505 0 365 7 19 0
132 502 0 366 6 15 0
134 494 0 372 6 18 0
136 493 0 376 1 24 0
138 485 0 387 3 19 0
140 477 0 394 7 19 0
142 477 0 405 3 20 0
144 465 0 411 11 14 0
146 462 0 405 9 21 0
148 457 0 413 6 23 0
150 457 0 419 1 20 0
152 447 0 419 5 23 0
154 439 0 430 8 21 0
156 441 0 439 3 19 0
158 436 0 443 5 25 0
160 433 0 441 6 25 0
162 430 0 452 2 24 0
164 427 0 460 2 24 0
166 419 0 460 3 25 0
168 413 0 465 5 22 0
170 413 0 467 4 18 0
172 403 0 469 10 19 0
174 405 0 470 5 20 0
176 400 0 472 8 22 0
178 405 0 494 1 17 0
180 396 0 493 5 23 0
182 392 0 497 5 25 0
184 386 0 515 9 21 0
186 383 0 517 8 25 0
188 381 0 517 9 28 0
190 375 0 524 8 19 0
192 376 0 519 3 22 0
194 363 0 532 8 18 0
196 368 0 525 1 25 0
198 360 0 534 4 20 0
200 358 0 541 5 14 0
