0 949 0 0 0 0 0
2 919 0 0 17 0 6
4.00004 919 0 0 22 0 3
6 921 0 0 21 0 7
8 924 0 0 15 0 5
10 915 0 0 16 0 7
12 921 0 0 13 0 3
14 913 0 0 13 0 2
16 925 0 0 10 0 5
18 922 0 0 17 0 2
20 915 0 0 23 0 3
22 912 0 0 27 0 2
24 923 0 0 19 0 7
26 922 0 0 18 0 5
28 919 0 0 16 0 3
30 919 0 0 12 0 5
32 907 0 0 21 0 4
34 921 0 0 12 0 3
36 905 0 0 23 0 5
38 920 0 0 12 0 6
40 918 0 0 19 0 3
42 914 0 0 24 0 6
44 918 0 0 16 0 3
46 909 0 0 20 0 8
48 916 0 0 14 0 7
50 909 0 0 20 0 2
52 837 0 67 15 10 0
54 822 0 73 10 15 0
56 809 0 88 13 11 0
58 807 0 104 10 11 0
60 793 0 114 14 10 0
62 792 0 116 10 13 0
64 781 0 126 10 7 0
66 775 0 133 9 14 0
68 767 0 139 11 9 0
70 768 0 148 5 20 0
72 758 0 152 8 21 0
74 750 0 163 7 10 0
76 736 0 168 12 14 0
78 732 0 176 8 12 0
80 722 0 193 11 13 0
82 726 0 194 2 18 0
84 707 0 198 12 26 0
86 696 0 213 13 21 0
88 695 0 216 9 17 0
90 686 0 235 8 19 0
92 674 0 240 7 20 0
94 666 0 243 11 17 0
96 663 0 246 10 15 0
98 657 0 244 7 20 0
100 644 0 260 10 22 0
102 637 0 264 12 19 0
104 633 0 279 9 12 0
106 630 0 287 7 18 0
108 627 0 287 6 21 0
110 623 0 291 5 17 0
112 613 0 302 8 16 0
114 614 0 312 5 21 0
116 606 0 329 8 13 0
118 602 0 321 6 21 0
120 601 0 326 5 21 0
122 595 0 337 8 11 0
124 593 0 345 4 20 0
126 581 0 350 12 20 0
128 579 0 348 10 26 0
130 574 0 360 6 24 0
132 565 0 372 9 18 0
134 557 0 372 8 23 0
136 550 0 384 8 16 0
138 544 0 391 9 10 0
140 544 0 389 5 7 0
142 534 0 366 11 23 0
144 532 0 378 9 11 0
146 528 0 383 8 16 0
148 521 0 394 7 18 0
150 516 0 398 8 14 0
152 513 0 401 4 16 0
154 496 0 413 13 16 0
156 496 0 424 5 15 0
158 491 0 427 5 14 0
160 480 0 424 8 25 0
162 482 0 413 4 18 0
164 477 0 424 4 18 0
166 472 0 437 3 12 0
168 467 0 427 2 19 0
170 462 0 449 4 14 0
172 455 0 448 8 16 0
174 451 0 459 6 11 0
176 453 0 457 2 16 0
178 445 0 471 4 13 0
180 446 0 481 3 18 0
182 443 0 494 4 16 0
184 441 0 497 5 18 0
186 437 0 500 6 23 0
188 438 0 492 3 26 0
190 430 0 495 4 23 0
192 428 0 491 3 27 0
194 419 0 504 7 22 0
196 420 0 510 4 17 0
198 412 0 513 5 15 0
200 410 0 527 3 15 0
