0 1161 0 0 0 0 0
2 1151 0 0 6 0 6
4.00004 1152 0 0 6 0 10
6 1146 0 0 15 0 5
8 1153 0 0 14 0 5
10 1139 0 0 13 0 6
12 1143 0 0 8 0 7
14 1141 0 0 11 0 6
16 1147 0 0 8 0 4
18 1129 0 0 31 0 4
20 1137 0 0 13 0 9
22 1140 0 0 10 0 6
24 1138 0 0 10 0 4
26 1143 0 0 12 0 7
28 1139 0 0 12 0 6
30 1143 0 0 6 0 7
32 1146 0 0 8 0 8
34 1139 0 0 7 0 5
36 1132 0 0 14 0 5
38 1119 0 0 13 0 11
40 1126 0 0 10 0 1
42 1118 0 0 9 0 6
44 1130 0 0 6 0 3
46 1122 0 0 13 0 7
48 1120 0 0 15 0 7
50 1122 0 0 5 0 7
52 1066 0 51 4 7 0
54 1052 0 67 3 10 0
56 1029 0 84 8 8 0
58 1015 0 103 5 10 0
60 998 0 121 8 7 0
62 976 0 144 12 7 1
64 964 0 145 6 15 0
66 942 0 163 7 19 0
68 923 0 183 2 11 0
70 902 0 201 9 9 0
72 897 0 205 4 12 0
74 881 0 224 4 8 0
76 861 0 249 9 10 0
78 844 0 252 9 13 0
80 833 0 265 6 9 0
82 823 0 274 5 10 0
84 807 0 294 2 14 0
86 794 0 307 4 14 0
88 776 0 331 3 12 0
90 765 0 332 3 17 0
92 744 0 361 7 11 0
94 731 0 363 7 22 0
96 717 0 384 6 13 0
98 706 0 395 2 14 0
100 690 0 414 4 8 0
102 677 0 424 3 11 0
104 666 0 441 2 12 0
106 663 0 437 2 13 0
108 649 0 455 6 9 0
110 641 0 456 4 16 0
112 631 0 462 7 15 0
114 623 0 464 5 15 0
116 618 0 483 1 13 0
118 606 0 481 6 12 0
120 599 0 493 3 11 0
122 591 0 506 3 6 0
124 580 0 516 7 7 0
126 579 0 518 2 15 0
128 566 0 535 1 10 0
130 557 0 539 3 15 0
132 551 0 545 2 14 0
134 545 0 549 2 16 0
136 535 0 565 3 11 0
138 520 0 578 3 13 0
140 504 0 578 5 17 0
142 495 0 593 5 12 0
144 493 0 605 0 9 0
146 479 0 604 4 18 0
148 471 0 610 4 12 0
150 466 0 612 4 14 0
152 460 0 630 0 14 1
154 449 0 634 0 13 0
156 439 0 632 4 17 0
158 431 0 633 1 22 0
160 420 0 644 4 15 0
162 410 0 656 1 10 0
164 401 0 651 4 12 0
166 394 0 656 5 16 0
168 393 0 664 2 8 0
170 387 0 658 1 14 0
172 383 0 668 2 8 0
174 375 0 678 2 10 0
176 368 0 674 1 15 0
178 359 0 683 3 15 0
180 356 0 685 0 15 0
182 350 0 680 3 25 0
184 344 0 696 3 20 0
186 336 0 706 4 9 0
188 333 0 704 3 12 0
190 330 0 714 1 14 0
192 323 0 724 2 9 0
194 322 0 717 1 14 0
196 316 0 709 1 19 0
198 310 0 721 1 13 0
200 305 0 729 2 13 0
