0 836 0 0 0 0 0
2 802 0 0 25 0 5
4.00004 804 0 0 28 0 9
6 805 0 0 27 0 3
8 806 0 0 22 0 7
10 817 0 0 25 0 1
12 807 0 0 29 0 3
14 810 0 0 20 0 4
16 813 0 0 29 0 4
18 807 0 0 19 0 8
20 819 0 0 21 0 5
22 813 0 0 25 0 6
24 819 0 0 25 0 7
26 820 0 0 20 0 5
28 818 0 0 20 0 6
30 818 0 0 21 0 3
32 812 0 0 22 0 4
34 819 0 0 27 0 1
36 818 0 0 27 0 10
38 830 0 0 28 0 1
40 823 0 0 25 0 4
42 824 0 0 28 0 7
44 830 0 0 20 0 8
46 823 0 0 21 0 5
48 821 0 0 18 0 7
50 830 0 0 21 0 5
52 767 0 72 16 11 0
54 740 0 89 18 14 0
56 724 0 110 14 14 0
58 712 0 114 14 20 0
60 700 0 135 11 21 0
62 683 0 135 23 17 0
64 670 0 143 24 19 0
66 659 0 160 22 17 0
68 660 0 172 9 14 0
70 646 0 178 7 23 1
72 628 0 190 12 28 0
74 614 0 204 15 22 0
76 606 0 223 13 19 0
78 596 0 229 12 20 0
80 594 0 235 5 19 0
82 581 0 241 9 14 0
84 572 0 242 9 19 0
86 570 0 243 8 23 0
88 559 0 268 10 21 0
90 550 0 270 11 25 0
92 540 0 286 11 20 0
94 537 0 290 9 20 0
96 528 0 298 13 17 0
98 525 0 299 9 21 0
100 519 0 315 9 22 0
102 508 0 334 12 14 0
104 499 0 340 9 21 0
106 491 0 346 7 19 0
108 478 0 348 12 22 0
110 473 0 352 12 24 0
112 462 0 363 16 26 0
114 454 0 373 9 21 0
116 450 0 385 5 25 0
118 443 0 396 2 25 0
120 434 0 399 7 25 0
122 428 0 403 6 28 0
124 423 0 399 6 31 0
126 416 0 418 7 16 0
128 414 0 416 6 21 0
130 405 0 413 11 28 0
132 406 0 423 5 23 0
134 400 0 423 6 27 0
136 394 0 430 8 29 0
138 390 0 436 7 25 0
140 383 0 447 10 17 0
142 386 0 440 6 25 0
144 375 0 444 11 24 0
146 375 0 454 2 29 0
148 362 0 470 9 24 0
150 357 0 474 9 28 0
152 350 0 477 9 27 0
154 341 0 477 12 35 0
156 333 0 499 13 22 0
158 331 0 502 9 19 0
160 322 0 498 15 28 0
162 325 0 504 8 29 0
164 323 0 514 5 20 0
166 320 0 503 3 35 0
168 314 0 524 3 26 0
170 309 0 522 4 32 0
172 303 0 530 5 21 0
174 299 0 539 6 24 0
176 301 0 534 3 23 0
178 298 0 534 4 21 0
180 292 0 534 5 22 0
182 290 0 531 5 23 0
184 288 0 527 5 33 0
186 282 0 528 8 28 0
188 277 0 534 6 31 0
190 276 0 549 5 27 0
192 272 0 529 5 33 0
194 274 0 552 3 28 0
196 268 0 563 5 17 0
198 263 0 554 5 24 0
200 259 0 550 5 25 0
