0 1057 0 0 0 0 0
2 1020 0 0 23 0 5
4.00004 1024 0 0 20 0 0
6 1016 0 0 31 0 4
8 1035 0 0 21 0 3
10 1015 0 0 32 0 2
12 1023 0 0 22 0 3
14 1035 0 0 23 0 5
16 1031 0 0 21 0 3
18 1026 0 0 23 0 9
20 1022 0 0 26 0 7
22 1024 0 0 22 0 9
24 1018 0 0 30 0 4
26 1034 0 0 11 0 8
28 1027 0 0 21 0 6
30 1017 0 0 27 0 6
32 1019 0 0 28 0 7
34 1039 0 0 13 0 3
36 1034 0 0 26 0 4
38 1039 0 0 22 0 8
40 1036 0 0 28 0 3
42 1038 0 0 20 0 5
44 1042 0 0 27 0 5
46 1039 0 0 25 0 6
48 1017 0 0 34 0 6
50 1023 0 0 26 0 11
52 972 0 59 18 12 0
54 960 0 71 13 17 0
56 946 0 88 13 13 0
58 932 0 99 10 14 0
60 921 0 116 8 16 0
62 908 0 125 5 16 0
64 897 0 129 9 20 0
66 885 0 148 9 23 0
68 871 0 167 14 19 0
70 862 0 178 14 17 0
72 856 0 199 11 14 0
74 845 0 195 11 19 0
76 836 0 206 8 21 0
78 821 0 211 9 27 0
80 811 0 214 12 21 0
82 807 0 222 8 22 0
84 790 0 235 14 17 1
86 778 0 253 12 21 0
88 768 0 264 12 18 0
90 765 0 256 5 22 0
92 753 0 270 9 25 0
94 745 0 279 7 24 0
96 732 0 290 14 21 0
98 732 0 294 6 15 1
100 725 0 302 6 17 0
102 716 0 306 8 23 0
104 707 0 313 4 23 0
106 699 0 327 5 20 0
108 690 0 327 10 25 0
110 680 0 340 9 21 0
112 676 0 347 9 21 0
114 672 0 341 8 25 0
116 661 0 352 11 30 0
118 663 0 364 6 25 0
120 654 0 370 9 29 0
122 646 0 390 8 23 0
124 644 0 386 5 31 0
126 635 0 395 8 27 0
128 628 0 411 6 25 0
130 625 0 425 2 22 0
132 617 0 425 6 24 0
134 607 0 426 10 25 0
136 609 0 423 4 21 0
138 597 0 425 8 27 0
140 595 0 442 4 33 0
142 583 0 447 8 31 0
144 572 0 451 9 29 0
146 567 0 454 9 31 0
148 561 0 463 7 25 0
150 556 0 463 8 24 0
152 554 0 461 7 30 0
154 549 0 475 4 22 0
156 547 0 480 2 21 0
158 536 0 479 8 22 0
160 527 0 492 8 24 0
162 517 0 489 10 34 0
164 511 0 505 10 28 0
166 507 0 511 6 23 0
168 497 0 522 9 20 0
170 494 0 520 9 25 0
172 492 0 517 7 34 0
174 484 0 542 8 26 0
176 471 0 547 11 27 0
178 467 0 543 6 27 0
180 469 0 546 0 29 0
182 459 0 559 4 25 0
184 447 0 569 8 22 0
186 447 0 570 6 23 0
188 438 0 566 8 24 0
190 430 0 578 5 23 1
192 422 0 568 8 24 0
194 416 0 587 8 22 0
196 412 0 593 6 31 0
198 404 0 589 11 31 0
200 407 0 596 3 29 0
