0 987 0 0 0 0 0
2 974 0 0 17 0 2
4.00004 968 0 0 18 0 5
6 977 0 0 12 0 6
8 974 0 0 12 0 5
10 979 0 0 11 0 4
12 974 0 0 15 0 5
14 971 0 0 12 0 3
16 964 0 0 18 0 8
18 974 0 0 8 0 7
20 969 0 0 14 0 7
22 967 0 0 16 0 5
24 973 0 0 13 0 2
26 972 0 0 9 0 5
28 975 0 0 12 0 5
30 977 0 0 13 0 6
32 987 0 0 9 0 3
34 972 0 0 19 0 3
36 968 0 0 19 0 2
38 978 0 0 12 0 2
40 966 0 0 15 0 1
42 974 0 0 15 0 5
44 966 0 0 19 0 5
46 971 0 0 15 0 4
48 966 0 0 21 0 4
50 969 0 0 13 0 6
52 927 0 44 14 7 0
54 911 0 58 13 7 0
56 906 0 66 7 7 0
58 896 0 65 10 12 1
60 895 0 82 4 7 0
62 884 0 87 8 8 0
64 882 0 94 3 9 0
66 874 0 109 6 9 0
68 871 0 108 5 11 0
70 868 0 101 5 10 0
72 865 0 118 5 9 0
74 860 0 120 6 13 0
76 854 0 132 5 13 0
78 841 0 139 12 9 0
80 841 0 140 7 12 0
82 831 0 143 10 15 0
84 827 0 155 5 10 0
86 825 0 162 4 15 0
88 824 0 167 2 13 0
90 812 0 169 9 12 0
92 814 0 171 2 16 0
94 806 0 176 5 15 0
96 801 0 183 6 11 0
98 797 0 194 7 14 0
100 794 0 198 5 9 0
102 788 0 194 6 17 0
104 787 0 211 3 9 0
106 780 0 221 7 11 0
108 774 0 234 5 11 0
110 770 0 234 6 13 0
112 769 0 234 2 13 0
114 766 0 246 2 7 1
116 752 0 238 8 16 0
118 749 0 249 7 14 0
120 750 0 243 1 17 0
122 746 0 255 3 11 0
124 741 0 254 4 14 0
126 734 0 275 4 11 1
128 728 0 276 5 17 0
130 721 0 276 7 19 0
132 719 0 280 4 14 0
134 714 0 279 4 15 0
136 712 0 288 2 16 0
138 708 0 305 2 15 0
140 706 0 304 1 14 0
142 700 0 309 4 11 0
144 695 0 315 6 11 0
146 691 0 317 6 4 0
148 683 0 318 9 14 0
150 684 0 325 4 15 0
152 680 0 328 5 15 0
154 674 0 333 6 14 0
156 676 0 341 3 14 0
158 668 0 331 7 13 0
160 664 0 347 7 11 0
162 665 0 346 2 17 0
164 658 0 353 5 20 0
166 648 0 353 9 18 0
168 649 0 362 5 13 0
170 639 0 376 6 15 0
172 633 0 383 5 16 0
174 631 0 397 3 11 0
176 624 0 385 6 22 0
178 619 0 396 3 15 0
180 615 0 391 3 17 0
182 611 0 392 4 12 0
184 608 0 395 4 14 0
186 606 0 402 2 9 0
188 602 0 404 3 10 0
190 599 0 415 5 4 0
192 593 0 414 4 14 0
194 590 0 419 2 16 0
196 582 0 422 7 16 0
198 579 0 418 5 23 0
200 576 0 431 3 15 0
