0 954 0 0 0 0 0
2 929 0 0 28 0 6
4.00004 934 0 0 19 0 5
6 935 0 0 28 0 2
8 938 0 0 20 0 6
10 948 0 0 17 0 2
12 938 0 0 19 0 3
14 933 0 0 18 0 7
16 934 0 0 22 0 5
18 936 0 0 21 0 1
20 940 0 0 24 0 6
22 936 0 0 28 0 0
24 949 0 0 12 0 4
26 940 0 0 23 0 8
28 935 0 0 15 0 6
30 927 0 0 24 0 4
32 941 0 0 17 0 4
34 933 0 0 15 0 7
36 945 0 0 12 0 5
38 941 0 0 21 0 11
40 933 0 0 14 0 4
42 926 0 0 23 0 5
44 933 0 0 17 0 6
46 944 0 0 11 0 3
48 940 0 0 20 0 3
50 944 0 0 17 0 5
52 898 0 41 16 10 0
54 887 0 46 12 11 0
56 882 0 53 10 5 0
58 874 0 65 7 7 0
60 866 0 76 8 11 0
62 854 0 91 6 10 0
64 841 0 94 12 14 0
66 837 0 98 9 13 0
68 821 0 106 17 14 0
70 820 0 126 5 13 0
72 806 0 134 8 12 0
74 799 0 135 6 20 0
76 792 0 144 7 13 0
78 782 0 145 10 15 0
80 775 0 154 12 12 0
82 764 0 157 14 15 1
84 762 0 166 6 14 0
86 747 0 174 12 16 0
88 732 0 191 12 12 0
90 721 0 205 17 8 0
92 718 0 204 13 11 0
94 716 0 215 9 6 0
96 710 0 214 9 20 0
98 700 0 228 12 9 1
100 694 0 235 7 12 0
102 691 0 241 5 14 0
104 676 0 253 12 6 0
106 680 0 241 5 14 0
108 670 0 243 7 21 0
110 664 0 245 9 17 0
112 661 0 256 6 17 0
114 648 0 269 10 11 0
116 643 0 269 5 23 0
118 634 0 282 8 9 0
120 628 0 285 10 16 0
122 627 0 289 6 15 0
124 627 0 292 4 15 0
126 622 0 296 6 11 0
128 620 0 302 5 15 0
130 612 0 312 7 14 0
132 608 0 313 4 20 0
134 600 0 315 7 15 0
136 592 0 315 8 14 0
138 589 0 320 5 20 0
140 576 0 330 13 11 0
142 576 0 340 7 6 0
144 570 0 339 10 11 0
146 567 0 350 5 12 0
148 566 0 352 2 10 0
150 557 0 360 7 13 0
152 553 0 368 8 12 0
154 541 0 370 12 18 0
156 543 0 375 6 14 0
158 537 0 375 8 23 0
160 536 0 387 6 16 0
162 526 0 389 14 16 0
164 530 0 387 6 15 0
166 521 0 388 11 17 0
168 519 0 387 4 22 0
170 515 0 401 5 20 0
172 510 0 414 6 16 0
174 503 0 416 8 15 0
176 504 0 425 2 24 0
178 497 0 430 4 21 0
180 488 0 431 9 18 0
182 487 0 440 3 18 0
184 481 0 449 4 20 0
186 470 0 455 8 18 0
188 469 0 451 3 22 0
190 465 0 446 6 23 0
192 459 0 460 8 15 0
194 455 0 463 6 18 0
196 451 0 471 4 18 0
198 445 0 475 8 12 0
200 444 0 484 4 14 0
