0 861 0 0 0 0 0
2 823 0 0 29 0 8
4.00004 820 0 0 36 0 6
6 833 0 0 22 0 5
8 818 0 0 30 0 10
10 823 0 0 23 0 8
12 825 0 0 28 0 4
14 823 0 0 26 0 4
16 822 0 0 21 0 11
18 830 0 0 27 0 4
20 824 0 0 21 0 8
22 821 0 0 26 0 7
24 822 0 0 33 0 7
26 811 0 0 33 0 6
28 822 0 0 21 0 8
30 818 0 0 20 0 9
32 825 0 0 21 0 8
34 819 0 0 23 0 12
36 806 0 0 38 0 5
38 819 0 0 26 0 2
40 813 0 0 38 0 6
42 835 0 0 17 0 7
44 812 0 0 34 0 3
46 795 0 0 38 0 14
48 822 0 0 21 0 8
50 828 0 0 16 0 11
52 772 0 46 19 19 0
54 747 0 63 23 23 0
56 743 0 76 15 15 0
58 734 0 82 14 24 0
60 730 0 95 11 16 0
62 721 0 109 11 26 0
64 718 0 112 7 24 0
66 703 0 120 10 27 0
68 692 0 138 15 21 0
70 682 0 145 14 20 0
72 675 0 148 13 20 0
74 661 0 170 16 24 0
76 661 0 166 9 30 0
78 653 0 178 9 23 0
80 650 0 185 9 26 0
82 646 0 196 6 28 0
84 634 0 205 9 21 0
86 626 0 211 12 24 0
88 619 0 211 11 27 0
90 608 0 231 17 12 0
92 599 0 245 10 18 0
94 595 0 240 7 28 0
96 590 0 258 6 23 0
98 576 0 265 9 28 0
100 566 0 281 6 19 0
102 554 0 288 12 23 0
104 550 0 302 7 26 0
106 536 0 320 12 21 0
108 536 0 323 3 23 0
110 522 0 319 10 32 0
112 516 0 316 8 43 0
114 509 0 330 7 26 0
116 504 0 343 7 21 0
118 495 0 349 6 26 0
120 486 0 357 11 21 0
122 489 0 355 3 30 0
124 479 0 361 5 29 0
126 469 0 378 12 27 0
128 470 0 375 8 33 0
130 467 0 380 5 25 0
132 458 0 390 8 23 0
134 457 0 389 6 26 0
136 444 0 412 10 26 0
138 444 0 418 1 22 0
140 434 0 417 7 23 0
142 430 0 428 4 30 0
144 421 0 439 5 24 0
146 412 0 443 5 33 0
148 409 0 453 3 24 0
150 406 0 452 2 29 0
152 397 0 448 8 31 0
154 392 0 448 8 32 0
156 390 0 459 6 35 0
158 384 0 471 7 26 0
160 376 0 469 10 27 0
162 376 0 479 3 29 0
164 363 0 499 11 22 0
166 359 0 483 10 44 0
168 352 0 505 6 31 0
170 345 0 512 6 27 0
172 337 0 517 9 27 0
174 339 0 531 2 26 0
176 331 0 546 5 15 0
178 323 0 555 7 23 0
180 320 0 548 6 34 0
182 310 0 562 12 26 0
184 312 0 565 6 32 0
186 315 0 569 3 26 0
188 312 0 566 5 32 0
190 305 0 575 6 24 0
192 297 0 576 10 33 0
194 295 0 584 3 26 0
196 288 0 580 7 39 0
198 287 0 594 2 33 0
200 284 0 592 3 43 1
