0 506 0 0 0 0
2 508 0 0 0 0
4.00004 506 0 0 2 0
6 507 0 0 0 0
8 507 0 0 0 0
10 507 0 0 0 0
12 506 0 0 0 0
14 506 0 0 0 0
16 506 0 0 0 0
18 506 0 0 0 0
20 506 0 0 0 0
22 506 0 0 1 0
24 507 0 0 1 0
26 509 0 0 0 0
28 508 0 0 0 0
30 508 0 0 0 0
32 507 0 0 0 0
34 506 0 0 0 0
36 506 0 0 0 0
38 506 0 0 0 0
40 504 0 0 2 0
42 505 0 0 0 0
44 506 0 0 0 0
46 505 0 0 0 0
48 505 0 0 0 0
50 504 0 0 0 0
52 504 0 0 0 0
54 505 0 0 0 0
56 504 0 0 0 0
58 505 0 0 0 0
60 505 0 0 1 0
62 505 0 1 0 0
64 505 0 1 0 0
66 505 0 1 0 0
68 505 0 2 0 0
70 505 0 2 0 0
72 505 0 2 0 0
74 505 0 2 0 1
76 504 0 4 0 0
78 504 0 4 0 0
80 503 0 5 0 0
82 503 0 7 0 1
84 502 0 7 1 0
86 503 0 7 0 0
88 504 0 7 0 0
90 503 0 8 0 0
92 503 0 8 0 0
94 502 0 9 1 0
96 503 0 9 0 0
98 503 0 9 0 0
100 503 0 9 0 0
102 502 0 10 1 0
104 503 0 10 0 0
106 502 0 10 1 0
108 503 0 11 0 0
110 502 0 11 0 0
112 501 0 11 0 0
114 501 0 11 0 0
116 501 0 11 0 0
118 501 0 11 0 0
120 500 0 11 0 0
122 500 0 11 0 0
124 500 0 11 0 0
126 498 0 12 0 0
128 498 0 13 0 0
130 498 0 13 0 0
132 498 0 13 0 0
134 495 0 13 0 0
136 495 0 14 0 0
138 494 0 14 0 0
140 493 0 14 0 0
142 492 0 14 0 0
144 492 0 15 0 0
146 491 0 15 1 0
148 490 0 16 0 0
150 490 0 17 0 0
152 490 0 17 0 0
154 489 0 17 0 0
156 489 0 17 0 0
158 489 0 17 0 0
160 488 0 17 0 0
162 487 0 18 0 0
164 487 0 18 0 0
166 487 0 18 0 0
168 487 0 18 0 0
170 487 0 18 0 0
172 487 0 18 0 0
174 485 0 18 1 0
176 486 0 18 0 0
178 486 0 19 0 0
180 483 0 19 1 0
182 483 0 19 0 0
184 483 0 19 0 0
186 483 0 19 0 0
188 483 0 19 0 0
190 483 0 19 0 0
192 483 0 19 0 0
194 483 0 19 0 0
196 481 0 19 2 0
198 481 0 19 0 0
200 481 0 19 0 0
