0 1429 0 0 0 0
2 1428 6 0 0 0
4.00004 1428 7 0 0 0
6 1428 8 0 0 0
8 1428 9 0 0 0
10 1426 10 0 0 0
12 1428 7 0 0 0
14 1427 7 0 0 0
16 1429 3 0 0 0
18 1426 6 0 0 0
20 1426 6 0 0 0
22 1429 3 0 0 0
24 1423 10 0 0 0
26 1430 3 0 0 0
28 1423 9 0 1 0
30 1425 6 0 0 0
32 1424 7 0 0 0
34 1421 10 0 0 0
36 1423 8 0 0 0
38 1421 10 0 0 0
40 1421 9 0 1 0
42 1420 9 0 1 0
44 1426 4 0 0 0
46 1424 7 0 0 0
48 1425 6 0 0 0
50 1422 8 0 0 0
52 1247 1 183 0 0
54 1128 0 302 0 0
56 1014 1 414 0 0
58 932 1 496 0 0
60 838 0 591 1 0
62 762 0 667 0 0
64 707 0 723 0 0
66 635 0 795 0 0
68 575 0 855 0 0
70 524 1 905 0 0
72 473 0 958 0 0
74 431 0 999 1 0
76 399 0 1032 0 0
78 359 0 1072 0 0
80 325 0 1106 0 0
82 298 0 1134 0 0
84 275 0 1157 0 0
86 254 0 1178 0 0
88 231 0 1201 0 0
90 213 0 1219 0 0
92 195 0 1237 0 0
94 170 1 1261 0 0
96 156 0 1276 0 0
98 139 0 1292 0 0
100 129 0 1303 0 0
102 118 0 1313 0 0
104 106 0 1325 0 0
106 100 0 1331 0 0
108 91 0 1340 0 0
110 82 0 1349 0 0
112 74 0 1357 0 0
114 65 0 1365 0 0
116 61 0 1369 0 0
118 58 0 1372 0 0
120 51 0 1378 0 1
122 45 0 1385 0 0
124 39 0 1390 0 0
126 35 0 1394 0 0
128 31 0 1400 0 0
130 26 0 1404 0 0
132 23 0 1409 0 0
134 21 0 1411 0 0
136 15 0 1419 0 0
138 14 0 1420 0 0
140 13 0 1421 0 0
142 14 0 1421 0 0
144 13 0 1422 0 0
146 11 0 1422 0 1
148 9 0 1423 0 0
150 9 0 1422 0 1
152 8 0 1424 0 0
154 8 0 1424 0 0
156 7 0 1425 0 0
158 7 0 1424 0 0
160 4 0 1427 0 0
162 4 0 1427 0 0
164 4 0 1427 0 0
166 5 0 1427 0 0
168 5 0 1426 0 1
170 5 0 1427 0 0
172 5 0 1427 0 0
174 5 0 1426 0 0
176 4 0 1426 0 0
178 4 0 1426 0 0
180 4 0 1425 0 0
182 4 0 1425 0 0
184 4 0 1425 0 0
186 2 0 1427 0 0
188 3 0 1427 0 0
190 3 0 1427 0 0
192 3 0 1427 0 0
194 3 0 1427 0 0
196 3 0 1426 0 0
198 3 0 1426 0 0
200 3 0 1425 0 0
