0 1409 0 0 0 0
2 1401 12 0 0 0
4.00004 1400 14 0 0 0
6 1403 11 0 0 0
8 1400 13 0 1 0
10 1409 5 0 0 0
12 1404 10 0 0 0
14 1406 8 0 0 0
16 1400 13 0 0 0
18 1402 11 0 0 0
20 1401 13 0 0 0
22 1408 6 0 0 0
24 1399 14 0 0 0
26 1408 5 0 0 0
28 1408 4 0 0 0
30 1400 11 0 0 0
32 1407 6 0 0 0
34 1399 14 0 0 0
36 1407 6 0 0 0
38 1406 7 0 1 0
40 1406 9 0 0 0
42 1404 11 0 0 0
44 1404 11 0 0 0
46 1403 12 0 0 0
48 1408 6 0 1 0
50 1408 7 0 0 0
52 1218 1 196 0 0
54 1080 0 336 1 0
56 951 0 465 0 0
58 842 0 574 0 0
60 729 0 687 0 0
62 638 0 778 0 0
64 573 0 843 0 0
66 526 0 892 1 0
68 463 0 956 0 0
70 407 0 1012 0 0
72 359 1 1060 0 0
74 298 1 1121 0 0
76 263 0 1157 0 0
78 229 0 1189 0 0
80 203 0 1215 0 0
82 178 1 1240 0 0
84 164 0 1255 0 0
86 142 0 1277 0 0
88 128 0 1291 0 0
90 110 0 1310 0 0
92 97 0 1323 0 0
94 89 0 1332 0 0
96 82 0 1340 0 0
98 75 0 1347 0 0
100 67 0 1355 0 0
102 58 0 1364 0 0
104 52 0 1370 0 0
106 49 0 1375 0 1
108 44 0 1380 0 0
110 37 0 1388 0 0
112 35 0 1390 0 0
114 29 0 1395 0 0
116 27 0 1397 0 0
118 25 0 1397 0 1
120 25 1 1398 0 0
122 22 0 1402 0 0
124 21 0 1403 0 0
126 20 0 1404 0 0
128 20 0 1405 0 0
130 16 0 1410 0 0
132 15 0 1412 0 0
134 12 0 1415 0 0
136 11 0 1416 0 0
138 12 0 1415 0 0
140 12 0 1415 1 0
142 11 0 1417 0 0
144 10 0 1417 0 1
146 10 0 1416 0 0
148 9 0 1417 0 0
150 9 0 1418 0 1
152 10 0 1418 0 1
154 10 0 1420 0 0
156 9 0 1420 0 1
158 9 0 1420 0 0
160 8 0 1421 0 0
162 9 0 1422 0 0
164 8 0 1422 0 0
166 7 0 1423 0 0
168 6 0 1424 0 0
170 7 0 1424 0 0
172 7 0 1425 0 0
174 7 0 1425 0 0
176 7 0 1426 0 0
178 7 0 1427 0 0
180 7 0 1427 0 0
182 7 0 1426 0 0
184 6 0 1427 0 1
186 4 0 1429 0 0
188 4 0 1429 0 1
190 3 0 1430 0 0
192 2 0 1430 0 0
194 2 0 1430 0 0
196 1 0 1431 0 0
198 2 0 1431 0 0
200 3 0 1431 0 0
