0 351 0 0 0 0
2 348 0 0 0 0
4.00004 348 0 0 0 0
6 346 0 0 0 0
8 344 0 0 1 0
10 346 0 0 0 0
12 347 0 0 0 0
14 348 0 0 0 0
16 348 0 0 0 0
18 347 0 0 0 0
20 345 0 0 0 0
22 345 0 0 1 0
24 344 0 0 1 0
26 344 0 0 0 0
28 341 0 0 1 0
30 340 0 0 0 0
32 339 0 0 1 0
34 337 0 0 0 0
36 336 0 0 0 0
38 336 0 0 0 0
40 336 0 0 0 0
42 336 0 0 0 0
44 336 0 0 0 0
46 337 0 0 1 0
48 339 0 0 0 0
50 340 0 0 0 0
52 341 0 0 0 0
54 341 0 0 0 0
56 344 0 0 0 0
58 343 0 0 1 0
60 342 0 1 0 0
62 341 0 2 0 0
64 341 0 3 0 0
66 342 0 3 0 0
68 342 0 3 0 0
70 342 0 3 0 0
72 341 0 3 1 0
74 340 0 3 1 0
76 341 0 3 0 0
78 340 0 3 0 0
80 339 0 5 0 0
82 337 0 6 0 0
84 337 0 6 0 0
86 336 0 6 0 0
88 333 0 7 2 0
90 332 0 7 2 0
92 333 0 8 0 0
94 333 0 8 0 0
96 332 0 8 1 0
98 333 0 10 0 0
100 332 0 11 0 0
102 330 0 11 1 0
104 331 0 13 0 0
106 331 0 12 0 0
108 330 0 15 1 0
110 330 0 17 0 0
112 330 0 17 0 0
114 329 0 19 1 0
116 330 0 20 0 0
118 329 0 21 0 0
120 328 0 22 0 0
122 328 0 22 0 0
124 328 0 23 0 0
126 328 0 23 0 0
128 328 0 24 0 0
130 326 0 26 1 0
132 326 0 27 1 0
134 326 0 27 0 0
136 324 0 28 1 0
138 324 0 28 0 0
140 324 0 28 0 0
142 322 0 28 0 0
144 321 0 29 0 0
146 321 0 29 0 0
148 321 0 31 0 0
150 321 0 31 0 0
152 321 0 31 0 0
154 320 0 31 0 1
156 319 0 33 0 0
158 319 0 33 0 0
160 317 0 33 0 0
162 317 0 34 0 0
164 317 0 36 0 0
166 317 0 36 0 0
168 317 0 36 0 0
170 315 0 37 0 0
172 314 0 39 0 0
174 314 0 39 0 0
176 314 0 41 0 0
178 313 0 42 1 0
180 313 0 42 0 0
182 313 0 43 0 0
184 312 0 43 1 0
186 313 0 43 0 0
188 313 0 43 0 0
190 312 0 43 0 0
192 311 0 44 0 0
194 310 0 44 0 0
196 309 0 46 0 0
198 307 0 46 1 0
200 308 0 46 0 0
