0 705 0 0 0 0
2 703 0 0 0 0
4.00004 702 0 0 0 0
6 702 0 0 0 0
8 702 0 0 0 0
10 703 0 0 0 0
12 703 0 0 0 0
14 704 0 0 0 0
16 705 0 0 0 0
18 705 0 0 0 0
20 706 0 0 0 0
22 706 0 0 0 0
24 707 0 0 0 0
26 706 0 0 1 0
28 708 0 0 0 0
30 708 0 0 1 0
32 709 0 0 0 0
34 710 0 0 0 0
36 709 0 0 0 0
38 709 0 0 0 0
40 709 0 0 0 0
42 710 0 0 0 0
44 710 0 0 0 0
46 710 0 0 0 0
48 709 0 0 0 0
50 709 0 0 0 0
52 709 0 0 0 0
54 709 0 0 0 0
56 708 0 0 0 0
58 707 0 0 0 0
60 706 0 0 1 0
62 706 0 0 0 0
64 706 0 0 0 0
66 706 0 1 0 0
68 705 0 1 0 0
70 705 0 1 0 0
72 705 0 2 0 0
74 705 0 2 0 0
76 705 0 2 0 0
78 704 0 3 0 0
80 704 0 4 0 0
82 703 0 5 1 1
84 704 0 6 0 0
86 704 0 6 0 0
88 704 0 7 0 0
90 703 0 7 0 0
92 700 0 7 0 0
94 701 0 7 0 0
96 701 0 7 0 0
98 701 0 8 0 1
100 701 0 8 0 0
102 701 0 8 0 0
104 700 0 8 0 0
106 700 0 8 0 0
108 698 0 8 0 0
110 698 0 8 0 0
112 698 0 9 0 0
114 698 0 10 0 0
116 698 0 10 0 0
118 697 0 11 0 0
120 698 0 11 0 0
122 697 0 11 0 0
124 697 0 11 0 0
126 697 0 11 0 0
128 697 0 11 0 0
130 697 0 11 0 0
132 697 0 12 0 0
134 697 0 13 0 0
136 697 0 13 0 0
138 697 0 15 0 0
140 697 0 15 0 0
142 696 0 15 1 0
144 697 0 15 0 0
146 697 0 15 0 1
148 697 0 16 0 0
150 696 0 16 0 0
152 695 0 16 0 0
154 694 0 16 1 0
156 695 0 16 0 0
158 694 0 17 1 0
160 693 0 17 0 0
162 693 0 18 0 0
164 693 0 18 0 0
166 694 0 18 0 0
168 692 0 19 1 0
170 693 0 19 0 0
172 691 0 19 1 0
174 691 0 19 0 0
176 691 0 19 0 0
178 690 0 19 1 0
180 691 0 19 0 0
182 691 0 19 0 0
184 691 0 19 0 0
186 690 0 19 0 0
188 689 0 19 0 0
190 689 0 19 0 0
192 688 0 20 1 0
194 688 0 20 0 0
196 688 0 20 0 0
198 687 0 21 0 0
200 687 0 21 0 0
