0 502 0 0 0 0 181
2 494 0 0 28 0 181
4.00004 493 0 0 24 0 181
6 496 0 0 35 0 181
8 498 0 0 35 0 181
10 478 0 0 34 0 181
12 505 0 0 24 0 181
14 509 0 0 25 0 181
16 519 0 0 18 0 181
18 507 0 0 21 0 181
20 506 0 0 23 0 181
22 499 0 0 29 0 181
24 481 0 0 32 0 181
26 501 0 0 34 0 181
28 508 0 0 23 0 181
30 510 0 0 20 0 181
32 511 0 0 28 0 181
34 505 0 0 23 0 181
36 488 0 0 36 0 181
38 499 0 0 28 0 181
40 492 0 0 26 0 181
42 499 0 0 19 0 181
44 486 0 0 27 0 181
46 492 0 0 21 0 181
48 490 0 0 21 0 181
50 477 0 0 24 0 181
52 469 0 0 28 0 181
54 481 0 4 19 2 181
56 468 0 6 24 2 181
58 477 0 18 14 4 181
60 452 0 35 24 6 181
62 447 0 50 19 2 181
64 426 0 65 17 6 181
66 410 0 84 20 4 181
68 394 0 99 18 10 181
70 372 0 117 17 6 181
72 349 0 136 14 9 181
74 338 0 152 11 13 181
76 309 0 166 19 10 181
78 298 0 176 13 13 181
80 277 0 189 22 11 181
82 280 0 204 10 14 181
84 263 0 212 12 14 181
86 258 0 231 11 12 181
88 252 0 237 8 25 181
90 241 0 253 7 20 181
92 229 0 268 13 13 181
94 219 0 281 7 12 181
96 204 0 293 11 10 181
98 209 0 296 6 17 181
100 194 0 310 11 15 181
102 184 0 312 9 11 181
104 180 0 323 14 21 181
106 171 0 326 9 29 181
108 158 0 345 7 20 181
110 151 0 348 8 13 181
112 144 0 343 14 25 181
114 148 0 359 6 23 181
116 136 0 365 8 17 181
118 134 0 359 4 27 181
120 125 0 371 4 31 181
122 120 0 391 5 13 181
124 111 0 397 6 17 181
126 111 0 399 7 13 181
128 106 0 394 6 22 181
130 103 0 399 4 23 181
132 98 0 393 3 24 181
134 86 0 402 1 28 181
136 84 0 401 1 16 181
138 74 0 413 6 14 181
140 71 0 400 4 15 181
142 72 0 407 3 18 181
144 66 0 415 3 27 181
146 69 0 429 0 18 181
148 63 0 426 3 24 181
150 58 0 439 4 18 181
152 59 0 451 4 23 181
154 58 0 464 2 19 181
156 58 0 456 0 34 181
158 49 0 438 3 32 181
160 46 0 440 4 21 181
162 44 0 423 3 23 181
164 41 0 437 2 23 181
166 38 0 436 2 24 181
168 37 0 448 1 29 181
170 38 0 471 2 23 181
172 38 0 475 1 17 181
174 36 0 477 2 22 181
176 34 0 478 2 25 181
178 33 0 484 2 28 181
180 31 0 488 0 23 181
182 27 0 485 0 27 181
184 28 0 466 0 40 181
186 22 0 474 4 17 181
188 20 0 466 1 27 181
190 19 0 467 0 21 181
192 21 0 460 0 25 181
194 20 0 457 1 24 181
196 18 0 472 1 25 181
198 19 0 481 0 22 181
200 18 0 479 1 21 181
