0 1347 0 0 0 0 194
2 1312 5 0 20 0 194
4.00004 1285 6 0 25 0 194
6 1261 15 0 22 0 194
8 1248 12 0 24 0 194
10 1240 10 0 16 0 194
12 1215 14 0 30 0 194
14 1219 6 0 18 0 194
16 1213 11 0 19 0 194
18 1187 8 0 19 0 194
20 1167 11 0 17 0 194
22 1171 11 0 22 0 194
24 1165 9 0 22 0 194
26 1158 5 0 16 0 194
28 1153 11 0 20 0 194
30 1151 6 0 18 0 194
32 1147 8 0 17 0 194
34 1158 3 0 23 0 194
36 1146 7 0 26 0 194
38 1132 12 0 27 0 194
40 1129 14 0 24 0 194
42 1132 7 0 24 0 194
44 1130 8 0 22 0 194
46 1118 6 0 30 0 194
48 1108 8 0 23 0 194
50 1106 6 0 22 0 194
52 934 0 173 11 0 194
54 830 0 282 26 1 194
56 752 1 365 13 7 194
58 655 0 452 17 7 194
60 575 1 529 12 5 194
62 513 0 583 15 6 194
64 471 0 626 8 6 194
66 439 0 657 12 8 194
68 406 0 695 7 7 194
70 357 0 732 9 9 194
72 349 0 738 12 7 194
74 332 0 769 12 13 194
76 303 0 797 11 12 194
78 286 0 815 6 13 194
80 257 0 831 9 17 194
82 245 0 858 8 11 194
84 232 0 857 13 15 194
86 226 0 870 11 13 194
88 210 0 881 5 18 194
90 200 0 902 7 10 194
92 195 0 918 4 12 194
94 176 0 937 8 17 194
96 163 0 958 6 13 194
98 177 0 952 6 13 194
100 166 0 952 8 17 194
102 149 0 980 12 12 194
104 150 0 991 4 9 194
106 132 0 989 5 17 194
108 131 0 994 5 15 194
110 111 0 998 6 17 194
112 115 0 1000 3 15 194
114 111 0 1003 4 21 194
116 113 0 996 4 13 194
118 109 0 1009 1 15 194
120 101 0 1012 3 17 194
122 98 0 1005 7 16 194
124 93 0 1021 4 9 194
126 90 0 1014 3 17 194
128 84 0 1018 2 15 194
130 77 0 1021 2 17 194
132 80 1 1026 2 18 194
134 69 0 1031 6 13 194
136 70 0 1029 4 20 194
138 70 0 1032 1 17 194
140 71 0 1045 1 10 194
142 64 0 1038 2 19 194
144 68 0 1053 3 13 194
146 63 0 1048 2 19 194
148 56 0 1070 4 16 194
150 52 0 1057 0 16 194
152 49 0 1060 2 24 194
154 45 0 1071 1 21 194
156 45 0 1084 0 19 194
158 47 0 1075 1 22 194
160 44 0 1077 1 17 194
162 43 0 1097 0 16 194
164 43 0 1097 0 13 194
166 43 0 1082 3 16 194
168 41 0 1084 2 16 194
170 44 0 1080 0 26 194
172 40 0 1085 1 11 194
174 41 0 1086 1 15 194
176 38 0 1095 1 18 194
178 34 0 1101 0 21 194
180 35 0 1102 0 20 194
182 34 0 1124 0 20 194
184 30 0 1124 1 13 194
186 24 0 1126 0 13 194
188 28 0 1117 1 12 194
190 30 0 1098 0 20 194
192 28 0 1103 2 18 194
194 30 1 1119 0 19 194
196 30 0 1105 0 28 194
198 31 0 1128 0 19 194
200 23 0 1138 3 19 194
