0 1071 0 0 0 0
2 1072 0 0 2 0
4.00004 1069 0 0 0 0
6 1076 0 0 0 0
8 1070 0 0 1 0
10 1070 0 0 0 0
12 1078 0 0 1 0
14 1087 0 0 1 0
16 1083 0 0 1 0
18 1072 0 0 0 0
20 1067 0 0 0 0
22 1061 0 0 2 0
24 1059 0 0 4 0
26 1055 0 0 1 0
28 1071 0 0 0 0
30 1057 0 0 2 0
32 1055 0 0 0 0
34 1049 0 0 3 0
36 1061 0 0 0 0
38 1069 0 0 3 0
40 1075 0 0 2 0
42 1078 0 0 1 0
44 1071 0 0 0 0
46 1063 0 0 2 0
48 1061 0 0 1 0
50 1060 0 0 1 0
52 1067 0 0 1 0
54 1070 0 0 0 0
56 1068 0 3 1 0
58 1068 0 8 0 0
60 1051 0 12 1 0
62 1052 0 17 0 0
64 1044 0 22 0 0
66 1027 0 30 1 0
68 1020 0 39 0 0
70 1007 0 51 1 0
72 1000 0 62 0 0
74 988 0 65 0 0
76 980 0 84 2 1
78 974 0 96 0 3
80 958 0 113 1 0
82 945 0 119 1 1
84 937 0 123 0 0
86 930 0 128 0 0
88 915 0 143 1 0
90 908 0 147 1 1
92 903 0 152 0 0
94 888 0 165 1 0
96 880 0 193 2 1
98 875 0 192 2 0
100 863 0 203 0 3
102 849 0 213 1 0
104 838 0 216 2 0
106 824 0 226 0 0
108 806 0 240 0 0
110 790 0 255 2 1
112 787 0 264 0 0
114 781 0 277 1 1
116 772 0 295 0 0
118 767 0 310 1 0
120 763 0 317 2 0
122 752 0 325 1 0
124 743 0 335 0 1
126 741 0 344 0 0
128 726 0 346 1 1
130 717 0 350 0 1
132 711 0 360 0 1
134 699 0 375 0 2
136 698 0 387 0 0
138 686 0 407 0 0
140 680 0 417 0 2
142 678 0 426 0 0
144 670 0 422 0 3
146 662 0 437 1 1
148 655 0 443 0 0
150 651 0 442 0 0
152 640 0 456 0 0
154 625 0 467 1 0
156 620 0 470 1 0
158 606 0 477 1 1
160 602 0 477 0 1
162 591 0 481 0 1
164 583 0 495 0 0
166 575 0 505 0 2
168 565 0 527 0 1
170 558 0 530 0 2
172 550 0 542 0 2
174 537 0 537 0 2
176 531 0 544 0 0
178 527 0 556 0 3
180 524 0 562 0 3
182 511 0 561 0 1
184 508 0 561 1 0
186 502 0 569 0 1
188 492 0 583 0 2
190 477 0 588 2 0
192 469 0 588 0 1
194 462 0 590 1 0
196 455 0 603 3 1
198 447 0 607 1 0
200 445 0 617 0 1
