0 1114 0 0 0 0
2 1113 6 0 1 0
4.00004 1112 4 0 2 0
6 1107 3 0 2 0
8 1108 5 0 1 0
10 1104 6 0 5 0
12 1111 4 0 0 0
14 1100 5 0 0 0
16 1101 3 0 2 0
18 1097 10 0 0 0
20 1102 6 0 1 0
22 1105 6 0 0 0
24 1103 4 0 0 0
26 1105 12 0 2 0
28 1097 8 0 0 0
30 1113 10 0 0 0
32 1121 5 0 2 0
34 1116 5 0 0 0
36 1113 5 0 3 0
38 1116 3 0 2 0
40 1098 7 0 1 0
42 1089 7 0 2 0
44 1090 7 0 1 0
46 1090 4 0 1 0
48 1095 7 0 2 0
50 1095 9 0 0 0
52 930 0 177 0 0
54 836 0 261 1 0
56 749 1 345 2 1
58 670 0 423 1 0
60 615 0 484 2 0
62 539 1 551 0 0
64 491 0 607 0 0
66 447 0 651 1 0
68 409 0 689 4 0
70 374 0 717 1 0
72 346 0 752 1 1
74 302 0 794 1 0
76 283 0 806 2 1
78 258 0 827 0 1
80 247 0 847 0 0
82 229 0 861 1 0
84 230 0 877 1 0
86 205 0 888 0 0
88 204 0 892 0 1
90 193 0 910 0 0
92 190 0 913 0 1
94 184 0 917 0 1
96 176 0 932 0 0
98 176 0 938 0 0
100 169 0 943 1 0
102 173 0 944 1 1
104 162 0 953 3 2
106 148 0 964 2 1
108 149 0 963 1 0
110 143 0 967 2 1
112 138 0 969 0 0
114 140 0 965 1 2
116 137 0 967 0 1
118 134 0 979 0 1
120 137 0 970 0 1
122 130 0 977 0 1
124 135 0 972 0 0
126 131 0 972 2 0
128 130 0 976 1 0
130 131 0 985 0 0
132 128 0 989 0 0
134 122 0 988 0 1
136 124 0 979 0 0
138 115 0 990 0 1
140 117 0 1000 0 0
142 109 0 1008 0 2
144 107 0 1017 1 1
146 111 0 1022 0 1
148 111 0 1022 0 0
150 110 0 1020 0 1
152 101 0 1024 2 1
154 111 1 1018 1 1
156 116 0 1014 1 0
158 113 0 1014 0 0
160 107 0 1015 1 1
162 95 0 1027 0 0
164 92 0 1026 1 0
166 90 0 1023 0 3
168 84 0 1032 0 1
170 76 0 1034 1 1
172 81 0 1047 1 1
174 77 0 1052 1 1
176 86 0 1044 0 1
178 92 0 1034 0 1
180 92 0 1036 0 0
182 93 0 1035 2 1
184 90 0 1033 0 0
186 84 0 1038 3 1
188 82 0 1031 0 2
190 82 0 1033 0 2
192 77 0 1031 0 1
194 76 0 1024 0 1
196 75 0 1030 0 1
198 73 0 1029 1 3
200 67 0 1035 0 0
