0 971 0 0 0 0
2 968 0 0 1 0
4.00004 963 0 0 1 0
6 968 0 0 2 0
8 960 0 0 0 0
10 961 0 0 1 0
12 967 0 0 3 0
14 966 0 0 4 0
16 973 0 0 0 0
18 963 0 0 5 0
20 967 0 0 1 0
22 978 0 0 0 0
24 982 0 0 2 0
26 980 0 0 1 0
28 984 0 0 2 0
30 976 0 0 0 0
32 970 0 0 0 0
34 973 0 0 1 0
36 972 0 0 1 0
38 982 0 0 0 0
40 978 0 0 4 0
42 965 0 0 3 0
44 967 0 0 1 0
46 983 0 0 1 0
48 972 0 0 0 0
50 988 0 0 0 0
52 983 0 0 1 0
54 989 0 1 1 0
56 984 0 7 3 0
58 970 0 8 1 1
60 957 0 27 0 2
62 959 0 29 1 1
64 941 0 41 2 0
66 939 0 44 0 0
68 929 0 54 0 1
70 909 0 64 2 0
72 897 0 67 0 0
74 892 0 80 0 0
76 880 0 100 0 0
78 870 0 112 2 3
80 864 0 134 1 1
82 845 0 146 1 1
84 828 0 158 3 1
86 813 0 171 0 0
88 796 0 183 2 0
90 784 0 192 2 0
92 782 0 195 0 0
94 769 0 209 0 2
96 759 0 221 0 0
98 746 0 231 3 0
100 744 0 242 1 0
102 735 0 252 0 2
104 730 0 267 0 1
106 711 0 285 1 1
108 707 0 286 1 0
110 696 0 285 1 1
112 684 0 293 1 1
114 671 0 309 0 0
116 658 0 311 1 3
118 645 0 322 3 1
120 639 0 328 0 1
122 630 0 341 1 1
124 626 0 349 0 1
126 612 0 359 1 1
128 600 0 376 0 0
130 594 0 383 0 0
132 588 0 388 1 1
134 576 0 403 0 0
136 572 0 415 1 1
138 561 0 412 0 1
140 555 0 421 1 0
142 550 0 429 1 0
144 533 0 437 1 1
146 534 0 448 0 2
148 519 0 456 0 0
150 514 0 471 0 2
152 507 0 471 0 0
154 500 0 478 1 0
156 488 0 491 1 2
158 473 0 503 0 0
160 466 0 504 0 1
162 459 0 513 0 0
164 455 0 528 0 2
166 455 0 539 0 1
168 446 0 539 1 2
170 440 0 555 0 0
172 431 0 558 0 1
174 423 0 569 0 1
176 417 0 567 0 3
178 411 0 573 1 0
180 406 0 583 1 1
182 392 0 582 1 1
184 384 0 582 0 1
186 379 0 596 0 0
188 375 0 612 1 1
190 370 0 611 0 1
192 361 0 616 0 1
194 349 0 625 0 0
196 343 0 639 1 0
198 336 0 642 0 2
200 328 0 643 1 0
