0 1022 0 0 0 0
2 1017 0 0 2 0
4.00004 1023 0 0 0 0
6 1020 0 0 0 0
8 1022 0 0 1 0
10 1031 0 0 1 0
12 1029 0 0 1 0
14 1035 0 0 1 0
16 1046 0 0 2 0
18 1045 0 0 2 0
20 1026 0 0 1 0
22 1031 0 0 2 0
24 1028 0 0 3 0
26 1032 0 0 2 0
28 1034 0 0 0 0
30 1032 0 0 1 0
32 1026 0 0 3 0
34 1031 0 0 0 0
36 1025 0 0 0 0
38 1031 0 0 0 0
40 1019 0 0 0 0
42 1006 0 0 1 0
44 1009 0 0 1 0
46 1014 0 0 2 0
48 1024 0 0 2 0
50 1016 0 0 3 0
52 1017 0 0 1 0
54 1016 0 0 2 0
56 1019 0 0 1 0
58 1028 0 3 1 0
60 1030 0 7 0 0
62 1007 0 11 2 0
64 998 0 13 0 0
66 991 0 22 1 0
68 989 0 33 0 0
70 968 0 34 0 1
72 970 0 47 0 0
74 964 0 54 2 2
76 959 0 69 2 0
78 946 0 86 0 0
80 937 0 95 3 0
82 917 0 114 3 0
84 913 0 112 0 0
86 899 0 126 1 1
88 881 0 136 2 0
90 869 0 153 0 0
92 852 0 159 0 1
94 845 0 169 1 1
96 827 0 181 0 0
98 820 0 189 2 0
100 821 0 204 1 1
102 811 0 215 2 1
104 806 0 229 3 1
106 793 0 230 0 0
108 774 0 245 1 2
110 763 0 251 3 1
112 748 0 263 0 0
114 733 0 268 0 0
116 731 0 275 0 2
118 718 0 287 0 1
120 711 0 308 0 0
122 709 0 310 0 0
124 696 0 311 0 1
126 686 0 316 1 0
128 677 0 326 0 0
130 672 0 336 0 0
132 659 0 335 1 1
134 647 0 334 0 1
136 635 0 342 0 0
138 637 0 351 0 1
140 629 0 363 0 1
142 618 0 371 1 0
144 617 0 380 1 1
146 606 0 384 0 0
148 599 0 384 0 1
150 597 0 404 2 0
152 586 0 412 2 1
154 581 0 418 1 0
156 574 0 419 0 1
158 563 0 416 0 2
160 549 0 429 0 0
162 541 0 446 1 0
164 534 0 456 0 0
166 529 0 459 0 0
168 521 0 465 0 0
170 511 0 472 1 1
172 504 0 475 1 0
174 503 0 461 0 3
176 492 0 475 1 0
178 482 0 493 0 0
180 479 0 504 0 1
182 476 0 518 0 0
184 464 0 524 2 3
186 460 0 535 1 1
188 458 0 543 0 0
190 455 0 542 1 1
192 449 0 559 1 1
194 444 0 560 0 1
196 434 0 562 0 1
198 425 0 562 1 1
200 412 0 572 1 1
