0 1125 0 0 0 0
2 1127 3 0 1 0
4.00004 1127 6 0 2 0
6 1128 4 0 0 0
8 1110 4 0 1 0
10 1112 2 0 2 0
12 1100 5 0 3 0
14 1093 2 0 0 0
16 1079 8 0 3 0
18 1086 9 0 1 0
20 1088 3 0 1 0
22 1084 4 0 0 0
24 1086 5 0 1 0
26 1083 4 0 1 0
28 1087 6 0 0 0
30 1084 5 0 2 0
32 1083 3 0 1 0
34 1071 5 0 1 0
36 1068 5 0 2 0
38 1080 3 0 2 0
40 1073 3 0 0 0
42 1065 3 0 2 0
44 1076 5 0 1 0
46 1077 11 0 1 0
48 1065 10 0 0 0
50 1072 9 0 1 0
52 935 1 134 0 0
54 836 0 242 1 0
56 740 1 335 0 0
58 638 1 424 3 0
60 584 0 482 0 0
62 515 0 543 2 0
64 472 0 585 0 1
66 424 0 634 2 0
68 379 0 670 0 1
70 337 0 700 1 0
72 309 0 727 1 0
74 280 0 749 0 1
76 268 0 767 1 1
78 248 0 787 0 0
80 229 0 807 3 0
82 206 0 818 1 0
84 183 0 833 0 0
86 174 0 843 0 1
88 163 0 854 0 1
90 163 0 859 2 2
92 159 0 876 0 0
94 150 0 872 0 0
96 158 0 872 0 2
98 148 0 870 0 1
100 142 0 873 0 0
102 146 0 886 0 1
104 145 0 882 0 2
106 142 0 886 0 0
108 139 0 878 0 2
110 133 0 889 0 2
112 127 0 893 0 2
114 122 0 901 2 0
116 119 0 897 0 1
118 119 0 894 0 1
120 119 1 891 1 1
122 112 0 896 0 1
124 109 0 903 0 0
126 102 0 891 0 1
128 101 0 901 0 2
130 98 0 898 1 1
132 99 0 899 1 1
134 90 0 897 1 0
136 91 0 889 1 0
138 99 0 887 0 0
140 98 0 896 0 0
142 96 0 900 1 0
144 92 0 903 0 1
146 96 0 892 0 0
148 92 0 897 1 0
150 93 0 895 0 1
152 90 0 895 0 0
154 87 0 892 2 0
156 93 0 889 0 1
158 87 0 891 0 0
160 90 0 888 0 1
162 82 0 891 1 0
164 88 0 891 1 2
166 88 0 885 0 0
168 80 0 890 2 1
170 78 0 895 0 1
172 82 0 890 1 2
174 75 0 907 0 1
176 81 0 900 0 0
178 84 0 899 0 0
180 87 0 897 0 0
182 88 0 887 0 3
184 82 0 893 0 3
186 76 0 899 0 2
188 78 0 894 1 1
190 76 0 902 0 0
192 82 0 905 0 0
194 83 0 906 0 0
196 81 0 904 0 0
198 87 0 900 1 3
200 88 0 904 0 1
