0 676 0 0 0 0
2 676 0 0 1 0
4.00004 677 0 0 0 0
6 678 0 0 0 0
8 677 0 0 0 0
10 675 0 0 1 0
12 674 0 0 1 0
14 674 0 0 0 0
16 676 0 0 0 0
18 675 0 0 1 0
20 674 0 0 1 0
22 673 0 0 0 0
24 673 0 0 0 0
26 673 0 0 0 0
28 673 0 0 0 0
30 673 0 0 0 0
32 673 0 0 0 0
34 673 0 0 0 0
36 672 0 0 0 0
38 673 0 0 0 0
40 672 0 0 1 0
42 673 0 0 0 0
44 673 0 0 0 0
46 674 0 0 0 0
48 675 0 0 0 0
50 675 0 0 0 0
52 676 0 0 0 1
54 676 0 1 0 0
56 675 0 2 0 0
58 676 0 2 0 0
60 677 0 3 0 0
62 676 0 3 1 0
64 677 0 3 0 0
66 678 0 3 0 0
68 678 0 5 0 0
70 678 0 5 0 0
72 678 0 5 0 1
74 678 0 6 0 0
76 678 0 6 0 0
78 678 0 6 0 0
80 677 0 6 1 0
82 677 0 7 0 0
84 676 0 7 1 0
86 676 0 7 1 0
88 677 0 7 0 0
90 677 0 7 0 0
92 677 0 9 0 0
94 676 0 10 1 0
96 676 0 10 1 0
98 677 0 10 0 0
100 677 0 10 0 0
102 677 0 10 0 0
104 676 0 10 0 0
106 676 0 10 0 0
108 676 0 10 0 0
110 675 0 10 0 0
112 674 0 10 1 0
114 671 0 10 2 0
116 671 0 10 1 0
118 670 0 9 1 1
120 671 0 12 0 0
122 671 0 13 0 0
124 671 0 13 0 0
126 670 0 13 1 0
128 670 0 13 1 0
130 670 0 13 0 0
132 669 0 14 1 0
134 668 0 15 0 0
136 668 0 15 0 0
138 668 0 16 0 0
140 668 0 16 0 0
142 668 0 16 0 0
144 667 0 17 1 0
146 668 0 17 0 1
148 668 0 17 0 0
150 666 0 17 2 0
152 667 0 17 0 0
154 666 0 17 1 0
156 666 0 18 1 0
158 667 0 18 0 0
160 667 0 18 0 0
162 667 0 18 0 0
164 666 0 19 1 0
166 667 0 19 0 0
168 667 0 19 0 0
170 666 0 21 0 0
172 665 0 22 0 0
174 664 0 22 0 0
176 662 0 22 1 0
178 663 0 22 0 0
180 661 0 22 1 1
182 662 0 24 0 0
184 662 0 24 0 0
186 662 0 24 0 0
188 662 0 24 0 0
190 662 0 24 0 1
192 661 0 25 1 0
194 660 0 26 0 0
196 660 0 27 0 0
198 660 0 27 0 0
200 660 0 27 0 0
