0 1483 0 0 0 0
2 1476 10 0 0 0
4.00004 1470 14 0 2 0
6 1477 10 0 0 0
8 1473 13 0 1 0
10 1475 11 0 1 0
12 1479 7 0 0 0
14 1476 10 0 0 0
16 1478 7 0 0 0
18 1475 9 0 1 0
20 1482 3 0 0 0
22 1479 5 0 1 0
24 1476 8 0 0 0
26 1476 8 0 0 0
28 1472 12 0 0 0
30 1476 8 0 1 0
32 1477 8 0 1 0
34 1474 10 0 1 0
36 1477 7 0 0 0
38 1478 6 0 0 0
40 1479 4 0 0 0
42 1481 3 0 0 0
44 1477 7 0 0 0
46 1475 9 0 0 0
48 1476 7 0 1 0
50 1477 7 0 0 0
52 1299 1 183 2 0
54 1150 0 334 0 0
56 1029 0 453 0 0
58 909 0 572 0 0
60 833 2 646 0 0
62 747 0 733 0 1
64 672 0 808 0 0
66 607 0 873 0 0
68 546 0 932 0 0
70 505 0 973 1 1
72 454 0 1023 0 1
74 412 0 1065 0 0
76 367 1 1110 0 0
78 333 0 1145 0 0
80 296 0 1182 1 0
82 266 0 1213 0 0
84 237 1 1240 0 0
86 217 0 1261 0 0
88 190 0 1288 0 0
90 174 0 1304 0 0
92 156 0 1321 0 0
94 138 0 1339 0 0
96 127 0 1349 0 0
98 115 0 1361 0 0
100 107 0 1369 0 0
102 98 0 1378 0 0
104 91 0 1385 0 0
106 81 0 1395 1 0
108 69 0 1407 0 0
110 61 0 1415 0 0
112 54 0 1420 0 0
114 51 0 1424 0 0
116 47 0 1428 0 1
118 41 0 1435 0 0
120 40 0 1436 0 0
122 35 0 1440 0 1
124 33 0 1441 0 1
126 25 0 1448 0 0
128 23 0 1450 1 0
130 20 0 1454 0 0
132 15 0 1459 0 0
134 12 0 1462 0 0
136 11 0 1463 0 0
138 9 0 1464 0 0
140 7 0 1466 0 0
142 7 0 1467 0 0
144 7 0 1466 0 1
146 6 0 1468 0 0
148 6 0 1468 0 0
150 5 0 1469 0 0
152 5 0 1469 0 0
154 6 0 1468 0 0
156 5 0 1469 0 0
158 5 0 1468 0 1
160 6 0 1466 0 0
162 6 0 1467 0 0
164 6 0 1467 0 0
166 6 0 1467 1 0
168 6 0 1467 1 0
170 7 0 1467 0 0
172 7 0 1467 0 0
174 6 0 1468 1 0
176 5 0 1467 0 1
178 5 0 1469 0 0
180 5 0 1467 0 1
182 6 0 1467 0 0
184 5 0 1465 0 2
186 5 0 1467 0 0
188 5 0 1466 0 1
190 5 0 1466 0 0
192 5 0 1466 0 0
194 7 0 1466 0 0
196 6 0 1466 0 0
198 6 0 1466 0 0
200 6 0 1465 0 0
