0 1243 0 0 0 0
2 1239 5 0 0 0
4.00004 1236 7 0 1 0
6 1240 3 0 1 0
8 1238 5 0 0 0
10 1238 4 0 2 0
12 1242 2 0 0 0
14 1237 7 0 0 0
16 1239 6 0 0 0
18 1236 9 0 0 0
20 1241 4 0 0 0
22 1237 8 0 0 0
24 1232 13 0 0 0
26 1238 8 0 0 0
28 1241 4 0 0 0
30 1241 4 0 0 0
32 1237 8 0 0 0
34 1235 9 0 0 0
36 1234 11 0 0 0
38 1238 7 0 0 0
40 1238 7 0 0 0
42 1239 5 0 0 0
44 1241 4 0 0 0
46 1238 6 0 0 0
48 1235 7 0 2 0
50 1235 9 0 0 0
52 1077 1 166 0 0
54 967 0 276 0 0
56 863 0 379 1 0
58 784 0 458 1 0
60 703 0 541 0 0
62 636 0 608 0 0
64 592 1 651 0 0
66 520 0 723 0 0
68 459 0 784 0 0
70 406 0 837 1 0
72 378 0 866 0 0
74 345 0 899 0 0
76 308 0 935 0 0
78 279 0 965 2 0
80 244 0 1001 0 0
82 224 0 1022 0 0
84 203 0 1042 0 1
86 189 0 1057 1 0
88 166 0 1080 0 0
90 151 0 1094 0 1
92 133 0 1112 0 0
94 117 0 1128 0 1
96 98 0 1148 0 0
98 93 0 1154 0 0
100 82 0 1165 0 0
102 71 0 1174 0 2
104 65 0 1183 0 0
106 53 0 1195 0 0
108 51 0 1197 0 0
110 47 0 1201 0 0
112 43 0 1204 0 2
114 39 0 1208 0 1
116 34 0 1213 0 0
118 30 0 1217 0 0
120 25 0 1223 0 0
122 20 0 1227 0 0
124 20 0 1226 1 1
126 20 0 1226 0 1
128 19 0 1228 0 0
130 17 0 1230 0 0
132 16 0 1230 0 0
134 15 0 1231 0 0
136 15 0 1231 0 0
138 12 0 1233 0 0
140 11 0 1235 0 0
142 10 0 1235 0 1
144 8 0 1238 0 0
146 7 0 1238 0 1
148 5 0 1241 0 0
150 4 0 1242 0 1
152 4 0 1242 0 1
154 4 0 1242 0 0
156 3 0 1243 0 0
158 3 0 1243 0 0
160 1 0 1245 0 0
162 1 0 1245 0 0
164 1 0 1245 0 0
166 2 0 1245 0 0
168 3 0 1245 0 0
170 3 0 1244 1 0
172 3 0 1246 0 0
174 3 0 1245 0 1
176 3 0 1247 0 0
178 2 0 1248 0 0
180 2 0 1247 0 1
182 2 0 1247 0 0
184 3 0 1247 0 0
186 3 0 1246 0 1
188 3 0 1247 0 0
190 3 0 1246 0 0
192 2 0 1247 0 0
194 2 0 1247 0 0
196 3 0 1247 0 0
198 3 0 1246 0 1
200 3 0 1248 0 0
