0 277 0 0 0 0
2 275 0 0 0 0
4.00004 276 0 0 1 0
6 277 0 0 0 0
8 275 0 0 1 0
10 277 0 0 0 0
12 277 0 0 1 0
14 277 0 0 0 0
16 276 0 0 1 0
18 278 0 0 0 0
20 276 0 0 0 0
22 274 0 0 1 0
24 276 0 0 0 0
26 276 0 0 0 0
28 277 0 0 0 0
30 276 0 0 0 0
32 275 0 0 1 0
34 275 0 0 0 0
36 275 0 0 0 0
38 275 0 0 0 0
40 275 0 0 0 0
42 275 0 0 0 0
44 275 0 0 0 0
46 275 0 0 0 0
48 275 0 0 0 0
50 276 0 0 0 0
52 274 0 0 1 0
54 274 0 0 0 0
56 272 0 0 1 0
58 273 0 0 0 0
60 272 0 0 0 0
62 273 0 0 0 0
64 273 0 0 0 0
66 271 0 1 2 0
68 273 0 1 0 0
70 273 0 2 0 0
72 273 0 2 0 0
74 271 0 2 1 0
76 271 0 2 0 0
78 270 0 2 0 0
80 270 0 2 0 0
82 269 0 2 1 0
84 270 0 2 0 0
86 269 0 2 0 0
88 270 0 2 0 0
90 269 0 2 1 0
92 270 0 2 0 0
94 270 0 2 0 0
96 270 0 2 0 0
98 269 0 2 1 0
100 269 0 2 0 0
102 266 0 2 3 0
104 266 0 3 1 0
106 267 0 3 0 0
108 265 0 3 0 0
110 265 0 3 0 0
112 265 0 3 0 0
114 265 0 3 0 0
116 265 0 5 0 1
118 264 0 6 1 0
120 265 0 7 0 0
122 265 0 7 0 0
124 264 0 8 1 0
126 264 0 8 0 0
128 264 0 9 0 0
130 264 0 9 0 0
132 264 0 9 0 1
134 264 0 11 0 0
136 263 0 12 1 0
138 263 0 12 1 0
140 262 0 12 1 0
142 264 0 12 0 0
144 264 0 13 0 0
146 264 0 14 0 0
148 264 0 14 0 0
150 264 0 15 0 0
152 263 0 15 0 0
154 263 0 16 0 0
156 262 0 16 0 1
158 261 0 17 1 0
160 261 0 18 0 0
162 261 0 18 0 0
164 261 0 18 0 0
166 260 0 18 0 1
168 260 0 19 0 0
170 259 0 19 0 0
172 259 0 19 1 0
174 260 0 19 0 0
176 260 0 19 0 0
178 259 0 19 1 0
180 260 0 19 0 0
182 260 0 19 0 2
184 260 0 21 0 0
186 260 0 21 0 0
188 260 0 21 0 0
190 260 0 21 0 0
192 258 0 22 2 0
194 259 0 22 1 0
196 259 0 22 0 0
198 257 0 22 1 0
200 256 0 23 1 0
