0 92 0 0 0
2 91 0 3 0
4.00004 92 0 2 0
6 91 0 2 0
8 94 0 0 0
10 91 0 2 0
12 92 0 2 0
14 93 0 0 0
16 92 0 1 0
18 93 0 0 0
20 93 0 0 0
22 93 0 2 0
24 92 0 1 0
26 93 0 0 0
28 93 0 0 0
30 92 0 1 0
32 89 0 3 0
34 92 0 1 0
36 88 0 3 0
38 89 0 2 0
40 91 0 1 0
42 92 0 0 0
44 90 0 1 0
46 90 0 1 0
48 91 0 1 0
50 94 0 0 0
52 77 16 1 0
54 72 20 1 0
56 65 27 2 0
58 58 34 0 0
60 54 36 1 1
62 49 40 1 0
64 44 45 1 0
66 42 47 0 0
68 40 48 0 1
70 35 54 0 0
72 27 62 0 1
74 22 67 0 0
76 18 70 0 1
78 17 69 0 3
80 12 74 2 1
82 8 79 2 0
84 10 79 0 1
86 11 80 1 0
88 12 79 1 1
90 9 80 2 1
92 10 81 1 1
94 8 81 1 2
96 9 83 0 0
98 8 81 0 2
100 5 81 2 3
102 5 84 2 0
104 6 81 2 3
106 6 84 1 0
108 6 83 2 1
110 8 81 0 3
112 6 82 2 2
114 6 84 1 0
116 6 82 2 1
118 9 81 0 1
120 7 79 1 4
122 4 82 3 2
124 6 81 1 3
126 5 80 2 3
128 6 85 0 0
130 5 84 0 0
132 5 84 0 1
134 4 85 2 1
136 3 87 1 1
138 5 85 0 1
140 5 86 0 1
142 3 87 1 1
144 3 86 1 1
146 2 87 1 0
148 3 87 1 0
150 3 86 1 1
152 4 85 0 2
154 3 84 1 3
156 3 86 1 1
158 4 85 0 2
160 3 86 0 2
162 2 87 1 1
164 3 85 0 3
166 2 87 1 1
168 2 86 1 1
170 2 86 1 2
172 2 87 0 3
174 1 90 0 1
176 0 87 1 4
178 1 89 0 1
180 1 88 0 0
182 1 88 0 0
184 1 87 0 0
186 1 86 1 1
188 1 86 1 2
190 1 87 1 1
192 0 86 1 2
194 1 88 0 1
196 1 86 0 4
198 0 87 1 1
200 1 85 0 3
202 0 86 1 1
204 0 87 0 2
206 0 85 1 3
208 1 83 0 3
210 1 84 0 2
212 1 84 0 2
214 0 86 1 0
216 1 84 0 2
218 0 85 1 1
220 2 85 0 1
222 2 86 0 0
224 2 85 0 0
226 2 83 0 2
228 2 84 0 2
230 2 82 0 4
232 2 85 0 1
234 0 85 1 1
236 1 84 1 2
238 1 86 1 0
240 2 84 0 1
242 1 84 1 2
244 1 84 0 1
246 1 83 0 2
248 0 83 0 3
250 0 83 0 3
252 0 84 1 1
254 1 81 0 2
256 1 81 0 3
258 1 83 0 2
260 1 81 1 2
262 2 83 0 0
264 2 82 1 0
266 1 82 1 0
268 2 81 0 1
270 3 81 1 2
272 2 83 1 1
274 3 84 1 0
276 2 82 2 1
278 2 81 0 2
280 2 82 0 3
282 2 84 1 1
284 3 85 0 0
286 2 85 0 1
288 1 87 0 0
290 3 87 0 0
292 2 85 0 2
294 2 85 0 2
296 1 87 1 0
298 1 83 0 3
300 0 86 0 1
302 1 85 0 2
304 1 87 1 0
306 2 87 0 0
308 0 86 1 1
310 2 86 0 0
312 0 86 2 0
314 2 85 0 1
316 1 85 1 1
318 2 84 0 1
320 1 85 1 0
322 1 84 1 1
324 1 83 1 2
326 2 82 1 2
328 3 82 0 2
330 1 82 2 1
332 3 82 0 2
334 3 83 0 1
336 2 81 1 4
338 3 85 0 0
340 1 85 0 1
342 1 83 0 1
344 1 83 0 1
346 1 83 0 2
348 1 81 0 2
350 1 84 0 0
