0 75 0 0 0
2 75 0 0 0
4.00004 71 0 2 0
6 73 0 1 0
8 74 0 2 0
10 74 0 3 0
12 73 0 3 0
14 71 0 4 0
16 74 0 1 0
18 72 0 2 0
20 74 0 2 0
22 73 0 3 0
24 75 0 3 0
26 75 0 3 0
28 75 0 2 0
30 76 0 1 0
32 74 0 3 0
34 75 0 4 0
36 77 0 1 0
38 77 0 1 0
40 75 0 2 0
42 75 0 2 0
44 75 0 3 0
46 74 0 1 0
48 74 0 3 0
50 74 0 2 0
52 68 8 0 0
54 56 19 1 0
56 52 22 1 0
58 48 24 2 0
60 44 28 2 0
62 42 32 0 0
64 40 33 0 1
66 36 38 0 0
68 29 44 2 0
70 25 50 0 0
72 22 52 1 0
74 21 53 3 0
76 21 54 0 0
78 18 57 0 1
80 16 59 3 0
82 16 59 1 0
84 13 61 1 0
86 11 64 0 0
88 11 61 0 3
90 10 64 1 2
92 10 66 1 2
94 7 67 3 2
96 10 68 0 1
98 5 70 4 0
100 6 69 3 0
102 6 69 1 2
104 6 70 1 1
106 6 70 1 1
108 6 71 0 1
110 3 73 1 1
112 2 75 0 0
114 2 73 0 2
116 2 74 1 1
118 3 73 0 1
120 2 74 1 0
122 2 70 1 4
124 3 71 1 3
126 2 73 1 1
128 3 73 0 1
130 2 73 1 1
132 2 73 1 1
134 2 75 0 0
136 2 73 0 1
138 2 72 0 2
140 2 72 0 2
142 2 73 0 1
144 1 74 0 1
146 1 72 0 3
148 1 73 0 1
150 2 73 0 1
152 3 73 0 2
154 3 73 0 1
156 3 70 1 2
158 1 74 1 0
160 2 73 0 2
162 2 72 0 2
164 2 73 0 1
166 2 73 0 1
168 2 73 0 1
170 1 72 1 3
172 0 73 2 2
174 1 72 1 3
176 2 71 0 4
178 2 73 0 1
180 1 72 1 2
182 3 72 0 2
184 2 74 0 0
186 0 72 2 2
188 1 73 1 0
190 2 72 0 2
192 0 73 1 0
194 1 73 0 0
196 2 72 0 1
198 2 72 0 1
200 2 71 0 2
202 3 73 0 0
204 2 72 0 0
206 1 71 0 1
208 1 71 0 1
210 1 71 0 2
212 1 73 0 0
214 0 74 0 0
216 0 71 1 2
218 0 72 0 1
220 0 68 0 4
222 0 70 0 3
224 0 71 0 2
226 0 70 0 3
228 0 70 0 2
230 0 70 0 1
232 0 70 0 1
234 0 68 0 4
236 0 69 0 2
238 0 69 1 1
240 0 70 0 1
242 0 71 0 0
244 0 69 0 1
246 0 70 0 0
248 1 68 1 2
250 2 70 0 0
252 1 69 0 1
254 2 70 0 0
256 1 70 1 0
258 1 67 1 3
260 0 69 2 1
262 2 68 0 2
264 1 68 0 2
266 0 69 1 1
268 2 69 0 1
270 1 69 0 1
272 1 68 0 2
274 1 70 0 0
276 1 69 1 1
278 1 67 1 3
280 2 70 0 0
282 3 69 0 1
284 2 70 1 0
286 4 69 0 1
288 3 69 0 1
290 1 69 2 1
292 4 70 0 0
294 3 71 0 0
296 3 68 0 3
298 2 69 1 2
300 5 68 1 3
302 3 73 2 0
304 4 71 0 2
306 4 70 0 2
308 4 71 0 2
310 2 70 3 3
312 5 70 0 3
314 4 71 1 1
316 5 68 0 3
318 5 70 0 2
320 5 69 0 2
322 3 71 0 2
324 3 72 0 0
326 3 71 0 1
328 3 70 0 1
330 3 72 0 0
332 3 72 0 1
334 3 70 0 2
336 3 70 0 1
338 3 69 0 3
340 2 70 0 2
342 2 70 0 1
344 1 71 0 2
346 1 71 0 3
348 1 73 0 1
350 1 69 0 5
