0 78 0 0 0
2 73 0 5 0
4.00004 72 0 6 0
6 74 0 4 0
8 75 0 3 0
10 75 0 2 0
12 74 0 3 0
14 75 0 4 0
16 76 0 3 0
18 76 0 3 0
20 74 0 5 0
22 74 0 3 0
24 78 0 0 0
26 76 0 1 0
28 76 0 1 0
30 77 0 1 0
32 76 0 3 0
34 77 0 2 0
36 77 0 1 0
38 76 0 2 0
40 76 0 2 0
42 77 0 2 0
44 75 0 4 0
46 76 0 3 0
48 76 0 3 0
50 74 0 5 0
52 76 0 3 0
54 77 0 1 0
56 77 0 2 0
58 75 0 2 0
60 76 0 1 0
62 78 0 1 0
64 74 0 3 0
66 75 0 2 0
68 75 0 2 0
70 77 0 1 0
72 77 0 1 0
74 77 0 2 0
76 74 0 5 0
78 75 0 2 0
80 74 0 2 0
82 75 0 1 0
84 76 0 0 2
86 75 2 1 1
88 73 3 3 0
90 75 3 1 0
92 75 3 1 0
94 76 2 0 0
96 76 2 1 0
98 75 2 0 0
100 75 2 1 0
102 73 2 2 0
104 74 2 1 0
106 73 2 2 0
108 73 2 2 0
110 74 3 1 0
112 75 4 0 0
114 75 2 0 1
116 73 3 3 0
118 75 3 1 0
120 71 3 4 0
122 73 2 2 0
124 72 2 3 0
126 72 2 2 0
128 73 2 1 0
130 73 2 0 1
132 73 3 1 0
134 72 4 1 0
136 70 2 3 1
138 70 3 2 0
140 69 2 3 2
142 69 3 2 2
144 69 4 4 0
146 70 4 3 0
148 72 5 2 0
150 71 4 3 0
152 71 4 2 0
154 70 4 2 0
156 71 4 1 1
158 71 5 0 0
160 67 5 4 0
162 68 5 3 0
164 67 4 2 0
166 67 5 2 1
168 67 5 2 1
170 63 5 6 0
172 67 5 1 1
174 67 4 2 2
176 66 4 2 1
178 66 4 3 2
180 68 4 0 2
182 64 5 3 2
184 65 5 2 2
186 65 5 3 2
188 66 7 1 0
190 63 7 4 0
192 65 6 2 1
194 66 7 0 0
196 65 6 1 0
198 65 6 0 0
200 65 6 0 0
202 65 6 0 0
204 64 6 1 0
206 63 6 2 0
208 63 6 2 0
210 65 7 0 1
212 63 7 1 0
214 63 7 2 1
216 62 8 3 1
218 62 7 3 2
220 63 9 0 0
222 61 7 2 3
224 63 9 0 1
226 63 8 0 2
228 63 9 0 2
230 63 10 0 2
232 63 12 0 2
234 62 11 1 3
236 60 10 3 4
238 61 11 0 3
240 60 13 2 2
242 60 10 2 3
244 62 14 0 3
246 60 11 2 4
248 62 14 0 0
250 62 14 0 0
252 61 12 1 2
254 62 13 0 2
256 60 15 2 0
258 59 15 3 0
260 62 15 0 1
262 62 15 0 1
264 60 15 1 2
266 60 14 0 2
268 59 14 2 2
270 58 14 3 2
272 59 14 1 2
274 58 16 1 0
276 60 14 1 1
278 58 16 2 0
280 56 15 3 0
282 55 15 5 0
284 55 13 5 1
286 58 14 1 0
288 57 14 2 1
290 58 15 1 1
292 58 14 2 1
294 60 16 0 0
296 59 14 1 1
298 59 15 1 0
300 59 15 1 0
302 58 15 2 1
304 60 16 0 0
306 59 14 1 2
308 60 15 0 1
310 59 15 1 1
312 58 15 2 2
314 57 16 3 1
316 58 16 1 0
318 58 15 1 1
320 57 15 3 1
322 58 16 2 0
324 59 15 0 1
326 54 15 4 1
328 52 16 6 1
330 56 16 1 2
332 53 15 6 3
334 57 18 2 0
336 54 19 4 0
338 56 19 1 0
340 55 17 1 1
342 55 19 1 0
344 57 18 0 0
346 56 18 1 1
348 54 19 2 1
350 55 18 1 2
