0 60 0 0 0
2 55 0 4 0
4.00004 59 0 0 0
6 57 0 2 0
8 58 0 1 0
10 58 0 0 0
12 57 0 1 0
14 57 0 2 0
16 58 0 1 0
18 58 0 1 0
20 59 0 0 0
22 59 0 0 0
24 58 0 1 0
26 58 0 1 0
28 59 0 0 0
30 58 0 1 0
32 58 0 1 0
34 59 0 0 0
36 57 0 3 0
38 57 0 1 0
40 57 0 2 0
42 57 0 1 0
44 58 0 1 0
46 58 0 1 0
48 56 0 3 0
50 58 0 0 0
52 59 0 0 0
54 58 0 2 0
56 59 0 2 0
58 58 0 0 0
60 58 0 1 0
62 57 0 2 0
64 59 0 0 0
66 56 0 3 0
68 59 0 0 0
70 59 0 0 0
72 58 0 1 0
74 58 0 1 0
76 59 0 1 0
78 60 0 1 0
80 59 0 3 0
82 62 0 0 0
84 58 0 2 0
86 58 0 2 0
88 59 0 2 0
90 58 0 1 0
92 59 0 0 0
94 58 0 3 0
96 58 0 2 0
98 58 0 2 0
100 59 1 1 0
102 60 0 0 1
104 57 1 3 0
106 59 1 1 0
108 57 1 2 1
110 57 1 3 1
112 56 2 3 0
114 59 2 0 0
116 58 1 0 1
118 57 2 2 0
120 56 2 1 0
122 56 2 1 0
124 57 2 1 0
126 56 2 1 0
128 56 2 1 0
130 56 2 0 0
132 55 2 1 0
134 56 2 0 0
136 56 2 0 0
138 56 2 0 0
140 56 2 0 0
142 55 2 1 0
144 55 2 1 0
146 57 3 0 0
148 55 3 1 0
150 55 3 0 0
152 56 3 0 0
154 56 4 0 0
156 53 4 2 0
158 53 2 1 1
160 54 3 1 0
162 54 3 1 0
164 53 3 2 0
166 53 3 2 1
168 53 2 2 1
170 55 2 0 1
172 53 3 3 1
174 54 4 1 0
176 55 4 0 1
178 54 4 2 0
180 53 2 2 0
182 53 2 2 0
184 54 3 0 0
186 53 4 1 0
188 53 3 1 0
190 53 3 1 0
192 53 3 2 0
194 52 3 1 0
196 51 4 3 1
198 53 3 1 1
200 53 4 1 0
202 51 3 2 0
204 53 4 0 0
206 52 4 1 0
208 53 4 0 0
210 53 4 0 0
212 51 5 2 0
214 51 5 2 0
216 52 5 0 0
218 52 5 0 0
220 50 5 2 0
222 52 5 1 0
224 51 4 2 0
226 53 3 0 0
228 52 4 1 0
230 53 4 0 0
232 53 5 0 1
234 52 4 1 1
236 52 5 1 0
238 53 6 0 0
240 53 5 0 1
242 53 4 0 2
244 52 6 1 1
246 51 6 2 1
248 52 5 1 1
250 53 6 0 0
252 53 6 0 0
254 51 6 2 0
256 53 7 0 0
258 53 6 0 0
260 53 6 0 0
262 53 6 0 0
264 53 6 0 0
266 52 6 1 0
268 52 6 1 0
270 53 6 0 0
272 53 6 0 0
274 51 6 2 0
276 52 6 1 0
278 50 7 3 0
280 52 6 0 0
282 52 6 0 1
284 52 7 0 1
286 50 7 2 1
288 52 8 0 0
290 51 8 1 0
292 51 8 1 0
294 52 8 0 0
296 50 8 1 0
298 51 7 0 1
300 50 8 0 0
302 50 8 0 0
304 50 8 0 0
306 49 8 1 1
308 49 8 1 1
310 50 9 0 0
312 50 8 0 0
314 49 8 1 0
316 49 8 1 0
318 50 8 0 0
320 50 8 0 0
322 50 8 0 0
324 50 8 0 0
326 50 8 0 0
328 48 8 2 0
330 49 8 1 0
332 50 8 0 0
334 50 8 0 0
336 50 8 0 0
338 48 8 2 0
340 50 8 0 0
342 49 8 1 0
344 49 8 1 0
346 48 8 2 1
348 49 10 1 0
350 50 9 0 1
