0 960 0 0 0 0
2 865 0 0 83 0
4.00004 883 0 0 77 0
6 876 0 0 77 0
8 875 0 0 93 0
10 880 0 0 90 0
12 874 0 0 111 0
14 889 0 0 98 0
16 875 0 0 109 0
18 893 0 0 99 0
20 895 0 0 96 0
22 898 0 0 99 0
24 881 0 0 107 0
26 892 0 0 106 0
28 885 0 0 118 0
30 909 0 0 97 0
32 895 0 0 94 0
34 916 0 0 95 0
36 910 0 0 97 0
38 913 0 0 98 0
40 919 0 0 91 0
42 916 0 0 91 0
44 921 0 0 98 0
46 915 0 0 102 0
48 923 0 0 103 0
50 926 0 0 101 0
52 933 0 0 101 0
54 941 0 1 99 1
56 934 0 0 109 1
58 931 0 1 101 3
60 925 0 6 112 1
62 920 0 5 107 6
64 916 0 6 106 6
66 915 0 11 104 6
68 899 0 10 96 11
70 907 0 21 82 12
72 899 0 28 96 10
74 905 0 27 85 19
76 897 0 37 94 18
78 885 0 44 108 18
80 893 0 51 82 16
82 864 0 48 102 20
84 870 0 62 86 13
86 859 0 65 90 16
88 860 0 67 73 25
90 850 0 74 77 30
92 867 0 86 56 33
94 846 0 106 71 19
96 830 0 103 81 27
98 812 0 112 85 37
100 819 0 122 82 32
102 819 0 139 72 32
104 805 0 137 65 31
106 796 0 150 62 28
108 792 0 153 69 41
110 782 0 169 68 27
112 767 0 174 72 29
114 754 0 176 80 32
116 768 0 192 57 24
118 765 0 199 51 36
120 772 0 199 50 35
122 769 0 210 54 33
124 750 0 232 66 25
126 741 0 227 60 38
128 740 0 239 64 30
130 743 0 246 53 26
132 722 0 255 69 33
134 732 0 253 52 50
136 724 0 267 51 42
138 711 0 266 53 33
140 727 0 259 42 49
142 697 0 279 62 52
144 699 0 281 61 51
146 697 0 275 50 48
148 683 0 279 65 58
150 680 0 297 56 44
152 678 0 300 55 48
154 663 0 304 66 49
156 651 0 323 67 49
158 647 0 331 65 46
160 641 0 334 59 53
162 652 0 339 40 50
164 620 0 340 64 45
166 617 0 337 60 48
168 620 0 346 47 43
170 608 0 351 53 51
172 615 0 368 41 47
174 608 0 364 39 57
176 594 0 376 40 53
178 588 0 385 46 55
180 580 0 397 51 47
182 577 0 410 49 43
184 567 0 396 47 40
186 566 0 400 42 59
188 556 0 401 43 61
190 550 0 409 43 60
192 540 0 434 48 46
194 537 0 424 52 53
196 541 0 423 37 50
198 534 0 432 36 47
200 524 0 419 44 66
