0 1086 0 0 0 0
2 1022 4 0 60 0
4.00004 1013 6 0 53 0
6 1007 3 0 73 0
8 1003 8 0 68 0
10 1020 4 0 59 0
12 991 6 0 83 0
14 983 7 0 87 0
16 1018 3 0 59 0
18 988 7 0 68 0
20 992 8 0 63 0
22 987 12 0 69 0
24 1000 4 0 77 0
26 1006 8 0 66 0
28 1003 4 0 78 0
30 1000 4 0 71 0
32 996 4 0 70 0
34 998 5 0 67 0
36 1017 4 0 53 0
38 1003 3 0 77 0
40 995 7 0 74 0
42 998 6 0 79 0
44 1007 5 0 73 0
46 1000 4 0 77 0
48 1007 7 0 59 0
50 985 7 0 71 0
52 839 0 149 74 1
54 769 3 225 72 4
56 696 0 305 66 8
58 633 0 370 56 10
60 562 0 425 64 15
62 499 0 484 68 13
64 452 0 537 50 10
66 426 0 557 44 16
68 402 0 591 40 24
70 357 0 645 43 13
72 325 0 675 43 20
74 303 0 699 28 29
76 284 0 714 31 39
78 246 0 747 41 33
80 239 0 760 32 36
82 217 0 775 30 39
84 194 0 810 23 38
86 186 0 825 29 30
88 167 0 819 31 47
90 175 0 827 24 41
92 154 0 827 29 51
94 150 0 851 20 33
96 132 0 851 28 41
98 127 0 862 24 39
100 125 0 862 20 50
102 122 0 854 19 58
104 105 1 873 24 43
106 103 0 866 14 63
108 96 0 879 16 43
110 95 0 874 23 50
112 85 0 878 24 49
114 92 0 881 22 49
116 96 0 883 20 47
118 86 0 874 28 53
120 86 0 890 24 33
122 99 0 864 14 64
124 93 0 873 26 61
126 85 0 888 16 47
128 82 0 899 22 45
130 81 0 889 26 46
132 92 0 891 19 42
134 76 0 901 32 45
136 76 0 903 26 42
138 78 0 905 23 45
140 86 0 903 15 52
142 79 0 902 24 51
144 73 0 905 23 56
146 74 0 908 12 55
148 69 0 928 20 31
150 65 0 911 16 50
152 69 0 914 10 59
154 53 0 929 18 51
156 54 0 920 16 47
158 49 0 920 24 47
160 58 0 916 21 52
162 66 0 919 17 50
164 60 0 914 25 45
166 64 0 899 22 53
168 69 0 898 15 50
170 64 0 901 21 49
172 62 0 888 17 63
174 67 0 912 17 50
176 67 0 899 10 50
178 71 0 891 14 53
180 71 0 895 21 58
182 71 0 896 23 54
184 68 0 887 14 69
186 67 0 917 20 44
188 68 0 907 22 55
190 76 0 907 29 59
192 77 0 913 17 53
194 87 0 904 8 59
196 75 0 911 16 50
198 63 0 896 16 67
200 62 0 913 15 61
