0 1078 0 0 0 0
2 996 10 0 63 0
4.00004 1001 2 0 69 0
6 1009 2 0 64 0
8 974 7 0 85 0
10 984 3 0 79 0
12 1001 6 0 68 0
14 990 6 0 80 0
16 995 3 0 77 0
18 1000 3 0 69 0
20 1011 3 0 61 0
22 1001 4 0 61 0
24 987 4 0 75 0
26 993 7 0 62 0
28 1003 4 0 63 0
30 992 4 0 71 0
32 991 2 0 89 0
34 987 6 0 85 0
36 989 7 0 77 0
38 999 2 0 83 0
40 1016 3 0 81 0
42 1014 5 0 73 0
44 1021 4 0 73 0
46 1017 5 0 78 0
48 1015 9 0 77 0
50 1030 5 0 69 0
52 908 0 136 54 0
54 774 0 259 65 3
56 692 0 344 65 5
58 601 0 424 66 8
60 544 0 487 57 16
62 499 0 534 56 19
64 447 0 595 55 14
66 391 0 635 55 18
68 354 0 665 51 26
70 322 0 689 55 33
72 292 0 744 48 21
74 283 0 754 36 25
76 255 0 766 46 41
78 246 0 793 45 35
80 228 0 819 49 36
82 224 0 824 39 50
84 204 0 847 39 38
86 182 0 851 34 47
88 175 0 868 33 40
90 178 0 859 40 52
92 157 0 864 41 49
94 163 0 878 33 43
96 166 0 878 33 44
98 147 0 883 39 38
100 141 0 893 42 31
102 146 1 893 22 57
104 135 0 892 28 49
106 121 0 894 34 55
108 118 1 900 26 55
110 112 0 893 26 58
112 111 0 895 24 54
114 99 0 912 28 44
116 112 0 914 20 58
118 102 0 922 22 53
120 109 0 920 25 51
122 105 0 926 29 57
124 98 0 927 28 61
126 105 0 936 23 51
128 91 0 946 27 44
130 88 0 950 18 47
132 88 1 952 24 48
134 93 0 953 15 47
136 90 0 949 24 52
138 88 0 961 32 48
140 87 0 956 32 46
142 90 0 950 29 53
144 86 0 947 27 57
146 85 0 953 24 60
148 89 0 953 28 63
150 90 0 960 24 53
152 84 0 954 25 66
154 89 0 956 26 59
156 90 0 963 23 55
158 82 0 957 23 68
160 87 0 967 14 52
162 77 0 974 15 54
164 80 0 967 17 58
166 69 0 954 23 72
168 78 1 956 17 56
170 72 0 936 22 64
172 65 0 940 19 64
174 63 0 956 20 50
176 58 0 960 20 60
178 59 0 960 19 62
180 53 0 949 28 63
182 60 0 948 19 60
184 70 0 967 12 52
186 70 0 948 21 59
188 70 0 963 15 53
190 65 0 967 13 57
192 58 0 978 17 58
194 48 0 964 21 74
196 62 0 968 17 63
198 51 0 959 20 46
200 57 0 952 24 68
