0 888 0 0 0 0
2 819 0 0 71 0
4.00004 818 0 0 54 0
6 806 0 0 68 0
8 808 0 0 82 0
10 816 0 0 73 0
12 813 0 0 83 0
14 821 0 0 75 0
16 828 0 0 76 0
18 819 0 0 82 0
20 837 0 0 68 0
22 832 0 0 64 0
24 823 0 0 73 0
26 819 0 0 90 0
28 825 0 0 94 0
30 835 0 0 76 0
32 828 0 0 88 0
34 832 0 0 83 0
36 850 0 0 85 0
38 844 0 0 97 0
40 870 0 0 72 0
42 868 0 0 66 0
44 869 0 0 76 0
46 869 0 0 75 0
48 880 0 0 77 0
50 879 0 0 77 0
52 874 0 0 81 0
54 870 0 0 85 1
56 878 0 0 71 1
58 877 0 1 71 0
60 877 0 3 80 1
62 870 0 3 73 2
64 875 0 4 63 3
66 861 0 5 74 7
68 860 0 14 69 2
70 853 0 16 69 8
72 850 0 22 80 5
74 858 0 22 64 12
76 850 0 26 66 14
78 842 0 35 71 17
80 829 0 37 79 20
82 847 0 50 63 15
84 832 0 57 74 9
86 838 0 62 63 16
88 824 0 64 69 19
90 821 0 70 64 13
92 814 0 77 57 15
94 802 0 81 65 20
96 788 0 89 68 17
98 784 0 88 67 21
100 784 0 98 64 24
102 774 0 110 60 23
104 763 0 109 58 24
106 764 0 121 52 26
108 760 0 128 45 35
110 736 0 143 56 30
112 727 0 149 62 34
114 735 0 160 61 38
116 729 0 168 60 36
118 720 0 174 58 35
120 713 0 178 59 27
122 713 0 185 53 37
124 723 0 210 40 29
126 708 0 219 43 32
128 713 0 224 45 27
130 695 0 220 52 40
132 701 0 230 46 29
134 697 0 225 46 38
136 676 0 235 47 34
138 680 0 249 48 36
140 661 0 255 52 31
142 664 0 258 51 36
144 660 0 259 41 40
146 638 0 258 48 41
148 632 0 272 56 36
150 639 0 284 38 35
152 621 0 291 48 34
154 613 0 306 51 34
156 621 0 310 36 39
158 597 0 321 52 37
160 599 0 317 45 34
162 589 0 310 49 36
164 593 0 322 45 34
166 591 0 332 41 34
168 584 0 331 47 39
170 590 0 341 39 41
172 583 0 335 43 46
174 575 0 350 41 44
176 569 0 353 38 43
178 559 0 347 40 46
180 562 0 339 34 53
182 555 0 347 34 49
184 560 0 355 26 58
186 550 0 360 34 50
188 554 0 378 32 45
190 542 0 379 34 45
192 543 0 385 29 52
194 531 0 401 33 32
196 528 0 398 34 53
198 521 0 404 34 46
200 519 0 427 35 44
