0 1182 0 0 0 0
2 1077 5 0 99 0
4.00004 1035 10 0 138 0
6 1065 7 0 125 0
8 1065 3 0 125 0
10 1057 6 0 126 0
12 1049 6 0 134 0
14 1050 6 0 126 0
16 1032 5 0 138 0
18 1037 9 0 136 0
20 1017 6 0 161 0
22 1025 4 0 131 0
24 1029 4 0 132 0
26 1019 6 0 130 0
28 1028 10 0 117 0
30 1052 5 0 129 0
32 1045 8 0 122 0
34 1028 10 0 144 0
36 1030 5 0 131 0
38 1030 7 0 134 0
40 1018 4 0 137 0
42 1010 4 0 130 0
44 991 7 0 143 0
46 1002 1 0 130 0
48 1002 7 0 131 0
50 1002 6 0 121 0
52 831 0 161 126 1
54 719 0 264 134 11
56 629 0 344 122 24
58 532 2 427 116 28
60 478 0 482 86 37
62 426 1 524 106 42
64 388 0 567 97 43
66 348 0 615 85 42
68 311 0 647 77 40
70 308 0 643 77 67
72 269 0 683 75 66
74 247 0 719 70 52
76 226 0 716 69 70
78 222 0 752 58 72
80 183 0 778 62 61
82 177 0 786 48 72
84 166 0 799 54 73
86 156 1 798 61 80
88 167 0 811 51 69
90 154 0 821 56 81
92 153 0 815 50 79
94 142 0 820 51 82
96 146 0 820 50 88
98 133 0 825 49 97
100 131 0 843 46 83
102 132 0 823 42 94
104 125 0 820 44 102
106 119 0 825 51 84
108 136 0 827 36 103
110 136 0 854 39 86
112 141 0 853 51 87
114 146 0 840 38 102
116 122 0 864 49 98
118 124 0 870 39 101
120 127 0 885 26 85
122 120 0 898 41 79
124 105 0 881 43 106
126 112 0 896 45 99
128 103 0 886 33 99
130 93 0 879 29 102
132 93 0 882 37 103
134 84 0 894 26 109
136 82 0 888 30 109
138 83 0 927 30 77
140 79 0 924 29 75
142 86 0 900 26 90
144 79 0 897 30 97
146 77 0 885 27 109
148 80 0 864 26 125
150 76 0 883 33 106
152 94 0 877 20 104
154 85 0 893 29 94
156 83 0 876 31 101
158 85 0 907 23 100
160 79 0 896 31 102
162 83 0 891 25 103
164 78 0 903 32 101
166 83 0 902 22 107
168 84 0 890 26 114
170 85 0 919 26 103
172 79 0 934 26 96
174 72 0 927 27 100
176 72 1 923 15 111
178 62 0 937 31 97
180 71 0 914 24 117
182 64 1 911 18 117
184 64 0 913 22 109
186 60 0 915 23 123
188 64 0 910 15 126
190 43 0 917 28 118
192 53 0 886 24 125
194 50 0 919 23 114
196 52 0 916 20 105
198 58 0 924 16 100
200 56 0 932 18 92
