0 1212 0 0 0 0
2 1130 12 0 68 0
4.00004 1152 4 0 72 0
6 1142 4 0 80 0
8 1132 0 0 78 0
10 1127 4 0 80 0
12 1121 8 0 75 0
14 1115 6 0 83 0
16 1117 6 0 73 0
18 1122 3 0 74 0
20 1110 4 0 81 0
22 1116 4 0 84 0
24 1107 6 0 91 0
26 1089 4 0 98 0
28 1094 4 0 83 0
30 1100 0 0 89 0
32 1080 7 0 97 0
34 1091 3 0 91 0
36 1080 4 0 81 0
38 1066 4 0 89 0
40 1070 4 0 84 0
42 1074 6 0 86 0
44 1070 10 0 75 0
46 1069 3 0 84 0
48 1075 3 0 65 0
50 1058 3 0 83 0
52 950 0 108 87 0
54 859 0 199 84 2
56 812 0 263 72 3
58 735 0 335 72 9
60 660 0 400 71 8
62 624 0 458 58 12
64 581 0 497 54 23
66 536 0 539 60 18
68 488 0 588 58 21
70 461 0 612 52 29
72 415 0 637 60 31
74 392 0 670 57 25
76 365 0 696 51 32
78 350 0 717 39 29
80 310 1 739 50 35
82 296 0 756 37 36
84 273 0 770 42 43
86 251 0 801 40 29
88 242 0 808 29 45
90 228 0 824 30 50
92 221 0 852 32 32
94 208 0 853 31 40
96 205 0 860 31 42
98 189 0 854 30 67
100 177 0 859 36 58
102 175 0 858 35 65
104 174 0 875 34 63
106 165 0 891 31 50
108 158 0 900 32 42
110 156 0 885 38 56
112 149 0 890 32 57
114 140 0 896 26 44
116 134 0 883 28 62
118 138 0 896 24 55
120 133 0 902 25 63
122 127 0 907 25 53
124 119 0 913 24 42
126 132 0 901 17 48
128 115 0 913 19 44
130 119 0 902 20 52
132 111 0 903 20 60
134 103 0 906 20 65
136 105 0 915 28 60
138 99 0 922 18 48
140 96 0 934 30 41
142 95 0 919 23 54
144 105 0 909 22 64
146 100 0 916 35 64
148 96 0 938 23 47
150 91 1 923 29 60
152 94 0 915 26 71
154 99 0 910 19 68
156 100 0 925 21 48
158 93 0 917 25 58
160 92 0 942 21 50
162 91 0 940 23 62
164 86 0 946 25 49
166 83 0 936 27 56
168 78 0 934 23 64
170 81 0 942 14 52
172 74 0 944 17 58
174 77 0 933 17 63
176 77 0 935 20 65
178 79 0 951 22 56
180 86 0 948 14 64
182 85 0 951 13 66
184 78 0 934 16 73
186 80 0 941 10 75
188 63 0 948 15 65
190 71 0 950 9 70
192 65 0 937 16 73
194 70 0 956 17 60
196 67 0 954 18 48
198 65 1 936 23 70
200 73 0 932 14 56
