0 1260 0 0 0 0
2 1199 2 0 59 0
4.00004 1183 5 0 51 0
6 1197 1 0 46 0
8 1172 5 0 61 0
10 1166 5 0 60 0
12 1147 8 0 53 0
14 1144 4 0 63 0
16 1142 5 0 68 0
18 1137 7 0 64 0
20 1135 3 0 54 0
22 1121 5 0 66 0
24 1112 4 0 58 0
26 1089 5 0 65 0
28 1080 4 0 67 0
30 1085 2 0 57 0
32 1063 10 0 62 0
34 1087 2 0 55 0
36 1077 7 0 63 0
38 1060 8 0 55 0
40 1054 2 0 67 0
42 1049 10 0 68 0
44 1058 2 0 64 0
46 1051 5 0 62 0
48 1037 10 0 68 0
50 1025 7 0 70 0
52 920 0 111 63 1
54 832 0 193 66 4
56 747 0 268 64 6
58 689 1 332 52 11
60 634 1 397 50 11
62 566 0 458 55 10
64 517 0 506 45 11
66 478 0 548 34 15
68 419 1 587 50 14
70 411 0 613 41 20
72 375 0 642 40 21
74 345 0 667 38 30
76 318 0 691 34 27
78 316 0 709 30 23
80 299 1 728 32 29
82 278 0 748 35 26
84 260 0 749 31 40
86 261 1 758 26 43
88 247 0 777 21 47
90 229 0 808 22 25
92 211 1 819 26 33
94 201 0 827 22 33
96 194 0 811 30 36
98 191 0 822 27 30
100 181 0 825 25 36
102 168 0 830 17 30
104 170 0 822 23 44
106 164 0 826 24 33
108 157 0 829 24 38
110 168 0 820 16 47
112 160 0 832 17 35
114 153 0 839 17 39
116 149 0 840 21 45
118 142 0 846 17 46
120 140 0 854 23 41
122 133 0 863 13 40
124 132 0 865 26 42
126 130 0 859 21 42
128 132 0 881 17 37
130 123 0 871 21 44
132 127 0 872 18 48
134 127 1 872 22 55
136 129 0 882 9 49
138 133 0 886 15 41
140 140 0 878 9 36
142 125 0 884 13 50
144 117 0 900 10 28
146 115 0 882 12 55
148 113 0 898 13 43
150 104 0 921 15 39
152 96 0 917 17 44
154 94 0 917 16 41
156 97 0 913 14 54
158 101 0 917 13 44
160 101 0 915 18 46
162 99 0 921 16 39
164 94 0 909 8 47
166 93 0 915 14 38
168 99 0 902 15 46
170 90 1 903 19 51
172 89 0 913 16 44
174 94 0 906 10 49
176 92 0 920 10 47
178 89 1 928 12 42
180 86 0 912 12 58
182 90 0 932 12 37
184 88 0 926 13 43
186 88 0 923 12 44
188 80 0 926 12 53
190 74 0 921 9 54
192 80 0 927 6 46
194 80 0 916 5 53
196 76 0 899 13 52
198 72 0 910 9 40
200 77 0 903 15 44
