0 1143 0 0 0 0 0
2 1038 16 0 61 0 35
4.00004 1018 13 0 70 0 34
6 1026 17 0 70 0 32
8 1040 19 0 60 0 28
10 1033 15 0 61 0 35
12 1039 21 0 75 0 28
14 1050 19 0 74 0 26
16 1071 11 0 59 0 32
18 1045 16 0 73 0 29
20 1084 10 0 53 0 23
22 1059 15 0 58 0 26
24 1035 12 0 73 0 38
26 1043 20 0 68 0 36
28 1044 13 0 74 0 34
30 1045 14 0 72 0 32
32 1042 15 0 75 0 32
34 1067 12 0 63 0 24
36 1056 22 0 63 0 31
38 1047 11 0 77 0 27
40 1037 13 0 80 0 25
42 1035 15 0 71 0 34
44 1037 7 0 98 0 30
46 1053 17 0 82 0 14
48 1035 10 0 89 0 32
50 1026 14 0 93 0 31
52 731 0 325 43 48 0
54 546 0 496 40 63 0
56 413 0 637 42 65 0
58 318 0 736 34 69 0
60 245 0 782 25 87 0
62 205 0 842 20 68 0
64 153 0 883 23 75 1
66 123 0 916 21 78 1
68 89 0 942 20 68 0
70 70 0 950 12 85 0
72 61 0 950 14 93 0
74 48 0 958 10 86 0
76 33 0 954 12 98 0
78 29 0 968 15 79 0
80 25 0 981 15 80 0
82 20 0 993 16 80 0
84 22 0 990 13 84 0
86 19 0 998 8 70 0
88 23 0 996 14 66 0
90 19 0 996 18 72 0
92 19 0 982 11 85 0
94 21 0 991 11 83 0
96 12 0 975 9 96 0
98 23 0 970 14 109 0
100 13 0 997 14 77 0
102 18 0 985 18 94 0
104 23 0 997 17 92 0
106 24 0 1000 13 87 0
108 20 0 1002 13 79 0
110 27 0 1030 9 69 0
112 17 0 1017 17 84 0
114 20 0 1021 12 99 0
116 18 0 1023 9 96 0
118 10 0 1034 15 93 0
120 10 0 1025 21 93 0
122 16 0 1030 11 94 0
124 16 0 1023 12 93 0
126 16 0 1023 16 92 1
128 16 0 1030 7 78 0
130 12 0 1034 13 76 0
132 15 0 1028 10 82 0
134 13 0 1011 10 100 0
136 13 0 1020 6 99 0
138 10 0 1030 11 81 0
140 11 0 1033 9 78 0
142 11 0 1013 7 98 0
144 10 0 1008 11 107 0
146 9 0 986 5 113 0
148 9 0 1010 9 96 0
150 13 0 1017 9 92 0
152 12 0 1013 6 87 0
154 11 0 1014 7 78 0
156 11 0 1013 8 84 0
158 11 0 1009 6 93 0
160 17 0 1019 4 88 0
162 6 0 1003 13 104 0
164 9 0 993 10 105 1
166 7 0 1012 5 83 0
168 14 0 999 3 105 0
170 14 0 999 7 101 0
172 12 0 1001 2 104 0
174 11 0 999 4 108 0
176 13 0 1007 10 99 0
178 10 0 1018 12 88 0
180 15 0 1016 12 99 0
182 9 0 1000 12 106 0
184 11 0 1009 15 97 0
186 12 0 1003 10 99 0
188 12 0 1038 9 72 0
190 14 0 1008 13 95 0
192 12 0 1008 6 94 0
194 7 0 1000 10 87 0
196 8 0 990 8 91 0
198 14 0 990 10 107 0
200 9 0 988 9 107 0
