0 1150 0 0 0 0 0
2 1041 23 0 65 0 21
4.00004 1037 18 0 53 0 32
6 1033 26 0 57 0 20
8 1018 17 0 58 0 27
10 1008 25 0 61 0 24
12 1019 23 0 58 0 32
14 1039 17 0 55 0 21
16 1019 30 0 55 0 26
18 1033 20 0 60 0 24
20 1023 22 0 51 0 28
22 1024 20 0 55 0 31
24 1008 23 0 70 0 28
26 1020 27 0 73 0 22
28 1038 17 0 71 0 19
30 1023 18 0 86 0 21
32 1026 23 0 59 0 30
34 1040 22 0 67 0 17
36 1041 20 0 67 0 22
38 1027 24 0 73 0 25
40 1019 20 0 83 0 22
42 1030 29 0 70 0 23
44 1042 24 0 66 0 19
46 1038 9 0 73 0 19
48 1024 20 0 72 0 29
50 1026 16 0 76 0 19
52 773 0 269 50 49 0
54 651 2 394 37 57 0
56 564 0 502 28 50 0
58 490 1 577 33 60 0
60 426 0 651 18 77 0
62 357 0 706 29 76 0
64 300 0 770 21 75 0
66 244 0 828 21 67 0
68 209 0 857 23 71 0
70 176 1 888 19 81 0
72 152 0 913 15 85 0
74 138 0 956 17 62 0
76 124 0 960 12 77 0
78 97 0 992 17 77 0
80 84 0 988 13 75 0
82 80 0 1011 14 63 0
84 72 0 994 20 77 0
86 70 0 998 19 77 0
88 61 0 1020 15 71 0
90 58 0 1013 16 70 0
92 47 0 1020 13 72 0
94 44 0 1021 10 63 0
96 44 0 1006 9 82 0
98 35 0 1003 10 82 0
100 33 0 1017 11 73 0
102 28 0 1024 15 77 0
104 36 0 1019 13 78 0
106 45 0 1024 11 66 0
108 31 0 1034 19 76 0
110 28 0 1045 14 72 0
112 41 0 1046 13 71 0
114 32 0 1047 15 71 0
116 30 0 1051 7 82 0
118 29 0 1057 6 86 0
120 33 0 1065 9 65 0
122 23 0 1042 9 85 0
124 20 0 1071 8 62 0
126 17 0 1067 8 73 0
128 19 0 1076 7 68 0
130 12 0 1054 10 89 0
132 20 0 1042 6 101 0
134 15 0 1052 9 89 0
136 24 0 1055 5 81 0
138 21 0 1046 11 100 0
140 19 0 1053 15 91 0
142 22 0 1054 6 100 0
144 25 0 1073 6 79 0
146 20 0 1067 9 76 0
148 18 0 1058 7 86 0
150 12 0 1062 13 90 0
152 16 0 1049 7 90 0
154 17 0 1047 6 96 0
156 14 0 1067 10 83 0
158 19 0 1070 5 70 0
160 23 0 1042 6 87 0
162 20 0 1052 6 76 0
164 19 0 1050 6 92 0
166 18 0 1072 6 73 0
168 17 0 1061 7 84 0
170 11 0 1041 5 100 0
172 13 0 1066 9 79 0
174 9 0 1062 6 82 0
176 14 0 1067 6 69 0
178 17 0 1058 10 83 0
180 16 0 1049 5 92 0
182 16 0 1072 4 68 0
184 13 0 1063 5 74 0
186 17 0 1062 4 83 0
188 10 0 1062 3 78 0
190 11 0 1061 5 76 0
192 11 0 1052 10 78 0
194 15 0 1051 7 78 0
196 9 0 1060 10 69 0
198 14 0 1061 8 62 0
200 14 0 1052 7 80 0
