0 966 0 0 0 0 0
2 921 0 0 44 0 0
4.00004 929 0 0 43 0 0
6 929 0 0 42 0 0
8 922 0 0 58 0 0
10 925 0 0 56 0 0
12 924 0 0 59 0 0
14 928 0 0 48 0 0
16 929 0 0 59 0 0
18 923 0 0 61 0 0
20 926 0 0 58 0 0
22 932 0 0 53 0 0
24 944 0 0 48 0 0
26 947 0 0 44 0 0
28 953 0 0 52 0 0
30 945 0 0 54 0 0
32 943 0 0 59 0 0
34 954 0 0 44 0 0
36 952 0 0 50 0 0
38 956 0 0 57 0 0
40 964 0 0 53 0 0
42 961 0 0 52 0 0
44 960 0 0 61 0 0
46 968 0 0 55 0 0
48 979 0 0 43 0 0
50 960 0 0 59 0 0
52 957 0 1 58 1 0
54 962 0 5 60 5 0
56 946 0 8 66 9 0
58 963 0 15 45 14 0
60 953 0 25 45 12 0
62 948 0 27 38 22 0
64 943 0 33 32 17 0
66 938 0 44 37 17 0
68 916 0 50 46 19 0
70 926 0 56 29 19 0
72 904 0 66 36 17 0
74 898 0 73 31 18 0
76 886 0 81 40 17 0
78 874 0 87 43 22 0
80 871 0 93 43 27 0
82 867 0 104 30 13 0
84 857 0 110 42 19 0
86 859 0 124 35 19 0
88 853 0 125 37 24 0
90 843 0 139 35 14 0
92 842 0 133 33 28 0
94 843 0 147 31 28 0
96 836 0 161 32 30 0
98 832 0 170 31 20 0
100 829 0 174 29 28 0
102 816 0 184 32 31 0
104 817 0 195 29 26 0
106 814 0 201 25 36 0
108 802 0 207 30 27 0
110 797 0 208 36 34 0
112 798 0 215 33 25 0
114 789 0 224 35 24 0
116 788 0 230 30 22 0
118 782 0 232 36 33 0
120 776 0 237 31 30 0
122 760 0 245 38 34 0
124 771 0 253 21 33 0
126 754 0 254 26 31 0
128 743 0 268 30 30 0
130 750 0 278 25 29 0
132 747 0 287 24 23 0
134 736 0 279 25 33 0
136 727 0 292 28 37 0
138 721 0 315 33 23 0
140 720 0 307 26 32 0
142 714 0 310 30 28 0
144 705 0 316 37 25 0
146 690 0 332 41 23 0
148 693 0 323 35 30 0
150 683 0 321 34 35 0
152 683 0 326 34 34 0
154 677 0 350 31 31 0
156 673 0 342 32 44 0
158 675 0 358 23 36 0
160 670 0 362 22 31 0
162 661 0 358 27 37 0
164 654 0 365 29 33 0
166 653 0 367 25 37 0
168 639 0 386 31 34 0
170 645 0 396 23 23 0
172 635 0 394 25 35 0
174 629 0 390 33 36 0
176 626 0 398 21 40 0
178 621 0 408 23 31 0
180 614 0 413 29 35 0
182 614 0 415 22 46 0
184 609 0 428 24 29 0
186 609 0 432 23 34 0
188 593 0 433 31 34 0
190 586 0 437 35 36 0
192 598 0 441 22 34 0
194 593 0 455 25 35 0
196 585 0 445 30 42 0
198 583 0 467 31 21 0
200 585 0 465 19 32 0
