0 1219 0 0 0 0 0
2 1170 22 0 21 0 16
4.00004 1161 19 0 19 0 19
6 1145 23 0 33 0 23
8 1145 22 0 37 0 15
10 1142 26 0 40 0 13
12 1143 24 0 25 0 30
14 1143 24 0 25 0 20
16 1135 17 0 28 0 23
18 1141 16 0 29 0 20
20 1138 14 0 33 0 13
22 1116 24 0 34 0 20
24 1121 25 0 24 0 22
26 1133 25 0 30 0 22
28 1144 24 0 20 0 20
30 1141 20 0 32 0 16
32 1148 23 0 28 0 17
34 1146 25 0 29 0 16
36 1166 18 0 26 0 17
38 1160 17 0 41 0 14
40 1137 31 0 35 0 20
42 1146 29 0 38 0 15
44 1131 29 0 29 0 25
46 1140 26 0 26 0 27
48 1143 28 0 37 0 23
50 1131 27 0 36 0 21
52 911 1 251 17 40 0
54 798 0 373 13 37 1
56 726 0 433 14 47 0
58 629 0 534 11 40 0
60 570 0 600 5 47 0
62 527 0 669 8 38 0
64 464 0 722 8 43 0
66 410 0 761 5 52 0
68 371 0 809 7 51 0
70 329 0 851 9 43 0
72 299 0 881 1 48 0
74 260 1 923 5 50 0
76 234 0 960 8 39 0
78 215 0 981 2 48 0
80 187 0 1001 5 39 0
82 172 0 1016 4 46 0
84 147 0 1045 1 46 0
86 124 0 1066 2 39 0
88 121 0 1059 3 51 0
90 98 0 1079 3 48 0
92 90 0 1085 4 43 0
94 82 0 1093 2 40 0
96 77 0 1090 3 44 0
98 70 0 1100 3 35 0
100 69 0 1094 4 53 0
102 60 0 1106 6 42 0
104 54 0 1128 0 36 0
106 50 0 1115 3 47 0
108 45 0 1137 5 33 0
110 44 0 1128 8 49 0
112 38 0 1141 3 41 0
114 37 0 1128 2 47 0
116 34 0 1138 3 51 0
118 32 0 1146 6 48 0
120 33 0 1153 7 52 0
122 23 0 1159 5 52 0
124 26 0 1148 6 52 0
126 21 0 1145 4 57 0
128 22 0 1158 2 41 0
130 15 0 1141 7 60 0
132 19 0 1145 6 57 0
134 17 0 1155 0 47 0
136 17 0 1152 1 50 0
138 11 0 1154 3 50 0
140 13 0 1163 4 47 0
142 12 0 1155 1 50 0
144 7 0 1154 2 43 0
146 4 0 1157 2 52 0
148 8 0 1161 3 47 0
150 8 0 1167 2 40 0
152 7 0 1146 2 64 0
154 3 0 1155 5 46 0
156 7 0 1168 2 52 0
158 3 0 1176 6 48 0
160 4 0 1171 3 45 0
162 1 0 1167 2 43 0
164 3 0 1167 1 55 0
166 6 0 1179 1 49 0
168 2 0 1174 2 42 0
170 1 0 1161 0 50 0
172 2 0 1157 2 49 0
174 3 0 1159 2 50 1
176 0 0 1165 0 48 0
178 4 0 1182 2 37 0
180 2 0 1180 2 45 0
182 2 0 1157 0 50 0
184 2 0 1159 1 52 0
186 3 0 1166 2 44 0
188 1 0 1177 3 51 0
190 3 0 1177 4 43 0
192 4 0 1170 1 43 0
194 2 0 1165 2 60 0
196 2 0 1176 3 43 0
198 3 0 1167 0 43 0
200 2 0 1162 2 51 0
