0 1102 0 0 0 0 0
2 1100 0 0 3 0 0
4.00004 1098 0 0 2 0 0
6 1099 0 0 2 0 0
8 1094 0 0 5 0 0
10 1095 0 0 2 0 0
12 1094 0 0 3 0 0
14 1092 0 0 4 0 0
16 1090 0 0 0 0 0
18 1089 0 0 3 0 0
20 1085 0 0 3 0 0
22 1080 0 0 3 0 0
24 1081 0 0 3 0 0
26 1085 0 0 2 0 0
28 1084 0 0 0 0 0
30 1090 0 0 1 0 0
32 1093 0 0 1 0 0
34 1095 0 0 1 0 0
36 1100 0 0 0 0 0
38 1098 0 0 2 0 0
40 1097 0 0 4 0 0
42 1094 0 0 3 0 0
44 1094 0 0 4 0 0
46 1096 0 0 0 0 0
48 1090 0 0 1 0 0
50 1090 0 0 2 0 0
52 1083 0 8 3 1 0
54 1079 0 12 0 1 0
56 1070 0 18 3 0 0
58 1063 0 23 2 0 0
60 1056 0 25 4 2 0
62 1051 0 29 2 0 0
64 1044 0 37 0 2 0
66 1039 0 38 0 0 0
68 1024 0 43 2 0 0
70 1022 0 49 2 1 0
72 1016 0 53 1 2 0
74 1013 0 62 1 0 0
76 1009 0 66 1 1 0
78 1005 0 70 3 0 0
80 1000 0 77 0 0 0
82 992 0 83 0 0 0
84 985 0 87 1 0 0
86 979 0 90 0 1 0
88 975 0 93 1 0 0
90 967 0 96 0 0 0
92 960 0 101 3 1 0
94 953 0 107 2 1 0
96 949 0 109 1 0 0
98 947 0 116 1 1 0
100 945 0 120 2 0 0
102 943 0 121 1 1 0
104 939 0 129 0 1 0
106 937 0 136 0 0 0
108 933 0 138 1 2 0
110 927 0 147 0 0 0
112 919 0 151 1 2 0
114 918 0 152 1 0 0
116 911 0 151 2 0 0
118 910 0 158 1 0 0
120 903 0 163 1 1 0
122 898 0 167 2 1 0
124 895 0 168 1 1 0
126 887 0 172 0 2 0
128 884 0 176 0 0 0
130 880 0 179 1 0 0
132 875 0 185 0 1 0
134 871 0 186 0 2 0
136 867 0 195 1 1 0
138 863 0 197 0 1 0
140 861 0 205 0 0 0
142 858 0 210 0 1 0
144 851 0 215 1 1 0
146 846 0 219 1 1 0
148 842 0 218 0 1 0
150 838 0 222 0 0 0
152 835 0 224 0 4 0
154 830 0 236 0 0 0
156 824 0 239 1 0 0
158 815 0 248 3 1 0
160 812 0 255 0 2 0
162 810 0 259 0 4 0
164 805 0 265 1 1 0
166 806 0 269 0 0 0
168 803 0 272 0 0 0
170 796 0 275 0 0 0
172 792 0 274 1 0 0
174 790 0 276 0 1 0
176 787 0 276 0 0 0
178 783 0 281 1 0 0
180 783 0 281 1 0 0
182 778 0 284 2 0 0
184 772 0 288 1 1 0
186 769 0 291 0 0 0
188 765 0 289 0 1 0
190 762 0 292 1 0 0
192 761 0 300 1 0 0
194 753 0 303 1 0 0
196 745 0 305 1 0 0
198 743 0 310 1 1 0
200 741 0 316 0 1 0
