0 842 0 0 0 0 0
2 806 37 0 3 0 0
4.00004 801 42 0 2 0 0
6 806 34 0 1 0 0
8 798 37 0 0 0 0
10 792 41 0 0 0 0
12 793 40 0 2 0 0
14 799 35 0 0 0 0
16 799 35 0 3 0 0
18 797 36 0 3 0 0
20 796 38 0 2 0 0
22 792 41 0 3 0 0
24 800 35 0 0 0 0
26 792 34 0 0 0 0
28 785 40 0 1 0 0
30 779 43 0 7 0 0
32 795 30 0 3 0 0
34 792 37 0 3 0 0
36 790 39 0 0 0 0
38 787 38 0 1 0 0
40 784 42 0 2 0 0
42 783 39 0 3 0 0
44 779 47 0 3 0 0
46 791 39 0 3 0 0
48 799 34 0 1 0 0
50 803 29 0 1 0 0
52 656 1 175 0 1 0
54 618 0 214 0 0 0
56 576 0 263 0 0 0
58 532 1 305 0 1 0
60 487 1 345 0 0 0
62 449 0 389 0 1 0
64 413 1 428 2 1 0
66 380 0 464 1 1 0
68 352 0 494 0 1 0
70 334 0 518 0 1 0
72 310 0 540 0 0 0
74 283 0 565 0 0 0
76 255 0 591 1 1 0
78 231 0 618 0 1 0
80 214 0 632 0 2 0
82 200 1 640 0 1 0
84 192 0 646 0 0 0
86 184 0 655 0 1 0
88 169 0 666 1 0 0
90 160 0 676 0 3 0
92 142 0 697 1 3 0
94 133 0 706 0 3 0
96 121 0 719 0 0 0
98 111 0 723 1 2 0
100 108 0 731 0 1 0
102 102 0 738 0 1 0
104 96 0 743 0 0 0
106 88 1 742 1 2 0
108 81 0 750 0 2 0
110 78 0 751 0 0 0
112 78 0 744 0 1 0
114 71 0 751 0 0 0
116 66 0 758 1 2 0
118 58 0 768 0 2 0
120 52 0 772 0 0 0
122 49 0 775 0 1 0
124 46 0 775 0 1 0
126 44 0 781 0 0 0
128 41 0 779 0 5 0
130 39 0 783 0 0 0
132 38 0 786 0 1 0
134 36 0 787 0 0 0
136 33 0 793 0 2 0
138 31 0 798 3 0 0
140 31 1 798 0 0 0
142 30 0 806 0 0 0
144 29 0 804 0 2 0
146 25 0 803 1 2 0
148 24 0 801 0 0 0
150 26 0 790 0 1 0
152 23 0 793 0 3 0
154 23 0 796 0 3 0
156 21 0 802 0 1 0
158 19 0 804 0 3 0
160 19 0 806 1 2 0
162 18 0 807 1 2 0
164 18 0 816 0 1 0
166 16 0 810 0 4 0
168 16 0 806 2 1 0
170 18 1 802 0 2 0
172 15 0 806 0 1 0
174 12 1 805 0 5 0
176 13 0 806 0 3 0
178 12 0 810 1 1 0
180 9 0 812 0 0 0
182 9 0 807 2 2 0
184 11 0 810 0 2 0
186 8 0 815 0 0 0
188 9 0 811 0 1 0
190 6 0 813 1 3 0
192 7 0 814 0 1 0
194 9 0 808 0 2 0
196 6 0 812 1 0 0
198 6 0 811 1 1 0
200 4 0 814 0 0 0
