0 1040 0 0 0 0 0
2 1037 0 0 3 0 0
4.00004 1039 0 0 0 0 0
6 1041 0 0 4 0 0
8 1040 0 0 0 0 0
10 1037 0 0 2 0 0
12 1039 0 0 2 0 0
14 1034 0 0 3 0 0
16 1039 0 0 0 0 0
18 1039 0 0 2 0 0
20 1045 0 0 0 0 0
22 1044 0 0 5 0 0
24 1046 0 0 0 0 0
26 1042 0 0 1 0 0
28 1042 0 0 1 0 0
30 1045 0 0 2 0 0
32 1046 0 0 2 0 0
34 1050 0 0 1 0 0
36 1044 0 0 2 0 0
38 1042 0 0 4 0 0
40 1038 0 0 4 0 0
42 1036 0 0 4 0 0
44 1039 0 0 1 0 0
46 1034 0 0 1 0 0
48 1042 0 0 1 0 0
50 1038 0 0 0 0 0
52 1030 0 4 1 2 0
54 1020 0 10 3 1 0
56 1018 0 16 0 2 0
58 1012 0 21 3 1 0
60 1000 0 27 2 0 0
62 994 0 31 0 2 0
64 991 0 39 0 0 0
66 984 0 42 0 0 0
68 978 0 49 0 2 0
70 972 0 56 1 1 0
72 966 0 63 1 1 0
74 960 0 70 0 1 0
76 953 0 76 1 1 0
78 949 0 78 0 0 0
80 945 0 83 0 3 0
82 943 0 89 0 1 0
84 939 0 94 0 0 0
86 935 0 97 1 0 0
88 930 0 103 1 0 0
90 928 0 107 1 0 0
92 923 0 111 0 0 0
94 918 0 110 1 1 0
96 912 0 110 0 1 0
98 908 0 114 0 0 0
100 898 0 118 0 2 0
102 889 0 122 1 2 0
104 885 0 126 1 2 0
106 881 0 133 2 1 0
108 880 0 136 1 0 0
110 877 0 136 0 0 0
112 870 0 140 0 0 0
114 867 0 150 2 0 0
116 860 0 152 1 0 0
118 852 0 157 0 0 0
120 840 0 158 1 1 0
122 835 0 160 0 0 0
124 832 0 166 1 0 0
126 824 0 168 3 2 0
128 825 0 172 1 0 0
130 821 0 176 4 1 0
132 819 0 180 0 0 0
134 813 0 187 0 0 0
136 811 0 189 1 3 0
138 804 0 194 1 2 0
140 801 0 199 0 2 0
142 797 0 209 0 1 0
144 795 0 213 0 1 0
146 792 0 216 0 1 0
148 787 0 220 1 2 0
150 783 0 226 1 2 0
152 777 0 230 1 3 0
154 769 0 234 1 0 0
156 769 0 241 0 0 0
158 763 0 245 2 1 0
160 761 0 246 1 1 0
162 754 0 253 1 1 0
164 750 0 263 1 0 0
166 750 0 269 0 2 0
168 745 0 274 0 1 0
170 741 0 273 0 1 0
172 738 0 274 0 1 0
174 734 0 278 0 0 0
176 731 0 282 1 1 0
178 723 0 290 2 0 0
180 720 0 290 0 0 0
182 714 0 292 1 1 0
184 713 0 297 1 1 0
186 705 0 299 1 0 0
188 702 0 303 0 2 0
190 700 0 306 0 1 0
192 696 0 307 1 3 0
194 694 0 309 0 0 0
196 689 0 315 1 1 0
198 685 0 318 2 0 0
200 683 0 324 0 2 0
