0 965 0 0 0 0 0
2 920 43 0 3 0 0
4.00004 931 35 0 4 0 0
6 923 51 0 1 0 0
8 935 38 0 2 0 0
10 930 38 0 2 0 0
12 936 34 0 2 0 0
14 944 25 0 2 0 0
16 936 30 0 1 0 0
18 932 31 0 4 0 0
20 932 35 0 0 0 0
22 933 33 0 1 0 0
24 930 32 0 2 0 0
26 927 40 0 1 0 0
28 927 39 0 0 0 0
30 929 36 0 2 0 0
32 931 36 0 1 0 0
34 940 28 0 2 0 0
36 930 42 0 1 0 0
38 945 30 0 0 0 0
40 949 22 0 2 0 0
42 939 31 0 1 0 0
44 936 33 0 4 0 0
46 923 34 0 4 0 0
48 925 36 0 0 0 0
50 932 35 0 1 0 0
52 824 0 142 0 0 0
54 763 0 202 0 0 0
56 709 0 254 1 3 0
58 644 0 321 1 2 0
60 603 1 365 0 2 0
62 550 0 421 0 3 0
64 504 0 467 0 1 0
66 461 0 509 1 0 0
68 425 0 542 1 0 0
70 399 0 572 0 1 0
72 368 0 599 0 2 0
74 339 0 632 0 0 0
76 312 0 656 2 3 0
78 292 0 683 1 1 0
80 272 0 702 0 0 0
82 250 0 726 1 1 0
84 232 0 745 1 1 0
86 218 0 766 0 0 0
88 192 0 797 1 1 0
90 176 0 815 0 2 0
92 169 0 818 0 2 0
94 149 0 838 0 1 0
96 135 0 857 0 0 0
98 125 0 869 0 0 0
100 115 0 874 0 1 0
102 108 0 878 0 3 0
104 101 0 881 0 2 0
106 97 0 885 0 0 0
108 92 0 890 0 0 0
110 85 0 900 2 1 0
112 78 0 915 1 1 0
114 75 0 919 0 1 0
116 71 0 917 0 1 0
118 66 0 925 0 1 0
120 64 0 929 0 0 0
122 58 0 927 0 1 0
124 56 0 929 0 1 0
126 53 0 930 1 3 0
128 50 0 939 1 0 0
130 45 0 945 0 2 0
132 42 0 953 0 0 0
134 41 0 949 0 2 0
136 40 0 955 0 0 0
138 37 0 958 1 1 0
140 35 0 958 0 1 0
142 33 0 959 0 4 0
144 33 0 956 0 3 0
146 31 0 950 0 2 0
148 30 0 948 1 2 0
150 29 0 952 0 1 0
152 29 0 947 1 2 0
154 29 0 953 0 0 0
156 28 0 957 0 0 0
158 27 0 955 1 1 0
160 25 0 955 0 0 0
162 22 0 961 0 0 0
164 19 0 960 0 0 0
166 18 0 961 1 1 0
168 17 0 960 0 1 0
170 16 0 957 0 1 0
172 15 0 954 0 2 0
174 15 0 956 0 0 0
176 15 0 960 0 0 0
178 14 0 961 0 1 0
180 12 0 959 1 2 0
182 10 0 962 0 1 0
184 7 0 963 0 2 0
186 6 0 970 0 0 0
188 6 0 967 0 2 0
190 5 0 970 0 1 0
192 5 0 965 0 2 0
194 5 0 969 0 3 0
196 5 0 969 0 1 0
198 5 0 974 0 3 0
200 5 0 972 0 2 0
