0 918 0 0 0 0
2 895 0 0 35 0
4.00004 894 0 0 36 0
6 903 0 0 32 0
8 901 0 0 31 0
10 899 0 0 33 0
12 907 0 0 35 0
14 903 0 0 27 0
16 902 0 0 31 0
18 891 0 0 44 0
20 887 0 0 29 0
22 889 0 0 42 0
24 901 0 0 31 0
26 900 0 0 40 0
28 905 0 0 29 0
30 913 0 0 27 0
32 902 0 0 35 0
34 898 0 0 39 0
36 888 0 0 35 0
38 891 0 0 32 0
40 900 0 0 28 0
42 887 0 0 37 0
44 891 0 0 33 0
46 888 0 0 36 0
48 881 0 0 35 0
50 863 0 0 41 0
52 868 0 0 44 0
54 870 0 0 45 0
56 883 0 0 32 0
58 872 0 1 39 1
60 880 0 1 32 1
62 882 0 3 31 0
64 879 0 5 38 1
66 893 0 7 23 0
68 888 0 5 28 1
70 885 0 11 28 0
72 875 0 9 42 2
74 883 0 11 39 4
76 880 0 16 31 11
78 867 0 20 39 4
80 856 0 26 41 6
82 865 0 26 25 8
84 862 0 31 26 8
86 855 0 34 31 9
88 837 0 34 33 8
90 832 0 36 35 8
92 837 0 39 30 12
94 837 0 48 30 5
96 829 0 54 35 6
98 828 0 57 23 9
100 826 0 63 23 8
102 818 0 59 23 6
104 804 0 67 25 5
106 803 0 66 31 7
108 809 0 71 26 10
110 799 0 82 27 5
112 809 0 77 18 14
114 793 0 87 29 10
116 794 0 89 25 10
118 784 0 83 24 6
120 787 0 89 22 6
122 771 0 94 33 8
124 765 0 96 27 8
126 764 0 93 23 12
128 758 0 105 29 10
130 758 0 111 35 8
132 762 0 111 25 16
134 760 0 114 30 9
136 751 0 118 25 8
138 753 0 119 26 16
140 743 0 132 27 6
142 736 0 124 28 11
144 733 0 139 31 8
146 736 0 136 24 15
148 743 0 139 18 16
150 734 0 148 20 12
152 719 0 151 29 13
154 726 0 155 16 14
156 714 0 155 24 15
158 717 0 158 20 15
160 716 0 160 22 12
162 712 0 164 22 10
164 706 0 166 26 15
166 700 0 174 25 15
168 695 0 186 22 10
170 689 0 187 18 11
172 678 0 190 25 15
174 674 0 186 27 17
176 677 0 194 23 10
178 677 0 184 19 16
180 672 0 193 18 20
182 683 0 196 12 11
184 670 0 198 24 9
186 670 0 195 20 24
188 674 0 214 23 12
190 662 0 220 29 11
192 673 0 213 17 22
194 660 0 209 25 20
196 665 0 215 21 13
198 661 0 221 20 11
200 649 0 222 24 18
