0 1040 0 0 0 0
2 1003 0 0 37 0
4.00004 995 0 0 44 0
6 991 0 0 40 0
8 986 0 0 43 0
10 981 0 0 44 0
12 973 0 0 54 0
14 987 0 0 42 0
16 998 0 0 33 0
18 972 0 0 53 0
20 972 0 0 51 0
22 974 0 0 42 0
24 985 0 0 28 0
26 960 0 0 47 0
28 976 0 0 33 0
30 957 0 0 46 0
32 970 0 0 36 0
34 971 0 0 42 0
36 980 0 0 31 0
38 982 0 0 40 0
40 980 0 0 32 0
42 964 0 0 44 0
44 965 0 0 45 0
46 977 0 0 42 0
48 987 0 0 26 0
50 969 0 0 45 0
52 979 0 0 31 0
54 962 0 0 43 0
56 966 0 0 36 0
58 967 0 0 35 0
60 971 0 0 35 0
62 956 0 1 40 0
64 971 0 1 29 0
66 966 0 7 38 1
68 963 0 6 39 1
70 960 0 6 37 1
72 976 0 11 22 4
74 953 0 16 31 3
76 946 0 18 22 2
78 945 0 23 22 3
80 935 0 23 29 5
82 941 0 28 17 5
84 941 0 32 24 8
86 933 0 35 29 6
88 929 0 45 25 3
90 929 0 39 28 8
92 932 0 44 22 4
94 913 0 51 27 5
96 922 0 59 17 4
98 911 0 60 28 7
100 914 0 57 25 11
102 904 0 64 28 7
104 904 0 69 24 6
106 890 0 71 28 5
108 875 0 73 34 7
110 883 0 72 25 9
112 875 0 80 28 7
114 870 0 80 25 5
116 873 0 81 22 8
118 863 0 78 26 10
120 864 0 90 21 7
122 862 0 92 21 9
124 840 0 95 34 12
126 840 0 101 28 10
128 839 0 100 24 11
130 833 0 102 31 6
132 838 0 105 26 9
134 832 0 114 20 5
136 824 0 113 24 8
138 821 0 124 22 7
140 824 0 120 18 8
142 793 0 122 33 9
144 795 0 125 24 10
146 785 0 131 36 5
148 794 0 134 23 6
150 789 0 134 20 10
152 791 0 132 20 12
154 796 0 146 18 9
156 783 0 157 29 12
158 768 0 159 31 7
160 775 0 157 26 6
162 763 0 150 23 9
164 753 0 149 30 9
166 752 0 158 24 11
168 752 0 154 18 14
170 744 0 166 28 11
172 738 0 176 26 9
174 740 0 178 22 9
176 735 0 178 27 8
178 732 0 183 28 5
180 727 0 187 26 9
182 735 0 188 17 14
184 736 0 192 17 10
186 730 0 188 16 18
188 714 0 194 33 7
190 725 0 196 23 7
192 724 0 196 20 16
194 714 0 218 23 8
196 707 0 211 21 13
198 705 0 214 21 14
200 696 0 225 26 8
