0 939 0 0 0 0
2 887 0 0 47 0
4.00004 887 0 0 45 0
6 871 0 0 59 0
8 866 0 0 52 0
10 865 0 0 42 0
12 874 0 0 37 0
14 847 0 0 53 0
16 866 0 0 35 0
18 859 0 0 47 0
20 856 0 0 51 0
22 861 0 0 53 0
24 855 0 0 58 0
26 855 0 0 51 0
28 869 0 0 45 0
30 849 0 0 42 0
32 858 0 0 46 0
34 883 0 0 33 0
36 848 0 0 60 0
38 856 0 0 47 0
40 862 0 0 42 0
42 851 0 0 47 0
44 878 0 0 33 0
46 866 0 0 47 0
48 855 0 0 52 0
50 858 0 0 42 0
52 863 0 0 40 0
54 857 0 0 54 0
56 868 0 0 36 0
58 866 0 1 51 0
60 861 0 2 44 1
62 852 0 4 55 1
64 848 0 4 45 3
66 850 0 10 37 2
68 850 0 9 35 5
70 848 0 14 33 2
72 823 0 14 45 3
74 823 0 22 46 3
76 834 0 29 33 4
78 824 0 27 41 9
80 826 0 33 34 5
82 829 0 36 33 7
84 824 0 43 41 5
86 818 0 46 44 5
88 811 0 50 38 8
90 798 0 56 42 14
92 799 0 61 32 10
94 791 0 66 35 11
96 783 0 71 41 17
98 778 0 86 39 12
100 769 0 89 40 8
102 768 0 90 35 14
104 754 0 99 39 10
106 759 0 99 28 14
108 760 0 110 24 16
110 765 0 119 24 7
112 740 0 113 36 18
114 737 0 117 30 13
116 736 0 121 33 14
118 722 0 129 38 13
120 722 0 131 27 14
122 727 0 139 24 19
124 731 0 143 20 14
126 723 0 138 32 19
128 721 0 145 29 17
130 708 0 152 30 14
132 695 0 166 28 10
134 685 0 169 32 18
136 679 0 168 36 15
138 679 0 168 25 22
140 683 0 182 25 11
142 667 0 177 37 17
144 675 0 183 28 12
146 675 0 186 23 13
148 648 0 193 44 10
150 642 0 190 38 15
152 645 0 191 28 20
154 640 0 193 23 17
156 638 0 198 27 19
158 624 0 204 37 14
160 627 0 204 22 15
162 623 0 201 26 20
164 620 0 216 27 9
166 622 0 223 26 9
168 612 0 219 34 17
170 616 0 229 25 21
172 594 0 240 27 17
174 591 0 236 24 22
176 594 0 237 25 16
178 585 0 239 28 18
180 577 0 238 33 23
182 590 0 242 18 13
184 571 0 235 29 18
186 576 0 252 23 13
188 566 0 243 29 18
190 547 0 253 39 13
192 554 0 261 24 13
194 543 0 262 33 16
196 559 0 266 14 14
198 550 0 263 20 15
200 539 0 273 22 17
