0 1084 0 0 0 0
2 1024 7 0 58 0
4.00004 1025 9 0 48 0
6 1016 4 0 57 0
8 1010 5 0 59 0
10 1001 5 0 58 0
12 991 7 0 64 0
14 997 8 0 48 0
16 998 6 0 52 0
18 1002 9 0 54 0
20 996 6 0 55 0
22 992 8 0 55 0
24 1002 6 0 47 0
26 1004 6 0 43 0
28 982 5 0 68 0
30 981 5 0 62 0
32 988 7 0 63 0
34 1005 7 0 51 0
36 1010 6 0 49 0
38 1000 2 0 53 0
40 989 6 0 53 0
42 997 5 0 49 0
44 992 7 0 53 0
46 1008 2 0 45 0
48 989 8 0 55 0
50 989 8 0 41 0
52 847 1 156 36 0
54 744 0 255 51 4
56 670 0 330 40 12
58 579 0 416 33 12
60 516 0 473 39 22
62 454 0 532 54 11
64 406 0 553 46 30
66 370 0 620 33 22
68 317 0 647 43 24
70 295 0 672 40 21
72 266 0 702 31 25
74 247 0 721 28 26
76 232 0 729 25 35
78 204 0 762 25 33
80 179 0 791 23 23
82 163 0 797 28 27
84 158 0 808 22 22
86 154 0 809 22 25
88 142 0 821 18 24
90 145 0 822 10 35
92 117 0 824 24 41
94 114 0 834 17 33
96 104 0 841 22 27
98 108 0 847 17 32
100 100 0 862 20 23
102 94 0 862 19 30
104 99 1 869 23 28
106 96 0 859 15 37
108 98 0 876 12 28
110 95 0 861 14 32
112 84 0 875 13 24
114 93 0 865 14 32
116 93 0 865 18 40
118 86 0 876 18 39
120 76 0 872 16 43
122 77 0 889 13 35
124 74 0 887 14 28
126 73 0 887 12 34
128 76 0 888 5 28
130 67 0 880 14 36
132 77 0 893 7 32
134 64 0 876 7 46
136 67 0 866 13 49
138 62 0 885 16 33
140 65 0 878 9 33
142 66 0 868 11 38
144 59 0 871 7 39
146 56 0 879 11 35
148 54 0 872 12 46
150 64 0 872 10 43
152 61 0 879 12 32
154 71 0 879 11 40
156 74 0 881 9 43
158 64 0 876 14 44
160 63 0 873 15 43
162 64 0 884 7 36
164 58 0 883 12 41
166 56 0 897 11 32
168 58 0 875 13 53
170 54 0 889 14 31
172 54 0 882 12 41
174 55 0 890 10 51
176 53 0 868 7 66
178 48 0 884 10 49
180 46 0 877 9 48
182 49 0 879 5 44
184 43 0 893 9 41
186 43 0 890 6 41
188 37 0 890 9 42
190 44 0 888 12 40
192 47 0 881 9 49
194 41 0 879 5 48
196 38 0 886 11 42
198 42 0 882 6 50
200 41 0 891 10 38
