0 963 0 0 0 0
2 945 4 0 25 0
4.00004 916 1 0 39 0
6 922 8 0 37 0
8 936 7 0 33 0
10 931 4 0 30 0
12 925 4 0 36 0
14 918 6 0 38 0
16 920 9 0 32 0
18 921 6 0 43 0
20 916 4 0 36 0
22 916 1 0 48 0
24 929 4 0 29 0
26 917 3 0 35 0
28 905 5 0 40 0
30 909 7 0 34 0
32 909 1 0 30 0
34 909 2 0 30 0
36 899 4 0 32 0
38 907 6 0 36 0
40 912 5 0 31 0
42 898 9 0 37 0
44 899 7 0 40 0
46 904 6 0 25 0
48 895 4 0 43 0
50 888 6 0 41 0
52 811 1 102 23 0
54 715 0 187 35 3
56 636 0 271 34 2
58 571 0 336 27 5
60 510 0 391 26 8
62 467 0 440 23 6
64 421 0 485 20 8
66 378 0 522 22 9
68 345 0 556 20 12
70 303 0 602 16 13
72 261 0 637 15 15
74 233 0 665 25 12
76 222 0 688 21 8
78 199 0 704 12 15
80 178 0 725 19 10
82 168 0 732 16 13
84 160 0 732 18 19
86 144 0 755 11 13
88 135 0 762 12 18
90 122 0 775 9 14
92 126 0 772 7 20
94 114 0 775 7 27
96 103 0 782 10 25
98 91 0 799 13 15
100 98 0 790 6 21
102 93 0 791 8 28
104 91 0 790 8 27
106 86 0 796 10 27
108 82 0 806 9 26
110 76 0 804 10 28
112 83 0 796 12 35
114 81 0 812 8 23
116 78 0 816 7 22
118 74 0 808 8 28
120 69 0 820 9 21
122 62 0 810 9 30
124 58 0 817 6 23
126 65 0 812 4 23
128 61 0 812 9 26
130 61 0 808 8 26
132 61 0 811 11 21
134 66 0 813 9 24
136 66 0 821 3 22
138 65 0 812 7 25
140 57 0 821 7 20
142 56 0 819 5 20
144 58 0 818 6 23
146 54 0 820 6 19
148 51 0 811 7 23
150 52 0 824 12 19
152 59 0 822 11 21
154 60 0 813 11 25
156 59 0 809 6 20
158 54 0 816 5 22
160 52 0 816 6 19
162 49 0 825 7 16
164 52 0 816 7 23
166 50 0 814 5 27
168 50 0 819 6 15
170 51 0 820 5 20
172 50 0 818 9 22
174 47 0 817 10 26
176 49 0 812 7 22
178 49 0 816 10 20
180 62 0 815 6 21
182 52 0 824 11 13
184 59 0 809 8 24
186 57 0 811 11 19
188 56 0 808 8 21
190 56 0 803 8 22
192 52 0 797 8 24
194 50 0 798 10 24
196 56 0 794 5 28
198 56 0 798 9 26
200 54 0 808 4 23
