0 811 0 0 0 0
2 774 0 0 48 0
4.00004 773 0 0 37 0
6 766 0 0 56 0
8 781 0 0 37 0
10 777 0 0 53 0
12 773 0 0 57 0
14 794 0 0 46 0
16 789 0 0 51 0
18 792 0 0 46 0
20 776 0 0 59 0
22 797 0 0 41 0
24 790 0 0 41 0
26 791 0 0 36 0
28 780 0 0 45 0
30 779 0 0 50 0
32 785 0 0 41 0
34 785 0 0 56 0
36 783 0 0 63 0
38 797 0 0 39 0
40 783 0 0 52 0
42 784 0 0 49 0
44 790 0 0 41 0
46 789 0 0 43 0
48 767 0 0 53 0
50 782 0 0 49 0
52 778 0 0 58 0
54 784 0 0 51 0
56 792 0 1 47 0
58 776 0 1 46 0
60 783 0 3 50 0
62 783 0 3 39 0
64 769 0 5 47 1
66 776 0 7 36 1
68 770 0 10 47 2
70 769 0 13 43 2
72 755 0 16 51 5
74 771 0 15 31 6
76 748 0 23 46 3
78 746 0 26 46 7
80 751 0 30 31 6
82 749 0 31 39 5
84 740 0 34 41 10
86 744 0 45 32 4
88 739 0 47 36 5
90 736 0 52 34 5
92 734 0 58 35 8
94 722 0 66 36 6
96 723 0 67 36 6
98 723 0 76 32 8
100 725 0 78 30 7
102 730 0 90 21 10
104 725 0 92 24 13
106 715 0 98 28 14
108 710 0 106 26 8
110 701 0 107 29 9
112 698 0 111 27 15
114 689 0 103 35 23
116 689 0 125 27 11
118 680 0 122 35 9
120 687 0 122 24 12
122 665 0 126 37 15
124 666 0 133 30 11
126 657 0 135 30 14
128 650 0 141 36 15
130 634 0 139 41 17
132 637 0 146 35 27
134 639 0 159 26 12
136 630 0 161 33 15
138 620 0 163 27 11
140 618 0 162 30 18
142 616 0 172 26 17
144 622 0 177 23 20
146 609 0 184 27 18
148 605 0 187 24 20
150 599 0 192 30 12
152 590 0 189 29 15
154 585 0 195 31 16
156 587 0 196 26 18
158 579 0 201 26 18
160 582 0 199 23 24
162 573 0 218 25 12
164 571 0 203 22 30
166 563 0 220 26 18
168 562 0 224 28 14
170 562 0 228 29 9
172 551 0 222 29 25
174 545 0 229 36 10
176 549 0 238 26 19
178 548 0 239 24 26
180 535 0 247 25 21
182 532 0 255 28 15
184 544 0 250 19 17
186 535 0 254 27 16
188 531 0 255 27 21
190 524 0 253 27 26
192 520 0 268 28 23
194 515 0 259 29 25
196 506 0 270 35 22
198 513 0 283 28 19
200 505 0 279 27 21
