0 854 0 0 0 0
2 816 0 0 33 0
4.00004 814 0 0 36 0
6 824 0 0 25 0
8 815 0 0 35 0
10 819 0 0 35 0
12 822 0 0 32 0
14 822 0 0 27 0
16 830 0 0 30 0
18 829 0 0 30 0
20 822 0 0 34 0
22 821 0 0 28 0
24 824 0 0 29 0
26 824 0 0 31 0
28 828 0 0 32 0
30 828 0 0 27 0
32 837 0 0 38 0
34 840 0 0 39 0
36 846 0 0 37 0
38 841 0 0 29 0
40 832 0 0 35 0
42 831 0 0 31 0
44 832 0 0 30 0
46 830 0 0 31 0
48 829 0 0 29 0
50 827 0 0 24 0
52 818 0 0 33 0
54 823 0 0 32 0
56 833 0 0 27 0
58 826 0 0 28 0
60 815 0 1 36 1
62 829 0 2 29 0
64 836 0 2 32 2
66 842 0 5 34 0
68 833 0 5 25 2
70 827 0 7 27 2
72 827 0 8 20 1
74 815 0 14 24 1
76 816 0 14 28 4
78 809 0 17 28 6
80 811 0 15 22 6
82 802 0 21 26 6
84 801 0 25 24 4
86 795 0 26 25 1
88 795 0 31 24 8
90 780 0 38 31 5
92 784 0 36 30 11
94 779 0 46 34 5
96 780 0 46 29 8
98 774 0 52 22 8
100 769 0 51 24 12
102 765 0 56 23 13
104 774 0 61 17 6
106 766 0 64 22 7
108 753 0 66 28 9
110 748 0 71 20 7
112 747 0 72 29 8
114 751 0 78 26 10
116 746 0 83 25 11
118 750 0 80 18 12
120 741 0 94 29 7
122 733 0 90 28 6
124 737 0 94 25 10
126 724 0 92 27 16
128 726 0 97 17 12
130 716 0 107 17 9
132 710 0 113 23 5
134 706 0 121 25 11
136 707 0 116 19 16
138 694 0 124 21 7
140 704 0 122 13 11
142 690 0 129 24 8
144 691 0 139 19 4
146 686 0 137 23 4
148 675 0 140 26 8
150 674 0 143 20 8
152 679 0 139 10 10
154 667 0 141 21 11
156 668 0 147 20 14
158 657 0 152 22 10
160 661 0 161 14 12
162 651 0 169 16 13
164 641 0 166 23 16
166 649 0 176 20 10
168 645 0 176 17 9
170 642 0 176 12 9
172 637 0 170 21 16
174 627 0 176 23 10
176 629 0 172 20 17
178 623 0 182 19 14
180 628 0 190 25 19
182 615 0 196 20 11
184 618 0 195 18 13
186 617 0 190 18 17
188 606 0 196 23 11
190 610 0 204 19 11
192 606 0 205 25 17
194 600 0 220 31 9
196 605 0 214 15 16
198 600 0 214 19 19
200 587 0 230 24 14
