0 961 0 0 0 0
2 915 7 0 44 0
4.00004 928 5 0 35 0
6 925 6 0 39 0
8 931 4 0 47 0
10 945 5 0 43 0
12 939 6 0 44 0
14 959 5 0 36 0
16 953 2 0 44 0
18 935 4 0 55 0
20 951 6 0 36 0
22 933 6 0 47 0
24 917 9 0 61 0
26 942 8 0 44 0
28 934 5 0 47 0
30 950 9 0 50 0
32 945 3 0 48 0
34 938 2 0 44 0
36 946 3 0 43 0
38 943 7 0 47 0
40 936 7 0 53 0
42 932 7 0 63 0
44 941 5 0 43 0
46 937 5 0 45 0
48 947 2 0 44 0
50 954 3 0 43 0
52 796 0 147 53 1
54 727 0 227 34 1
56 652 0 298 43 3
58 576 0 363 36 7
60 516 0 431 40 5
62 458 1 492 32 5
64 422 1 542 24 11
66 379 1 588 27 6
68 346 0 604 39 12
70 327 0 633 30 13
72 293 1 666 33 22
74 269 0 694 27 16
76 243 0 720 24 13
78 217 0 742 22 18
80 200 0 756 28 18
82 182 0 775 19 19
84 172 0 778 16 21
86 157 0 784 15 31
88 154 0 794 18 27
90 133 0 809 26 22
92 137 0 817 16 28
94 119 0 823 25 30
96 117 0 829 14 28
98 109 0 830 19 27
100 110 1 843 16 24
102 100 0 847 23 23
104 110 0 850 14 24
106 105 0 853 15 27
108 88 0 850 24 28
110 84 0 864 16 21
112 100 0 861 10 22
114 101 0 863 11 28
116 90 0 868 14 24
118 98 0 867 10 23
120 100 0 881 11 14
122 91 0 868 10 22
124 78 0 868 19 27
126 80 0 879 6 23
128 67 0 879 13 29
130 75 0 877 13 31
132 80 0 874 21 26
134 80 0 879 21 16
136 78 0 886 20 18
138 89 0 880 17 20
140 87 0 879 10 23
142 84 0 885 11 22
144 78 0 880 11 33
146 77 0 891 10 25
148 69 0 883 15 38
150 82 0 887 11 35
152 82 0 891 13 30
154 85 0 908 13 21
156 80 0 890 14 34
158 78 0 893 13 37
160 79 0 904 15 34
162 75 0 910 15 30
164 78 0 908 6 36
166 64 0 908 11 37
168 61 0 911 11 35
170 59 0 909 12 29
172 67 0 912 17 26
174 69 0 914 17 27
176 64 0 924 12 28
178 62 0 919 14 35
180 63 0 918 14 34
182 67 0 933 8 29
184 64 0 941 10 32
186 64 0 924 9 39
188 65 0 935 6 38
190 66 0 939 10 33
192 67 0 927 12 42
194 66 0 936 7 37
196 57 0 941 15 34
198 68 0 926 6 52
200 62 0 946 13 28
