0 1062 0 0 0 0
2 1015 5 0 46 0
4.00004 1006 5 0 60 0
6 1015 7 0 49 0
8 1009 7 0 45 0
10 1016 6 0 41 0
12 1030 3 0 37 0
14 1007 6 0 58 0
16 1018 5 0 47 0
18 1009 6 0 44 0
20 1003 7 0 52 0
22 1006 8 0 47 0
24 1025 6 0 33 0
26 1017 7 0 45 0
28 1011 5 0 46 0
30 1009 8 0 45 0
32 1008 8 0 44 0
34 1007 5 0 47 0
36 1003 4 0 48 0
38 998 8 0 39 0
40 999 3 0 39 0
42 1006 6 0 26 0
44 990 7 0 42 0
46 987 7 0 43 0
48 996 7 0 42 0
50 1001 7 0 36 0
52 844 0 156 39 1
54 738 1 265 31 4
56 635 0 366 33 3
58 568 0 424 47 4
60 525 0 474 34 9
62 471 0 538 26 12
64 402 0 592 39 16
66 376 0 642 26 13
68 323 0 687 34 13
70 294 0 730 23 16
72 253 0 765 30 18
74 239 0 773 18 32
76 216 0 794 18 34
78 188 0 822 17 29
80 170 0 837 24 22
82 161 0 845 20 32
84 142 0 850 19 36
86 133 0 869 18 29
88 138 0 877 11 29
90 128 0 886 19 25
92 120 0 894 19 26
94 108 0 898 18 31
96 108 0 903 14 34
98 98 0 919 11 19
100 86 0 926 10 25
102 87 0 931 10 29
104 84 0 934 12 31
106 79 0 939 12 29
108 73 0 932 12 37
110 72 0 950 9 24
112 66 1 942 12 36
114 53 0 958 15 27
116 62 0 947 6 41
118 53 0 960 7 37
120 43 0 960 14 34
122 55 0 971 4 29
124 47 0 970 10 32
126 47 0 978 10 29
128 48 0 972 16 32
130 47 0 965 17 37
132 52 0 973 9 31
134 46 0 969 11 32
136 46 0 975 12 31
138 47 0 969 10 32
140 46 0 972 11 30
142 44 0 977 16 26
144 40 0 976 16 34
146 42 0 987 11 25
148 41 0 978 12 36
150 39 0 982 11 31
152 41 0 990 6 19
154 35 0 977 11 37
156 31 0 970 19 38
158 40 0 954 15 51
160 39 0 967 8 40
162 40 0 966 6 39
164 40 0 977 7 30
166 39 0 977 6 36
168 36 0 967 10 42
170 40 0 968 11 38
172 34 0 979 14 30
174 31 0 989 8 30
176 33 0 983 6 33
178 35 0 989 2 36
180 27 0 988 9 34
182 34 0 986 8 29
184 32 0 983 13 31
186 37 0 985 9 34
188 33 0 981 9 36
190 33 0 979 8 40
192 37 0 983 4 32
194 36 0 987 3 28
196 34 0 985 6 32
198 39 0 983 3 35
200 36 0 978 11 41
