0 1049 0 0 0 0
2 1003 1 0 43 0
4.00004 1014 6 0 31 0
6 990 3 0 48 0
8 1000 5 0 35 0
10 996 1 0 50 0
12 1012 4 0 32 0
14 996 5 0 44 0
16 995 4 0 47 0
18 991 8 0 49 0
20 994 7 0 41 0
22 997 4 0 55 0
24 989 5 0 52 0
26 999 4 0 41 0
28 1003 4 0 40 0
30 1004 2 0 46 0
32 998 6 0 43 0
34 993 4 0 53 0
36 998 7 0 46 0
38 990 2 0 43 0
40 994 1 0 39 0
42 991 7 0 35 0
44 994 1 0 34 0
46 993 4 0 39 0
48 1004 6 0 37 0
50 995 6 0 42 0
52 900 0 92 39 2
54 821 0 167 34 5
56 739 1 250 35 2
58 679 0 315 32 2
60 627 0 368 31 6
62 561 1 419 35 13
64 524 0 472 26 9
66 495 0 503 24 11
68 443 0 545 24 13
70 420 0 579 30 13
72 395 0 603 27 16
74 372 0 630 24 15
76 343 0 665 16 11
78 314 0 667 19 25
80 289 0 696 20 26
82 273 0 722 18 16
84 251 0 737 20 28
86 241 0 758 13 17
88 227 0 757 9 29
90 208 0 772 18 26
92 202 0 799 15 18
94 191 0 792 10 25
96 171 0 806 11 26
98 172 0 814 13 21
100 162 0 826 16 22
102 144 0 828 20 24
104 152 0 832 7 30
106 124 0 849 12 23
108 114 0 866 12 19
110 109 0 858 6 36
112 98 0 864 8 35
114 95 0 869 8 34
116 87 0 880 4 30
118 83 0 886 5 29
120 80 0 887 6 28
122 84 0 883 5 24
124 80 0 891 10 28
126 63 0 906 14 27
128 73 0 891 10 32
130 62 0 904 8 33
132 68 0 904 12 27
134 66 0 894 8 35
136 60 0 896 19 30
138 66 0 889 5 41
140 64 0 900 7 32
142 68 0 894 4 33
144 62 0 901 11 28
146 54 0 901 15 31
148 57 0 893 9 34
150 54 0 901 9 27
152 55 0 902 14 31
154 50 0 910 12 21
156 54 0 898 17 30
158 58 0 900 9 27
160 59 0 892 11 30
162 65 0 889 10 27
164 59 0 876 12 42
166 59 0 866 7 42
168 61 0 892 7 21
170 58 0 884 8 32
172 63 0 896 5 25
174 58 0 884 9 36
176 54 0 879 14 41
178 61 0 882 7 30
180 60 0 890 11 25
182 58 0 884 9 29
184 58 0 882 8 27
186 56 0 881 4 33
188 54 0 876 3 33
190 56 0 882 4 37
192 47 0 890 9 34
194 51 0 889 11 32
196 55 0 873 8 31
198 56 0 867 3 38
200 54 0 890 2 25
