0 1599 0 0 0 0 858
2 1538 9 0 46 0 821
4.00004 1538 14 0 40 0 832
6 1530 12 0 44 0 803
8 1532 8 0 53 0 788
10 1543 7 0 42 0 832
12 1535 9 0 47 0 772
14 1532 10 0 42 0 768
16 1528 9 0 48 0 773
18 1531 9 0 41 0 809
20 1515 16 0 41 0 795
22 1519 9 0 38 0 759
24 1512 8 0 48 0 779
26 1510 7 0 49 0 788
28 1505 13 0 44 0 811
30 1509 9 0 45 0 825
32 1511 5 0 45 0 820
34 1519 6 0 32 0 790
36 1493 14 0 49 0 807
38 1503 10 0 42 0 828
40 1516 7 0 34 0 784
42 1504 10 0 43 0 806
44 1519 5 0 37 0 805
46 1515 5 0 45 0 811
48 1520 9 0 40 0 763
50 1517 10 0 47 0 784
52 1323 0 197 43 6 797
54 1177 0 330 47 4 764
56 1038 2 471 32 11 808
58 955 2 552 25 15 796
60 891 0 629 22 14 800
62 814 0 703 22 17 811
64 747 1 767 20 25 798
66 681 0 835 18 26 799
68 631 0 898 17 19 812
70 570 0 954 22 23 757
72 526 0 1000 16 28 771
74 474 0 1055 18 25 838
76 450 0 1085 15 29 802
78 410 0 1127 15 33 792
80 379 0 1184 9 18 810
82 348 0 1211 11 23 801
84 326 0 1232 6 29 813
86 283 0 1261 18 31 824
88 260 0 1283 11 33 789
90 245 0 1297 11 36 782
92 228 0 1320 7 37 787
94 207 0 1340 11 34 817
96 196 0 1364 8 29 774
98 186 0 1366 2 38 809
100 170 0 1380 8 36 793
102 155 0 1389 14 41 782
104 151 0 1402 6 38 810
106 152 0 1394 3 42 785
108 134 0 1418 4 31 804
110 121 0 1422 8 33 811
112 116 0 1419 7 46 821
114 116 0 1432 3 41 818
116 111 0 1435 2 45 825
118 103 0 1447 5 40 806
120 103 0 1455 4 34 788
122 96 0 1433 2 55 797
124 88 0 1438 4 53 810
126 90 0 1452 4 43 773
128 81 0 1462 7 33 816
130 81 0 1446 5 50 780
132 77 0 1470 5 34 790
134 72 0 1473 6 34 813
136 72 0 1458 5 49 799
138 71 0 1476 3 32 809
140 70 0 1475 4 29 817
142 69 0 1473 2 32 805
144 65 0 1475 4 28 808
146 61 0 1459 8 43 778
148 63 0 1470 4 41 814
150 57 0 1474 3 44 775
152 57 0 1482 1 31 796
154 51 0 1462 1 52 816
156 46 0 1480 3 36 773
158 44 0 1468 4 42 793
160 42 0 1472 4 39 821
162 40 0 1472 2 42 810
164 37 0 1482 1 38 778
166 36 0 1471 2 47 805
168 39 0 1482 0 32 777
170 29 0 1479 3 41 813
172 31 0 1475 1 46 794
174 32 0 1473 4 47 803
176 41 0 1490 3 25 814
178 40 0 1484 3 33 810
180 39 0 1474 2 47 780
182 43 0 1469 2 52 798
184 43 0 1477 1 43 808
186 39 0 1483 3 35 825
188 44 0 1474 0 46 783
190 45 0 1471 0 42 810
192 39 0 1477 3 46 794
194 39 0 1487 1 32 792
196 43 0 1484 1 35 766
198 43 0 1478 1 44 784
200 38 0 1489 3 34 809
