0 1643 0 0 0 0 815
2 1599 8 0 42 0 786
4.00004 1601 5 0 46 0 797
6 1599 8 0 39 0 772
8 1602 14 0 33 0 801
10 1607 11 0 46 0 788
12 1598 8 0 54 0 802
14 1611 9 0 35 0 807
16 1613 8 0 31 0 787
18 1602 8 0 36 0 794
20 1600 9 0 38 0 776
22 1585 8 0 42 0 788
24 1576 9 0 46 0 829
26 1597 9 0 33 0 806
28 1596 7 0 40 0 836
30 1588 6 0 42 0 797
32 1588 11 0 44 0 791
34 1583 11 0 44 0 775
36 1572 11 0 46 0 790
38 1580 9 0 41 0 792
40 1583 4 0 35 0 774
42 1561 15 0 40 0 791
44 1580 9 0 31 0 798
46 1577 10 0 35 0 782
48 1580 6 0 44 0 792
50 1587 11 0 31 0 787
52 1377 0 207 35 3 802
54 1212 0 362 43 3 784
56 1108 0 475 26 5 778
58 994 0 564 26 19 792
60 900 0 695 17 9 818
62 811 0 775 34 11 797
64 730 0 858 24 15 803
66 657 0 925 17 19 812
68 585 0 989 20 17 795
70 533 1 1047 19 21 842
72 482 0 1093 20 15 819
74 452 0 1114 19 28 797
76 431 0 1155 15 21 789
78 380 0 1198 13 29 815
80 362 0 1217 8 36 790
82 319 0 1250 11 37 802
84 306 1 1283 12 24 803
86 278 0 1311 7 21 792
88 266 0 1311 10 40 796
90 241 0 1340 14 30 787
92 229 0 1352 11 30 793
94 227 0 1365 5 34 803
96 206 0 1389 9 27 809
98 192 0 1399 9 26 804
100 175 0 1401 15 38 810
102 178 0 1414 7 31 799
104 171 0 1429 9 29 824
106 162 0 1427 12 45 794
108 157 0 1456 12 35 835
110 158 0 1466 9 28 788
112 145 1 1474 7 29 812
114 140 0 1467 7 43 773
116 132 0 1475 4 38 796
118 118 0 1488 4 39 799
120 114 0 1486 6 45 827
122 103 0 1503 6 30 812
124 104 0 1514 2 23 780
126 99 0 1507 4 36 810
128 98 0 1503 4 38 804
130 87 0 1508 3 40 783
132 84 0 1510 1 40 812
134 82 0 1516 5 35 775
136 78 0 1523 4 35 824
138 67 0 1543 1 29 796
140 67 0 1534 2 35 790
142 60 0 1540 3 32 800
144 65 0 1550 3 35 815
146 59 0 1555 3 35 793
148 64 0 1553 0 36 823
150 58 0 1553 3 33 796
152 53 0 1551 4 40 803
154 52 0 1552 2 41 810
156 48 0 1546 4 37 793
158 46 0 1553 0 32 785
160 39 0 1547 2 41 796
162 38 0 1544 3 41 819
164 36 0 1544 2 43 781
166 37 0 1547 1 35 793
168 36 0 1540 1 40 813
170 34 0 1539 4 38 770
172 37 0 1548 0 37 810
174 30 0 1560 1 34 799
176 30 0 1558 1 38 813
178 26 0 1574 4 38 794
180 25 0 1578 3 38 823
182 29 0 1569 0 46 790
184 23 0 1599 3 26 810
186 22 0 1595 2 31 800
188 22 0 1601 1 30 848
190 21 0 1594 1 32 804
192 21 0 1587 0 30 825
194 22 0 1591 3 30 809
196 22 0 1584 1 37 804
198 21 0 1579 0 38 789
200 14 0 1599 2 30 793
