0 457 0 0 0 0 785
2 413 0 0 38 0 814
4.00004 392 0 0 56 0 803
6 406 0 0 48 0 828
8 413 0 0 38 0 799
10 401 0 0 35 0 812
12 400 0 0 40 0 798
14 403 0 0 42 0 793
16 409 0 0 39 0 813
18 405 0 0 49 0 806
20 411 0 0 42 0 824
22 426 0 0 39 0 812
24 419 0 0 50 0 771
26 424 0 0 37 0 794
28 412 0 0 45 0 764
30 425 0 0 39 0 803
32 408 0 0 49 0 809
34 412 0 0 50 0 825
36 419 0 0 52 0 810
38 417 0 0 53 0 808
40 434 0 0 44 0 826
42 429 0 0 55 0 809
44 427 0 0 53 0 802
46 431 0 0 47 0 818
48 421 0 0 49 0 808
50 413 0 0 58 0 813
52 428 0 0 50 0 798
54 426 0 2 52 0 816
56 425 0 11 50 0 822
58 432 0 11 45 9 808
60 403 0 18 53 5 782
62 386 0 33 47 3 803
64 386 0 38 44 5 797
66 378 0 42 53 9 788
68 374 0 59 46 10 805
70 367 0 70 34 8 758
72 355 0 81 43 11 781
74 343 0 93 39 12 803
76 321 0 94 45 18 811
78 330 0 100 34 16 785
80 310 0 112 40 15 810
82 311 0 116 40 16 798
84 298 0 121 31 24 797
86 291 0 143 32 17 808
88 275 0 147 33 18 804
90 268 0 162 28 17 813
92 261 0 170 29 18 807
94 259 0 165 20 25 797
96 248 0 185 22 14 791
98 239 0 187 26 22 796
100 232 0 195 23 21 790
102 215 0 190 29 36 801
104 216 0 198 16 32 776
106 193 0 208 26 27 806
108 181 0 219 21 19 765
110 176 0 219 18 26 812
112 173 0 231 19 21 788
114 161 0 236 18 28 827
116 154 0 238 19 40 804
118 149 0 243 17 42 801
120 144 0 258 13 34 773
122 139 0 274 17 28 788
124 141 0 274 12 30 820
126 132 0 279 12 31 790
128 112 0 286 23 36 796
130 121 0 293 12 36 817
132 117 0 302 12 34 788
134 103 0 308 18 33 825
136 111 0 291 7 51 776
138 107 0 300 13 40 804
140 104 0 309 11 38 810
142 100 0 313 13 39 800
144 91 0 320 10 26 785
146 89 0 307 8 44 807
148 81 0 321 8 37 777
150 74 0 330 12 37 804
152 79 0 325 6 42 797
154 76 0 323 8 46 790
156 70 0 350 7 38 807
158 67 0 351 7 44 815
160 70 0 351 4 46 804
162 59 0 347 11 57 781
164 57 0 367 11 40 819
166 58 0 374 7 41 807
168 52 0 378 7 46 787
170 50 0 388 6 41 830
172 49 0 381 4 44 790
174 48 0 379 4 44 801
176 43 0 377 8 45 787
178 47 0 371 1 39 806
180 39 0 371 8 38 777
182 39 0 368 3 46 810
184 34 0 374 4 37 790
186 34 0 379 4 33 800
188 35 0 359 2 50 752
190 33 0 370 3 46 796
192 31 0 377 4 50 775
194 29 0 384 2 39 791
196 26 0 385 2 43 796
198 26 0 393 1 42 811
200 22 0 375 4 54 807
