0 675 0 0 0 0 810
2 630 0 0 60 0 799
4.00004 636 0 0 79 0 824
6 663 0 0 66 0 789
8 684 0 0 62 0 824
10 685 0 0 71 0 793
12 707 0 0 63 0 822
14 735 0 0 64 0 785
16 753 0 0 70 0 792
18 758 0 0 79 0 782
20 788 0 0 75 0 780
22 809 0 0 75 0 787
24 814 0 0 78 0 800
26 816 0 0 82 0 789
28 832 0 0 76 0 794
30 832 0 0 82 0 793
32 843 0 0 76 0 812
34 852 0 0 68 0 800
36 842 0 0 81 0 793
38 851 0 0 94 0 775
40 858 0 0 87 0 799
42 891 0 0 62 0 803
44 871 0 0 91 0 811
46 888 0 0 91 0 805
48 894 0 0 81 0 803
50 894 0 0 90 0 799
52 896 0 1 92 0 784
54 875 0 3 106 3 783
56 901 0 12 80 6 788
58 889 0 22 93 2 805
60 901 0 26 75 8 799
62 885 0 33 87 10 793
64 870 0 44 93 12 779
66 876 0 61 90 12 791
68 876 0 77 77 13 794
70 866 0 87 82 14 805
72 858 0 107 86 10 830
74 840 0 118 87 13 809
76 850 0 136 72 13 801
78 830 0 155 84 13 803
80 823 0 171 72 13 818
82 810 0 177 73 23 783
84 791 0 193 80 18 804
86 777 0 199 78 25 824
88 768 0 218 78 26 795
90 762 0 231 66 27 821
92 755 0 239 62 35 826
94 741 0 259 61 23 828
96 718 0 270 73 22 792
98 695 0 278 78 26 802
100 710 0 297 54 31 793
102 692 0 287 66 49 756
104 680 0 314 65 36 810
106 667 0 331 60 36 774
108 662 0 351 58 25 792
110 652 0 360 60 28 789
112 642 0 360 52 41 780
114 620 0 362 61 50 805
116 626 0 387 46 44 802
118 600 0 393 58 50 797
120 587 0 407 70 47 802
122 596 0 415 48 47 812
124 583 0 430 54 41 793
126 586 0 429 45 45 829
128 573 0 432 50 54 836
130 564 0 453 48 39 779
132 550 0 463 50 44 822
134 548 0 471 43 49 803
136 521 0 477 61 55 785
138 520 0 495 51 48 802
140 514 0 497 46 55 776
142 499 0 515 49 55 816
144 499 0 527 45 47 819
146 495 0 532 39 55 809
148 481 0 532 38 60 781
150 468 0 544 44 54 778
152 474 0 559 29 45 795
154 456 0 558 41 54 810
156 451 0 554 40 59 800
158 450 0 558 32 62 778
160 433 0 570 43 56 777
162 426 0 580 40 61 776
164 414 0 588 46 64 786
166 420 0 612 28 44 796
168 424 0 603 21 67 798
170 413 0 603 28 72 794
172 403 0 603 31 68 801
174 388 0 621 40 61 794
176 398 0 628 23 59 826
178 380 0 636 38 62 805
180 375 0 648 33 62 808
182 368 0 650 41 69 790
184 372 0 665 33 59 834
186 358 0 664 39 58 811
188 360 0 660 26 64 784
190 347 0 668 35 67 807
192 340 0 673 34 70 788
194 346 0 715 25 46 772
196 334 0 704 33 67 788
198 330 0 710 33 73 791
200 314 0 716 43 77 822
