0 545 0 0 0 0 813
2 461 0 0 61 0 803
4.00004 468 0 0 51 0 770
6 452 0 0 56 0 819
8 464 0 0 41 0 813
10 436 0 0 46 0 774
12 451 0 0 44 0 794
14 438 0 0 42 0 809
16 429 0 0 44 0 794
18 429 0 0 53 0 790
20 429 0 0 36 0 833
22 414 0 0 39 0 797
24 415 0 0 50 0 830
26 402 0 0 42 0 773
28 399 0 0 39 0 794
30 387 0 0 37 0 777
32 386 0 0 44 0 800
34 376 0 0 49 0 812
36 384 0 0 41 0 786
38 396 0 0 42 0 813
40 378 0 0 28 0 793
42 399 0 0 29 0 802
44 386 0 0 39 0 766
46 367 0 0 38 0 814
48 370 0 0 54 0 785
50 367 0 0 34 0 788
52 369 0 0 36 0 792
54 358 0 4 44 2 776
56 352 0 11 35 3 788
58 339 0 18 47 5 799
60 349 0 32 28 2 780
62 344 0 41 27 6 777
64 338 0 56 25 8 801
66 300 0 78 32 12 781
68 294 0 87 31 9 837
70 278 0 104 33 10 810
72 276 0 125 30 7 812
74 262 0 118 24 22 791
76 257 0 139 27 22 787
78 240 0 142 21 13 808
80 227 0 152 18 23 811
82 220 0 164 20 17 830
84 213 0 172 23 25 782
86 200 0 186 19 18 764
88 186 0 199 18 26 811
90 178 0 210 12 23 831
92 170 0 216 14 28 794
94 153 0 229 14 18 818
96 149 0 230 15 36 781
98 144 0 254 12 24 814
100 141 0 251 7 43 814
102 127 0 283 9 21 828
104 124 0 284 15 30 791
106 113 0 282 14 31 798
108 117 0 291 6 20 804
110 105 0 287 4 32 795
112 91 0 294 13 20 813
114 92 0 289 7 27 787
116 84 0 299 12 42 796
118 78 0 308 6 29 809
120 80 0 299 4 35 795
122 74 0 296 10 29 829
124 75 0 308 5 30 793
126 71 0 318 7 38 791
128 72 0 330 4 31 781
130 64 0 327 3 33 794
132 63 0 332 3 33 788
134 54 0 325 7 46 823
136 49 0 341 4 33 784
138 45 0 333 6 39 792
140 45 0 331 5 42 791
142 40 0 352 7 30 798
144 46 0 340 3 37 804
146 41 0 358 4 32 778
148 41 0 369 1 29 810
150 39 0 351 3 41 806
152 35 0 365 2 44 796
154 33 0 366 2 45 811
156 30 0 373 1 51 831
158 32 0 387 1 41 795
160 29 0 399 2 40 808
162 27 0 378 1 40 801
164 21 0 380 2 49 803
166 22 0 403 3 41 766
168 22 0 396 2 33 806
170 25 0 375 1 35 806
172 20 0 381 1 37 817
174 19 0 379 3 48 816
176 19 0 380 1 32 764
178 18 0 382 0 36 798
180 16 0 405 2 26 780
182 19 0 392 0 58 780
184 19 0 408 0 34 805
186 17 0 404 1 44 786
188 18 0 402 1 42 799
190 17 0 394 1 44 812
192 15 0 406 2 33 821
194 14 0 371 0 54 814
196 12 0 396 1 45 816
198 14 0 399 0 38 787
200 13 0 392 1 36 787
