0 61 0 0 0
2 60 0 2 0
4.00004 60 0 1 0
6 60 0 1 0
8 59 0 2 0
10 61 0 1 0
12 64 0 0 0
14 62 0 0 0
16 60 0 2 0
18 60 0 2 0
20 60 0 3 0
22 59 0 3 0
24 60 0 0 0
26 59 0 1 0
28 60 0 0 0
30 59 0 2 0
32 61 0 0 0
34 60 0 1 0
36 61 0 0 0
38 62 0 0 0
40 62 0 0 0
42 61 0 2 0
44 62 0 0 0
46 61 0 1 0
48 62 0 0 0
50 61 0 1 0
52 58 0 3 0
54 59 0 0 0
56 60 0 0 0
58 59 0 0 0
60 59 0 1 0
62 58 0 2 0
64 60 0 0 0
66 59 0 1 0
68 60 1 0 0
70 61 1 0 0
72 61 1 1 0
74 61 1 1 0
76 61 1 1 0
78 62 0 1 1
80 62 0 0 1
82 60 1 2 0
84 62 1 0 0
86 60 1 1 1
88 60 2 1 0
90 60 2 1 0
92 60 2 1 0
94 60 2 1 0
96 61 0 0 1
98 61 1 1 0
100 61 1 1 1
102 61 1 0 0
104 60 2 2 0
106 61 0 1 2
108 62 1 0 0
110 61 3 1 0
112 62 2 0 1
114 62 3 0 1
116 61 4 0 0
118 61 4 0 0
120 61 2 1 1
122 61 3 1 0
124 61 4 0 0
126 61 4 0 0
128 60 4 0 0
130 60 2 0 2
132 58 4 2 0
134 57 3 2 0
136 58 4 1 0
138 59 3 1 0
140 59 3 0 1
142 58 3 1 1
144 57 4 3 0
146 58 4 1 0
148 59 4 0 0
150 58 4 1 0
152 58 4 1 0
154 58 4 1 0
156 59 4 0 0
158 58 4 1 0
160 59 5 0 0
162 59 5 0 0
164 58 5 1 0
166 58 5 1 0
168 58 5 1 0
170 59 4 0 1
172 59 4 0 0
174 59 4 0 0
176 58 4 1 1
178 57 4 1 0
180 57 5 1 0
182 57 5 1 0
184 57 6 1 0
186 57 5 1 1
188 57 5 1 1
190 58 6 0 0
192 56 5 1 2
194 56 5 1 1
196 56 6 1 0
198 57 6 0 0
200 57 6 0 2
202 55 7 2 1
204 55 8 0 0
206 55 7 0 0
208 54 7 0 0
210 54 7 0 0
212 54 7 1 0
214 54 8 0 0
216 53 8 1 0
218 53 8 1 0
220 54 8 0 0
222 54 8 0 0
224 54 8 0 0
226 53 8 1 0
228 54 9 2 0
230 53 8 1 1
232 54 8 0 0
234 54 8 0 0
236 50 8 4 0
238 55 8 0 0
240 52 8 2 0
242 53 8 2 0
244 54 8 0 0
246 53 8 1 0
248 54 8 0 0
250 54 8 1 0
252 54 8 1 0
254 53 8 2 0
256 53 8 1 0
258 54 8 0 0
260 54 8 0 0
262 53 8 1 0
264 54 8 0 0
266 54 8 0 0
268 54 8 0 0
270 52 8 2 0
272 53 8 1 0
274 52 8 2 0
276 53 8 1 0
278 51 8 1 0
280 52 8 0 0
282 50 8 2 0
284 52 8 1 0
286 53 8 0 0
288 52 8 0 0
290 52 8 0 0
292 49 9 2 0
294 50 8 2 1
296 49 9 3 0
298 52 9 0 1
300 51 9 1 0
302 52 9 0 0
304 51 9 1 0
306 50 9 1 0
308 51 9 1 0
310 51 9 1 0
312 52 9 0 0
314 52 9 0 0
316 52 9 0 0
318 52 9 0 0
320 51 10 1 0
322 50 10 2 0
324 52 9 0 0
326 51 9 1 0
328 52 8 0 2
330 52 9 0 0
332 52 9 0 0
334 52 8 0 1
336 50 9 2 1
338 52 11 0 0
340 51 11 1 0
342 52 12 0 1
344 51 12 1 0
346 52 11 0 1
348 52 12 0 0
350 51 13 1 0
