0 65 0 0 0
2 65 0 0 0
4.00004 64 0 1 0
6 65 0 0 0
8 63 0 1 0
10 63 0 2 0
12 65 0 1 0
14 66 0 1 0
16 66 0 3 0
18 69 0 1 0
20 66 0 2 0
22 68 0 1 0
24 66 0 2 0
26 67 0 1 0
28 66 0 2 0
30 68 0 1 0
32 67 0 1 0
34 67 0 2 0
36 68 0 1 0
38 69 0 1 0
40 69 0 0 0
42 67 0 3 0
44 66 0 4 0
46 69 0 2 0
48 70 0 1 0
50 66 0 2 0
52 67 0 1 0
54 65 0 2 0
56 67 0 0 0
58 65 0 3 0
60 66 0 0 0
62 65 0 1 0
64 65 0 1 0
66 66 0 1 0
68 68 0 0 0
70 64 0 2 0
72 66 0 1 0
74 67 0 0 0
76 64 0 1 0
78 63 0 1 0
80 64 0 2 0
82 63 0 3 0
84 65 0 0 0
86 65 0 0 0
88 65 0 0 1
90 65 1 0 0
92 63 0 2 1
94 66 0 0 1
96 64 1 0 0
98 61 1 4 0
100 62 0 1 1
102 62 1 0 0
104 62 1 0 0
106 64 0 0 1
108 62 1 1 0
110 61 1 1 0
112 61 1 1 0
114 61 1 1 0
116 61 1 2 0
118 63 1 0 0
120 63 1 0 0
122 60 1 1 0
124 59 0 2 1
126 61 1 1 0
128 61 1 0 0
130 61 1 0 0
132 62 1 0 0
134 62 1 0 0
136 60 1 2 0
138 62 1 0 0
140 61 1 2 0
142 63 2 0 0
144 63 2 0 0
146 59 1 4 1
148 63 2 0 0
150 63 3 0 0
152 63 3 0 0
154 63 2 0 1
156 63 3 0 0
158 63 3 0 0
160 63 3 0 0
162 62 3 1 0
164 63 3 0 0
166 63 4 1 0
168 62 4 1 0
170 61 4 1 0
172 62 4 0 0
174 60 4 2 0
176 62 4 1 0
178 63 4 0 0
180 61 4 2 0
182 61 4 1 0
184 62 4 1 0
186 62 4 1 0
188 60 3 2 1
190 59 4 3 0
192 59 4 4 0
194 61 3 1 2
196 62 4 0 1
198 60 5 2 0
200 60 5 0 1
202 60 6 0 0
204 59 5 1 0
206 57 5 1 0
208 57 4 1 2
210 57 5 1 0
212 57 6 1 0
214 59 5 1 0
216 59 6 0 0
218 57 6 2 0
220 59 4 1 2
222 59 6 1 0
224 61 6 0 0
226 60 6 0 0
228 59 6 1 0
230 60 7 0 0
232 59 7 1 0
234 60 7 0 0
236 60 7 0 1
238 59 8 0 0
240 59 8 0 0
242 59 8 0 0
244 59 8 0 0
246 59 7 0 1
248 59 8 0 0
250 57 7 2 1
252 59 8 0 0
254 59 8 0 1
256 58 8 1 1
258 58 9 0 0
260 58 9 0 0
262 58 8 0 1
264 58 9 0 0
266 58 9 0 0
268 57 8 1 1
270 57 9 1 0
272 57 9 0 0
274 56 9 1 0
276 55 9 2 0
278 58 9 0 1
280 57 11 1 0
282 58 8 0 3
284 57 11 1 1
286 58 11 0 2
288 58 10 0 2
290 58 12 1 0
292 58 10 1 0
294 59 10 0 0
296 58 10 1 0
298 58 10 1 0
300 57 10 1 0
302 57 10 1 0
304 57 10 0 0
306 58 10 0 0
308 58 10 0 0
310 58 11 0 0
312 58 10 0 1
314 58 11 0 0
316 58 11 1 0
318 57 11 1 0
320 58 11 0 0
322 57 11 1 0
324 58 11 0 1
326 59 11 0 1
328 59 12 0 0
330 57 12 2 0
332 58 12 0 0
334 58 12 0 0
336 56 12 2 0
338 57 13 1 0
340 58 13 0 0
342 58 13 0 0
344 58 12 0 1
346 57 12 1 1
348 58 13 0 0
350 58 12 0 0
