0 70 0 0 0
2 68 0 1 0
4.00004 68 0 1 0
6 68 0 1 0
8 68 0 1 0
10 66 0 4 0
12 70 0 1 0
14 69 0 2 0
16 68 0 2 0
18 67 0 4 0
20 67 0 3 0
22 70 0 1 0
24 70 0 1 0
26 69 0 2 0
28 66 0 4 0
30 69 0 1 0
32 70 0 1 0
34 69 0 0 0
36 68 0 2 0
38 66 0 3 0
40 67 0 3 0
42 67 0 3 0
44 68 0 2 0
46 68 0 1 0
48 69 0 0 0
50 67 0 0 0
52 64 0 4 0
54 67 0 1 0
56 67 0 1 0
58 63 0 4 0
60 64 0 2 0
62 66 0 1 0
64 66 0 1 0
66 67 0 0 0
68 65 0 3 0
70 65 0 2 0
72 64 0 3 0
74 66 0 2 0
76 64 0 4 0
78 63 0 3 0
80 64 0 3 0
82 63 1 2 0
84 64 1 2 0
86 65 1 1 0
88 65 0 1 1
90 62 1 5 0
92 66 1 1 0
94 66 2 1 0
96 68 2 2 0
98 67 2 2 0
100 69 2 0 0
102 68 1 1 0
104 66 1 1 0
106 66 1 2 0
108 67 1 1 0
110 67 1 1 0
112 67 1 1 0
114 65 1 2 0
116 66 1 0 0
118 63 1 3 1
120 64 2 2 0
122 64 2 0 0
124 64 2 0 0
126 63 2 2 0
128 64 2 1 0
130 67 3 0 0
132 67 3 0 0
134 66 2 2 1
136 68 2 0 1
138 67 3 0 0
140 65 4 1 0
142 64 3 1 1
144 64 3 1 1
146 63 3 2 1
148 65 4 0 0
150 66 3 0 1
152 66 4 0 0
154 64 4 2 0
156 64 4 0 1
158 66 6 0 0
160 64 6 2 0
162 64 6 3 1
164 63 7 4 0
166 66 5 1 0
168 67 4 0 1
170 66 8 1 0
172 66 6 0 1
174 65 4 1 1
176 65 4 1 0
178 65 5 0 0
180 64 5 1 0
182 63 3 1 2
184 63 5 1 0
186 63 5 1 0
188 64 4 0 1
190 63 5 1 0
192 64 5 0 0
194 64 5 0 0
196 64 4 0 1
198 64 5 0 0
200 62 5 2 0
202 64 5 1 0
204 64 5 1 0
206 64 4 0 1
208 64 5 1 0
210 64 6 1 0
212 64 6 1 0
214 61 7 4 0
216 60 7 5 0
218 64 7 1 0
220 63 6 2 1
222 65 7 0 0
224 64 6 1 1
226 63 8 2 0
228 63 8 2 0
230 65 8 0 0
232 65 8 0 0
234 64 8 0 0
236 64 8 0 0
238 63 8 0 0
240 63 8 1 0
242 62 8 1 0
244 62 9 1 0
246 62 9 0 0
248 61 8 1 0
250 62 8 1 0
252 62 8 0 0
254 62 9 1 0
256 63 8 0 1
258 61 9 2 0
260 61 9 2 0
262 63 8 0 1
264 63 8 0 1
266 62 9 1 0
268 61 9 1 0
270 61 9 1 0
272 61 9 0 0
274 59 9 1 0
276 60 8 1 1
278 61 9 0 1
280 60 9 2 1
282 62 10 0 0
284 62 10 0 0
286 61 10 2 0
288 60 10 2 0
290 63 10 0 0
292 63 10 0 0
294 62 10 1 0
296 63 9 0 1
298 61 9 1 0
300 62 9 1 0
302 63 9 0 0
304 58 9 5 1
306 58 8 5 1
308 62 9 1 0
310 62 9 1 0
312 61 8 2 1
314 60 9 2 0
316 60 10 2 0
318 60 9 2 0
320 62 9 0 0
322 61 10 0 0
324 61 10 1 0
326 62 10 0 0
328 61 11 1 0
330 62 10 0 1
332 62 11 0 1
334 60 11 1 0
336 61 11 0 0
338 61 11 0 0
340 60 11 1 1
342 63 12 0 0
344 63 12 0 0
346 61 13 0 0
348 60 12 1 1
350 62 12 1 1
