0 1023 0 0 0 0 0
2 989 30 0 2 0 0
4.00004 996 25 0 0 0 0
6 1002 20 0 3 0 0
8 998 37 0 1 0 0
10 1005 32 0 4 0 0
12 994 35 0 4 0 0
14 1005 29 0 3 0 0
16 998 35 0 4 0 0
18 993 38 0 2 0 0
20 1004 32 0 2 0 0
22 999 33 0 4 0 0
24 1012 24 0 2 0 0
26 996 37 0 4 0 0
28 993 39 0 1 0 0
30 995 40 0 5 0 0
32 1015 28 0 0 0 0
34 1007 37 0 1 0 0
36 1001 42 0 1 0 0
38 1011 29 0 0 0 0
40 1014 37 0 4 0 0
42 1024 31 0 1 0 0
44 1010 39 0 2 0 0
46 1019 33 0 0 0 0
48 1006 37 0 10 0 0
50 1007 36 0 2 0 0
52 838 1 213 3 0 0
54 755 0 293 1 2 0
56 694 0 350 1 3 0
58 656 0 392 0 1 0
60 625 0 421 1 2 0
62 585 1 452 0 2 0
64 546 0 497 0 3 0
66 518 0 518 0 1 0
68 482 0 550 0 5 0
70 451 0 575 1 2 0
72 425 0 606 1 1 0
74 387 0 642 1 1 0
76 373 0 656 2 2 0
78 347 0 684 1 1 0
80 325 0 712 0 1 0
82 308 0 722 1 2 0
84 296 0 739 0 4 0
86 274 0 765 1 0 0
88 259 0 778 1 1 0
90 240 0 799 0 1 0
92 227 0 811 0 2 0
94 204 0 832 0 2 0
96 186 0 848 1 5 0
98 185 0 850 0 5 0
100 171 0 863 1 2 0
102 158 0 876 2 1 0
104 154 1 886 1 1 0
106 146 0 895 1 4 0
108 138 0 907 1 2 0
110 128 0 910 0 0 0
112 123 0 918 0 1 0
114 119 0 920 0 5 0
116 104 0 923 0 3 0
118 94 0 933 0 5 0
120 93 0 930 1 3 0
122 90 0 940 1 2 0
124 82 0 944 0 1 0
126 75 0 948 0 0 0
128 74 0 954 0 1 0
130 67 0 959 0 5 0
132 58 0 962 0 1 0
134 55 0 961 2 2 0
136 50 0 970 2 3 0
138 47 0 973 1 2 0
140 47 0 983 1 2 0
142 48 0 985 0 2 0
144 46 0 985 0 4 0
146 40 0 995 0 2 0
148 38 0 992 1 2 0
150 40 0 989 0 2 0
152 43 0 1001 0 1 0
154 34 0 1011 1 7 0
156 29 0 1014 0 3 0
158 27 0 1016 1 6 0
160 29 0 1011 1 1 0
162 23 0 1010 1 2 0
164 24 0 1012 2 3 0
166 25 0 1008 0 4 0
168 19 0 1013 1 1 0
170 20 0 1009 0 3 0
172 16 0 1013 0 3 0
174 20 0 1017 1 1 0
176 14 0 1019 0 2 0
178 16 0 1015 0 4 0
180 13 0 1014 0 2 0
182 15 0 1020 0 0 0
184 13 0 1028 0 0 0
186 13 0 1024 1 3 0
188 15 0 1018 2 4 0
190 17 0 1022 1 6 0
192 12 0 1023 0 2 0
194 10 0 1018 1 3 0
196 13 0 1014 0 2 0
198 10 0 1012 2 2 0
200 12 0 1016 1 3 0
