0 908 0 0 0 0 0
2 860 45 0 4 0 0
4.00004 870 39 0 0 0 0
6 856 52 0 2 0 0
8 861 46 0 5 0 0
10 873 39 0 1 0 0
12 876 36 0 0 0 0
14 871 39 0 5 0 0
16 863 42 0 4 0 0
18 865 45 0 1 0 0
20 867 45 0 3 0 0
22 871 33 0 3 0 0
24 876 30 0 2 0 0
26 872 34 0 3 0 0
28 863 43 0 0 0 0
30 869 42 0 4 0 0
32 881 33 0 1 0 0
34 867 43 0 1 0 0
36 867 37 0 4 0 0
38 861 31 0 4 0 0
40 855 42 0 6 0 0
42 876 26 0 1 0 0
44 868 31 0 6 0 0
46 872 39 0 4 0 0
48 864 35 0 7 0 0
50 875 27 0 6 0 0
52 714 0 191 2 1 0
54 633 0 278 1 1 0
56 581 0 325 1 2 0
58 534 0 380 1 3 0
60 492 0 420 2 4 0
62 440 1 475 1 3 0
64 397 0 523 0 2 0
66 358 1 552 1 2 0
68 329 0 583 0 1 0
70 299 0 610 0 3 0
72 274 0 639 0 2 0
74 246 0 665 2 3 0
76 233 0 680 0 2 0
78 210 1 698 1 2 0
80 199 0 710 1 0 0
82 179 0 727 1 5 0
84 161 0 741 0 2 0
86 146 0 758 0 1 0
88 136 0 763 1 2 0
90 117 1 789 2 0 0
92 104 0 793 1 2 0
94 100 0 799 1 5 0
96 89 0 814 1 1 0
98 79 0 827 0 2 0
100 74 0 830 0 1 0
102 68 0 824 0 3 0
104 71 0 829 0 1 0
106 66 0 838 2 4 0
108 62 0 846 0 1 0
110 48 0 856 1 2 0
112 45 1 860 0 3 0
114 39 0 864 2 1 0
116 34 1 874 0 3 0
118 31 0 872 1 6 0
120 31 0 877 0 3 0
122 30 0 878 0 4 0
124 28 0 891 0 2 0
126 23 0 888 0 2 0
128 27 0 895 0 1 0
130 20 0 898 0 3 0
132 22 0 891 0 3 0
134 18 0 895 3 4 0
136 18 0 897 2 2 0
138 18 0 894 1 0 0
140 15 0 901 0 4 0
142 11 0 902 0 3 0
144 12 0 901 0 2 0
146 11 0 903 0 1 0
148 10 0 900 0 3 0
150 11 0 905 2 1 0
152 11 0 905 1 2 0
154 9 0 897 1 8 0
156 9 0 894 1 4 0
158 10 0 897 1 5 0
160 10 0 898 2 1 0
162 11 0 902 1 2 0
164 8 0 909 2 2 0
166 9 0 908 0 2 0
168 8 0 919 0 6 0
170 6 0 923 2 4 0
172 6 0 925 0 3 0
174 10 0 928 1 3 0
176 8 0 928 1 3 0
178 5 0 930 0 3 0
180 10 0 930 1 3 0
182 6 0 939 1 0 0
184 6 0 935 3 3 0
186 5 0 932 0 2 0
188 8 0 932 0 3 0
190 9 0 935 0 3 0
192 3 0 943 1 0 0
194 6 0 937 1 4 0
196 4 0 939 0 3 0
198 4 0 937 0 1 0
200 4 0 938 1 1 0
