0 979 0 0 0 0 0
2 939 43 0 1 0 0
4.00004 936 43 0 4 0 0
6 933 61 0 2 0 0
8 940 52 0 4 0 0
10 933 65 0 2 0 0
12 931 70 0 2 0 0
14 934 58 0 3 0 0
16 937 50 0 6 0 0
18 933 60 0 7 0 0
20 947 47 0 2 0 0
22 940 46 0 8 0 0
24 945 52 0 6 0 0
26 953 51 0 5 0 0
28 969 45 0 2 0 0
30 952 63 0 3 0 0
32 945 62 0 5 0 0
34 949 54 0 5 0 0
36 944 67 0 5 0 0
38 964 48 0 2 0 0
40 962 50 0 6 0 0
42 970 44 0 8 0 0
44 941 64 0 4 0 0
46 968 52 0 2 0 0
48 959 63 0 2 0 0
50 983 45 0 4 0 0
52 726 1 301 0 1 0
54 632 0 399 0 1 0
56 551 0 470 2 6 0
58 493 0 538 1 3 0
60 448 0 585 0 2 0
62 391 0 641 3 2 0
64 347 1 684 1 6 0
66 318 0 718 0 3 0
68 281 1 755 0 3 0
70 261 0 772 2 4 0
72 240 0 796 2 4 0
74 206 0 833 0 4 0
76 181 0 863 1 5 0
78 169 0 892 0 1 0
80 134 0 911 1 3 0
82 118 0 927 1 4 0
84 114 0 916 1 7 0
86 97 0 938 2 6 0
88 86 0 943 0 4 0
90 82 0 952 4 3 0
92 74 0 973 1 0 0
94 58 0 971 2 8 0
96 58 0 978 1 3 0
98 52 0 986 1 4 0
100 48 0 994 1 2 0
102 46 1 995 1 4 0
104 40 0 1000 2 4 0
106 38 0 1008 1 3 0
108 35 0 1011 1 3 0
110 34 0 1012 1 4 0
112 29 0 1026 2 1 0
114 27 0 1027 1 6 0
116 31 0 1022 0 6 0
118 29 0 1029 0 4 0
120 23 0 1026 1 7 0
122 27 0 1030 2 5 0
124 19 0 1035 0 5 0
126 24 0 1034 2 5 0
128 13 0 1040 1 6 0
130 16 0 1037 1 7 0
132 16 1 1039 1 3 0
134 12 0 1037 0 5 0
136 11 0 1036 1 6 0
138 8 0 1043 0 7 0
140 9 0 1042 2 5 0
142 6 0 1051 2 2 0
144 5 0 1051 1 0 0
146 4 0 1049 0 4 0
148 3 0 1043 4 3 0
150 4 0 1037 1 1 0
152 7 0 1042 0 3 0
154 2 0 1045 0 6 0
156 6 0 1054 0 5 0
158 5 0 1056 0 5 0
160 7 1 1068 1 2 0
162 5 0 1073 0 4 0
164 3 0 1060 0 4 0
166 6 0 1061 0 4 0
168 6 0 1062 1 4 0
170 6 0 1067 1 3 0
172 11 0 1072 1 4 0
174 6 0 1078 0 8 0
176 6 0 1084 1 4 0
178 7 0 1086 0 7 0
180 3 0 1095 0 3 0
182 3 0 1083 1 7 0
184 4 0 1082 1 4 0
186 5 0 1077 2 7 0
188 3 0 1075 0 9 0
190 9 0 1073 0 7 0
192 4 0 1075 0 5 0
194 2 0 1074 1 5 0
196 6 0 1072 0 5 0
198 2 0 1070 0 3 0
200 5 0 1073 0 2 0
