0 893 0 0 0 0 0
2 853 39 0 2 0 0
4.00004 864 36 0 1 0 0
6 858 51 0 4 0 0
8 881 34 0 4 0 0
10 876 42 0 5 0 0
12 889 36 0 1 0 0
14 889 36 0 8 0 0
16 882 48 0 5 0 0
18 886 44 0 4 0 0
20 892 36 0 6 0 0
22 888 43 0 4 0 0
24 904 35 0 2 0 0
26 892 50 0 4 0 0
28 898 55 0 1 0 0
30 917 41 0 1 0 0
32 901 54 0 4 0 0
34 924 39 0 3 0 0
36 921 45 0 4 0 0
38 920 40 0 3 0 0
40 926 42 0 2 0 0
42 928 47 0 4 0 0
44 932 45 0 2 0 0
46 941 35 0 4 0 0
48 942 43 0 2 0 0
50 950 42 0 4 0 0
52 772 1 222 3 3 0
54 662 0 323 1 6 0
56 563 0 441 1 2 0
58 482 1 524 0 3 0
60 417 1 593 1 5 0
62 370 0 654 1 4 0
64 315 0 725 0 2 0
66 272 0 759 0 4 0
68 241 0 781 1 2 0
70 205 0 812 0 4 0
72 165 0 852 0 2 0
74 140 0 882 1 4 0
76 120 0 901 1 4 0
78 104 0 931 2 3 0
80 86 0 949 1 1 0
82 69 0 968 0 4 0
84 57 0 980 1 4 0
86 47 0 999 0 4 0
88 44 0 1000 2 4 0
90 38 0 1005 0 7 0
92 27 0 1024 1 3 0
94 22 0 1028 0 4 0
96 20 0 1028 0 2 0
98 14 0 1034 0 4 0
100 12 0 1038 0 3 0
102 8 1 1044 0 6 0
104 6 0 1050 0 2 0
106 5 0 1051 2 7 0
108 3 0 1061 1 2 0
110 3 0 1067 0 1 0
112 3 0 1067 0 5 0
114 2 0 1070 2 1 0
116 1 0 1081 0 5 0
118 1 0 1084 1 4 0
120 1 0 1088 0 4 0
122 1 0 1091 0 5 0
124 1 0 1087 0 4 0
126 1 0 1088 0 3 0
128 1 0 1092 1 3 0
130 1 0 1091 3 7 0
132 1 0 1100 1 2 0
134 1 0 1097 0 4 0
136 1 0 1099 1 2 0
138 1 0 1106 1 0 0
140 1 0 1111 1 3 0
142 1 0 1110 0 4 0
144 0 0 1108 1 5 0
146 0 0 1104 0 3 0
148 0 0 1096 0 2 0
150 0 0 1090 0 7 0
152 0 0 1103 1 2 0
154 0 0 1092 0 5 0
156 0 0 1085 0 3 0
158 0 0 1089 1 5 0
160 0 0 1091 0 5 0
162 0 0 1098 0 4 0
164 0 0 1106 0 3 0
166 0 0 1109 0 3 0
168 0 0 1101 0 8 0
170 0 0 1103 0 2 0
172 0 0 1096 0 5 0
174 0 0 1093 0 4 0
176 0 0 1096 1 2 0
178 0 0 1097 0 2 0
180 0 0 1089 0 4 0
182 0 0 1085 0 5 0
184 0 0 1082 1 4 0
186 0 0 1073 0 6 0
188 0 0 1070 0 5 0
190 0 0 1067 0 2 0
192 0 0 1052 1 5 0
194 0 0 1049 0 5 0
196 0 0 1053 2 6 0
198 0 0 1061 0 3 0
200 0 0 1072 0 4 0
