0 1147 0 0 0 0 0
2 1142 0 0 4 0 0
4.00004 1143 0 0 4 0 0
6 1151 0 0 3 0 0
8 1152 0 0 7 0 0
10 1147 0 0 4 0 0
12 1142 0 0 7 0 0
14 1141 0 0 7 0 0
16 1149 0 0 2 0 0
18 1158 0 0 6 0 0
20 1150 0 0 4 0 0
22 1149 0 0 2 0 0
24 1139 0 0 4 0 0
26 1143 0 0 4 0 0
28 1141 0 0 7 0 0
30 1140 0 0 7 0 0
32 1133 0 0 6 0 0
34 1135 0 0 5 0 0
36 1135 0 0 3 0 0
38 1130 0 0 6 0 0
40 1137 0 0 6 0 0
42 1140 0 0 6 0 0
44 1141 0 0 5 0 0
46 1137 0 0 5 0 0
48 1143 0 0 3 0 0
50 1136 0 0 2 0 0
52 1127 0 6 4 1 0
54 1116 0 20 4 2 0
56 1101 0 34 4 3 0
58 1085 0 48 2 1 0
60 1067 0 68 4 2 0
62 1060 0 77 3 2 0
64 1051 0 86 0 2 0
66 1033 0 102 5 0 0
68 1024 0 110 3 1 0
70 1013 0 120 4 2 0
72 1006 0 129 2 0 0
74 1000 0 138 2 3 0
76 972 0 151 6 1 0
78 963 0 158 3 3 0
80 955 0 174 4 1 0
82 946 0 180 1 2 0
84 931 0 192 4 1 0
86 924 0 205 2 5 0
88 916 0 217 1 1 0
90 903 0 223 0 3 0
92 897 0 232 0 1 0
94 890 0 246 0 2 0
96 878 0 249 2 2 0
98 870 0 254 2 3 0
100 860 0 270 1 3 0
102 841 0 286 5 0 0
104 832 0 295 5 1 0
106 821 0 308 5 2 0
108 813 0 318 2 2 0
110 803 0 322 2 0 0
112 784 0 324 3 2 0
114 777 0 334 2 1 0
116 767 0 333 0 3 0
118 758 0 344 2 3 0
120 743 0 356 5 3 0
122 731 0 366 2 1 0
124 724 0 361 1 3 0
126 718 0 371 5 4 0
128 711 0 385 5 2 0
130 708 0 392 1 5 0
132 701 0 401 0 2 0
134 693 0 415 2 2 0
136 683 0 418 0 1 0
138 673 0 421 1 5 0
140 668 0 440 2 2 0
142 658 0 447 2 3 0
144 651 0 458 1 5 0
146 645 0 467 0 3 0
148 638 0 478 2 2 0
150 631 0 492 3 3 0
152 624 0 499 3 0 0
154 615 0 509 1 3 0
156 615 0 519 1 2 0
158 607 0 529 1 2 0
160 602 0 535 3 2 0
162 594 0 548 2 3 0
164 588 0 546 1 2 0
166 586 0 555 0 6 0
168 584 0 561 1 3 0
170 574 0 572 3 7 0
172 568 0 583 1 2 0
174 566 0 589 1 4 0
176 561 0 597 2 4 0
178 560 0 597 0 1 0
180 555 0 604 0 3 0
182 547 0 610 2 6 0
184 541 0 630 3 3 0
186 536 0 630 3 1 0
188 530 0 635 3 2 0
190 525 0 635 4 4 0
192 517 0 635 2 1 0
194 507 0 639 3 1 0
196 504 0 641 0 3 0
198 494 0 645 0 5 0
200 486 0 654 1 3 0
