0 1008 0 0 0 0 0
2 976 33 0 3 0 0
4.00004 966 44 0 3 0 0
6 971 48 0 2 0 0
8 984 34 0 0 0 0
10 974 38 0 7 0 0
12 977 45 0 3 0 0
14 964 52 0 3 0 0
16 965 48 0 5 0 0
18 975 45 0 4 0 0
20 966 54 0 6 0 0
22 975 48 0 1 0 0
24 968 52 0 4 0 0
26 981 42 0 3 0 0
28 960 62 0 6 0 0
30 963 54 0 1 0 0
32 958 54 0 4 0 0
34 966 62 0 2 0 0
36 980 45 0 4 0 0
38 986 40 0 2 0 0
40 968 45 0 8 0 0
42 957 47 0 6 0 0
44 951 52 0 4 0 0
46 941 53 0 7 0 0
48 971 39 0 2 0 0
50 967 34 0 3 0 0
52 727 0 286 1 0 0
54 640 0 379 3 0 0
56 585 0 439 3 2 0
58 528 2 491 1 5 0
60 494 0 530 0 7 0
62 447 1 577 2 4 0
64 408 0 625 2 2 0
66 382 1 645 1 7 0
68 352 1 677 1 3 0
70 326 0 703 2 2 0
72 292 1 728 2 5 0
74 266 0 759 0 3 0
76 254 0 780 3 2 0
78 237 0 801 1 6 0
80 217 1 825 0 1 0
82 201 0 837 3 3 0
84 187 0 841 2 4 0
86 178 2 853 0 5 0
88 168 0 868 1 2 0
90 156 0 866 0 5 0
92 146 0 873 1 3 0
94 130 0 885 2 3 0
96 122 0 895 0 0 0
98 118 0 902 2 3 0
100 105 0 922 0 2 0
102 91 0 935 2 4 0
104 83 0 947 1 3 0
106 78 0 946 0 4 0
108 75 0 948 0 5 0
110 74 0 955 2 1 0
112 68 0 961 0 2 0
114 62 0 970 1 2 0
116 50 0 981 1 3 0
118 51 0 986 0 1 0
120 52 0 989 1 0 0
122 45 0 990 1 4 0
124 34 0 1004 0 4 0
126 30 0 999 0 6 0
128 29 0 1002 3 4 0
130 28 1 994 1 4 0
132 26 0 1004 1 2 0
134 24 1 1011 1 4 0
136 21 0 1015 0 5 0
138 21 0 1022 0 3 0
140 19 0 1022 1 4 0
142 14 0 1019 2 6 0
144 18 0 1019 1 3 0
146 12 0 1018 0 5 0
148 13 0 1017 0 5 0
150 13 0 1015 1 3 0
152 10 0 1016 0 6 0
154 10 0 1010 4 4 0
156 8 0 1021 1 2 0
158 15 0 1020 1 2 0
160 8 0 1021 0 3 0
162 10 0 1021 0 3 0
164 9 1 1018 1 5 0
166 9 0 1019 0 3 0
168 6 0 1026 0 2 0
170 8 0 1025 0 5 0
172 6 0 1023 0 4 0
174 5 0 1018 0 3 0
176 9 0 1010 0 8 0
178 5 0 1020 0 5 0
180 8 0 1028 0 4 0
182 6 0 1031 0 3 0
184 8 0 1029 1 3 0
186 6 0 1028 2 2 0
188 6 0 1030 0 6 0
190 7 0 1023 0 4 0
192 8 0 1022 2 3 0
194 7 0 1017 0 2 0
196 5 0 1011 1 5 0
198 8 0 1006 0 4 0
200 10 0 1002 2 4 0
