0 949 0 0 0 0 0
2 883 56 0 9 0 0
4.00004 896 48 0 5 0 0
6 887 51 0 8 0 0
8 878 60 0 2 0 0
10 884 49 0 3 0 0
12 875 53 0 11 0 0
14 883 51 0 5 0 0
16 869 61 0 8 0 0
18 886 41 0 1 0 0
20 862 55 0 6 0 0
22 850 59 0 7 0 0
24 848 62 0 9 0 0
26 841 69 0 6 0 0
28 860 50 0 5 0 0
30 860 51 0 3 0 0
32 832 67 0 8 0 0
34 831 70 0 9 0 0
36 853 51 0 5 0 0
38 842 58 0 8 0 0
40 842 69 0 3 0 0
42 847 53 0 4 0 0
44 845 57 0 7 0 0
46 850 56 0 7 0 0
48 863 43 0 6 0 0
50 846 60 0 7 0 0
52 640 3 272 0 2 0
54 550 0 356 1 5 0
56 485 0 419 1 2 0
58 428 0 476 5 1 0
60 374 0 525 1 9 0
62 324 0 586 0 7 0
64 292 1 623 1 5 0
66 251 0 677 1 6 0
68 211 0 723 2 2 0
70 181 0 754 0 9 0
72 157 0 782 1 4 0
74 137 0 800 1 3 0
76 123 0 820 1 9 0
78 108 0 831 2 2 0
80 100 0 845 0 5 0
82 86 0 857 0 9 0
84 71 0 878 0 7 0
86 62 0 884 1 4 0
88 51 0 889 1 7 0
90 42 0 898 0 3 0
92 40 0 893 0 6 0
94 30 0 894 2 6 0
96 30 0 901 1 7 0
98 23 0 918 4 2 0
100 24 0 902 2 2 0
102 18 0 919 1 4 0
104 21 0 927 1 7 0
106 14 0 924 0 6 0
108 15 0 912 0 5 0
110 12 0 912 0 7 0
112 11 0 911 0 7 0
114 12 0 914 0 7 0
116 8 0 921 0 5 0
118 7 0 908 1 5 0
120 9 0 908 0 7 0
122 7 0 913 2 7 0
124 6 0 907 1 4 0
126 5 0 905 1 7 0
128 5 0 922 1 5 0
130 3 0 926 1 7 0
132 4 0 934 1 7 0
134 5 0 943 0 5 0
136 3 0 934 1 8 0
138 4 0 940 1 3 0
140 2 0 937 0 3 0
142 3 0 944 1 2 0
144 2 0 937 2 2 0
146 1 0 932 0 5 0
148 2 0 925 0 5 0
150 1 0 923 1 4 0
152 4 0 918 0 5 0
154 3 0 928 1 6 0
156 3 0 923 1 5 0
158 2 0 928 0 13 0
160 1 0 930 0 3 0
162 2 0 936 0 6 0
164 2 0 940 0 3 0
166 3 0 939 0 5 0
168 1 0 944 1 4 0
170 2 0 945 0 3 0
172 1 0 947 2 4 0
174 1 0 944 0 2 0
176 0 0 949 0 1 0
178 1 0 950 0 3 0
180 1 0 951 0 8 0
182 1 0 946 0 4 0
184 3 0 948 2 3 0
186 2 0 946 0 5 0
188 1 0 949 0 3 0
190 0 0 947 1 9 0
192 0 0 944 0 4 0
194 1 0 941 0 3 0
196 0 0 938 0 4 0
198 1 0 948 0 4 0
200 0 0 950 2 7 0
