0 1026 0 0 0 0 0
2 1018 0 0 7 0 0
4.00004 1021 0 0 3 0 0
6 1022 0 0 6 0 0
8 1024 0 0 1 0 0
10 1019 0 0 4 0 0
12 1018 0 0 4 0 0
14 1017 0 0 3 0 0
16 1016 0 0 3 0 0
18 1028 0 0 2 0 0
20 1016 0 0 4 0 0
22 1019 0 0 4 0 0
24 1022 0 0 8 0 0
26 1023 0 0 7 0 0
28 1014 0 0 5 0 0
30 1019 0 0 5 0 0
32 1021 0 0 7 0 0
34 1031 0 0 3 0 0
36 1018 0 0 7 0 0
38 1022 0 0 2 0 0
40 1023 0 0 3 0 0
42 1014 0 0 9 0 0
44 1020 0 0 3 0 0
46 1011 0 0 7 0 0
48 1018 0 0 1 0 0
50 1015 0 0 6 0 0
52 1014 0 8 4 1 0
54 1003 0 18 2 0 0
56 994 0 35 5 2 0
58 988 0 46 1 1 0
60 976 0 57 3 2 0
62 966 0 73 7 1 0
64 960 0 75 2 2 0
66 954 0 88 2 3 0
68 944 0 95 2 1 0
70 933 0 105 2 2 0
72 929 0 117 1 2 0
74 910 0 126 4 2 0
76 904 0 131 2 4 0
78 895 0 141 2 3 0
80 889 0 151 2 4 0
82 881 0 164 2 1 0
84 864 0 175 2 0 0
86 854 0 180 1 4 0
88 845 0 190 2 1 0
90 838 0 201 0 3 0
92 833 0 210 0 3 0
94 824 0 224 1 3 0
96 810 0 229 1 2 0
98 790 0 233 2 3 0
100 782 0 244 4 0 0
102 775 0 247 2 1 0
104 770 0 252 2 1 0
106 764 0 265 2 4 0
108 746 0 272 3 1 0
110 739 0 286 1 1 0
112 729 0 289 6 4 0
114 719 0 297 2 1 0
116 718 0 308 0 1 0
118 712 0 318 1 0 0
120 706 0 326 0 4 0
122 689 0 335 5 1 0
124 679 0 342 3 3 0
126 672 0 350 1 0 0
128 666 0 354 2 1 0
130 662 0 358 2 2 0
132 656 0 366 2 1 0
134 650 0 366 0 5 0
136 645 0 376 1 1 0
138 634 0 379 3 3 0
140 634 0 385 0 4 0
142 624 0 403 4 2 0
144 620 0 401 1 3 0
146 613 0 407 3 2 0
148 605 0 410 2 3 0
150 604 0 421 3 1 0
152 599 0 429 1 3 0
154 598 0 425 0 3 0
156 588 0 429 5 3 0
158 579 0 436 1 4 0
160 574 0 453 0 2 0
162 571 0 455 1 3 0
164 561 0 463 2 1 0
166 559 0 467 1 3 0
168 552 0 472 4 4 0
170 548 0 476 2 1 0
172 540 0 478 2 2 0
174 532 0 490 1 3 0
176 529 0 494 1 2 0
178 523 0 499 2 1 0
180 522 0 501 2 6 0
182 512 0 514 2 2 0
184 508 0 530 0 1 0
186 499 0 531 1 8 0
188 489 0 534 1 2 0
190 486 0 542 1 7 0
192 483 0 548 1 4 0
194 476 0 553 1 4 0
196 470 0 564 0 1 0
198 463 0 571 0 3 0
200 459 0 571 1 5 0
