0 4000 0 1000 0
2.0001 3124 968 801 107
4 2384 1648 678 290
6.0001 1882 2137 537 444
8.0001 1532 2526 407 535
10.0001 1176 2888 350 586
12.0001 938 3141 273 648
14.0001 737 3256 216 791
16.0001 601 3460 174 765
18.0001 490 3565 120 825
20.0001 379 3651 99 871
22.0001 280 3729 99 892
24.0001 223 3804 75 898
26.0001 173 3902 61 864
28.0001 160 3905 40 895
30.0001 122 3949 33 896
32.0001 98 3936 25 941
34 69 3964 17 950
36 51 4012 13 924
38 42 3997 10 951
40 30 4035 11 924
42 26 4041 7 926
44 25 4033 5 937
46 23 4033 3 941
48 10 4059 8 923
50 11 4000 3 986
52 8 4030 3 959
54 9 4057 0 934
56 5 4071 1 923
58 3 4071 3 923
60 5 4069 0 926
62 2 4025 1 972
64 3 4030 0 967
66 0 4065 0 935
68 0 4063 0 937
70 0 4024 0 976
72 0 4040 0 960
74 0 4004 0 996
76 0 4036 0 964
78 0 4089 0 911
80 0 4039 0 961
82 0 4041 0 959
84 0 4055 0 945
86 0 4046 0 954
88 0 4036 0 963
90 0 4008 0 992
92 0 4064 0 936
94 0 4039 0 961
96 0 4033 0 967
98 0 4029 0 971
100 0 4025 0 975
