0 3991 0 1009 0
2.0001 3065 946 893 96
4 2436 1560 714 290
6.0001 1877 2160 556 407
8.0001 1532 2534 408 526
10.0001 1210 2859 331 600
12.0001 953 3095 259 693
14.0001 734 3286 229 751
16.0001 575 3476 178 771
18.0001 444 3594 151 811
20.0001 356 3680 105 859
22.0001 281 3743 81 895
24.0001 221 3799 64 916
26.0001 170 3862 52 916
28.0001 138 3909 38 915
30.0001 107 3931 31 931
32.0001 82 3981 26 911
34 63 3937 20 980
36 45 3968 16 971
38 39 4031 10 920
40 27 3997 8 968
42 21 4032 4 943
44 14 3991 5 990
46 12 4010 6 972
48 10 4030 3 957
50 8 4018 1 973
52 7 4037 1 955
54 6 4008 1 985
56 1 4013 3 983
58 4 4073 0 923
60 3 4090 0 907
62 3 4022 0 975
64 2 4046 1 951
66 3 4020 0 977
68 2 4037 1 960
70 3 4025 0 972
72 3 4029 0 968
74 1 4029 2 968
76 3 4008 0 989
78 1 4012 2 985
80 2 4026 0 972
82 0 4041 0 959
84 0 4010 0 990
86 0 3995 0 1005
88 0 4074 0 926
90 0 3988 0 1012
92 0 4073 0 927
94 0 4026 0 974
96 0 4072 0 928
98 0 4057 0 943
100 0 4067 0 933
