0 4044 0 956 0
2.0001 3084 963 838 115
4 2417 1609 693 281
6.0001 1933 2160 522 385
8.0001 1547 2506 423 524
10.0001 1242 2810 300 648
12.0001 945 3100 259 696
14.0001 763 3268 216 753
16.0001 615 3395 158 832
18.0001 493 3553 122 832
20.0001 383 3644 108 865
22.0001 295 3709 96 900
24.0001 227 3810 75 888
26.0001 178 3821 55 946
28.0001 142 3890 43 925
30.0001 118 3894 31 957
32.0001 97 3945 21 937
34 69 4007 16 908
36 53 3936 16 995
38 46 3990 11 953
40 26 4017 17 940
42 21 4045 12 922
44 19 3997 8 976
46 16 3980 6 998
48 11 4060 5 924
50 15 4027 0 958
52 7 4046 3 944
54 7 4012 3 978
56 5 4019 4 972
58 6 4012 2 980
60 8 3985 0 1007
62 5 4098 1 896
64 4 4003 1 992
66 2 4064 1 933
68 1 4091 1 907
70 2 4047 0 951
72 2 4016 0 982
74 1 4033 0 966
76 1 4048 0 951
78 1 4065 0 934
80 1 3980 0 1019
82 0 4016 1 983
84 0 4059 1 940
86 0 4003 1 996
88 1 4010 0 989
90 0 3998 0 1002
92 0 4038 0 962
94 0 4037 0 963
96 0 4064 0 936
98 0 4030 0 970
100 0 4018 0 982
