0 4017 0 983 0
2.0001 3168 889 814 129
4 2487 1556 653 304
6.0001 1927 2147 525 401
8.0001 1516 2542 413 529
10.0001 1243 2848 305 604
12.0001 989 3072 234 705
14.0001 762 3320 200 718
16.0001 598 3459 168 775
18.0001 466 3569 138 827
20.0001 385 3668 106 841
22.0001 287 3743 91 879
24.0001 223 3832 71 874
26.0001 175 3924 44 857
28.0001 138 3888 28 946
30.0001 102 3959 28 911
32.0001 82 3974 23 921
34 62 4021 15 901
36 46 4030 12 912
38 37 3995 9 959
40 30 3993 7 970
42 28 4021 4 947
44 19 4002 5 974
46 14 4039 4 943
48 11 4011 5 973
50 8 4050 5 937
52 9 4041 1 949
54 4 4076 4 916
56 6 4051 1 942
58 5 4009 1 985
60 4 4076 2 918
62 4 4071 1 924
64 3 4001 1 995
66 3 4055 0 942
68 0 4060 1 939
70 1 4054 0 945
72 1 4054 0 945
74 0 4063 0 937
76 0 4032 0 968
78 0 4062 0 938
80 0 4059 0 941
82 0 4029 0 971
84 0 4096 0 904
86 0 4061 0 939
88 0 4066 0 933
90 0 4029 0 971
92 0 4021 0 979
94 0 4007 0 993
96 0 4060 0 940
98 0 4005 0 995
100 0 4064 0 936
