0 4052 0 948 0
2.0001 3101 931 857 111
4 2462 1586 685 267
6.0001 1884 2125 583 408
8.0001 1529 2543 410 518
10.0001 1183 2836 337 643
12.0001 929 3090 267 714
14.0001 743 3350 213 694
16.0001 603 3465 153 779
18.0001 466 3546 146 842
20.0001 393 3660 86 861
22.0001 296 3725 86 893
24.0001 238 3808 60 894
26.0001 188 3887 49 876
28.0001 148 3879 43 930
30.0001 115 3907 38 940
32.0001 89 3964 29 918
34 73 4022 29 876
36 60 4008 23 909
38 52 4002 13 933
40 45 3973 7 975
42 27 3994 8 971
44 20 3990 9 981
46 17 4030 8 945
48 12 4049 4 935
50 9 4001 5 985
52 8 4038 4 950
54 10 4078 0 912
56 7 4031 2 960
58 6 4044 2 948
60 4 4021 2 973
62 2 4043 3 951
64 2 4071 0 927
66 1 4017 1 981
68 0 4009 1 990
70 1 4027 0 972
72 0 4039 0 961
74 0 4013 0 987
76 0 4056 0 944
78 0 4054 0 946
80 0 4063 0 937
82 0 4087 0 913
84 0 4058 0 942
86 0 4036 0 964
88 0 4030 0 970
90 0 4042 0 958
92 0 4077 0 923
94 0 4020 0 980
96 0 3958 0 1042
98 0 4056 0 943
100 0 4036 0 964
