0 3979 0 1021 0
2.0001 3052 941 894 113
4 2402 1609 715 274
6.0001 1919 2113 569 399
8.0001 1511 2494 462 533
10.0001 1245 2810 317 628
12.0001 944 3028 322 706
14.0001 765 3241 214 780
16.0001 599 3442 180 779
18.0001 473 3550 138 838
20.0001 373 3679 105 843
22.0001 301 3709 94 896
24.0001 254 3768 67 911
26.0001 195 3837 52 916
28.0001 151 3882 39 928
30.0001 119 3889 34 958
32.0001 90 3892 37 981
34 72 3979 21 928
36 58 3994 13 935
38 45 3981 13 961
40 39 4009 10 942
42 37 4023 3 937
44 26 3983 6 985
46 21 4021 5 953
48 13 4012 3 972
50 7 4051 5 937
52 8 4045 2 945
54 7 4081 1 911
56 6 4044 1 949
58 5 4016 0 979
60 4 4032 0 964
62 3 4017 1 979
64 3 4072 0 925
66 1 4028 2 969
68 3 3980 0 1017
70 2 4007 1 990
72 3 4023 0 974
74 3 4004 0 993
76 2 4008 0 990
78 1 4026 0 973
80 1 3999 0 1000
82 1 4044 0 955
84 1 4078 0 921
86 0 4022 0 978
88 0 4031 0 969
90 0 4026 0 974
92 0 4039 0 961
94 0 4060 0 940
96 0 4064 0 936
98 0 4013 0 987
100 0 4042 0 958
