0 4038 0 962 0
2.0001 3146 954 769 131
4 2459 1637 657 247
6.0001 1926 2110 517 447
8.0001 1532 2508 407 553
10.0001 1188 2850 316 646
12.0001 935 3107 269 689
14.0001 724 3346 203 727
16.0001 577 3521 141 761
18.0001 449 3630 124 797
20.0001 363 3739 96 802
22.0001 291 3749 70 890
24.0001 250 3828 41 881
26.0001 181 3870 40 909
28.0001 138 3890 32 940
30.0001 108 3970 24 898
32.0001 88 3964 20 928
34 74 3991 15 920
36 53 3960 16 971
38 45 4011 12 932
40 25 4021 12 942
42 21 4049 7 923
44 18 4017 4 961
46 11 4034 4 951
48 9 4022 1 968
50 4 4035 2 959
52 2 4029 2 967
54 3 3999 0 998
56 1 4036 2 961
58 2 4006 0 992
60 1 4013 1 985
62 1 4052 0 947
64 1 3974 0 1025
66 1 4036 0 963
68 0 3999 1 1000
70 0 4130 1 869
72 1 4078 0 921
74 1 4047 0 952
76 0 4061 0 939
78 0 4019 0 981
80 0 4065 0 935
82 0 4073 0 927
84 0 4064 0 936
86 0 4070 0 930
88 0 4085 0 915
90 0 4017 0 983
92 0 4051 0 949
94 0 4030 0 970
96 0 4054 0 946
98 0 4058 0 942
100 0 4027 0 972
