0 4103 0 897 0
2.0001 3001 995 886 118
4 2371 1649 708 272
6.0001 1915 2121 542 422
8.0001 1507 2562 391 540
10.0001 1175 2896 320 609
12.0001 874 3180 261 685
14.0001 704 3332 191 773
16.0001 561 3467 144 828
18.0001 458 3613 122 807
20.0001 355 3679 101 865
22.0001 303 3771 67 859
24.0001 221 3824 64 891
26.0001 177 3925 53 844
28.0001 149 3907 39 905
30.0001 127 3900 29 944
32.0001 96 3943 33 928
34 79 3954 24 943
36 56 3987 23 934
38 59 3993 8 940
40 42 4038 13 907
42 24 4041 14 921
44 21 4007 9 963
46 18 4012 5 964
48 15 4018 4 963
50 11 4048 2 939
52 8 4033 4 955
54 8 4036 1 955
56 6 4046 3 945
58 7 4028 1 964
60 5 4024 1 970
62 3 4026 2 969
64 4 4084 1 911
66 2 4013 1 984
68 2 4005 0 992
70 2 4070 0 928
72 1 4043 0 956
74 0 4003 1 996
76 0 4030 0 970
78 0 4032 0 968
80 0 4069 0 931
82 0 4019 0 981
84 0 4035 0 965
86 0 4071 0 929
88 0 4026 0 974
90 0 4019 0 981
92 0 4019 0 981
94 0 4031 0 969
96 0 4018 0 982
98 0 4000 0 1000
100 0 4076 0 924
