0 4085 0 915 0
2.0001 3119 930 838 113
4 2408 1625 698 269
6.0001 1932 2138 516 414
8.0001 1510 2524 435 531
10.0001 1180 2829 348 643
12.0001 932 3116 266 686
14.0001 733 3278 218 771
16.0001 581 3409 168 842
18.0001 475 3596 130 799
20.0001 380 3661 97 862
22.0001 291 3799 93 817
24.0001 234 3822 69 875
26.0001 191 3885 45 879
28.0001 151 3906 37 906
30.0001 120 3933 35 912
32.0001 91 3953 33 923
34 68 3945 24 963
36 54 3927 22 997
38 49 3951 12 988
40 35 4002 9 954
42 28 3971 7 994
44 20 3982 6 992
46 17 3996 5 982
48 13 3995 2 990
50 9 4010 3 978
52 8 4003 3 986
54 8 4066 1 924
56 7 4044 1 948
58 7 4050 1 942
60 3 4042 0 955
62 3 4004 0 993
64 3 3963 0 1034
66 2 4072 0 926
68 0 4066 0 934
70 0 4054 0 946
72 0 4077 0 923
74 0 4035 0 965
76 0 4002 0 998
78 0 4030 0 970
80 0 4087 0 912
82 0 4098 0 902
84 0 4010 0 990
86 0 4085 0 915
88 0 4067 0 933
90 0 4058 0 942
92 0 4065 0 935
94 0 4081 0 919
96 0 4110 0 890
98 0 4056 0 944
100 0 4060 0 940
