0 4066 0 934 0
2.0001 3072 955 852 121
4 2431 1607 694 268
6.0001 1862 2181 550 407
8.0001 1524 2510 415 551
10.0001 1189 2907 314 590
12.0001 930 3128 265 677
14.0001 728 3363 215 694
16.0001 568 3471 178 783
18.0001 459 3615 119 807
20.0001 372 3638 93 897
22.0001 274 3754 90 882
24.0001 224 3825 61 890
26.0001 191 3841 34 934
28.0001 136 3892 37 935
30.0001 109 3946 26 919
32.0001 90 3946 24 940
34 63 4007 25 905
36 54 3966 20 960
38 41 3979 9 971
40 27 4005 9 959
42 21 4014 4 961
44 16 4024 3 957
46 12 4084 5 899
48 9 4020 6 965
50 11 4030 3 956
52 7 4027 2 964
54 3 4029 4 964
56 5 4011 2 982
58 2 4041 2 955
60 1 4014 2 983
62 3 4031 0 966
64 3 4064 0 933
66 2 4024 0 974
68 1 4030 0 968
70 1 4051 0 948
72 1 4036 0 963
74 1 4005 0 993
76 1 4067 0 932
78 0 4051 0 949
80 0 4016 0 983
82 0 4078 0 922
84 0 4068 0 932
86 0 4074 0 926
88 0 4046 0 954
90 0 3996 0 1004
92 0 4026 0 974
94 0 4052 0 948
96 0 4061 0 939
98 0 4022 0 978
100 0 4072 0 928
