0 4089 0 911 0
2.0001 3058 989 863 90
4 2417 1635 662 286
6.0001 1926 2140 509 425
8.0001 1503 2521 449 527
10.0001 1175 2866 355 604
12.0001 985 3119 226 670
14.0001 739 3270 210 781
16.0001 580 3446 167 807
18.0001 459 3601 127 813
20.0001 342 3636 106 916
22.0001 288 3729 68 915
24.0001 220 3839 55 886
26.0001 161 3854 53 932
28.0001 135 3946 36 883
30.0001 114 3912 24 950
32.0001 93 3942 23 942
34 68 4003 13 915
36 47 4008 15 930
38 34 4015 11 940
40 30 4012 8 950
42 26 4039 8 927
44 18 3987 8 987
46 18 4024 4 954
48 16 4029 2 953
50 12 4033 3 952
52 9 4044 3 944
54 8 4030 3 959
56 8 4049 2 941
58 3 4075 4 918
60 4 4037 3 955
62 3 4045 3 949
64 4 4050 1 945
66 3 4023 1 973
68 3 4037 0 960
70 1 4052 0 947
72 1 4036 0 963
74 1 4066 0 933
76 0 4026 0 974
78 0 4045 0 955
80 0 4048 0 952
82 0 4067 0 933
84 0 4075 0 925
86 0 4078 0 922
88 0 4033 0 967
90 0 4058 0 942
92 0 4046 0 954
94 0 4041 0 959
96 0 4023 0 977
98 0 4058 0 942
100 0 4086 0 914
