0 949 0 0 0 0 0
2 924 8 0 23 0 0
4.00004 898 11 0 38 0 3
6 897 9 0 42 0 3
8 892 2 0 47 0 4
10 876 3 0 58 0 5
12 876 2 0 62 0 4
14 866 0 0 82 0 1
16 857 1 0 91 0 5
18 850 0 0 90 0 7
20 851 0 0 90 0 8
22 841 0 0 100 0 5
24 845 0 0 98 0 5
26 847 1 0 97 0 6
28 852 0 0 94 0 11
30 836 0 0 110 0 6
32 849 0 0 91 0 11
34 844 0 0 98 0 8
36 839 0 0 104 0 4
38 833 0 0 109 0 13
40 836 0 0 104 0 8
42 838 0 0 102 0 12
44 826 0 0 108 0 13
46 835 0 0 96 0 7
48 848 0 0 83 0 10
50 842 0 0 93 0 8
52 838 0 0 73 24 0
54 829 0 0 69 31 0
56 831 0 2 56 36 0
58 825 0 4 53 56 0
60 827 0 9 47 57 0
62 821 0 10 48 52 0
64 820 0 17 39 55 0
66 804 0 22 50 55 0
68 810 0 23 35 58 0
70 811 0 27 30 58 0
72 795 0 32 43 66 0
74 797 0 38 39 59 0
76 796 0 41 34 61 0
78 785 0 44 41 62 0
80 782 0 47 38 66 0
82 776 0 55 44 63 0
84 770 0 58 42 67 0
86 768 0 62 39 69 0
88 754 0 68 48 59 0
90 748 0 72 49 52 0
92 737 0 78 52 62 0
94 737 0 79 43 64 0
96 740 0 86 36 73 0
98 732 0 94 39 79 0
100 724 0 99 43 79 0
102 724 0 105 39 68 0
104 724 0 111 35 63 0
106 709 0 118 43 63 0
108 715 0 118 35 67 0
110 700 0 122 45 61 0
112 702 0 124 39 64 0
114 697 0 128 40 71 0
116 699 0 134 35 66 0
118 692 0 134 36 66 0
120 683 0 137 42 71 0
122 676 0 142 43 78 0
124 673 0 145 42 67 0
126 667 0 150 44 68 0
128 664 0 148 41 75 0
130 671 0 160 32 70 0
132 662 0 162 36 72 0
134 660 0 175 32 64 0
136 655 0 179 30 65 0
138 644 0 185 36 74 0
140 631 0 190 49 66 0
142 636 0 187 40 69 0
144 635 0 191 37 68 0
146 628 0 193 41 68 0
148 633 0 198 32 60 0
150 626 0 201 34 67 0
152 620 0 203 34 78 0
154 612 0 211 39 68 0
156 611 0 214 38 71 0
158 609 0 216 34 71 0
160 599 0 224 39 61 0
162 600 0 226 36 62 0
164 594 0 235 36 62 0
166 584 0 240 42 62 0
168 583 0 241 33 70 0
170 577 0 249 37 64 0
172 572 0 250 37 62 0
174 566 0 252 39 69 0
176 561 0 258 39 77 0
178 548 0 256 49 72 0
180 553 0 264 34 69 0
182 542 0 267 39 76 0
184 550 0 272 24 78 0
186 538 0 277 32 87 0
188 540 0 278 28 81 0
190 532 0 282 34 85 0
192 523 0 287 40 78 0
194 532 0 299 30 70 0
196 525 0 301 30 75 0
198 524 0 302 26 76 0
200 515 0 311 30 78 0
