0 1029 0 0 0 0 0
2 1011 0 0 20 0 2
4.00004 1002 0 0 29 0 12
6 1012 0 0 27 0 7
8 988 0 0 38 0 16
10 1002 0 0 29 0 10
12 990 0 0 32 0 9
14 990 0 0 36 0 9
16 988 0 0 29 0 5
18 984 0 0 33 0 11
20 986 0 0 30 0 4
22 980 0 0 28 0 9
24 967 0 0 34 0 8
26 961 0 0 32 0 12
28 960 0 0 35 0 9
30 968 0 0 28 0 5
32 955 0 0 39 0 8
34 974 0 0 22 0 7
36 968 0 0 29 0 3
38 962 0 0 23 0 9
40 949 0 0 35 0 9
42 947 0 0 29 0 8
44 945 0 0 32 0 11
46 932 0 0 38 0 5
48 941 0 0 23 0 5
50 935 0 0 38 0 5
52 905 0 14 26 30 0
54 885 0 46 12 25 0
56 865 0 63 16 21 0
58 849 0 80 14 25 0
60 830 0 95 14 28 0
62 811 0 116 12 26 0
64 792 0 127 12 30 0
66 778 0 141 8 25 0
68 754 0 149 18 26 0
70 744 0 170 9 31 0
72 727 0 189 12 28 0
74 711 0 202 11 23 0
76 699 0 208 13 32 0
78 691 0 225 11 20 0
80 675 0 240 11 27 0
82 670 0 257 6 14 0
84 651 0 260 10 28 0
86 631 0 274 13 31 0
88 623 0 287 8 37 0
90 608 0 305 10 23 0
92 589 0 316 12 32 0
94 575 0 325 9 34 0
96 566 0 335 8 28 0
98 553 0 350 9 26 0
100 543 0 365 7 25 0
102 527 0 369 10 34 0
104 519 0 385 6 30 0
106 507 0 398 5 29 0
108 494 0 406 6 36 0
110 488 0 416 7 31 0
112 478 0 428 7 33 0
114 468 0 442 6 27 1
116 462 0 453 5 32 0
118 452 0 452 6 38 0
120 438 0 460 5 42 0
122 428 0 475 7 29 0
124 420 0 486 7 34 0
126 414 0 487 5 34 0
128 406 0 487 5 36 0
130 399 0 490 3 34 0
132 388 0 497 7 35 0
134 377 0 506 4 31 0
136 370 0 512 6 23 0
138 359 0 517 5 37 0
140 356 0 526 4 35 0
142 355 0 530 2 37 0
144 347 0 539 4 31 0
146 344 0 541 4 35 0
148 335 0 550 8 34 0
150 333 0 556 5 26 0
152 324 0 569 2 30 0
154 314 0 573 6 35 0
156 307 0 585 3 35 0
158 297 0 593 7 33 0
160 291 0 600 10 27 0
162 289 0 606 5 34 0
164 279 0 621 6 28 0
166 273 0 620 3 34 0
168 265 0 629 2 37 0
170 264 0 636 1 38 0
172 256 0 642 5 26 0
174 252 0 645 1 39 0
176 248 0 658 1 30 0
178 240 0 656 5 35 1
180 234 0 662 5 31 0
182 230 0 664 5 43 0
184 228 0 670 6 33 0
186 223 0 674 5 34 0
188 221 0 675 3 36 0
190 219 0 677 3 35 0
192 210 0 685 6 32 0
194 205 0 689 2 40 0
196 202 0 692 3 44 0
198 204 0 695 0 33 0
200 197 0 704 3 29 0
