0 1064 0 0 0 0 0
2 1019 7 0 32 0 0
4.00004 1006 4 0 52 0 3
6 994 0 0 63 0 5
8 979 1 0 78 0 7
10 994 1 0 66 0 7
12 974 0 0 87 0 9
14 982 0 0 69 0 12
16 985 0 0 71 0 7
18 970 0 0 79 0 12
20 977 0 0 69 0 11
22 972 0 0 69 0 6
24 966 0 0 69 0 7
26 942 0 0 83 0 9
28 962 0 0 67 0 13
30 959 0 0 73 0 12
32 963 0 0 72 0 8
34 947 0 0 82 0 8
36 947 0 0 84 0 8
38 958 0 0 69 0 7
40 950 0 0 76 0 11
42 942 0 0 79 0 15
44 944 0 0 83 0 8
46 937 0 0 84 0 10
48 946 0 0 66 0 15
50 929 0 0 89 0 7
52 923 0 6 51 41 0
54 918 0 16 36 44 0
56 903 0 29 39 50 0
58 905 0 41 26 44 0
60 881 0 54 42 42 0
62 867 0 62 43 39 1
64 854 0 70 46 43 0
66 844 0 79 36 52 0
68 835 0 88 33 53 1
70 830 0 99 23 50 0
72 813 0 113 29 49 0
74 801 0 119 30 44 0
76 783 0 124 36 49 0
78 774 0 136 32 46 0
80 763 0 137 36 44 0
82 748 0 149 34 56 0
84 736 0 158 36 54 0
86 725 0 164 35 61 0
88 713 0 173 39 60 0
90 709 0 186 30 56 0
92 703 0 198 29 52 0
94 691 0 208 30 56 0
96 682 0 216 29 58 0
98 684 0 224 16 56 0
100 663 0 231 27 58 0
102 652 0 239 29 63 0
104 650 0 248 25 63 0
106 637 0 254 30 74 0
108 626 0 267 30 71 0
110 627 0 270 21 70 0
112 614 0 287 21 61 1
114 614 0 303 15 60 0
116 608 0 308 15 62 0
118 602 0 320 17 54 0
120 597 0 325 17 46 0
122 579 0 331 27 58 0
124 581 0 330 18 68 0
126 565 0 329 21 71 0
128 554 0 343 20 62 0
130 550 0 357 16 57 0
132 536 0 360 26 64 0
134 518 0 367 34 67 0
136 518 0 372 24 66 0
138 512 0 379 23 65 0
140 504 0 380 27 70 0
142 501 0 386 18 68 0
144 498 0 398 16 67 0
146 483 0 408 21 61 0
148 476 0 408 23 70 0
150 471 0 424 21 63 0
152 466 0 434 22 62 0
154 465 0 433 17 61 0
156 452 0 438 28 60 0
158 452 0 447 19 56 0
160 447 0 447 20 67 0
162 447 0 459 15 67 0
164 440 0 456 18 67 0
166 429 0 457 22 58 0
168 423 0 463 21 63 0
170 418 0 464 19 64 0
172 412 0 474 20 74 0
174 408 0 476 16 65 0
176 404 0 491 12 61 0
178 386 0 497 23 61 0
180 387 0 497 13 65 0
182 372 0 507 21 80 0
184 365 0 510 18 81 0
186 358 0 517 20 68 0
188 358 0 529 12 75 0
190 351 0 546 17 54 0
192 351 0 543 14 70 0
194 348 0 543 12 63 0
196 342 0 549 11 60 0
198 333 0 550 18 58 0
200 329 0 549 15 78 0
