0 855 0 0 0 0 0
2 795 11 0 47 0 1
4.00004 794 4 0 52 0 1
6 790 1 0 62 0 0
8 774 4 0 68 0 2
10 765 1 0 87 0 4
12 764 0 0 83 0 3
14 755 0 0 93 0 9
16 752 0 0 92 0 6
18 762 0 0 86 0 5
20 757 0 0 82 0 10
22 762 0 0 81 0 6
24 737 0 0 103 0 6
26 735 0 0 103 0 7
28 733 0 0 98 0 9
30 740 0 0 102 0 5
32 728 0 0 104 0 10
34 736 0 0 97 0 8
36 717 0 0 115 0 15
38 724 0 0 114 0 8
40 732 0 0 113 0 14
42 720 0 0 109 0 11
44 727 0 0 108 0 8
46 714 0 0 104 0 10
48 724 0 0 102 0 10
50 735 0 0 98 0 10
52 732 0 0 72 36 0
54 723 0 2 67 53 0
56 717 0 8 66 47 1
58 717 0 10 54 56 0
60 724 0 14 40 51 0
62 708 0 19 47 62 0
64 702 0 21 48 58 0
66 695 0 31 54 48 0
68 692 0 39 52 42 0
70 686 0 45 51 53 0
72 676 0 49 53 60 0
74 666 0 55 50 53 0
76 658 0 53 49 70 0
78 659 0 57 41 65 0
80 645 0 64 49 63 0
82 639 0 68 52 67 0
84 630 0 74 51 68 0
86 627 0 79 43 76 0
88 618 0 87 45 77 0
90 608 0 99 52 68 0
92 600 0 102 50 69 0
94 599 0 108 43 71 0
96 594 0 114 39 71 0
98 587 0 113 42 79 0
100 582 0 115 37 78 0
102 579 0 120 33 85 0
104 568 0 138 40 76 0
106 569 0 149 38 75 0
108 577 0 156 24 67 0
110 567 0 165 27 68 0
112 560 0 175 30 59 0
114 552 0 181 34 62 0
116 541 0 187 40 62 0
118 543 0 190 30 69 0
120 534 0 193 35 79 0
122 531 0 204 31 82 0
124 517 0 209 41 80 0
126 517 0 218 38 74 0
128 508 0 232 42 63 0
130 513 0 233 33 66 0
132 507 0 229 30 82 0
134 506 0 234 24 76 0
136 502 0 235 21 77 0
138 486 0 242 35 78 0
140 487 0 244 27 74 0
142 475 0 251 33 77 0
144 473 0 263 29 59 0
146 457 0 266 41 56 0
148 451 0 270 42 63 0
150 445 0 266 39 72 0
152 441 0 266 36 91 0
154 437 0 273 36 90 0
156 437 0 281 32 91 0
158 429 0 286 31 89 0
160 427 0 292 31 80 0
162 424 0 297 30 91 0
164 421 0 299 28 87 0
166 418 0 301 28 99 0
168 413 0 319 28 89 0
170 408 0 317 29 88 0
172 397 0 314 37 90 0
174 400 0 319 29 86 0
176 387 0 319 40 88 0
178 384 0 324 36 89 0
180 377 0 330 35 81 0
182 372 0 330 35 94 0
184 363 0 331 38 107 0
186 361 0 342 31 100 0
188 352 0 349 33 105 0
190 350 0 345 28 111 0
192 345 0 352 30 110 0
194 337 0 364 32 101 0
196 328 0 374 33 97 0
198 333 0 373 24 103 0
200 329 0 379 22 112 0
