0 876 0 0 0 0 0
2 837 7 0 26 0 0
4.00004 812 6 0 50 0 0
6 810 2 0 44 0 2
8 827 0 0 27 0 4
10 824 1 0 38 0 3
12 812 0 0 52 0 3
14 800 0 0 64 0 3
16 800 1 0 53 0 8
18 803 0 0 55 0 5
20 801 0 0 53 0 9
22 793 0 0 66 0 7
24 795 0 0 70 0 6
26 791 0 0 77 0 4
28 793 0 0 70 0 7
30 793 0 0 69 0 7
32 801 0 0 58 0 4
34 795 0 0 64 0 7
36 792 0 0 72 0 8
38 792 0 0 70 0 5
40 787 0 0 69 0 12
42 798 0 0 56 0 9
44 796 0 0 62 0 8
46 795 0 0 64 0 7
48 783 0 0 81 0 5
50 786 0 0 77 0 7
52 790 0 0 45 31 0
54 792 0 0 39 37 0
56 799 0 3 28 41 0
58 794 0 9 26 42 0
60 782 0 15 33 45 0
62 776 0 21 34 37 0
64 776 0 24 28 45 0
66 770 0 32 30 42 0
68 767 0 38 28 39 0
70 764 0 43 25 41 0
72 757 0 47 27 36 0
74 752 0 52 31 34 0
76 748 0 56 30 43 0
78 748 0 60 22 37 0
80 744 0 64 18 40 0
82 734 0 63 25 50 0
84 733 0 64 22 55 0
86 731 0 70 21 48 0
88 723 0 81 27 47 0
90 720 0 85 29 41 0
92 717 0 89 30 46 0
94 717 0 89 26 48 0
96 708 0 92 30 49 0
98 700 0 95 35 48 0
100 702 0 101 30 45 0
102 698 0 108 26 36 0
104 691 0 111 29 37 0
106 685 0 114 31 41 0
108 680 0 116 34 35 0
110 671 0 118 38 37 0
112 669 0 121 32 42 0
114 670 0 126 27 36 0
116 668 0 129 23 43 0
118 656 0 133 30 53 0
120 655 0 139 27 51 0
122 656 0 142 19 46 0
124 651 0 145 18 48 0
126 636 0 149 32 43 0
128 644 0 154 21 51 0
130 641 0 158 21 51 0
132 634 0 164 26 44 0
134 633 0 173 24 36 0
136 631 0 176 21 41 0
138 633 0 185 17 39 0
140 623 0 190 22 37 0
142 615 0 184 28 43 0
144 612 0 191 24 42 0
146 608 0 195 25 41 0
148 605 0 195 22 47 0
150 600 0 197 22 52 0
152 601 0 199 20 52 0
154 596 0 203 23 45 0
156 600 0 209 12 44 0
158 583 0 214 28 41 0
160 593 0 221 16 39 0
162 587 0 220 21 45 0
164 586 0 224 19 40 0
166 585 0 227 17 35 0
168 579 0 227 21 38 0
170 582 0 227 15 46 0
172 573 0 237 22 35 0
174 559 0 232 34 44 0
176 563 0 233 23 51 0
178 561 0 235 20 61 0
180 551 0 238 25 50 0
182 558 0 242 14 53 0
184 557 0 244 13 58 0
186 553 0 248 12 58 0
188 549 0 257 15 45 0
190 551 0 256 12 44 0
192 540 0 253 19 53 0
194 534 0 256 22 55 0
196 528 0 255 25 61 0
198 518 0 262 28 62 0
200 514 0 277 24 58 0
