0 760 0 0 0 0 0
2 707 1 0 37 0 6
4.00004 697 0 0 54 0 7
6 688 1 0 51 0 3
8 686 0 0 52 0 12
10 687 0 0 55 0 10
12 682 0 0 52 0 17
14 686 0 0 56 0 7
16 685 0 0 52 0 11
18 687 0 0 52 0 9
20 695 0 0 48 0 5
22 697 0 0 43 0 7
24 694 0 0 48 0 7
26 689 0 0 46 0 6
28 688 0 0 53 0 4
30 686 0 0 54 0 2
32 685 0 0 44 0 11
34 680 0 0 42 0 11
36 687 0 0 43 0 8
38 685 0 0 53 0 7
40 687 0 0 56 0 6
42 682 0 0 56 0 9
44 679 0 0 55 0 5
46 678 0 0 55 0 12
48 679 0 0 51 0 9
50 677 0 0 42 0 11
52 667 0 6 25 35 0
54 657 0 24 25 25 1
56 647 0 30 29 30 0
58 640 0 39 19 36 0
60 615 0 52 31 27 0
62 604 0 53 25 48 0
64 597 0 66 19 40 0
66 592 0 76 16 37 0
68 583 0 88 16 36 0
70 572 0 97 19 29 0
72 565 0 106 17 33 0
74 549 0 114 21 37 0
76 539 0 122 19 40 0
78 529 0 124 16 44 0
80 512 0 133 21 47 0
82 497 0 145 24 34 0
84 481 0 158 21 44 0
86 469 0 163 21 41 0
88 462 0 168 13 50 0
90 462 0 175 8 40 0
92 433 0 179 28 45 0
94 444 0 197 6 37 0
96 428 0 203 13 50 0
98 420 0 214 14 47 0
100 414 0 227 15 31 0
102 413 0 223 8 42 0
104 403 0 232 12 41 0
106 403 0 250 8 28 0
108 390 0 248 13 33 0
110 378 0 251 16 35 0
112 369 0 267 14 34 0
114 354 0 266 18 63 0
116 347 0 276 14 54 0
118 338 0 292 15 47 0
120 336 0 303 13 35 0
122 337 0 308 6 38 0
124 323 0 305 19 43 0
126 322 0 310 11 44 0
128 317 0 310 12 40 0
130 316 0 312 7 44 0
132 306 0 311 13 43 0
134 304 0 318 7 48 0
136 294 0 326 7 43 0
138 288 0 321 10 52 0
140 283 0 336 12 43 0
142 278 0 340 12 40 0
144 272 0 342 10 50 0
146 263 0 342 13 47 0
148 264 0 348 7 52 0
150 255 0 347 13 52 0
152 248 0 351 14 49 0
154 250 0 365 6 47 0
156 236 0 370 15 46 0
158 236 0 381 10 36 0
160 232 0 379 9 46 0
162 229 0 374 8 52 0
164 224 0 381 10 51 0
166 220 0 394 7 39 0
168 211 0 390 8 55 0
170 205 0 392 9 62 0
172 205 0 393 4 59 0
174 196 0 403 9 50 0
176 193 0 405 6 49 0
178 183 0 402 11 51 0
180 184 0 410 6 48 0
182 182 0 410 4 51 0
184 175 0 420 8 49 0
186 172 0 417 7 49 0
188 166 0 416 9 65 0
190 167 0 429 4 60 0
192 168 0 445 3 44 0
194 166 0 444 3 42 0
196 165 0 444 3 50 0
198 160 0 443 3 52 0
200 153 0 445 8 44 0
