0 1403 0 0 0 0
2 1184 6 0 198 0
4.00004 1116 7 0 272 0
6 1109 4 0 250 0
8 1108 8 0 249 0
10 1087 4 0 260 0
12 1045 7 0 291 0
14 999 7 0 309 0
16 1005 11 0 285 0
18 1004 6 0 295 0
20 1016 8 0 298 0
22 1022 7 0 291 0
24 1012 9 0 300 0
26 1012 6 0 295 0
28 977 16 0 318 0
30 984 6 0 289 0
32 975 8 0 300 0
34 969 5 0 321 0
36 950 11 0 307 0
38 922 6 0 326 0
40 931 6 0 305 0
42 938 2 0 324 0
44 937 4 0 323 0
46 945 10 0 304 0
48 940 9 0 321 0
50 960 11 0 304 0
52 854 0 112 303 7
54 765 0 174 298 15
56 694 1 238 290 17
58 637 0 300 232 36
60 599 0 344 256 50
62 552 0 390 242 64
64 504 0 432 226 68
66 492 1 447 223 90
68 469 0 473 227 98
70 454 0 504 201 98
72 416 0 532 202 109
74 389 0 541 197 114
76 368 0 566 180 111
78 368 0 574 181 138
80 344 0 614 156 125
82 330 0 625 177 136
84 319 0 647 170 132
86 301 0 641 143 165
88 276 0 681 134 147
90 260 0 689 129 149
92 253 0 704 119 157
94 242 0 697 132 182
96 234 0 721 147 184
98 240 0 738 116 188
100 230 0 731 103 208
102 218 0 749 87 208
104 201 0 776 100 184
106 184 0 782 90 217
108 167 0 782 93 204
110 164 0 769 102 209
112 171 0 794 91 204
114 172 0 800 74 231
116 161 0 799 79 239
118 163 0 831 76 221
120 171 0 830 72 218
122 162 0 828 66 220
124 141 0 810 59 241
126 141 0 797 58 231
128 114 0 836 68 226
130 118 0 833 53 252
132 101 0 862 58 229
134 104 0 834 51 232
136 108 0 829 42 243
138 101 0 819 59 247
140 101 0 831 48 250
142 99 1 836 38 276
144 84 0 824 53 283
146 76 0 829 55 286
148 80 0 825 36 284
150 70 0 801 47 288
152 78 1 806 39 289
154 72 0 838 41 254
156 69 0 860 26 274
158 67 0 867 31 294
160 66 0 893 30 265
162 62 0 885 25 308
164 49 0 888 40 272
166 51 0 887 29 267
168 51 0 883 26 287
170 50 0 903 24 266
172 48 0 900 28 289
174 44 0 938 26 261
176 42 0 929 27 269
178 40 0 928 21 259
180 43 0 922 18 279
182 41 0 906 21 261
184 30 1 911 30 290
186 36 0 892 16 315
188 34 0 887 20 310
190 31 0 906 16 296
192 23 0 915 20 301
194 30 0 892 15 290
196 33 0 891 21 295
198 31 0 866 17 329
200 37 0 844 16 317
