0 449 0 0 0 0
2 265 0 0 230 0
4.00004 266 0 0 244 0
6 282 0 0 268 0
8 288 0 0 313 0
10 282 0 0 325 0
12 291 0 0 317 0
14 308 0 0 326 0
16 332 0 0 343 0
18 318 0 0 353 0
20 319 0 0 365 0
22 352 0 0 371 0
24 383 0 0 367 0
26 365 0 0 364 0
28 345 0 0 375 0
30 345 0 0 361 0
32 353 0 0 375 0
34 368 0 0 367 0
36 366 0 0 407 0
38 372 0 0 382 0
40 384 0 0 360 0
42 376 0 0 360 0
44 388 0 0 362 0
46 376 0 0 367 0
48 363 0 0 388 0
50 368 0 0 366 0
52 382 0 0 380 1
54 363 0 3 381 7
56 355 0 8 382 12
58 381 0 11 361 20
60 368 0 24 353 28
62 369 0 32 358 47
64 347 0 39 326 51
66 353 0 43 327 60
68 337 0 45 293 72
70 343 0 70 300 66
72 347 0 77 275 82
74 320 0 79 297 96
76 293 0 91 299 99
78 304 0 97 276 122
80 298 0 106 251 118
82 260 0 124 256 138
84 262 0 127 223 138
86 237 0 149 259 144
88 228 0 150 232 157
90 253 0 150 236 185
92 263 0 157 206 176
94 210 0 171 200 174
96 198 0 177 210 169
98 205 0 177 190 206
100 197 0 208 187 191
102 191 0 219 191 190
104 179 0 214 163 217
106 168 0 215 171 212
108 177 0 203 160 204
110 152 0 208 164 222
112 158 0 217 161 211
114 150 0 210 160 237
116 163 0 219 149 252
118 155 0 225 135 246
120 145 0 234 141 275
122 141 0 248 139 260
124 126 0 256 127 255
126 119 0 255 115 262
128 110 0 252 117 263
130 106 0 232 114 316
132 110 0 235 101 298
134 108 0 265 108 276
136 109 0 273 104 301
138 108 0 285 96 304
140 110 0 283 78 315
142 96 0 289 85 307
144 94 0 311 91 300
146 87 0 319 95 312
148 79 0 307 81 287
150 84 0 296 78 317
152 81 0 319 79 311
154 85 0 327 63 293
156 74 0 319 73 335
158 70 0 315 75 330
160 76 0 311 68 311
162 65 0 307 71 343
164 58 0 315 75 341
166 64 0 343 65 331
168 52 0 339 66 318
170 54 0 349 58 337
172 50 0 314 64 368
174 50 0 320 55 355
176 59 0 331 47 362
178 53 0 340 50 371
180 57 0 356 49 324
182 48 0 345 51 337
184 49 0 339 43 358
186 46 0 366 46 350
188 42 0 338 49 349
190 45 0 356 44 354
192 42 0 354 53 354
194 42 0 362 41 342
196 38 0 354 47 351
198 42 0 372 41 310
200 37 0 342 46 350
