0 1365 0 0 0 0
2 1182 6 0 188 0
4.00004 1136 7 0 213 0
6 1062 10 0 281 0
8 1077 10 0 247 0
10 1056 4 0 254 0
12 1032 7 0 252 0
14 984 4 0 282 0
16 995 7 0 281 0
18 978 8 0 286 0
20 993 11 0 281 0
22 1019 8 0 286 0
24 992 6 0 269 0
26 996 4 0 266 0
28 1004 4 0 262 0
30 990 7 0 254 0
32 1008 3 0 251 0
34 988 6 0 273 0
36 980 9 0 270 0
38 991 6 0 253 0
40 992 6 0 253 0
42 986 7 0 252 0
44 962 12 0 268 0
46 990 4 0 256 0
48 946 12 0 274 0
50 980 5 0 268 0
52 824 1 164 276 4
54 746 0 252 247 18
56 674 0 326 232 27
58 606 0 367 223 38
60 592 0 393 208 40
62 554 0 429 201 60
64 507 1 474 212 67
66 453 0 503 190 79
68 410 1 538 190 79
70 411 0 571 197 84
72 391 0 613 140 90
74 360 0 633 168 107
76 331 0 654 171 110
78 319 0 691 151 105
80 307 1 711 149 104
82 282 0 733 152 107
84 278 0 735 110 130
86 267 0 745 110 145
88 239 0 754 117 147
90 245 0 740 98 161
92 221 0 743 110 188
94 202 1 754 97 188
96 185 0 759 94 197
98 177 0 749 81 191
100 167 0 780 87 195
102 164 0 786 84 202
104 161 0 793 89 202
106 153 0 813 71 192
108 139 0 814 68 199
110 128 0 827 78 204
112 125 0 824 76 232
114 120 0 850 57 190
116 109 0 815 60 227
118 101 0 825 59 240
120 104 0 846 47 214
122 101 0 836 58 227
124 96 0 850 51 242
126 90 0 863 54 216
128 85 0 860 44 240
130 78 0 886 49 243
132 89 0 902 32 235
134 86 0 889 29 232
136 73 0 886 32 229
138 69 0 873 36 230
140 70 0 878 32 234
142 60 0 891 30 245
144 53 0 911 27 218
146 43 0 902 38 265
148 53 0 913 24 232
150 51 0 917 25 228
152 45 0 919 29 238
154 44 0 931 24 254
156 36 0 970 22 236
158 45 0 971 22 224
160 41 0 980 27 236
162 47 0 982 16 254
164 39 0 956 22 247
166 37 0 966 18 262
168 25 0 958 22 257
170 27 0 969 16 228
172 25 0 966 15 254
174 26 0 940 14 269
176 25 0 926 15 259
178 30 0 932 10 258
180 25 0 931 12 263
182 24 0 946 11 255
184 22 0 950 8 266
186 22 0 953 6 273
188 18 0 955 10 257
190 18 0 958 8 268
192 19 0 952 5 260
194 14 0 962 4 262
196 16 0 968 6 274
198 19 0 972 4 272
200 16 0 959 5 287
