0 366 0 0 0 0
2 350 0 0 23 0
4.00004 342 0 0 36 0
6 358 0 0 30 0
8 364 0 0 24 0
10 364 0 0 24 0
12 358 0 0 34 0
14 348 0 0 39 0
16 356 0 0 34 0
18 365 0 0 25 0
20 367 0 0 34 0
22 369 0 0 35 0
24 377 0 0 30 0
26 370 0 0 34 0
28 381 0 0 23 0
30 383 0 0 40 0
32 393 0 0 31 0
34 393 0 0 32 0
36 394 0 0 28 0
38 387 0 0 35 0
40 394 0 0 34 0
42 398 0 0 34 0
44 394 0 0 33 0
46 397 0 0 28 0
48 396 0 0 41 0
50 408 0 0 34 0
52 396 0 0 43 0
54 406 0 1 32 2
56 408 0 8 24 1
58 396 0 16 32 7
60 396 0 21 24 6
62 394 0 31 29 6
64 391 0 40 23 9
66 377 0 52 26 7
68 376 0 57 28 6
70 366 0 74 21 8
72 365 0 82 23 8
74 348 0 88 28 10
76 337 0 89 26 8
78 324 0 99 23 13
80 313 0 116 21 20
82 295 0 132 17 12
84 288 0 152 16 8
86 283 0 160 18 15
88 273 0 165 23 15
90 264 0 167 17 11
92 257 0 176 13 6
94 244 0 176 21 17
96 236 0 183 13 16
98 227 0 188 18 23
100 223 0 200 8 19
102 217 0 210 16 16
104 195 0 216 21 18
106 188 0 219 13 20
108 193 0 221 11 21
110 185 0 226 6 21
112 173 0 237 13 21
114 170 0 253 9 16
116 158 0 256 9 26
118 156 0 255 9 20
120 146 0 263 12 15
122 146 0 270 12 26
124 140 0 286 9 24
126 132 0 297 8 28
128 130 0 302 5 26
130 130 0 305 2 24
132 126 0 323 3 19
134 120 0 323 7 29
136 112 0 331 11 25
138 110 0 322 6 28
140 106 0 331 6 24
142 97 0 333 6 31
144 94 0 339 6 26
146 92 0 342 10 29
148 85 0 352 7 23
150 83 0 356 6 23
152 80 0 354 6 29
154 82 0 359 5 27
156 77 0 374 7 24
158 70 0 359 11 30
160 72 0 364 3 30
162 69 0 370 3 38
164 68 0 392 4 26
166 61 0 384 6 28
168 59 0 384 4 37
170 55 0 393 3 22
172 57 0 391 4 33
174 53 0 375 3 43
176 50 0 384 1 35
178 48 0 388 4 32
180 49 0 402 3 24
182 50 0 397 0 29
184 47 0 406 1 24
186 44 0 391 1 32
188 40 0 391 5 28
190 37 0 390 4 30
192 36 0 398 3 27
194 36 0 391 2 32
196 35 0 393 2 31
198 35 0 391 2 36
200 33 0 387 3 37
