0 1391 0 0 0 0
2 1363 6 0 27 0
4.00004 1346 9 0 31 0
6 1340 5 0 29 0
8 1329 9 0 29 0
10 1325 8 0 35 0
12 1329 9 0 30 0
14 1328 7 0 37 0
16 1355 6 0 29 0
18 1351 9 0 23 0
20 1345 8 0 27 0
22 1345 13 0 22 0
24 1347 11 0 23 0
26 1344 11 0 30 0
28 1330 11 0 36 0
30 1335 9 0 23 0
32 1324 5 0 30 0
34 1316 16 0 32 0
36 1331 9 0 33 0
38 1330 8 0 27 0
40 1331 7 0 31 0
42 1323 13 0 31 0
44 1318 17 0 30 0
46 1337 8 0 29 0
48 1336 12 0 31 0
50 1338 7 0 29 0
52 1160 1 175 24 0
54 1020 0 308 25 2
56 901 0 424 31 7
58 806 0 515 20 2
60 715 1 605 18 5
62 631 0 685 21 9
64 578 1 726 12 19
66 524 0 790 15 12
68 467 0 849 13 11
70 422 1 888 16 9
72 377 0 914 16 23
74 337 0 960 18 13
76 320 0 982 16 21
78 307 0 993 17 17
80 282 0 1017 15 21
82 262 0 1043 17 27
84 246 0 1056 14 19
86 228 0 1068 13 15
88 208 0 1085 9 19
90 190 0 1100 12 22
92 185 0 1119 7 19
94 165 0 1133 8 20
96 163 0 1145 9 18
98 165 0 1135 9 30
100 151 0 1154 7 24
102 141 0 1158 9 20
104 141 0 1161 6 30
106 128 0 1168 5 35
108 124 0 1179 11 22
110 123 0 1183 4 18
112 114 0 1179 7 25
114 107 0 1177 7 26
116 104 0 1174 8 24
118 89 0 1191 9 38
120 84 0 1188 4 30
122 86 0 1198 6 30
124 84 0 1204 4 23
126 78 0 1193 2 33
128 76 0 1220 2 18
130 74 0 1209 4 26
132 70 0 1219 7 27
134 70 0 1224 3 19
136 66 0 1223 3 21
138 60 0 1221 1 24
140 59 0 1224 2 37
142 56 0 1239 5 13
144 62 0 1218 2 25
146 63 0 1232 0 25
148 61 0 1237 5 17
150 54 0 1248 4 23
152 54 0 1250 6 28
154 55 0 1247 4 33
156 52 0 1245 3 35
158 59 0 1254 1 25
160 55 0 1256 4 18
162 56 0 1257 4 29
164 59 0 1248 2 29
166 50 0 1259 2 18
168 45 0 1245 2 37
170 42 0 1238 2 34
172 41 0 1228 3 43
174 43 0 1231 1 38
176 41 0 1247 3 21
178 36 0 1254 2 24
180 34 0 1260 1 26
182 34 0 1261 1 36
184 33 0 1262 2 25
186 27 0 1266 2 28
188 26 0 1255 2 32
190 24 0 1262 1 25
192 27 0 1259 3 27
194 27 0 1271 2 37
196 25 0 1274 2 35
198 24 0 1269 2 27
200 23 0 1290 3 21
