0 1054 0 0 0 0 0
2 988 0 0 68 0 0
4.00004 987 0 0 75 0 0
6 1009 0 0 62 0 0
8 996 0 0 77 0 0
10 985 0 0 79 0 0
12 997 0 0 69 0 0
14 979 0 0 99 0 0
16 990 0 0 82 0 0
18 958 0 0 109 0 0
20 953 0 0 103 0 0
22 972 0 0 91 0 0
24 965 0 0 87 0 0
26 971 0 0 88 0 0
28 956 0 0 94 0 0
30 954 0 0 99 0 0
32 957 0 0 101 0 0
34 967 0 0 102 0 0
36 972 0 0 106 0 0
38 968 0 0 108 0 0
40 974 0 0 91 0 0
42 974 0 0 109 0 0
44 976 0 0 98 0 0
46 985 0 0 91 0 0
48 998 0 0 76 0 0
50 1003 0 0 96 0 0
52 996 0 4 92 1 0
54 982 0 9 95 9 0
56 973 0 19 92 12 0
58 963 0 29 83 15 0
60 952 0 43 83 17 0
62 934 0 51 79 20 0
64 919 0 62 78 16 0
66 910 0 65 72 29 0
68 891 0 89 75 24 0
70 887 0 88 62 27 0
72 889 0 107 54 25 0
74 864 0 119 66 34 0
76 853 0 133 58 36 0
78 830 0 142 61 30 0
80 824 0 148 62 40 0
82 817 0 162 57 35 0
84 800 0 184 63 29 0
86 788 0 186 66 37 0
88 785 0 196 55 37 0
90 782 0 197 48 47 0
92 759 0 219 49 37 0
94 744 0 222 60 43 0
96 740 0 228 59 38 0
98 737 0 233 57 52 0
100 727 0 251 57 52 0
102 725 0 265 55 42 0
104 717 0 270 55 50 0
106 716 0 279 46 46 0
108 694 0 287 54 49 0
110 693 0 301 43 42 0
112 678 0 297 44 50 0
114 683 0 312 38 55 0
116 676 0 325 35 44 0
118 664 0 323 35 54 0
120 656 0 330 32 54 0
122 641 0 346 39 49 0
124 629 0 360 41 45 0
126 634 0 367 27 44 0
128 612 0 371 44 49 0
130 607 0 375 46 48 0
132 598 0 385 48 47 0
134 599 0 392 48 62 0
136 600 0 403 36 41 0
138 584 0 400 37 59 0
140 579 0 397 38 66 0
142 578 0 409 36 53 0
144 571 0 397 37 63 0
146 552 0 432 39 53 0
148 546 0 444 38 43 0
150 547 0 454 33 46 0
152 530 0 448 40 57 0
154 525 0 446 41 63 0
156 512 0 463 44 59 0
158 503 0 496 38 49 0
160 502 0 478 41 61 0
162 484 0 477 38 77 0
164 472 0 511 40 57 0
166 463 0 506 41 56 0
168 455 0 526 43 63 0
170 458 0 537 37 50 0
172 453 0 537 33 66 0
174 452 0 539 29 59 0
176 444 0 560 30 58 0
178 446 0 560 23 63 0
180 440 0 551 25 63 0
182 435 0 562 28 69 0
184 430 0 561 25 69 0
186 428 0 567 20 65 0
188 418 0 600 23 51 0
190 407 0 598 32 53 0
192 404 0 583 27 64 0
194 402 0 579 22 72 0
196 402 0 584 20 65 0
198 403 0 583 15 78 0
200 384 0 593 31 67 0
