0 925 0 0 0 0 0
2 827 26 0 49 0 13
4.00004 828 25 0 66 0 8
6 813 41 0 59 0 10
8 807 33 0 66 0 15
10 811 37 0 60 0 15
12 813 30 0 71 0 18
14 835 15 0 68 0 19
16 821 30 0 74 0 15
18 831 24 0 69 0 12
20 813 25 0 79 0 13
22 813 39 0 66 0 14
24 807 33 0 76 0 17
26 821 28 0 68 0 17
28 819 33 0 63 0 10
30 819 34 0 64 0 15
32 805 26 0 80 0 26
34 800 36 0 83 0 15
36 819 34 0 84 0 14
38 807 38 0 88 0 13
40 809 35 0 81 0 17
42 818 39 0 84 0 21
44 794 47 0 96 0 23
46 840 32 0 77 0 17
48 822 30 0 94 0 17
50 824 29 0 78 0 21
52 700 0 154 39 58 0
54 633 0 254 32 44 0
56 586 0 301 21 66 0
58 533 0 348 23 71 0
60 483 0 412 32 51 0
62 447 0 442 16 62 0
64 390 0 470 14 90 0
66 354 0 512 18 79 0
68 315 0 535 14 91 0
70 268 0 618 15 70 0
72 258 0 625 9 78 0
74 232 0 626 17 87 0
76 213 0 659 16 89 0
78 197 0 682 8 88 1
80 175 0 689 14 95 0
82 158 0 704 14 84 0
84 152 1 726 11 65 0
86 144 0 729 11 71 0
88 129 0 743 12 68 0
90 128 0 727 11 88 0
92 120 0 748 10 78 0
94 115 0 749 14 91 0
96 110 0 750 7 92 0
98 82 0 779 10 88 0
100 78 0 773 15 83 1
102 74 0 793 12 84 0
104 62 0 802 14 91 0
106 62 0 819 8 86 0
108 59 0 814 8 96 0
110 47 1 826 17 98 0
112 47 0 830 13 106 0
114 52 0 845 4 92 0
116 41 0 834 14 94 0
118 33 0 857 11 77 0
120 33 0 855 9 84 0
122 29 0 858 13 86 0
124 26 0 845 14 95 0
126 29 0 847 8 95 0
128 25 0 872 11 75 0
130 23 0 860 10 99 0
132 25 0 876 9 88 0
134 23 0 885 10 91 0
136 23 0 877 7 97 0
138 24 0 863 2 101 0
140 18 0 889 6 85 0
142 23 0 882 2 103 0
144 16 0 876 8 96 0
146 15 0 878 5 97 0
148 18 0 880 7 88 0
150 16 0 876 7 94 0
152 12 0 885 7 95 0
154 18 0 888 3 89 0
156 19 0 875 3 96 0
158 15 0 880 5 88 0
160 14 0 891 3 101 0
162 10 0 891 6 91 0
164 8 0 896 6 84 0
166 7 0 902 2 94 0
168 9 0 903 7 83 0
170 14 0 883 2 92 0
172 13 0 885 6 108 0
174 14 0 905 3 97 0
176 9 0 915 2 80 0
178 10 0 901 2 86 0
180 10 0 892 3 111 0
182 5 0 883 4 111 0
184 10 0 911 5 93 0
186 11 0 897 7 106 0
188 10 0 902 6 102 0
190 5 0 899 7 111 0
192 9 0 903 4 112 0
194 10 0 904 2 113 0
196 7 1 923 4 90 0
198 9 0 936 7 83 0
200 8 0 929 6 91 0
