0 949 0 0 0 0 0
2 848 29 0 57 0 19
4.00004 840 20 0 70 0 15
6 826 30 0 60 0 16
8 828 28 0 58 0 15
10 839 27 0 53 0 8
12 845 15 0 56 0 17
14 822 24 0 64 0 17
16 828 26 0 68 0 14
18 815 21 0 81 0 20
20 820 32 0 68 0 12
22 806 28 0 81 0 11
24 805 33 0 73 0 22
26 811 36 0 76 0 11
28 800 24 0 80 0 17
30 807 32 0 79 0 11
32 795 31 0 77 0 12
34 799 30 0 68 0 17
36 805 25 0 71 0 11
38 809 28 0 56 0 10
40 800 31 0 62 0 18
42 810 23 0 72 0 13
44 823 25 0 66 0 14
46 828 23 0 69 0 10
48 826 28 0 66 0 10
50 806 23 0 76 0 15
52 714 1 121 36 45 0
54 650 0 200 24 50 1
56 571 0 263 26 72 0
58 531 0 310 16 68 0
60 464 0 360 22 74 0
62 421 0 402 17 70 0
64 384 0 427 12 81 0
66 343 0 477 21 72 0
68 318 0 507 14 86 0
70 297 0 513 8 84 0
72 269 0 568 13 61 0
74 256 0 580 11 62 0
76 239 0 575 14 84 0
78 214 0 603 13 83 0
80 198 0 627 9 75 0
82 185 0 646 9 74 0
84 177 0 674 13 61 0
86 167 0 667 10 75 0
88 151 0 697 11 68 0
90 136 0 697 16 74 0
92 122 0 717 8 75 0
94 114 0 720 11 75 0
96 105 0 745 11 72 0
98 93 0 758 3 67 0
100 81 0 741 12 79 0
102 80 0 752 4 88 0
104 77 0 761 8 69 0
106 67 0 766 14 65 0
108 74 0 761 8 75 0
110 63 0 787 7 66 0
112 55 0 774 9 76 0
114 50 1 796 7 64 0
116 42 0 799 6 76 0
118 43 0 785 9 74 0
120 34 0 777 10 76 0
122 31 0 795 7 69 0
124 33 0 798 7 67 0
126 26 0 803 5 71 0
128 31 0 800 6 77 0
130 33 0 795 7 62 0
132 27 0 786 11 81 0
134 26 0 779 7 78 0
136 28 0 790 7 67 0
138 25 0 776 9 75 0
140 30 0 780 5 74 0
142 21 0 782 8 65 0
144 17 0 781 7 79 0
146 23 0 784 5 80 0
148 16 0 796 8 82 0
150 17 0 802 10 75 0
152 22 0 800 3 74 0
154 24 0 793 5 79 0
156 20 0 792 8 94 0
158 19 0 819 3 77 0
160 15 0 791 4 97 0
162 16 0 801 6 72 0
164 10 0 782 8 93 0
166 17 0 813 4 70 0
168 17 0 804 8 68 0
170 18 0 786 8 87 0
172 20 0 789 6 90 0
174 18 0 799 9 87 0
176 12 0 814 5 78 0
178 6 0 805 7 81 0
180 10 0 814 3 72 0
182 10 0 805 6 80 0
184 14 0 810 6 55 0
186 12 0 791 7 75 0
188 12 0 803 10 69 0
190 15 0 803 4 81 0
192 12 0 806 4 72 0
194 7 0 815 3 72 0
196 11 0 805 9 79 0
198 12 0 808 6 72 0
200 14 0 816 3 78 0
