0 86 0 0 0
2 82 0 4 0
4.00004 86 0 2 0
6 85 0 3 0
8 86 0 2 0
10 83 0 6 0
12 84 0 5 0
14 82 0 7 0
16 83 0 7 0
18 83 0 6 0
20 81 0 6 0
22 79 0 7 0
24 81 0 5 0
26 82 0 5 0
28 82 0 4 0
30 82 0 5 0
32 83 0 4 0
34 81 0 8 0
36 82 0 8 0
38 84 0 6 0
40 83 0 8 0
42 82 0 9 0
44 84 0 5 0
46 82 0 7 0
48 87 0 3 0
50 86 0 6 0
52 67 19 3 0
54 62 24 4 0
56 49 35 5 1
58 41 43 5 1
60 31 52 7 0
62 30 53 8 1
64 24 57 7 1
66 22 60 5 2
68 18 65 4 1
70 16 67 3 1
72 17 68 1 1
74 14 72 3 1
76 14 70 5 3
78 14 72 3 2
80 12 73 3 3
82 10 75 3 4
84 10 76 2 4
86 9 76 1 4
88 8 78 3 3
90 6 79 5 2
92 5 81 4 1
94 3 82 3 3
96 3 82 2 4
98 4 82 2 5
100 3 83 2 4
102 3 86 1 2
104 4 84 0 4
106 2 83 0 7
108 2 86 0 2
110 2 85 1 4
112 2 86 0 3
114 2 86 1 3
116 2 87 0 2
118 1 86 1 5
120 1 86 1 4
122 1 87 2 3
124 2 85 1 5
126 3 84 0 4
128 2 85 1 4
130 2 87 2 3
132 2 87 3 1
134 3 85 3 3
136 3 86 1 2
138 4 84 1 4
140 2 87 1 4
142 2 87 1 2
144 2 88 1 2
146 2 89 2 2
148 1 90 1 1
150 1 90 0 1
152 1 91 1 0
154 1 90 1 1
156 1 89 0 2
158 0 90 0 2
160 0 91 0 1
162 0 90 2 2
164 0 90 4 2
166 0 91 4 1
168 0 91 2 1
170 0 89 2 3
172 0 89 2 2
174 0 87 2 4
176 0 86 1 5
178 0 87 3 4
180 0 87 2 4
182 0 88 2 2
184 1 86 2 4
186 1 87 1 3
188 1 87 1 3
190 0 85 0 7
192 0 85 2 6
194 0 84 2 7
196 0 85 2 7
198 1 83 1 8
200 1 85 1 6
202 0 85 1 4
204 0 84 1 4
206 0 81 1 8
208 0 82 2 5
210 0 83 1 3
212 0 82 2 5
214 0 82 2 3
216 1 80 2 7
218 1 81 0 6
220 1 81 1 5
222 1 79 3 8
224 2 81 1 6
226 3 80 4 7
228 4 82 2 4
230 2 82 3 4
232 3 83 2 4
234 3 84 1 4
236 4 84 1 4
238 4 86 1 2
240 3 86 3 2
242 4 86 3 2
244 4 84 2 4
246 4 83 2 5
248 3 85 3 5
250 2 82 3 8
252 3 84 2 6
254 4 84 0 6
256 4 83 1 6
258 3 84 2 6
260 2 86 2 5
262 0 86 1 7
264 1 85 1 8
266 1 86 1 6
268 1 88 1 4
270 1 86 1 6
272 1 88 2 4
274 2 85 1 5
276 2 88 1 2
278 1 89 1 2
280 1 88 2 2
282 1 86 1 5
284 1 86 1 5
286 2 86 0 5
288 2 85 0 6
290 2 85 1 5
292 2 87 1 4
294 1 88 1 3
296 1 87 2 4
298 2 89 1 2
300 2 88 1 3
302 2 88 0 3
304 2 87 1 5
306 2 86 1 5
308 2 89 1 3
310 2 90 1 1
312 3 88 0 3
314 3 87 0 4
316 3 88 0 3
318 3 87 0 4
320 1 85 0 8
322 1 87 0 6
324 1 87 1 6
326 1 83 1 9
328 1 83 1 9
330 0 86 2 7
332 1 89 0 3
334 1 89 2 3
336 0 87 1 3
338 0 88 1 4
340 0 87 0 6
342 0 87 0 5
344 0 85 0 8
346 0 86 0 7
348 0 84 0 9
350 0 86 0 7
