0 75 0 0 0
2 75 0 2 0
4.00004 74 0 2 0
6 73 0 3 0
8 73 0 4 0
10 73 0 3 0
12 75 0 1 0
14 73 0 3 0
16 74 0 2 0
18 72 0 4 0
20 74 0 3 0
22 74 0 2 0
24 73 0 3 0
26 73 0 2 0
28 73 0 2 0
30 71 0 5 0
32 72 0 4 0
34 72 0 4 0
36 72 0 5 0
38 73 0 3 0
40 69 0 7 0
42 70 0 5 0
44 70 0 8 0
46 70 0 7 0
48 68 0 11 0
50 67 0 10 0
52 62 7 8 0
54 48 18 10 1
56 42 26 8 0
58 34 35 8 0
60 28 41 6 1
62 26 41 7 3
64 22 45 8 2
66 23 46 6 2
68 19 47 5 5
70 16 55 5 1
72 15 55 6 2
74 12 58 5 2
76 10 59 5 3
78 8 60 7 3
80 8 60 5 4
82 8 63 5 1
84 8 63 5 2
86 6 66 5 0
88 6 63 6 3
90 6 65 5 1
92 7 65 4 1
94 5 65 5 2
96 4 65 5 4
98 5 64 4 5
100 4 63 4 5
102 4 65 4 4
104 4 65 3 5
106 4 66 2 4
108 4 64 2 5
110 3 65 3 5
112 3 66 3 4
114 3 63 2 7
116 2 64 3 7
118 2 62 1 9
120 2 62 1 9
122 2 61 2 10
124 2 64 1 7
126 2 62 2 9
128 1 63 2 6
130 1 64 3 5
132 0 64 4 7
134 0 65 3 5
136 1 65 2 5
138 1 64 2 6
140 1 65 2 6
142 1 63 2 9
144 1 63 2 8
146 1 65 6 7
148 1 63 4 8
150 1 65 5 5
152 1 63 2 9
154 1 60 6 12
156 1 63 5 9
158 1 64 6 7
160 1 65 7 4
162 2 67 5 3
164 0 67 4 3
166 0 67 4 5
168 0 67 5 3
170 1 66 3 4
172 1 66 3 4
174 1 64 3 7
176 1 66 5 5
178 1 67 3 3
180 1 68 4 4
182 1 67 3 5
184 1 66 3 6
186 2 68 2 4
188 2 66 3 4
190 2 67 3 3
192 2 67 4 3
194 3 66 2 4
196 2 67 5 3
198 3 64 5 7
200 3 64 5 7
202 3 64 4 6
204 3 67 1 4
206 3 67 4 5
208 3 67 4 5
210 3 68 4 2
212 1 70 5 3
214 2 70 4 4
216 2 68 3 5
218 2 67 3 6
220 2 66 4 7
222 2 68 4 5
224 3 64 3 10
226 1 70 3 5
228 1 71 1 4
230 1 70 3 6
232 2 69 1 6
234 1 70 2 4
236 1 71 1 3
238 1 71 1 3
240 1 72 1 3
242 1 70 1 5
244 1 71 2 4
246 0 72 3 4
248 0 70 3 6
250 1 72 3 4
252 0 73 4 4
254 0 73 4 5
256 0 74 2 4
258 1 74 3 3
260 1 74 3 3
262 1 69 4 8
264 1 68 4 8
266 2 71 3 4
268 2 72 3 4
270 2 72 2 5
272 2 74 1 3
274 2 73 0 4
276 1 74 1 3
278 2 75 0 2
280 1 76 0 3
282 1 75 0 3
284 1 73 0 5
286 1 72 0 6
288 1 71 0 6
290 0 72 1 6
292 0 73 1 5
294 0 74 1 4
296 0 72 1 5
298 0 75 1 2
300 0 75 1 1
302 0 74 1 3
304 0 75 1 2
306 0 75 1 2
308 0 75 0 2
310 0 77 1 0
312 0 77 2 0
314 0 76 3 1
316 0 73 2 5
318 0 71 2 7
320 0 75 1 3
322 0 75 2 4
324 0 74 4 4
326 0 75 3 4
328 0 76 0 3
330 0 75 0 4
332 0 73 1 6
334 0 73 1 6
336 0 75 2 4
338 0 73 2 6
340 0 73 2 6
342 0 74 3 4
344 0 73 2 4
346 0 74 2 4
348 1 75 3 2
350 2 72 0 5
