0 73 0 0 0
2 75 0 0 0
4.00004 74 0 2 0
6 74 0 2 0
8 69 0 6 0
10 71 0 4 0
12 69 0 6 0
14 71 0 4 0
16 69 0 7 0
18 67 0 9 0
20 68 0 6 0
22 67 0 8 0
24 69 0 7 0
26 70 0 6 0
28 71 0 5 0
30 68 0 8 0
32 69 0 7 0
34 69 0 5 0
36 68 0 8 0
38 70 0 6 0
40 68 0 8 0
42 71 0 4 0
44 70 0 5 0
46 70 0 5 0
48 69 0 6 0
50 70 0 5 0
52 72 0 3 0
54 71 0 4 0
56 70 0 5 0
58 70 0 5 0
60 69 0 8 0
62 71 0 9 0
64 71 0 8 0
66 66 0 14 0
68 68 0 13 0
70 69 0 10 0
72 69 0 9 0
74 69 0 9 0
76 68 0 10 0
78 65 0 14 1
80 67 0 10 0
82 63 0 14 0
84 67 0 11 0
86 67 0 11 0
88 66 0 11 1
90 67 0 11 1
92 66 0 12 1
94 67 0 9 0
96 67 0 10 1
98 67 0 10 1
100 69 0 6 2
102 69 0 8 1
104 66 0 10 1
106 69 0 7 1
108 70 0 6 1
110 70 0 5 1
112 65 0 12 1
114 69 0 8 1
116 68 0 8 1
118 68 0 8 1
120 65 0 10 0
122 66 0 9 0
124 69 0 5 1
126 68 0 5 1
128 69 0 3 2
130 69 0 3 2
132 69 0 3 2
134 68 0 4 2
136 67 0 5 2
138 68 1 4 1
140 68 1 4 0
142 67 1 5 0
144 67 1 4 0
146 67 1 4 0
148 65 1 5 0
150 63 1 7 0
152 62 1 8 1
154 63 1 7 0
156 64 1 6 1
158 60 1 10 1
160 59 1 11 1
162 59 2 10 1
164 60 2 8 1
166 62 2 5 0
168 63 2 4 0
170 60 2 8 1
172 62 2 5 3
174 63 2 4 2
176 59 2 7 1
178 61 2 5 2
180 62 2 5 3
182 61 2 5 3
184 61 2 5 2
186 59 3 7 1
188 59 4 6 0
190 58 4 8 1
192 57 4 9 1
194 56 4 10 1
196 56 4 10 0
198 56 4 9 0
200 56 4 8 0
202 57 3 6 1
204 56 4 7 1
206 54 4 7 0
208 53 4 9 1
210 56 4 5 2
212 56 4 5 2
214 58 4 4 3
216 56 4 7 2
218 54 5 7 2
220 55 5 8 1
222 54 5 8 1
224 57 5 3 1
226 57 5 4 2
228 57 6 4 1
230 57 6 5 2
232 58 6 3 1
234 54 6 8 2
236 54 6 7 4
238 52 6 9 2
240 55 6 4 1
242 54 7 6 2
244 55 6 4 2
246 53 6 6 3
248 54 6 5 3
250 54 6 7 2
252 55 5 5 3
254 56 6 4 4
256 54 6 7 5
258 55 6 5 4
260 55 7 5 2
262 54 6 6 3
264 55 7 5 2
266 56 8 4 1
268 56 8 3 1
270 54 8 5 2
272 55 8 4 1
274 56 8 3 2
276 55 7 4 2
278 54 7 5 2
280 53 7 4 2
282 55 7 1 2
284 53 7 3 2
286 51 7 6 1
288 52 7 4 1
290 49 7 7 2
292 54 7 3 2
294 52 7 5 2
296 54 6 2 4
298 52 7 4 3
300 49 7 7 3
302 47 7 9 0
304 49 6 7 1
306 49 6 6 1
308 48 6 6 2
310 48 6 6 3
312 50 4 5 4
314 49 5 5 4
316 50 5 4 4
318 50 4 5 5
320 48 6 6 4
322 47 7 6 4
324 48 7 6 4
326 46 7 6 5
328 47 7 3 5
330 49 7 2 5
332 49 7 2 6
334 49 8 1 5
336 49 8 2 5
338 49 9 2 4
340 49 9 2 4
342 49 9 1 3
344 49 9 2 4
346 44 9 7 3
348 45 9 6 3
350 45 9 7 4
