0 71 0 0 0
2 69 0 1 0
4.00004 67 0 4 0
6 70 0 2 0
8 70 0 2 0
10 70 0 2 0
12 68 0 4 0
14 70 0 2 0
16 70 0 2 0
18 71 0 1 0
20 72 0 1 0
22 72 0 1 0
24 71 0 2 0
26 72 0 1 0
28 71 0 2 0
30 71 0 2 0
32 70 0 3 0
34 69 0 3 0
36 70 0 3 0
38 69 0 4 0
40 69 0 4 0
42 69 0 4 0
44 66 0 6 0
46 67 0 5 0
48 68 0 3 0
50 67 0 4 0
52 62 6 4 0
54 50 17 5 0
56 44 22 6 0
58 38 29 5 0
60 34 31 6 1
62 31 36 4 1
64 25 40 3 4
66 20 45 5 2
68 18 48 4 2
70 14 52 4 2
72 8 58 5 2
74 6 59 4 3
76 5 60 4 3
78 4 59 5 4
80 4 59 3 4
82 4 59 1 4
84 2 60 2 4
86 2 61 2 3
88 1 62 2 3
90 0 63 2 3
92 1 60 3 6
94 1 62 2 2
96 0 62 3 4
98 0 64 3 2
100 0 63 3 3
102 0 63 3 3
104 0 64 2 2
106 0 61 3 5
108 0 62 2 4
110 0 61 3 4
112 1 60 2 5
114 1 61 2 5
116 1 61 2 4
118 1 61 2 4
120 1 60 4 5
122 2 62 2 4
124 2 62 1 4
126 2 60 3 6
128 2 62 2 4
130 1 63 2 4
132 2 64 1 3
134 2 61 1 6
136 2 62 2 4
138 2 59 2 7
140 2 58 1 8
142 2 58 2 8
144 2 56 3 10
146 1 59 3 8
148 1 58 3 9
150 1 60 3 7
152 1 57 2 9
154 1 60 2 4
156 1 59 1 6
158 1 60 1 4
160 1 61 2 4
162 1 60 1 4
164 1 59 0 6
166 1 56 2 9
168 1 58 2 6
170 1 57 3 9
172 1 59 3 6
174 1 58 3 6
176 1 59 3 5
178 0 58 3 6
180 1 57 3 7
182 1 57 1 7
184 1 57 0 7
186 1 59 1 5
188 1 60 1 4
190 1 59 2 5
192 0 60 2 5
194 0 62 1 4
196 0 60 2 4
198 0 60 2 3
200 0 61 2 3
202 0 62 1 2
204 0 62 2 1
206 0 59 2 6
208 0 61 3 3
210 0 60 3 4
212 0 60 2 4
214 0 61 2 3
216 1 59 1 5
218 1 59 1 4
220 1 60 1 4
222 1 56 0 8
224 1 58 0 6
226 1 57 0 7
228 1 55 0 8
230 1 56 0 8
232 1 57 1 6
234 0 59 0 4
236 0 59 0 4
238 0 59 0 4
240 0 58 0 5
242 0 56 0 7
244 0 57 0 6
246 0 55 0 8
248 0 56 2 7
250 0 52 2 11
252 0 53 2 10
254 0 56 2 7
256 0 56 3 7
258 0 54 3 9
260 0 56 2 7
262 0 55 2 8
264 0 57 2 6
266 0 57 2 6
268 0 58 2 5
270 0 58 3 5
272 0 57 3 5
274 0 56 3 6
276 0 56 3 5
278 0 56 3 5
280 0 55 3 6
282 0 55 3 6
284 0 57 3 4
286 0 57 3 3
288 0 55 2 7
290 0 55 2 6
292 0 55 2 6
294 0 56 2 5
296 0 57 2 4
298 1 59 1 2
300 1 58 1 3
302 1 58 1 3
304 1 57 1 4
306 2 58 0 3
308 2 56 0 5
310 2 56 0 5
312 2 56 1 6
314 2 54 2 7
316 2 56 3 5
318 2 54 5 7
320 2 54 4 8
322 2 53 2 10
324 2 55 3 7
326 2 55 4 8
328 2 56 5 6
330 2 56 4 6
332 2 55 5 7
334 1 57 4 7
336 0 58 5 5
338 0 58 5 5
340 1 58 4 5
342 1 60 4 4
344 1 61 3 4
346 1 60 3 4
348 1 59 3 6
350 3 60 2 5
