0 73 0 0 0
2 72 0 2 0
4.00004 70 0 2 0
6 69 0 2 0
8 70 0 1 0
10 69 0 1 0
12 67 0 4 0
14 67 0 4 0
16 68 0 5 0
18 69 0 2 0
20 68 0 4 0
22 67 0 5 0
24 68 0 3 0
26 69 0 2 0
28 69 0 3 0
30 68 0 5 0
32 69 0 2 0
34 68 0 4 0
36 67 0 6 0
38 68 0 4 0
40 68 0 5 0
42 67 0 5 0
44 67 0 5 0
46 68 0 4 0
48 69 0 3 0
50 67 0 5 0
52 59 9 5 0
54 54 15 4 0
56 49 19 5 0
58 44 23 7 0
60 41 27 6 0
62 34 33 6 0
64 29 38 7 0
66 24 42 7 0
68 23 44 5 0
70 19 48 5 0
72 18 48 6 1
74 16 51 6 0
76 14 53 4 0
78 12 56 5 0
80 9 59 6 0
82 7 60 6 0
84 8 58 6 2
86 8 58 3 2
88 8 58 5 2
90 7 58 4 3
92 6 60 6 2
94 5 58 4 5
96 5 61 6 2
98 4 62 6 2
100 4 61 5 3
102 4 58 6 6
104 3 60 5 5
106 4 60 6 5
108 4 60 5 5
110 4 59 4 5
112 2 60 5 7
114 3 60 5 5
116 3 61 3 6
118 3 59 3 8
120 3 60 1 7
122 3 60 2 7
124 3 62 1 5
126 3 61 1 6
128 3 62 1 6
130 2 61 3 7
132 2 64 3 4
134 2 62 3 6
136 2 63 2 5
138 2 63 3 5
140 0 64 3 5
142 0 64 3 3
144 0 63 3 5
146 2 63 1 4
148 1 64 1 5
150 1 65 0 4
152 1 64 2 5
154 1 65 3 4
156 1 64 3 5
158 1 66 3 3
160 1 66 3 3
162 1 64 3 6
164 1 64 4 7
166 3 64 1 6
168 3 62 0 8
170 3 62 0 9
172 3 63 0 8
174 3 64 0 7
176 3 60 1 11
178 2 62 1 11
180 2 65 1 7
182 2 64 1 8
184 2 65 1 6
186 2 67 1 5
188 2 66 0 5
190 2 66 1 5
192 2 64 1 7
194 2 67 2 4
196 2 67 2 5
198 3 67 0 5
200 3 65 0 7
202 1 67 0 7
204 1 69 0 4
206 1 66 0 6
208 1 67 0 6
210 1 68 0 5
212 1 68 0 5
214 1 68 0 4
216 1 68 0 2
218 1 67 0 3
220 0 67 0 6
222 0 68 0 4
224 0 65 0 8
226 0 66 0 6
228 0 65 0 7
230 0 65 0 5
232 0 64 0 6
234 0 63 0 6
236 0 64 0 6
238 0 66 1 3
240 0 66 0 3
242 0 67 1 3
244 0 67 2 2
246 0 64 2 6
248 0 64 2 6
250 0 68 2 2
252 0 67 3 3
254 1 67 2 3
256 1 64 0 6
258 1 66 1 4
260 1 67 0 3
262 1 67 0 3
264 1 67 0 3
266 1 66 0 4
268 1 64 0 6
270 1 67 1 3
272 1 68 1 2
274 1 68 1 2
276 1 68 1 1
278 1 66 1 3
280 1 66 2 3
282 1 66 2 2
284 0 68 1 1
286 0 68 1 2
288 0 66 2 4
290 0 68 2 1
292 0 68 2 1
294 0 66 1 4
296 0 66 2 3
298 0 68 2 2
300 0 68 2 2
302 0 69 2 0
304 0 68 2 1
306 0 69 2 0
308 0 69 3 1
310 0 68 3 2
312 0 68 2 1
314 0 67 3 2
316 0 64 3 5
318 0 66 3 4
320 0 65 2 3
322 0 67 2 3
324 0 67 3 2
326 0 67 2 2
328 0 66 3 3
330 1 65 1 4
332 1 64 1 5
334 0 66 2 3
336 0 66 2 3
338 0 65 2 5
340 0 65 2 4
342 1 64 2 6
344 1 63 1 7
346 0 66 1 4
348 0 64 1 6
350 0 64 2 6
