0 78 0 0 0
2 73 0 3 0
4.00004 76 0 1 0
6 77 0 0 0
8 74 0 2 0
10 72 0 4 0
12 73 0 3 0
14 72 0 4 0
16 72 0 4 0
18 71 0 5 0
20 74 0 2 0
22 74 0 2 0
24 73 0 3 0
26 72 0 5 0
28 74 0 5 0
30 74 0 3 0
32 74 0 4 0
34 75 0 4 0
36 75 0 3 0
38 75 0 3 0
40 75 0 3 0
42 75 0 3 0
44 72 0 6 0
46 73 0 4 0
48 74 0 3 0
50 73 0 4 0
52 56 18 1 0
54 46 28 3 0
56 38 35 4 0
58 34 40 3 0
60 27 47 3 0
62 24 49 1 2
64 22 51 1 2
66 20 55 2 1
68 18 57 2 0
70 19 56 1 1
72 17 56 1 3
74 15 58 2 3
76 12 61 1 3
78 9 64 2 2
80 6 68 1 2
82 5 68 2 3
84 5 67 2 4
86 4 67 2 5
88 6 66 0 6
90 6 65 1 7
92 6 65 1 7
94 5 66 1 5
96 2 69 2 5
98 1 71 2 3
100 1 71 0 4
102 1 69 1 5
104 1 69 1 6
106 1 71 2 5
108 1 72 2 4
110 0 73 3 4
112 0 74 2 3
114 0 73 0 3
116 0 72 1 5
118 0 71 1 6
120 0 71 1 5
122 1 72 2 4
124 1 70 2 6
126 1 71 3 6
128 1 73 1 3
130 2 71 2 5
132 2 70 1 7
134 2 70 0 6
136 2 69 0 5
138 2 67 1 7
140 1 66 2 9
142 0 66 2 10
144 1 68 1 6
146 0 70 0 6
148 0 70 0 8
150 0 71 1 6
152 0 72 2 4
154 0 71 1 7
156 0 72 2 5
158 1 73 1 3
160 1 74 2 2
162 1 72 2 4
164 1 71 3 5
166 1 71 2 4
168 1 68 3 7
170 1 71 1 5
172 0 72 3 6
174 1 72 2 5
176 1 73 2 4
178 2 74 1 2
180 2 75 0 2
182 1 72 2 6
184 1 70 3 7
186 1 74 2 4
188 2 73 1 4
190 2 71 2 7
192 1 74 3 4
194 3 75 1 3
196 2 77 1 2
198 2 76 1 2
200 1 76 1 4
202 1 75 1 5
204 1 76 1 4
206 0 76 3 4
208 1 77 0 3
210 1 75 1 5
212 1 75 1 5
214 2 73 0 5
216 2 74 0 2
218 2 75 0 4
220 2 74 0 5
222 2 75 0 2
224 2 74 1 4
226 1 72 1 5
228 1 71 1 8
230 0 75 0 5
232 0 73 1 6
234 0 74 0 5
236 0 75 0 5
238 0 75 0 2
240 0 74 0 2
242 0 71 1 6
244 0 72 1 4
246 0 72 2 4
248 0 72 2 5
250 0 72 2 4
252 1 73 1 2
254 0 73 1 4
256 0 73 1 5
258 0 74 1 4
260 0 74 1 3
262 0 74 1 3
264 0 74 1 1
266 0 72 1 5
268 0 72 3 5
270 0 71 3 6
272 1 72 3 5
274 2 74 3 3
276 3 74 2 3
278 2 76 2 2
280 2 75 2 2
282 1 74 2 4
284 2 74 1 5
286 2 74 1 4
288 1 77 1 2
290 0 77 1 2
292 0 75 1 5
294 0 75 3 5
296 0 78 1 2
298 0 76 5 4
300 0 76 5 5
302 0 74 5 6
304 2 74 5 7
306 1 76 2 6
308 1 79 3 3
310 1 76 2 6
312 1 77 3 5
314 2 78 3 4
316 4 79 1 3
318 3 81 1 2
320 3 78 2 5
322 2 78 3 5
324 2 80 1 4
326 2 80 0 3
328 1 81 0 3
330 1 78 0 6
332 1 80 1 4
334 1 81 0 2
336 1 81 1 1
338 1 79 2 5
340 1 78 3 6
342 1 78 3 5
344 1 75 2 8
346 2 76 2 4
348 2 77 1 4
350 1 77 1 3
