%!PS-Adobe-3.0 EPSF-3.0
%%Creator: MATLAB, The MathWorks, Inc. Version 8.1.0.604 (R2013a). Operating System: Darwin 11.4.2 Darwin Kernel Version 11.4.2: Thu Aug 23 16:25:48 PDT 2012; root:xnu-1699.32.7~1/RELEASE_X86_64 x86_64.
%%Title: ./CPs_Nsg1-bridge.eps
%%CreationDate: 10/25/2013  18:03:18
%%DocumentNeededFonts: Helvetica
%%DocumentProcessColors: Cyan Magenta Yellow Black
%%LanguageLevel: 2
%%Pages: 1
%%BoundingBox:    56   195   546   616
%%EndComments

%%BeginProlog
% MathWorks dictionary
/MathWorks 160 dict begin
% definition operators
/bdef {bind def} bind def
/ldef {load def} bind def
/xdef {exch def} bdef
/xstore {exch store} bdef
% operator abbreviations
/c  /clip ldef
/cc /concat ldef
/cp /closepath ldef
/gr /grestore ldef
/gs /gsave ldef
/mt /moveto ldef
/np /newpath ldef
/cm /currentmatrix ldef
/sm /setmatrix ldef
/rm /rmoveto ldef
/rl /rlineto ldef
/s {show newpath} bdef
/sc {setcmykcolor} bdef
/sr /setrgbcolor ldef
/sg /setgray ldef
/w /setlinewidth ldef
/j /setlinejoin ldef
/cap /setlinecap ldef
/rc {rectclip} bdef
/rf {rectfill} bdef
% page state control
/pgsv () def
/bpage {/pgsv save def} bdef
/epage {pgsv restore} bdef
/bplot /gsave ldef
/eplot {stroke grestore} bdef
% orientation switch
/portraitMode 0 def /landscapeMode 1 def /rotateMode 2 def
% coordinate system mappings
/dpi2point 0 def
% font control
/FontSize 0 def
/FMS {/FontSize xstore findfont [FontSize 0 0 FontSize neg 0 0]
  makefont setfont} bdef
/reencode {exch dup where {pop load} {pop StandardEncoding} ifelse
  exch dup 3 1 roll findfont dup length dict begin
  { 1 index /FID ne {def}{pop pop} ifelse } forall
  /Encoding exch def currentdict end definefont pop} bdef
/isroman {findfont /CharStrings get /Agrave known} bdef
/FMSR {3 1 roll 1 index dup isroman {reencode} {pop pop} ifelse
  exch FMS} bdef
/csm {1 dpi2point div -1 dpi2point div scale neg translate
 dup landscapeMode eq {pop -90 rotate}
  {rotateMode eq {90 rotate} if} ifelse} bdef
% line types: solid, dotted, dashed, dotdash
/SO { [] 0 setdash } bdef
/DO { [.5 dpi2point mul 4 dpi2point mul] 0 setdash } bdef
/DA { [6 dpi2point mul] 0 setdash } bdef
/DD { [.5 dpi2point mul 4 dpi2point mul 6 dpi2point mul 4
  dpi2point mul] 0 setdash } bdef
% macros for lines and objects
/L {lineto stroke} bdef
/MP {3 1 roll moveto 1 sub {rlineto} repeat} bdef
/AP {{rlineto} repeat} bdef
/PDlw -1 def
/W {/PDlw currentlinewidth def setlinewidth} def
/PP {closepath eofill} bdef
/DP {closepath stroke} bdef
/MR {4 -2 roll moveto dup  0 exch rlineto exch 0 rlineto
  neg 0 exch rlineto closepath} bdef
/FR {MR stroke} bdef
/PR {MR fill} bdef
/L1i {{currentfile picstr readhexstring pop} image} bdef
/tMatrix matrix def
/MakeOval {newpath tMatrix currentmatrix pop translate scale
0 0 1 0 360 arc tMatrix setmatrix} bdef
/FO {MakeOval stroke} bdef
/PO {MakeOval fill} bdef
/PD {currentlinewidth 2 div 0 360 arc fill
   PDlw -1 eq not {PDlw w /PDlw -1 def} if} def
/FA {newpath tMatrix currentmatrix pop translate scale
  0 0 1 5 -2 roll arc tMatrix setmatrix stroke} bdef
/PA {newpath tMatrix currentmatrix pop	translate 0 0 moveto scale
  0 0 1 5 -2 roll arc closepath tMatrix setmatrix fill} bdef
/FAn {newpath tMatrix currentmatrix pop translate scale
  0 0 1 5 -2 roll arcn tMatrix setmatrix stroke} bdef
/PAn {newpath tMatrix currentmatrix pop translate 0 0 moveto scale
  0 0 1 5 -2 roll arcn closepath tMatrix setmatrix fill} bdef
/vradius 0 def /hradius 0 def /lry 0 def
/lrx 0 def /uly 0 def /ulx 0 def /rad 0 def
/MRR {/vradius xdef /hradius xdef /lry xdef /lrx xdef /uly xdef
  /ulx xdef newpath tMatrix currentmatrix pop ulx hradius add uly
  vradius add translate hradius vradius scale 0 0 1 180 270 arc 
  tMatrix setmatrix lrx hradius sub uly vradius add translate
  hradius vradius scale 0 0 1 270 360 arc tMatrix setmatrix
  lrx hradius sub lry vradius sub translate hradius vradius scale
  0 0 1 0 90 arc tMatrix setmatrix ulx hradius add lry vradius sub
  translate hradius vradius scale 0 0 1 90 180 arc tMatrix setmatrix
  closepath} bdef
/FRR {MRR stroke } bdef
/PRR {MRR fill } bdef
/MlrRR {/lry xdef /lrx xdef /uly xdef /ulx xdef /rad lry uly sub 2 div def
  newpath tMatrix currentmatrix pop ulx rad add uly rad add translate
  rad rad scale 0 0 1 90 270 arc tMatrix setmatrix lrx rad sub lry rad
  sub translate rad rad scale 0 0 1 270 90 arc tMatrix setmatrix
  closepath} bdef
/FlrRR {MlrRR stroke } bdef
/PlrRR {MlrRR fill } bdef
/MtbRR {/lry xdef /lrx xdef /uly xdef /ulx xdef /rad lrx ulx sub 2 div def
  newpath tMatrix currentmatrix pop ulx rad add uly rad add translate
  rad rad scale 0 0 1 180 360 arc tMatrix setmatrix lrx rad sub lry rad
  sub translate rad rad scale 0 0 1 0 180 arc tMatrix setmatrix
  closepath} bdef
/FtbRR {MtbRR stroke } bdef
/PtbRR {MtbRR fill } bdef
/stri 6 array def /dtri 6 array def
/smat 6 array def /dmat 6 array def
/tmat1 6 array def /tmat2 6 array def /dif 3 array def
/asub {/ind2 exch def /ind1 exch def dup dup
  ind1 get exch ind2 get sub exch } bdef
/tri_to_matrix {
  2 0 asub 3 1 asub 4 0 asub 5 1 asub
  dup 0 get exch 1 get 7 -1 roll astore } bdef
/compute_transform {
  dmat dtri tri_to_matrix tmat1 invertmatrix 
  smat stri tri_to_matrix tmat2 concatmatrix } bdef
/ds {stri astore pop} bdef
/dt {dtri astore pop} bdef
/db {2 copy /cols xdef /rows xdef mul dup 3 mul string
  currentfile 
  3 index 0 eq {/ASCIIHexDecode filter}
  {/ASCII85Decode filter 3 index 2 eq {/RunLengthDecode filter} if }
  ifelse exch readstring pop
  dup 0 3 index getinterval /rbmap xdef
  dup 2 index dup getinterval /gbmap xdef
  1 index dup 2 mul exch getinterval /bbmap xdef pop pop}bdef
/it {gs np dtri aload pop moveto lineto lineto cp c
  cols rows 8 compute_transform 
  rbmap gbmap bbmap true 3 colorimage gr}bdef
/il {newpath moveto lineto stroke}bdef
currentdict end def
%%EndProlog

%%BeginSetup
MathWorks begin

0 cap

end
%%EndSetup

%%Page: 1 1
%%BeginPageSetup
%%PageBoundingBox:    56   195   546   616
MathWorks begin
bpage
%%EndPageSetup

%%BeginObject: obj1
bplot

/dpi2point 12 def
portraitMode 0216 7344 csm

  458   -48  5887  5048 rc
86 dict begin %Colortable dictionary
/c0 { 0.000000 0.000000 0.000000 sr} bdef
/c1 { 1.000000 1.000000 1.000000 sr} bdef
/c2 { 0.900000 0.000000 0.000000 sr} bdef
/c3 { 0.000000 0.820000 0.000000 sr} bdef
/c4 { 0.000000 0.000000 0.800000 sr} bdef
/c5 { 0.910000 0.820000 0.320000 sr} bdef
/c6 { 1.000000 0.260000 0.820000 sr} bdef
/c7 { 0.000000 0.820000 0.820000 sr} bdef
c0
1 j
1 sg
   0    0 6913 5186 rf
6 w
0 4133 5356 0 0 -4133 899 4615 4 MP
PP
-5356 0 0 4133 5356 0 0 -4133 899 4615 5 MP stroke
4 w
DO
SO
6 w
0 sg
 899 4615 mt 6255 4615 L
 899  482 mt 6255  482 L
 899 4615 mt  899  482 L
6255 4615 mt 6255  482 L
 899 4615 mt 6255 4615 L
 899 4615 mt  899  482 L
1345 4615 mt 1345 4561 L
1345  482 mt 1345  535 L
%%IncludeResource: font Helvetica
/Helvetica /ISOLatin1Encoding 120 FMSR

1312 4760 mt 
(0) s
2238 4615 mt 2238 4561 L
2238  482 mt 2238  535 L
2172 4760 mt 
(20) s
3130 4615 mt 3130 4561 L
3130  482 mt 3130  535 L
3064 4760 mt 
(40) s
4023 4615 mt 4023 4561 L
4023  482 mt 4023  535 L
3957 4760 mt 
(60) s
4916 4615 mt 4916 4561 L
4916  482 mt 4916  535 L
4850 4760 mt 
(80) s
5808 4615 mt 5808 4561 L
5808  482 mt 5808  535 L
5708 4760 mt 
(100) s
 899 4615 mt  952 4615 L
6255 4615 mt 6201 4615 L
 798 4659 mt 
(0) s
 899 3926 mt  952 3926 L
6255 3926 mt 6201 3926 L
 731 3970 mt 
(10) s
 899 3237 mt  952 3237 L
6255 3237 mt 6201 3237 L
 731 3281 mt 
(20) s
 899 2548 mt  952 2548 L
6255 2548 mt 6201 2548 L
 731 2592 mt 
(30) s
 899 1859 mt  952 1859 L
6255 1859 mt 6201 1859 L
 731 1903 mt 
(40) s
 899 1170 mt  952 1170 L
6255 1170 mt 6201 1170 L
 731 1214 mt 
(50) s
 899  482 mt  952  482 L
6255  482 mt 6201  482 L
 731  526 mt 
(60) s
 899 4615 mt 6255 4615 L
 899  482 mt 6255  482 L
 899 4615 mt  899  482 L
6255 4615 mt 6255  482 L
gs 899 482 5357 4134 rc
14.4 w
0 1326 1250 2370 2 MP stroke
68 0 1216 2370 2 MP stroke
68 0 1216 3696 2 MP stroke
0 1804 1760 2152 2 MP stroke
69 0 1726 2152 2 MP stroke
69 0 1726 3956 2 MP stroke
0 1617 2125 2969 2 MP stroke
68 0 2091 2969 2 MP stroke
68 0 2091 4586 2 MP stroke
0 316 2319 4093 2 MP stroke
68 0 2285 4093 2 MP stroke
68 0 2285 4409 2 MP stroke
0 133 2545 4270 2 MP stroke
69 0 2510 4270 2 MP stroke
69 0 2510 4403 2 MP stroke
0 113 2963 4420 2 MP stroke
69 0 2929 4420 2 MP stroke
69 0 2929 4533 2 MP stroke
0 104 3626 4477 2 MP stroke
68 0 3592 4477 2 MP stroke
68 0 3592 4581 2 MP stroke
0 24 4677 4585 2 MP stroke
68 0 4643 4585 2 MP stroke
68 0 4643 4609 2 MP stroke
1051 68 663 52 418 140 226 86 194 473 365 724 510 21 1250 3033 8 MP stroke
gr

14.4 w
1208 2991 mt 1292 3075 L
1292 2991 mt 1208 3075 L
1718 3012 mt 1802 3096 L
1802 3012 mt 1718 3096 L
2083 3736 mt 2167 3820 L
2167 3736 mt 2083 3820 L
2277 4209 mt 2361 4293 L
2361 4209 mt 2277 4293 L
2503 4295 mt 2587 4379 L
2587 4295 mt 2503 4379 L
2921 4435 mt 3005 4519 L
3005 4435 mt 2921 4519 L
3584 4487 mt 3668 4571 L
3668 4487 mt 3584 4571 L
4635 4555 mt 4719 4639 L
4719 4555 mt 4635 4639 L
gs 899 482 5357 4134 rc
0 2 1250 4610 2 MP stroke
68 0 1216 4610 2 MP stroke
68 0 1216 4612 2 MP stroke
0 3 1760 4609 2 MP stroke
69 0 1726 4609 2 MP stroke
69 0 1726 4612 2 MP stroke
0 324 2125 4292 2 MP stroke
68 0 2091 4292 2 MP stroke
0 14 2319 4592 2 MP stroke
68 0 2285 4592 2 MP stroke
68 0 2285 4606 2 MP stroke
0 10 2545 4592 2 MP stroke
69 0 2510 4592 2 MP stroke
69 0 2510 4602 2 MP stroke
0 31 2963 4560 2 MP stroke
69 0 2929 4560 2 MP stroke
69 0 2929 4591 2 MP stroke
0 95 3626 4490 2 MP stroke
68 0 3592 4490 2 MP stroke
68 0 3592 4585 2 MP stroke
0 1219 4677 3397 2 MP stroke
68 0 4643 3397 2 MP stroke
1051 -480 663 -38 418 -22 226 -2 194 90 365 -102 510 0 1250 4611 8 MP stroke
gr

1208 4569 mt 1292 4653 L
1292 4569 mt 1208 4653 L
1718 4569 mt 1802 4653 L
1802 4569 mt 1718 4653 L
2083 4467 mt 2167 4551 L
2167 4467 mt 2083 4551 L
2277 4557 mt 2361 4641 L
2361 4557 mt 2277 4641 L
2503 4555 mt 2587 4639 L
2587 4555 mt 2503 4639 L
2921 4533 mt 3005 4617 L
3005 4533 mt 2921 4617 L
3584 4495 mt 3668 4579 L
3668 4495 mt 3584 4579 L
4635 4015 mt 4719 4099 L
4719 4015 mt 4635 4099 L
gs 899 482 5357 4134 rc
24 w
/c8 { 0.000000 0.000000 1.000000 sr} bdef
c8
0 1549 1345 1019 2 MP stroke
89 0 1300 1019 2 MP stroke
89 0 1300 2568 2 MP stroke
0 363 1791 3787 2 MP stroke
89 0 1747 3787 2 MP stroke
89 0 1747 4150 2 MP stroke
0 102 2238 4297 2 MP stroke
89 0 2193 4297 2 MP stroke
89 0 2193 4399 2 MP stroke
0 55 2684 4436 2 MP stroke
89 0 2639 4436 2 MP stroke
89 0 2639 4491 2 MP stroke
0 33 3130 4504 2 MP stroke
89 0 3086 4504 2 MP stroke
89 0 3086 4537 2 MP stroke
0 22 3577 4543 2 MP stroke
89 0 3532 4543 2 MP stroke
89 0 3532 4565 2 MP stroke
0 14 4023 4569 2 MP stroke
89 0 3978 4569 2 MP stroke
89 0 3978 4583 2 MP stroke
0 12 4469 4584 2 MP stroke
89 0 4425 4584 2 MP stroke
89 0 4425 4596 2 MP stroke
0 8 4916 4596 2 MP stroke
89 0 4871 4596 2 MP stroke
89 0 4871 4604 2 MP stroke
0 4 5362 4606 2 MP stroke
89 0 5317 4606 2 MP stroke
89 0 5317 4610 2 MP stroke
0 2 5808 4612 2 MP stroke
89 0 5764 4612 2 MP stroke
89 0 5764 4614 2 MP stroke
446 5 446 8 447 10 446 14 446 22 447 34 446 56 446 116 
447 379 446 2176 1345 1793 11 MP stroke
gr

24 w
c8
  36   36 1345 1793 PO
  36   36 1791 3969 PO
  36   36 2238 4348 PO
  36   36 2684 4464 PO
  36   36 3130 4520 PO
  36   36 3577 4554 PO
  36   36 4023 4576 PO
  36   36 4469 4590 PO
  36   36 4916 4600 PO
  36   36 5362 4608 PO
  36   36 5808 4613 PO
  36   36 1345 1793 FO
  36   36 1791 3969 FO
  36   36 2238 4348 FO
  36   36 2684 4464 FO
  36   36 3130 4520 FO
  36   36 3577 4554 FO
  36   36 4023 4576 FO
  36   36 4469 4590 FO
  36   36 4916 4600 FO
  36   36 5362 4608 FO
  36   36 5808 4613 FO
gs 899 482 5357 4134 rc
/c9 { 1.000000 0.600000 0.200000 sr} bdef
c9
0 3 1345 4611 2 MP stroke
89 0 1300 4611 2 MP stroke
89 0 1300 4614 2 MP stroke
0 5 1791 4604 2 MP stroke
89 0 1747 4604 2 MP stroke
89 0 1747 4609 2 MP stroke
0 6 2238 4593 2 MP stroke
89 0 2193 4593 2 MP stroke
89 0 2193 4599 2 MP stroke
0 14 2684 4575 2 MP stroke
89 0 2639 4575 2 MP stroke
89 0 2639 4589 2 MP stroke
0 19 3130 4553 2 MP stroke
89 0 3086 4553 2 MP stroke
89 0 3086 4572 2 MP stroke
0 38 3577 4514 2 MP stroke
89 0 3532 4514 2 MP stroke
89 0 3532 4552 2 MP stroke
0 48 4023 4464 2 MP stroke
89 0 3978 4464 2 MP stroke
89 0 3978 4512 2 MP stroke
0 106 4469 4356 2 MP stroke
89 0 4425 4356 2 MP stroke
89 0 4425 4462 2 MP stroke
0 211 4916 4152 2 MP stroke
89 0 4871 4152 2 MP stroke
89 0 4871 4363 2 MP stroke
0 592 5362 3459 2 MP stroke
89 0 5317 3459 2 MP stroke
89 0 5317 4051 2 MP stroke
0 1562 5808 482 2 MP stroke
89 0 5764 2044 2 MP stroke
446 -2568 446 -502 447 -152 446 -79 446 -45 447 -30 446 -19 446 -14 
447 -11 446 -6 1345 4613 11 MP stroke
gr

c9
  36   36 1345 4613 PO
  36   36 1791 4607 PO
  36   36 2238 4596 PO
  36   36 2684 4582 PO
  36   36 3130 4563 PO
  36   36 3577 4533 PO
  36   36 4023 4488 PO
  36   36 4469 4409 PO
  36   36 4916 4257 PO
  36   36 5362 3755 PO
  36   36 5808 1187 PO
  36   36 1345 4613 FO
  36   36 1791 4607 FO
  36   36 2238 4596 FO
  36   36 2684 4582 FO
  36   36 3130 4563 FO
  36   36 3577 4533 FO
  36   36 4023 4488 FO
  36   36 4469 4409 FO
  36   36 4916 4257 FO
  36   36 5362 3755 FO
  36   36 5808 1187 FO
gs 899 482 5357 4134 rc
gr

0 sg
%%IncludeResource: font Helvetica
/Helvetica /ISOLatin1Encoding 192 FMSR

3100  178 mt 
(Nsg1-GFP) s
%%IncludeResource: font Helvetica
/Helvetica /ISOLatin1Encoding 168 FMSR

2219  377 mt 
(Domain class: Homogeneous Bridge) s
2787 4938 mt 
(% Total bridge length) s
 639 2666 mt  -90 rotate
(CP) s
90 rotate
%%IncludeResource: font Helvetica
/Helvetica /ISOLatin1Encoding 120 FMSR

 882 4658 mt 
( ) s
6239  524 mt 
( ) s
6 w
1 sg
0 480 772 0 0 -480 5423 1022 4 MP
PP
-772 0 0 480 772 0 0 -480 5423 1022 5 MP stroke
4 w
DO
SO
6 w
0 sg
5423 1022 mt 6195 1022 L
5423  542 mt 6195  542 L
5423 1022 mt 5423  542 L
6195 1022 mt 6195  542 L
5423 1022 mt 6195 1022 L
5423 1022 mt 5423  542 L
5423 1022 mt 6195 1022 L
5423  542 mt 6195  542 L
5423 1022 mt 5423  542 L
6195 1022 mt 6195  542 L
5866  676 mt 
(exp) s
gs 5423 542 773 481 rc
14.4 w
340 0 5491 633 2 MP stroke
6 w
gr

gs 5540 512 243 243 rc
5619  591 mt 5703  675 L
5703  591 mt 5619  675 L
gr

gs 5423 542 773 481 rc
gr

5866  825 mt 
(CP) s
gs 5423 542 773 481 rc
24 w
c8
340 0 5491 782 2 MP stroke
6 w
gs 5588 709 147 147 rc
  36   36 5661  782 PO
  36   36 5661  782 FO
gr

gr

c8
0 sg
5866  973 mt 
(1/CP) s
gs 5423 542 773 481 rc
24 w
c9
340 0 5491 930 2 MP stroke
6 w
gs 5588 857 147 147 rc
  36   36 5661  930 PO
  36   36 5661  930 FO
gr

gr

c9

end %%Color Dict

eplot
%%EndObject

epage
end

showpage

%%Trailer
%%EOF
