%!PS-Adobe-3.0 EPSF-3.0
%%Creator: MATLAB, The MathWorks, Inc. Version 8.1.0.604 (R2013a). Operating System: Darwin 11.4.2 Darwin Kernel Version 11.4.2: Thu Aug 23 16:25:48 PDT 2012; root:xnu-1699.32.7~1/RELEASE_X86_64 x86_64.
%%Title: ./CPs_Src1-bridge.eps
%%CreationDate: 10/29/2013  11:43:57
%%DocumentNeededFonts: Helvetica
%%DocumentProcessColors: Cyan Magenta Yellow Black
%%LanguageLevel: 2
%%Pages: 1
%%BoundingBox:    56   195   546   616
%%EndComments

%%BeginProlog
% MathWorks dictionary
/MathWorks 160 dict begin
% definition operators
/bdef {bind def} bind def
/ldef {load def} bind def
/xdef {exch def} bdef
/xstore {exch store} bdef
% operator abbreviations
/c  /clip ldef
/cc /concat ldef
/cp /closepath ldef
/gr /grestore ldef
/gs /gsave ldef
/mt /moveto ldef
/np /newpath ldef
/cm /currentmatrix ldef
/sm /setmatrix ldef
/rm /rmoveto ldef
/rl /rlineto ldef
/s {show newpath} bdef
/sc {setcmykcolor} bdef
/sr /setrgbcolor ldef
/sg /setgray ldef
/w /setlinewidth ldef
/j /setlinejoin ldef
/cap /setlinecap ldef
/rc {rectclip} bdef
/rf {rectfill} bdef
% page state control
/pgsv () def
/bpage {/pgsv save def} bdef
/epage {pgsv restore} bdef
/bplot /gsave ldef
/eplot {stroke grestore} bdef
% orientation switch
/portraitMode 0 def /landscapeMode 1 def /rotateMode 2 def
% coordinate system mappings
/dpi2point 0 def
% font control
/FontSize 0 def
/FMS {/FontSize xstore findfont [FontSize 0 0 FontSize neg 0 0]
  makefont setfont} bdef
/reencode {exch dup where {pop load} {pop StandardEncoding} ifelse
  exch dup 3 1 roll findfont dup length dict begin
  { 1 index /FID ne {def}{pop pop} ifelse } forall
  /Encoding exch def currentdict end definefont pop} bdef
/isroman {findfont /CharStrings get /Agrave known} bdef
/FMSR {3 1 roll 1 index dup isroman {reencode} {pop pop} ifelse
  exch FMS} bdef
/csm {1 dpi2point div -1 dpi2point div scale neg translate
 dup landscapeMode eq {pop -90 rotate}
  {rotateMode eq {90 rotate} if} ifelse} bdef
% line types: solid, dotted, dashed, dotdash
/SO { [] 0 setdash } bdef
/DO { [.5 dpi2point mul 4 dpi2point mul] 0 setdash } bdef
/DA { [6 dpi2point mul] 0 setdash } bdef
/DD { [.5 dpi2point mul 4 dpi2point mul 6 dpi2point mul 4
  dpi2point mul] 0 setdash } bdef
% macros for lines and objects
/L {lineto stroke} bdef
/MP {3 1 roll moveto 1 sub {rlineto} repeat} bdef
/AP {{rlineto} repeat} bdef
/PDlw -1 def
/W {/PDlw currentlinewidth def setlinewidth} def
/PP {closepath eofill} bdef
/DP {closepath stroke} bdef
/MR {4 -2 roll moveto dup  0 exch rlineto exch 0 rlineto
  neg 0 exch rlineto closepath} bdef
/FR {MR stroke} bdef
/PR {MR fill} bdef
/L1i {{currentfile picstr readhexstring pop} image} bdef
/tMatrix matrix def
/MakeOval {newpath tMatrix currentmatrix pop translate scale
0 0 1 0 360 arc tMatrix setmatrix} bdef
/FO {MakeOval stroke} bdef
/PO {MakeOval fill} bdef
/PD {currentlinewidth 2 div 0 360 arc fill
   PDlw -1 eq not {PDlw w /PDlw -1 def} if} def
/FA {newpath tMatrix currentmatrix pop translate scale
  0 0 1 5 -2 roll arc tMatrix setmatrix stroke} bdef
/PA {newpath tMatrix currentmatrix pop	translate 0 0 moveto scale
  0 0 1 5 -2 roll arc closepath tMatrix setmatrix fill} bdef
/FAn {newpath tMatrix currentmatrix pop translate scale
  0 0 1 5 -2 roll arcn tMatrix setmatrix stroke} bdef
/PAn {newpath tMatrix currentmatrix pop translate 0 0 moveto scale
  0 0 1 5 -2 roll arcn closepath tMatrix setmatrix fill} bdef
/vradius 0 def /hradius 0 def /lry 0 def
/lrx 0 def /uly 0 def /ulx 0 def /rad 0 def
/MRR {/vradius xdef /hradius xdef /lry xdef /lrx xdef /uly xdef
  /ulx xdef newpath tMatrix currentmatrix pop ulx hradius add uly
  vradius add translate hradius vradius scale 0 0 1 180 270 arc 
  tMatrix setmatrix lrx hradius sub uly vradius add translate
  hradius vradius scale 0 0 1 270 360 arc tMatrix setmatrix
  lrx hradius sub lry vradius sub translate hradius vradius scale
  0 0 1 0 90 arc tMatrix setmatrix ulx hradius add lry vradius sub
  translate hradius vradius scale 0 0 1 90 180 arc tMatrix setmatrix
  closepath} bdef
/FRR {MRR stroke } bdef
/PRR {MRR fill } bdef
/MlrRR {/lry xdef /lrx xdef /uly xdef /ulx xdef /rad lry uly sub 2 div def
  newpath tMatrix currentmatrix pop ulx rad add uly rad add translate
  rad rad scale 0 0 1 90 270 arc tMatrix setmatrix lrx rad sub lry rad
  sub translate rad rad scale 0 0 1 270 90 arc tMatrix setmatrix
  closepath} bdef
/FlrRR {MlrRR stroke } bdef
/PlrRR {MlrRR fill } bdef
/MtbRR {/lry xdef /lrx xdef /uly xdef /ulx xdef /rad lrx ulx sub 2 div def
  newpath tMatrix currentmatrix pop ulx rad add uly rad add translate
  rad rad scale 0 0 1 180 360 arc tMatrix setmatrix lrx rad sub lry rad
  sub translate rad rad scale 0 0 1 0 180 arc tMatrix setmatrix
  closepath} bdef
/FtbRR {MtbRR stroke } bdef
/PtbRR {MtbRR fill } bdef
/stri 6 array def /dtri 6 array def
/smat 6 array def /dmat 6 array def
/tmat1 6 array def /tmat2 6 array def /dif 3 array def
/asub {/ind2 exch def /ind1 exch def dup dup
  ind1 get exch ind2 get sub exch } bdef
/tri_to_matrix {
  2 0 asub 3 1 asub 4 0 asub 5 1 asub
  dup 0 get exch 1 get 7 -1 roll astore } bdef
/compute_transform {
  dmat dtri tri_to_matrix tmat1 invertmatrix 
  smat stri tri_to_matrix tmat2 concatmatrix } bdef
/ds {stri astore pop} bdef
/dt {dtri astore pop} bdef
/db {2 copy /cols xdef /rows xdef mul dup 3 mul string
  currentfile 
  3 index 0 eq {/ASCIIHexDecode filter}
  {/ASCII85Decode filter 3 index 2 eq {/RunLengthDecode filter} if }
  ifelse exch readstring pop
  dup 0 3 index getinterval /rbmap xdef
  dup 2 index dup getinterval /gbmap xdef
  1 index dup 2 mul exch getinterval /bbmap xdef pop pop}bdef
/it {gs np dtri aload pop moveto lineto lineto cp c
  cols rows 8 compute_transform 
  rbmap gbmap bbmap true 3 colorimage gr}bdef
/il {newpath moveto lineto stroke}bdef
currentdict end def
%%EndProlog

%%BeginSetup
MathWorks begin

0 cap

end
%%EndSetup

%%Page: 1 1
%%BeginPageSetup
%%PageBoundingBox:    56   195   546   616
MathWorks begin
bpage
%%EndPageSetup

%%BeginObject: obj1
bplot

/dpi2point 12 def
portraitMode 0216 7344 csm

  458   -48  5887  5048 rc
86 dict begin %Colortable dictionary
/c0 { 0.000000 0.000000 0.000000 sr} bdef
/c1 { 1.000000 1.000000 1.000000 sr} bdef
/c2 { 0.900000 0.000000 0.000000 sr} bdef
/c3 { 0.000000 0.820000 0.000000 sr} bdef
/c4 { 0.000000 0.000000 0.800000 sr} bdef
/c5 { 0.910000 0.820000 0.320000 sr} bdef
/c6 { 1.000000 0.260000 0.820000 sr} bdef
/c7 { 0.000000 0.820000 0.820000 sr} bdef
c0
1 j
1 sg
   0    0 6913 5186 rf
6 w
0 4133 5356 0 0 -4133 899 4615 4 MP
PP
-5356 0 0 4133 5356 0 0 -4133 899 4615 5 MP stroke
4 w
DO
SO
6 w
0 sg
 899 4615 mt 6255 4615 L
 899  482 mt 6255  482 L
 899 4615 mt  899  482 L
6255 4615 mt 6255  482 L
 899 4615 mt 6255 4615 L
 899 4615 mt  899  482 L
 899 4615 mt  899 4561 L
 899  482 mt  899  535 L
%%IncludeResource: font Helvetica
/Helvetica /ISOLatin1Encoding 120 FMSR

 763 4760 mt 
(-20) s
1723 4615 mt 1723 4561 L
1723  482 mt 1723  535 L
1690 4760 mt 
(0) s
2547 4615 mt 2547 4561 L
2547  482 mt 2547  535 L
2481 4760 mt 
(20) s
3371 4615 mt 3371 4561 L
3371  482 mt 3371  535 L
3305 4760 mt 
(40) s
4195 4615 mt 4195 4561 L
4195  482 mt 4195  535 L
4129 4760 mt 
(60) s
5019 4615 mt 5019 4561 L
5019  482 mt 5019  535 L
4953 4760 mt 
(80) s
5843 4615 mt 5843 4561 L
5843  482 mt 5843  535 L
5743 4760 mt 
(100) s
 899 4615 mt  952 4615 L
6255 4615 mt 6201 4615 L
 798 4659 mt 
(0) s
 899 4155 mt  952 4155 L
6255 4155 mt 6201 4155 L
 798 4199 mt 
(5) s
 899 3696 mt  952 3696 L
6255 3696 mt 6201 3696 L
 731 3740 mt 
(10) s
 899 3237 mt  952 3237 L
6255 3237 mt 6201 3237 L
 731 3281 mt 
(15) s
 899 2778 mt  952 2778 L
6255 2778 mt 6201 2778 L
 731 2822 mt 
(20) s
 899 2318 mt  952 2318 L
6255 2318 mt 6201 2318 L
 731 2362 mt 
(25) s
 899 1859 mt  952 1859 L
6255 1859 mt 6201 1859 L
 731 1903 mt 
(30) s
 899 1400 mt  952 1400 L
6255 1400 mt 6201 1400 L
 731 1444 mt 
(35) s
 899  941 mt  952  941 L
6255  941 mt 6201  941 L
 731  985 mt 
(40) s
 899  482 mt  952  482 L
6255  482 mt 6201  482 L
 731  526 mt 
(45) s
 899 4615 mt 6255 4615 L
 899  482 mt 6255  482 L
 899 4615 mt  899  482 L
6255 4615 mt 6255  482 L
gs 899 482 5357 4134 rc
14.4 w
0 1565 995 2292 2 MP stroke
84 0 953 2292 2 MP stroke
84 0 953 3857 2 MP stroke
0 1824 1815 2120 2 MP stroke
84 0 1773 2120 2 MP stroke
84 0 1773 3944 2 MP stroke
0 928 2545 3604 2 MP stroke
85 0 2503 3604 2 MP stroke
85 0 2503 4532 2 MP stroke
0 364 2904 4181 2 MP stroke
84 0 2862 4181 2 MP stroke
84 0 2862 4545 2 MP stroke
0 217 3812 4351 2 MP stroke
84 0 3770 4351 2 MP stroke
84 0 3770 4568 2 MP stroke
0 54 4546 4543 2 MP stroke
85 0 4503 4543 2 MP stroke
85 0 4503 4597 2 MP stroke
0 35 5211 4576 2 MP stroke
84 0 5169 4576 2 MP stroke
84 0 5169 4611 2 MP stroke
665 23 734 111 908 96 359 295 730 1036 820 -42 995 3074 7 MP stroke
gr

14.4 w
 953 3032 mt 1037 3116 L
1037 3032 mt  953 3116 L
1773 2990 mt 1857 3074 L
1857 2990 mt 1773 3074 L
2503 4026 mt 2587 4110 L
2587 4026 mt 2503 4110 L
2862 4321 mt 2946 4405 L
2946 4321 mt 2862 4405 L
3770 4417 mt 3854 4501 L
3854 4417 mt 3770 4501 L
4504 4528 mt 4588 4612 L
4588 4528 mt 4504 4612 L
5169 4551 mt 5253 4635 L
5253 4551 mt 5169 4635 L
gs 899 482 5357 4134 rc
0 12 995 4601 2 MP stroke
84 0 953 4601 2 MP stroke
84 0 953 4613 2 MP stroke
0 6 1815 4605 2 MP stroke
84 0 1773 4605 2 MP stroke
84 0 1773 4611 2 MP stroke
0 392 2545 4224 2 MP stroke
85 0 2503 4224 2 MP stroke
0 109 2904 4500 2 MP stroke
84 0 2862 4500 2 MP stroke
84 0 2862 4609 2 MP stroke
0 116 3812 4474 2 MP stroke
84 0 3770 4474 2 MP stroke
84 0 3770 4590 2 MP stroke
0 211 4546 4274 2 MP stroke
85 0 4503 4274 2 MP stroke
85 0 4503 4485 2 MP stroke
0 1251 5211 3273 2 MP stroke
84 0 5169 3273 2 MP stroke
84 0 5169 4524 2 MP stroke
665 -481 734 -152 908 -23 359 80 730 -133 820 1 995 4607 7 MP stroke
gr

 953 4565 mt 1037 4649 L
1037 4565 mt  953 4649 L
1773 4566 mt 1857 4650 L
1857 4566 mt 1773 4650 L
2503 4433 mt 2587 4517 L
2587 4433 mt 2503 4517 L
2862 4513 mt 2946 4597 L
2946 4513 mt 2862 4597 L
3770 4490 mt 3854 4574 L
3854 4490 mt 3770 4574 L
4504 4338 mt 4588 4422 L
4588 4338 mt 4504 4422 L
5169 3857 mt 5253 3941 L
5253 3857 mt 5169 3941 L
gs 899 482 5357 4134 rc
24 w
/c8 { 0.000000 0.000000 1.000000 sr} bdef
c8
0 2386 1723 683 2 MP stroke
83 0 1681 683 2 MP stroke
83 0 1681 3069 2 MP stroke
0 570 2135 3338 2 MP stroke
83 0 2093 3338 2 MP stroke
83 0 2093 3908 2 MP stroke
0 212 2547 4073 2 MP stroke
83 0 2505 4073 2 MP stroke
83 0 2505 4285 2 MP stroke
0 103 2959 4337 2 MP stroke
83 0 2917 4337 2 MP stroke
83 0 2917 4440 2 MP stroke
0 59 3371 4456 2 MP stroke
83 0 3329 4456 2 MP stroke
83 0 3329 4515 2 MP stroke
0 34 3783 4520 2 MP stroke
83 0 3741 4520 2 MP stroke
83 0 3741 4554 2 MP stroke
0 22 4195 4552 2 MP stroke
83 0 4153 4552 2 MP stroke
83 0 4153 4574 2 MP stroke
0 14 4607 4579 2 MP stroke
83 0 4565 4579 2 MP stroke
83 0 4565 4593 2 MP stroke
0 11 5019 4594 2 MP stroke
83 0 4977 4594 2 MP stroke
83 0 4977 4605 2 MP stroke
0 5 5431 4605 2 MP stroke
83 0 5389 4605 2 MP stroke
83 0 5389 4610 2 MP stroke
0 4 5843 4609 2 MP stroke
83 0 5801 4609 2 MP stroke
83 0 5801 4613 2 MP stroke
412 4 412 8 412 13 412 23 412 26 412 52 412 96 412 210 
412 556 412 1747 1723 1876 11 MP stroke
gr

24 w
c8
  36   36 1723 1876 PO
  36   36 2135 3623 PO
  36   36 2547 4179 PO
  36   36 2959 4389 PO
  36   36 3371 4485 PO
  36   36 3783 4537 PO
  36   36 4195 4563 PO
  36   36 4607 4586 PO
  36   36 5019 4599 PO
  36   36 5431 4607 PO
  36   36 5843 4611 PO
  36   36 1723 1876 FO
  36   36 2135 3623 FO
  36   36 2547 4179 FO
  36   36 2959 4389 FO
  36   36 3371 4485 FO
  36   36 3783 4537 FO
  36   36 4195 4563 FO
  36   36 4607 4586 FO
  36   36 5019 4599 FO
  36   36 5431 4607 FO
  36   36 5843 4611 FO
gs 899 482 5357 4134 rc
/c9 { 1.000000 0.600000 0.200000 sr} bdef
c9
0 5 1723 4608 2 MP stroke
83 0 1681 4608 2 MP stroke
83 0 1681 4613 2 MP stroke
0 6 2135 4602 2 MP stroke
83 0 2093 4602 2 MP stroke
83 0 2093 4608 2 MP stroke
0 12 2547 4588 2 MP stroke
83 0 2505 4588 2 MP stroke
83 0 2505 4600 2 MP stroke
0 22 2959 4564 2 MP stroke
83 0 2917 4564 2 MP stroke
83 0 2917 4586 2 MP stroke
0 35 3371 4528 2 MP stroke
83 0 3329 4528 2 MP stroke
83 0 3329 4563 2 MP stroke
0 51 3783 4475 2 MP stroke
83 0 3741 4475 2 MP stroke
83 0 3741 4526 2 MP stroke
0 69 4195 4410 2 MP stroke
83 0 4153 4410 2 MP stroke
83 0 4153 4479 2 MP stroke
0 135 4607 4238 2 MP stroke
83 0 4565 4238 2 MP stroke
83 0 4565 4373 2 MP stroke
0 346 5019 3828 2 MP stroke
83 0 4977 3828 2 MP stroke
83 0 4977 4174 2 MP stroke
0 557 5431 3057 2 MP stroke
83 0 5389 3057 2 MP stroke
83 0 5389 3614 2 MP stroke
0 2076 5843 482 2 MP stroke
83 0 5801 2558 2 MP stroke
412 -1995 412 -666 412 -304 412 -139 412 -57 412 -44 412 -30 412 -19 
412 -11 412 -6 1723 4611 11 MP stroke
gr

c9
  36   36 1723 4611 PO
  36   36 2135 4605 PO
  36   36 2547 4594 PO
  36   36 2959 4575 PO
  36   36 3371 4545 PO
  36   36 3783 4501 PO
  36   36 4195 4444 PO
  36   36 4607 4305 PO
  36   36 5019 4001 PO
  36   36 5431 3335 PO
  36   36 5843 1340 PO
  36   36 1723 4611 FO
  36   36 2135 4605 FO
  36   36 2547 4594 FO
  36   36 2959 4575 FO
  36   36 3371 4545 FO
  36   36 3783 4501 FO
  36   36 4195 4444 FO
  36   36 4607 4305 FO
  36   36 5019 4001 FO
  36   36 5431 3335 FO
  36   36 5843 1340 FO
gs 899 482 5357 4134 rc
gr

0 sg
%%IncludeResource: font Helvetica
/Helvetica /ISOLatin1Encoding 192 FMSR

3126  178 mt 
(Src1-GFP) s
%%IncludeResource: font Helvetica
/Helvetica /ISOLatin1Encoding 168 FMSR

2219  377 mt 
(Domain class: Homogeneous Bridge) s
2787 4938 mt 
(% Total bridge length) s
 639 2666 mt  -90 rotate
(CP) s
90 rotate
%%IncludeResource: font Helvetica
/Helvetica /ISOLatin1Encoding 120 FMSR

 882 4658 mt 
( ) s
6239  524 mt 
( ) s
6 w
1 sg
0 480 772 0 0 -480 5423 1022 4 MP
PP
-772 0 0 480 772 0 0 -480 5423 1022 5 MP stroke
4 w
DO
SO
6 w
0 sg
5423 1022 mt 6195 1022 L
5423  542 mt 6195  542 L
5423 1022 mt 5423  542 L
6195 1022 mt 6195  542 L
5423 1022 mt 6195 1022 L
5423 1022 mt 5423  542 L
5423 1022 mt 6195 1022 L
5423  542 mt 6195  542 L
5423 1022 mt 5423  542 L
6195 1022 mt 6195  542 L
5866  676 mt 
(exp) s
gs 5423 542 773 481 rc
14.4 w
340 0 5491 633 2 MP stroke
6 w
gr

gs 5540 512 243 243 rc
5619  591 mt 5703  675 L
5703  591 mt 5619  675 L
gr

gs 5423 542 773 481 rc
gr

5866  825 mt 
(CP) s
gs 5423 542 773 481 rc
24 w
c8
340 0 5491 782 2 MP stroke
6 w
gs 5588 709 147 147 rc
  36   36 5661  782 PO
  36   36 5661  782 FO
gr

gr

c8
0 sg
5866  973 mt 
(1/CP) s
gs 5423 542 773 481 rc
24 w
c9
340 0 5491 930 2 MP stroke
6 w
gs 5588 857 147 147 rc
  36   36 5661  930 PO
  36   36 5661  930 FO
gr

gr

c9

end %%Color Dict

eplot
%%EndObject

epage
end

showpage

%%Trailer
%%EOF
