%!PS-Adobe-3.0 EPSF-3.0
%%Creator: MATLAB, The MathWorks, Inc. Version 8.1.0.604 (R2013a). Operating System: Darwin 11.4.2 Darwin Kernel Version 11.4.2: Thu Aug 23 16:25:48 PDT 2012; root:xnu-1699.32.7~1/RELEASE_X86_64 x86_64.
%%Title: ./EA_Nup49-sphinbarr-NE.eps
%%CreationDate: 09/12/2013  09:40:15
%%DocumentNeededFonts: Helvetica
%%DocumentProcessColors: Cyan Magenta Yellow Black
%%LanguageLevel: 2
%%Pages: 1
%%BoundingBox:    52   197   551   616
%%EndComments

%%BeginProlog
% MathWorks dictionary
/MathWorks 160 dict begin
% definition operators
/bdef {bind def} bind def
/ldef {load def} bind def
/xdef {exch def} bdef
/xstore {exch store} bdef
% operator abbreviations
/c  /clip ldef
/cc /concat ldef
/cp /closepath ldef
/gr /grestore ldef
/gs /gsave ldef
/mt /moveto ldef
/np /newpath ldef
/cm /currentmatrix ldef
/sm /setmatrix ldef
/rm /rmoveto ldef
/rl /rlineto ldef
/s {show newpath} bdef
/sc {setcmykcolor} bdef
/sr /setrgbcolor ldef
/sg /setgray ldef
/w /setlinewidth ldef
/j /setlinejoin ldef
/cap /setlinecap ldef
/rc {rectclip} bdef
/rf {rectfill} bdef
% page state control
/pgsv () def
/bpage {/pgsv save def} bdef
/epage {pgsv restore} bdef
/bplot /gsave ldef
/eplot {stroke grestore} bdef
% orientation switch
/portraitMode 0 def /landscapeMode 1 def /rotateMode 2 def
% coordinate system mappings
/dpi2point 0 def
% font control
/FontSize 0 def
/FMS {/FontSize xstore findfont [FontSize 0 0 FontSize neg 0 0]
  makefont setfont} bdef
/reencode {exch dup where {pop load} {pop StandardEncoding} ifelse
  exch dup 3 1 roll findfont dup length dict begin
  { 1 index /FID ne {def}{pop pop} ifelse } forall
  /Encoding exch def currentdict end definefont pop} bdef
/isroman {findfont /CharStrings get /Agrave known} bdef
/FMSR {3 1 roll 1 index dup isroman {reencode} {pop pop} ifelse
  exch FMS} bdef
/csm {1 dpi2point div -1 dpi2point div scale neg translate
 dup landscapeMode eq {pop -90 rotate}
  {rotateMode eq {90 rotate} if} ifelse} bdef
% line types: solid, dotted, dashed, dotdash
/SO { [] 0 setdash } bdef
/DO { [.5 dpi2point mul 4 dpi2point mul] 0 setdash } bdef
/DA { [6 dpi2point mul] 0 setdash } bdef
/DD { [.5 dpi2point mul 4 dpi2point mul 6 dpi2point mul 4
  dpi2point mul] 0 setdash } bdef
% macros for lines and objects
/L {lineto stroke} bdef
/MP {3 1 roll moveto 1 sub {rlineto} repeat} bdef
/AP {{rlineto} repeat} bdef
/PDlw -1 def
/W {/PDlw currentlinewidth def setlinewidth} def
/PP {closepath eofill} bdef
/DP {closepath stroke} bdef
/MR {4 -2 roll moveto dup  0 exch rlineto exch 0 rlineto
  neg 0 exch rlineto closepath} bdef
/FR {MR stroke} bdef
/PR {MR fill} bdef
/L1i {{currentfile picstr readhexstring pop} image} bdef
/tMatrix matrix def
/MakeOval {newpath tMatrix currentmatrix pop translate scale
0 0 1 0 360 arc tMatrix setmatrix} bdef
/FO {MakeOval stroke} bdef
/PO {MakeOval fill} bdef
/PD {currentlinewidth 2 div 0 360 arc fill
   PDlw -1 eq not {PDlw w /PDlw -1 def} if} def
/FA {newpath tMatrix currentmatrix pop translate scale
  0 0 1 5 -2 roll arc tMatrix setmatrix stroke} bdef
/PA {newpath tMatrix currentmatrix pop	translate 0 0 moveto scale
  0 0 1 5 -2 roll arc closepath tMatrix setmatrix fill} bdef
/FAn {newpath tMatrix currentmatrix pop translate scale
  0 0 1 5 -2 roll arcn tMatrix setmatrix stroke} bdef
/PAn {newpath tMatrix currentmatrix pop translate 0 0 moveto scale
  0 0 1 5 -2 roll arcn closepath tMatrix setmatrix fill} bdef
/vradius 0 def /hradius 0 def /lry 0 def
/lrx 0 def /uly 0 def /ulx 0 def /rad 0 def
/MRR {/vradius xdef /hradius xdef /lry xdef /lrx xdef /uly xdef
  /ulx xdef newpath tMatrix currentmatrix pop ulx hradius add uly
  vradius add translate hradius vradius scale 0 0 1 180 270 arc 
  tMatrix setmatrix lrx hradius sub uly vradius add translate
  hradius vradius scale 0 0 1 270 360 arc tMatrix setmatrix
  lrx hradius sub lry vradius sub translate hradius vradius scale
  0 0 1 0 90 arc tMatrix setmatrix ulx hradius add lry vradius sub
  translate hradius vradius scale 0 0 1 90 180 arc tMatrix setmatrix
  closepath} bdef
/FRR {MRR stroke } bdef
/PRR {MRR fill } bdef
/MlrRR {/lry xdef /lrx xdef /uly xdef /ulx xdef /rad lry uly sub 2 div def
  newpath tMatrix currentmatrix pop ulx rad add uly rad add translate
  rad rad scale 0 0 1 90 270 arc tMatrix setmatrix lrx rad sub lry rad
  sub translate rad rad scale 0 0 1 270 90 arc tMatrix setmatrix
  closepath} bdef
/FlrRR {MlrRR stroke } bdef
/PlrRR {MlrRR fill } bdef
/MtbRR {/lry xdef /lrx xdef /uly xdef /ulx xdef /rad lrx ulx sub 2 div def
  newpath tMatrix currentmatrix pop ulx rad add uly rad add translate
  rad rad scale 0 0 1 180 360 arc tMatrix setmatrix lrx rad sub lry rad
  sub translate rad rad scale 0 0 1 0 180 arc tMatrix setmatrix
  closepath} bdef
/FtbRR {MtbRR stroke } bdef
/PtbRR {MtbRR fill } bdef
/stri 6 array def /dtri 6 array def
/smat 6 array def /dmat 6 array def
/tmat1 6 array def /tmat2 6 array def /dif 3 array def
/asub {/ind2 exch def /ind1 exch def dup dup
  ind1 get exch ind2 get sub exch } bdef
/tri_to_matrix {
  2 0 asub 3 1 asub 4 0 asub 5 1 asub
  dup 0 get exch 1 get 7 -1 roll astore } bdef
/compute_transform {
  dmat dtri tri_to_matrix tmat1 invertmatrix 
  smat stri tri_to_matrix tmat2 concatmatrix } bdef
/ds {stri astore pop} bdef
/dt {dtri astore pop} bdef
/db {2 copy /cols xdef /rows xdef mul dup 3 mul string
  currentfile 
  3 index 0 eq {/ASCIIHexDecode filter}
  {/ASCII85Decode filter 3 index 2 eq {/RunLengthDecode filter} if }
  ifelse exch readstring pop
  dup 0 3 index getinterval /rbmap xdef
  dup 2 index dup getinterval /gbmap xdef
  1 index dup 2 mul exch getinterval /bbmap xdef pop pop}bdef
/it {gs np dtri aload pop moveto lineto lineto cp c
  cols rows 8 compute_transform 
  rbmap gbmap bbmap true 3 colorimage gr}bdef
/il {newpath moveto lineto stroke}bdef
currentdict end def
%%EndProlog

%%BeginSetup
MathWorks begin

0 cap

end
%%EndSetup

%%Page: 1 1
%%BeginPageSetup
%%PageBoundingBox:    52   197   551   616
MathWorks begin
bpage
%%EndPageSetup

%%BeginObject: obj1
bplot

/dpi2point 12 def
portraitMode 0216 7344 csm

  418   -48  5986  5026 rc
85 dict begin %Colortable dictionary
/c0 { 0.000000 0.000000 0.000000 sr} bdef
/c1 { 1.000000 1.000000 1.000000 sr} bdef
/c2 { 0.900000 0.000000 0.000000 sr} bdef
/c3 { 0.000000 0.820000 0.000000 sr} bdef
/c4 { 0.000000 0.000000 0.800000 sr} bdef
/c5 { 0.910000 0.820000 0.320000 sr} bdef
/c6 { 1.000000 0.260000 0.820000 sr} bdef
/c7 { 0.000000 0.820000 0.820000 sr} bdef
c0
1 j
1 sg
   0    0 6913 5186 rf
6 w
0 4146 5356 0 0 -4146 899 4615 4 MP
PP
-5356 0 0 4146 5356 0 0 -4146 899 4615 5 MP stroke
4 w
DO
SO
6 w
0 sg
 899 4615 mt 6255 4615 L
 899  469 mt 6255  469 L
 899 4615 mt  899  469 L
6255 4615 mt 6255  469 L
 899 4615 mt 6255 4615 L
 899 4615 mt  899  469 L
 899 4615 mt  899 4561 L
 899  469 mt  899  522 L
%%IncludeResource: font Helvetica
/Helvetica /ISOLatin1Encoding 120 FMSR

 866 4760 mt 
(0) s
1434 4615 mt 1434 4561 L
1434  469 mt 1434  522 L
1368 4760 mt 
(20) s
1970 4615 mt 1970 4561 L
1970  469 mt 1970  522 L
1904 4760 mt 
(40) s
2505 4615 mt 2505 4561 L
2505  469 mt 2505  522 L
2439 4760 mt 
(60) s
3041 4615 mt 3041 4561 L
3041  469 mt 3041  522 L
2975 4760 mt 
(80) s
3577 4615 mt 3577 4561 L
3577  469 mt 3577  522 L
3477 4760 mt 
(100) s
4112 4615 mt 4112 4561 L
4112  469 mt 4112  522 L
4012 4760 mt 
(120) s
4648 4615 mt 4648 4561 L
4648  469 mt 4648  522 L
4548 4760 mt 
(140) s
5183 4615 mt 5183 4561 L
5183  469 mt 5183  522 L
5083 4760 mt 
(160) s
5719 4615 mt 5719 4561 L
5719  469 mt 5719  522 L
5619 4760 mt 
(180) s
6255 4615 mt 6255 4561 L
6255  469 mt 6255  522 L
6155 4760 mt 
(200) s
 899 4615 mt  952 4615 L
6255 4615 mt 6201 4615 L
 798 4659 mt 
(0) s
 899 4200 mt  952 4200 L
6255 4200 mt 6201 4200 L
 731 4244 mt 
(10) s
 899 3785 mt  952 3785 L
6255 3785 mt 6201 3785 L
 731 3829 mt 
(20) s
 899 3371 mt  952 3371 L
6255 3371 mt 6201 3371 L
 731 3415 mt 
(30) s
 899 2956 mt  952 2956 L
6255 2956 mt 6201 2956 L
 731 3000 mt 
(40) s
 899 2542 mt  952 2542 L
6255 2542 mt 6201 2542 L
 731 2586 mt 
(50) s
 899 2127 mt  952 2127 L
6255 2127 mt 6201 2127 L
 731 2171 mt 
(60) s
 899 1712 mt  952 1712 L
6255 1712 mt 6201 1712 L
 731 1756 mt 
(70) s
 899 1298 mt  952 1298 L
6255 1298 mt 6201 1298 L
 731 1342 mt 
(80) s
 899  883 mt  952  883 L
6255  883 mt 6201  883 L
 731  927 mt 
(90) s
 899  469 mt  952  469 L
6255  469 mt 6201  469 L
 664  513 mt 
(100) s
 899 4615 mt 6255 4615 L
 899  469 mt 6255  469 L
 899 4615 mt  899  469 L
6255 4615 mt 6255  469 L
gs 899 469 5357 4147 rc
899 469 PD
66 0 899 469 2 MP stroke
66 0 899 469 2 MP stroke
0 763 985 1738 2 MP stroke
132 0 919 1738 2 MP stroke
132 0 919 2501 2 MP stroke
0 912 1068 1929 2 MP stroke
132 0 1002 1929 2 MP stroke
132 0 1002 2841 2 MP stroke
0 915 1152 2160 2 MP stroke
132 0 1086 2160 2 MP stroke
132 0 1086 3075 2 MP stroke
0 1027 1234 2299 2 MP stroke
133 0 1167 2299 2 MP stroke
133 0 1167 3326 2 MP stroke
0 965 1319 2538 2 MP stroke
133 0 1252 2538 2 MP stroke
133 0 1252 3503 2 MP stroke
0 1099 1403 2531 2 MP stroke
133 0 1337 2531 2 MP stroke
133 0 1337 3630 2 MP stroke
0 858 1487 2758 2 MP stroke
132 0 1421 2758 2 MP stroke
132 0 1421 3616 2 MP stroke
0 831 1572 2931 2 MP stroke
132 0 1506 2931 2 MP stroke
132 0 1506 3762 2 MP stroke
0 895 1656 2929 2 MP stroke
133 0 1590 2929 2 MP stroke
133 0 1590 3824 2 MP stroke
0 840 1739 3013 2 MP stroke
132 0 1673 3013 2 MP stroke
132 0 1673 3853 2 MP stroke
0 883 1822 3087 2 MP stroke
133 0 1756 3087 2 MP stroke
133 0 1756 3970 2 MP stroke
0 856 1907 3223 2 MP stroke
132 0 1841 3223 2 MP stroke
132 0 1841 4079 2 MP stroke
0 803 1992 3292 2 MP stroke
133 0 1926 3292 2 MP stroke
133 0 1926 4095 2 MP stroke
0 894 2076 3303 2 MP stroke
132 0 2010 3303 2 MP stroke
132 0 2010 4197 2 MP stroke
0 806 2160 3420 2 MP stroke
132 0 2094 3420 2 MP stroke
132 0 2094 4226 2 MP stroke
0 793 2244 3405 2 MP stroke
132 0 2178 3405 2 MP stroke
132 0 2178 4198 2 MP stroke
0 696 2330 3543 2 MP stroke
133 0 2263 3543 2 MP stroke
133 0 2263 4239 2 MP stroke
0 765 2412 3543 2 MP stroke
132 0 2346 3543 2 MP stroke
132 0 2346 4308 2 MP stroke
0 698 2496 3645 2 MP stroke
132 0 2430 3645 2 MP stroke
132 0 2430 4343 2 MP stroke
0 703 2581 3615 2 MP stroke
133 0 2515 3615 2 MP stroke
133 0 2515 4318 2 MP stroke
0 590 2665 3762 2 MP stroke
133 0 2598 3762 2 MP stroke
133 0 2598 4352 2 MP stroke
0 576 2748 3819 2 MP stroke
133 0 2682 3819 2 MP stroke
133 0 2682 4395 2 MP stroke
0 511 2835 3873 2 MP stroke
132 0 2769 3873 2 MP stroke
132 0 2769 4384 2 MP stroke
0 543 2924 3869 2 MP stroke
133 0 2858 3869 2 MP stroke
133 0 2858 4412 2 MP stroke
0 496 3014 3961 2 MP stroke
133 0 2947 3961 2 MP stroke
133 0 2947 4457 2 MP stroke
0 491 3101 3978 2 MP stroke
132 0 3035 3978 2 MP stroke
132 0 3035 4469 2 MP stroke
0 446 3188 4011 2 MP stroke
133 0 3122 4011 2 MP stroke
133 0 3122 4457 2 MP stroke
0 472 3277 4035 2 MP stroke
132 0 3211 4035 2 MP stroke
132 0 3211 4507 2 MP stroke
0 399 3366 4061 2 MP stroke
133 0 3300 4061 2 MP stroke
133 0 3300 4460 2 MP stroke
0 423 3454 4078 2 MP stroke
132 0 3388 4078 2 MP stroke
132 0 3388 4501 2 MP stroke
0 423 3541 4124 2 MP stroke
132 0 3475 4124 2 MP stroke
132 0 3475 4547 2 MP stroke
0 400 3629 4086 2 MP stroke
133 0 3563 4086 2 MP stroke
133 0 3563 4486 2 MP stroke
0 427 3718 4122 2 MP stroke
133 0 3652 4122 2 MP stroke
133 0 3652 4549 2 MP stroke
0 423 3807 4135 2 MP stroke
133 0 3741 4135 2 MP stroke
133 0 3741 4558 2 MP stroke
0 442 3896 4124 2 MP stroke
133 0 3829 4124 2 MP stroke
133 0 3829 4566 2 MP stroke
0 448 3984 4118 2 MP stroke
132 0 3918 4118 2 MP stroke
132 0 3918 4566 2 MP stroke
0 367 4072 4205 2 MP stroke
133 0 4005 4205 2 MP stroke
133 0 4005 4572 2 MP stroke
0 355 4160 4222 2 MP stroke
132 0 4094 4222 2 MP stroke
132 0 4094 4577 2 MP stroke
0 466 4248 4150 2 MP stroke
133 0 4182 4150 2 MP stroke
0 411 4336 4196 2 MP stroke
133 0 4270 4196 2 MP stroke
133 0 4270 4607 2 MP stroke
0 389 4424 4227 2 MP stroke
133 0 4358 4227 2 MP stroke
0 329 4512 4258 2 MP stroke
132 0 4446 4258 2 MP stroke
132 0 4446 4587 2 MP stroke
0 322 4606 4294 2 MP stroke
132 0 4540 4294 2 MP stroke
0 307 4704 4309 2 MP stroke
133 0 4638 4309 2 MP stroke
0 252 4801 4364 2 MP stroke
133 0 4735 4364 2 MP stroke
0 235 4899 4381 2 MP stroke
132 0 4833 4381 2 MP stroke
0 267 4997 4349 2 MP stroke
132 0 4931 4349 2 MP stroke
0 245 5095 4371 2 MP stroke
133 0 5028 4371 2 MP stroke
0 248 5198 4368 2 MP stroke
132 0 5132 4368 2 MP stroke
0 236 5307 4380 2 MP stroke
132 0 5241 4380 2 MP stroke
0 222 5424 4394 2 MP stroke
132 0 5358 4394 2 MP stroke
0 196 5545 4420 2 MP stroke
133 0 5479 4420 2 MP stroke
0 241 5689 4375 2 MP stroke
133 0 5623 4375 2 MP stroke
0 194 5858 4422 2 MP stroke
133 0 5792 4422 2 MP stroke
0 176 6042 4440 2 MP stroke
133 0 5975 4440 2 MP stroke
0 183 6243 4433 2 MP stroke
80 0 6176 4433 2 MP stroke
13 0 201 -1 184 3 169 19 144 -5 121 23 117 0 109 4 
103 0 98 32 98 -31 98 15 97 26 98 17 94 48 88 -3 
88 24 88 18 88 -16 88 10 88 47 88 -3 89 -1 89 11 
89 49 88 -49 87 45 88 29 89 -10 89 37 87 11 87 14 
90 68 89 13 87 21 83 50 84 91 85 -28 84 68 82 35 
86 89 84 -21 84 73 84 56 85 43 85 122 83 96 83 57 
84 29 85 160 84 106 84 60 85 208 82 195 84 233 83 265 
86 1651 899 469 58 MP stroke
gr

 874  444 mt  924  494 L
 924  444 mt  874  494 L
 960 2095 mt 1010 2145 L
1010 2095 mt  960 2145 L
1043 2360 mt 1093 2410 L
1093 2360 mt 1043 2410 L
1127 2593 mt 1177 2643 L
1177 2593 mt 1127 2643 L
1209 2788 mt 1259 2838 L
1259 2788 mt 1209 2838 L
1294 2996 mt 1344 3046 L
1344 2996 mt 1294 3046 L
1378 3056 mt 1428 3106 L
1428 3056 mt 1378 3106 L
1462 3162 mt 1512 3212 L
1512 3162 mt 1462 3212 L
1547 3322 mt 1597 3372 L
1597 3322 mt 1547 3372 L
1631 3351 mt 1681 3401 L
1681 3351 mt 1631 3401 L
1714 3408 mt 1764 3458 L
1764 3408 mt 1714 3458 L
1797 3504 mt 1847 3554 L
1847 3504 mt 1797 3554 L
1882 3626 mt 1932 3676 L
1932 3626 mt 1882 3676 L
1967 3669 mt 2017 3719 L
2017 3669 mt 1967 3719 L
2051 3725 mt 2101 3775 L
2101 3725 mt 2051 3775 L
2135 3798 mt 2185 3848 L
2185 3798 mt 2135 3848 L
2219 3777 mt 2269 3827 L
2269 3777 mt 2219 3827 L
2305 3866 mt 2355 3916 L
2355 3866 mt 2305 3916 L
2387 3901 mt 2437 3951 L
2437 3901 mt 2387 3951 L
2471 3969 mt 2521 4019 L
2521 3969 mt 2471 4019 L
2556 3941 mt 2606 3991 L
2606 3941 mt 2556 3991 L
2640 4032 mt 2690 4082 L
2690 4032 mt 2640 4082 L
2723 4082 mt 2773 4132 L
2773 4082 mt 2723 4132 L
2810 4103 mt 2860 4153 L
2860 4103 mt 2810 4153 L
2899 4116 mt 2949 4166 L
2949 4116 mt 2899 4166 L
2989 4184 mt 3039 4234 L
3039 4184 mt 2989 4234 L
3076 4198 mt 3126 4248 L
3126 4198 mt 3076 4248 L
3163 4209 mt 3213 4259 L
3213 4209 mt 3163 4259 L
3252 4246 mt 3302 4296 L
3302 4246 mt 3252 4296 L
3341 4236 mt 3391 4286 L
3391 4236 mt 3341 4286 L
3429 4265 mt 3479 4315 L
3479 4265 mt 3429 4315 L
3516 4310 mt 3566 4360 L
3566 4310 mt 3516 4360 L
3604 4261 mt 3654 4311 L
3654 4261 mt 3604 4311 L
3693 4310 mt 3743 4360 L
3743 4310 mt 3693 4360 L
3782 4321 mt 3832 4371 L
3832 4321 mt 3782 4371 L
3871 4320 mt 3921 4370 L
3921 4320 mt 3871 4370 L
3959 4317 mt 4009 4367 L
4009 4317 mt 3959 4367 L
4047 4364 mt 4097 4414 L
4097 4364 mt 4047 4414 L
4135 4374 mt 4185 4424 L
4185 4374 mt 4135 4424 L
4223 4358 mt 4273 4408 L
4273 4358 mt 4223 4408 L
4311 4376 mt 4361 4426 L
4361 4376 mt 4311 4426 L
4399 4400 mt 4449 4450 L
4449 4400 mt 4399 4450 L
4487 4397 mt 4537 4447 L
4537 4397 mt 4487 4447 L
4581 4445 mt 4631 4495 L
4631 4445 mt 4581 4495 L
4679 4462 mt 4729 4512 L
4729 4462 mt 4679 4512 L
4776 4488 mt 4826 4538 L
4826 4488 mt 4776 4538 L
4874 4503 mt 4924 4553 L
4924 4503 mt 4874 4553 L
4972 4472 mt 5022 4522 L
5022 4472 mt 4972 4522 L
5070 4504 mt 5120 4554 L
5120 4504 mt 5070 4554 L
5173 4504 mt 5223 4554 L
5223 4504 mt 5173 4554 L
5282 4508 mt 5332 4558 L
5332 4508 mt 5282 4558 L
5399 4508 mt 5449 4558 L
5449 4508 mt 5399 4558 L
5520 4531 mt 5570 4581 L
5570 4531 mt 5520 4581 L
5664 4526 mt 5714 4576 L
5714 4526 mt 5664 4576 L
5833 4545 mt 5883 4595 L
5883 4545 mt 5833 4595 L
6017 4548 mt 6067 4598 L
6067 4548 mt 6017 4598 L
6218 4547 mt 6268 4597 L
6268 4547 mt 6218 4597 L
gs 899 469 5357 4147 rc
899 469 PD
66 0 899 469 2 MP stroke
66 0 899 469 2 MP stroke
0 690 985 469 2 MP stroke
132 0 919 1159 2 MP stroke
0 652 1068 482 2 MP stroke
132 0 1002 482 2 MP stroke
132 0 1002 1134 2 MP stroke
0 919 1152 469 2 MP stroke
132 0 1086 1388 2 MP stroke
0 884 1234 469 2 MP stroke
133 0 1167 1353 2 MP stroke
0 886 1319 469 2 MP stroke
133 0 1252 1355 2 MP stroke
0 900 1403 500 2 MP stroke
133 0 1337 500 2 MP stroke
133 0 1337 1400 2 MP stroke
0 871 1487 600 2 MP stroke
132 0 1421 600 2 MP stroke
132 0 1421 1471 2 MP stroke
0 897 1572 577 2 MP stroke
132 0 1506 577 2 MP stroke
132 0 1506 1474 2 MP stroke
0 934 1656 596 2 MP stroke
133 0 1590 596 2 MP stroke
133 0 1590 1530 2 MP stroke
0 974 1739 622 2 MP stroke
132 0 1673 622 2 MP stroke
132 0 1673 1596 2 MP stroke
0 1087 1822 542 2 MP stroke
133 0 1756 542 2 MP stroke
133 0 1756 1629 2 MP stroke
0 1135 1907 595 2 MP stroke
132 0 1841 595 2 MP stroke
132 0 1841 1730 2 MP stroke
0 1006 1992 608 2 MP stroke
133 0 1926 608 2 MP stroke
133 0 1926 1614 2 MP stroke
0 962 2076 602 2 MP stroke
132 0 2010 602 2 MP stroke
132 0 2010 1564 2 MP stroke
0 757 2160 798 2 MP stroke
132 0 2094 798 2 MP stroke
132 0 2094 1555 2 MP stroke
0 1033 2244 469 2 MP stroke
132 0 2178 1502 2 MP stroke
0 1233 2330 504 2 MP stroke
133 0 2263 504 2 MP stroke
133 0 2263 1737 2 MP stroke
0 1215 2412 524 2 MP stroke
132 0 2346 524 2 MP stroke
132 0 2346 1739 2 MP stroke
0 1166 2496 588 2 MP stroke
132 0 2430 588 2 MP stroke
132 0 2430 1754 2 MP stroke
0 954 2581 808 2 MP stroke
133 0 2515 808 2 MP stroke
133 0 2515 1762 2 MP stroke
0 1049 2665 747 2 MP stroke
133 0 2598 747 2 MP stroke
133 0 2598 1796 2 MP stroke
0 1098 2748 710 2 MP stroke
133 0 2682 710 2 MP stroke
133 0 2682 1808 2 MP stroke
0 1031 2835 714 2 MP stroke
132 0 2769 714 2 MP stroke
132 0 2769 1745 2 MP stroke
0 867 2924 779 2 MP stroke
133 0 2858 779 2 MP stroke
133 0 2858 1646 2 MP stroke
0 992 3014 699 2 MP stroke
133 0 2947 699 2 MP stroke
133 0 2947 1691 2 MP stroke
0 881 3101 858 2 MP stroke
132 0 3035 858 2 MP stroke
132 0 3035 1739 2 MP stroke
0 1067 3188 796 2 MP stroke
133 0 3122 796 2 MP stroke
133 0 3122 1863 2 MP stroke
0 1090 3277 778 2 MP stroke
132 0 3211 778 2 MP stroke
132 0 3211 1868 2 MP stroke
0 1117 3366 777 2 MP stroke
133 0 3300 777 2 MP stroke
133 0 3300 1894 2 MP stroke
0 1213 3454 678 2 MP stroke
132 0 3388 678 2 MP stroke
132 0 3388 1891 2 MP stroke
0 878 3541 918 2 MP stroke
132 0 3475 918 2 MP stroke
132 0 3475 1796 2 MP stroke
0 1238 3629 775 2 MP stroke
133 0 3563 775 2 MP stroke
133 0 3563 2013 2 MP stroke
0 1305 3718 795 2 MP stroke
133 0 3652 795 2 MP stroke
133 0 3652 2100 2 MP stroke
0 1112 3807 808 2 MP stroke
133 0 3741 808 2 MP stroke
133 0 3741 1920 2 MP stroke
0 1114 3896 915 2 MP stroke
133 0 3829 915 2 MP stroke
133 0 3829 2029 2 MP stroke
0 1125 3984 831 2 MP stroke
132 0 3918 831 2 MP stroke
132 0 3918 1956 2 MP stroke
0 1265 4072 923 2 MP stroke
133 0 4005 923 2 MP stroke
133 0 4005 2188 2 MP stroke
0 1049 4160 944 2 MP stroke
132 0 4094 944 2 MP stroke
132 0 4094 1993 2 MP stroke
0 1030 4248 1017 2 MP stroke
133 0 4182 1017 2 MP stroke
133 0 4182 2047 2 MP stroke
0 1197 4336 1077 2 MP stroke
133 0 4270 1077 2 MP stroke
133 0 4270 2274 2 MP stroke
0 1143 4424 981 2 MP stroke
133 0 4358 981 2 MP stroke
133 0 4358 2124 2 MP stroke
0 1251 4512 849 2 MP stroke
132 0 4446 849 2 MP stroke
132 0 4446 2100 2 MP stroke
0 1155 4606 1104 2 MP stroke
132 0 4540 1104 2 MP stroke
132 0 4540 2259 2 MP stroke
0 1106 4704 1109 2 MP stroke
133 0 4638 1109 2 MP stroke
133 0 4638 2215 2 MP stroke
0 1172 4801 1080 2 MP stroke
133 0 4735 1080 2 MP stroke
133 0 4735 2252 2 MP stroke
0 1153 4899 1224 2 MP stroke
132 0 4833 1224 2 MP stroke
132 0 4833 2377 2 MP stroke
0 1091 4997 1129 2 MP stroke
132 0 4931 1129 2 MP stroke
132 0 4931 2220 2 MP stroke
0 1341 5095 1099 2 MP stroke
133 0 5028 1099 2 MP stroke
133 0 5028 2440 2 MP stroke
0 1211 5198 1213 2 MP stroke
132 0 5132 1213 2 MP stroke
132 0 5132 2424 2 MP stroke
0 1099 5307 1369 2 MP stroke
132 0 5241 1369 2 MP stroke
132 0 5241 2468 2 MP stroke
0 1073 5424 1317 2 MP stroke
132 0 5358 1317 2 MP stroke
132 0 5358 2390 2 MP stroke
0 1293 5545 1276 2 MP stroke
133 0 5479 1276 2 MP stroke
133 0 5479 2569 2 MP stroke
0 1290 5689 1469 2 MP stroke
133 0 5623 1469 2 MP stroke
133 0 5623 2759 2 MP stroke
0 1246 5858 1408 2 MP stroke
133 0 5792 1408 2 MP stroke
133 0 5792 2654 2 MP stroke
0 1252 6042 1308 2 MP stroke
133 0 5975 1308 2 MP stroke
133 0 5975 2560 2 MP stroke
0 1485 6243 1417 2 MP stroke
80 0 6176 1417 2 MP stroke
80 0 6176 2902 2 MP stroke
13 -7 201 226 184 -97 169 -83 144 192 121 68 117 -64 109 100 
103 48 98 95 98 -126 98 135 97 4 98 -20 94 208 88 -79 
88 -122 88 143 88 63 88 -86 88 162 88 -79 89 108 89 -83 
89 53 88 37 87 73 88 -52 89 13 89 -6 87 30 87 104 
90 -18 89 -16 87 -30 83 -12 84 -14 85 114 84 40 82 11 
86 152 84 -208 84 93 84 -28 85 -52 85 78 83 -24 83 46 
84 37 85 -10 84 86 84 42 85 45 82 -24 84 79 83 39 
86 300 899 469 58 MP stroke
gr

 874  444 mt  924  494 L
 924  444 mt  874  494 L
 960  744 mt 1010  794 L
1010  744 mt  960  794 L
1043  783 mt 1093  833 L
1093  783 mt 1043  833 L
1127  862 mt 1177  912 L
1177  862 mt 1127  912 L
1209  838 mt 1259  888 L
1259  838 mt 1209  888 L
1294  883 mt 1344  933 L
1344  883 mt 1294  933 L
1378  925 mt 1428  975 L
1428  925 mt 1378  975 L
1462 1011 mt 1512 1061 L
1512 1011 mt 1462 1061 L
1547 1001 mt 1597 1051 L
1597 1001 mt 1547 1051 L
1631 1038 mt 1681 1088 L
1681 1038 mt 1631 1088 L
1714 1084 mt 1764 1134 L
1764 1084 mt 1714 1134 L
1797 1060 mt 1847 1110 L
1847 1060 mt 1797 1110 L
1882 1138 mt 1932 1188 L
1932 1138 mt 1882 1188 L
1967 1086 mt 2017 1136 L
2017 1086 mt 1967 1136 L
2051 1058 mt 2101 1108 L
2101 1058 mt 2051 1108 L
2135 1151 mt 2185 1201 L
2185 1151 mt 2135 1201 L
2219  943 mt 2269  993 L
2269  943 mt 2219  993 L
2305 1095 mt 2355 1145 L
2355 1095 mt 2305 1145 L
2387 1106 mt 2437 1156 L
2437 1106 mt 2387 1156 L
2471 1146 mt 2521 1196 L
2521 1146 mt 2471 1196 L
2556 1260 mt 2606 1310 L
2606 1260 mt 2556 1310 L
2640 1246 mt 2690 1296 L
2690 1246 mt 2640 1296 L
2723 1234 mt 2773 1284 L
2773 1234 mt 2723 1284 L
2810 1204 mt 2860 1254 L
2860 1204 mt 2810 1254 L
2899 1188 mt 2949 1238 L
2949 1188 mt 2899 1238 L
2989 1170 mt 3039 1220 L
3039 1170 mt 2989 1220 L
3076 1274 mt 3126 1324 L
3126 1274 mt 3076 1324 L
3163 1304 mt 3213 1354 L
3213 1304 mt 3163 1354 L
3252 1298 mt 3302 1348 L
3302 1298 mt 3252 1348 L
3341 1311 mt 3391 1361 L
3391 1311 mt 3341 1361 L
3429 1259 mt 3479 1309 L
3479 1259 mt 3429 1309 L
3516 1332 mt 3566 1382 L
3566 1332 mt 3516 1382 L
3604 1369 mt 3654 1419 L
3654 1369 mt 3604 1419 L
3693 1422 mt 3743 1472 L
3743 1422 mt 3693 1472 L
3782 1339 mt 3832 1389 L
3832 1339 mt 3782 1389 L
3871 1447 mt 3921 1497 L
3921 1447 mt 3871 1497 L
3959 1368 mt 4009 1418 L
4009 1368 mt 3959 1418 L
4047 1530 mt 4097 1580 L
4097 1530 mt 4047 1580 L
4135 1444 mt 4185 1494 L
4185 1444 mt 4135 1494 L
4223 1507 mt 4273 1557 L
4273 1507 mt 4223 1557 L
4311 1650 mt 4361 1700 L
4361 1650 mt 4311 1700 L
4399 1528 mt 4449 1578 L
4449 1528 mt 4399 1578 L
4487 1449 mt 4537 1499 L
4537 1449 mt 4487 1499 L
4581 1657 mt 4631 1707 L
4631 1657 mt 4581 1707 L
4679 1637 mt 4729 1687 L
4729 1637 mt 4679 1687 L
4776 1641 mt 4826 1691 L
4826 1641 mt 4776 1691 L
4874 1776 mt 4924 1826 L
4924 1776 mt 4874 1826 L
4972 1650 mt 5022 1700 L
5022 1650 mt 4972 1700 L
5070 1745 mt 5120 1795 L
5120 1745 mt 5070 1795 L
5173 1793 mt 5223 1843 L
5223 1793 mt 5173 1843 L
5282 1893 mt 5332 1943 L
5332 1893 mt 5282 1943 L
5399 1829 mt 5449 1879 L
5449 1829 mt 5399 1879 L
5520 1897 mt 5570 1947 L
5570 1897 mt 5520 1947 L
5664 2089 mt 5714 2139 L
5714 2089 mt 5664 2139 L
5833 2006 mt 5883 2056 L
5883 2006 mt 5833 2056 L
6017 1909 mt 6067 1959 L
6067 1909 mt 6017 1959 L
6218 2135 mt 6268 2185 L
6268 2135 mt 6218 2185 L
gs 899 469 5357 4147 rc
/c8 { 1.000000 0.000000 0.000000 sr} bdef
c8
2 0 899 499 2 MP stroke
899 469 PD
56 0 899 469 2 MP stroke
56 0 899 469 2 MP stroke
0 2250 952 469 2 MP stroke
109 0 899 2719 2 MP stroke
0 2257 1006 697 2 MP stroke
113 0 949 697 2 MP stroke
113 0 949 2954 2 MP stroke
0 2105 1059 1028 2 MP stroke
112 0 1003 1028 2 MP stroke
112 0 1003 3133 2 MP stroke
0 1960 1113 1373 2 MP stroke
112 0 1057 1373 2 MP stroke
112 0 1057 3333 2 MP stroke
0 1779 1166 1710 2 MP stroke
113 0 1110 1710 2 MP stroke
113 0 1110 3489 2 MP stroke
0 1669 1220 1922 2 MP stroke
112 0 1164 1922 2 MP stroke
112 0 1164 3591 2 MP stroke
0 1535 1273 2163 2 MP stroke
113 0 1217 2163 2 MP stroke
113 0 1217 3698 2 MP stroke
0 1445 1327 2338 2 MP stroke
112 0 1271 2338 2 MP stroke
112 0 1271 3783 2 MP stroke
0 1312 1381 2537 2 MP stroke
113 0 1324 2537 2 MP stroke
113 0 1324 3849 2 MP stroke
0 1229 1434 2695 2 MP stroke
112 0 1378 2695 2 MP stroke
112 0 1378 3924 2 MP stroke
0 1121 1488 2865 2 MP stroke
113 0 1431 2865 2 MP stroke
113 0 1431 3986 2 MP stroke
0 1042 1541 3006 2 MP stroke
112 0 1485 3006 2 MP stroke
112 0 1485 4048 2 MP stroke
0 941 1595 3150 2 MP stroke
112 0 1539 3150 2 MP stroke
112 0 1539 4091 2 MP stroke
0 843 1648 3281 2 MP stroke
113 0 1592 3281 2 MP stroke
113 0 1592 4124 2 MP stroke
0 811 1702 3370 2 MP stroke
112 0 1646 3370 2 MP stroke
112 0 1646 4181 2 MP stroke
0 750 1755 3487 2 MP stroke
113 0 1699 3487 2 MP stroke
113 0 1699 4237 2 MP stroke
0 686 1809 3579 2 MP stroke
112 0 1753 3579 2 MP stroke
112 0 1753 4265 2 MP stroke
0 632 1863 3675 2 MP stroke
113 0 1806 3675 2 MP stroke
113 0 1806 4307 2 MP stroke
0 588 1916 3734 2 MP stroke
112 0 1860 3734 2 MP stroke
112 0 1860 4322 2 MP stroke
0 540 1970 3815 2 MP stroke
113 0 1913 3815 2 MP stroke
113 0 1913 4355 2 MP stroke
0 494 2023 3884 2 MP stroke
112 0 1967 3884 2 MP stroke
112 0 1967 4378 2 MP stroke
0 428 2077 3987 2 MP stroke
112 0 2021 3987 2 MP stroke
112 0 2021 4415 2 MP stroke
0 413 2130 4021 2 MP stroke
113 0 2074 4021 2 MP stroke
113 0 2074 4434 2 MP stroke
0 391 2184 4046 2 MP stroke
112 0 2128 4046 2 MP stroke
112 0 2128 4437 2 MP stroke
0 361 2238 4093 2 MP stroke
113 0 2181 4093 2 MP stroke
113 0 2181 4454 2 MP stroke
0 352 2291 4121 2 MP stroke
112 0 2235 4121 2 MP stroke
112 0 2235 4473 2 MP stroke
0 335 2345 4148 2 MP stroke
113 0 2288 4148 2 MP stroke
113 0 2288 4483 2 MP stroke
0 312 2398 4183 2 MP stroke
112 0 2342 4183 2 MP stroke
112 0 2342 4495 2 MP stroke
0 290 2452 4208 2 MP stroke
112 0 2396 4208 2 MP stroke
112 0 2396 4498 2 MP stroke
0 258 2505 4255 2 MP stroke
113 0 2449 4255 2 MP stroke
113 0 2449 4513 2 MP stroke
0 247 2559 4279 2 MP stroke
112 0 2503 4279 2 MP stroke
112 0 2503 4526 2 MP stroke
0 235 2612 4299 2 MP stroke
113 0 2556 4299 2 MP stroke
113 0 2556 4534 2 MP stroke
0 231 2666 4308 2 MP stroke
112 0 2610 4308 2 MP stroke
112 0 2610 4539 2 MP stroke
0 212 2720 4338 2 MP stroke
113 0 2663 4338 2 MP stroke
113 0 2663 4550 2 MP stroke
0 183 2773 4359 2 MP stroke
112 0 2717 4359 2 MP stroke
112 0 2717 4542 2 MP stroke
0 182 2827 4377 2 MP stroke
113 0 2770 4377 2 MP stroke
113 0 2770 4559 2 MP stroke
0 169 2880 4396 2 MP stroke
112 0 2824 4396 2 MP stroke
112 0 2824 4565 2 MP stroke
0 164 2934 4401 2 MP stroke
112 0 2878 4401 2 MP stroke
112 0 2878 4565 2 MP stroke
0 152 2987 4424 2 MP stroke
113 0 2931 4424 2 MP stroke
113 0 2931 4576 2 MP stroke
0 154 3041 4425 2 MP stroke
112 0 2985 4425 2 MP stroke
112 0 2985 4579 2 MP stroke
0 150 3094 4432 2 MP stroke
113 0 3038 4432 2 MP stroke
113 0 3038 4582 2 MP stroke
0 140 3148 4435 2 MP stroke
112 0 3092 4435 2 MP stroke
112 0 3092 4575 2 MP stroke
0 120 3202 4461 2 MP stroke
113 0 3145 4461 2 MP stroke
113 0 3145 4581 2 MP stroke
0 117 3255 4468 2 MP stroke
112 0 3199 4468 2 MP stroke
112 0 3199 4585 2 MP stroke
0 117 3309 4470 2 MP stroke
113 0 3252 4470 2 MP stroke
113 0 3252 4587 2 MP stroke
0 111 3362 4474 2 MP stroke
112 0 3306 4474 2 MP stroke
112 0 3306 4585 2 MP stroke
0 123 3416 4474 2 MP stroke
112 0 3360 4474 2 MP stroke
112 0 3360 4597 2 MP stroke
0 114 3469 4474 2 MP stroke
113 0 3413 4474 2 MP stroke
113 0 3413 4588 2 MP stroke
0 124 3523 4471 2 MP stroke
112 0 3467 4471 2 MP stroke
112 0 3467 4595 2 MP stroke
0 128 3577 4477 2 MP stroke
113 0 3520 4477 2 MP stroke
113 0 3520 4605 2 MP stroke
0 127 3630 4472 2 MP stroke
112 0 3574 4472 2 MP stroke
112 0 3574 4599 2 MP stroke
0 126 3684 4478 2 MP stroke
113 0 3627 4478 2 MP stroke
113 0 3627 4604 2 MP stroke
0 124 3737 4481 2 MP stroke
112 0 3681 4481 2 MP stroke
112 0 3681 4605 2 MP stroke
0 120 3791 4479 2 MP stroke
112 0 3735 4479 2 MP stroke
112 0 3735 4599 2 MP stroke
0 116 3844 4483 2 MP stroke
113 0 3788 4483 2 MP stroke
113 0 3788 4599 2 MP stroke
0 102 3898 4495 2 MP stroke
112 0 3842 4495 2 MP stroke
112 0 3842 4597 2 MP stroke
0 102 3951 4500 2 MP stroke
113 0 3895 4500 2 MP stroke
113 0 3895 4602 2 MP stroke
0 93 4005 4510 2 MP stroke
112 0 3949 4510 2 MP stroke
112 0 3949 4603 2 MP stroke
0 90 4059 4513 2 MP stroke
113 0 4002 4513 2 MP stroke
113 0 4002 4603 2 MP stroke
0 91 4112 4520 2 MP stroke
112 0 4056 4520 2 MP stroke
112 0 4056 4611 2 MP stroke
0 92 4166 4524 2 MP stroke
113 0 4109 4524 2 MP stroke
0 99 4219 4516 2 MP stroke
112 0 4163 4516 2 MP stroke
112 0 4163 4615 2 MP stroke
0 101 4273 4515 2 MP stroke
112 0 4217 4515 2 MP stroke
0 96 4326 4520 2 MP stroke
113 0 4270 4520 2 MP stroke
0 95 4380 4521 2 MP stroke
112 0 4324 4521 2 MP stroke
0 92 4433 4524 2 MP stroke
113 0 4377 4524 2 MP stroke
0 66 4487 4544 2 MP stroke
112 0 4431 4544 2 MP stroke
112 0 4431 4610 2 MP stroke
0 72 4541 4544 2 MP stroke
113 0 4484 4544 2 MP stroke
0 69 4594 4547 2 MP stroke
112 0 4538 4547 2 MP stroke
0 77 4648 4536 2 MP stroke
113 0 4591 4536 2 MP stroke
113 0 4591 4613 2 MP stroke
0 81 4701 4530 2 MP stroke
112 0 4645 4530 2 MP stroke
112 0 4645 4611 2 MP stroke
0 84 4755 4532 2 MP stroke
112 0 4699 4532 2 MP stroke
0 81 4808 4535 2 MP stroke
113 0 4752 4535 2 MP stroke
0 96 4862 4520 2 MP stroke
112 0 4806 4520 2 MP stroke
0 93 4916 4523 2 MP stroke
113 0 4859 4523 2 MP stroke
0 91 4969 4523 2 MP stroke
112 0 4913 4523 2 MP stroke
112 0 4913 4614 2 MP stroke
0 83 5023 4528 2 MP stroke
113 0 4966 4528 2 MP stroke
113 0 4966 4611 2 MP stroke
0 106 5076 4510 2 MP stroke
112 0 5020 4510 2 MP stroke
0 115 5130 4501 2 MP stroke
112 0 5074 4501 2 MP stroke
0 122 5183 4494 2 MP stroke
113 0 5127 4494 2 MP stroke
0 106 5237 4510 2 MP stroke
112 0 5181 4510 2 MP stroke
0 112 5290 4504 2 MP stroke
113 0 5234 4504 2 MP stroke
0 102 5344 4514 2 MP stroke
112 0 5288 4514 2 MP stroke
0 112 5398 4504 2 MP stroke
113 0 5341 4504 2 MP stroke
0 108 5451 4508 2 MP stroke
112 0 5395 4508 2 MP stroke
0 97 5505 4519 2 MP stroke
113 0 5448 4519 2 MP stroke
0 81 5558 4535 2 MP stroke
112 0 5502 4535 2 MP stroke
0 64 5612 4545 2 MP stroke
112 0 5556 4545 2 MP stroke
112 0 5556 4609 2 MP stroke
0 59 5665 4548 2 MP stroke
113 0 5609 4548 2 MP stroke
113 0 5609 4607 2 MP stroke
0 52 5719 4548 2 MP stroke
112 0 5663 4548 2 MP stroke
112 0 5663 4600 2 MP stroke
0 50 5772 4545 2 MP stroke
113 0 5716 4545 2 MP stroke
113 0 5716 4595 2 MP stroke
0 59 5826 4535 2 MP stroke
112 0 5770 4535 2 MP stroke
112 0 5770 4594 2 MP stroke
0 73 5880 4532 2 MP stroke
113 0 5823 4532 2 MP stroke
113 0 5823 4605 2 MP stroke
0 66 5933 4537 2 MP stroke
112 0 5877 4537 2 MP stroke
112 0 5877 4603 2 MP stroke
0 81 5987 4526 2 MP stroke
113 0 5930 4526 2 MP stroke
113 0 5930 4607 2 MP stroke
0 88 6040 4524 2 MP stroke
112 0 5984 4524 2 MP stroke
112 0 5984 4612 2 MP stroke
0 85 6094 4524 2 MP stroke
112 0 6038 4524 2 MP stroke
112 0 6038 4609 2 MP stroke
0 88 6147 4526 2 MP stroke
113 0 6091 4526 2 MP stroke
113 0 6091 4614 2 MP stroke
0 83 6201 4533 2 MP stroke
111 0 6145 4533 2 MP stroke
0 70 6255 4542 2 MP stroke
58 0 6198 4542 2 MP stroke
58 0 6198 4612 2 MP stroke
54 2 54 5 53 4 54 -2 53 2 54 -4 53 2 54 3 
54 -5 53 -4 54 -4 53 1 54 2 53 5 54 6 53 2 
54 -6 54 4 53 -2 54 7 53 -2 54 -2 53 -7 54 1 
53 -1 54 1 54 -7 53 2 54 3 53 -3 54 -9 53 2 
54 4 54 6 53 2 54 -4 53 4 54 4 53 -5 54 5 
53 7 54 2 54 5 53 5 54 5 53 2 54 -4 53 2 
54 6 53 -6 54 8 54 2 53 -4 54 5 53 2 54 2 
53 5 54 16 54 -2 53 5 54 2 53 17 54 2 53 13 
54 18 53 6 54 20 54 7 53 15 54 18 53 31 54 14 
53 24 54 18 53 24 54 32 54 14 53 26 54 70 53 46 
54 57 53 37 54 69 54 60 53 86 54 74 53 81 54 94 
53 101 54 116 53 117 54 133 54 130 53 173 54 158 53 246 
54 273 53 254 54 296 53 1061 899 469 101 MP stroke
gr

c8
  36   36  952 1530 FO
  36   36 1006 1826 FO
  36   36 1059 2080 FO
  36   36 1113 2353 FO
  36   36 1166 2599 FO
  36   36 1220 2757 FO
  36   36 1273 2930 FO
  36   36 1327 3060 FO
  36   36 1381 3193 FO
  36   36 1434 3310 FO
  36   36 1488 3426 FO
  36   36 1541 3527 FO
  36   36 1595 3621 FO
  36   36 1648 3702 FO
  36   36 1702 3776 FO
  36   36 1755 3862 FO
  36   36 1809 3922 FO
  36   36 1863 3991 FO
  36   36 1916 4028 FO
  36   36 1970 4085 FO
  36   36 2023 4131 FO
  36   36 2077 4201 FO
  36   36 2130 4227 FO
  36   36 2184 4241 FO
  36   36 2238 4273 FO
  36   36 2291 4297 FO
  36   36 2345 4315 FO
  36   36 2398 4339 FO
  36   36 2452 4353 FO
  36   36 2505 4384 FO
  36   36 2559 4402 FO
  36   36 2612 4417 FO
  36   36 2666 4424 FO
  36   36 2720 4444 FO
  36   36 2773 4450 FO
  36   36 2827 4468 FO
  36   36 2880 4481 FO
  36   36 2934 4483 FO
  36   36 2987 4500 FO
  36   36 3041 4502 FO
  36   36 3094 4507 FO
  36   36 3148 4505 FO
  36   36 3202 4521 FO
  36   36 3255 4526 FO
  36   36 3309 4528 FO
  36   36 3362 4530 FO
  36   36 3416 4535 FO
  36   36 3469 4531 FO
  36   36 3523 4533 FO
  36   36 3577 4541 FO
  36   36 3630 4535 FO
  36   36 3684 4541 FO
  36   36 3737 4543 FO
  36   36 3791 4539 FO
  36   36 3844 4541 FO
  36   36 3898 4546 FO
  36   36 3951 4551 FO
  36   36 4005 4556 FO
  36   36 4059 4558 FO
  36   36 4112 4565 FO
  36   36 4166 4570 FO
  36   36 4219 4565 FO
  36   36 4273 4569 FO
  36   36 4326 4573 FO
  36   36 4380 4569 FO
  36   36 4433 4571 FO
  36   36 4487 4577 FO
  36   36 4541 4581 FO
  36   36 4594 4583 FO
  36   36 4648 4574 FO
  36   36 4701 4571 FO
  36   36 4755 4574 FO
  36   36 4808 4576 FO
  36   36 4862 4569 FO
  36   36 4916 4570 FO
  36   36 4969 4569 FO
  36   36 5023 4570 FO
  36   36 5076 4563 FO
  36   36 5130 4561 FO
  36   36 5183 4559 FO
  36   36 5237 4566 FO
  36   36 5290 4564 FO
  36   36 5344 4568 FO
  36   36 5398 4562 FO
  36   36 5451 4564 FO
  36   36 5505 4570 FO
  36   36 5558 4575 FO
  36   36 5612 4577 FO
  36   36 5665 4578 FO
  36   36 5719 4574 FO
  36   36 5772 4570 FO
  36   36 5826 4565 FO
  36   36 5880 4568 FO
  36   36 5933 4570 FO
  36   36 5987 4566 FO
  36   36 6040 4568 FO
  36   36 6094 4566 FO
  36   36 6147 4570 FO
  36   36 6201 4575 FO
  36   36 6255 4577 FO
gs 899 469 5357 4147 rc
/c9 { 0.000000 0.500000 0.000000 sr} bdef
c9
2 0 899 545 2 MP stroke
899 469 PD
56 0 899 469 2 MP stroke
56 0 899 469 2 MP stroke
0 1091 952 469 2 MP stroke
109 0 899 1560 2 MP stroke
0 1111 1006 469 2 MP stroke
113 0 949 1580 2 MP stroke
0 1121 1059 469 2 MP stroke
112 0 1003 1590 2 MP stroke
0 1129 1113 469 2 MP stroke
112 0 1057 1598 2 MP stroke
0 1147 1166 469 2 MP stroke
113 0 1110 1616 2 MP stroke
0 1144 1220 469 2 MP stroke
112 0 1164 1613 2 MP stroke
0 1164 1273 469 2 MP stroke
113 0 1217 1633 2 MP stroke
0 1187 1327 469 2 MP stroke
112 0 1271 1656 2 MP stroke
0 1212 1381 469 2 MP stroke
113 0 1324 1681 2 MP stroke
0 1207 1434 469 2 MP stroke
112 0 1378 1676 2 MP stroke
0 1217 1488 469 2 MP stroke
113 0 1431 1686 2 MP stroke
0 1233 1541 469 2 MP stroke
112 0 1485 1702 2 MP stroke
0 1241 1595 469 2 MP stroke
112 0 1539 1710 2 MP stroke
0 1282 1648 469 2 MP stroke
113 0 1592 1751 2 MP stroke
0 1289 1702 469 2 MP stroke
112 0 1646 1758 2 MP stroke
0 1315 1755 469 2 MP stroke
113 0 1699 1784 2 MP stroke
0 1319 1809 469 2 MP stroke
112 0 1753 1788 2 MP stroke
0 1327 1863 469 2 MP stroke
113 0 1806 1796 2 MP stroke
0 1345 1916 469 2 MP stroke
112 0 1860 1814 2 MP stroke
0 1358 1970 469 2 MP stroke
113 0 1913 1827 2 MP stroke
0 1388 2023 469 2 MP stroke
112 0 1967 1857 2 MP stroke
0 1388 2077 469 2 MP stroke
112 0 2021 1857 2 MP stroke
0 1387 2130 469 2 MP stroke
113 0 2074 1856 2 MP stroke
0 1416 2184 469 2 MP stroke
112 0 2128 1885 2 MP stroke
0 1420 2238 469 2 MP stroke
113 0 2181 1889 2 MP stroke
0 1443 2291 469 2 MP stroke
112 0 2235 1912 2 MP stroke
0 1461 2345 469 2 MP stroke
113 0 2288 1930 2 MP stroke
0 1467 2398 469 2 MP stroke
112 0 2342 1936 2 MP stroke
0 1496 2452 469 2 MP stroke
112 0 2396 1965 2 MP stroke
0 1496 2505 469 2 MP stroke
113 0 2449 1965 2 MP stroke
0 1512 2559 469 2 MP stroke
112 0 2503 1981 2 MP stroke
0 1527 2612 469 2 MP stroke
113 0 2556 1996 2 MP stroke
0 1556 2666 469 2 MP stroke
112 0 2610 2025 2 MP stroke
0 1567 2720 469 2 MP stroke
113 0 2663 2036 2 MP stroke
0 1594 2773 469 2 MP stroke
112 0 2717 2063 2 MP stroke
0 1599 2827 469 2 MP stroke
113 0 2770 2068 2 MP stroke
0 1618 2880 469 2 MP stroke
112 0 2824 2087 2 MP stroke
0 1640 2934 469 2 MP stroke
112 0 2878 2109 2 MP stroke
0 1650 2987 469 2 MP stroke
113 0 2931 2119 2 MP stroke
0 1654 3041 469 2 MP stroke
112 0 2985 2123 2 MP stroke
0 1660 3094 469 2 MP stroke
113 0 3038 2129 2 MP stroke
0 1683 3148 469 2 MP stroke
112 0 3092 2152 2 MP stroke
0 1686 3202 469 2 MP stroke
113 0 3145 2155 2 MP stroke
0 1694 3255 469 2 MP stroke
112 0 3199 2163 2 MP stroke
0 1714 3309 470 2 MP stroke
113 0 3252 470 2 MP stroke
113 0 3252 2184 2 MP stroke
0 1713 3362 484 2 MP stroke
112 0 3306 484 2 MP stroke
112 0 3306 2197 2 MP stroke
0 1717 3416 487 2 MP stroke
112 0 3360 487 2 MP stroke
112 0 3360 2204 2 MP stroke
0 1712 3469 511 2 MP stroke
113 0 3413 511 2 MP stroke
113 0 3413 2223 2 MP stroke
0 1708 3523 518 2 MP stroke
112 0 3467 518 2 MP stroke
112 0 3467 2226 2 MP stroke
0 1712 3577 527 2 MP stroke
113 0 3520 527 2 MP stroke
113 0 3520 2239 2 MP stroke
0 1723 3630 553 2 MP stroke
112 0 3574 553 2 MP stroke
112 0 3574 2276 2 MP stroke
0 1715 3684 569 2 MP stroke
113 0 3627 569 2 MP stroke
113 0 3627 2284 2 MP stroke
0 1714 3737 575 2 MP stroke
112 0 3681 575 2 MP stroke
112 0 3681 2289 2 MP stroke
0 1697 3791 600 2 MP stroke
112 0 3735 600 2 MP stroke
112 0 3735 2297 2 MP stroke
0 1681 3844 622 2 MP stroke
113 0 3788 622 2 MP stroke
113 0 3788 2303 2 MP stroke
0 1688 3898 628 2 MP stroke
112 0 3842 628 2 MP stroke
112 0 3842 2316 2 MP stroke
0 1683 3951 640 2 MP stroke
113 0 3895 640 2 MP stroke
113 0 3895 2323 2 MP stroke
0 1674 4005 659 2 MP stroke
112 0 3949 659 2 MP stroke
112 0 3949 2333 2 MP stroke
0 1663 4059 674 2 MP stroke
113 0 4002 674 2 MP stroke
113 0 4002 2337 2 MP stroke
0 1658 4112 687 2 MP stroke
112 0 4056 687 2 MP stroke
112 0 4056 2345 2 MP stroke
0 1663 4166 690 2 MP stroke
113 0 4109 690 2 MP stroke
113 0 4109 2353 2 MP stroke
0 1668 4219 706 2 MP stroke
112 0 4163 706 2 MP stroke
112 0 4163 2374 2 MP stroke
0 1669 4273 721 2 MP stroke
112 0 4217 721 2 MP stroke
112 0 4217 2390 2 MP stroke
0 1684 4326 715 2 MP stroke
113 0 4270 715 2 MP stroke
113 0 4270 2399 2 MP stroke
0 1687 4380 728 2 MP stroke
112 0 4324 728 2 MP stroke
112 0 4324 2415 2 MP stroke
0 1688 4433 742 2 MP stroke
113 0 4377 742 2 MP stroke
113 0 4377 2430 2 MP stroke
0 1693 4487 752 2 MP stroke
112 0 4431 752 2 MP stroke
112 0 4431 2445 2 MP stroke
0 1705 4541 764 2 MP stroke
113 0 4484 764 2 MP stroke
113 0 4484 2469 2 MP stroke
0 1698 4594 777 2 MP stroke
112 0 4538 777 2 MP stroke
112 0 4538 2475 2 MP stroke
0 1706 4648 805 2 MP stroke
113 0 4591 805 2 MP stroke
113 0 4591 2511 2 MP stroke
0 1713 4701 822 2 MP stroke
112 0 4645 822 2 MP stroke
112 0 4645 2535 2 MP stroke
0 1720 4755 817 2 MP stroke
112 0 4699 817 2 MP stroke
112 0 4699 2537 2 MP stroke
0 1720 4808 822 2 MP stroke
113 0 4752 822 2 MP stroke
113 0 4752 2542 2 MP stroke
0 1727 4862 851 2 MP stroke
112 0 4806 851 2 MP stroke
112 0 4806 2578 2 MP stroke
0 1702 4916 878 2 MP stroke
113 0 4859 878 2 MP stroke
113 0 4859 2580 2 MP stroke
0 1696 4969 891 2 MP stroke
112 0 4913 891 2 MP stroke
112 0 4913 2587 2 MP stroke
0 1686 5023 897 2 MP stroke
113 0 4966 897 2 MP stroke
113 0 4966 2583 2 MP stroke
0 1706 5076 921 2 MP stroke
112 0 5020 921 2 MP stroke
112 0 5020 2627 2 MP stroke
0 1680 5130 953 2 MP stroke
112 0 5074 953 2 MP stroke
112 0 5074 2633 2 MP stroke
0 1705 5183 956 2 MP stroke
113 0 5127 956 2 MP stroke
113 0 5127 2661 2 MP stroke
0 1701 5237 957 2 MP stroke
112 0 5181 957 2 MP stroke
112 0 5181 2658 2 MP stroke
0 1682 5290 984 2 MP stroke
113 0 5234 984 2 MP stroke
113 0 5234 2666 2 MP stroke
0 1678 5344 991 2 MP stroke
112 0 5288 991 2 MP stroke
112 0 5288 2669 2 MP stroke
0 1653 5398 1036 2 MP stroke
113 0 5341 1036 2 MP stroke
113 0 5341 2689 2 MP stroke
0 1662 5451 1043 2 MP stroke
112 0 5395 1043 2 MP stroke
112 0 5395 2705 2 MP stroke
0 1650 5505 1048 2 MP stroke
113 0 5448 1048 2 MP stroke
113 0 5448 2698 2 MP stroke
0 1670 5558 1041 2 MP stroke
112 0 5502 1041 2 MP stroke
112 0 5502 2711 2 MP stroke
0 1658 5612 1064 2 MP stroke
112 0 5556 1064 2 MP stroke
112 0 5556 2722 2 MP stroke
0 1647 5665 1082 2 MP stroke
113 0 5609 1082 2 MP stroke
113 0 5609 2729 2 MP stroke
0 1626 5719 1108 2 MP stroke
112 0 5663 1108 2 MP stroke
112 0 5663 2734 2 MP stroke
0 1625 5772 1129 2 MP stroke
113 0 5716 1129 2 MP stroke
113 0 5716 2754 2 MP stroke
0 1608 5826 1157 2 MP stroke
112 0 5770 1157 2 MP stroke
112 0 5770 2765 2 MP stroke
0 1590 5880 1185 2 MP stroke
113 0 5823 1185 2 MP stroke
113 0 5823 2775 2 MP stroke
0 1590 5933 1185 2 MP stroke
112 0 5877 1185 2 MP stroke
112 0 5877 2775 2 MP stroke
0 1565 5987 1218 2 MP stroke
113 0 5930 1218 2 MP stroke
113 0 5930 2783 2 MP stroke
0 1573 6040 1228 2 MP stroke
112 0 5984 1228 2 MP stroke
112 0 5984 2801 2 MP stroke
0 1563 6094 1245 2 MP stroke
112 0 6038 1245 2 MP stroke
112 0 6038 2808 2 MP stroke
0 1581 6147 1249 2 MP stroke
113 0 6091 1249 2 MP stroke
113 0 6091 2830 2 MP stroke
0 1572 6201 1253 2 MP stroke
111 0 6145 1253 2 MP stroke
111 0 6145 2825 2 MP stroke
0 1559 6255 1269 2 MP stroke
58 0 6198 1269 2 MP stroke
58 0 6198 2828 2 MP stroke
54 9 54 -1 53 13 54 12 53 14 54 21 53 0 54 19 
54 20 53 20 54 16 53 12 54 17 53 3 54 -1 53 11 
54 33 54 5 53 17 54 -1 53 16 54 19 53 34 54 1 
53 10 54 15 54 32 53 5 54 -2 53 21 54 32 53 10 
54 18 54 12 53 15 54 14 53 1 54 16 53 19 54 5 
53 11 54 9 54 15 53 9 54 9 53 15 54 16 53 6 
54 11 53 32 54 11 54 5 53 21 54 6 53 13 54 26 
53 -1 54 5 54 25 53 10 54 11 53 15 54 27 53 15 
54 4 53 25 54 14 54 23 53 8 54 14 53 -5 54 32 
53 6 54 22 53 35 54 5 54 27 53 -3 54 0 53 39 
54 9 53 27 54 16 54 11 53 27 54 7 53 37 54 11 
53 22 54 3 53 -9 54 29 54 26 53 28 54 -6 53 22 
54 7 53 14 54 22 53 176 899 469 101 MP stroke
gr

c9
  36   36  952  645 FO
  36   36 1006  667 FO
  36   36 1059  681 FO
  36   36 1113  688 FO
  36   36 1166  710 FO
  36   36 1220  704 FO
  36   36 1273  732 FO
  36   36 1327  758 FO
  36   36 1381  787 FO
  36   36 1434  778 FO
  36   36 1488  781 FO
  36   36 1541  803 FO
  36   36 1595  814 FO
  36   36 1648  851 FO
  36   36 1702  858 FO
  36   36 1755  885 FO
  36   36 1809  896 FO
  36   36 1863  912 FO
  36   36 1916  939 FO
  36   36 1970  948 FO
  36   36 2023  987 FO
  36   36 2077  987 FO
  36   36 2130  984 FO
  36   36 2184 1011 FO
  36   36 2238 1016 FO
  36   36 2291 1051 FO
  36   36 2345 1073 FO
  36   36 2398 1079 FO
  36   36 2452 1111 FO
  36   36 2505 1106 FO
  36   36 2559 1120 FO
  36   36 2612 1128 FO
  36   36 2666 1151 FO
  36   36 2720 1165 FO
  36   36 2773 1190 FO
  36   36 2827 1194 FO
  36   36 2880 1209 FO
  36   36 2934 1236 FO
  36   36 2987 1251 FO
  36   36 3041 1262 FO
  36   36 3094 1272 FO
  36   36 3148 1297 FO
  36   36 3202 1302 FO
  36   36 3255 1301 FO
  36   36 3309 1327 FO
  36   36 3362 1340 FO
  36   36 3416 1346 FO
  36   36 3469 1367 FO
  36   36 3523 1372 FO
  36   36 3577 1383 FO
  36   36 3630 1415 FO
  36   36 3684 1426 FO
  36   36 3737 1432 FO
  36   36 3791 1448 FO
  36   36 3844 1463 FO
  36   36 3898 1472 FO
  36   36 3951 1481 FO
  36   36 4005 1496 FO
  36   36 4059 1505 FO
  36   36 4112 1516 FO
  36   36 4166 1521 FO
  36   36 4219 1540 FO
  36   36 4273 1556 FO
  36   36 4326 1557 FO
  36   36 4380 1571 FO
  36   36 4433 1586 FO
  36   36 4487 1598 FO
  36   36 4541 1616 FO
  36   36 4594 1626 FO
  36   36 4648 1658 FO
  36   36 4701 1679 FO
  36   36 4755 1677 FO
  36   36 4808 1682 FO
  36   36 4862 1714 FO
  36   36 4916 1729 FO
  36   36 4969 1739 FO
  36   36 5023 1740 FO
  36   36 5076 1774 FO
  36   36 5130 1793 FO
  36   36 5183 1809 FO
  36   36 5237 1808 FO
  36   36 5290 1825 FO
  36   36 5344 1830 FO
  36   36 5398 1863 FO
  36   36 5451 1874 FO
  36   36 5505 1873 FO
  36   36 5558 1876 FO
  36   36 5612 1893 FO
  36   36 5665 1905 FO
  36   36 5719 1921 FO
  36   36 5772 1941 FO
  36   36 5826 1961 FO
  36   36 5880 1980 FO
  36   36 5933 1980 FO
  36   36 5987 2001 FO
  36   36 6040 2015 FO
  36   36 6094 2027 FO
  36   36 6147 2040 FO
  36   36 6201 2039 FO
  36   36 6255 2048 FO
gs 899 469 5357 4147 rc
gr

0 sg
%%IncludeResource: font Helvetica
/Helvetica /ISOLatin1Encoding 168 FMSR

2407  156 mt 
(Nup49-GFP in Early Anaphase) s
%%IncludeResource: font Helvetica
/Helvetica /ISOLatin1Encoding 144 FMSR

2693  293 mt 
(n) s
%%IncludeResource: font Helvetica
/Helvetica /ISOLatin1Encoding 108 FMSR

2773  377 mt 
(cells) s
%%IncludeResource: font Helvetica
/Helvetica /ISOLatin1Encoding 144 FMSR

2989  293 mt 
( = 21    -    d) s
%%IncludeResource: font Helvetica
/Helvetica /ISOLatin1Encoding 108 FMSR

3797  377 mt 
(b) s
%%IncludeResource: font Helvetica
/Helvetica /ISOLatin1Encoding 144 FMSR

3857  293 mt 
( = 0.0393) s
3314 4921 mt 
(Time \(s\)) s
 577 3058 mt  -90 rotate
(% Fluorescence) s
90 rotate
%%IncludeResource: font Helvetica
/Helvetica /ISOLatin1Encoding 120 FMSR

 882 4658 mt 
( ) s
6239  511 mt 
( ) s
5656  664 mt 
(mother) s
gs 5217 529 980 335 rc
c8
338 0 5284 621 2 MP stroke
gs 5380 548 147 147 rc
  36   36 5453  621 FO
gr

gr

c8
0 sg
5656  813 mt 
(daughter) s
gs 5217 529 980 335 rc
c9
338 0 5284 770 2 MP stroke
gs 5380 697 147 147 rc
  36   36 5453  770 FO
gr

gr

c9

end %%Color Dict

eplot
%%EndObject

epage
end

showpage

%%Trailer
%%EOF
