%!PS-Adobe-3.0 EPSF-3.0
%%Creator: MATLAB, The MathWorks, Inc. Version 8.1.0.604 (R2013a). Operating System: Darwin 11.4.2 Darwin Kernel Version 11.4.2: Thu Aug 23 16:25:48 PDT 2012; root:xnu-1699.32.7~1/RELEASE_X86_64 x86_64.
%%Title: ./EA_Nup49-volexc_no.eps
%%CreationDate: 07/30/2013  09:59:02
%%DocumentNeededFonts: Helvetica
%%DocumentProcessColors: Cyan Magenta Yellow Black
%%LanguageLevel: 2
%%Pages: 1
%%BoundingBox:    52   197   551   616
%%EndComments

%%BeginProlog
% MathWorks dictionary
/MathWorks 160 dict begin
% definition operators
/bdef {bind def} bind def
/ldef {load def} bind def
/xdef {exch def} bdef
/xstore {exch store} bdef
% operator abbreviations
/c  /clip ldef
/cc /concat ldef
/cp /closepath ldef
/gr /grestore ldef
/gs /gsave ldef
/mt /moveto ldef
/np /newpath ldef
/cm /currentmatrix ldef
/sm /setmatrix ldef
/rm /rmoveto ldef
/rl /rlineto ldef
/s {show newpath} bdef
/sc {setcmykcolor} bdef
/sr /setrgbcolor ldef
/sg /setgray ldef
/w /setlinewidth ldef
/j /setlinejoin ldef
/cap /setlinecap ldef
/rc {rectclip} bdef
/rf {rectfill} bdef
% page state control
/pgsv () def
/bpage {/pgsv save def} bdef
/epage {pgsv restore} bdef
/bplot /gsave ldef
/eplot {stroke grestore} bdef
% orientation switch
/portraitMode 0 def /landscapeMode 1 def /rotateMode 2 def
% coordinate system mappings
/dpi2point 0 def
% font control
/FontSize 0 def
/FMS {/FontSize xstore findfont [FontSize 0 0 FontSize neg 0 0]
  makefont setfont} bdef
/reencode {exch dup where {pop load} {pop StandardEncoding} ifelse
  exch dup 3 1 roll findfont dup length dict begin
  { 1 index /FID ne {def}{pop pop} ifelse } forall
  /Encoding exch def currentdict end definefont pop} bdef
/isroman {findfont /CharStrings get /Agrave known} bdef
/FMSR {3 1 roll 1 index dup isroman {reencode} {pop pop} ifelse
  exch FMS} bdef
/csm {1 dpi2point div -1 dpi2point div scale neg translate
 dup landscapeMode eq {pop -90 rotate}
  {rotateMode eq {90 rotate} if} ifelse} bdef
% line types: solid, dotted, dashed, dotdash
/SO { [] 0 setdash } bdef
/DO { [.5 dpi2point mul 4 dpi2point mul] 0 setdash } bdef
/DA { [6 dpi2point mul] 0 setdash } bdef
/DD { [.5 dpi2point mul 4 dpi2point mul 6 dpi2point mul 4
  dpi2point mul] 0 setdash } bdef
% macros for lines and objects
/L {lineto stroke} bdef
/MP {3 1 roll moveto 1 sub {rlineto} repeat} bdef
/AP {{rlineto} repeat} bdef
/PDlw -1 def
/W {/PDlw currentlinewidth def setlinewidth} def
/PP {closepath eofill} bdef
/DP {closepath stroke} bdef
/MR {4 -2 roll moveto dup  0 exch rlineto exch 0 rlineto
  neg 0 exch rlineto closepath} bdef
/FR {MR stroke} bdef
/PR {MR fill} bdef
/L1i {{currentfile picstr readhexstring pop} image} bdef
/tMatrix matrix def
/MakeOval {newpath tMatrix currentmatrix pop translate scale
0 0 1 0 360 arc tMatrix setmatrix} bdef
/FO {MakeOval stroke} bdef
/PO {MakeOval fill} bdef
/PD {currentlinewidth 2 div 0 360 arc fill
   PDlw -1 eq not {PDlw w /PDlw -1 def} if} def
/FA {newpath tMatrix currentmatrix pop translate scale
  0 0 1 5 -2 roll arc tMatrix setmatrix stroke} bdef
/PA {newpath tMatrix currentmatrix pop	translate 0 0 moveto scale
  0 0 1 5 -2 roll arc closepath tMatrix setmatrix fill} bdef
/FAn {newpath tMatrix currentmatrix pop translate scale
  0 0 1 5 -2 roll arcn tMatrix setmatrix stroke} bdef
/PAn {newpath tMatrix currentmatrix pop translate 0 0 moveto scale
  0 0 1 5 -2 roll arcn closepath tMatrix setmatrix fill} bdef
/vradius 0 def /hradius 0 def /lry 0 def
/lrx 0 def /uly 0 def /ulx 0 def /rad 0 def
/MRR {/vradius xdef /hradius xdef /lry xdef /lrx xdef /uly xdef
  /ulx xdef newpath tMatrix currentmatrix pop ulx hradius add uly
  vradius add translate hradius vradius scale 0 0 1 180 270 arc 
  tMatrix setmatrix lrx hradius sub uly vradius add translate
  hradius vradius scale 0 0 1 270 360 arc tMatrix setmatrix
  lrx hradius sub lry vradius sub translate hradius vradius scale
  0 0 1 0 90 arc tMatrix setmatrix ulx hradius add lry vradius sub
  translate hradius vradius scale 0 0 1 90 180 arc tMatrix setmatrix
  closepath} bdef
/FRR {MRR stroke } bdef
/PRR {MRR fill } bdef
/MlrRR {/lry xdef /lrx xdef /uly xdef /ulx xdef /rad lry uly sub 2 div def
  newpath tMatrix currentmatrix pop ulx rad add uly rad add translate
  rad rad scale 0 0 1 90 270 arc tMatrix setmatrix lrx rad sub lry rad
  sub translate rad rad scale 0 0 1 270 90 arc tMatrix setmatrix
  closepath} bdef
/FlrRR {MlrRR stroke } bdef
/PlrRR {MlrRR fill } bdef
/MtbRR {/lry xdef /lrx xdef /uly xdef /ulx xdef /rad lrx ulx sub 2 div def
  newpath tMatrix currentmatrix pop ulx rad add uly rad add translate
  rad rad scale 0 0 1 180 360 arc tMatrix setmatrix lrx rad sub lry rad
  sub translate rad rad scale 0 0 1 0 180 arc tMatrix setmatrix
  closepath} bdef
/FtbRR {MtbRR stroke } bdef
/PtbRR {MtbRR fill } bdef
/stri 6 array def /dtri 6 array def
/smat 6 array def /dmat 6 array def
/tmat1 6 array def /tmat2 6 array def /dif 3 array def
/asub {/ind2 exch def /ind1 exch def dup dup
  ind1 get exch ind2 get sub exch } bdef
/tri_to_matrix {
  2 0 asub 3 1 asub 4 0 asub 5 1 asub
  dup 0 get exch 1 get 7 -1 roll astore } bdef
/compute_transform {
  dmat dtri tri_to_matrix tmat1 invertmatrix 
  smat stri tri_to_matrix tmat2 concatmatrix } bdef
/ds {stri astore pop} bdef
/dt {dtri astore pop} bdef
/db {2 copy /cols xdef /rows xdef mul dup 3 mul string
  currentfile 
  3 index 0 eq {/ASCIIHexDecode filter}
  {/ASCII85Decode filter 3 index 2 eq {/RunLengthDecode filter} if }
  ifelse exch readstring pop
  dup 0 3 index getinterval /rbmap xdef
  dup 2 index dup getinterval /gbmap xdef
  1 index dup 2 mul exch getinterval /bbmap xdef pop pop}bdef
/it {gs np dtri aload pop moveto lineto lineto cp c
  cols rows 8 compute_transform 
  rbmap gbmap bbmap true 3 colorimage gr}bdef
/il {newpath moveto lineto stroke}bdef
currentdict end def
%%EndProlog

%%BeginSetup
MathWorks begin

0 cap

end
%%EndSetup

%%Page: 1 1
%%BeginPageSetup
%%PageBoundingBox:    52   197   551   616
MathWorks begin
bpage
%%EndPageSetup

%%BeginObject: obj1
bplot

/dpi2point 12 def
portraitMode 0216 7344 csm

  418   -48  5986  5026 rc
85 dict begin %Colortable dictionary
/c0 { 0.000000 0.000000 0.000000 sr} bdef
/c1 { 1.000000 1.000000 1.000000 sr} bdef
/c2 { 0.900000 0.000000 0.000000 sr} bdef
/c3 { 0.000000 0.820000 0.000000 sr} bdef
/c4 { 0.000000 0.000000 0.800000 sr} bdef
/c5 { 0.910000 0.820000 0.320000 sr} bdef
/c6 { 1.000000 0.260000 0.820000 sr} bdef
/c7 { 0.000000 0.820000 0.820000 sr} bdef
c0
1 j
1 sg
   0    0 6913 5186 rf
6 w
0 4146 5356 0 0 -4146 899 4615 4 MP
PP
-5356 0 0 4146 5356 0 0 -4146 899 4615 5 MP stroke
4 w
DO
SO
6 w
0 sg
 899 4615 mt 6255 4615 L
 899  469 mt 6255  469 L
 899 4615 mt  899  469 L
6255 4615 mt 6255  469 L
 899 4615 mt 6255 4615 L
 899 4615 mt  899  469 L
 899 4615 mt  899 4561 L
 899  469 mt  899  522 L
%%IncludeResource: font Helvetica
/Helvetica /ISOLatin1Encoding 120 FMSR

 866 4760 mt 
(0) s
1434 4615 mt 1434 4561 L
1434  469 mt 1434  522 L
1368 4760 mt 
(20) s
1970 4615 mt 1970 4561 L
1970  469 mt 1970  522 L
1904 4760 mt 
(40) s
2505 4615 mt 2505 4561 L
2505  469 mt 2505  522 L
2439 4760 mt 
(60) s
3041 4615 mt 3041 4561 L
3041  469 mt 3041  522 L
2975 4760 mt 
(80) s
3577 4615 mt 3577 4561 L
3577  469 mt 3577  522 L
3477 4760 mt 
(100) s
4112 4615 mt 4112 4561 L
4112  469 mt 4112  522 L
4012 4760 mt 
(120) s
4648 4615 mt 4648 4561 L
4648  469 mt 4648  522 L
4548 4760 mt 
(140) s
5183 4615 mt 5183 4561 L
5183  469 mt 5183  522 L
5083 4760 mt 
(160) s
5719 4615 mt 5719 4561 L
5719  469 mt 5719  522 L
5619 4760 mt 
(180) s
6255 4615 mt 6255 4561 L
6255  469 mt 6255  522 L
6155 4760 mt 
(200) s
 899 4615 mt  952 4615 L
6255 4615 mt 6201 4615 L
 798 4659 mt 
(0) s
 899 4200 mt  952 4200 L
6255 4200 mt 6201 4200 L
 731 4244 mt 
(10) s
 899 3785 mt  952 3785 L
6255 3785 mt 6201 3785 L
 731 3829 mt 
(20) s
 899 3371 mt  952 3371 L
6255 3371 mt 6201 3371 L
 731 3415 mt 
(30) s
 899 2956 mt  952 2956 L
6255 2956 mt 6201 2956 L
 731 3000 mt 
(40) s
 899 2542 mt  952 2542 L
6255 2542 mt 6201 2542 L
 731 2586 mt 
(50) s
 899 2127 mt  952 2127 L
6255 2127 mt 6201 2127 L
 731 2171 mt 
(60) s
 899 1712 mt  952 1712 L
6255 1712 mt 6201 1712 L
 731 1756 mt 
(70) s
 899 1298 mt  952 1298 L
6255 1298 mt 6201 1298 L
 731 1342 mt 
(80) s
 899  883 mt  952  883 L
6255  883 mt 6201  883 L
 731  927 mt 
(90) s
 899  469 mt  952  469 L
6255  469 mt 6201  469 L
 664  513 mt 
(100) s
 899 4615 mt 6255 4615 L
 899  469 mt 6255  469 L
 899 4615 mt  899  469 L
6255 4615 mt 6255  469 L
gs 899 469 5357 4147 rc
899 469 PD
66 0 899 469 2 MP stroke
66 0 899 469 2 MP stroke
0 763 985 1738 2 MP stroke
132 0 919 1738 2 MP stroke
132 0 919 2501 2 MP stroke
0 912 1068 1929 2 MP stroke
132 0 1002 1929 2 MP stroke
132 0 1002 2841 2 MP stroke
0 915 1152 2160 2 MP stroke
132 0 1086 2160 2 MP stroke
132 0 1086 3075 2 MP stroke
0 1027 1234 2299 2 MP stroke
133 0 1167 2299 2 MP stroke
133 0 1167 3326 2 MP stroke
0 965 1319 2538 2 MP stroke
133 0 1252 2538 2 MP stroke
133 0 1252 3503 2 MP stroke
0 1099 1403 2531 2 MP stroke
133 0 1337 2531 2 MP stroke
133 0 1337 3630 2 MP stroke
0 858 1487 2758 2 MP stroke
132 0 1421 2758 2 MP stroke
132 0 1421 3616 2 MP stroke
0 831 1572 2931 2 MP stroke
132 0 1506 2931 2 MP stroke
132 0 1506 3762 2 MP stroke
0 895 1656 2929 2 MP stroke
133 0 1590 2929 2 MP stroke
133 0 1590 3824 2 MP stroke
0 840 1739 3013 2 MP stroke
132 0 1673 3013 2 MP stroke
132 0 1673 3853 2 MP stroke
0 883 1822 3087 2 MP stroke
133 0 1756 3087 2 MP stroke
133 0 1756 3970 2 MP stroke
0 856 1907 3223 2 MP stroke
132 0 1841 3223 2 MP stroke
132 0 1841 4079 2 MP stroke
0 803 1992 3292 2 MP stroke
133 0 1926 3292 2 MP stroke
133 0 1926 4095 2 MP stroke
0 894 2076 3303 2 MP stroke
132 0 2010 3303 2 MP stroke
132 0 2010 4197 2 MP stroke
0 806 2160 3420 2 MP stroke
132 0 2094 3420 2 MP stroke
132 0 2094 4226 2 MP stroke
0 793 2244 3405 2 MP stroke
132 0 2178 3405 2 MP stroke
132 0 2178 4198 2 MP stroke
0 696 2330 3543 2 MP stroke
133 0 2263 3543 2 MP stroke
133 0 2263 4239 2 MP stroke
0 765 2412 3543 2 MP stroke
132 0 2346 3543 2 MP stroke
132 0 2346 4308 2 MP stroke
0 698 2496 3645 2 MP stroke
132 0 2430 3645 2 MP stroke
132 0 2430 4343 2 MP stroke
0 703 2581 3615 2 MP stroke
133 0 2515 3615 2 MP stroke
133 0 2515 4318 2 MP stroke
0 590 2665 3762 2 MP stroke
133 0 2598 3762 2 MP stroke
133 0 2598 4352 2 MP stroke
0 576 2748 3819 2 MP stroke
133 0 2682 3819 2 MP stroke
133 0 2682 4395 2 MP stroke
0 511 2835 3873 2 MP stroke
132 0 2769 3873 2 MP stroke
132 0 2769 4384 2 MP stroke
0 543 2924 3869 2 MP stroke
133 0 2858 3869 2 MP stroke
133 0 2858 4412 2 MP stroke
0 496 3014 3961 2 MP stroke
133 0 2947 3961 2 MP stroke
133 0 2947 4457 2 MP stroke
0 491 3101 3978 2 MP stroke
132 0 3035 3978 2 MP stroke
132 0 3035 4469 2 MP stroke
0 446 3188 4011 2 MP stroke
133 0 3122 4011 2 MP stroke
133 0 3122 4457 2 MP stroke
0 472 3277 4035 2 MP stroke
132 0 3211 4035 2 MP stroke
132 0 3211 4507 2 MP stroke
0 399 3366 4061 2 MP stroke
133 0 3300 4061 2 MP stroke
133 0 3300 4460 2 MP stroke
0 423 3454 4078 2 MP stroke
132 0 3388 4078 2 MP stroke
132 0 3388 4501 2 MP stroke
0 423 3541 4124 2 MP stroke
132 0 3475 4124 2 MP stroke
132 0 3475 4547 2 MP stroke
0 400 3629 4086 2 MP stroke
133 0 3563 4086 2 MP stroke
133 0 3563 4486 2 MP stroke
0 427 3718 4122 2 MP stroke
133 0 3652 4122 2 MP stroke
133 0 3652 4549 2 MP stroke
0 423 3807 4135 2 MP stroke
133 0 3741 4135 2 MP stroke
133 0 3741 4558 2 MP stroke
0 442 3896 4124 2 MP stroke
133 0 3829 4124 2 MP stroke
133 0 3829 4566 2 MP stroke
0 448 3984 4118 2 MP stroke
132 0 3918 4118 2 MP stroke
132 0 3918 4566 2 MP stroke
0 367 4072 4205 2 MP stroke
133 0 4005 4205 2 MP stroke
133 0 4005 4572 2 MP stroke
0 355 4160 4222 2 MP stroke
132 0 4094 4222 2 MP stroke
132 0 4094 4577 2 MP stroke
0 466 4248 4150 2 MP stroke
133 0 4182 4150 2 MP stroke
0 411 4336 4196 2 MP stroke
133 0 4270 4196 2 MP stroke
133 0 4270 4607 2 MP stroke
0 389 4424 4227 2 MP stroke
133 0 4358 4227 2 MP stroke
0 329 4512 4258 2 MP stroke
132 0 4446 4258 2 MP stroke
132 0 4446 4587 2 MP stroke
0 322 4606 4294 2 MP stroke
132 0 4540 4294 2 MP stroke
0 307 4704 4309 2 MP stroke
133 0 4638 4309 2 MP stroke
0 252 4801 4364 2 MP stroke
133 0 4735 4364 2 MP stroke
0 235 4899 4381 2 MP stroke
132 0 4833 4381 2 MP stroke
0 267 4997 4349 2 MP stroke
132 0 4931 4349 2 MP stroke
0 245 5095 4371 2 MP stroke
133 0 5028 4371 2 MP stroke
0 248 5198 4368 2 MP stroke
132 0 5132 4368 2 MP stroke
0 236 5307 4380 2 MP stroke
132 0 5241 4380 2 MP stroke
0 222 5424 4394 2 MP stroke
132 0 5358 4394 2 MP stroke
0 196 5545 4420 2 MP stroke
133 0 5479 4420 2 MP stroke
0 241 5689 4375 2 MP stroke
133 0 5623 4375 2 MP stroke
0 194 5858 4422 2 MP stroke
133 0 5792 4422 2 MP stroke
0 176 6042 4440 2 MP stroke
133 0 5975 4440 2 MP stroke
0 183 6243 4433 2 MP stroke
80 0 6176 4433 2 MP stroke
13 0 201 -1 184 3 169 19 144 -5 121 23 117 0 109 4 
103 0 98 32 98 -31 98 15 97 26 98 17 94 48 88 -3 
88 24 88 18 88 -16 88 10 88 47 88 -3 89 -1 89 11 
89 49 88 -49 87 45 88 29 89 -10 89 37 87 11 87 14 
90 68 89 13 87 21 83 50 84 91 85 -28 84 68 82 35 
86 89 84 -21 84 73 84 56 85 43 85 122 83 96 83 57 
84 29 85 160 84 106 84 60 85 208 82 195 84 233 83 265 
86 1651 899 469 58 MP stroke
gr

 874  444 mt  924  494 L
 924  444 mt  874  494 L
 960 2095 mt 1010 2145 L
1010 2095 mt  960 2145 L
1043 2360 mt 1093 2410 L
1093 2360 mt 1043 2410 L
1127 2593 mt 1177 2643 L
1177 2593 mt 1127 2643 L
1209 2788 mt 1259 2838 L
1259 2788 mt 1209 2838 L
1294 2996 mt 1344 3046 L
1344 2996 mt 1294 3046 L
1378 3056 mt 1428 3106 L
1428 3056 mt 1378 3106 L
1462 3162 mt 1512 3212 L
1512 3162 mt 1462 3212 L
1547 3322 mt 1597 3372 L
1597 3322 mt 1547 3372 L
1631 3351 mt 1681 3401 L
1681 3351 mt 1631 3401 L
1714 3408 mt 1764 3458 L
1764 3408 mt 1714 3458 L
1797 3504 mt 1847 3554 L
1847 3504 mt 1797 3554 L
1882 3626 mt 1932 3676 L
1932 3626 mt 1882 3676 L
1967 3669 mt 2017 3719 L
2017 3669 mt 1967 3719 L
2051 3725 mt 2101 3775 L
2101 3725 mt 2051 3775 L
2135 3798 mt 2185 3848 L
2185 3798 mt 2135 3848 L
2219 3777 mt 2269 3827 L
2269 3777 mt 2219 3827 L
2305 3866 mt 2355 3916 L
2355 3866 mt 2305 3916 L
2387 3901 mt 2437 3951 L
2437 3901 mt 2387 3951 L
2471 3969 mt 2521 4019 L
2521 3969 mt 2471 4019 L
2556 3941 mt 2606 3991 L
2606 3941 mt 2556 3991 L
2640 4032 mt 2690 4082 L
2690 4032 mt 2640 4082 L
2723 4082 mt 2773 4132 L
2773 4082 mt 2723 4132 L
2810 4103 mt 2860 4153 L
2860 4103 mt 2810 4153 L
2899 4116 mt 2949 4166 L
2949 4116 mt 2899 4166 L
2989 4184 mt 3039 4234 L
3039 4184 mt 2989 4234 L
3076 4198 mt 3126 4248 L
3126 4198 mt 3076 4248 L
3163 4209 mt 3213 4259 L
3213 4209 mt 3163 4259 L
3252 4246 mt 3302 4296 L
3302 4246 mt 3252 4296 L
3341 4236 mt 3391 4286 L
3391 4236 mt 3341 4286 L
3429 4265 mt 3479 4315 L
3479 4265 mt 3429 4315 L
3516 4310 mt 3566 4360 L
3566 4310 mt 3516 4360 L
3604 4261 mt 3654 4311 L
3654 4261 mt 3604 4311 L
3693 4310 mt 3743 4360 L
3743 4310 mt 3693 4360 L
3782 4321 mt 3832 4371 L
3832 4321 mt 3782 4371 L
3871 4320 mt 3921 4370 L
3921 4320 mt 3871 4370 L
3959 4317 mt 4009 4367 L
4009 4317 mt 3959 4367 L
4047 4364 mt 4097 4414 L
4097 4364 mt 4047 4414 L
4135 4374 mt 4185 4424 L
4185 4374 mt 4135 4424 L
4223 4358 mt 4273 4408 L
4273 4358 mt 4223 4408 L
4311 4376 mt 4361 4426 L
4361 4376 mt 4311 4426 L
4399 4400 mt 4449 4450 L
4449 4400 mt 4399 4450 L
4487 4397 mt 4537 4447 L
4537 4397 mt 4487 4447 L
4581 4445 mt 4631 4495 L
4631 4445 mt 4581 4495 L
4679 4462 mt 4729 4512 L
4729 4462 mt 4679 4512 L
4776 4488 mt 4826 4538 L
4826 4488 mt 4776 4538 L
4874 4503 mt 4924 4553 L
4924 4503 mt 4874 4553 L
4972 4472 mt 5022 4522 L
5022 4472 mt 4972 4522 L
5070 4504 mt 5120 4554 L
5120 4504 mt 5070 4554 L
5173 4504 mt 5223 4554 L
5223 4504 mt 5173 4554 L
5282 4508 mt 5332 4558 L
5332 4508 mt 5282 4558 L
5399 4508 mt 5449 4558 L
5449 4508 mt 5399 4558 L
5520 4531 mt 5570 4581 L
5570 4531 mt 5520 4581 L
5664 4526 mt 5714 4576 L
5714 4526 mt 5664 4576 L
5833 4545 mt 5883 4595 L
5883 4545 mt 5833 4595 L
6017 4548 mt 6067 4598 L
6067 4548 mt 6017 4598 L
6218 4547 mt 6268 4597 L
6268 4547 mt 6218 4597 L
gs 899 469 5357 4147 rc
899 469 PD
66 0 899 469 2 MP stroke
66 0 899 469 2 MP stroke
0 690 985 469 2 MP stroke
132 0 919 1159 2 MP stroke
0 652 1068 482 2 MP stroke
132 0 1002 482 2 MP stroke
132 0 1002 1134 2 MP stroke
0 919 1152 469 2 MP stroke
132 0 1086 1388 2 MP stroke
0 884 1234 469 2 MP stroke
133 0 1167 1353 2 MP stroke
0 886 1319 469 2 MP stroke
133 0 1252 1355 2 MP stroke
0 900 1403 500 2 MP stroke
133 0 1337 500 2 MP stroke
133 0 1337 1400 2 MP stroke
0 871 1487 600 2 MP stroke
132 0 1421 600 2 MP stroke
132 0 1421 1471 2 MP stroke
0 897 1572 577 2 MP stroke
132 0 1506 577 2 MP stroke
132 0 1506 1474 2 MP stroke
0 934 1656 596 2 MP stroke
133 0 1590 596 2 MP stroke
133 0 1590 1530 2 MP stroke
0 974 1739 622 2 MP stroke
132 0 1673 622 2 MP stroke
132 0 1673 1596 2 MP stroke
0 1087 1822 542 2 MP stroke
133 0 1756 542 2 MP stroke
133 0 1756 1629 2 MP stroke
0 1135 1907 595 2 MP stroke
132 0 1841 595 2 MP stroke
132 0 1841 1730 2 MP stroke
0 1006 1992 608 2 MP stroke
133 0 1926 608 2 MP stroke
133 0 1926 1614 2 MP stroke
0 962 2076 602 2 MP stroke
132 0 2010 602 2 MP stroke
132 0 2010 1564 2 MP stroke
0 757 2160 798 2 MP stroke
132 0 2094 798 2 MP stroke
132 0 2094 1555 2 MP stroke
0 1033 2244 469 2 MP stroke
132 0 2178 1502 2 MP stroke
0 1233 2330 504 2 MP stroke
133 0 2263 504 2 MP stroke
133 0 2263 1737 2 MP stroke
0 1215 2412 524 2 MP stroke
132 0 2346 524 2 MP stroke
132 0 2346 1739 2 MP stroke
0 1166 2496 588 2 MP stroke
132 0 2430 588 2 MP stroke
132 0 2430 1754 2 MP stroke
0 954 2581 808 2 MP stroke
133 0 2515 808 2 MP stroke
133 0 2515 1762 2 MP stroke
0 1049 2665 747 2 MP stroke
133 0 2598 747 2 MP stroke
133 0 2598 1796 2 MP stroke
0 1098 2748 710 2 MP stroke
133 0 2682 710 2 MP stroke
133 0 2682 1808 2 MP stroke
0 1031 2835 714 2 MP stroke
132 0 2769 714 2 MP stroke
132 0 2769 1745 2 MP stroke
0 867 2924 779 2 MP stroke
133 0 2858 779 2 MP stroke
133 0 2858 1646 2 MP stroke
0 992 3014 699 2 MP stroke
133 0 2947 699 2 MP stroke
133 0 2947 1691 2 MP stroke
0 881 3101 858 2 MP stroke
132 0 3035 858 2 MP stroke
132 0 3035 1739 2 MP stroke
0 1067 3188 796 2 MP stroke
133 0 3122 796 2 MP stroke
133 0 3122 1863 2 MP stroke
0 1090 3277 778 2 MP stroke
132 0 3211 778 2 MP stroke
132 0 3211 1868 2 MP stroke
0 1117 3366 777 2 MP stroke
133 0 3300 777 2 MP stroke
133 0 3300 1894 2 MP stroke
0 1213 3454 678 2 MP stroke
132 0 3388 678 2 MP stroke
132 0 3388 1891 2 MP stroke
0 878 3541 918 2 MP stroke
132 0 3475 918 2 MP stroke
132 0 3475 1796 2 MP stroke
0 1238 3629 775 2 MP stroke
133 0 3563 775 2 MP stroke
133 0 3563 2013 2 MP stroke
0 1305 3718 795 2 MP stroke
133 0 3652 795 2 MP stroke
133 0 3652 2100 2 MP stroke
0 1112 3807 808 2 MP stroke
133 0 3741 808 2 MP stroke
133 0 3741 1920 2 MP stroke
0 1114 3896 915 2 MP stroke
133 0 3829 915 2 MP stroke
133 0 3829 2029 2 MP stroke
0 1125 3984 831 2 MP stroke
132 0 3918 831 2 MP stroke
132 0 3918 1956 2 MP stroke
0 1265 4072 923 2 MP stroke
133 0 4005 923 2 MP stroke
133 0 4005 2188 2 MP stroke
0 1049 4160 944 2 MP stroke
132 0 4094 944 2 MP stroke
132 0 4094 1993 2 MP stroke
0 1030 4248 1017 2 MP stroke
133 0 4182 1017 2 MP stroke
133 0 4182 2047 2 MP stroke
0 1197 4336 1077 2 MP stroke
133 0 4270 1077 2 MP stroke
133 0 4270 2274 2 MP stroke
0 1143 4424 981 2 MP stroke
133 0 4358 981 2 MP stroke
133 0 4358 2124 2 MP stroke
0 1251 4512 849 2 MP stroke
132 0 4446 849 2 MP stroke
132 0 4446 2100 2 MP stroke
0 1155 4606 1104 2 MP stroke
132 0 4540 1104 2 MP stroke
132 0 4540 2259 2 MP stroke
0 1106 4704 1109 2 MP stroke
133 0 4638 1109 2 MP stroke
133 0 4638 2215 2 MP stroke
0 1172 4801 1080 2 MP stroke
133 0 4735 1080 2 MP stroke
133 0 4735 2252 2 MP stroke
0 1153 4899 1224 2 MP stroke
132 0 4833 1224 2 MP stroke
132 0 4833 2377 2 MP stroke
0 1091 4997 1129 2 MP stroke
132 0 4931 1129 2 MP stroke
132 0 4931 2220 2 MP stroke
0 1341 5095 1099 2 MP stroke
133 0 5028 1099 2 MP stroke
133 0 5028 2440 2 MP stroke
0 1211 5198 1213 2 MP stroke
132 0 5132 1213 2 MP stroke
132 0 5132 2424 2 MP stroke
0 1099 5307 1369 2 MP stroke
132 0 5241 1369 2 MP stroke
132 0 5241 2468 2 MP stroke
0 1073 5424 1317 2 MP stroke
132 0 5358 1317 2 MP stroke
132 0 5358 2390 2 MP stroke
0 1293 5545 1276 2 MP stroke
133 0 5479 1276 2 MP stroke
133 0 5479 2569 2 MP stroke
0 1290 5689 1469 2 MP stroke
133 0 5623 1469 2 MP stroke
133 0 5623 2759 2 MP stroke
0 1246 5858 1408 2 MP stroke
133 0 5792 1408 2 MP stroke
133 0 5792 2654 2 MP stroke
0 1252 6042 1308 2 MP stroke
133 0 5975 1308 2 MP stroke
133 0 5975 2560 2 MP stroke
0 1485 6243 1417 2 MP stroke
80 0 6176 1417 2 MP stroke
80 0 6176 2902 2 MP stroke
13 -7 201 226 184 -97 169 -83 144 192 121 68 117 -64 109 100 
103 48 98 95 98 -126 98 135 97 4 98 -20 94 208 88 -79 
88 -122 88 143 88 63 88 -86 88 162 88 -79 89 108 89 -83 
89 53 88 37 87 73 88 -52 89 13 89 -6 87 30 87 104 
90 -18 89 -16 87 -30 83 -12 84 -14 85 114 84 40 82 11 
86 152 84 -208 84 93 84 -28 85 -52 85 78 83 -24 83 46 
84 37 85 -10 84 86 84 42 85 45 82 -24 84 79 83 39 
86 300 899 469 58 MP stroke
gr

 874  444 mt  924  494 L
 924  444 mt  874  494 L
 960  744 mt 1010  794 L
1010  744 mt  960  794 L
1043  783 mt 1093  833 L
1093  783 mt 1043  833 L
1127  862 mt 1177  912 L
1177  862 mt 1127  912 L
1209  838 mt 1259  888 L
1259  838 mt 1209  888 L
1294  883 mt 1344  933 L
1344  883 mt 1294  933 L
1378  925 mt 1428  975 L
1428  925 mt 1378  975 L
1462 1011 mt 1512 1061 L
1512 1011 mt 1462 1061 L
1547 1001 mt 1597 1051 L
1597 1001 mt 1547 1051 L
1631 1038 mt 1681 1088 L
1681 1038 mt 1631 1088 L
1714 1084 mt 1764 1134 L
1764 1084 mt 1714 1134 L
1797 1060 mt 1847 1110 L
1847 1060 mt 1797 1110 L
1882 1138 mt 1932 1188 L
1932 1138 mt 1882 1188 L
1967 1086 mt 2017 1136 L
2017 1086 mt 1967 1136 L
2051 1058 mt 2101 1108 L
2101 1058 mt 2051 1108 L
2135 1151 mt 2185 1201 L
2185 1151 mt 2135 1201 L
2219  943 mt 2269  993 L
2269  943 mt 2219  993 L
2305 1095 mt 2355 1145 L
2355 1095 mt 2305 1145 L
2387 1106 mt 2437 1156 L
2437 1106 mt 2387 1156 L
2471 1146 mt 2521 1196 L
2521 1146 mt 2471 1196 L
2556 1260 mt 2606 1310 L
2606 1260 mt 2556 1310 L
2640 1246 mt 2690 1296 L
2690 1246 mt 2640 1296 L
2723 1234 mt 2773 1284 L
2773 1234 mt 2723 1284 L
2810 1204 mt 2860 1254 L
2860 1204 mt 2810 1254 L
2899 1188 mt 2949 1238 L
2949 1188 mt 2899 1238 L
2989 1170 mt 3039 1220 L
3039 1170 mt 2989 1220 L
3076 1274 mt 3126 1324 L
3126 1274 mt 3076 1324 L
3163 1304 mt 3213 1354 L
3213 1304 mt 3163 1354 L
3252 1298 mt 3302 1348 L
3302 1298 mt 3252 1348 L
3341 1311 mt 3391 1361 L
3391 1311 mt 3341 1361 L
3429 1259 mt 3479 1309 L
3479 1259 mt 3429 1309 L
3516 1332 mt 3566 1382 L
3566 1332 mt 3516 1382 L
3604 1369 mt 3654 1419 L
3654 1369 mt 3604 1419 L
3693 1422 mt 3743 1472 L
3743 1422 mt 3693 1472 L
3782 1339 mt 3832 1389 L
3832 1339 mt 3782 1389 L
3871 1447 mt 3921 1497 L
3921 1447 mt 3871 1497 L
3959 1368 mt 4009 1418 L
4009 1368 mt 3959 1418 L
4047 1530 mt 4097 1580 L
4097 1530 mt 4047 1580 L
4135 1444 mt 4185 1494 L
4185 1444 mt 4135 1494 L
4223 1507 mt 4273 1557 L
4273 1507 mt 4223 1557 L
4311 1650 mt 4361 1700 L
4361 1650 mt 4311 1700 L
4399 1528 mt 4449 1578 L
4449 1528 mt 4399 1578 L
4487 1449 mt 4537 1499 L
4537 1449 mt 4487 1499 L
4581 1657 mt 4631 1707 L
4631 1657 mt 4581 1707 L
4679 1637 mt 4729 1687 L
4729 1637 mt 4679 1687 L
4776 1641 mt 4826 1691 L
4826 1641 mt 4776 1691 L
4874 1776 mt 4924 1826 L
4924 1776 mt 4874 1826 L
4972 1650 mt 5022 1700 L
5022 1650 mt 4972 1700 L
5070 1745 mt 5120 1795 L
5120 1745 mt 5070 1795 L
5173 1793 mt 5223 1843 L
5223 1793 mt 5173 1843 L
5282 1893 mt 5332 1943 L
5332 1893 mt 5282 1943 L
5399 1829 mt 5449 1879 L
5449 1829 mt 5399 1879 L
5520 1897 mt 5570 1947 L
5570 1897 mt 5520 1947 L
5664 2089 mt 5714 2139 L
5714 2089 mt 5664 2139 L
5833 2006 mt 5883 2056 L
5883 2006 mt 5833 2056 L
6017 1909 mt 6067 1959 L
6067 1909 mt 6017 1959 L
6218 2135 mt 6268 2185 L
6268 2135 mt 6218 2185 L
gs 899 469 5357 4147 rc
/c8 { 1.000000 0.000000 0.000000 sr} bdef
c8
899 469 PD
53 0 899 469 2 MP stroke
53 0 899 469 2 MP stroke
0 2209 952 469 2 MP stroke
107 0 899 2678 2 MP stroke
0 2254 1006 653 2 MP stroke
107 0 952 653 2 MP stroke
107 0 952 2907 2 MP stroke
0 2081 1059 997 2 MP stroke
107 0 1006 997 2 MP stroke
107 0 1006 3078 2 MP stroke
0 1926 1113 1318 2 MP stroke
107 0 1059 1318 2 MP stroke
107 0 1059 3244 2 MP stroke
0 1804 1166 1591 2 MP stroke
107 0 1113 1591 2 MP stroke
107 0 1113 3395 2 MP stroke
0 1661 1220 1847 2 MP stroke
107 0 1166 1847 2 MP stroke
107 0 1166 3508 2 MP stroke
0 1552 1273 2072 2 MP stroke
107 0 1220 2072 2 MP stroke
107 0 1220 3624 2 MP stroke
0 1412 1327 2306 2 MP stroke
108 0 1273 2306 2 MP stroke
108 0 1273 3718 2 MP stroke
0 1298 1381 2501 2 MP stroke
107 0 1327 2501 2 MP stroke
107 0 1327 3799 2 MP stroke
0 1185 1434 2687 2 MP stroke
107 0 1381 2687 2 MP stroke
107 0 1381 3872 2 MP stroke
0 1070 1488 2881 2 MP stroke
107 0 1434 2881 2 MP stroke
107 0 1434 3951 2 MP stroke
0 993 1541 3005 2 MP stroke
107 0 1488 3005 2 MP stroke
107 0 1488 3998 2 MP stroke
0 919 1595 3123 2 MP stroke
107 0 1541 3123 2 MP stroke
107 0 1541 4042 2 MP stroke
0 881 1648 3244 2 MP stroke
107 0 1595 3244 2 MP stroke
107 0 1595 4125 2 MP stroke
0 826 1702 3334 2 MP stroke
107 0 1648 3334 2 MP stroke
107 0 1648 4160 2 MP stroke
0 764 1755 3447 2 MP stroke
107 0 1702 3447 2 MP stroke
107 0 1702 4211 2 MP stroke
0 719 1809 3511 2 MP stroke
108 0 1755 3511 2 MP stroke
108 0 1755 4230 2 MP stroke
0 666 1863 3597 2 MP stroke
107 0 1809 3597 2 MP stroke
107 0 1809 4263 2 MP stroke
0 625 1916 3672 2 MP stroke
107 0 1863 3672 2 MP stroke
107 0 1863 4297 2 MP stroke
0 582 1970 3746 2 MP stroke
107 0 1916 3746 2 MP stroke
107 0 1916 4328 2 MP stroke
0 525 2023 3814 2 MP stroke
107 0 1970 3814 2 MP stroke
107 0 1970 4339 2 MP stroke
0 539 2077 3849 2 MP stroke
107 0 2023 3849 2 MP stroke
107 0 2023 4388 2 MP stroke
0 519 2130 3883 2 MP stroke
107 0 2077 3883 2 MP stroke
107 0 2077 4402 2 MP stroke
0 467 2184 3946 2 MP stroke
108 0 2130 3946 2 MP stroke
108 0 2130 4413 2 MP stroke
0 438 2238 3987 2 MP stroke
107 0 2184 3987 2 MP stroke
107 0 2184 4425 2 MP stroke
0 423 2291 4036 2 MP stroke
107 0 2238 4036 2 MP stroke
107 0 2238 4459 2 MP stroke
0 383 2345 4071 2 MP stroke
107 0 2291 4071 2 MP stroke
107 0 2291 4454 2 MP stroke
0 374 2398 4105 2 MP stroke
107 0 2345 4105 2 MP stroke
107 0 2345 4479 2 MP stroke
0 367 2452 4128 2 MP stroke
107 0 2398 4128 2 MP stroke
107 0 2398 4495 2 MP stroke
0 349 2505 4162 2 MP stroke
107 0 2452 4162 2 MP stroke
107 0 2452 4511 2 MP stroke
0 315 2559 4203 2 MP stroke
107 0 2505 4203 2 MP stroke
107 0 2505 4518 2 MP stroke
0 304 2612 4220 2 MP stroke
107 0 2559 4220 2 MP stroke
107 0 2559 4524 2 MP stroke
0 274 2666 4265 2 MP stroke
108 0 2612 4265 2 MP stroke
108 0 2612 4539 2 MP stroke
0 258 2720 4286 2 MP stroke
107 0 2666 4286 2 MP stroke
107 0 2666 4544 2 MP stroke
0 229 2773 4313 2 MP stroke
107 0 2720 4313 2 MP stroke
107 0 2720 4542 2 MP stroke
0 215 2827 4329 2 MP stroke
107 0 2773 4329 2 MP stroke
107 0 2773 4544 2 MP stroke
0 229 2880 4327 2 MP stroke
107 0 2827 4327 2 MP stroke
107 0 2827 4556 2 MP stroke
0 215 2934 4337 2 MP stroke
107 0 2880 4337 2 MP stroke
107 0 2880 4552 2 MP stroke
0 200 2987 4365 2 MP stroke
107 0 2934 4365 2 MP stroke
107 0 2934 4565 2 MP stroke
0 204 3041 4361 2 MP stroke
107 0 2987 4361 2 MP stroke
107 0 2987 4565 2 MP stroke
0 207 3094 4354 2 MP stroke
107 0 3041 4354 2 MP stroke
107 0 3041 4561 2 MP stroke
0 171 3148 4386 2 MP stroke
108 0 3094 4386 2 MP stroke
108 0 3094 4557 2 MP stroke
0 155 3202 4408 2 MP stroke
107 0 3148 4408 2 MP stroke
107 0 3148 4563 2 MP stroke
0 139 3255 4430 2 MP stroke
107 0 3202 4430 2 MP stroke
107 0 3202 4569 2 MP stroke
0 157 3309 4418 2 MP stroke
107 0 3255 4418 2 MP stroke
107 0 3255 4575 2 MP stroke
0 141 3362 4435 2 MP stroke
107 0 3309 4435 2 MP stroke
107 0 3309 4576 2 MP stroke
0 135 3416 4444 2 MP stroke
107 0 3362 4444 2 MP stroke
107 0 3362 4579 2 MP stroke
0 138 3469 4447 2 MP stroke
107 0 3416 4447 2 MP stroke
107 0 3416 4585 2 MP stroke
0 139 3523 4448 2 MP stroke
108 0 3469 4448 2 MP stroke
108 0 3469 4587 2 MP stroke
0 132 3577 4461 2 MP stroke
107 0 3523 4461 2 MP stroke
107 0 3523 4593 2 MP stroke
0 130 3630 4467 2 MP stroke
107 0 3577 4467 2 MP stroke
107 0 3577 4597 2 MP stroke
0 123 3684 4470 2 MP stroke
107 0 3630 4470 2 MP stroke
107 0 3630 4593 2 MP stroke
0 118 3737 4476 2 MP stroke
107 0 3684 4476 2 MP stroke
107 0 3684 4594 2 MP stroke
0 119 3791 4485 2 MP stroke
107 0 3737 4485 2 MP stroke
107 0 3737 4604 2 MP stroke
0 111 3844 4483 2 MP stroke
107 0 3791 4483 2 MP stroke
107 0 3791 4594 2 MP stroke
0 103 3898 4490 2 MP stroke
107 0 3844 4490 2 MP stroke
107 0 3844 4593 2 MP stroke
0 106 3951 4496 2 MP stroke
107 0 3898 4496 2 MP stroke
107 0 3898 4602 2 MP stroke
0 99 4005 4505 2 MP stroke
108 0 3951 4505 2 MP stroke
108 0 3951 4604 2 MP stroke
0 92 4059 4512 2 MP stroke
107 0 4005 4512 2 MP stroke
107 0 4005 4604 2 MP stroke
0 95 4112 4510 2 MP stroke
107 0 4059 4510 2 MP stroke
107 0 4059 4605 2 MP stroke
0 96 4166 4509 2 MP stroke
107 0 4112 4509 2 MP stroke
107 0 4112 4605 2 MP stroke
0 94 4219 4512 2 MP stroke
107 0 4166 4512 2 MP stroke
107 0 4166 4606 2 MP stroke
0 122 4273 4485 2 MP stroke
107 0 4219 4485 2 MP stroke
107 0 4219 4607 2 MP stroke
0 120 4326 4489 2 MP stroke
107 0 4273 4489 2 MP stroke
107 0 4273 4609 2 MP stroke
0 102 4380 4499 2 MP stroke
107 0 4326 4499 2 MP stroke
107 0 4326 4601 2 MP stroke
0 111 4433 4489 2 MP stroke
107 0 4380 4489 2 MP stroke
107 0 4380 4600 2 MP stroke
0 111 4487 4492 2 MP stroke
108 0 4433 4492 2 MP stroke
108 0 4433 4603 2 MP stroke
0 101 4541 4502 2 MP stroke
107 0 4487 4502 2 MP stroke
107 0 4487 4603 2 MP stroke
0 87 4594 4520 2 MP stroke
107 0 4541 4520 2 MP stroke
107 0 4541 4607 2 MP stroke
0 87 4648 4524 2 MP stroke
107 0 4594 4524 2 MP stroke
107 0 4594 4611 2 MP stroke
0 85 4701 4522 2 MP stroke
107 0 4648 4522 2 MP stroke
107 0 4648 4607 2 MP stroke
0 90 4755 4520 2 MP stroke
107 0 4701 4520 2 MP stroke
107 0 4701 4610 2 MP stroke
0 97 4808 4513 2 MP stroke
107 0 4755 4513 2 MP stroke
107 0 4755 4610 2 MP stroke
0 102 4862 4514 2 MP stroke
108 0 4808 4514 2 MP stroke
0 91 4916 4522 2 MP stroke
107 0 4862 4522 2 MP stroke
107 0 4862 4613 2 MP stroke
0 119 4969 4497 2 MP stroke
107 0 4916 4497 2 MP stroke
0 123 5023 4493 2 MP stroke
107 0 4969 4493 2 MP stroke
0 131 5076 4485 2 MP stroke
107 0 5023 4485 2 MP stroke
0 121 5130 4495 2 MP stroke
107 0 5076 4495 2 MP stroke
0 98 5183 4515 2 MP stroke
107 0 5130 4515 2 MP stroke
107 0 5130 4613 2 MP stroke
0 107 5237 4509 2 MP stroke
107 0 5183 4509 2 MP stroke
0 108 5290 4508 2 MP stroke
107 0 5237 4508 2 MP stroke
0 93 5344 4522 2 MP stroke
108 0 5290 4522 2 MP stroke
108 0 5290 4615 2 MP stroke
0 90 5398 4524 2 MP stroke
107 0 5344 4524 2 MP stroke
107 0 5344 4614 2 MP stroke
0 96 5451 4519 2 MP stroke
107 0 5398 4519 2 MP stroke
107 0 5398 4615 2 MP stroke
0 85 5505 4525 2 MP stroke
107 0 5451 4525 2 MP stroke
107 0 5451 4610 2 MP stroke
0 82 5558 4526 2 MP stroke
107 0 5505 4526 2 MP stroke
107 0 5505 4608 2 MP stroke
0 71 5612 4532 2 MP stroke
107 0 5558 4532 2 MP stroke
107 0 5558 4603 2 MP stroke
0 61 5665 4543 2 MP stroke
107 0 5612 4543 2 MP stroke
107 0 5612 4604 2 MP stroke
0 64 5719 4549 2 MP stroke
107 0 5665 4549 2 MP stroke
107 0 5665 4613 2 MP stroke
0 62 5772 4548 2 MP stroke
107 0 5719 4548 2 MP stroke
107 0 5719 4610 2 MP stroke
0 60 5826 4548 2 MP stroke
108 0 5772 4548 2 MP stroke
108 0 5772 4608 2 MP stroke
0 63 5880 4551 2 MP stroke
107 0 5826 4551 2 MP stroke
107 0 5826 4614 2 MP stroke
0 61 5933 4555 2 MP stroke
107 0 5880 4555 2 MP stroke
0 69 5987 4547 2 MP stroke
107 0 5933 4547 2 MP stroke
0 71 6040 4545 2 MP stroke
107 0 5987 4545 2 MP stroke
0 75 6094 4541 2 MP stroke
107 0 6040 4541 2 MP stroke
0 66 6147 4549 2 MP stroke
107 0 6094 4549 2 MP stroke
107 0 6094 4615 2 MP stroke
0 60 6201 4552 2 MP stroke
108 0 6147 4552 2 MP stroke
108 0 6147 4612 2 MP stroke
0 64 6255 4552 2 MP stroke
55 0 6201 4552 2 MP stroke
54 2 54 0 53 0 54 1 53 -3 54 -2 53 3 54 5 
54 -1 53 -2 54 8 53 5 54 1 53 0 54 0 53 -2 
54 0 54 4 53 0 54 1 53 7 54 5 53 -5 54 -3 
53 -8 54 3 54 4 53 -4 54 1 53 -4 54 5 53 11 
54 5 54 3 53 -6 54 1 53 3 54 -13 53 2 54 -1 
53 0 54 4 54 5 53 7 54 4 53 -6 54 9 53 3 
54 0 53 5 54 9 54 2 53 5 54 5 53 9 54 -3 
53 14 54 15 54 14 53 -6 54 -2 53 20 54 3 53 6 
54 9 53 12 54 13 54 30 53 12 54 24 53 24 54 20 
53 30 54 15 53 41 54 26 54 37 53 25 54 42 53 39 
54 52 53 55 54 59 54 42 53 82 54 63 53 101 54 82 
53 85 54 137 53 129 54 138 54 164 53 171 54 184 53 212 
54 244 53 257 54 324 53 987 899 469 101 MP stroke
gr

c8
  36   36  899  469 FO
  36   36  952 1456 FO
  36   36 1006 1780 FO
  36   36 1059 2037 FO
  36   36 1113 2281 FO
  36   36 1166 2493 FO
  36   36 1220 2677 FO
  36   36 1273 2848 FO
  36   36 1327 3012 FO
  36   36 1381 3150 FO
  36   36 1434 3279 FO
  36   36 1488 3416 FO
  36   36 1541 3501 FO
  36   36 1595 3583 FO
  36   36 1648 3684 FO
  36   36 1702 3747 FO
  36   36 1755 3829 FO
  36   36 1809 3871 FO
  36   36 1863 3930 FO
  36   36 1916 3985 FO
  36   36 1970 4037 FO
  36   36 2023 4076 FO
  36   36 2077 4118 FO
  36   36 2130 4143 FO
  36   36 2184 4180 FO
  36   36 2238 4206 FO
  36   36 2291 4247 FO
  36   36 2345 4262 FO
  36   36 2398 4292 FO
  36   36 2452 4312 FO
  36   36 2505 4336 FO
  36   36 2559 4360 FO
  36   36 2612 4372 FO
  36   36 2666 4402 FO
  36   36 2720 4415 FO
  36   36 2773 4427 FO
  36   36 2827 4436 FO
  36   36 2880 4442 FO
  36   36 2934 4445 FO
  36   36 2987 4465 FO
  36   36 3041 4463 FO
  36   36 3094 4457 FO
  36   36 3148 4471 FO
  36   36 3202 4486 FO
  36   36 3255 4500 FO
  36   36 3309 4497 FO
  36   36 3362 4506 FO
  36   36 3416 4511 FO
  36   36 3469 4516 FO
  36   36 3523 4518 FO
  36   36 3577 4527 FO
  36   36 3630 4532 FO
  36   36 3684 4532 FO
  36   36 3737 4535 FO
  36   36 3791 4544 FO
  36   36 3844 4538 FO
  36   36 3898 4542 FO
  36   36 3951 4549 FO
  36   36 4005 4554 FO
  36   36 4059 4558 FO
  36   36 4112 4558 FO
  36   36 4166 4557 FO
  36   36 4219 4559 FO
  36   36 4273 4546 FO
  36   36 4326 4549 FO
  36   36 4380 4550 FO
  36   36 4433 4544 FO
  36   36 4487 4547 FO
  36   36 4541 4552 FO
  36   36 4594 4563 FO
  36   36 4648 4568 FO
  36   36 4701 4564 FO
  36   36 4755 4565 FO
  36   36 4808 4561 FO
  36   36 4862 4565 FO
  36   36 4916 4568 FO
  36   36 4969 4560 FO
  36   36 5023 4557 FO
  36   36 5076 4552 FO
  36   36 5130 4557 FO
  36   36 5183 4564 FO
  36   36 5237 4565 FO
  36   36 5290 4565 FO
  36   36 5344 4569 FO
  36   36 5398 4569 FO
  36   36 5451 4567 FO
  36   36 5505 4567 FO
  36   36 5558 4567 FO
  36   36 5612 4568 FO
  36   36 5665 4573 FO
  36   36 5719 4581 FO
  36   36 5772 4579 FO
  36   36 5826 4578 FO
  36   36 5880 4583 FO
  36   36 5933 4586 FO
  36   36 5987 4584 FO
  36   36 6040 4581 FO
  36   36 6094 4582 FO
  36   36 6147 4582 FO
  36   36 6201 4582 FO
  36   36 6255 4584 FO
gs 899 469 5357 4147 rc
/c9 { 0.000000 0.500000 0.000000 sr} bdef
c9
899 469 PD
53 0 899 469 2 MP stroke
53 0 899 469 2 MP stroke
0 1099 952 469 2 MP stroke
107 0 899 1568 2 MP stroke
0 1107 1006 469 2 MP stroke
107 0 952 1576 2 MP stroke
0 1116 1059 469 2 MP stroke
107 0 1006 1585 2 MP stroke
0 1122 1113 469 2 MP stroke
107 0 1059 1591 2 MP stroke
0 1146 1166 469 2 MP stroke
107 0 1113 1615 2 MP stroke
0 1150 1220 469 2 MP stroke
107 0 1166 1619 2 MP stroke
0 1147 1273 469 2 MP stroke
107 0 1220 1616 2 MP stroke
0 1153 1327 469 2 MP stroke
108 0 1273 1622 2 MP stroke
0 1151 1381 469 2 MP stroke
107 0 1327 1620 2 MP stroke
0 1166 1434 469 2 MP stroke
107 0 1381 1635 2 MP stroke
0 1185 1488 469 2 MP stroke
107 0 1434 1654 2 MP stroke
0 1214 1541 469 2 MP stroke
107 0 1488 1683 2 MP stroke
0 1241 1595 469 2 MP stroke
107 0 1541 1710 2 MP stroke
0 1249 1648 469 2 MP stroke
107 0 1595 1718 2 MP stroke
0 1272 1702 468 2 MP stroke
107 0 1648 1740 2 MP stroke
0 1288 1755 469 2 MP stroke
107 0 1702 1757 2 MP stroke
0 1309 1809 469 2 MP stroke
108 0 1755 1778 2 MP stroke
0 1317 1863 468 2 MP stroke
107 0 1809 1785 2 MP stroke
0 1328 1916 469 2 MP stroke
107 0 1863 1797 2 MP stroke
0 1349 1970 469 2 MP stroke
107 0 1916 1818 2 MP stroke
0 1394 2023 469 2 MP stroke
107 0 1970 1863 2 MP stroke
0 1402 2077 469 2 MP stroke
107 0 2023 1871 2 MP stroke
0 1430 2130 469 2 MP stroke
107 0 2077 1899 2 MP stroke
0 1442 2184 469 2 MP stroke
108 0 2130 1911 2 MP stroke
0 1460 2238 469 2 MP stroke
107 0 2184 1929 2 MP stroke
0 1478 2291 469 2 MP stroke
107 0 2238 1947 2 MP stroke
0 1514 2345 469 2 MP stroke
107 0 2291 1983 2 MP stroke
0 1527 2398 469 2 MP stroke
107 0 2345 1996 2 MP stroke
0 1535 2452 469 2 MP stroke
107 0 2398 2004 2 MP stroke
0 1555 2505 469 2 MP stroke
107 0 2452 2024 2 MP stroke
0 1560 2559 469 2 MP stroke
107 0 2505 2029 2 MP stroke
0 1577 2612 469 2 MP stroke
107 0 2559 2046 2 MP stroke
0 1582 2666 469 2 MP stroke
108 0 2612 2051 2 MP stroke
0 1606 2720 469 2 MP stroke
107 0 2666 2075 2 MP stroke
0 1624 2773 469 2 MP stroke
107 0 2720 2093 2 MP stroke
0 1650 2827 469 2 MP stroke
107 0 2773 2119 2 MP stroke
0 1655 2880 469 2 MP stroke
107 0 2827 2124 2 MP stroke
0 1665 2934 469 2 MP stroke
107 0 2880 2134 2 MP stroke
0 1679 2987 469 2 MP stroke
107 0 2934 2148 2 MP stroke
0 1702 3041 469 2 MP stroke
107 0 2987 2171 2 MP stroke
0 1726 3094 469 2 MP stroke
107 0 3041 2195 2 MP stroke
0 1741 3148 469 2 MP stroke
108 0 3094 2210 2 MP stroke
0 1748 3202 469 2 MP stroke
107 0 3148 2217 2 MP stroke
0 1755 3255 469 2 MP stroke
107 0 3202 2224 2 MP stroke
0 1787 3309 469 2 MP stroke
107 0 3255 2256 2 MP stroke
0 1803 3362 469 2 MP stroke
107 0 3309 2272 2 MP stroke
0 1811 3416 472 2 MP stroke
107 0 3362 472 2 MP stroke
107 0 3362 2283 2 MP stroke
0 1795 3469 485 2 MP stroke
107 0 3416 485 2 MP stroke
107 0 3416 2280 2 MP stroke
0 1788 3523 498 2 MP stroke
108 0 3469 498 2 MP stroke
108 0 3469 2286 2 MP stroke
0 1770 3577 523 2 MP stroke
107 0 3523 523 2 MP stroke
107 0 3523 2293 2 MP stroke
0 1761 3630 538 2 MP stroke
107 0 3577 538 2 MP stroke
107 0 3577 2299 2 MP stroke
0 1761 3684 542 2 MP stroke
107 0 3630 542 2 MP stroke
107 0 3630 2303 2 MP stroke
0 1761 3737 542 2 MP stroke
107 0 3684 542 2 MP stroke
107 0 3684 2303 2 MP stroke
0 1773 3791 542 2 MP stroke
107 0 3737 542 2 MP stroke
107 0 3737 2315 2 MP stroke
0 1802 3844 550 2 MP stroke
107 0 3791 550 2 MP stroke
107 0 3791 2352 2 MP stroke
0 1795 3898 563 2 MP stroke
107 0 3844 563 2 MP stroke
107 0 3844 2358 2 MP stroke
0 1789 3951 576 2 MP stroke
107 0 3898 576 2 MP stroke
107 0 3898 2365 2 MP stroke
0 1802 4005 587 2 MP stroke
108 0 3951 587 2 MP stroke
108 0 3951 2389 2 MP stroke
0 1806 4059 597 2 MP stroke
107 0 4005 597 2 MP stroke
107 0 4005 2403 2 MP stroke
0 1801 4112 609 2 MP stroke
107 0 4059 609 2 MP stroke
107 0 4059 2410 2 MP stroke
0 1804 4166 613 2 MP stroke
107 0 4112 613 2 MP stroke
107 0 4112 2417 2 MP stroke
0 1804 4219 617 2 MP stroke
107 0 4166 617 2 MP stroke
107 0 4166 2421 2 MP stroke
0 1777 4273 668 2 MP stroke
107 0 4219 668 2 MP stroke
107 0 4219 2445 2 MP stroke
0 1791 4326 675 2 MP stroke
107 0 4273 675 2 MP stroke
107 0 4273 2466 2 MP stroke
0 1778 4380 714 2 MP stroke
107 0 4326 714 2 MP stroke
107 0 4326 2492 2 MP stroke
0 1756 4433 746 2 MP stroke
107 0 4380 746 2 MP stroke
107 0 4380 2502 2 MP stroke
0 1749 4487 753 2 MP stroke
108 0 4433 753 2 MP stroke
108 0 4433 2502 2 MP stroke
0 1752 4541 765 2 MP stroke
107 0 4487 765 2 MP stroke
107 0 4487 2517 2 MP stroke
0 1750 4594 772 2 MP stroke
107 0 4541 772 2 MP stroke
107 0 4541 2522 2 MP stroke
0 1754 4648 778 2 MP stroke
107 0 4594 778 2 MP stroke
107 0 4594 2532 2 MP stroke
0 1758 4701 797 2 MP stroke
107 0 4648 797 2 MP stroke
107 0 4648 2555 2 MP stroke
0 1766 4755 815 2 MP stroke
107 0 4701 815 2 MP stroke
107 0 4701 2581 2 MP stroke
0 1778 4808 832 2 MP stroke
107 0 4755 832 2 MP stroke
107 0 4755 2610 2 MP stroke
0 1805 4862 831 2 MP stroke
108 0 4808 831 2 MP stroke
108 0 4808 2636 2 MP stroke
0 1815 4916 832 2 MP stroke
107 0 4862 832 2 MP stroke
107 0 4862 2647 2 MP stroke
0 1830 4969 853 2 MP stroke
107 0 4916 853 2 MP stroke
107 0 4916 2683 2 MP stroke
0 1870 5023 854 2 MP stroke
107 0 4969 854 2 MP stroke
107 0 4969 2724 2 MP stroke
0 1858 5076 881 2 MP stroke
107 0 5023 881 2 MP stroke
107 0 5023 2739 2 MP stroke
0 1854 5130 893 2 MP stroke
107 0 5076 893 2 MP stroke
107 0 5076 2747 2 MP stroke
0 1848 5183 904 2 MP stroke
107 0 5130 904 2 MP stroke
107 0 5130 2752 2 MP stroke
0 1850 5237 917 2 MP stroke
107 0 5183 917 2 MP stroke
107 0 5183 2767 2 MP stroke
0 1827 5290 943 2 MP stroke
107 0 5237 943 2 MP stroke
107 0 5237 2770 2 MP stroke
0 1836 5344 953 2 MP stroke
108 0 5290 953 2 MP stroke
108 0 5290 2789 2 MP stroke
0 1829 5398 969 2 MP stroke
107 0 5344 969 2 MP stroke
107 0 5344 2798 2 MP stroke
0 1816 5451 985 2 MP stroke
107 0 5398 985 2 MP stroke
107 0 5398 2801 2 MP stroke
0 1818 5505 994 2 MP stroke
107 0 5451 994 2 MP stroke
107 0 5451 2812 2 MP stroke
0 1820 5558 1012 2 MP stroke
107 0 5505 1012 2 MP stroke
107 0 5505 2832 2 MP stroke
0 1809 5612 1034 2 MP stroke
107 0 5558 1034 2 MP stroke
107 0 5558 2843 2 MP stroke
0 1821 5665 1032 2 MP stroke
107 0 5612 1032 2 MP stroke
107 0 5612 2853 2 MP stroke
0 1817 5719 1039 2 MP stroke
107 0 5665 1039 2 MP stroke
107 0 5665 2856 2 MP stroke
0 1815 5772 1044 2 MP stroke
107 0 5719 1044 2 MP stroke
107 0 5719 2859 2 MP stroke
0 1822 5826 1048 2 MP stroke
108 0 5772 1048 2 MP stroke
108 0 5772 2870 2 MP stroke
0 1815 5880 1055 2 MP stroke
107 0 5826 1055 2 MP stroke
107 0 5826 2870 2 MP stroke
0 1812 5933 1062 2 MP stroke
107 0 5880 1062 2 MP stroke
107 0 5880 2874 2 MP stroke
0 1821 5987 1074 2 MP stroke
107 0 5933 1074 2 MP stroke
107 0 5933 2895 2 MP stroke
0 1824 6040 1088 2 MP stroke
107 0 5987 1088 2 MP stroke
107 0 5987 2912 2 MP stroke
0 1813 6094 1103 2 MP stroke
107 0 6040 1103 2 MP stroke
107 0 6040 2916 2 MP stroke
0 1788 6147 1133 2 MP stroke
107 0 6094 1133 2 MP stroke
107 0 6094 2921 2 MP stroke
0 1790 6201 1146 2 MP stroke
108 0 6147 1146 2 MP stroke
108 0 6147 2936 2 MP stroke
0 1804 6255 1146 2 MP stroke
55 0 6201 1146 2 MP stroke
55 0 6201 2950 2 MP stroke
54 7 54 14 53 17 54 10 53 15 54 17 53 5 54 4 
54 7 53 5 54 4 53 4 54 17 53 19 54 10 53 9 
54 13 54 15 53 14 54 14 53 8 54 10 53 21 54 21 
53 29 54 6 54 12 53 23 54 22 53 21 54 8 53 6 
54 14 54 3 53 21 54 33 53 13 54 38 53 4 54 5 
53 10 54 12 54 18 53 10 54 9 53 23 54 5 53 0 
54 5 53 10 54 16 54 9 53 5 54 10 53 8 54 22 
53 7 54 16 54 16 53 33 54 21 53 12 54 10 53 6 
54 17 53 19 54 18 54 3 53 17 54 8 53 20 54 12 
53 16 54 38 53 17 54 21 54 2 53 28 54 10 53 41 
54 15 53 9 54 6 54 33 53 16 54 26 53 5 54 32 
53 27 54 25 53 16 54 -4 54 9 53 -4 54 9 53 33 
54 6 53 8 54 4 53 190 899 469 101 MP stroke
gr

c9
  36   36  899  469 FO
  36   36  952  659 FO
  36   36 1006  663 FO
  36   36 1059  671 FO
  36   36 1113  677 FO
  36   36 1166  710 FO
  36   36 1220  719 FO
  36   36 1273  715 FO
  36   36 1327  724 FO
  36   36 1381  720 FO
  36   36 1434  736 FO
  36   36 1488  761 FO
  36   36 1541  788 FO
  36   36 1595  820 FO
  36   36 1648  825 FO
  36   36 1702  851 FO
  36   36 1755  867 FO
  36   36 1809  900 FO
  36   36 1863  906 FO
  36   36 1916  915 FO
  36   36 1970  930 FO
  36   36 2023  971 FO
  36   36 2077  981 FO
  36   36 2130 1009 FO
  36   36 2184 1011 FO
  36   36 2238 1032 FO
  36   36 2291 1049 FO
  36   36 2345 1087 FO
  36   36 2398 1103 FO
  36   36 2452 1115 FO
  36   36 2505 1135 FO
  36   36 2559 1143 FO
  36   36 2612 1160 FO
  36   36 2666 1163 FO
  36   36 2720 1181 FO
  36   36 2773 1200 FO
  36   36 2827 1217 FO
  36   36 2880 1223 FO
  36   36 2934 1233 FO
  36   36 2987 1245 FO
  36   36 3041 1266 FO
  36   36 3094 1299 FO
  36   36 3148 1315 FO
  36   36 3202 1331 FO
  36   36 3255 1338 FO
  36   36 3309 1360 FO
  36   36 3362 1368 FO
  36   36 3416 1378 FO
  36   36 3469 1383 FO
  36   36 3523 1392 FO
  36   36 3577 1408 FO
  36   36 3630 1418 FO
  36   36 3684 1423 FO
  36   36 3737 1423 FO
  36   36 3791 1428 FO
  36   36 3844 1451 FO
  36   36 3898 1460 FO
  36   36 3951 1470 FO
  36   36 4005 1488 FO
  36   36 4059 1500 FO
  36   36 4112 1510 FO
  36   36 4166 1515 FO
  36   36 4219 1519 FO
  36   36 4273 1557 FO
  36   36 4326 1570 FO
  36   36 4380 1603 FO
  36   36 4433 1624 FO
  36   36 4487 1627 FO
  36   36 4541 1641 FO
  36   36 4594 1647 FO
  36   36 4648 1655 FO
  36   36 4701 1676 FO
  36   36 4755 1698 FO
  36   36 4808 1721 FO
  36   36 4862 1733 FO
  36   36 4916 1739 FO
  36   36 4969 1768 FO
  36   36 5023 1789 FO
  36   36 5076 1810 FO
  36   36 5130 1820 FO
  36   36 5183 1828 FO
  36   36 5237 1842 FO
  36   36 5290 1856 FO
  36   36 5344 1871 FO
  36   36 5398 1884 FO
  36   36 5451 1893 FO
  36   36 5505 1903 FO
  36   36 5558 1922 FO
  36   36 5612 1939 FO
  36   36 5665 1943 FO
  36   36 5719 1947 FO
  36   36 5772 1952 FO
  36   36 5826 1959 FO
  36   36 5880 1963 FO
  36   36 5933 1968 FO
  36   36 5987 1985 FO
  36   36 6040 2000 FO
  36   36 6094 2010 FO
  36   36 6147 2027 FO
  36   36 6201 2041 FO
  36   36 6255 2048 FO
gs 899 469 5357 4147 rc
gr

0 sg
%%IncludeResource: font Helvetica
/Helvetica /ISOLatin1Encoding 168 FMSR

2407  156 mt 
(Nup49-GFP in Early Anaphase) s
%%IncludeResource: font Helvetica
/Helvetica /ISOLatin1Encoding 144 FMSR

2329  293 mt 
(n) s
%%IncludeResource: font Helvetica
/Helvetica /ISOLatin1Encoding 108 FMSR

2409  377 mt 
(cells) s
%%IncludeResource: font Helvetica
/Helvetica /ISOLatin1Encoding 144 FMSR

2625  293 mt 
( = 21    -    Permeability = 0.00022) s
3314 4921 mt 
(Time \(s\)) s
 577 3058 mt  -90 rotate
(% Fluorescence) s
90 rotate
%%IncludeResource: font Helvetica
/Helvetica /ISOLatin1Encoding 120 FMSR

 882 4658 mt 
( ) s
6239  511 mt 
( ) s
5656  664 mt 
(mother) s
gs 5217 529 980 335 rc
c8
338 0 5284 621 2 MP stroke
gs 5380 548 147 147 rc
  36   36 5453  621 FO
gr

gr

c8
0 sg
5656  813 mt 
(daughter) s
gs 5217 529 980 335 rc
c9
338 0 5284 770 2 MP stroke
gs 5380 697 147 147 rc
  36   36 5453  770 FO
gr

gr

c9

end %%Color Dict

eplot
%%EndObject

epage
end

showpage

%%Trailer
%%EOF
