%!PS-Adobe-3.0 EPSF-3.0
%%Creator: MATLAB, The MathWorks, Inc. Version 8.1.0.604 (R2013a). Operating System: Darwin 11.4.2 Darwin Kernel Version 11.4.2: Thu Aug 23 16:25:48 PDT 2012; root:xnu-1699.32.7~1/RELEASE_X86_64 x86_64.
%%Title: ./EA_Nup49-volexc_yes.eps
%%CreationDate: 08/16/2013  10:29:41
%%DocumentNeededFonts: Helvetica
%%DocumentProcessColors: Cyan Magenta Yellow Black
%%LanguageLevel: 2
%%Pages: 1
%%BoundingBox:    52   197   551   616
%%EndComments

%%BeginProlog
% MathWorks dictionary
/MathWorks 160 dict begin
% definition operators
/bdef {bind def} bind def
/ldef {load def} bind def
/xdef {exch def} bdef
/xstore {exch store} bdef
% operator abbreviations
/c  /clip ldef
/cc /concat ldef
/cp /closepath ldef
/gr /grestore ldef
/gs /gsave ldef
/mt /moveto ldef
/np /newpath ldef
/cm /currentmatrix ldef
/sm /setmatrix ldef
/rm /rmoveto ldef
/rl /rlineto ldef
/s {show newpath} bdef
/sc {setcmykcolor} bdef
/sr /setrgbcolor ldef
/sg /setgray ldef
/w /setlinewidth ldef
/j /setlinejoin ldef
/cap /setlinecap ldef
/rc {rectclip} bdef
/rf {rectfill} bdef
% page state control
/pgsv () def
/bpage {/pgsv save def} bdef
/epage {pgsv restore} bdef
/bplot /gsave ldef
/eplot {stroke grestore} bdef
% orientation switch
/portraitMode 0 def /landscapeMode 1 def /rotateMode 2 def
% coordinate system mappings
/dpi2point 0 def
% font control
/FontSize 0 def
/FMS {/FontSize xstore findfont [FontSize 0 0 FontSize neg 0 0]
  makefont setfont} bdef
/reencode {exch dup where {pop load} {pop StandardEncoding} ifelse
  exch dup 3 1 roll findfont dup length dict begin
  { 1 index /FID ne {def}{pop pop} ifelse } forall
  /Encoding exch def currentdict end definefont pop} bdef
/isroman {findfont /CharStrings get /Agrave known} bdef
/FMSR {3 1 roll 1 index dup isroman {reencode} {pop pop} ifelse
  exch FMS} bdef
/csm {1 dpi2point div -1 dpi2point div scale neg translate
 dup landscapeMode eq {pop -90 rotate}
  {rotateMode eq {90 rotate} if} ifelse} bdef
% line types: solid, dotted, dashed, dotdash
/SO { [] 0 setdash } bdef
/DO { [.5 dpi2point mul 4 dpi2point mul] 0 setdash } bdef
/DA { [6 dpi2point mul] 0 setdash } bdef
/DD { [.5 dpi2point mul 4 dpi2point mul 6 dpi2point mul 4
  dpi2point mul] 0 setdash } bdef
% macros for lines and objects
/L {lineto stroke} bdef
/MP {3 1 roll moveto 1 sub {rlineto} repeat} bdef
/AP {{rlineto} repeat} bdef
/PDlw -1 def
/W {/PDlw currentlinewidth def setlinewidth} def
/PP {closepath eofill} bdef
/DP {closepath stroke} bdef
/MR {4 -2 roll moveto dup  0 exch rlineto exch 0 rlineto
  neg 0 exch rlineto closepath} bdef
/FR {MR stroke} bdef
/PR {MR fill} bdef
/L1i {{currentfile picstr readhexstring pop} image} bdef
/tMatrix matrix def
/MakeOval {newpath tMatrix currentmatrix pop translate scale
0 0 1 0 360 arc tMatrix setmatrix} bdef
/FO {MakeOval stroke} bdef
/PO {MakeOval fill} bdef
/PD {currentlinewidth 2 div 0 360 arc fill
   PDlw -1 eq not {PDlw w /PDlw -1 def} if} def
/FA {newpath tMatrix currentmatrix pop translate scale
  0 0 1 5 -2 roll arc tMatrix setmatrix stroke} bdef
/PA {newpath tMatrix currentmatrix pop	translate 0 0 moveto scale
  0 0 1 5 -2 roll arc closepath tMatrix setmatrix fill} bdef
/FAn {newpath tMatrix currentmatrix pop translate scale
  0 0 1 5 -2 roll arcn tMatrix setmatrix stroke} bdef
/PAn {newpath tMatrix currentmatrix pop translate 0 0 moveto scale
  0 0 1 5 -2 roll arcn closepath tMatrix setmatrix fill} bdef
/vradius 0 def /hradius 0 def /lry 0 def
/lrx 0 def /uly 0 def /ulx 0 def /rad 0 def
/MRR {/vradius xdef /hradius xdef /lry xdef /lrx xdef /uly xdef
  /ulx xdef newpath tMatrix currentmatrix pop ulx hradius add uly
  vradius add translate hradius vradius scale 0 0 1 180 270 arc 
  tMatrix setmatrix lrx hradius sub uly vradius add translate
  hradius vradius scale 0 0 1 270 360 arc tMatrix setmatrix
  lrx hradius sub lry vradius sub translate hradius vradius scale
  0 0 1 0 90 arc tMatrix setmatrix ulx hradius add lry vradius sub
  translate hradius vradius scale 0 0 1 90 180 arc tMatrix setmatrix
  closepath} bdef
/FRR {MRR stroke } bdef
/PRR {MRR fill } bdef
/MlrRR {/lry xdef /lrx xdef /uly xdef /ulx xdef /rad lry uly sub 2 div def
  newpath tMatrix currentmatrix pop ulx rad add uly rad add translate
  rad rad scale 0 0 1 90 270 arc tMatrix setmatrix lrx rad sub lry rad
  sub translate rad rad scale 0 0 1 270 90 arc tMatrix setmatrix
  closepath} bdef
/FlrRR {MlrRR stroke } bdef
/PlrRR {MlrRR fill } bdef
/MtbRR {/lry xdef /lrx xdef /uly xdef /ulx xdef /rad lrx ulx sub 2 div def
  newpath tMatrix currentmatrix pop ulx rad add uly rad add translate
  rad rad scale 0 0 1 180 360 arc tMatrix setmatrix lrx rad sub lry rad
  sub translate rad rad scale 0 0 1 0 180 arc tMatrix setmatrix
  closepath} bdef
/FtbRR {MtbRR stroke } bdef
/PtbRR {MtbRR fill } bdef
/stri 6 array def /dtri 6 array def
/smat 6 array def /dmat 6 array def
/tmat1 6 array def /tmat2 6 array def /dif 3 array def
/asub {/ind2 exch def /ind1 exch def dup dup
  ind1 get exch ind2 get sub exch } bdef
/tri_to_matrix {
  2 0 asub 3 1 asub 4 0 asub 5 1 asub
  dup 0 get exch 1 get 7 -1 roll astore } bdef
/compute_transform {
  dmat dtri tri_to_matrix tmat1 invertmatrix 
  smat stri tri_to_matrix tmat2 concatmatrix } bdef
/ds {stri astore pop} bdef
/dt {dtri astore pop} bdef
/db {2 copy /cols xdef /rows xdef mul dup 3 mul string
  currentfile 
  3 index 0 eq {/ASCIIHexDecode filter}
  {/ASCII85Decode filter 3 index 2 eq {/RunLengthDecode filter} if }
  ifelse exch readstring pop
  dup 0 3 index getinterval /rbmap xdef
  dup 2 index dup getinterval /gbmap xdef
  1 index dup 2 mul exch getinterval /bbmap xdef pop pop}bdef
/it {gs np dtri aload pop moveto lineto lineto cp c
  cols rows 8 compute_transform 
  rbmap gbmap bbmap true 3 colorimage gr}bdef
/il {newpath moveto lineto stroke}bdef
currentdict end def
%%EndProlog

%%BeginSetup
MathWorks begin

0 cap

end
%%EndSetup

%%Page: 1 1
%%BeginPageSetup
%%PageBoundingBox:    52   197   551   616
MathWorks begin
bpage
%%EndPageSetup

%%BeginObject: obj1
bplot

/dpi2point 12 def
portraitMode 0216 7344 csm

  418   -48  5986  5026 rc
85 dict begin %Colortable dictionary
/c0 { 0.000000 0.000000 0.000000 sr} bdef
/c1 { 1.000000 1.000000 1.000000 sr} bdef
/c2 { 0.900000 0.000000 0.000000 sr} bdef
/c3 { 0.000000 0.820000 0.000000 sr} bdef
/c4 { 0.000000 0.000000 0.800000 sr} bdef
/c5 { 0.910000 0.820000 0.320000 sr} bdef
/c6 { 1.000000 0.260000 0.820000 sr} bdef
/c7 { 0.000000 0.820000 0.820000 sr} bdef
c0
1 j
1 sg
   0    0 6913 5186 rf
6 w
0 4146 5356 0 0 -4146 899 4615 4 MP
PP
-5356 0 0 4146 5356 0 0 -4146 899 4615 5 MP stroke
4 w
DO
SO
6 w
0 sg
 899 4615 mt 6255 4615 L
 899  469 mt 6255  469 L
 899 4615 mt  899  469 L
6255 4615 mt 6255  469 L
 899 4615 mt 6255 4615 L
 899 4615 mt  899  469 L
 899 4615 mt  899 4561 L
 899  469 mt  899  522 L
%%IncludeResource: font Helvetica
/Helvetica /ISOLatin1Encoding 120 FMSR

 866 4760 mt 
(0) s
1434 4615 mt 1434 4561 L
1434  469 mt 1434  522 L
1368 4760 mt 
(20) s
1970 4615 mt 1970 4561 L
1970  469 mt 1970  522 L
1904 4760 mt 
(40) s
2505 4615 mt 2505 4561 L
2505  469 mt 2505  522 L
2439 4760 mt 
(60) s
3041 4615 mt 3041 4561 L
3041  469 mt 3041  522 L
2975 4760 mt 
(80) s
3577 4615 mt 3577 4561 L
3577  469 mt 3577  522 L
3477 4760 mt 
(100) s
4112 4615 mt 4112 4561 L
4112  469 mt 4112  522 L
4012 4760 mt 
(120) s
4648 4615 mt 4648 4561 L
4648  469 mt 4648  522 L
4548 4760 mt 
(140) s
5183 4615 mt 5183 4561 L
5183  469 mt 5183  522 L
5083 4760 mt 
(160) s
5719 4615 mt 5719 4561 L
5719  469 mt 5719  522 L
5619 4760 mt 
(180) s
6255 4615 mt 6255 4561 L
6255  469 mt 6255  522 L
6155 4760 mt 
(200) s
 899 4615 mt  952 4615 L
6255 4615 mt 6201 4615 L
 798 4659 mt 
(0) s
 899 4200 mt  952 4200 L
6255 4200 mt 6201 4200 L
 731 4244 mt 
(10) s
 899 3785 mt  952 3785 L
6255 3785 mt 6201 3785 L
 731 3829 mt 
(20) s
 899 3371 mt  952 3371 L
6255 3371 mt 6201 3371 L
 731 3415 mt 
(30) s
 899 2956 mt  952 2956 L
6255 2956 mt 6201 2956 L
 731 3000 mt 
(40) s
 899 2542 mt  952 2542 L
6255 2542 mt 6201 2542 L
 731 2586 mt 
(50) s
 899 2127 mt  952 2127 L
6255 2127 mt 6201 2127 L
 731 2171 mt 
(60) s
 899 1712 mt  952 1712 L
6255 1712 mt 6201 1712 L
 731 1756 mt 
(70) s
 899 1298 mt  952 1298 L
6255 1298 mt 6201 1298 L
 731 1342 mt 
(80) s
 899  883 mt  952  883 L
6255  883 mt 6201  883 L
 731  927 mt 
(90) s
 899  469 mt  952  469 L
6255  469 mt 6201  469 L
 664  513 mt 
(100) s
 899 4615 mt 6255 4615 L
 899  469 mt 6255  469 L
 899 4615 mt  899  469 L
6255 4615 mt 6255  469 L
gs 899 469 5357 4147 rc
899 469 PD
66 0 899 469 2 MP stroke
66 0 899 469 2 MP stroke
0 763 985 1738 2 MP stroke
132 0 919 1738 2 MP stroke
132 0 919 2501 2 MP stroke
0 912 1068 1929 2 MP stroke
132 0 1002 1929 2 MP stroke
132 0 1002 2841 2 MP stroke
0 915 1152 2160 2 MP stroke
132 0 1086 2160 2 MP stroke
132 0 1086 3075 2 MP stroke
0 1027 1234 2299 2 MP stroke
133 0 1167 2299 2 MP stroke
133 0 1167 3326 2 MP stroke
0 965 1319 2538 2 MP stroke
133 0 1252 2538 2 MP stroke
133 0 1252 3503 2 MP stroke
0 1099 1403 2531 2 MP stroke
133 0 1337 2531 2 MP stroke
133 0 1337 3630 2 MP stroke
0 858 1487 2758 2 MP stroke
132 0 1421 2758 2 MP stroke
132 0 1421 3616 2 MP stroke
0 831 1572 2931 2 MP stroke
132 0 1506 2931 2 MP stroke
132 0 1506 3762 2 MP stroke
0 895 1656 2929 2 MP stroke
133 0 1590 2929 2 MP stroke
133 0 1590 3824 2 MP stroke
0 840 1739 3013 2 MP stroke
132 0 1673 3013 2 MP stroke
132 0 1673 3853 2 MP stroke
0 883 1822 3087 2 MP stroke
133 0 1756 3087 2 MP stroke
133 0 1756 3970 2 MP stroke
0 856 1907 3223 2 MP stroke
132 0 1841 3223 2 MP stroke
132 0 1841 4079 2 MP stroke
0 803 1992 3292 2 MP stroke
133 0 1926 3292 2 MP stroke
133 0 1926 4095 2 MP stroke
0 894 2076 3303 2 MP stroke
132 0 2010 3303 2 MP stroke
132 0 2010 4197 2 MP stroke
0 806 2160 3420 2 MP stroke
132 0 2094 3420 2 MP stroke
132 0 2094 4226 2 MP stroke
0 793 2244 3405 2 MP stroke
132 0 2178 3405 2 MP stroke
132 0 2178 4198 2 MP stroke
0 696 2330 3543 2 MP stroke
133 0 2263 3543 2 MP stroke
133 0 2263 4239 2 MP stroke
0 765 2412 3543 2 MP stroke
132 0 2346 3543 2 MP stroke
132 0 2346 4308 2 MP stroke
0 698 2496 3645 2 MP stroke
132 0 2430 3645 2 MP stroke
132 0 2430 4343 2 MP stroke
0 703 2581 3615 2 MP stroke
133 0 2515 3615 2 MP stroke
133 0 2515 4318 2 MP stroke
0 590 2665 3762 2 MP stroke
133 0 2598 3762 2 MP stroke
133 0 2598 4352 2 MP stroke
0 576 2748 3819 2 MP stroke
133 0 2682 3819 2 MP stroke
133 0 2682 4395 2 MP stroke
0 511 2835 3873 2 MP stroke
132 0 2769 3873 2 MP stroke
132 0 2769 4384 2 MP stroke
0 543 2924 3869 2 MP stroke
133 0 2858 3869 2 MP stroke
133 0 2858 4412 2 MP stroke
0 496 3014 3961 2 MP stroke
133 0 2947 3961 2 MP stroke
133 0 2947 4457 2 MP stroke
0 491 3101 3978 2 MP stroke
132 0 3035 3978 2 MP stroke
132 0 3035 4469 2 MP stroke
0 446 3188 4011 2 MP stroke
133 0 3122 4011 2 MP stroke
133 0 3122 4457 2 MP stroke
0 472 3277 4035 2 MP stroke
132 0 3211 4035 2 MP stroke
132 0 3211 4507 2 MP stroke
0 399 3366 4061 2 MP stroke
133 0 3300 4061 2 MP stroke
133 0 3300 4460 2 MP stroke
0 423 3454 4078 2 MP stroke
132 0 3388 4078 2 MP stroke
132 0 3388 4501 2 MP stroke
0 423 3541 4124 2 MP stroke
132 0 3475 4124 2 MP stroke
132 0 3475 4547 2 MP stroke
0 400 3629 4086 2 MP stroke
133 0 3563 4086 2 MP stroke
133 0 3563 4486 2 MP stroke
0 427 3718 4122 2 MP stroke
133 0 3652 4122 2 MP stroke
133 0 3652 4549 2 MP stroke
0 423 3807 4135 2 MP stroke
133 0 3741 4135 2 MP stroke
133 0 3741 4558 2 MP stroke
0 442 3896 4124 2 MP stroke
133 0 3829 4124 2 MP stroke
133 0 3829 4566 2 MP stroke
0 448 3984 4118 2 MP stroke
132 0 3918 4118 2 MP stroke
132 0 3918 4566 2 MP stroke
0 367 4072 4205 2 MP stroke
133 0 4005 4205 2 MP stroke
133 0 4005 4572 2 MP stroke
0 355 4160 4222 2 MP stroke
132 0 4094 4222 2 MP stroke
132 0 4094 4577 2 MP stroke
0 466 4248 4150 2 MP stroke
133 0 4182 4150 2 MP stroke
0 411 4336 4196 2 MP stroke
133 0 4270 4196 2 MP stroke
133 0 4270 4607 2 MP stroke
0 389 4424 4227 2 MP stroke
133 0 4358 4227 2 MP stroke
0 329 4512 4258 2 MP stroke
132 0 4446 4258 2 MP stroke
132 0 4446 4587 2 MP stroke
0 322 4606 4294 2 MP stroke
132 0 4540 4294 2 MP stroke
0 307 4704 4309 2 MP stroke
133 0 4638 4309 2 MP stroke
0 252 4801 4364 2 MP stroke
133 0 4735 4364 2 MP stroke
0 235 4899 4381 2 MP stroke
132 0 4833 4381 2 MP stroke
0 267 4997 4349 2 MP stroke
132 0 4931 4349 2 MP stroke
0 245 5095 4371 2 MP stroke
133 0 5028 4371 2 MP stroke
0 248 5198 4368 2 MP stroke
132 0 5132 4368 2 MP stroke
0 236 5307 4380 2 MP stroke
132 0 5241 4380 2 MP stroke
0 222 5424 4394 2 MP stroke
132 0 5358 4394 2 MP stroke
0 196 5545 4420 2 MP stroke
133 0 5479 4420 2 MP stroke
0 241 5689 4375 2 MP stroke
133 0 5623 4375 2 MP stroke
0 194 5858 4422 2 MP stroke
133 0 5792 4422 2 MP stroke
0 176 6042 4440 2 MP stroke
133 0 5975 4440 2 MP stroke
0 183 6243 4433 2 MP stroke
80 0 6176 4433 2 MP stroke
13 0 201 -1 184 3 169 19 144 -5 121 23 117 0 109 4 
103 0 98 32 98 -31 98 15 97 26 98 17 94 48 88 -3 
88 24 88 18 88 -16 88 10 88 47 88 -3 89 -1 89 11 
89 49 88 -49 87 45 88 29 89 -10 89 37 87 11 87 14 
90 68 89 13 87 21 83 50 84 91 85 -28 84 68 82 35 
86 89 84 -21 84 73 84 56 85 43 85 122 83 96 83 57 
84 29 85 160 84 106 84 60 85 208 82 195 84 233 83 265 
86 1651 899 469 58 MP stroke
gr

 874  444 mt  924  494 L
 924  444 mt  874  494 L
 960 2095 mt 1010 2145 L
1010 2095 mt  960 2145 L
1043 2360 mt 1093 2410 L
1093 2360 mt 1043 2410 L
1127 2593 mt 1177 2643 L
1177 2593 mt 1127 2643 L
1209 2788 mt 1259 2838 L
1259 2788 mt 1209 2838 L
1294 2996 mt 1344 3046 L
1344 2996 mt 1294 3046 L
1378 3056 mt 1428 3106 L
1428 3056 mt 1378 3106 L
1462 3162 mt 1512 3212 L
1512 3162 mt 1462 3212 L
1547 3322 mt 1597 3372 L
1597 3322 mt 1547 3372 L
1631 3351 mt 1681 3401 L
1681 3351 mt 1631 3401 L
1714 3408 mt 1764 3458 L
1764 3408 mt 1714 3458 L
1797 3504 mt 1847 3554 L
1847 3504 mt 1797 3554 L
1882 3626 mt 1932 3676 L
1932 3626 mt 1882 3676 L
1967 3669 mt 2017 3719 L
2017 3669 mt 1967 3719 L
2051 3725 mt 2101 3775 L
2101 3725 mt 2051 3775 L
2135 3798 mt 2185 3848 L
2185 3798 mt 2135 3848 L
2219 3777 mt 2269 3827 L
2269 3777 mt 2219 3827 L
2305 3866 mt 2355 3916 L
2355 3866 mt 2305 3916 L
2387 3901 mt 2437 3951 L
2437 3901 mt 2387 3951 L
2471 3969 mt 2521 4019 L
2521 3969 mt 2471 4019 L
2556 3941 mt 2606 3991 L
2606 3941 mt 2556 3991 L
2640 4032 mt 2690 4082 L
2690 4032 mt 2640 4082 L
2723 4082 mt 2773 4132 L
2773 4082 mt 2723 4132 L
2810 4103 mt 2860 4153 L
2860 4103 mt 2810 4153 L
2899 4116 mt 2949 4166 L
2949 4116 mt 2899 4166 L
2989 4184 mt 3039 4234 L
3039 4184 mt 2989 4234 L
3076 4198 mt 3126 4248 L
3126 4198 mt 3076 4248 L
3163 4209 mt 3213 4259 L
3213 4209 mt 3163 4259 L
3252 4246 mt 3302 4296 L
3302 4246 mt 3252 4296 L
3341 4236 mt 3391 4286 L
3391 4236 mt 3341 4286 L
3429 4265 mt 3479 4315 L
3479 4265 mt 3429 4315 L
3516 4310 mt 3566 4360 L
3566 4310 mt 3516 4360 L
3604 4261 mt 3654 4311 L
3654 4261 mt 3604 4311 L
3693 4310 mt 3743 4360 L
3743 4310 mt 3693 4360 L
3782 4321 mt 3832 4371 L
3832 4321 mt 3782 4371 L
3871 4320 mt 3921 4370 L
3921 4320 mt 3871 4370 L
3959 4317 mt 4009 4367 L
4009 4317 mt 3959 4367 L
4047 4364 mt 4097 4414 L
4097 4364 mt 4047 4414 L
4135 4374 mt 4185 4424 L
4185 4374 mt 4135 4424 L
4223 4358 mt 4273 4408 L
4273 4358 mt 4223 4408 L
4311 4376 mt 4361 4426 L
4361 4376 mt 4311 4426 L
4399 4400 mt 4449 4450 L
4449 4400 mt 4399 4450 L
4487 4397 mt 4537 4447 L
4537 4397 mt 4487 4447 L
4581 4445 mt 4631 4495 L
4631 4445 mt 4581 4495 L
4679 4462 mt 4729 4512 L
4729 4462 mt 4679 4512 L
4776 4488 mt 4826 4538 L
4826 4488 mt 4776 4538 L
4874 4503 mt 4924 4553 L
4924 4503 mt 4874 4553 L
4972 4472 mt 5022 4522 L
5022 4472 mt 4972 4522 L
5070 4504 mt 5120 4554 L
5120 4504 mt 5070 4554 L
5173 4504 mt 5223 4554 L
5223 4504 mt 5173 4554 L
5282 4508 mt 5332 4558 L
5332 4508 mt 5282 4558 L
5399 4508 mt 5449 4558 L
5449 4508 mt 5399 4558 L
5520 4531 mt 5570 4581 L
5570 4531 mt 5520 4581 L
5664 4526 mt 5714 4576 L
5714 4526 mt 5664 4576 L
5833 4545 mt 5883 4595 L
5883 4545 mt 5833 4595 L
6017 4548 mt 6067 4598 L
6067 4548 mt 6017 4598 L
6218 4547 mt 6268 4597 L
6268 4547 mt 6218 4597 L
gs 899 469 5357 4147 rc
899 469 PD
66 0 899 469 2 MP stroke
66 0 899 469 2 MP stroke
0 690 985 469 2 MP stroke
132 0 919 1159 2 MP stroke
0 652 1068 482 2 MP stroke
132 0 1002 482 2 MP stroke
132 0 1002 1134 2 MP stroke
0 919 1152 469 2 MP stroke
132 0 1086 1388 2 MP stroke
0 884 1234 469 2 MP stroke
133 0 1167 1353 2 MP stroke
0 886 1319 469 2 MP stroke
133 0 1252 1355 2 MP stroke
0 900 1403 500 2 MP stroke
133 0 1337 500 2 MP stroke
133 0 1337 1400 2 MP stroke
0 871 1487 600 2 MP stroke
132 0 1421 600 2 MP stroke
132 0 1421 1471 2 MP stroke
0 897 1572 577 2 MP stroke
132 0 1506 577 2 MP stroke
132 0 1506 1474 2 MP stroke
0 934 1656 596 2 MP stroke
133 0 1590 596 2 MP stroke
133 0 1590 1530 2 MP stroke
0 974 1739 622 2 MP stroke
132 0 1673 622 2 MP stroke
132 0 1673 1596 2 MP stroke
0 1087 1822 542 2 MP stroke
133 0 1756 542 2 MP stroke
133 0 1756 1629 2 MP stroke
0 1135 1907 595 2 MP stroke
132 0 1841 595 2 MP stroke
132 0 1841 1730 2 MP stroke
0 1006 1992 608 2 MP stroke
133 0 1926 608 2 MP stroke
133 0 1926 1614 2 MP stroke
0 962 2076 602 2 MP stroke
132 0 2010 602 2 MP stroke
132 0 2010 1564 2 MP stroke
0 757 2160 798 2 MP stroke
132 0 2094 798 2 MP stroke
132 0 2094 1555 2 MP stroke
0 1033 2244 469 2 MP stroke
132 0 2178 1502 2 MP stroke
0 1233 2330 504 2 MP stroke
133 0 2263 504 2 MP stroke
133 0 2263 1737 2 MP stroke
0 1215 2412 524 2 MP stroke
132 0 2346 524 2 MP stroke
132 0 2346 1739 2 MP stroke
0 1166 2496 588 2 MP stroke
132 0 2430 588 2 MP stroke
132 0 2430 1754 2 MP stroke
0 954 2581 808 2 MP stroke
133 0 2515 808 2 MP stroke
133 0 2515 1762 2 MP stroke
0 1049 2665 747 2 MP stroke
133 0 2598 747 2 MP stroke
133 0 2598 1796 2 MP stroke
0 1098 2748 710 2 MP stroke
133 0 2682 710 2 MP stroke
133 0 2682 1808 2 MP stroke
0 1031 2835 714 2 MP stroke
132 0 2769 714 2 MP stroke
132 0 2769 1745 2 MP stroke
0 867 2924 779 2 MP stroke
133 0 2858 779 2 MP stroke
133 0 2858 1646 2 MP stroke
0 992 3014 699 2 MP stroke
133 0 2947 699 2 MP stroke
133 0 2947 1691 2 MP stroke
0 881 3101 858 2 MP stroke
132 0 3035 858 2 MP stroke
132 0 3035 1739 2 MP stroke
0 1067 3188 796 2 MP stroke
133 0 3122 796 2 MP stroke
133 0 3122 1863 2 MP stroke
0 1090 3277 778 2 MP stroke
132 0 3211 778 2 MP stroke
132 0 3211 1868 2 MP stroke
0 1117 3366 777 2 MP stroke
133 0 3300 777 2 MP stroke
133 0 3300 1894 2 MP stroke
0 1213 3454 678 2 MP stroke
132 0 3388 678 2 MP stroke
132 0 3388 1891 2 MP stroke
0 878 3541 918 2 MP stroke
132 0 3475 918 2 MP stroke
132 0 3475 1796 2 MP stroke
0 1238 3629 775 2 MP stroke
133 0 3563 775 2 MP stroke
133 0 3563 2013 2 MP stroke
0 1305 3718 795 2 MP stroke
133 0 3652 795 2 MP stroke
133 0 3652 2100 2 MP stroke
0 1112 3807 808 2 MP stroke
133 0 3741 808 2 MP stroke
133 0 3741 1920 2 MP stroke
0 1114 3896 915 2 MP stroke
133 0 3829 915 2 MP stroke
133 0 3829 2029 2 MP stroke
0 1125 3984 831 2 MP stroke
132 0 3918 831 2 MP stroke
132 0 3918 1956 2 MP stroke
0 1265 4072 923 2 MP stroke
133 0 4005 923 2 MP stroke
133 0 4005 2188 2 MP stroke
0 1049 4160 944 2 MP stroke
132 0 4094 944 2 MP stroke
132 0 4094 1993 2 MP stroke
0 1030 4248 1017 2 MP stroke
133 0 4182 1017 2 MP stroke
133 0 4182 2047 2 MP stroke
0 1197 4336 1077 2 MP stroke
133 0 4270 1077 2 MP stroke
133 0 4270 2274 2 MP stroke
0 1143 4424 981 2 MP stroke
133 0 4358 981 2 MP stroke
133 0 4358 2124 2 MP stroke
0 1251 4512 849 2 MP stroke
132 0 4446 849 2 MP stroke
132 0 4446 2100 2 MP stroke
0 1155 4606 1104 2 MP stroke
132 0 4540 1104 2 MP stroke
132 0 4540 2259 2 MP stroke
0 1106 4704 1109 2 MP stroke
133 0 4638 1109 2 MP stroke
133 0 4638 2215 2 MP stroke
0 1172 4801 1080 2 MP stroke
133 0 4735 1080 2 MP stroke
133 0 4735 2252 2 MP stroke
0 1153 4899 1224 2 MP stroke
132 0 4833 1224 2 MP stroke
132 0 4833 2377 2 MP stroke
0 1091 4997 1129 2 MP stroke
132 0 4931 1129 2 MP stroke
132 0 4931 2220 2 MP stroke
0 1341 5095 1099 2 MP stroke
133 0 5028 1099 2 MP stroke
133 0 5028 2440 2 MP stroke
0 1211 5198 1213 2 MP stroke
132 0 5132 1213 2 MP stroke
132 0 5132 2424 2 MP stroke
0 1099 5307 1369 2 MP stroke
132 0 5241 1369 2 MP stroke
132 0 5241 2468 2 MP stroke
0 1073 5424 1317 2 MP stroke
132 0 5358 1317 2 MP stroke
132 0 5358 2390 2 MP stroke
0 1293 5545 1276 2 MP stroke
133 0 5479 1276 2 MP stroke
133 0 5479 2569 2 MP stroke
0 1290 5689 1469 2 MP stroke
133 0 5623 1469 2 MP stroke
133 0 5623 2759 2 MP stroke
0 1246 5858 1408 2 MP stroke
133 0 5792 1408 2 MP stroke
133 0 5792 2654 2 MP stroke
0 1252 6042 1308 2 MP stroke
133 0 5975 1308 2 MP stroke
133 0 5975 2560 2 MP stroke
0 1485 6243 1417 2 MP stroke
80 0 6176 1417 2 MP stroke
80 0 6176 2902 2 MP stroke
13 -7 201 226 184 -97 169 -83 144 192 121 68 117 -64 109 100 
103 48 98 95 98 -126 98 135 97 4 98 -20 94 208 88 -79 
88 -122 88 143 88 63 88 -86 88 162 88 -79 89 108 89 -83 
89 53 88 37 87 73 88 -52 89 13 89 -6 87 30 87 104 
90 -18 89 -16 87 -30 83 -12 84 -14 85 114 84 40 82 11 
86 152 84 -208 84 93 84 -28 85 -52 85 78 83 -24 83 46 
84 37 85 -10 84 86 84 42 85 45 82 -24 84 79 83 39 
86 300 899 469 58 MP stroke
gr

 874  444 mt  924  494 L
 924  444 mt  874  494 L
 960  744 mt 1010  794 L
1010  744 mt  960  794 L
1043  783 mt 1093  833 L
1093  783 mt 1043  833 L
1127  862 mt 1177  912 L
1177  862 mt 1127  912 L
1209  838 mt 1259  888 L
1259  838 mt 1209  888 L
1294  883 mt 1344  933 L
1344  883 mt 1294  933 L
1378  925 mt 1428  975 L
1428  925 mt 1378  975 L
1462 1011 mt 1512 1061 L
1512 1011 mt 1462 1061 L
1547 1001 mt 1597 1051 L
1597 1001 mt 1547 1051 L
1631 1038 mt 1681 1088 L
1681 1038 mt 1631 1088 L
1714 1084 mt 1764 1134 L
1764 1084 mt 1714 1134 L
1797 1060 mt 1847 1110 L
1847 1060 mt 1797 1110 L
1882 1138 mt 1932 1188 L
1932 1138 mt 1882 1188 L
1967 1086 mt 2017 1136 L
2017 1086 mt 1967 1136 L
2051 1058 mt 2101 1108 L
2101 1058 mt 2051 1108 L
2135 1151 mt 2185 1201 L
2185 1151 mt 2135 1201 L
2219  943 mt 2269  993 L
2269  943 mt 2219  993 L
2305 1095 mt 2355 1145 L
2355 1095 mt 2305 1145 L
2387 1106 mt 2437 1156 L
2437 1106 mt 2387 1156 L
2471 1146 mt 2521 1196 L
2521 1146 mt 2471 1196 L
2556 1260 mt 2606 1310 L
2606 1260 mt 2556 1310 L
2640 1246 mt 2690 1296 L
2690 1246 mt 2640 1296 L
2723 1234 mt 2773 1284 L
2773 1234 mt 2723 1284 L
2810 1204 mt 2860 1254 L
2860 1204 mt 2810 1254 L
2899 1188 mt 2949 1238 L
2949 1188 mt 2899 1238 L
2989 1170 mt 3039 1220 L
3039 1170 mt 2989 1220 L
3076 1274 mt 3126 1324 L
3126 1274 mt 3076 1324 L
3163 1304 mt 3213 1354 L
3213 1304 mt 3163 1354 L
3252 1298 mt 3302 1348 L
3302 1298 mt 3252 1348 L
3341 1311 mt 3391 1361 L
3391 1311 mt 3341 1361 L
3429 1259 mt 3479 1309 L
3479 1259 mt 3429 1309 L
3516 1332 mt 3566 1382 L
3566 1332 mt 3516 1382 L
3604 1369 mt 3654 1419 L
3654 1369 mt 3604 1419 L
3693 1422 mt 3743 1472 L
3743 1422 mt 3693 1472 L
3782 1339 mt 3832 1389 L
3832 1339 mt 3782 1389 L
3871 1447 mt 3921 1497 L
3921 1447 mt 3871 1497 L
3959 1368 mt 4009 1418 L
4009 1368 mt 3959 1418 L
4047 1530 mt 4097 1580 L
4097 1530 mt 4047 1580 L
4135 1444 mt 4185 1494 L
4185 1444 mt 4135 1494 L
4223 1507 mt 4273 1557 L
4273 1507 mt 4223 1557 L
4311 1650 mt 4361 1700 L
4361 1650 mt 4311 1700 L
4399 1528 mt 4449 1578 L
4449 1528 mt 4399 1578 L
4487 1449 mt 4537 1499 L
4537 1449 mt 4487 1499 L
4581 1657 mt 4631 1707 L
4631 1657 mt 4581 1707 L
4679 1637 mt 4729 1687 L
4729 1637 mt 4679 1687 L
4776 1641 mt 4826 1691 L
4826 1641 mt 4776 1691 L
4874 1776 mt 4924 1826 L
4924 1776 mt 4874 1826 L
4972 1650 mt 5022 1700 L
5022 1650 mt 4972 1700 L
5070 1745 mt 5120 1795 L
5120 1745 mt 5070 1795 L
5173 1793 mt 5223 1843 L
5223 1793 mt 5173 1843 L
5282 1893 mt 5332 1943 L
5332 1893 mt 5282 1943 L
5399 1829 mt 5449 1879 L
5449 1829 mt 5399 1879 L
5520 1897 mt 5570 1947 L
5570 1897 mt 5520 1947 L
5664 2089 mt 5714 2139 L
5714 2089 mt 5664 2139 L
5833 2006 mt 5883 2056 L
5883 2006 mt 5833 2056 L
6017 1909 mt 6067 1959 L
6067 1909 mt 6017 1959 L
6218 2135 mt 6268 2185 L
6268 2135 mt 6218 2185 L
gs 899 469 5357 4147 rc
/c8 { 1.000000 0.000000 0.000000 sr} bdef
c8
899 469 PD
53 0 899 469 2 MP stroke
53 0 899 469 2 MP stroke
0 2212 952 469 2 MP stroke
107 0 899 2681 2 MP stroke
0 2328 1006 530 2 MP stroke
107 0 952 530 2 MP stroke
107 0 952 2858 2 MP stroke
0 2187 1059 881 2 MP stroke
107 0 1006 881 2 MP stroke
107 0 1006 3068 2 MP stroke
0 2028 1113 1180 2 MP stroke
107 0 1059 1180 2 MP stroke
107 0 1059 3208 2 MP stroke
0 1899 1166 1427 2 MP stroke
107 0 1113 1427 2 MP stroke
107 0 1113 3326 2 MP stroke
0 1727 1220 1722 2 MP stroke
107 0 1166 1722 2 MP stroke
107 0 1166 3449 2 MP stroke
0 1578 1273 1958 2 MP stroke
107 0 1220 1958 2 MP stroke
107 0 1220 3536 2 MP stroke
0 1472 1327 2154 2 MP stroke
108 0 1273 2154 2 MP stroke
108 0 1273 3626 2 MP stroke
0 1336 1381 2373 2 MP stroke
107 0 1327 2373 2 MP stroke
107 0 1327 3709 2 MP stroke
0 1281 1434 2480 2 MP stroke
107 0 1381 2480 2 MP stroke
107 0 1381 3761 2 MP stroke
0 1212 1488 2609 2 MP stroke
107 0 1434 2609 2 MP stroke
107 0 1434 3821 2 MP stroke
0 1116 1541 2741 2 MP stroke
107 0 1488 2741 2 MP stroke
107 0 1488 3857 2 MP stroke
0 1023 1595 2897 2 MP stroke
107 0 1541 2897 2 MP stroke
107 0 1541 3920 2 MP stroke
0 935 1648 3055 2 MP stroke
107 0 1595 3055 2 MP stroke
107 0 1595 3990 2 MP stroke
0 894 1702 3166 2 MP stroke
107 0 1648 3166 2 MP stroke
107 0 1648 4060 2 MP stroke
0 860 1755 3268 2 MP stroke
107 0 1702 3268 2 MP stroke
107 0 1702 4128 2 MP stroke
0 803 1809 3371 2 MP stroke
108 0 1755 3371 2 MP stroke
108 0 1755 4174 2 MP stroke
0 757 1863 3443 2 MP stroke
107 0 1809 3443 2 MP stroke
107 0 1809 4200 2 MP stroke
0 671 1916 3547 2 MP stroke
107 0 1863 3547 2 MP stroke
107 0 1863 4218 2 MP stroke
0 658 1970 3595 2 MP stroke
107 0 1916 3595 2 MP stroke
107 0 1916 4253 2 MP stroke
0 641 2023 3658 2 MP stroke
107 0 1970 3658 2 MP stroke
107 0 1970 4299 2 MP stroke
0 614 2077 3707 2 MP stroke
107 0 2023 3707 2 MP stroke
107 0 2023 4321 2 MP stroke
0 582 2130 3764 2 MP stroke
107 0 2077 3764 2 MP stroke
107 0 2077 4346 2 MP stroke
0 535 2184 3841 2 MP stroke
108 0 2130 3841 2 MP stroke
108 0 2130 4376 2 MP stroke
0 477 2238 3906 2 MP stroke
107 0 2184 3906 2 MP stroke
107 0 2184 4383 2 MP stroke
0 470 2291 3942 2 MP stroke
107 0 2238 3942 2 MP stroke
107 0 2238 4412 2 MP stroke
0 455 2345 3977 2 MP stroke
107 0 2291 3977 2 MP stroke
107 0 2291 4432 2 MP stroke
0 439 2398 4002 2 MP stroke
107 0 2345 4002 2 MP stroke
107 0 2345 4441 2 MP stroke
0 401 2452 4062 2 MP stroke
107 0 2398 4062 2 MP stroke
107 0 2398 4463 2 MP stroke
0 399 2505 4070 2 MP stroke
107 0 2452 4070 2 MP stroke
107 0 2452 4469 2 MP stroke
0 364 2559 4116 2 MP stroke
107 0 2505 4116 2 MP stroke
107 0 2505 4480 2 MP stroke
0 327 2612 4160 2 MP stroke
107 0 2559 4160 2 MP stroke
107 0 2559 4487 2 MP stroke
0 329 2666 4173 2 MP stroke
108 0 2612 4173 2 MP stroke
108 0 2612 4502 2 MP stroke
0 304 2720 4213 2 MP stroke
107 0 2666 4213 2 MP stroke
107 0 2666 4517 2 MP stroke
0 283 2773 4248 2 MP stroke
107 0 2720 4248 2 MP stroke
107 0 2720 4531 2 MP stroke
0 267 2827 4260 2 MP stroke
107 0 2773 4260 2 MP stroke
107 0 2773 4527 2 MP stroke
0 274 2880 4261 2 MP stroke
107 0 2827 4261 2 MP stroke
107 0 2827 4535 2 MP stroke
0 248 2934 4287 2 MP stroke
107 0 2880 4287 2 MP stroke
107 0 2880 4535 2 MP stroke
0 251 2987 4289 2 MP stroke
107 0 2934 4289 2 MP stroke
107 0 2934 4540 2 MP stroke
0 235 3041 4308 2 MP stroke
107 0 2987 4308 2 MP stroke
107 0 2987 4543 2 MP stroke
0 219 3094 4322 2 MP stroke
107 0 3041 4322 2 MP stroke
107 0 3041 4541 2 MP stroke
0 212 3148 4336 2 MP stroke
108 0 3094 4336 2 MP stroke
108 0 3094 4548 2 MP stroke
0 202 3202 4344 2 MP stroke
107 0 3148 4344 2 MP stroke
107 0 3148 4546 2 MP stroke
0 184 3255 4369 2 MP stroke
107 0 3202 4369 2 MP stroke
107 0 3202 4553 2 MP stroke
0 169 3309 4388 2 MP stroke
107 0 3255 4388 2 MP stroke
107 0 3255 4557 2 MP stroke
0 162 3362 4393 2 MP stroke
107 0 3309 4393 2 MP stroke
107 0 3309 4555 2 MP stroke
0 160 3416 4409 2 MP stroke
107 0 3362 4409 2 MP stroke
107 0 3362 4569 2 MP stroke
0 181 3469 4406 2 MP stroke
107 0 3416 4406 2 MP stroke
107 0 3416 4587 2 MP stroke
0 180 3523 4405 2 MP stroke
108 0 3469 4405 2 MP stroke
108 0 3469 4585 2 MP stroke
0 171 3577 4417 2 MP stroke
107 0 3523 4417 2 MP stroke
107 0 3523 4588 2 MP stroke
0 170 3630 4421 2 MP stroke
107 0 3577 4421 2 MP stroke
107 0 3577 4591 2 MP stroke
0 135 3684 4446 2 MP stroke
107 0 3630 4446 2 MP stroke
107 0 3630 4581 2 MP stroke
0 136 3737 4451 2 MP stroke
107 0 3684 4451 2 MP stroke
107 0 3684 4587 2 MP stroke
0 138 3791 4451 2 MP stroke
107 0 3737 4451 2 MP stroke
107 0 3737 4589 2 MP stroke
0 159 3844 4436 2 MP stroke
107 0 3791 4436 2 MP stroke
107 0 3791 4595 2 MP stroke
0 145 3898 4443 2 MP stroke
107 0 3844 4443 2 MP stroke
107 0 3844 4588 2 MP stroke
0 142 3951 4454 2 MP stroke
107 0 3898 4454 2 MP stroke
107 0 3898 4596 2 MP stroke
0 143 4005 4452 2 MP stroke
108 0 3951 4452 2 MP stroke
108 0 3951 4595 2 MP stroke
0 160 4059 4435 2 MP stroke
107 0 4005 4435 2 MP stroke
107 0 4005 4595 2 MP stroke
0 143 4112 4446 2 MP stroke
107 0 4059 4446 2 MP stroke
107 0 4059 4589 2 MP stroke
0 141 4166 4454 2 MP stroke
107 0 4112 4454 2 MP stroke
107 0 4112 4595 2 MP stroke
0 147 4219 4455 2 MP stroke
107 0 4166 4455 2 MP stroke
107 0 4166 4602 2 MP stroke
0 124 4273 4468 2 MP stroke
107 0 4219 4468 2 MP stroke
107 0 4219 4592 2 MP stroke
0 113 4326 4468 2 MP stroke
107 0 4273 4468 2 MP stroke
107 0 4273 4581 2 MP stroke
0 103 4380 4484 2 MP stroke
107 0 4326 4484 2 MP stroke
107 0 4326 4587 2 MP stroke
0 104 4433 4482 2 MP stroke
107 0 4380 4482 2 MP stroke
107 0 4380 4586 2 MP stroke
0 116 4487 4473 2 MP stroke
108 0 4433 4473 2 MP stroke
108 0 4433 4589 2 MP stroke
0 122 4541 4475 2 MP stroke
107 0 4487 4475 2 MP stroke
107 0 4487 4597 2 MP stroke
0 107 4594 4482 2 MP stroke
107 0 4541 4482 2 MP stroke
107 0 4541 4589 2 MP stroke
0 116 4648 4476 2 MP stroke
107 0 4594 4476 2 MP stroke
107 0 4594 4592 2 MP stroke
0 111 4701 4481 2 MP stroke
107 0 4648 4481 2 MP stroke
107 0 4648 4592 2 MP stroke
0 101 4755 4492 2 MP stroke
107 0 4701 4492 2 MP stroke
107 0 4701 4593 2 MP stroke
0 96 4808 4501 2 MP stroke
107 0 4755 4501 2 MP stroke
107 0 4755 4597 2 MP stroke
0 120 4862 4479 2 MP stroke
108 0 4808 4479 2 MP stroke
108 0 4808 4599 2 MP stroke
0 121 4916 4472 2 MP stroke
107 0 4862 4472 2 MP stroke
107 0 4862 4593 2 MP stroke
0 127 4969 4475 2 MP stroke
107 0 4916 4475 2 MP stroke
107 0 4916 4602 2 MP stroke
0 129 5023 4479 2 MP stroke
107 0 4969 4479 2 MP stroke
107 0 4969 4608 2 MP stroke
0 123 5076 4482 2 MP stroke
107 0 5023 4482 2 MP stroke
107 0 5023 4605 2 MP stroke
0 122 5130 4485 2 MP stroke
107 0 5076 4485 2 MP stroke
107 0 5076 4607 2 MP stroke
0 118 5183 4483 2 MP stroke
107 0 5130 4483 2 MP stroke
107 0 5130 4601 2 MP stroke
0 113 5237 4482 2 MP stroke
107 0 5183 4482 2 MP stroke
107 0 5183 4595 2 MP stroke
0 104 5290 4486 2 MP stroke
107 0 5237 4486 2 MP stroke
107 0 5237 4590 2 MP stroke
0 97 5344 4492 2 MP stroke
108 0 5290 4492 2 MP stroke
108 0 5290 4589 2 MP stroke
0 102 5398 4493 2 MP stroke
107 0 5344 4493 2 MP stroke
107 0 5344 4595 2 MP stroke
0 105 5451 4486 2 MP stroke
107 0 5398 4486 2 MP stroke
107 0 5398 4591 2 MP stroke
0 96 5505 4496 2 MP stroke
107 0 5451 4496 2 MP stroke
107 0 5451 4592 2 MP stroke
0 103 5558 4498 2 MP stroke
107 0 5505 4498 2 MP stroke
107 0 5505 4601 2 MP stroke
0 92 5612 4504 2 MP stroke
107 0 5558 4504 2 MP stroke
107 0 5558 4596 2 MP stroke
0 88 5665 4515 2 MP stroke
107 0 5612 4515 2 MP stroke
107 0 5612 4603 2 MP stroke
0 82 5719 4520 2 MP stroke
107 0 5665 4520 2 MP stroke
107 0 5665 4602 2 MP stroke
0 77 5772 4523 2 MP stroke
107 0 5719 4523 2 MP stroke
107 0 5719 4600 2 MP stroke
0 89 5826 4508 2 MP stroke
108 0 5772 4508 2 MP stroke
108 0 5772 4597 2 MP stroke
0 92 5880 4510 2 MP stroke
107 0 5826 4510 2 MP stroke
107 0 5826 4602 2 MP stroke
0 95 5933 4511 2 MP stroke
107 0 5880 4511 2 MP stroke
107 0 5880 4606 2 MP stroke
0 87 5987 4520 2 MP stroke
107 0 5933 4520 2 MP stroke
107 0 5933 4607 2 MP stroke
0 75 6040 4527 2 MP stroke
107 0 5987 4527 2 MP stroke
107 0 5987 4602 2 MP stroke
0 74 6094 4529 2 MP stroke
107 0 6040 4529 2 MP stroke
107 0 6040 4603 2 MP stroke
0 68 6147 4532 2 MP stroke
107 0 6094 4532 2 MP stroke
107 0 6094 4600 2 MP stroke
0 82 6201 4525 2 MP stroke
108 0 6147 4525 2 MP stroke
108 0 6147 4607 2 MP stroke
0 82 6255 4519 2 MP stroke
55 0 6201 4519 2 MP stroke
55 0 6201 4601 2 MP stroke
54 -6 54 0 53 0 54 2 53 1 54 5 53 2 54 3 
54 -8 53 0 54 2 53 9 54 0 53 6 54 6 53 -6 
54 4 54 2 53 0 54 -4 53 -4 54 2 53 0 54 5 
53 6 54 -6 54 -10 53 7 54 5 53 3 54 -2 53 0 
54 5 54 -3 53 -1 54 11 53 -6 54 1 53 4 54 7 
53 3 54 -8 54 -2 53 10 54 0 53 -5 54 1 53 5 
54 8 53 3 54 8 54 -2 53 8 54 15 53 2 54 11 
53 16 54 3 54 11 53 5 54 11 53 4 54 13 53 4 
54 5 53 24 54 28 54 14 53 25 54 28 53 7 54 42 
53 16 54 28 53 33 54 35 54 54 53 41 54 35 53 55 
54 42 53 60 54 49 54 75 53 85 54 91 53 113 54 110 
53 84 54 95 53 79 54 151 54 143 53 161 54 209 53 183 
54 219 53 281 54 275 53 950 899 469 101 MP stroke
gr

c8
  36   36  899  469 FO
  36   36  952 1419 FO
  36   36 1006 1694 FO
  36   36 1059 1975 FO
  36   36 1113 2194 FO
  36   36 1166 2377 FO
  36   36 1220 2586 FO
  36   36 1273 2747 FO
  36   36 1327 2890 FO
  36   36 1381 3041 FO
  36   36 1434 3120 FO
  36   36 1488 3215 FO
  36   36 1541 3299 FO
  36   36 1595 3409 FO
  36   36 1648 3522 FO
  36   36 1702 3613 FO
  36   36 1755 3698 FO
  36   36 1809 3773 FO
  36   36 1863 3822 FO
  36   36 1916 3882 FO
  36   36 1970 3924 FO
  36   36 2023 3979 FO
  36   36 2077 4014 FO
  36   36 2130 4055 FO
  36   36 2184 4109 FO
  36   36 2238 4144 FO
  36   36 2291 4177 FO
  36   36 2345 4205 FO
  36   36 2398 4221 FO
  36   36 2452 4263 FO
  36   36 2505 4270 FO
  36   36 2559 4298 FO
  36   36 2612 4323 FO
  36   36 2666 4337 FO
  36   36 2720 4365 FO
  36   36 2773 4389 FO
  36   36 2827 4394 FO
  36   36 2880 4398 FO
  36   36 2934 4411 FO
  36   36 2987 4415 FO
  36   36 3041 4426 FO
  36   36 3094 4431 FO
  36   36 3148 4442 FO
  36   36 3202 4445 FO
  36   36 3255 4461 FO
  36   36 3309 4472 FO
  36   36 3362 4474 FO
  36   36 3416 4489 FO
  36   36 3469 4497 FO
  36   36 3523 4495 FO
  36   36 3577 4503 FO
  36   36 3630 4506 FO
  36   36 3684 4514 FO
  36   36 3737 4519 FO
  36   36 3791 4520 FO
  36   36 3844 4515 FO
  36   36 3898 4515 FO
  36   36 3951 4525 FO
  36   36 4005 4523 FO
  36   36 4059 4515 FO
  36   36 4112 4518 FO
  36   36 4166 4525 FO
  36   36 4219 4529 FO
  36   36 4273 4530 FO
  36   36 4326 4524 FO
  36   36 4380 4535 FO
  36   36 4433 4534 FO
  36   36 4487 4531 FO
  36   36 4541 4536 FO
  36   36 4594 4536 FO
  36   36 4648 4534 FO
  36   36 4701 4537 FO
  36   36 4755 4542 FO
  36   36 4808 4549 FO
  36   36 4862 4539 FO
  36   36 4916 4533 FO
  36   36 4969 4539 FO
  36   36 5023 4544 FO
  36   36 5076 4544 FO
  36   36 5130 4546 FO
  36   36 5183 4542 FO
  36   36 5237 4538 FO
  36   36 5290 4538 FO
  36   36 5344 4540 FO
  36   36 5398 4544 FO
  36   36 5451 4538 FO
  36   36 5505 4544 FO
  36   36 5558 4550 FO
  36   36 5612 4550 FO
  36   36 5665 4559 FO
  36   36 5719 4561 FO
  36   36 5772 4561 FO
  36   36 5826 4553 FO
  36   36 5880 4556 FO
  36   36 5933 4558 FO
  36   36 5987 4563 FO
  36   36 6040 4564 FO
  36   36 6094 4566 FO
  36   36 6147 4566 FO
  36   36 6201 4566 FO
  36   36 6255 4560 FO
gs 899 469 5357 4147 rc
/c9 { 0.000000 0.500000 0.000000 sr} bdef
c9
899 469 PD
53 0 899 469 2 MP stroke
53 0 899 469 2 MP stroke
0 1106 952 469 2 MP stroke
107 0 899 1575 2 MP stroke
0 1140 1006 469 2 MP stroke
107 0 952 1609 2 MP stroke
0 1139 1059 469 2 MP stroke
107 0 1006 1608 2 MP stroke
0 1137 1113 469 2 MP stroke
107 0 1059 1606 2 MP stroke
0 1156 1166 469 2 MP stroke
107 0 1113 1625 2 MP stroke
0 1160 1220 469 2 MP stroke
107 0 1166 1629 2 MP stroke
0 1172 1273 469 2 MP stroke
107 0 1220 1641 2 MP stroke
0 1180 1327 469 2 MP stroke
108 0 1273 1649 2 MP stroke
0 1205 1381 469 2 MP stroke
107 0 1327 1674 2 MP stroke
0 1237 1434 469 2 MP stroke
107 0 1381 1706 2 MP stroke
0 1258 1488 469 2 MP stroke
107 0 1434 1727 2 MP stroke
0 1314 1541 469 2 MP stroke
107 0 1488 1783 2 MP stroke
0 1327 1595 469 2 MP stroke
107 0 1541 1796 2 MP stroke
0 1339 1648 469 2 MP stroke
107 0 1595 1808 2 MP stroke
0 1367 1702 469 2 MP stroke
107 0 1648 1836 2 MP stroke
0 1358 1755 469 2 MP stroke
107 0 1702 1827 2 MP stroke
0 1365 1809 469 2 MP stroke
108 0 1755 1834 2 MP stroke
0 1387 1863 469 2 MP stroke
107 0 1809 1856 2 MP stroke
0 1412 1916 468 2 MP stroke
107 0 1863 1880 2 MP stroke
0 1421 1970 469 2 MP stroke
107 0 1916 1890 2 MP stroke
0 1422 2023 469 2 MP stroke
107 0 1970 1891 2 MP stroke
0 1436 2077 469 2 MP stroke
107 0 2023 1905 2 MP stroke
0 1445 2130 469 2 MP stroke
107 0 2077 1914 2 MP stroke
0 1465 2184 469 2 MP stroke
108 0 2130 1934 2 MP stroke
0 1482 2238 469 2 MP stroke
107 0 2184 1951 2 MP stroke
0 1493 2291 469 2 MP stroke
107 0 2238 1962 2 MP stroke
0 1516 2345 469 2 MP stroke
107 0 2291 1985 2 MP stroke
0 1518 2398 469 2 MP stroke
107 0 2345 1987 2 MP stroke
0 1523 2452 469 2 MP stroke
107 0 2398 1992 2 MP stroke
0 1537 2505 469 2 MP stroke
107 0 2452 2006 2 MP stroke
0 1549 2559 469 2 MP stroke
107 0 2505 2018 2 MP stroke
0 1552 2612 469 2 MP stroke
107 0 2559 2021 2 MP stroke
0 1579 2666 469 2 MP stroke
108 0 2612 2048 2 MP stroke
0 1594 2720 469 2 MP stroke
107 0 2666 2063 2 MP stroke
0 1604 2773 469 2 MP stroke
107 0 2720 2073 2 MP stroke
0 1613 2827 469 2 MP stroke
107 0 2773 2082 2 MP stroke
0 1613 2880 469 2 MP stroke
107 0 2827 2082 2 MP stroke
0 1629 2934 469 2 MP stroke
107 0 2880 2098 2 MP stroke
0 1634 2987 469 2 MP stroke
107 0 2934 2103 2 MP stroke
0 1637 3041 469 2 MP stroke
107 0 2987 2106 2 MP stroke
0 1643 3094 469 2 MP stroke
107 0 3041 2112 2 MP stroke
0 1656 3148 469 2 MP stroke
108 0 3094 2125 2 MP stroke
0 1672 3202 469 2 MP stroke
107 0 3148 2141 2 MP stroke
0 1675 3255 469 2 MP stroke
107 0 3202 2144 2 MP stroke
0 1699 3309 469 2 MP stroke
107 0 3255 2168 2 MP stroke
0 1716 3362 469 2 MP stroke
107 0 3309 2185 2 MP stroke
0 1719 3416 469 2 MP stroke
107 0 3362 2188 2 MP stroke
0 1729 3469 469 2 MP stroke
107 0 3416 2198 2 MP stroke
0 1724 3523 491 2 MP stroke
108 0 3469 491 2 MP stroke
108 0 3469 2215 2 MP stroke
0 1719 3577 505 2 MP stroke
107 0 3523 505 2 MP stroke
107 0 3523 2224 2 MP stroke
0 1719 3630 521 2 MP stroke
107 0 3577 521 2 MP stroke
107 0 3577 2240 2 MP stroke
0 1734 3684 533 2 MP stroke
107 0 3630 533 2 MP stroke
107 0 3630 2267 2 MP stroke
0 1726 3737 536 2 MP stroke
107 0 3684 536 2 MP stroke
107 0 3684 2262 2 MP stroke
0 1723 3791 564 2 MP stroke
107 0 3737 564 2 MP stroke
107 0 3737 2287 2 MP stroke
0 1726 3844 586 2 MP stroke
107 0 3791 586 2 MP stroke
107 0 3791 2312 2 MP stroke
0 1718 3898 601 2 MP stroke
107 0 3844 601 2 MP stroke
107 0 3844 2319 2 MP stroke
0 1729 3951 599 2 MP stroke
107 0 3898 599 2 MP stroke
107 0 3898 2328 2 MP stroke
0 1726 4005 616 2 MP stroke
108 0 3951 616 2 MP stroke
108 0 3951 2342 2 MP stroke
0 1734 4059 654 2 MP stroke
107 0 4005 654 2 MP stroke
107 0 4005 2388 2 MP stroke
0 1720 4112 687 2 MP stroke
107 0 4059 687 2 MP stroke
107 0 4059 2407 2 MP stroke
0 1718 4166 692 2 MP stroke
107 0 4112 692 2 MP stroke
107 0 4112 2410 2 MP stroke
0 1721 4219 701 2 MP stroke
107 0 4166 701 2 MP stroke
107 0 4166 2422 2 MP stroke
0 1710 4273 718 2 MP stroke
107 0 4219 718 2 MP stroke
107 0 4219 2428 2 MP stroke
0 1707 4326 737 2 MP stroke
107 0 4273 737 2 MP stroke
107 0 4273 2444 2 MP stroke
0 1727 4380 744 2 MP stroke
107 0 4326 744 2 MP stroke
107 0 4326 2471 2 MP stroke
0 1739 4433 770 2 MP stroke
107 0 4380 770 2 MP stroke
107 0 4380 2509 2 MP stroke
0 1725 4487 797 2 MP stroke
108 0 4433 797 2 MP stroke
108 0 4433 2522 2 MP stroke
0 1718 4541 804 2 MP stroke
107 0 4487 804 2 MP stroke
107 0 4487 2522 2 MP stroke
0 1691 4594 851 2 MP stroke
107 0 4541 851 2 MP stroke
107 0 4541 2542 2 MP stroke
0 1704 4648 875 2 MP stroke
107 0 4594 875 2 MP stroke
107 0 4594 2579 2 MP stroke
0 1707 4701 885 2 MP stroke
107 0 4648 885 2 MP stroke
107 0 4648 2592 2 MP stroke
0 1693 4755 892 2 MP stroke
107 0 4701 892 2 MP stroke
107 0 4701 2585 2 MP stroke
0 1691 4808 912 2 MP stroke
107 0 4755 912 2 MP stroke
107 0 4755 2603 2 MP stroke
0 1714 4862 936 2 MP stroke
108 0 4808 936 2 MP stroke
108 0 4808 2650 2 MP stroke
0 1727 4916 945 2 MP stroke
107 0 4862 945 2 MP stroke
107 0 4862 2672 2 MP stroke
0 1734 4969 951 2 MP stroke
107 0 4916 951 2 MP stroke
107 0 4916 2685 2 MP stroke
0 1749 5023 954 2 MP stroke
107 0 4969 954 2 MP stroke
107 0 4969 2703 2 MP stroke
0 1733 5076 979 2 MP stroke
107 0 5023 979 2 MP stroke
107 0 5023 2712 2 MP stroke
0 1750 5130 981 2 MP stroke
107 0 5076 981 2 MP stroke
107 0 5076 2731 2 MP stroke
0 1741 5183 1000 2 MP stroke
107 0 5130 1000 2 MP stroke
107 0 5130 2741 2 MP stroke
0 1732 5237 1019 2 MP stroke
107 0 5183 1019 2 MP stroke
107 0 5183 2751 2 MP stroke
0 1738 5290 1044 2 MP stroke
107 0 5237 1044 2 MP stroke
107 0 5237 2782 2 MP stroke
0 1749 5344 1052 2 MP stroke
108 0 5290 1052 2 MP stroke
108 0 5290 2801 2 MP stroke
0 1756 5398 1055 2 MP stroke
107 0 5344 1055 2 MP stroke
107 0 5344 2811 2 MP stroke
0 1764 5451 1074 2 MP stroke
107 0 5398 1074 2 MP stroke
107 0 5398 2838 2 MP stroke
0 1755 5505 1083 2 MP stroke
107 0 5451 1083 2 MP stroke
107 0 5451 2838 2 MP stroke
0 1763 5558 1086 2 MP stroke
107 0 5505 1086 2 MP stroke
107 0 5505 2849 2 MP stroke
0 1728 5612 1124 2 MP stroke
107 0 5558 1124 2 MP stroke
107 0 5558 2852 2 MP stroke
0 1730 5665 1129 2 MP stroke
107 0 5612 1129 2 MP stroke
107 0 5612 2859 2 MP stroke
0 1745 5719 1130 2 MP stroke
107 0 5665 1130 2 MP stroke
107 0 5665 2875 2 MP stroke
0 1764 5772 1139 2 MP stroke
107 0 5719 1139 2 MP stroke
107 0 5719 2903 2 MP stroke
0 1781 5826 1163 2 MP stroke
108 0 5772 1163 2 MP stroke
108 0 5772 2944 2 MP stroke
0 1795 5880 1159 2 MP stroke
107 0 5826 1159 2 MP stroke
107 0 5826 2954 2 MP stroke
0 1795 5933 1159 2 MP stroke
107 0 5880 1159 2 MP stroke
107 0 5880 2954 2 MP stroke
0 1792 5987 1153 2 MP stroke
107 0 5933 1153 2 MP stroke
107 0 5933 2945 2 MP stroke
0 1761 6040 1168 2 MP stroke
107 0 5987 1168 2 MP stroke
107 0 5987 2929 2 MP stroke
0 1747 6094 1184 2 MP stroke
107 0 6040 1184 2 MP stroke
107 0 6040 2931 2 MP stroke
0 1742 6147 1198 2 MP stroke
107 0 6094 1198 2 MP stroke
107 0 6094 2940 2 MP stroke
0 1735 6201 1209 2 MP stroke
108 0 6147 1209 2 MP stroke
108 0 6147 2944 2 MP stroke
0 1743 6255 1228 2 MP stroke
55 0 6201 1228 2 MP stroke
55 0 6201 2971 2 MP stroke
54 22 54 8 53 11 54 10 53 -1 54 -8 53 0 54 3 
54 33 53 18 54 9 53 6 54 21 53 6 54 5 53 23 
54 7 54 13 53 28 54 15 53 14 54 10 53 17 54 11 
53 10 54 15 54 36 53 19 54 0 53 11 54 31 53 33 
54 3 54 21 53 32 54 16 53 18 54 12 53 10 54 4 
53 26 54 42 54 15 53 4 54 11 53 24 54 26 53 -1 
54 20 53 15 54 12 54 20 53 12 54 6 53 10 54 30 
53 3 54 24 54 14 53 6 54 5 53 9 54 19 53 1 
54 16 53 16 54 15 54 30 53 11 54 8 53 15 54 10 
53 5 54 36 53 16 54 20 54 22 53 18 54 19 53 4 
54 14 53 18 54 28 54 8 53 -1 54 27 53 -4 54 3 
53 56 54 19 53 39 54 22 54 6 53 8 54 -14 53 15 
54 -13 53 -3 54 35 53 201 899 469 101 MP stroke
gr

c9
  36   36  899  469 FO
  36   36  952  670 FO
  36   36 1006  705 FO
  36   36 1059  702 FO
  36   36 1113  689 FO
  36   36 1166  704 FO
  36   36 1220  690 FO
  36   36 1273  698 FO
  36   36 1327  704 FO
  36   36 1381  726 FO
  36   36 1434  765 FO
  36   36 1488  784 FO
  36   36 1541  840 FO
  36   36 1595  843 FO
  36   36 1648  839 FO
  36   36 1702  866 FO
  36   36 1755  865 FO
  36   36 1809  873 FO
  36   36 1863  901 FO
  36   36 1916  919 FO
  36   36 1970  933 FO
  36   36 2023  937 FO
  36   36 2077  956 FO
  36   36 2130  974 FO
  36   36 2184  996 FO
  36   36 2238 1016 FO
  36   36 2291 1032 FO
  36   36 2345 1068 FO
  36   36 2398 1073 FO
  36   36 2452 1083 FO
  36   36 2505 1098 FO
  36   36 2559 1106 FO
  36   36 2612 1117 FO
  36   36 2666 1147 FO
  36   36 2720 1162 FO
  36   36 2773 1178 FO
  36   36 2827 1194 FO
  36   36 2880 1195 FO
  36   36 2934 1214 FO
  36   36 2987 1223 FO
  36   36 3041 1228 FO
  36   36 3094 1234 FO
  36   36 3148 1248 FO
  36   36 3202 1272 FO
  36   36 3255 1275 FO
  36   36 3309 1305 FO
  36   36 3362 1315 FO
  36   36 3416 1321 FO
  36   36 3469 1333 FO
  36   36 3523 1353 FO
  36   36 3577 1365 FO
  36   36 3630 1380 FO
  36   36 3684 1400 FO
  36   36 3737 1399 FO
  36   36 3791 1425 FO
  36   36 3844 1449 FO
  36   36 3898 1460 FO
  36   36 3951 1464 FO
  36   36 4005 1479 FO
  36   36 4059 1521 FO
  36   36 4112 1547 FO
  36   36 4166 1551 FO
  36   36 4219 1561 FO
  36   36 4273 1573 FO
  36   36 4326 1591 FO
  36   36 4380 1607 FO
  36   36 4433 1639 FO
  36   36 4487 1660 FO
  36   36 4541 1663 FO
  36   36 4594 1696 FO
  36   36 4648 1727 FO
  36   36 4701 1738 FO
  36   36 4755 1738 FO
  36   36 4808 1757 FO
  36   36 4862 1793 FO
  36   36 4916 1808 FO
  36   36 4969 1818 FO
  36   36 5023 1829 FO
  36   36 5076 1846 FO
  36   36 5130 1856 FO
  36   36 5183 1870 FO
  36   36 5237 1885 FO
  36   36 5290 1913 FO
  36   36 5344 1926 FO
  36   36 5398 1933 FO
  36   36 5451 1956 FO
  36   36 5505 1961 FO
  36   36 5558 1967 FO
  36   36 5612 1988 FO
  36   36 5665 1994 FO
  36   36 5719 2003 FO
  36   36 5772 2021 FO
  36   36 5826 2054 FO
  36   36 5880 2057 FO
  36   36 5933 2057 FO
  36   36 5987 2049 FO
  36   36 6040 2048 FO
  36   36 6094 2058 FO
  36   36 6147 2069 FO
  36   36 6201 2077 FO
  36   36 6255 2099 FO
gs 899 469 5357 4147 rc
gr

0 sg
%%IncludeResource: font Helvetica
/Helvetica /ISOLatin1Encoding 168 FMSR

2407  156 mt 
(Nup49-GFP in Early Anaphase) s
%%IncludeResource: font Helvetica
/Helvetica /ISOLatin1Encoding 144 FMSR

2329  293 mt 
(n) s
%%IncludeResource: font Helvetica
/Helvetica /ISOLatin1Encoding 108 FMSR

2409  377 mt 
(cells) s
%%IncludeResource: font Helvetica
/Helvetica /ISOLatin1Encoding 144 FMSR

2625  293 mt 
( = 21    -    Permeability = 0.00022) s
3314 4921 mt 
(Time \(s\)) s
 577 3058 mt  -90 rotate
(% Fluorescence) s
90 rotate
%%IncludeResource: font Helvetica
/Helvetica /ISOLatin1Encoding 120 FMSR

 882 4658 mt 
( ) s
6239  511 mt 
( ) s
5656  664 mt 
(mother) s
gs 5217 529 980 335 rc
c8
338 0 5284 621 2 MP stroke
gs 5380 548 147 147 rc
  36   36 5453  621 FO
gr

gr

c8
0 sg
5656  813 mt 
(daughter) s
gs 5217 529 980 335 rc
c9
338 0 5284 770 2 MP stroke
gs 5380 697 147 147 rc
  36   36 5453  770 FO
gr

gr

c9

end %%Color Dict

eplot
%%EndObject

epage
end

showpage

%%Trailer
%%EOF
