%!PS-Adobe-3.0 EPSF-3.0
%%Creator: MATLAB, The MathWorks, Inc. Version 8.1.0.604 (R2013a). Operating System: Darwin 11.4.2 Darwin Kernel Version 11.4.2: Thu Aug 23 16:25:48 PDT 2012; root:xnu-1699.32.7~1/RELEASE_X86_64 x86_64.
%%Title: ./EA_Nsg1-sphinbarr.eps
%%CreationDate: 09/05/2013  16:23:59
%%DocumentNeededFonts: Helvetica
%%DocumentProcessColors: Cyan Magenta Yellow Black
%%LanguageLevel: 2
%%Pages: 1
%%BoundingBox:    52   197   551   616
%%EndComments

%%BeginProlog
% MathWorks dictionary
/MathWorks 160 dict begin
% definition operators
/bdef {bind def} bind def
/ldef {load def} bind def
/xdef {exch def} bdef
/xstore {exch store} bdef
% operator abbreviations
/c  /clip ldef
/cc /concat ldef
/cp /closepath ldef
/gr /grestore ldef
/gs /gsave ldef
/mt /moveto ldef
/np /newpath ldef
/cm /currentmatrix ldef
/sm /setmatrix ldef
/rm /rmoveto ldef
/rl /rlineto ldef
/s {show newpath} bdef
/sc {setcmykcolor} bdef
/sr /setrgbcolor ldef
/sg /setgray ldef
/w /setlinewidth ldef
/j /setlinejoin ldef
/cap /setlinecap ldef
/rc {rectclip} bdef
/rf {rectfill} bdef
% page state control
/pgsv () def
/bpage {/pgsv save def} bdef
/epage {pgsv restore} bdef
/bplot /gsave ldef
/eplot {stroke grestore} bdef
% orientation switch
/portraitMode 0 def /landscapeMode 1 def /rotateMode 2 def
% coordinate system mappings
/dpi2point 0 def
% font control
/FontSize 0 def
/FMS {/FontSize xstore findfont [FontSize 0 0 FontSize neg 0 0]
  makefont setfont} bdef
/reencode {exch dup where {pop load} {pop StandardEncoding} ifelse
  exch dup 3 1 roll findfont dup length dict begin
  { 1 index /FID ne {def}{pop pop} ifelse } forall
  /Encoding exch def currentdict end definefont pop} bdef
/isroman {findfont /CharStrings get /Agrave known} bdef
/FMSR {3 1 roll 1 index dup isroman {reencode} {pop pop} ifelse
  exch FMS} bdef
/csm {1 dpi2point div -1 dpi2point div scale neg translate
 dup landscapeMode eq {pop -90 rotate}
  {rotateMode eq {90 rotate} if} ifelse} bdef
% line types: solid, dotted, dashed, dotdash
/SO { [] 0 setdash } bdef
/DO { [.5 dpi2point mul 4 dpi2point mul] 0 setdash } bdef
/DA { [6 dpi2point mul] 0 setdash } bdef
/DD { [.5 dpi2point mul 4 dpi2point mul 6 dpi2point mul 4
  dpi2point mul] 0 setdash } bdef
% macros for lines and objects
/L {lineto stroke} bdef
/MP {3 1 roll moveto 1 sub {rlineto} repeat} bdef
/AP {{rlineto} repeat} bdef
/PDlw -1 def
/W {/PDlw currentlinewidth def setlinewidth} def
/PP {closepath eofill} bdef
/DP {closepath stroke} bdef
/MR {4 -2 roll moveto dup  0 exch rlineto exch 0 rlineto
  neg 0 exch rlineto closepath} bdef
/FR {MR stroke} bdef
/PR {MR fill} bdef
/L1i {{currentfile picstr readhexstring pop} image} bdef
/tMatrix matrix def
/MakeOval {newpath tMatrix currentmatrix pop translate scale
0 0 1 0 360 arc tMatrix setmatrix} bdef
/FO {MakeOval stroke} bdef
/PO {MakeOval fill} bdef
/PD {currentlinewidth 2 div 0 360 arc fill
   PDlw -1 eq not {PDlw w /PDlw -1 def} if} def
/FA {newpath tMatrix currentmatrix pop translate scale
  0 0 1 5 -2 roll arc tMatrix setmatrix stroke} bdef
/PA {newpath tMatrix currentmatrix pop	translate 0 0 moveto scale
  0 0 1 5 -2 roll arc closepath tMatrix setmatrix fill} bdef
/FAn {newpath tMatrix currentmatrix pop translate scale
  0 0 1 5 -2 roll arcn tMatrix setmatrix stroke} bdef
/PAn {newpath tMatrix currentmatrix pop translate 0 0 moveto scale
  0 0 1 5 -2 roll arcn closepath tMatrix setmatrix fill} bdef
/vradius 0 def /hradius 0 def /lry 0 def
/lrx 0 def /uly 0 def /ulx 0 def /rad 0 def
/MRR {/vradius xdef /hradius xdef /lry xdef /lrx xdef /uly xdef
  /ulx xdef newpath tMatrix currentmatrix pop ulx hradius add uly
  vradius add translate hradius vradius scale 0 0 1 180 270 arc 
  tMatrix setmatrix lrx hradius sub uly vradius add translate
  hradius vradius scale 0 0 1 270 360 arc tMatrix setmatrix
  lrx hradius sub lry vradius sub translate hradius vradius scale
  0 0 1 0 90 arc tMatrix setmatrix ulx hradius add lry vradius sub
  translate hradius vradius scale 0 0 1 90 180 arc tMatrix setmatrix
  closepath} bdef
/FRR {MRR stroke } bdef
/PRR {MRR fill } bdef
/MlrRR {/lry xdef /lrx xdef /uly xdef /ulx xdef /rad lry uly sub 2 div def
  newpath tMatrix currentmatrix pop ulx rad add uly rad add translate
  rad rad scale 0 0 1 90 270 arc tMatrix setmatrix lrx rad sub lry rad
  sub translate rad rad scale 0 0 1 270 90 arc tMatrix setmatrix
  closepath} bdef
/FlrRR {MlrRR stroke } bdef
/PlrRR {MlrRR fill } bdef
/MtbRR {/lry xdef /lrx xdef /uly xdef /ulx xdef /rad lrx ulx sub 2 div def
  newpath tMatrix currentmatrix pop ulx rad add uly rad add translate
  rad rad scale 0 0 1 180 360 arc tMatrix setmatrix lrx rad sub lry rad
  sub translate rad rad scale 0 0 1 0 180 arc tMatrix setmatrix
  closepath} bdef
/FtbRR {MtbRR stroke } bdef
/PtbRR {MtbRR fill } bdef
/stri 6 array def /dtri 6 array def
/smat 6 array def /dmat 6 array def
/tmat1 6 array def /tmat2 6 array def /dif 3 array def
/asub {/ind2 exch def /ind1 exch def dup dup
  ind1 get exch ind2 get sub exch } bdef
/tri_to_matrix {
  2 0 asub 3 1 asub 4 0 asub 5 1 asub
  dup 0 get exch 1 get 7 -1 roll astore } bdef
/compute_transform {
  dmat dtri tri_to_matrix tmat1 invertmatrix 
  smat stri tri_to_matrix tmat2 concatmatrix } bdef
/ds {stri astore pop} bdef
/dt {dtri astore pop} bdef
/db {2 copy /cols xdef /rows xdef mul dup 3 mul string
  currentfile 
  3 index 0 eq {/ASCIIHexDecode filter}
  {/ASCII85Decode filter 3 index 2 eq {/RunLengthDecode filter} if }
  ifelse exch readstring pop
  dup 0 3 index getinterval /rbmap xdef
  dup 2 index dup getinterval /gbmap xdef
  1 index dup 2 mul exch getinterval /bbmap xdef pop pop}bdef
/it {gs np dtri aload pop moveto lineto lineto cp c
  cols rows 8 compute_transform 
  rbmap gbmap bbmap true 3 colorimage gr}bdef
/il {newpath moveto lineto stroke}bdef
currentdict end def
%%EndProlog

%%BeginSetup
MathWorks begin

0 cap

end
%%EndSetup

%%Page: 1 1
%%BeginPageSetup
%%PageBoundingBox:    52   197   551   616
MathWorks begin
bpage
%%EndPageSetup

%%BeginObject: obj1
bplot

/dpi2point 12 def
portraitMode 0216 7344 csm

  418   -48  5986  5026 rc
85 dict begin %Colortable dictionary
/c0 { 0.000000 0.000000 0.000000 sr} bdef
/c1 { 1.000000 1.000000 1.000000 sr} bdef
/c2 { 0.900000 0.000000 0.000000 sr} bdef
/c3 { 0.000000 0.820000 0.000000 sr} bdef
/c4 { 0.000000 0.000000 0.800000 sr} bdef
/c5 { 0.910000 0.820000 0.320000 sr} bdef
/c6 { 1.000000 0.260000 0.820000 sr} bdef
/c7 { 0.000000 0.820000 0.820000 sr} bdef
c0
1 j
1 sg
   0    0 6913 5186 rf
6 w
0 4146 5356 0 0 -4146 899 4615 4 MP
PP
-5356 0 0 4146 5356 0 0 -4146 899 4615 5 MP stroke
4 w
DO
SO
6 w
0 sg
 899 4615 mt 6255 4615 L
 899  469 mt 6255  469 L
 899 4615 mt  899  469 L
6255 4615 mt 6255  469 L
 899 4615 mt 6255 4615 L
 899 4615 mt  899  469 L
 899 4615 mt  899 4561 L
 899  469 mt  899  522 L
%%IncludeResource: font Helvetica
/Helvetica /ISOLatin1Encoding 120 FMSR

 866 4760 mt 
(0) s
2684 4615 mt 2684 4561 L
2684  469 mt 2684  522 L
2618 4760 mt 
(50) s
4469 4615 mt 4469 4561 L
4469  469 mt 4469  522 L
4369 4760 mt 
(100) s
6255 4615 mt 6255 4561 L
6255  469 mt 6255  522 L
6155 4760 mt 
(150) s
 899 4615 mt  952 4615 L
6255 4615 mt 6201 4615 L
 798 4659 mt 
(0) s
 899 4200 mt  952 4200 L
6255 4200 mt 6201 4200 L
 731 4244 mt 
(10) s
 899 3785 mt  952 3785 L
6255 3785 mt 6201 3785 L
 731 3829 mt 
(20) s
 899 3371 mt  952 3371 L
6255 3371 mt 6201 3371 L
 731 3415 mt 
(30) s
 899 2956 mt  952 2956 L
6255 2956 mt 6201 2956 L
 731 3000 mt 
(40) s
 899 2542 mt  952 2542 L
6255 2542 mt 6201 2542 L
 731 2586 mt 
(50) s
 899 2127 mt  952 2127 L
6255 2127 mt 6201 2127 L
 731 2171 mt 
(60) s
 899 1712 mt  952 1712 L
6255 1712 mt 6201 1712 L
 731 1756 mt 
(70) s
 899 1298 mt  952 1298 L
6255 1298 mt 6201 1298 L
 731 1342 mt 
(80) s
 899  883 mt  952  883 L
6255  883 mt 6201  883 L
 731  927 mt 
(90) s
 899  469 mt  952  469 L
6255  469 mt 6201  469 L
 664  513 mt 
(100) s
 899 4615 mt 6255 4615 L
 899  469 mt 6255  469 L
 899 4615 mt  899  469 L
6255 4615 mt 6255  469 L
gs 899 469 5357 4147 rc
899 469 PD
76 0 899 469 2 MP stroke
76 0 899 469 2 MP stroke
0 617 997 1557 2 MP stroke
154 0 920 1557 2 MP stroke
154 0 920 2174 2 MP stroke
0 733 1091 1943 2 MP stroke
154 0 1014 1943 2 MP stroke
154 0 1014 2676 2 MP stroke
0 693 1186 2258 2 MP stroke
154 0 1109 2258 2 MP stroke
154 0 1109 2951 2 MP stroke
0 666 1283 2555 2 MP stroke
153 0 1206 2555 2 MP stroke
153 0 1206 3221 2 MP stroke
0 662 1378 2744 2 MP stroke
154 0 1301 2744 2 MP stroke
154 0 1301 3406 2 MP stroke
0 620 1474 2904 2 MP stroke
154 0 1397 2904 2 MP stroke
154 0 1397 3524 2 MP stroke
0 669 1571 3030 2 MP stroke
154 0 1494 3030 2 MP stroke
154 0 1494 3699 2 MP stroke
0 672 1665 3108 2 MP stroke
154 0 1588 3108 2 MP stroke
154 0 1588 3780 2 MP stroke
0 601 1759 3278 2 MP stroke
154 0 1682 3278 2 MP stroke
154 0 1682 3879 2 MP stroke
0 582 1857 3388 2 MP stroke
153 0 1780 3388 2 MP stroke
153 0 1780 3970 2 MP stroke
0 571 1954 3372 2 MP stroke
154 0 1877 3372 2 MP stroke
154 0 1877 3943 2 MP stroke
0 624 2049 3499 2 MP stroke
154 0 1972 3499 2 MP stroke
154 0 1972 4123 2 MP stroke
0 489 2144 3581 2 MP stroke
154 0 2067 3581 2 MP stroke
154 0 2067 4070 2 MP stroke
0 532 2241 3593 2 MP stroke
154 0 2164 3593 2 MP stroke
154 0 2164 4125 2 MP stroke
0 527 2337 3637 2 MP stroke
154 0 2260 3637 2 MP stroke
154 0 2260 4164 2 MP stroke
0 519 2432 3686 2 MP stroke
154 0 2355 3686 2 MP stroke
154 0 2355 4205 2 MP stroke
0 508 2529 3772 2 MP stroke
154 0 2452 3772 2 MP stroke
154 0 2452 4280 2 MP stroke
0 481 2624 3779 2 MP stroke
154 0 2547 3779 2 MP stroke
154 0 2547 4260 2 MP stroke
0 436 2719 3832 2 MP stroke
154 0 2642 3832 2 MP stroke
154 0 2642 4268 2 MP stroke
0 410 2815 3901 2 MP stroke
154 0 2738 3901 2 MP stroke
154 0 2738 4311 2 MP stroke
0 421 2912 3895 2 MP stroke
154 0 2835 3895 2 MP stroke
154 0 2835 4316 2 MP stroke
0 425 3006 3939 2 MP stroke
154 0 2929 3939 2 MP stroke
154 0 2929 4364 2 MP stroke
0 419 3104 3941 2 MP stroke
154 0 3027 3941 2 MP stroke
154 0 3027 4360 2 MP stroke
0 397 3200 3993 2 MP stroke
154 0 3123 3993 2 MP stroke
154 0 3123 4390 2 MP stroke
0 477 3295 3947 2 MP stroke
154 0 3218 3947 2 MP stroke
154 0 3218 4424 2 MP stroke
0 446 3391 3989 2 MP stroke
154 0 3314 3989 2 MP stroke
154 0 3314 4435 2 MP stroke
0 477 3487 3963 2 MP stroke
154 0 3410 3963 2 MP stroke
154 0 3410 4440 2 MP stroke
0 382 3582 4061 2 MP stroke
154 0 3505 4061 2 MP stroke
154 0 3505 4443 2 MP stroke
0 416 3680 4056 2 MP stroke
154 0 3603 4056 2 MP stroke
154 0 3603 4472 2 MP stroke
0 387 3774 4065 2 MP stroke
154 0 3697 4065 2 MP stroke
154 0 3697 4452 2 MP stroke
0 392 3870 4119 2 MP stroke
154 0 3793 4119 2 MP stroke
154 0 3793 4511 2 MP stroke
0 390 3966 4098 2 MP stroke
154 0 3889 4098 2 MP stroke
154 0 3889 4488 2 MP stroke
0 357 4061 4149 2 MP stroke
154 0 3984 4149 2 MP stroke
154 0 3984 4506 2 MP stroke
0 364 4158 4147 2 MP stroke
154 0 4081 4147 2 MP stroke
154 0 4081 4511 2 MP stroke
0 349 4255 4168 2 MP stroke
154 0 4178 4168 2 MP stroke
154 0 4178 4517 2 MP stroke
0 367 4348 4176 2 MP stroke
153 0 4272 4176 2 MP stroke
153 0 4272 4543 2 MP stroke
0 306 4446 4234 2 MP stroke
154 0 4369 4234 2 MP stroke
154 0 4369 4540 2 MP stroke
0 309 4541 4209 2 MP stroke
154 0 4464 4209 2 MP stroke
154 0 4464 4518 2 MP stroke
0 337 4637 4216 2 MP stroke
154 0 4560 4216 2 MP stroke
154 0 4560 4553 2 MP stroke
0 349 4735 4221 2 MP stroke
154 0 4658 4221 2 MP stroke
154 0 4658 4570 2 MP stroke
0 348 4833 4261 2 MP stroke
154 0 4756 4261 2 MP stroke
154 0 4756 4609 2 MP stroke
0 318 4934 4263 2 MP stroke
154 0 4857 4263 2 MP stroke
154 0 4857 4581 2 MP stroke
0 278 5036 4291 2 MP stroke
154 0 4959 4291 2 MP stroke
154 0 4959 4569 2 MP stroke
0 257 5137 4295 2 MP stroke
154 0 5060 4295 2 MP stroke
154 0 5060 4552 2 MP stroke
0 324 5237 4286 2 MP stroke
154 0 5160 4286 2 MP stroke
154 0 5160 4610 2 MP stroke
0 280 5344 4336 2 MP stroke
154 0 5267 4336 2 MP stroke
0 303 5450 4308 2 MP stroke
154 0 5373 4308 2 MP stroke
154 0 5373 4611 2 MP stroke
0 289 5553 4327 2 MP stroke
154 0 5476 4327 2 MP stroke
0 334 5662 4282 2 MP stroke
154 0 5585 4282 2 MP stroke
0 234 5772 4374 2 MP stroke
154 0 5695 4374 2 MP stroke
154 0 5695 4608 2 MP stroke
0 196 5896 4411 2 MP stroke
153 0 5819 4411 2 MP stroke
153 0 5819 4607 2 MP stroke
0 221 6022 4395 2 MP stroke
153 0 5945 4395 2 MP stroke
0 128 6160 4488 2 MP stroke
154 0 6083 4488 2 MP stroke
10 0 6246 4475 2 MP stroke
96 5 138 48 126 -1 124 18 110 39 109 -20 103 13 106 -19 
107 30 100 25 101 -7 102 8 101 -13 98 39 98 11 96 21 
95 -23 98 27 93 17 97 14 97 2 95 34 96 -22 96 56 
94 -5 98 12 95 51 96 -11 96 27 95 -7 96 41 98 -1 
94 46 97 0 96 56 95 31 95 -7 97 80 95 45 96 42 
97 34 95 14 95 153 97 -21 98 100 94 135 94 80 97 150 
96 139 95 187 97 284 95 295 94 444 98 1396 899 469 55 MP stroke
gr

 874  444 mt  924  494 L
 924  444 mt  874  494 L
 972 1840 mt 1022 1890 L
1022 1840 mt  972 1890 L
1066 2284 mt 1116 2334 L
1116 2284 mt 1066 2334 L
1161 2579 mt 1211 2629 L
1211 2579 mt 1161 2629 L
1258 2863 mt 1308 2913 L
1308 2863 mt 1258 2913 L
1353 3050 mt 1403 3100 L
1403 3050 mt 1353 3100 L
1449 3189 mt 1499 3239 L
1499 3189 mt 1449 3239 L
1546 3339 mt 1596 3389 L
1596 3339 mt 1546 3389 L
1640 3419 mt 1690 3469 L
1690 3419 mt 1640 3469 L
1734 3554 mt 1784 3604 L
1784 3554 mt 1734 3604 L
1832 3654 mt 1882 3704 L
1882 3654 mt 1832 3704 L
1929 3633 mt 1979 3683 L
1979 3633 mt 1929 3683 L
2024 3786 mt 2074 3836 L
2074 3786 mt 2024 3836 L
2119 3800 mt 2169 3850 L
2169 3800 mt 2119 3850 L
2216 3834 mt 2266 3884 L
2266 3834 mt 2216 3884 L
2312 3876 mt 2362 3926 L
2362 3876 mt 2312 3926 L
2407 3921 mt 2457 3971 L
2457 3921 mt 2407 3971 L
2504 4001 mt 2554 4051 L
2554 4001 mt 2504 4051 L
2599 3994 mt 2649 4044 L
2649 3994 mt 2599 4044 L
2694 4025 mt 2744 4075 L
2744 4025 mt 2694 4075 L
2790 4081 mt 2840 4131 L
2840 4081 mt 2790 4131 L
2887 4081 mt 2937 4131 L
2937 4081 mt 2887 4131 L
2981 4127 mt 3031 4177 L
3031 4127 mt 2981 4177 L
3079 4126 mt 3129 4176 L
3129 4126 mt 3079 4176 L
3175 4167 mt 3225 4217 L
3225 4167 mt 3175 4217 L
3270 4160 mt 3320 4210 L
3320 4160 mt 3270 4210 L
3366 4187 mt 3416 4237 L
3416 4187 mt 3366 4237 L
3462 4176 mt 3512 4226 L
3512 4176 mt 3462 4226 L
3557 4227 mt 3607 4277 L
3607 4227 mt 3557 4277 L
3655 4239 mt 3705 4289 L
3705 4239 mt 3655 4289 L
3749 4234 mt 3799 4284 L
3799 4234 mt 3749 4284 L
3845 4290 mt 3895 4340 L
3895 4290 mt 3845 4340 L
3941 4268 mt 3991 4318 L
3991 4268 mt 3941 4318 L
4036 4302 mt 4086 4352 L
4086 4302 mt 4036 4352 L
4133 4304 mt 4183 4354 L
4183 4304 mt 4133 4354 L
4230 4318 mt 4280 4368 L
4280 4318 mt 4230 4368 L
4323 4335 mt 4373 4385 L
4373 4335 mt 4323 4385 L
4421 4362 mt 4471 4412 L
4471 4362 mt 4421 4412 L
4516 4339 mt 4566 4389 L
4566 4339 mt 4516 4389 L
4612 4360 mt 4662 4410 L
4662 4360 mt 4612 4410 L
4710 4371 mt 4760 4421 L
4760 4371 mt 4710 4421 L
4808 4410 mt 4858 4460 L
4858 4410 mt 4808 4460 L
4909 4397 mt 4959 4447 L
4959 4397 mt 4909 4447 L
5011 4405 mt 5061 4455 L
5061 4405 mt 5011 4455 L
5112 4398 mt 5162 4448 L
5162 4398 mt 5112 4448 L
5212 4423 mt 5262 4473 L
5262 4423 mt 5212 4473 L
5319 4453 mt 5369 4503 L
5369 4453 mt 5319 4503 L
5425 4434 mt 5475 4484 L
5475 4434 mt 5425 4484 L
5528 4447 mt 5578 4497 L
5578 4447 mt 5528 4497 L
5637 4427 mt 5687 4477 L
5687 4427 mt 5637 4477 L
5747 4466 mt 5797 4516 L
5797 4466 mt 5747 4516 L
5871 4484 mt 5921 4534 L
5921 4484 mt 5871 4534 L
5997 4483 mt 6047 4533 L
6047 4483 mt 5997 4533 L
6135 4531 mt 6185 4581 L
6185 4531 mt 6135 4581 L
gs 899 469 5357 4147 rc
899 469 PD
76 0 899 469 2 MP stroke
76 0 899 469 2 MP stroke
0 503 997 469 2 MP stroke
154 0 920 972 2 MP stroke
0 588 1091 533 2 MP stroke
154 0 1014 533 2 MP stroke
154 0 1014 1121 2 MP stroke
0 576 1186 676 2 MP stroke
154 0 1109 676 2 MP stroke
154 0 1109 1252 2 MP stroke
0 835 1283 634 2 MP stroke
153 0 1206 634 2 MP stroke
153 0 1206 1469 2 MP stroke
0 813 1378 706 2 MP stroke
154 0 1301 706 2 MP stroke
154 0 1301 1519 2 MP stroke
0 859 1474 815 2 MP stroke
154 0 1397 815 2 MP stroke
154 0 1397 1674 2 MP stroke
0 714 1571 1085 2 MP stroke
154 0 1494 1085 2 MP stroke
154 0 1494 1799 2 MP stroke
0 755 1665 1003 2 MP stroke
154 0 1588 1003 2 MP stroke
154 0 1588 1758 2 MP stroke
0 824 1759 1056 2 MP stroke
154 0 1682 1056 2 MP stroke
154 0 1682 1880 2 MP stroke
0 826 1857 1191 2 MP stroke
153 0 1780 1191 2 MP stroke
153 0 1780 2017 2 MP stroke
0 738 1954 1174 2 MP stroke
154 0 1877 1174 2 MP stroke
154 0 1877 1912 2 MP stroke
0 923 2049 1295 2 MP stroke
154 0 1972 1295 2 MP stroke
154 0 1972 2218 2 MP stroke
0 854 2144 1312 2 MP stroke
154 0 2067 1312 2 MP stroke
154 0 2067 2166 2 MP stroke
0 721 2241 1391 2 MP stroke
154 0 2164 1391 2 MP stroke
154 0 2164 2112 2 MP stroke
0 799 2337 1436 2 MP stroke
154 0 2260 1436 2 MP stroke
154 0 2260 2235 2 MP stroke
0 781 2432 1454 2 MP stroke
154 0 2355 1454 2 MP stroke
154 0 2355 2235 2 MP stroke
0 725 2529 1627 2 MP stroke
154 0 2452 1627 2 MP stroke
154 0 2452 2352 2 MP stroke
0 937 2624 1525 2 MP stroke
154 0 2547 1525 2 MP stroke
154 0 2547 2462 2 MP stroke
0 857 2719 1631 2 MP stroke
154 0 2642 1631 2 MP stroke
154 0 2642 2488 2 MP stroke
0 762 2815 1740 2 MP stroke
154 0 2738 1740 2 MP stroke
154 0 2738 2502 2 MP stroke
0 906 2912 1728 2 MP stroke
154 0 2835 1728 2 MP stroke
154 0 2835 2634 2 MP stroke
0 994 3006 1757 2 MP stroke
154 0 2929 1757 2 MP stroke
154 0 2929 2751 2 MP stroke
0 934 3104 1741 2 MP stroke
154 0 3027 1741 2 MP stroke
154 0 3027 2675 2 MP stroke
0 851 3200 1926 2 MP stroke
154 0 3123 1926 2 MP stroke
154 0 3123 2777 2 MP stroke
0 966 3295 1870 2 MP stroke
154 0 3218 1870 2 MP stroke
154 0 3218 2836 2 MP stroke
0 991 3391 1936 2 MP stroke
154 0 3314 1936 2 MP stroke
154 0 3314 2927 2 MP stroke
0 913 3487 1973 2 MP stroke
154 0 3410 1973 2 MP stroke
154 0 3410 2886 2 MP stroke
0 893 3582 2041 2 MP stroke
154 0 3505 2041 2 MP stroke
154 0 3505 2934 2 MP stroke
0 867 3680 2046 2 MP stroke
154 0 3603 2046 2 MP stroke
154 0 3603 2913 2 MP stroke
0 1021 3774 1977 2 MP stroke
154 0 3697 1977 2 MP stroke
154 0 3697 2998 2 MP stroke
0 817 3870 2294 2 MP stroke
154 0 3793 2294 2 MP stroke
154 0 3793 3111 2 MP stroke
0 943 3966 2186 2 MP stroke
154 0 3889 2186 2 MP stroke
154 0 3889 3129 2 MP stroke
0 906 4061 2225 2 MP stroke
154 0 3984 2225 2 MP stroke
154 0 3984 3131 2 MP stroke
0 863 4158 2276 2 MP stroke
154 0 4081 2276 2 MP stroke
154 0 4081 3139 2 MP stroke
0 907 4255 2232 2 MP stroke
154 0 4178 2232 2 MP stroke
154 0 4178 3139 2 MP stroke
0 992 4348 2271 2 MP stroke
153 0 4272 2271 2 MP stroke
153 0 4272 3263 2 MP stroke
0 947 4446 2300 2 MP stroke
154 0 4369 2300 2 MP stroke
154 0 4369 3247 2 MP stroke
0 835 4541 2400 2 MP stroke
154 0 4464 2400 2 MP stroke
154 0 4464 3235 2 MP stroke
0 972 4637 2313 2 MP stroke
154 0 4560 2313 2 MP stroke
154 0 4560 3285 2 MP stroke
0 875 4735 2443 2 MP stroke
154 0 4658 2443 2 MP stroke
154 0 4658 3318 2 MP stroke
0 928 4833 2465 2 MP stroke
154 0 4756 2465 2 MP stroke
154 0 4756 3393 2 MP stroke
0 983 4934 2469 2 MP stroke
154 0 4857 2469 2 MP stroke
154 0 4857 3452 2 MP stroke
0 944 5036 2496 2 MP stroke
154 0 4959 2496 2 MP stroke
154 0 4959 3440 2 MP stroke
0 995 5137 2500 2 MP stroke
154 0 5060 2500 2 MP stroke
154 0 5060 3495 2 MP stroke
0 880 5237 2574 2 MP stroke
154 0 5160 2574 2 MP stroke
154 0 5160 3454 2 MP stroke
0 1038 5344 2528 2 MP stroke
154 0 5267 2528 2 MP stroke
154 0 5267 3566 2 MP stroke
0 1048 5450 2551 2 MP stroke
154 0 5373 2551 2 MP stroke
154 0 5373 3599 2 MP stroke
0 965 5553 2554 2 MP stroke
154 0 5476 2554 2 MP stroke
154 0 5476 3519 2 MP stroke
0 1063 5662 2554 2 MP stroke
154 0 5585 2554 2 MP stroke
154 0 5585 3617 2 MP stroke
0 1006 5772 2582 2 MP stroke
154 0 5695 2582 2 MP stroke
154 0 5695 3588 2 MP stroke
0 1001 5896 2618 2 MP stroke
153 0 5819 2618 2 MP stroke
153 0 5819 3619 2 MP stroke
0 925 6022 2763 2 MP stroke
153 0 5945 2763 2 MP stroke
153 0 5945 3688 2 MP stroke
0 1044 6160 2580 2 MP stroke
154 0 6083 2580 2 MP stroke
154 0 6083 3624 2 MP stroke
10 0 6246 2821 2 MP stroke
10 0 6246 3722 2 MP stroke
96 99 138 -124 126 108 124 33 110 0 109 48 103 -38 106 28 
107 33 100 17 101 29 102 7 101 32 98 48 98 82 96 -18 
95 44 98 6 93 82 97 -22 97 29 95 21 96 -45 96 215 
94 7 98 -8 95 59 96 -2 96 78 95 1 96 144 98 -46 
94 73 97 60 96 61 95 66 95 4 97 145 95 9 96 84 
97 13 95 -18 95 214 97 -61 98 136 94 88 94 -62 97 198 
96 131 95 62 97 87 95 137 94 124 98 234 899 469 55 MP stroke
gr

 874  444 mt  924  494 L
 924  444 mt  874  494 L
 972  678 mt 1022  728 L
1022  678 mt  972  728 L
1066  802 mt 1116  852 L
1116  802 mt 1066  852 L
1161  939 mt 1211  989 L
1211  939 mt 1161  989 L
1258 1026 mt 1308 1076 L
1308 1026 mt 1258 1076 L
1353 1088 mt 1403 1138 L
1403 1088 mt 1353 1138 L
1449 1219 mt 1499 1269 L
1499 1219 mt 1449 1269 L
1546 1417 mt 1596 1467 L
1596 1417 mt 1546 1467 L
1640 1355 mt 1690 1405 L
1690 1355 mt 1640 1405 L
1734 1443 mt 1784 1493 L
1784 1443 mt 1734 1493 L
1832 1579 mt 1882 1629 L
1882 1579 mt 1832 1629 L
1929 1518 mt 1979 1568 L
1979 1518 mt 1929 1568 L
2024 1732 mt 2074 1782 L
2074 1732 mt 2024 1782 L
2119 1714 mt 2169 1764 L
2169 1714 mt 2119 1764 L
2216 1727 mt 2266 1777 L
2266 1727 mt 2216 1777 L
2312 1811 mt 2362 1861 L
2362 1811 mt 2312 1861 L
2407 1820 mt 2457 1870 L
2457 1820 mt 2407 1870 L
2504 1965 mt 2554 2015 L
2554 1965 mt 2504 2015 L
2599 1969 mt 2649 2019 L
2649 1969 mt 2599 2019 L
2694 2035 mt 2744 2085 L
2744 2035 mt 2694 2085 L
2790 2096 mt 2840 2146 L
2840 2096 mt 2790 2146 L
2887 2156 mt 2937 2206 L
2937 2156 mt 2887 2206 L
2981 2229 mt 3031 2279 L
3031 2229 mt 2981 2279 L
3079 2183 mt 3129 2233 L
3129 2183 mt 3079 2233 L
3175 2327 mt 3225 2377 L
3225 2327 mt 3175 2377 L
3270 2328 mt 3320 2378 L
3320 2328 mt 3270 2378 L
3366 2406 mt 3416 2456 L
3416 2406 mt 3366 2456 L
3462 2404 mt 3512 2454 L
3512 2404 mt 3462 2454 L
3557 2463 mt 3607 2513 L
3607 2463 mt 3557 2513 L
3655 2455 mt 3705 2505 L
3705 2455 mt 3655 2505 L
3749 2462 mt 3799 2512 L
3799 2462 mt 3749 2512 L
3845 2677 mt 3895 2727 L
3895 2677 mt 3845 2727 L
3941 2632 mt 3991 2682 L
3991 2632 mt 3941 2682 L
4036 2653 mt 4086 2703 L
4086 2653 mt 4036 2703 L
4133 2682 mt 4183 2732 L
4183 2682 mt 4133 2732 L
4230 2660 mt 4280 2710 L
4280 2660 mt 4230 2710 L
4323 2742 mt 4373 2792 L
4373 2742 mt 4323 2792 L
4421 2748 mt 4471 2798 L
4471 2748 mt 4421 2798 L
4516 2792 mt 4566 2842 L
4566 2792 mt 4516 2842 L
4612 2774 mt 4662 2824 L
4662 2774 mt 4612 2824 L
4710 2856 mt 4760 2906 L
4760 2856 mt 4710 2906 L
4808 2904 mt 4858 2954 L
4858 2904 mt 4808 2954 L
4909 2936 mt 4959 2986 L
4959 2936 mt 4909 2986 L
5011 2943 mt 5061 2993 L
5061 2943 mt 5011 2993 L
5112 2972 mt 5162 3022 L
5162 2972 mt 5112 3022 L
5212 2989 mt 5262 3039 L
5262 2989 mt 5212 3039 L
5319 3022 mt 5369 3072 L
5369 3022 mt 5319 3072 L
5425 3050 mt 5475 3100 L
5475 3050 mt 5425 3100 L
5528 3012 mt 5578 3062 L
5578 3012 mt 5528 3062 L
5637 3060 mt 5687 3110 L
5687 3060 mt 5637 3110 L
5747 3060 mt 5797 3110 L
5797 3060 mt 5747 3110 L
5871 3093 mt 5921 3143 L
5921 3093 mt 5871 3143 L
5997 3201 mt 6047 3251 L
6047 3201 mt 5997 3251 L
6135 3077 mt 6185 3127 L
6185 3077 mt 6135 3127 L
gs 899 469 5357 4147 rc
/c8 { 1.000000 0.000000 0.000000 sr} bdef
c8
899 485 PD
899 469 PD
71 0 899 469 2 MP stroke
71 0 899 469 2 MP stroke
0 146 970 943 2 MP stroke
142 0 899 943 2 MP stroke
142 0 899 1089 2 MP stroke
0 241 1041 1300 2 MP stroke
143 0 970 1300 2 MP stroke
143 0 970 1541 2 MP stroke
0 285 1113 1615 2 MP stroke
143 0 1041 1615 2 MP stroke
143 0 1041 1900 2 MP stroke
0 332 1184 1899 2 MP stroke
143 0 1113 1899 2 MP stroke
143 0 1113 2231 2 MP stroke
0 375 1256 2154 2 MP stroke
143 0 1184 2154 2 MP stroke
143 0 1184 2529 2 MP stroke
0 394 1327 2389 2 MP stroke
142 0 1256 2389 2 MP stroke
142 0 1256 2783 2 MP stroke
0 402 1398 2587 2 MP stroke
143 0 1327 2587 2 MP stroke
143 0 1327 2989 2 MP stroke
0 400 1470 2772 2 MP stroke
143 0 1398 2772 2 MP stroke
143 0 1398 3172 2 MP stroke
0 400 1541 2933 2 MP stroke
143 0 1470 2933 2 MP stroke
143 0 1470 3333 2 MP stroke
0 391 1613 3087 2 MP stroke
143 0 1541 3087 2 MP stroke
143 0 1541 3478 2 MP stroke
0 357 1684 3234 2 MP stroke
142 0 1613 3234 2 MP stroke
142 0 1613 3591 2 MP stroke
0 331 1755 3359 2 MP stroke
143 0 1684 3359 2 MP stroke
143 0 1684 3690 2 MP stroke
0 327 1827 3455 2 MP stroke
143 0 1755 3455 2 MP stroke
143 0 1755 3782 2 MP stroke
0 315 1898 3545 2 MP stroke
143 0 1827 3545 2 MP stroke
143 0 1827 3860 2 MP stroke
0 294 1970 3635 2 MP stroke
143 0 1898 3635 2 MP stroke
143 0 1898 3929 2 MP stroke
0 281 2041 3715 2 MP stroke
143 0 1970 3715 2 MP stroke
143 0 1970 3996 2 MP stroke
0 276 2113 3778 2 MP stroke
143 0 2041 3778 2 MP stroke
143 0 2041 4054 2 MP stroke
0 243 2184 3848 2 MP stroke
142 0 2113 3848 2 MP stroke
142 0 2113 4091 2 MP stroke
0 231 2255 3902 2 MP stroke
143 0 2184 3902 2 MP stroke
143 0 2184 4133 2 MP stroke
0 226 2327 3943 2 MP stroke
143 0 2255 3943 2 MP stroke
143 0 2255 4169 2 MP stroke
0 214 2398 3990 2 MP stroke
143 0 2327 3990 2 MP stroke
143 0 2327 4204 2 MP stroke
0 208 2470 4025 2 MP stroke
143 0 2398 4025 2 MP stroke
143 0 2398 4233 2 MP stroke
0 191 2541 4066 2 MP stroke
142 0 2470 4066 2 MP stroke
142 0 2470 4257 2 MP stroke
0 181 2612 4095 2 MP stroke
143 0 2541 4095 2 MP stroke
143 0 2541 4276 2 MP stroke
0 170 2684 4129 2 MP stroke
143 0 2612 4129 2 MP stroke
143 0 2612 4299 2 MP stroke
0 159 2755 4160 2 MP stroke
143 0 2684 4160 2 MP stroke
143 0 2684 4319 2 MP stroke
0 147 2827 4186 2 MP stroke
143 0 2755 4186 2 MP stroke
143 0 2755 4333 2 MP stroke
0 145 2898 4206 2 MP stroke
142 0 2827 4206 2 MP stroke
142 0 2827 4351 2 MP stroke
0 131 2969 4231 2 MP stroke
143 0 2898 4231 2 MP stroke
143 0 2898 4362 2 MP stroke
0 129 3041 4247 2 MP stroke
143 0 2969 4247 2 MP stroke
143 0 2969 4376 2 MP stroke
0 122 3112 4268 2 MP stroke
143 0 3041 4268 2 MP stroke
143 0 3041 4390 2 MP stroke
0 114 3184 4286 2 MP stroke
143 0 3112 4286 2 MP stroke
143 0 3112 4400 2 MP stroke
0 106 3255 4301 2 MP stroke
143 0 3184 4301 2 MP stroke
143 0 3184 4407 2 MP stroke
0 110 3327 4312 2 MP stroke
143 0 3255 4312 2 MP stroke
143 0 3255 4422 2 MP stroke
0 101 3398 4325 2 MP stroke
142 0 3327 4325 2 MP stroke
142 0 3327 4426 2 MP stroke
0 105 3469 4331 2 MP stroke
143 0 3398 4331 2 MP stroke
143 0 3398 4436 2 MP stroke
0 96 3541 4342 2 MP stroke
143 0 3469 4342 2 MP stroke
143 0 3469 4438 2 MP stroke
0 99 3612 4350 2 MP stroke
143 0 3541 4350 2 MP stroke
143 0 3541 4449 2 MP stroke
0 95 3684 4362 2 MP stroke
143 0 3612 4362 2 MP stroke
143 0 3612 4457 2 MP stroke
0 99 3755 4372 2 MP stroke
142 0 3684 4372 2 MP stroke
142 0 3684 4471 2 MP stroke
0 104 3826 4372 2 MP stroke
143 0 3755 4372 2 MP stroke
143 0 3755 4476 2 MP stroke
0 98 3898 4384 2 MP stroke
143 0 3826 4384 2 MP stroke
143 0 3826 4482 2 MP stroke
0 92 3969 4391 2 MP stroke
143 0 3898 4391 2 MP stroke
143 0 3898 4483 2 MP stroke
0 98 4041 4391 2 MP stroke
143 0 3969 4391 2 MP stroke
143 0 3969 4489 2 MP stroke
0 110 4112 4390 2 MP stroke
143 0 4041 4390 2 MP stroke
143 0 4041 4500 2 MP stroke
0 104 4184 4402 2 MP stroke
143 0 4112 4402 2 MP stroke
143 0 4112 4506 2 MP stroke
0 104 4255 4402 2 MP stroke
142 0 4184 4402 2 MP stroke
142 0 4184 4506 2 MP stroke
0 98 4326 4413 2 MP stroke
143 0 4255 4413 2 MP stroke
143 0 4255 4511 2 MP stroke
0 99 4398 4415 2 MP stroke
143 0 4326 4415 2 MP stroke
143 0 4326 4514 2 MP stroke
0 94 4469 4419 2 MP stroke
143 0 4398 4419 2 MP stroke
143 0 4398 4513 2 MP stroke
0 94 4541 4422 2 MP stroke
143 0 4469 4422 2 MP stroke
143 0 4469 4516 2 MP stroke
0 88 4612 4430 2 MP stroke
142 0 4541 4430 2 MP stroke
142 0 4541 4518 2 MP stroke
0 81 4683 4438 2 MP stroke
143 0 4612 4438 2 MP stroke
143 0 4612 4519 2 MP stroke
0 75 4755 4446 2 MP stroke
143 0 4683 4446 2 MP stroke
143 0 4683 4521 2 MP stroke
0 70 4826 4451 2 MP stroke
143 0 4755 4451 2 MP stroke
143 0 4755 4521 2 MP stroke
0 68 4898 4451 2 MP stroke
143 0 4826 4451 2 MP stroke
143 0 4826 4519 2 MP stroke
0 68 4969 4457 2 MP stroke
142 0 4898 4457 2 MP stroke
142 0 4898 4525 2 MP stroke
0 67 5040 4460 2 MP stroke
143 0 4969 4460 2 MP stroke
143 0 4969 4527 2 MP stroke
0 77 5112 4457 2 MP stroke
143 0 5040 4457 2 MP stroke
143 0 5040 4534 2 MP stroke
0 78 5183 4457 2 MP stroke
143 0 5112 4457 2 MP stroke
143 0 5112 4535 2 MP stroke
0 78 5255 4458 2 MP stroke
143 0 5183 4458 2 MP stroke
143 0 5183 4536 2 MP stroke
0 85 5326 4457 2 MP stroke
143 0 5255 4457 2 MP stroke
143 0 5255 4542 2 MP stroke
0 79 5398 4465 2 MP stroke
143 0 5326 4465 2 MP stroke
143 0 5326 4544 2 MP stroke
0 78 5469 4469 2 MP stroke
142 0 5398 4469 2 MP stroke
142 0 5398 4547 2 MP stroke
0 80 5540 4467 2 MP stroke
143 0 5469 4467 2 MP stroke
143 0 5469 4547 2 MP stroke
0 77 5612 4473 2 MP stroke
143 0 5540 4473 2 MP stroke
143 0 5540 4550 2 MP stroke
0 78 5683 4475 2 MP stroke
143 0 5612 4475 2 MP stroke
143 0 5612 4553 2 MP stroke
0 72 5755 4481 2 MP stroke
143 0 5683 4481 2 MP stroke
143 0 5683 4553 2 MP stroke
0 71 5826 4482 2 MP stroke
142 0 5755 4482 2 MP stroke
142 0 5755 4553 2 MP stroke
0 68 5897 4482 2 MP stroke
143 0 5826 4482 2 MP stroke
143 0 5826 4550 2 MP stroke
0 66 5969 4483 2 MP stroke
143 0 5897 4483 2 MP stroke
143 0 5897 4549 2 MP stroke
0 65 6040 4486 2 MP stroke
143 0 5969 4486 2 MP stroke
143 0 5969 4551 2 MP stroke
0 63 6112 4490 2 MP stroke
143 0 6040 4490 2 MP stroke
143 0 6040 4553 2 MP stroke
0 62 6183 4492 2 MP stroke
143 0 6112 4492 2 MP stroke
143 0 6112 4554 2 MP stroke
0 67 6255 4492 2 MP stroke
73 0 6183 4492 2 MP stroke
73 0 6183 4559 2 MP stroke
72 2 71 1 72 3 71 3 72 0 71 -2 71 1 72 3 
71 3 72 4 71 -1 71 3 72 5 71 3 72 1 71 1 
72 1 71 3 71 6 72 -1 71 3 72 4 71 5 71 5 
72 3 71 2 72 2 71 8 71 0 72 9 71 5 72 3 
71 4 72 9 71 3 71 12 72 9 71 10 72 6 71 8 
71 9 72 13 71 11 72 14 71 17 72 15 71 19 71 19 
72 19 71 26 72 28 71 24 71 33 72 32 71 41 72 38 
71 49 71 53 72 60 71 74 72 80 71 84 72 93 71 113 
71 130 72 149 71 161 72 184 71 202 71 244 72 277 71 307 
72 338 71 404 71 547 899 469 76 MP stroke
gr

c8
  36   36  970 1016 FO
  36   36 1041 1420 FO
  36   36 1113 1758 FO
  36   36 1184 2065 FO
  36   36 1256 2342 FO
  36   36 1327 2586 FO
  36   36 1398 2788 FO
  36   36 1470 2972 FO
  36   36 1541 3133 FO
  36   36 1613 3282 FO
  36   36 1684 3412 FO
  36   36 1755 3525 FO
  36   36 1827 3618 FO
  36   36 1898 3702 FO
  36   36 1970 3782 FO
  36   36 2041 3856 FO
  36   36 2113 3916 FO
  36   36 2184 3969 FO
  36   36 2255 4018 FO
  36   36 2327 4056 FO
  36   36 2398 4097 FO
  36   36 2470 4129 FO
  36   36 2541 4162 FO
  36   36 2612 4186 FO
  36   36 2684 4214 FO
  36   36 2755 4240 FO
  36   36 2827 4259 FO
  36   36 2898 4278 FO
  36   36 2969 4297 FO
  36   36 3041 4312 FO
  36   36 3112 4329 FO
  36   36 3184 4343 FO
  36   36 3255 4354 FO
  36   36 3327 4367 FO
  36   36 3398 4376 FO
  36   36 3469 4384 FO
  36   36 3541 4390 FO
  36   36 3612 4400 FO
  36   36 3684 4409 FO
  36   36 3755 4421 FO
  36   36 3826 4424 FO
  36   36 3898 4433 FO
  36   36 3969 4437 FO
  36   36 4041 4440 FO
  36   36 4112 4445 FO
  36   36 4184 4454 FO
  36   36 4255 4454 FO
  36   36 4326 4462 FO
  36   36 4398 4464 FO
  36   36 4469 4466 FO
  36   36 4541 4469 FO
  36   36 4612 4474 FO
  36   36 4683 4479 FO
  36   36 4755 4483 FO
  36   36 4826 4486 FO
  36   36 4898 4485 FO
  36   36 4969 4491 FO
  36   36 5040 4494 FO
  36   36 5112 4495 FO
  36   36 5183 4496 FO
  36   36 5255 4497 FO
  36   36 5326 4500 FO
  36   36 5398 4505 FO
  36   36 5469 4508 FO
  36   36 5540 4507 FO
  36   36 5612 4511 FO
  36   36 5683 4514 FO
  36   36 5755 4517 FO
  36   36 5826 4518 FO
  36   36 5897 4516 FO
  36   36 5969 4516 FO
  36   36 6040 4519 FO
  36   36 6112 4522 FO
  36   36 6183 4523 FO
  36   36 6255 4525 FO
gs 899 469 5357 4147 rc
/c9 { 0.000000 0.500000 0.000000 sr} bdef
c9
899 516 PD
899 469 PD
71 0 899 469 2 MP stroke
71 0 899 469 2 MP stroke
0 38 970 469 2 MP stroke
142 0 899 507 2 MP stroke
0 76 1041 469 2 MP stroke
143 0 970 545 2 MP stroke
0 103 1113 469 2 MP stroke
143 0 1041 572 2 MP stroke
0 151 1184 471 2 MP stroke
143 0 1113 471 2 MP stroke
143 0 1113 622 2 MP stroke
0 207 1256 469 2 MP stroke
143 0 1184 676 2 MP stroke
0 263 1327 469 2 MP stroke
142 0 1256 732 2 MP stroke
0 305 1398 488 2 MP stroke
143 0 1327 488 2 MP stroke
143 0 1327 793 2 MP stroke
0 330 1470 525 2 MP stroke
143 0 1398 525 2 MP stroke
143 0 1398 855 2 MP stroke
0 335 1541 574 2 MP stroke
143 0 1470 574 2 MP stroke
143 0 1470 909 2 MP stroke
0 355 1613 617 2 MP stroke
143 0 1541 617 2 MP stroke
143 0 1541 972 2 MP stroke
0 388 1684 655 2 MP stroke
142 0 1613 655 2 MP stroke
142 0 1613 1043 2 MP stroke
0 382 1755 712 2 MP stroke
143 0 1684 712 2 MP stroke
143 0 1684 1094 2 MP stroke
0 387 1827 776 2 MP stroke
143 0 1755 776 2 MP stroke
143 0 1755 1163 2 MP stroke
0 394 1898 827 2 MP stroke
143 0 1827 827 2 MP stroke
143 0 1827 1221 2 MP stroke
0 455 1970 862 2 MP stroke
143 0 1898 862 2 MP stroke
143 0 1898 1317 2 MP stroke
0 458 2041 910 2 MP stroke
143 0 1970 910 2 MP stroke
143 0 1970 1368 2 MP stroke
0 481 2113 956 2 MP stroke
143 0 2041 956 2 MP stroke
143 0 2041 1437 2 MP stroke
0 509 2184 1014 2 MP stroke
142 0 2113 1014 2 MP stroke
142 0 2113 1523 2 MP stroke
0 541 2255 1054 2 MP stroke
143 0 2184 1054 2 MP stroke
143 0 2184 1595 2 MP stroke
0 565 2327 1118 2 MP stroke
143 0 2255 1118 2 MP stroke
143 0 2255 1683 2 MP stroke
0 584 2398 1170 2 MP stroke
143 0 2327 1170 2 MP stroke
143 0 2327 1754 2 MP stroke
0 603 2470 1226 2 MP stroke
143 0 2398 1226 2 MP stroke
143 0 2398 1829 2 MP stroke
0 598 2541 1289 2 MP stroke
142 0 2470 1289 2 MP stroke
142 0 2470 1887 2 MP stroke
0 638 2612 1334 2 MP stroke
143 0 2541 1334 2 MP stroke
143 0 2541 1972 2 MP stroke
0 672 2684 1375 2 MP stroke
143 0 2612 1375 2 MP stroke
143 0 2612 2047 2 MP stroke
0 696 2755 1420 2 MP stroke
143 0 2684 1420 2 MP stroke
143 0 2684 2116 2 MP stroke
0 728 2827 1460 2 MP stroke
143 0 2755 1460 2 MP stroke
143 0 2755 2188 2 MP stroke
0 749 2898 1509 2 MP stroke
142 0 2827 1509 2 MP stroke
142 0 2827 2258 2 MP stroke
0 757 2969 1555 2 MP stroke
143 0 2898 1555 2 MP stroke
143 0 2898 2312 2 MP stroke
0 734 3041 1617 2 MP stroke
143 0 2969 1617 2 MP stroke
143 0 2969 2351 2 MP stroke
0 735 3112 1663 2 MP stroke
143 0 3041 1663 2 MP stroke
143 0 3041 2398 2 MP stroke
0 763 3184 1701 2 MP stroke
143 0 3112 1701 2 MP stroke
143 0 3112 2464 2 MP stroke
0 786 3255 1746 2 MP stroke
143 0 3184 1746 2 MP stroke
143 0 3184 2532 2 MP stroke
0 808 3327 1787 2 MP stroke
143 0 3255 1787 2 MP stroke
143 0 3255 2595 2 MP stroke
0 841 3398 1820 2 MP stroke
142 0 3327 1820 2 MP stroke
142 0 3327 2661 2 MP stroke
0 823 3469 1877 2 MP stroke
143 0 3398 1877 2 MP stroke
143 0 3398 2700 2 MP stroke
0 820 3541 1928 2 MP stroke
143 0 3469 1928 2 MP stroke
143 0 3469 2748 2 MP stroke
0 836 3612 1971 2 MP stroke
143 0 3541 1971 2 MP stroke
143 0 3541 2807 2 MP stroke
0 839 3684 2008 2 MP stroke
143 0 3612 2008 2 MP stroke
143 0 3612 2847 2 MP stroke
0 829 3755 2041 2 MP stroke
142 0 3684 2041 2 MP stroke
142 0 3684 2870 2 MP stroke
0 830 3826 2090 2 MP stroke
143 0 3755 2090 2 MP stroke
143 0 3755 2920 2 MP stroke
0 846 3898 2125 2 MP stroke
143 0 3826 2125 2 MP stroke
143 0 3826 2971 2 MP stroke
0 872 3969 2159 2 MP stroke
143 0 3898 2159 2 MP stroke
143 0 3898 3031 2 MP stroke
0 874 4041 2201 2 MP stroke
143 0 3969 2201 2 MP stroke
143 0 3969 3075 2 MP stroke
0 883 4112 2240 2 MP stroke
143 0 4041 2240 2 MP stroke
143 0 4041 3123 2 MP stroke
0 880 4184 2272 2 MP stroke
143 0 4112 2272 2 MP stroke
143 0 4112 3152 2 MP stroke
0 874 4255 2317 2 MP stroke
142 0 4184 2317 2 MP stroke
142 0 4184 3191 2 MP stroke
0 886 4326 2345 2 MP stroke
143 0 4255 2345 2 MP stroke
143 0 4255 3231 2 MP stroke
0 896 4398 2376 2 MP stroke
143 0 4326 2376 2 MP stroke
143 0 4326 3272 2 MP stroke
0 889 4469 2418 2 MP stroke
143 0 4398 2418 2 MP stroke
143 0 4398 3307 2 MP stroke
0 884 4541 2455 2 MP stroke
143 0 4469 2455 2 MP stroke
143 0 4469 3339 2 MP stroke
0 886 4612 2480 2 MP stroke
142 0 4541 2480 2 MP stroke
142 0 4541 3366 2 MP stroke
0 883 4683 2514 2 MP stroke
143 0 4612 2514 2 MP stroke
143 0 4612 3397 2 MP stroke
0 897 4755 2537 2 MP stroke
143 0 4683 2537 2 MP stroke
143 0 4683 3434 2 MP stroke
0 920 4826 2558 2 MP stroke
143 0 4755 2558 2 MP stroke
143 0 4755 3478 2 MP stroke
0 912 4898 2599 2 MP stroke
143 0 4826 2599 2 MP stroke
143 0 4826 3511 2 MP stroke
0 913 4969 2632 2 MP stroke
142 0 4898 2632 2 MP stroke
142 0 4898 3545 2 MP stroke
0 915 5040 2657 2 MP stroke
143 0 4969 2657 2 MP stroke
143 0 4969 3572 2 MP stroke
0 897 5112 2692 2 MP stroke
143 0 5040 2692 2 MP stroke
143 0 5040 3589 2 MP stroke
0 896 5183 2721 2 MP stroke
143 0 5112 2721 2 MP stroke
143 0 5112 3617 2 MP stroke
0 894 5255 2754 2 MP stroke
143 0 5183 2754 2 MP stroke
143 0 5183 3648 2 MP stroke
0 881 5326 2783 2 MP stroke
143 0 5255 2783 2 MP stroke
143 0 5255 3664 2 MP stroke
0 886 5398 2806 2 MP stroke
143 0 5326 2806 2 MP stroke
143 0 5326 3692 2 MP stroke
0 879 5469 2835 2 MP stroke
142 0 5398 2835 2 MP stroke
142 0 5398 3714 2 MP stroke
0 867 5540 2872 2 MP stroke
143 0 5469 2872 2 MP stroke
143 0 5469 3739 2 MP stroke
0 859 5612 2897 2 MP stroke
143 0 5540 2897 2 MP stroke
143 0 5540 3756 2 MP stroke
0 852 5683 2923 2 MP stroke
143 0 5612 2923 2 MP stroke
143 0 5612 3775 2 MP stroke
0 848 5755 2950 2 MP stroke
143 0 5683 2950 2 MP stroke
143 0 5683 3798 2 MP stroke
0 846 5826 2976 2 MP stroke
142 0 5755 2976 2 MP stroke
142 0 5755 3822 2 MP stroke
0 840 5897 3004 2 MP stroke
143 0 5826 3004 2 MP stroke
143 0 5826 3844 2 MP stroke
0 833 5969 3033 2 MP stroke
143 0 5897 3033 2 MP stroke
143 0 5897 3866 2 MP stroke
0 837 6040 3053 2 MP stroke
143 0 5969 3053 2 MP stroke
143 0 5969 3890 2 MP stroke
0 836 6112 3076 2 MP stroke
143 0 6040 3076 2 MP stroke
143 0 6040 3912 2 MP stroke
0 835 6183 3098 2 MP stroke
143 0 6112 3098 2 MP stroke
143 0 6112 3933 2 MP stroke
0 822 6255 3123 2 MP stroke
73 0 6183 3123 2 MP stroke
73 0 6183 3945 2 MP stroke
72 18 71 22 72 23 71 22 72 25 71 25 71 25 72 25 
71 23 72 20 71 32 71 25 72 26 71 22 72 32 71 29 
72 25 71 27 71 33 72 37 71 33 72 29 71 33 71 26 
72 35 71 38 72 36 71 34 71 42 72 30 71 44 72 43 
71 47 72 43 71 49 71 28 72 39 71 51 72 50 71 48 
71 49 72 52 71 56 72 52 71 47 72 51 71 49 71 60 
72 56 71 57 72 58 71 65 71 60 72 66 71 61 72 76 
71 57 71 71 72 58 71 49 72 66 71 55 72 66 71 54 
71 54 72 53 71 52 72 50 71 49 71 25 72 20 71 35 
72 27 71 5 71 10 899 469 76 MP stroke
gr

c9
  36   36  970  479 FO
  36   36 1041  484 FO
  36   36 1113  511 FO
  36   36 1184  546 FO
  36   36 1256  566 FO
  36   36 1327  591 FO
  36   36 1398  640 FO
  36   36 1470  690 FO
  36   36 1541  742 FO
  36   36 1613  795 FO
  36   36 1684  849 FO
  36   36 1755  903 FO
  36   36 1827  969 FO
  36   36 1898 1024 FO
  36   36 1970 1090 FO
  36   36 2041 1139 FO
  36   36 2113 1197 FO
  36   36 2184 1268 FO
  36   36 2255 1325 FO
  36   36 2327 1401 FO
  36   36 2398 1462 FO
  36   36 2470 1528 FO
  36   36 2541 1588 FO
  36   36 2612 1653 FO
  36   36 2684 1711 FO
  36   36 2755 1768 FO
  36   36 2827 1824 FO
  36   36 2898 1884 FO
  36   36 2969 1933 FO
  36   36 3041 1984 FO
  36   36 3112 2031 FO
  36   36 3184 2083 FO
  36   36 3255 2139 FO
  36   36 3327 2191 FO
  36   36 3398 2240 FO
  36   36 3469 2288 FO
  36   36 3541 2338 FO
  36   36 3612 2389 FO
  36   36 3684 2428 FO
  36   36 3755 2456 FO
  36   36 3826 2505 FO
  36   36 3898 2548 FO
  36   36 3969 2595 FO
  36   36 4041 2638 FO
  36   36 4112 2682 FO
  36   36 4184 2712 FO
  36   36 4255 2754 FO
  36   36 4326 2788 FO
  36   36 4398 2824 FO
  36   36 4469 2862 FO
  36   36 4541 2897 FO
  36   36 4612 2923 FO
  36   36 4683 2956 FO
  36   36 4755 2985 FO
  36   36 4826 3018 FO
  36   36 4898 3055 FO
  36   36 4969 3088 FO
  36   36 5040 3115 FO
  36   36 5112 3140 FO
  36   36 5183 3169 FO
  36   36 5255 3201 FO
  36   36 5326 3223 FO
  36   36 5398 3249 FO
  36   36 5469 3274 FO
  36   36 5540 3306 FO
  36   36 5612 3326 FO
  36   36 5683 3349 FO
  36   36 5755 3374 FO
  36   36 5826 3399 FO
  36   36 5897 3424 FO
  36   36 5969 3449 FO
  36   36 6040 3471 FO
  36   36 6112 3494 FO
  36   36 6183 3516 FO
  36   36 6255 3534 FO
gs 899 469 5357 4147 rc
gr

0 sg
%%IncludeResource: font Helvetica
/Helvetica /ISOLatin1Encoding 168 FMSR

2458  156 mt 
(Nsg1-GFP in Early Anaphase) s
%%IncludeResource: font Helvetica
/Helvetica /ISOLatin1Encoding 144 FMSR

2813  293 mt 
(n) s
%%IncludeResource: font Helvetica
/Helvetica /ISOLatin1Encoding 108 FMSR

2893  377 mt 
(cells) s
%%IncludeResource: font Helvetica
/Helvetica /ISOLatin1Encoding 144 FMSR

3109  293 mt 
( = 21    -    d) s
%%IncludeResource: font Helvetica
/Helvetica /ISOLatin1Encoding 108 FMSR

3917  377 mt 
(b) s
%%IncludeResource: font Helvetica
/Helvetica /ISOLatin1Encoding 144 FMSR

3977  293 mt 
( = 0.1) s
3314 4921 mt 
(Time \(s\)) s
 577 3058 mt  -90 rotate
(% Fluorescence) s
90 rotate
%%IncludeResource: font Helvetica
/Helvetica /ISOLatin1Encoding 120 FMSR

 882 4658 mt 
( ) s
6239  511 mt 
( ) s
5656  664 mt 
(mother) s
gs 5217 529 980 335 rc
c8
338 0 5284 621 2 MP stroke
gs 5380 548 147 147 rc
  36   36 5453  621 FO
gr

gr

c8
0 sg
5656  813 mt 
(daughter) s
gs 5217 529 980 335 rc
c9
338 0 5284 770 2 MP stroke
gs 5380 697 147 147 rc
  36   36 5453  770 FO
gr

gr

c9

end %%Color Dict

eplot
%%EndObject

epage
end

showpage

%%Trailer
%%EOF
