%!PS-Adobe-3.0 EPSF-3.0
%%Creator: MATLAB, The MathWorks, Inc. Version 8.1.0.604 (R2013a). Operating System: Darwin 11.4.2 Darwin Kernel Version 11.4.2: Thu Aug 23 16:25:48 PDT 2012; root:xnu-1699.32.7~1/RELEASE_X86_64 x86_64.
%%Title: ./EA_Src1-sphinbarr.eps
%%CreationDate: 09/09/2013  08:40:13
%%DocumentNeededFonts: Helvetica
%%DocumentProcessColors: Cyan Magenta Yellow Black
%%LanguageLevel: 2
%%Pages: 1
%%BoundingBox:    52   197   551   616
%%EndComments

%%BeginProlog
% MathWorks dictionary
/MathWorks 160 dict begin
% definition operators
/bdef {bind def} bind def
/ldef {load def} bind def
/xdef {exch def} bdef
/xstore {exch store} bdef
% operator abbreviations
/c  /clip ldef
/cc /concat ldef
/cp /closepath ldef
/gr /grestore ldef
/gs /gsave ldef
/mt /moveto ldef
/np /newpath ldef
/cm /currentmatrix ldef
/sm /setmatrix ldef
/rm /rmoveto ldef
/rl /rlineto ldef
/s {show newpath} bdef
/sc {setcmykcolor} bdef
/sr /setrgbcolor ldef
/sg /setgray ldef
/w /setlinewidth ldef
/j /setlinejoin ldef
/cap /setlinecap ldef
/rc {rectclip} bdef
/rf {rectfill} bdef
% page state control
/pgsv () def
/bpage {/pgsv save def} bdef
/epage {pgsv restore} bdef
/bplot /gsave ldef
/eplot {stroke grestore} bdef
% orientation switch
/portraitMode 0 def /landscapeMode 1 def /rotateMode 2 def
% coordinate system mappings
/dpi2point 0 def
% font control
/FontSize 0 def
/FMS {/FontSize xstore findfont [FontSize 0 0 FontSize neg 0 0]
  makefont setfont} bdef
/reencode {exch dup where {pop load} {pop StandardEncoding} ifelse
  exch dup 3 1 roll findfont dup length dict begin
  { 1 index /FID ne {def}{pop pop} ifelse } forall
  /Encoding exch def currentdict end definefont pop} bdef
/isroman {findfont /CharStrings get /Agrave known} bdef
/FMSR {3 1 roll 1 index dup isroman {reencode} {pop pop} ifelse
  exch FMS} bdef
/csm {1 dpi2point div -1 dpi2point div scale neg translate
 dup landscapeMode eq {pop -90 rotate}
  {rotateMode eq {90 rotate} if} ifelse} bdef
% line types: solid, dotted, dashed, dotdash
/SO { [] 0 setdash } bdef
/DO { [.5 dpi2point mul 4 dpi2point mul] 0 setdash } bdef
/DA { [6 dpi2point mul] 0 setdash } bdef
/DD { [.5 dpi2point mul 4 dpi2point mul 6 dpi2point mul 4
  dpi2point mul] 0 setdash } bdef
% macros for lines and objects
/L {lineto stroke} bdef
/MP {3 1 roll moveto 1 sub {rlineto} repeat} bdef
/AP {{rlineto} repeat} bdef
/PDlw -1 def
/W {/PDlw currentlinewidth def setlinewidth} def
/PP {closepath eofill} bdef
/DP {closepath stroke} bdef
/MR {4 -2 roll moveto dup  0 exch rlineto exch 0 rlineto
  neg 0 exch rlineto closepath} bdef
/FR {MR stroke} bdef
/PR {MR fill} bdef
/L1i {{currentfile picstr readhexstring pop} image} bdef
/tMatrix matrix def
/MakeOval {newpath tMatrix currentmatrix pop translate scale
0 0 1 0 360 arc tMatrix setmatrix} bdef
/FO {MakeOval stroke} bdef
/PO {MakeOval fill} bdef
/PD {currentlinewidth 2 div 0 360 arc fill
   PDlw -1 eq not {PDlw w /PDlw -1 def} if} def
/FA {newpath tMatrix currentmatrix pop translate scale
  0 0 1 5 -2 roll arc tMatrix setmatrix stroke} bdef
/PA {newpath tMatrix currentmatrix pop	translate 0 0 moveto scale
  0 0 1 5 -2 roll arc closepath tMatrix setmatrix fill} bdef
/FAn {newpath tMatrix currentmatrix pop translate scale
  0 0 1 5 -2 roll arcn tMatrix setmatrix stroke} bdef
/PAn {newpath tMatrix currentmatrix pop translate 0 0 moveto scale
  0 0 1 5 -2 roll arcn closepath tMatrix setmatrix fill} bdef
/vradius 0 def /hradius 0 def /lry 0 def
/lrx 0 def /uly 0 def /ulx 0 def /rad 0 def
/MRR {/vradius xdef /hradius xdef /lry xdef /lrx xdef /uly xdef
  /ulx xdef newpath tMatrix currentmatrix pop ulx hradius add uly
  vradius add translate hradius vradius scale 0 0 1 180 270 arc 
  tMatrix setmatrix lrx hradius sub uly vradius add translate
  hradius vradius scale 0 0 1 270 360 arc tMatrix setmatrix
  lrx hradius sub lry vradius sub translate hradius vradius scale
  0 0 1 0 90 arc tMatrix setmatrix ulx hradius add lry vradius sub
  translate hradius vradius scale 0 0 1 90 180 arc tMatrix setmatrix
  closepath} bdef
/FRR {MRR stroke } bdef
/PRR {MRR fill } bdef
/MlrRR {/lry xdef /lrx xdef /uly xdef /ulx xdef /rad lry uly sub 2 div def
  newpath tMatrix currentmatrix pop ulx rad add uly rad add translate
  rad rad scale 0 0 1 90 270 arc tMatrix setmatrix lrx rad sub lry rad
  sub translate rad rad scale 0 0 1 270 90 arc tMatrix setmatrix
  closepath} bdef
/FlrRR {MlrRR stroke } bdef
/PlrRR {MlrRR fill } bdef
/MtbRR {/lry xdef /lrx xdef /uly xdef /ulx xdef /rad lrx ulx sub 2 div def
  newpath tMatrix currentmatrix pop ulx rad add uly rad add translate
  rad rad scale 0 0 1 180 360 arc tMatrix setmatrix lrx rad sub lry rad
  sub translate rad rad scale 0 0 1 0 180 arc tMatrix setmatrix
  closepath} bdef
/FtbRR {MtbRR stroke } bdef
/PtbRR {MtbRR fill } bdef
/stri 6 array def /dtri 6 array def
/smat 6 array def /dmat 6 array def
/tmat1 6 array def /tmat2 6 array def /dif 3 array def
/asub {/ind2 exch def /ind1 exch def dup dup
  ind1 get exch ind2 get sub exch } bdef
/tri_to_matrix {
  2 0 asub 3 1 asub 4 0 asub 5 1 asub
  dup 0 get exch 1 get 7 -1 roll astore } bdef
/compute_transform {
  dmat dtri tri_to_matrix tmat1 invertmatrix 
  smat stri tri_to_matrix tmat2 concatmatrix } bdef
/ds {stri astore pop} bdef
/dt {dtri astore pop} bdef
/db {2 copy /cols xdef /rows xdef mul dup 3 mul string
  currentfile 
  3 index 0 eq {/ASCIIHexDecode filter}
  {/ASCII85Decode filter 3 index 2 eq {/RunLengthDecode filter} if }
  ifelse exch readstring pop
  dup 0 3 index getinterval /rbmap xdef
  dup 2 index dup getinterval /gbmap xdef
  1 index dup 2 mul exch getinterval /bbmap xdef pop pop}bdef
/it {gs np dtri aload pop moveto lineto lineto cp c
  cols rows 8 compute_transform 
  rbmap gbmap bbmap true 3 colorimage gr}bdef
/il {newpath moveto lineto stroke}bdef
currentdict end def
%%EndProlog

%%BeginSetup
MathWorks begin

0 cap

end
%%EndSetup

%%Page: 1 1
%%BeginPageSetup
%%PageBoundingBox:    52   197   551   616
MathWorks begin
bpage
%%EndPageSetup

%%BeginObject: obj1
bplot

/dpi2point 12 def
portraitMode 0216 7344 csm

  418   -48  5986  5026 rc
85 dict begin %Colortable dictionary
/c0 { 0.000000 0.000000 0.000000 sr} bdef
/c1 { 1.000000 1.000000 1.000000 sr} bdef
/c2 { 0.900000 0.000000 0.000000 sr} bdef
/c3 { 0.000000 0.820000 0.000000 sr} bdef
/c4 { 0.000000 0.000000 0.800000 sr} bdef
/c5 { 0.910000 0.820000 0.320000 sr} bdef
/c6 { 1.000000 0.260000 0.820000 sr} bdef
/c7 { 0.000000 0.820000 0.820000 sr} bdef
c0
1 j
1 sg
   0    0 6913 5186 rf
6 w
0 4146 5356 0 0 -4146 899 4615 4 MP
PP
-5356 0 0 4146 5356 0 0 -4146 899 4615 5 MP stroke
4 w
DO
SO
6 w
0 sg
 899 4615 mt 6255 4615 L
 899  469 mt 6255  469 L
 899 4615 mt  899  469 L
6255 4615 mt 6255  469 L
 899 4615 mt 6255 4615 L
 899 4615 mt  899  469 L
 899 4615 mt  899 4561 L
 899  469 mt  899  522 L
%%IncludeResource: font Helvetica
/Helvetica /ISOLatin1Encoding 120 FMSR

 866 4760 mt 
(0) s
2684 4615 mt 2684 4561 L
2684  469 mt 2684  522 L
2618 4760 mt 
(50) s
4469 4615 mt 4469 4561 L
4469  469 mt 4469  522 L
4369 4760 mt 
(100) s
6255 4615 mt 6255 4561 L
6255  469 mt 6255  522 L
6155 4760 mt 
(150) s
 899 4615 mt  952 4615 L
6255 4615 mt 6201 4615 L
 798 4659 mt 
(0) s
 899 4200 mt  952 4200 L
6255 4200 mt 6201 4200 L
 731 4244 mt 
(10) s
 899 3785 mt  952 3785 L
6255 3785 mt 6201 3785 L
 731 3829 mt 
(20) s
 899 3371 mt  952 3371 L
6255 3371 mt 6201 3371 L
 731 3415 mt 
(30) s
 899 2956 mt  952 2956 L
6255 2956 mt 6201 2956 L
 731 3000 mt 
(40) s
 899 2542 mt  952 2542 L
6255 2542 mt 6201 2542 L
 731 2586 mt 
(50) s
 899 2127 mt  952 2127 L
6255 2127 mt 6201 2127 L
 731 2171 mt 
(60) s
 899 1712 mt  952 1712 L
6255 1712 mt 6201 1712 L
 731 1756 mt 
(70) s
 899 1298 mt  952 1298 L
6255 1298 mt 6201 1298 L
 731 1342 mt 
(80) s
 899  883 mt  952  883 L
6255  883 mt 6201  883 L
 731  927 mt 
(90) s
 899  469 mt  952  469 L
6255  469 mt 6201  469 L
 664  513 mt 
(100) s
 899 4615 mt 6255 4615 L
 899  469 mt 6255  469 L
 899 4615 mt  899  469 L
6255 4615 mt 6255  469 L
gs 899 469 5357 4147 rc
899 469 PD
163 0 899 469 2 MP stroke
163 0 899 469 2 MP stroke
0 713 1056 1745 2 MP stroke
321 0 899 1745 2 MP stroke
321 0 899 2458 2 MP stroke
0 617 1211 2333 2 MP stroke
328 0 1047 2333 2 MP stroke
328 0 1047 2950 2 MP stroke
0 609 1371 2642 2 MP stroke
327 0 1207 2642 2 MP stroke
327 0 1207 3251 2 MP stroke
0 494 1522 2935 2 MP stroke
328 0 1358 2935 2 MP stroke
328 0 1358 3429 2 MP stroke
0 499 1678 3139 2 MP stroke
327 0 1514 3139 2 MP stroke
327 0 1514 3638 2 MP stroke
0 753 1834 3190 2 MP stroke
328 0 1670 3190 2 MP stroke
328 0 1670 3943 2 MP stroke
0 647 1990 3277 2 MP stroke
327 0 1826 3277 2 MP stroke
327 0 1826 3924 2 MP stroke
0 556 2144 3425 2 MP stroke
328 0 1980 3425 2 MP stroke
328 0 1980 3981 2 MP stroke
0 623 2305 3476 2 MP stroke
328 0 2141 3476 2 MP stroke
328 0 2141 4099 2 MP stroke
0 541 2455 3515 2 MP stroke
328 0 2291 3515 2 MP stroke
328 0 2291 4056 2 MP stroke
0 584 2614 3607 2 MP stroke
328 0 2450 3607 2 MP stroke
328 0 2450 4191 2 MP stroke
0 546 2765 3673 2 MP stroke
328 0 2601 3673 2 MP stroke
328 0 2601 4219 2 MP stroke
0 511 2926 3755 2 MP stroke
327 0 2763 3755 2 MP stroke
327 0 2763 4266 2 MP stroke
0 403 3079 3812 2 MP stroke
328 0 2915 3812 2 MP stroke
328 0 2915 4215 2 MP stroke
0 442 3241 3825 2 MP stroke
328 0 3077 3825 2 MP stroke
328 0 3077 4267 2 MP stroke
0 470 3392 3840 2 MP stroke
328 0 3228 3840 2 MP stroke
328 0 3228 4310 2 MP stroke
0 536 3555 3811 2 MP stroke
328 0 3391 3811 2 MP stroke
328 0 3391 4347 2 MP stroke
0 522 3702 3855 2 MP stroke
328 0 3538 3855 2 MP stroke
328 0 3538 4377 2 MP stroke
0 472 3860 3885 2 MP stroke
328 0 3696 3885 2 MP stroke
328 0 3696 4357 2 MP stroke
0 553 4014 3836 2 MP stroke
328 0 3850 3836 2 MP stroke
328 0 3850 4389 2 MP stroke
0 417 4173 4063 2 MP stroke
328 0 4009 4063 2 MP stroke
328 0 4009 4480 2 MP stroke
0 699 4326 3777 2 MP stroke
328 0 4162 3777 2 MP stroke
328 0 4162 4476 2 MP stroke
0 303 4487 4076 2 MP stroke
328 0 4323 4076 2 MP stroke
328 0 4323 4379 2 MP stroke
0 560 4640 3907 2 MP stroke
328 0 4476 3907 2 MP stroke
328 0 4476 4467 2 MP stroke
0 483 4796 4031 2 MP stroke
328 0 4632 4031 2 MP stroke
328 0 4632 4514 2 MP stroke
0 430 4959 4053 2 MP stroke
328 0 4795 4053 2 MP stroke
328 0 4795 4483 2 MP stroke
0 473 5147 4101 2 MP stroke
328 0 4983 4101 2 MP stroke
328 0 4983 4574 2 MP stroke
0 379 5338 4091 2 MP stroke
328 0 5174 4091 2 MP stroke
328 0 5174 4470 2 MP stroke
0 477 5526 4084 2 MP stroke
328 0 5362 4084 2 MP stroke
328 0 5362 4561 2 MP stroke
0 480 5717 4047 2 MP stroke
328 0 5553 4047 2 MP stroke
328 0 5553 4527 2 MP stroke
0 654 5907 3962 2 MP stroke
327 0 5744 3962 2 MP stroke
0 460 6134 4138 2 MP stroke
286 0 5970 4138 2 MP stroke
286 0 5970 4598 2 MP stroke
59 0 6197 4115 2 MP stroke
59 0 6197 4611 2 MP stroke
122 -3 227 75 190 6 191 -35 188 41 191 -56 188 69 163 -4 
156 85 153 -41 161 102 153 -146 159 159 154 -8 158 5 147 37 
163 4 151 29 162 33 153 2 161 65 151 47 159 114 150 -2 
161 84 154 102 156 35 156 177 156 207 151 235 160 306 155 539 
157 1633 899 469 34 MP stroke
gr

 874  444 mt  924  494 L
 924  444 mt  874  494 L
1031 2077 mt 1081 2127 L
1081 2077 mt 1031 2127 L
1186 2616 mt 1236 2666 L
1236 2616 mt 1186 2666 L
1346 2922 mt 1396 2972 L
1396 2922 mt 1346 2972 L
1497 3157 mt 1547 3207 L
1547 3157 mt 1497 3207 L
1653 3364 mt 1703 3414 L
1703 3364 mt 1653 3414 L
1809 3541 mt 1859 3591 L
1859 3541 mt 1809 3591 L
1965 3576 mt 2015 3626 L
2015 3576 mt 1965 3626 L
2119 3678 mt 2169 3728 L
2169 3678 mt 2119 3728 L
2280 3762 mt 2330 3812 L
2330 3762 mt 2280 3812 L
2430 3760 mt 2480 3810 L
2480 3760 mt 2430 3810 L
2589 3874 mt 2639 3924 L
2639 3874 mt 2589 3924 L
2740 3921 mt 2790 3971 L
2790 3921 mt 2740 3971 L
2901 3986 mt 2951 4036 L
2951 3986 mt 2901 4036 L
3054 3988 mt 3104 4038 L
3104 3988 mt 3054 4038 L
3216 4021 mt 3266 4071 L
3266 4021 mt 3216 4071 L
3367 4050 mt 3417 4100 L
3417 4050 mt 3367 4100 L
3530 4054 mt 3580 4104 L
3580 4054 mt 3530 4104 L
3677 4091 mt 3727 4141 L
3727 4091 mt 3677 4141 L
3835 4096 mt 3885 4146 L
3885 4096 mt 3835 4146 L
3989 4088 mt 4039 4138 L
4039 4088 mt 3989 4138 L
4148 4247 mt 4198 4297 L
4198 4247 mt 4148 4297 L
4301 4101 mt 4351 4151 L
4351 4101 mt 4301 4151 L
4462 4203 mt 4512 4253 L
4512 4203 mt 4462 4253 L
4615 4162 mt 4665 4212 L
4665 4162 mt 4615 4212 L
4771 4247 mt 4821 4297 L
4821 4247 mt 4771 4297 L
4934 4243 mt 4984 4293 L
4984 4243 mt 4934 4293 L
5122 4312 mt 5172 4362 L
5172 4312 mt 5122 4362 L
5313 4256 mt 5363 4306 L
5363 4256 mt 5313 4306 L
5501 4297 mt 5551 4347 L
5551 4297 mt 5501 4347 L
5692 4262 mt 5742 4312 L
5742 4262 mt 5692 4312 L
5882 4268 mt 5932 4318 L
5932 4268 mt 5882 4318 L
6109 4343 mt 6159 4393 L
6159 4343 mt 6109 4393 L
gs 899 469 5357 4147 rc
899 469 PD
163 0 899 469 2 MP stroke
163 0 899 469 2 MP stroke
0 412 1056 790 2 MP stroke
321 0 899 790 2 MP stroke
321 0 899 1202 2 MP stroke
0 352 1211 948 2 MP stroke
328 0 1047 948 2 MP stroke
328 0 1047 1300 2 MP stroke
0 601 1371 1278 2 MP stroke
327 0 1207 1278 2 MP stroke
327 0 1207 1879 2 MP stroke
0 719 1522 1366 2 MP stroke
328 0 1358 1366 2 MP stroke
328 0 1358 2085 2 MP stroke
0 660 1678 1659 2 MP stroke
327 0 1514 1659 2 MP stroke
327 0 1514 2319 2 MP stroke
0 912 1834 1715 2 MP stroke
328 0 1670 1715 2 MP stroke
328 0 1670 2627 2 MP stroke
0 900 1990 1832 2 MP stroke
327 0 1826 1832 2 MP stroke
327 0 1826 2732 2 MP stroke
0 977 2144 1985 2 MP stroke
328 0 1980 1985 2 MP stroke
328 0 1980 2962 2 MP stroke
0 1034 2305 2027 2 MP stroke
328 0 2141 2027 2 MP stroke
328 0 2141 3061 2 MP stroke
0 1025 2455 2260 2 MP stroke
328 0 2291 2260 2 MP stroke
328 0 2291 3285 2 MP stroke
0 871 2614 2419 2 MP stroke
328 0 2450 2419 2 MP stroke
328 0 2450 3290 2 MP stroke
0 1068 2765 2260 2 MP stroke
328 0 2601 2260 2 MP stroke
328 0 2601 3328 2 MP stroke
0 1004 2926 2581 2 MP stroke
327 0 2763 2581 2 MP stroke
327 0 2763 3585 2 MP stroke
0 962 3079 2614 2 MP stroke
328 0 2915 2614 2 MP stroke
328 0 2915 3576 2 MP stroke
0 1063 3241 2651 2 MP stroke
328 0 3077 2651 2 MP stroke
328 0 3077 3714 2 MP stroke
0 900 3392 2766 2 MP stroke
328 0 3228 2766 2 MP stroke
328 0 3228 3666 2 MP stroke
0 1062 3555 2663 2 MP stroke
328 0 3391 2663 2 MP stroke
328 0 3391 3725 2 MP stroke
0 813 3702 3043 2 MP stroke
328 0 3538 3043 2 MP stroke
328 0 3538 3856 2 MP stroke
0 729 3860 2988 2 MP stroke
328 0 3696 2988 2 MP stroke
328 0 3696 3717 2 MP stroke
0 903 4014 2921 2 MP stroke
328 0 3850 2921 2 MP stroke
328 0 3850 3824 2 MP stroke
0 934 4173 3023 2 MP stroke
328 0 4009 3023 2 MP stroke
328 0 4009 3957 2 MP stroke
0 779 4326 3238 2 MP stroke
328 0 4162 3238 2 MP stroke
328 0 4162 4017 2 MP stroke
0 952 4487 2989 2 MP stroke
328 0 4323 2989 2 MP stroke
328 0 4323 3941 2 MP stroke
0 691 4640 3358 2 MP stroke
328 0 4476 3358 2 MP stroke
328 0 4476 4049 2 MP stroke
0 659 4796 3321 2 MP stroke
328 0 4632 3321 2 MP stroke
328 0 4632 3980 2 MP stroke
0 713 4959 3303 2 MP stroke
328 0 4795 3303 2 MP stroke
328 0 4795 4016 2 MP stroke
0 838 5147 3327 2 MP stroke
328 0 4983 3327 2 MP stroke
328 0 4983 4165 2 MP stroke
0 886 5338 3293 2 MP stroke
328 0 5174 3293 2 MP stroke
328 0 5174 4179 2 MP stroke
0 809 5526 3485 2 MP stroke
328 0 5362 3485 2 MP stroke
328 0 5362 4294 2 MP stroke
0 834 5717 3405 2 MP stroke
328 0 5553 3405 2 MP stroke
328 0 5553 4239 2 MP stroke
0 807 5907 3529 2 MP stroke
327 0 5744 3529 2 MP stroke
327 0 5744 4336 2 MP stroke
0 806 6134 3525 2 MP stroke
286 0 5970 3525 2 MP stroke
286 0 5970 4331 2 MP stroke
59 0 6197 3601 2 MP stroke
59 0 6197 4467 2 MP stroke
122 57 227 -5 190 111 191 -68 188 154 191 -10 188 87 163 8 
156 -53 153 239 161 -163 153 138 159 118 154 20 158 -98 147 256 
163 -22 151 33 162 88 153 12 161 289 151 -60 159 81 150 229 
161 70 154 192 156 111 156 182 156 263 151 148 160 454 155 128 
157 527 899 469 34 MP stroke
gr

 874  444 mt  924  494 L
 924  444 mt  874  494 L
1031  971 mt 1081 1021 L
1081  971 mt 1031 1021 L
1186 1099 mt 1236 1149 L
1236 1099 mt 1186 1149 L
1346 1553 mt 1396 1603 L
1396 1553 mt 1346 1603 L
1497 1701 mt 1547 1751 L
1547 1701 mt 1497 1751 L
1653 1964 mt 1703 2014 L
1703 1964 mt 1653 2014 L
1809 2146 mt 1859 2196 L
1859 2146 mt 1809 2196 L
1965 2257 mt 2015 2307 L
2015 2257 mt 1965 2307 L
2119 2449 mt 2169 2499 L
2169 2449 mt 2119 2499 L
2280 2519 mt 2330 2569 L
2330 2519 mt 2280 2569 L
2430 2748 mt 2480 2798 L
2480 2748 mt 2430 2798 L
2589 2829 mt 2639 2879 L
2639 2829 mt 2589 2879 L
2740 2769 mt 2790 2819 L
2790 2769 mt 2740 2819 L
2901 3058 mt 2951 3108 L
2951 3058 mt 2901 3108 L
3054 3070 mt 3104 3120 L
3104 3070 mt 3054 3120 L
3216 3158 mt 3266 3208 L
3266 3158 mt 3216 3208 L
3367 3191 mt 3417 3241 L
3417 3191 mt 3367 3241 L
3530 3169 mt 3580 3219 L
3580 3169 mt 3530 3219 L
3677 3425 mt 3727 3475 L
3727 3425 mt 3677 3475 L
3835 3327 mt 3885 3377 L
3885 3327 mt 3835 3377 L
3989 3347 mt 4039 3397 L
4039 3347 mt 3989 3397 L
4148 3465 mt 4198 3515 L
4198 3465 mt 4148 3515 L
4301 3603 mt 4351 3653 L
4351 3603 mt 4301 3653 L
4462 3440 mt 4512 3490 L
4512 3440 mt 4462 3490 L
4615 3679 mt 4665 3729 L
4665 3679 mt 4615 3729 L
4771 3626 mt 4821 3676 L
4821 3626 mt 4771 3676 L
4934 3634 mt 4984 3684 L
4984 3634 mt 4934 3684 L
5122 3721 mt 5172 3771 L
5172 3721 mt 5122 3771 L
5313 3711 mt 5363 3761 L
5363 3711 mt 5313 3761 L
5501 3865 mt 5551 3915 L
5551 3865 mt 5501 3915 L
5692 3797 mt 5742 3847 L
5742 3797 mt 5692 3847 L
5882 3908 mt 5932 3958 L
5932 3908 mt 5882 3958 L
6109 3903 mt 6159 3953 L
6159 3903 mt 6109 3953 L
gs 899 469 5357 4147 rc
/c8 { 1.000000 0.000000 0.000000 sr} bdef
c8
899 485 PD
899 469 PD
71 0 899 469 2 MP stroke
71 0 899 469 2 MP stroke
0 157 970 939 2 MP stroke
142 0 899 939 2 MP stroke
142 0 899 1096 2 MP stroke
0 194 1041 1313 2 MP stroke
143 0 970 1313 2 MP stroke
143 0 970 1507 2 MP stroke
0 243 1113 1641 2 MP stroke
143 0 1041 1641 2 MP stroke
143 0 1041 1884 2 MP stroke
0 281 1184 1927 2 MP stroke
143 0 1113 1927 2 MP stroke
143 0 1113 2208 2 MP stroke
0 287 1256 2196 2 MP stroke
143 0 1184 2196 2 MP stroke
143 0 1184 2483 2 MP stroke
0 292 1327 2432 2 MP stroke
142 0 1256 2432 2 MP stroke
142 0 1256 2724 2 MP stroke
0 298 1398 2621 2 MP stroke
143 0 1327 2621 2 MP stroke
143 0 1327 2919 2 MP stroke
0 307 1470 2788 2 MP stroke
143 0 1398 2788 2 MP stroke
143 0 1398 3095 2 MP stroke
0 309 1541 2932 2 MP stroke
143 0 1470 2932 2 MP stroke
143 0 1470 3241 2 MP stroke
0 291 1613 3080 2 MP stroke
143 0 1541 3080 2 MP stroke
143 0 1541 3371 2 MP stroke
0 295 1684 3199 2 MP stroke
142 0 1613 3199 2 MP stroke
142 0 1613 3494 2 MP stroke
0 283 1755 3308 2 MP stroke
143 0 1684 3308 2 MP stroke
143 0 1684 3591 2 MP stroke
0 296 1827 3404 2 MP stroke
143 0 1755 3404 2 MP stroke
143 0 1755 3700 2 MP stroke
0 276 1898 3502 2 MP stroke
143 0 1827 3502 2 MP stroke
143 0 1827 3778 2 MP stroke
0 258 1970 3587 2 MP stroke
143 0 1898 3587 2 MP stroke
143 0 1898 3845 2 MP stroke
0 243 2041 3667 2 MP stroke
143 0 1970 3667 2 MP stroke
143 0 1970 3910 2 MP stroke
0 232 2113 3740 2 MP stroke
143 0 2041 3740 2 MP stroke
143 0 2041 3972 2 MP stroke
0 220 2184 3792 2 MP stroke
142 0 2113 3792 2 MP stroke
142 0 2113 4012 2 MP stroke
0 203 2255 3853 2 MP stroke
143 0 2184 3853 2 MP stroke
143 0 2184 4056 2 MP stroke
0 194 2327 3897 2 MP stroke
143 0 2255 3897 2 MP stroke
143 0 2255 4091 2 MP stroke
0 167 2398 3962 2 MP stroke
143 0 2327 3962 2 MP stroke
143 0 2327 4129 2 MP stroke
0 164 2470 3992 2 MP stroke
143 0 2398 3992 2 MP stroke
143 0 2398 4156 2 MP stroke
0 167 2541 4021 2 MP stroke
142 0 2470 4021 2 MP stroke
142 0 2470 4188 2 MP stroke
0 159 2612 4060 2 MP stroke
143 0 2541 4060 2 MP stroke
143 0 2541 4219 2 MP stroke
0 153 2684 4090 2 MP stroke
143 0 2612 4090 2 MP stroke
143 0 2612 4243 2 MP stroke
0 149 2755 4114 2 MP stroke
143 0 2684 4114 2 MP stroke
143 0 2684 4263 2 MP stroke
0 144 2827 4144 2 MP stroke
143 0 2755 4144 2 MP stroke
143 0 2755 4288 2 MP stroke
0 141 2898 4166 2 MP stroke
142 0 2827 4166 2 MP stroke
142 0 2827 4307 2 MP stroke
0 141 2969 4185 2 MP stroke
143 0 2898 4185 2 MP stroke
143 0 2898 4326 2 MP stroke
0 142 3041 4205 2 MP stroke
143 0 2969 4205 2 MP stroke
143 0 2969 4347 2 MP stroke
0 149 3112 4213 2 MP stroke
143 0 3041 4213 2 MP stroke
143 0 3041 4362 2 MP stroke
0 153 3184 4227 2 MP stroke
143 0 3112 4227 2 MP stroke
143 0 3112 4380 2 MP stroke
0 153 3255 4244 2 MP stroke
143 0 3184 4244 2 MP stroke
143 0 3184 4397 2 MP stroke
0 155 3327 4254 2 MP stroke
143 0 3255 4254 2 MP stroke
143 0 3255 4409 2 MP stroke
0 144 3398 4269 2 MP stroke
142 0 3327 4269 2 MP stroke
142 0 3327 4413 2 MP stroke
0 155 3469 4271 2 MP stroke
143 0 3398 4271 2 MP stroke
143 0 3398 4426 2 MP stroke
0 146 3541 4286 2 MP stroke
143 0 3469 4286 2 MP stroke
143 0 3469 4432 2 MP stroke
0 142 3612 4297 2 MP stroke
143 0 3541 4297 2 MP stroke
143 0 3541 4439 2 MP stroke
0 132 3684 4311 2 MP stroke
143 0 3612 4311 2 MP stroke
143 0 3612 4443 2 MP stroke
0 130 3755 4321 2 MP stroke
142 0 3684 4321 2 MP stroke
142 0 3684 4451 2 MP stroke
0 128 3826 4332 2 MP stroke
143 0 3755 4332 2 MP stroke
143 0 3755 4460 2 MP stroke
0 120 3898 4345 2 MP stroke
143 0 3826 4345 2 MP stroke
143 0 3826 4465 2 MP stroke
0 120 3969 4356 2 MP stroke
143 0 3898 4356 2 MP stroke
143 0 3898 4476 2 MP stroke
0 129 4041 4358 2 MP stroke
143 0 3969 4358 2 MP stroke
143 0 3969 4487 2 MP stroke
0 118 4112 4370 2 MP stroke
143 0 4041 4370 2 MP stroke
143 0 4041 4488 2 MP stroke
0 118 4184 4374 2 MP stroke
143 0 4112 4374 2 MP stroke
143 0 4112 4492 2 MP stroke
0 116 4255 4384 2 MP stroke
142 0 4184 4384 2 MP stroke
142 0 4184 4500 2 MP stroke
0 105 4326 4398 2 MP stroke
143 0 4255 4398 2 MP stroke
143 0 4255 4503 2 MP stroke
0 102 4398 4409 2 MP stroke
143 0 4326 4409 2 MP stroke
143 0 4326 4511 2 MP stroke
0 104 4469 4413 2 MP stroke
143 0 4398 4413 2 MP stroke
143 0 4398 4517 2 MP stroke
0 102 4541 4414 2 MP stroke
143 0 4469 4414 2 MP stroke
143 0 4469 4516 2 MP stroke
0 104 4612 4418 2 MP stroke
142 0 4541 4418 2 MP stroke
142 0 4541 4522 2 MP stroke
0 106 4683 4423 2 MP stroke
143 0 4612 4423 2 MP stroke
143 0 4612 4529 2 MP stroke
0 105 4755 4428 2 MP stroke
143 0 4683 4428 2 MP stroke
143 0 4683 4533 2 MP stroke
0 101 4826 4434 2 MP stroke
143 0 4755 4434 2 MP stroke
143 0 4755 4535 2 MP stroke
0 97 4898 4443 2 MP stroke
143 0 4826 4443 2 MP stroke
143 0 4826 4540 2 MP stroke
0 99 4969 4444 2 MP stroke
142 0 4898 4444 2 MP stroke
142 0 4898 4543 2 MP stroke
0 98 5040 4449 2 MP stroke
143 0 4969 4449 2 MP stroke
143 0 4969 4547 2 MP stroke
0 98 5112 4456 2 MP stroke
143 0 5040 4456 2 MP stroke
143 0 5040 4554 2 MP stroke
0 98 5183 4459 2 MP stroke
143 0 5112 4459 2 MP stroke
143 0 5112 4557 2 MP stroke
0 99 5255 4460 2 MP stroke
143 0 5183 4460 2 MP stroke
143 0 5183 4559 2 MP stroke
0 98 5326 4461 2 MP stroke
143 0 5255 4461 2 MP stroke
143 0 5255 4559 2 MP stroke
0 94 5398 4466 2 MP stroke
143 0 5326 4466 2 MP stroke
143 0 5326 4560 2 MP stroke
0 93 5469 4473 2 MP stroke
142 0 5398 4473 2 MP stroke
142 0 5398 4566 2 MP stroke
0 98 5540 4472 2 MP stroke
143 0 5469 4472 2 MP stroke
143 0 5469 4570 2 MP stroke
0 98 5612 4473 2 MP stroke
143 0 5540 4473 2 MP stroke
143 0 5540 4571 2 MP stroke
0 94 5683 4478 2 MP stroke
143 0 5612 4478 2 MP stroke
143 0 5612 4572 2 MP stroke
0 93 5755 4482 2 MP stroke
143 0 5683 4482 2 MP stroke
143 0 5683 4575 2 MP stroke
0 85 5826 4491 2 MP stroke
142 0 5755 4491 2 MP stroke
142 0 5755 4576 2 MP stroke
0 87 5897 4492 2 MP stroke
143 0 5826 4492 2 MP stroke
143 0 5826 4579 2 MP stroke
0 83 5969 4497 2 MP stroke
143 0 5897 4497 2 MP stroke
143 0 5897 4580 2 MP stroke
0 86 6040 4496 2 MP stroke
143 0 5969 4496 2 MP stroke
143 0 5969 4582 2 MP stroke
0 86 6112 4498 2 MP stroke
143 0 6040 4498 2 MP stroke
143 0 6040 4584 2 MP stroke
0 81 6183 4504 2 MP stroke
143 0 6112 4504 2 MP stroke
143 0 6112 4585 2 MP stroke
0 79 6255 4509 2 MP stroke
73 0 6183 4509 2 MP stroke
73 0 6183 4588 2 MP stroke
72 3 71 4 72 2 71 0 72 4 71 2 71 5 72 3 
71 3 72 1 71 2 71 6 72 3 71 0 72 2 71 3 
72 7 71 5 71 1 72 7 71 4 72 5 71 6 71 5 
72 0 71 5 72 9 71 9 71 9 72 4 71 7 72 6 
71 11 72 9 71 10 71 9 72 9 71 9 72 10 71 8 
71 9 72 11 71 18 72 16 71 11 72 21 71 18 71 21 
72 27 71 23 72 26 71 35 71 31 72 28 71 52 72 40 
71 52 71 46 72 67 71 73 72 76 71 88 72 102 71 103 
71 121 72 139 71 146 72 171 71 192 71 238 72 273 71 305 
72 352 71 393 71 548 899 469 76 MP stroke
gr

c8
  36   36  970 1017 FO
  36   36 1041 1410 FO
  36   36 1113 1762 FO
  36   36 1184 2067 FO
  36   36 1256 2340 FO
  36   36 1327 2578 FO
  36   36 1398 2770 FO
  36   36 1470 2941 FO
  36   36 1541 3087 FO
  36   36 1613 3226 FO
  36   36 1684 3347 FO
  36   36 1755 3450 FO
  36   36 1827 3552 FO
  36   36 1898 3640 FO
  36   36 1970 3716 FO
  36   36 2041 3789 FO
  36   36 2113 3856 FO
  36   36 2184 3902 FO
  36   36 2255 3954 FO
  36   36 2327 3994 FO
  36   36 2398 4046 FO
  36   36 2470 4074 FO
  36   36 2541 4105 FO
  36   36 2612 4140 FO
  36   36 2684 4166 FO
  36   36 2755 4189 FO
  36   36 2827 4216 FO
  36   36 2898 4237 FO
  36   36 2969 4255 FO
  36   36 3041 4276 FO
  36   36 3112 4287 FO
  36   36 3184 4303 FO
  36   36 3255 4321 FO
  36   36 3327 4332 FO
  36   36 3398 4341 FO
  36   36 3469 4349 FO
  36   36 3541 4359 FO
  36   36 3612 4368 FO
  36   36 3684 4377 FO
  36   36 3755 4386 FO
  36   36 3826 4396 FO
  36   36 3898 4405 FO
  36   36 3969 4416 FO
  36   36 4041 4422 FO
  36   36 4112 4429 FO
  36   36 4184 4433 FO
  36   36 4255 4442 FO
  36   36 4326 4451 FO
  36   36 4398 4460 FO
  36   36 4469 4465 FO
  36   36 4541 4465 FO
  36   36 4612 4470 FO
  36   36 4683 4476 FO
  36   36 4755 4481 FO
  36   36 4826 4485 FO
  36   36 4898 4492 FO
  36   36 4969 4493 FO
  36   36 5040 4498 FO
  36   36 5112 4505 FO
  36   36 5183 4508 FO
  36   36 5255 4510 FO
  36   36 5326 4510 FO
  36   36 5398 4513 FO
  36   36 5469 4519 FO
  36   36 5540 4521 FO
  36   36 5612 4522 FO
  36   36 5683 4525 FO
  36   36 5755 4528 FO
  36   36 5826 4533 FO
  36   36 5897 4535 FO
  36   36 5969 4539 FO
  36   36 6040 4539 FO
  36   36 6112 4541 FO
  36   36 6183 4545 FO
  36   36 6255 4548 FO
gs 899 469 5357 4147 rc
/c9 { 0.000000 0.500000 0.000000 sr} bdef
c9
899 532 PD
899 469 PD
71 0 899 469 2 MP stroke
71 0 899 469 2 MP stroke
0 98 970 469 2 MP stroke
142 0 899 567 2 MP stroke
0 125 1041 469 2 MP stroke
143 0 970 594 2 MP stroke
0 207 1113 469 2 MP stroke
143 0 1041 676 2 MP stroke
0 248 1184 469 2 MP stroke
143 0 1113 717 2 MP stroke
0 252 1256 518 2 MP stroke
143 0 1184 518 2 MP stroke
143 0 1184 770 2 MP stroke
0 278 1327 579 2 MP stroke
142 0 1256 579 2 MP stroke
142 0 1256 857 2 MP stroke
0 329 1398 655 2 MP stroke
143 0 1327 655 2 MP stroke
143 0 1327 984 2 MP stroke
0 430 1470 706 2 MP stroke
143 0 1398 706 2 MP stroke
143 0 1398 1136 2 MP stroke
0 454 1541 805 2 MP stroke
143 0 1470 805 2 MP stroke
143 0 1470 1259 2 MP stroke
0 541 1613 863 2 MP stroke
143 0 1541 863 2 MP stroke
143 0 1541 1404 2 MP stroke
0 540 1684 951 2 MP stroke
142 0 1613 951 2 MP stroke
142 0 1613 1491 2 MP stroke
0 571 1755 1025 2 MP stroke
143 0 1684 1025 2 MP stroke
143 0 1684 1596 2 MP stroke
0 649 1827 1072 2 MP stroke
143 0 1755 1072 2 MP stroke
143 0 1755 1721 2 MP stroke
0 670 1898 1153 2 MP stroke
143 0 1827 1153 2 MP stroke
143 0 1827 1823 2 MP stroke
0 693 1970 1238 2 MP stroke
143 0 1898 1238 2 MP stroke
143 0 1898 1931 2 MP stroke
0 677 2041 1313 2 MP stroke
143 0 1970 1313 2 MP stroke
143 0 1970 1990 2 MP stroke
0 727 2113 1381 2 MP stroke
143 0 2041 1381 2 MP stroke
143 0 2041 2108 2 MP stroke
0 743 2184 1467 2 MP stroke
142 0 2113 1467 2 MP stroke
142 0 2113 2210 2 MP stroke
0 792 2255 1532 2 MP stroke
143 0 2184 1532 2 MP stroke
143 0 2184 2324 2 MP stroke
0 845 2327 1609 2 MP stroke
143 0 2255 1609 2 MP stroke
143 0 2255 2454 2 MP stroke
0 845 2398 1674 2 MP stroke
143 0 2327 1674 2 MP stroke
143 0 2327 2519 2 MP stroke
0 826 2470 1761 2 MP stroke
143 0 2398 1761 2 MP stroke
143 0 2398 2587 2 MP stroke
0 837 2541 1840 2 MP stroke
142 0 2470 1840 2 MP stroke
142 0 2470 2677 2 MP stroke
0 852 2612 1906 2 MP stroke
143 0 2541 1906 2 MP stroke
143 0 2541 2758 2 MP stroke
0 870 2684 1970 2 MP stroke
143 0 2612 1970 2 MP stroke
143 0 2612 2840 2 MP stroke
0 862 2755 2050 2 MP stroke
143 0 2684 2050 2 MP stroke
143 0 2684 2912 2 MP stroke
0 884 2827 2108 2 MP stroke
143 0 2755 2108 2 MP stroke
143 0 2755 2992 2 MP stroke
0 878 2898 2174 2 MP stroke
142 0 2827 2174 2 MP stroke
142 0 2827 3052 2 MP stroke
0 860 2969 2241 2 MP stroke
143 0 2898 2241 2 MP stroke
143 0 2898 3101 2 MP stroke
0 852 3041 2307 2 MP stroke
143 0 2969 2307 2 MP stroke
143 0 2969 3159 2 MP stroke
0 842 3112 2382 2 MP stroke
143 0 3041 2382 2 MP stroke
143 0 3041 3224 2 MP stroke
0 840 3184 2425 2 MP stroke
143 0 3112 2425 2 MP stroke
143 0 3112 3265 2 MP stroke
0 832 3255 2479 2 MP stroke
143 0 3184 2479 2 MP stroke
143 0 3184 3311 2 MP stroke
0 819 3327 2543 2 MP stroke
143 0 3255 2543 2 MP stroke
143 0 3255 3362 2 MP stroke
0 849 3398 2599 2 MP stroke
142 0 3327 2599 2 MP stroke
142 0 3327 3448 2 MP stroke
0 805 3469 2673 2 MP stroke
143 0 3398 2673 2 MP stroke
143 0 3398 3478 2 MP stroke
0 809 3541 2726 2 MP stroke
143 0 3469 2726 2 MP stroke
143 0 3469 3535 2 MP stroke
0 829 3612 2771 2 MP stroke
143 0 3541 2771 2 MP stroke
143 0 3541 3600 2 MP stroke
0 853 3684 2810 2 MP stroke
143 0 3612 2810 2 MP stroke
143 0 3612 3663 2 MP stroke
0 844 3755 2861 2 MP stroke
142 0 3684 2861 2 MP stroke
142 0 3684 3705 2 MP stroke
0 850 3826 2902 2 MP stroke
143 0 3755 2902 2 MP stroke
143 0 3755 3752 2 MP stroke
0 853 3898 2946 2 MP stroke
143 0 3826 2946 2 MP stroke
143 0 3826 3799 2 MP stroke
0 830 3969 2993 2 MP stroke
143 0 3898 2993 2 MP stroke
143 0 3898 3823 2 MP stroke
0 813 4041 3038 2 MP stroke
143 0 3969 3038 2 MP stroke
143 0 3969 3851 2 MP stroke
0 797 4112 3091 2 MP stroke
143 0 4041 3091 2 MP stroke
143 0 4041 3888 2 MP stroke
0 790 4184 3134 2 MP stroke
143 0 4112 3134 2 MP stroke
143 0 4112 3924 2 MP stroke
0 777 4255 3171 2 MP stroke
142 0 4184 3171 2 MP stroke
142 0 4184 3948 2 MP stroke
0 768 4326 3207 2 MP stroke
143 0 4255 3207 2 MP stroke
143 0 4255 3975 2 MP stroke
0 776 4398 3228 2 MP stroke
143 0 4326 3228 2 MP stroke
143 0 4326 4004 2 MP stroke
0 773 4469 3267 2 MP stroke
143 0 4398 3267 2 MP stroke
143 0 4398 4040 2 MP stroke
0 779 4541 3304 2 MP stroke
143 0 4469 3304 2 MP stroke
143 0 4469 4083 2 MP stroke
0 758 4612 3343 2 MP stroke
142 0 4541 3343 2 MP stroke
142 0 4541 4101 2 MP stroke
0 742 4683 3377 2 MP stroke
143 0 4612 3377 2 MP stroke
143 0 4612 4119 2 MP stroke
0 733 4755 3413 2 MP stroke
143 0 4683 3413 2 MP stroke
143 0 4683 4146 2 MP stroke
0 737 4826 3439 2 MP stroke
143 0 4755 3439 2 MP stroke
143 0 4755 4176 2 MP stroke
0 723 4898 3472 2 MP stroke
143 0 4826 3472 2 MP stroke
143 0 4826 4195 2 MP stroke
0 707 4969 3509 2 MP stroke
142 0 4898 3509 2 MP stroke
142 0 4898 4216 2 MP stroke
0 699 5040 3535 2 MP stroke
143 0 4969 3535 2 MP stroke
143 0 4969 4234 2 MP stroke
0 686 5112 3561 2 MP stroke
143 0 5040 3561 2 MP stroke
143 0 5040 4247 2 MP stroke
0 669 5183 3593 2 MP stroke
143 0 5112 3593 2 MP stroke
143 0 5112 4262 2 MP stroke
0 658 5255 3621 2 MP stroke
143 0 5183 3621 2 MP stroke
143 0 5183 4279 2 MP stroke
0 639 5326 3655 2 MP stroke
143 0 5255 3655 2 MP stroke
143 0 5255 4294 2 MP stroke
0 635 5398 3677 2 MP stroke
143 0 5326 3677 2 MP stroke
143 0 5326 4312 2 MP stroke
0 620 5469 3699 2 MP stroke
142 0 5398 3699 2 MP stroke
142 0 5398 4319 2 MP stroke
0 607 5540 3726 2 MP stroke
143 0 5469 3726 2 MP stroke
143 0 5469 4333 2 MP stroke
0 583 5612 3760 2 MP stroke
143 0 5540 3760 2 MP stroke
143 0 5540 4343 2 MP stroke
0 573 5683 3785 2 MP stroke
143 0 5612 3785 2 MP stroke
143 0 5612 4358 2 MP stroke
0 566 5755 3805 2 MP stroke
143 0 5683 3805 2 MP stroke
143 0 5683 4371 2 MP stroke
0 564 5826 3817 2 MP stroke
142 0 5755 3817 2 MP stroke
142 0 5755 4381 2 MP stroke
0 554 5897 3842 2 MP stroke
143 0 5826 3842 2 MP stroke
143 0 5826 4396 2 MP stroke
0 540 5969 3865 2 MP stroke
143 0 5897 3865 2 MP stroke
143 0 5897 4405 2 MP stroke
0 534 6040 3885 2 MP stroke
143 0 5969 3885 2 MP stroke
143 0 5969 4419 2 MP stroke
0 523 6112 3905 2 MP stroke
143 0 6040 3905 2 MP stroke
143 0 6040 4428 2 MP stroke
0 513 6183 3924 2 MP stroke
143 0 6112 3924 2 MP stroke
143 0 6112 4437 2 MP stroke
0 503 6255 3938 2 MP stroke
73 0 6183 3938 2 MP stroke
73 0 6183 4441 2 MP stroke
72 9 71 15 72 14 71 17 72 16 71 20 71 11 72 17 
71 19 72 22 71 21 71 15 72 19 71 25 72 22 71 24 
72 19 71 22 71 29 72 27 71 27 72 32 71 26 71 28 
72 41 71 37 72 25 71 32 71 30 72 40 71 45 72 36 
71 35 72 46 71 44 71 47 72 51 71 55 72 55 71 52 
71 70 72 58 71 50 72 42 71 70 72 62 71 58 71 63 
72 69 71 76 72 73 71 73 71 85 72 77 71 66 72 103 
71 90 71 93 72 94 71 66 72 97 71 92 72 86 71 89 
71 88 72 101 71 111 72 101 71 102 71 74 72 56 71 38 
72 35 71 25 71 21 899 469 76 MP stroke
gr

c9
  36   36  970  490 FO
  36   36 1041  515 FO
  36   36 1113  550 FO
  36   36 1184  588 FO
  36   36 1256  644 FO
  36   36 1327  718 FO
  36   36 1398  820 FO
  36   36 1470  921 FO
  36   36 1541 1032 FO
  36   36 1613 1133 FO
  36   36 1684 1221 FO
  36   36 1755 1310 FO
  36   36 1827 1396 FO
  36   36 1898 1488 FO
  36   36 1970 1585 FO
  36   36 2041 1651 FO
  36   36 2113 1745 FO
  36   36 2184 1838 FO
  36   36 2255 1928 FO
  36   36 2327 2031 FO
  36   36 2398 2097 FO
  36   36 2470 2174 FO
  36   36 2541 2259 FO
  36   36 2612 2332 FO
  36   36 2684 2405 FO
  36   36 2755 2481 FO
  36   36 2827 2550 FO
  36   36 2898 2613 FO
  36   36 2969 2671 FO
  36   36 3041 2733 FO
  36   36 3112 2803 FO
  36   36 3184 2845 FO
  36   36 3255 2895 FO
  36   36 3327 2953 FO
  36   36 3398 3023 FO
  36   36 3469 3075 FO
  36   36 3541 3130 FO
  36   36 3612 3185 FO
  36   36 3684 3236 FO
  36   36 3755 3283 FO
  36   36 3826 3327 FO
  36   36 3898 3373 FO
  36   36 3969 3408 FO
  36   36 4041 3444 FO
  36   36 4112 3489 FO
  36   36 4184 3529 FO
  36   36 4255 3559 FO
  36   36 4326 3591 FO
  36   36 4398 3616 FO
  36   36 4469 3653 FO
  36   36 4541 3694 FO
  36   36 4612 3722 FO
  36   36 4683 3748 FO
  36   36 4755 3780 FO
  36   36 4826 3807 FO
  36   36 4898 3834 FO
  36   36 4969 3863 FO
  36   36 5040 3885 FO
  36   36 5112 3904 FO
  36   36 5183 3928 FO
  36   36 5255 3950 FO
  36   36 5326 3975 FO
  36   36 5398 3994 FO
  36   36 5469 4009 FO
  36   36 5540 4030 FO
  36   36 5612 4052 FO
  36   36 5683 4071 FO
  36   36 5755 4088 FO
  36   36 5826 4099 FO
  36   36 5897 4119 FO
  36   36 5969 4135 FO
  36   36 6040 4152 FO
  36   36 6112 4166 FO
  36   36 6183 4181 FO
  36   36 6255 4190 FO
gs 899 469 5357 4147 rc
gr

0 sg
%%IncludeResource: font Helvetica
/Helvetica /ISOLatin1Encoding 168 FMSR

2481  156 mt 
(Src1-GFP in Early Anaphase) s
%%IncludeResource: font Helvetica
/Helvetica /ISOLatin1Encoding 144 FMSR

2813  293 mt 
(n) s
%%IncludeResource: font Helvetica
/Helvetica /ISOLatin1Encoding 108 FMSR

2893  377 mt 
(cells) s
%%IncludeResource: font Helvetica
/Helvetica /ISOLatin1Encoding 144 FMSR

3109  293 mt 
( = 21    -    d) s
%%IncludeResource: font Helvetica
/Helvetica /ISOLatin1Encoding 108 FMSR

3917  377 mt 
(b) s
%%IncludeResource: font Helvetica
/Helvetica /ISOLatin1Encoding 144 FMSR

3977  293 mt 
( = 0.1) s
3314 4921 mt 
(Time \(s\)) s
 577 3058 mt  -90 rotate
(% Fluorescence) s
90 rotate
%%IncludeResource: font Helvetica
/Helvetica /ISOLatin1Encoding 120 FMSR

 882 4658 mt 
( ) s
6239  511 mt 
( ) s
5656  664 mt 
(mother) s
gs 5217 529 980 335 rc
c8
338 0 5284 621 2 MP stroke
gs 5380 548 147 147 rc
  36   36 5453  621 FO
gr

gr

c8
0 sg
5656  813 mt 
(daughter) s
gs 5217 529 980 335 rc
c9
338 0 5284 770 2 MP stroke
gs 5380 697 147 147 rc
  36   36 5453  770 FO
gr

gr

c9

end %%Color Dict

eplot
%%EndObject

epage
end

showpage

%%Trailer
%%EOF
