%!PS-Adobe-3.0 EPSF-3.0
%%Creator: MATLAB, The MathWorks, Inc. Version 8.1.0.604 (R2013a). Operating System: Darwin 11.4.2 Darwin Kernel Version 11.4.2: Thu Aug 23 16:25:48 PDT 2012; root:xnu-1699.32.7~1/RELEASE_X86_64 x86_64.
%%Title: ./EA_Src1-volexc_no.eps
%%CreationDate: 07/25/2013  10:19:42
%%DocumentNeededFonts: Helvetica
%%DocumentProcessColors: Cyan Magenta Yellow Black
%%LanguageLevel: 2
%%Pages: 1
%%BoundingBox:    52   197   551   616
%%EndComments

%%BeginProlog
% MathWorks dictionary
/MathWorks 160 dict begin
% definition operators
/bdef {bind def} bind def
/ldef {load def} bind def
/xdef {exch def} bdef
/xstore {exch store} bdef
% operator abbreviations
/c  /clip ldef
/cc /concat ldef
/cp /closepath ldef
/gr /grestore ldef
/gs /gsave ldef
/mt /moveto ldef
/np /newpath ldef
/cm /currentmatrix ldef
/sm /setmatrix ldef
/rm /rmoveto ldef
/rl /rlineto ldef
/s {show newpath} bdef
/sc {setcmykcolor} bdef
/sr /setrgbcolor ldef
/sg /setgray ldef
/w /setlinewidth ldef
/j /setlinejoin ldef
/cap /setlinecap ldef
/rc {rectclip} bdef
/rf {rectfill} bdef
% page state control
/pgsv () def
/bpage {/pgsv save def} bdef
/epage {pgsv restore} bdef
/bplot /gsave ldef
/eplot {stroke grestore} bdef
% orientation switch
/portraitMode 0 def /landscapeMode 1 def /rotateMode 2 def
% coordinate system mappings
/dpi2point 0 def
% font control
/FontSize 0 def
/FMS {/FontSize xstore findfont [FontSize 0 0 FontSize neg 0 0]
  makefont setfont} bdef
/reencode {exch dup where {pop load} {pop StandardEncoding} ifelse
  exch dup 3 1 roll findfont dup length dict begin
  { 1 index /FID ne {def}{pop pop} ifelse } forall
  /Encoding exch def currentdict end definefont pop} bdef
/isroman {findfont /CharStrings get /Agrave known} bdef
/FMSR {3 1 roll 1 index dup isroman {reencode} {pop pop} ifelse
  exch FMS} bdef
/csm {1 dpi2point div -1 dpi2point div scale neg translate
 dup landscapeMode eq {pop -90 rotate}
  {rotateMode eq {90 rotate} if} ifelse} bdef
% line types: solid, dotted, dashed, dotdash
/SO { [] 0 setdash } bdef
/DO { [.5 dpi2point mul 4 dpi2point mul] 0 setdash } bdef
/DA { [6 dpi2point mul] 0 setdash } bdef
/DD { [.5 dpi2point mul 4 dpi2point mul 6 dpi2point mul 4
  dpi2point mul] 0 setdash } bdef
% macros for lines and objects
/L {lineto stroke} bdef
/MP {3 1 roll moveto 1 sub {rlineto} repeat} bdef
/AP {{rlineto} repeat} bdef
/PDlw -1 def
/W {/PDlw currentlinewidth def setlinewidth} def
/PP {closepath eofill} bdef
/DP {closepath stroke} bdef
/MR {4 -2 roll moveto dup  0 exch rlineto exch 0 rlineto
  neg 0 exch rlineto closepath} bdef
/FR {MR stroke} bdef
/PR {MR fill} bdef
/L1i {{currentfile picstr readhexstring pop} image} bdef
/tMatrix matrix def
/MakeOval {newpath tMatrix currentmatrix pop translate scale
0 0 1 0 360 arc tMatrix setmatrix} bdef
/FO {MakeOval stroke} bdef
/PO {MakeOval fill} bdef
/PD {currentlinewidth 2 div 0 360 arc fill
   PDlw -1 eq not {PDlw w /PDlw -1 def} if} def
/FA {newpath tMatrix currentmatrix pop translate scale
  0 0 1 5 -2 roll arc tMatrix setmatrix stroke} bdef
/PA {newpath tMatrix currentmatrix pop	translate 0 0 moveto scale
  0 0 1 5 -2 roll arc closepath tMatrix setmatrix fill} bdef
/FAn {newpath tMatrix currentmatrix pop translate scale
  0 0 1 5 -2 roll arcn tMatrix setmatrix stroke} bdef
/PAn {newpath tMatrix currentmatrix pop translate 0 0 moveto scale
  0 0 1 5 -2 roll arcn closepath tMatrix setmatrix fill} bdef
/vradius 0 def /hradius 0 def /lry 0 def
/lrx 0 def /uly 0 def /ulx 0 def /rad 0 def
/MRR {/vradius xdef /hradius xdef /lry xdef /lrx xdef /uly xdef
  /ulx xdef newpath tMatrix currentmatrix pop ulx hradius add uly
  vradius add translate hradius vradius scale 0 0 1 180 270 arc 
  tMatrix setmatrix lrx hradius sub uly vradius add translate
  hradius vradius scale 0 0 1 270 360 arc tMatrix setmatrix
  lrx hradius sub lry vradius sub translate hradius vradius scale
  0 0 1 0 90 arc tMatrix setmatrix ulx hradius add lry vradius sub
  translate hradius vradius scale 0 0 1 90 180 arc tMatrix setmatrix
  closepath} bdef
/FRR {MRR stroke } bdef
/PRR {MRR fill } bdef
/MlrRR {/lry xdef /lrx xdef /uly xdef /ulx xdef /rad lry uly sub 2 div def
  newpath tMatrix currentmatrix pop ulx rad add uly rad add translate
  rad rad scale 0 0 1 90 270 arc tMatrix setmatrix lrx rad sub lry rad
  sub translate rad rad scale 0 0 1 270 90 arc tMatrix setmatrix
  closepath} bdef
/FlrRR {MlrRR stroke } bdef
/PlrRR {MlrRR fill } bdef
/MtbRR {/lry xdef /lrx xdef /uly xdef /ulx xdef /rad lrx ulx sub 2 div def
  newpath tMatrix currentmatrix pop ulx rad add uly rad add translate
  rad rad scale 0 0 1 180 360 arc tMatrix setmatrix lrx rad sub lry rad
  sub translate rad rad scale 0 0 1 0 180 arc tMatrix setmatrix
  closepath} bdef
/FtbRR {MtbRR stroke } bdef
/PtbRR {MtbRR fill } bdef
/stri 6 array def /dtri 6 array def
/smat 6 array def /dmat 6 array def
/tmat1 6 array def /tmat2 6 array def /dif 3 array def
/asub {/ind2 exch def /ind1 exch def dup dup
  ind1 get exch ind2 get sub exch } bdef
/tri_to_matrix {
  2 0 asub 3 1 asub 4 0 asub 5 1 asub
  dup 0 get exch 1 get 7 -1 roll astore } bdef
/compute_transform {
  dmat dtri tri_to_matrix tmat1 invertmatrix 
  smat stri tri_to_matrix tmat2 concatmatrix } bdef
/ds {stri astore pop} bdef
/dt {dtri astore pop} bdef
/db {2 copy /cols xdef /rows xdef mul dup 3 mul string
  currentfile 
  3 index 0 eq {/ASCIIHexDecode filter}
  {/ASCII85Decode filter 3 index 2 eq {/RunLengthDecode filter} if }
  ifelse exch readstring pop
  dup 0 3 index getinterval /rbmap xdef
  dup 2 index dup getinterval /gbmap xdef
  1 index dup 2 mul exch getinterval /bbmap xdef pop pop}bdef
/it {gs np dtri aload pop moveto lineto lineto cp c
  cols rows 8 compute_transform 
  rbmap gbmap bbmap true 3 colorimage gr}bdef
/il {newpath moveto lineto stroke}bdef
currentdict end def
%%EndProlog

%%BeginSetup
MathWorks begin

0 cap

end
%%EndSetup

%%Page: 1 1
%%BeginPageSetup
%%PageBoundingBox:    52   197   551   616
MathWorks begin
bpage
%%EndPageSetup

%%BeginObject: obj1
bplot

/dpi2point 12 def
portraitMode 0216 7344 csm

  418   -48  5986  5026 rc
85 dict begin %Colortable dictionary
/c0 { 0.000000 0.000000 0.000000 sr} bdef
/c1 { 1.000000 1.000000 1.000000 sr} bdef
/c2 { 0.900000 0.000000 0.000000 sr} bdef
/c3 { 0.000000 0.820000 0.000000 sr} bdef
/c4 { 0.000000 0.000000 0.800000 sr} bdef
/c5 { 0.910000 0.820000 0.320000 sr} bdef
/c6 { 1.000000 0.260000 0.820000 sr} bdef
/c7 { 0.000000 0.820000 0.820000 sr} bdef
c0
1 j
1 sg
   0    0 6913 5186 rf
6 w
0 4146 5356 0 0 -4146 899 4615 4 MP
PP
-5356 0 0 4146 5356 0 0 -4146 899 4615 5 MP stroke
4 w
DO
SO
6 w
0 sg
 899 4615 mt 6255 4615 L
 899  469 mt 6255  469 L
 899 4615 mt  899  469 L
6255 4615 mt 6255  469 L
 899 4615 mt 6255 4615 L
 899 4615 mt  899  469 L
 899 4615 mt  899 4561 L
 899  469 mt  899  522 L
%%IncludeResource: font Helvetica
/Helvetica /ISOLatin1Encoding 120 FMSR

 866 4760 mt 
(0) s
2684 4615 mt 2684 4561 L
2684  469 mt 2684  522 L
2618 4760 mt 
(50) s
4469 4615 mt 4469 4561 L
4469  469 mt 4469  522 L
4369 4760 mt 
(100) s
6255 4615 mt 6255 4561 L
6255  469 mt 6255  522 L
6155 4760 mt 
(150) s
 899 4615 mt  952 4615 L
6255 4615 mt 6201 4615 L
 798 4659 mt 
(0) s
 899 4200 mt  952 4200 L
6255 4200 mt 6201 4200 L
 731 4244 mt 
(10) s
 899 3785 mt  952 3785 L
6255 3785 mt 6201 3785 L
 731 3829 mt 
(20) s
 899 3371 mt  952 3371 L
6255 3371 mt 6201 3371 L
 731 3415 mt 
(30) s
 899 2956 mt  952 2956 L
6255 2956 mt 6201 2956 L
 731 3000 mt 
(40) s
 899 2542 mt  952 2542 L
6255 2542 mt 6201 2542 L
 731 2586 mt 
(50) s
 899 2127 mt  952 2127 L
6255 2127 mt 6201 2127 L
 731 2171 mt 
(60) s
 899 1712 mt  952 1712 L
6255 1712 mt 6201 1712 L
 731 1756 mt 
(70) s
 899 1298 mt  952 1298 L
6255 1298 mt 6201 1298 L
 731 1342 mt 
(80) s
 899  883 mt  952  883 L
6255  883 mt 6201  883 L
 731  927 mt 
(90) s
 899  469 mt  952  469 L
6255  469 mt 6201  469 L
 664  513 mt 
(100) s
 899 4615 mt 6255 4615 L
 899  469 mt 6255  469 L
 899 4615 mt  899  469 L
6255 4615 mt 6255  469 L
gs 899 469 5357 4147 rc
899 469 PD
163 0 899 469 2 MP stroke
163 0 899 469 2 MP stroke
0 713 1056 1745 2 MP stroke
321 0 899 1745 2 MP stroke
321 0 899 2458 2 MP stroke
0 617 1211 2333 2 MP stroke
328 0 1047 2333 2 MP stroke
328 0 1047 2950 2 MP stroke
0 609 1371 2642 2 MP stroke
327 0 1207 2642 2 MP stroke
327 0 1207 3251 2 MP stroke
0 494 1522 2935 2 MP stroke
328 0 1358 2935 2 MP stroke
328 0 1358 3429 2 MP stroke
0 499 1678 3139 2 MP stroke
327 0 1514 3139 2 MP stroke
327 0 1514 3638 2 MP stroke
0 753 1834 3190 2 MP stroke
328 0 1670 3190 2 MP stroke
328 0 1670 3943 2 MP stroke
0 647 1990 3277 2 MP stroke
327 0 1826 3277 2 MP stroke
327 0 1826 3924 2 MP stroke
0 556 2144 3425 2 MP stroke
328 0 1980 3425 2 MP stroke
328 0 1980 3981 2 MP stroke
0 623 2305 3476 2 MP stroke
328 0 2141 3476 2 MP stroke
328 0 2141 4099 2 MP stroke
0 541 2455 3515 2 MP stroke
328 0 2291 3515 2 MP stroke
328 0 2291 4056 2 MP stroke
0 584 2614 3607 2 MP stroke
328 0 2450 3607 2 MP stroke
328 0 2450 4191 2 MP stroke
0 546 2765 3673 2 MP stroke
328 0 2601 3673 2 MP stroke
328 0 2601 4219 2 MP stroke
0 511 2926 3755 2 MP stroke
327 0 2763 3755 2 MP stroke
327 0 2763 4266 2 MP stroke
0 403 3079 3812 2 MP stroke
328 0 2915 3812 2 MP stroke
328 0 2915 4215 2 MP stroke
0 442 3241 3825 2 MP stroke
328 0 3077 3825 2 MP stroke
328 0 3077 4267 2 MP stroke
0 470 3392 3840 2 MP stroke
328 0 3228 3840 2 MP stroke
328 0 3228 4310 2 MP stroke
0 536 3555 3811 2 MP stroke
328 0 3391 3811 2 MP stroke
328 0 3391 4347 2 MP stroke
0 522 3702 3855 2 MP stroke
328 0 3538 3855 2 MP stroke
328 0 3538 4377 2 MP stroke
0 472 3860 3885 2 MP stroke
328 0 3696 3885 2 MP stroke
328 0 3696 4357 2 MP stroke
0 553 4014 3836 2 MP stroke
328 0 3850 3836 2 MP stroke
328 0 3850 4389 2 MP stroke
0 417 4173 4063 2 MP stroke
328 0 4009 4063 2 MP stroke
328 0 4009 4480 2 MP stroke
0 699 4326 3777 2 MP stroke
328 0 4162 3777 2 MP stroke
328 0 4162 4476 2 MP stroke
0 303 4487 4076 2 MP stroke
328 0 4323 4076 2 MP stroke
328 0 4323 4379 2 MP stroke
0 560 4640 3907 2 MP stroke
328 0 4476 3907 2 MP stroke
328 0 4476 4467 2 MP stroke
0 483 4796 4031 2 MP stroke
328 0 4632 4031 2 MP stroke
328 0 4632 4514 2 MP stroke
0 430 4959 4053 2 MP stroke
328 0 4795 4053 2 MP stroke
328 0 4795 4483 2 MP stroke
0 473 5147 4101 2 MP stroke
328 0 4983 4101 2 MP stroke
328 0 4983 4574 2 MP stroke
0 379 5338 4091 2 MP stroke
328 0 5174 4091 2 MP stroke
328 0 5174 4470 2 MP stroke
0 477 5526 4084 2 MP stroke
328 0 5362 4084 2 MP stroke
328 0 5362 4561 2 MP stroke
0 480 5717 4047 2 MP stroke
328 0 5553 4047 2 MP stroke
328 0 5553 4527 2 MP stroke
0 654 5907 3962 2 MP stroke
327 0 5744 3962 2 MP stroke
0 460 6134 4138 2 MP stroke
286 0 5970 4138 2 MP stroke
286 0 5970 4598 2 MP stroke
59 0 6197 4115 2 MP stroke
59 0 6197 4611 2 MP stroke
122 -3 227 75 190 6 191 -35 188 41 191 -56 188 69 163 -4 
156 85 153 -41 161 102 153 -146 159 159 154 -8 158 5 147 37 
163 4 151 29 162 33 153 2 161 65 151 47 159 114 150 -2 
161 84 154 102 156 35 156 177 156 207 151 235 160 306 155 539 
157 1633 899 469 34 MP stroke
gr

 874  444 mt  924  494 L
 924  444 mt  874  494 L
1031 2077 mt 1081 2127 L
1081 2077 mt 1031 2127 L
1186 2616 mt 1236 2666 L
1236 2616 mt 1186 2666 L
1346 2922 mt 1396 2972 L
1396 2922 mt 1346 2972 L
1497 3157 mt 1547 3207 L
1547 3157 mt 1497 3207 L
1653 3364 mt 1703 3414 L
1703 3364 mt 1653 3414 L
1809 3541 mt 1859 3591 L
1859 3541 mt 1809 3591 L
1965 3576 mt 2015 3626 L
2015 3576 mt 1965 3626 L
2119 3678 mt 2169 3728 L
2169 3678 mt 2119 3728 L
2280 3762 mt 2330 3812 L
2330 3762 mt 2280 3812 L
2430 3760 mt 2480 3810 L
2480 3760 mt 2430 3810 L
2589 3874 mt 2639 3924 L
2639 3874 mt 2589 3924 L
2740 3921 mt 2790 3971 L
2790 3921 mt 2740 3971 L
2901 3986 mt 2951 4036 L
2951 3986 mt 2901 4036 L
3054 3988 mt 3104 4038 L
3104 3988 mt 3054 4038 L
3216 4021 mt 3266 4071 L
3266 4021 mt 3216 4071 L
3367 4050 mt 3417 4100 L
3417 4050 mt 3367 4100 L
3530 4054 mt 3580 4104 L
3580 4054 mt 3530 4104 L
3677 4091 mt 3727 4141 L
3727 4091 mt 3677 4141 L
3835 4096 mt 3885 4146 L
3885 4096 mt 3835 4146 L
3989 4088 mt 4039 4138 L
4039 4088 mt 3989 4138 L
4148 4247 mt 4198 4297 L
4198 4247 mt 4148 4297 L
4301 4101 mt 4351 4151 L
4351 4101 mt 4301 4151 L
4462 4203 mt 4512 4253 L
4512 4203 mt 4462 4253 L
4615 4162 mt 4665 4212 L
4665 4162 mt 4615 4212 L
4771 4247 mt 4821 4297 L
4821 4247 mt 4771 4297 L
4934 4243 mt 4984 4293 L
4984 4243 mt 4934 4293 L
5122 4312 mt 5172 4362 L
5172 4312 mt 5122 4362 L
5313 4256 mt 5363 4306 L
5363 4256 mt 5313 4306 L
5501 4297 mt 5551 4347 L
5551 4297 mt 5501 4347 L
5692 4262 mt 5742 4312 L
5742 4262 mt 5692 4312 L
5882 4268 mt 5932 4318 L
5932 4268 mt 5882 4318 L
6109 4343 mt 6159 4393 L
6159 4343 mt 6109 4393 L
gs 899 469 5357 4147 rc
899 469 PD
163 0 899 469 2 MP stroke
163 0 899 469 2 MP stroke
0 412 1056 790 2 MP stroke
321 0 899 790 2 MP stroke
321 0 899 1202 2 MP stroke
0 352 1211 948 2 MP stroke
328 0 1047 948 2 MP stroke
328 0 1047 1300 2 MP stroke
0 601 1371 1278 2 MP stroke
327 0 1207 1278 2 MP stroke
327 0 1207 1879 2 MP stroke
0 719 1522 1366 2 MP stroke
328 0 1358 1366 2 MP stroke
328 0 1358 2085 2 MP stroke
0 660 1678 1659 2 MP stroke
327 0 1514 1659 2 MP stroke
327 0 1514 2319 2 MP stroke
0 912 1834 1715 2 MP stroke
328 0 1670 1715 2 MP stroke
328 0 1670 2627 2 MP stroke
0 900 1990 1832 2 MP stroke
327 0 1826 1832 2 MP stroke
327 0 1826 2732 2 MP stroke
0 977 2144 1985 2 MP stroke
328 0 1980 1985 2 MP stroke
328 0 1980 2962 2 MP stroke
0 1034 2305 2027 2 MP stroke
328 0 2141 2027 2 MP stroke
328 0 2141 3061 2 MP stroke
0 1025 2455 2260 2 MP stroke
328 0 2291 2260 2 MP stroke
328 0 2291 3285 2 MP stroke
0 871 2614 2419 2 MP stroke
328 0 2450 2419 2 MP stroke
328 0 2450 3290 2 MP stroke
0 1068 2765 2260 2 MP stroke
328 0 2601 2260 2 MP stroke
328 0 2601 3328 2 MP stroke
0 1004 2926 2581 2 MP stroke
327 0 2763 2581 2 MP stroke
327 0 2763 3585 2 MP stroke
0 962 3079 2614 2 MP stroke
328 0 2915 2614 2 MP stroke
328 0 2915 3576 2 MP stroke
0 1063 3241 2651 2 MP stroke
328 0 3077 2651 2 MP stroke
328 0 3077 3714 2 MP stroke
0 900 3392 2766 2 MP stroke
328 0 3228 2766 2 MP stroke
328 0 3228 3666 2 MP stroke
0 1062 3555 2663 2 MP stroke
328 0 3391 2663 2 MP stroke
328 0 3391 3725 2 MP stroke
0 813 3702 3043 2 MP stroke
328 0 3538 3043 2 MP stroke
328 0 3538 3856 2 MP stroke
0 729 3860 2988 2 MP stroke
328 0 3696 2988 2 MP stroke
328 0 3696 3717 2 MP stroke
0 903 4014 2921 2 MP stroke
328 0 3850 2921 2 MP stroke
328 0 3850 3824 2 MP stroke
0 934 4173 3023 2 MP stroke
328 0 4009 3023 2 MP stroke
328 0 4009 3957 2 MP stroke
0 779 4326 3238 2 MP stroke
328 0 4162 3238 2 MP stroke
328 0 4162 4017 2 MP stroke
0 952 4487 2989 2 MP stroke
328 0 4323 2989 2 MP stroke
328 0 4323 3941 2 MP stroke
0 691 4640 3358 2 MP stroke
328 0 4476 3358 2 MP stroke
328 0 4476 4049 2 MP stroke
0 659 4796 3321 2 MP stroke
328 0 4632 3321 2 MP stroke
328 0 4632 3980 2 MP stroke
0 713 4959 3303 2 MP stroke
328 0 4795 3303 2 MP stroke
328 0 4795 4016 2 MP stroke
0 838 5147 3327 2 MP stroke
328 0 4983 3327 2 MP stroke
328 0 4983 4165 2 MP stroke
0 886 5338 3293 2 MP stroke
328 0 5174 3293 2 MP stroke
328 0 5174 4179 2 MP stroke
0 809 5526 3485 2 MP stroke
328 0 5362 3485 2 MP stroke
328 0 5362 4294 2 MP stroke
0 834 5717 3405 2 MP stroke
328 0 5553 3405 2 MP stroke
328 0 5553 4239 2 MP stroke
0 807 5907 3529 2 MP stroke
327 0 5744 3529 2 MP stroke
327 0 5744 4336 2 MP stroke
0 806 6134 3525 2 MP stroke
286 0 5970 3525 2 MP stroke
286 0 5970 4331 2 MP stroke
59 0 6197 3601 2 MP stroke
59 0 6197 4467 2 MP stroke
122 57 227 -5 190 111 191 -68 188 154 191 -10 188 87 163 8 
156 -53 153 239 161 -163 153 138 159 118 154 20 158 -98 147 256 
163 -22 151 33 162 88 153 12 161 289 151 -60 159 81 150 229 
161 70 154 192 156 111 156 182 156 263 151 148 160 454 155 128 
157 527 899 469 34 MP stroke
gr

 874  444 mt  924  494 L
 924  444 mt  874  494 L
1031  971 mt 1081 1021 L
1081  971 mt 1031 1021 L
1186 1099 mt 1236 1149 L
1236 1099 mt 1186 1149 L
1346 1553 mt 1396 1603 L
1396 1553 mt 1346 1603 L
1497 1701 mt 1547 1751 L
1547 1701 mt 1497 1751 L
1653 1964 mt 1703 2014 L
1703 1964 mt 1653 2014 L
1809 2146 mt 1859 2196 L
1859 2146 mt 1809 2196 L
1965 2257 mt 2015 2307 L
2015 2257 mt 1965 2307 L
2119 2449 mt 2169 2499 L
2169 2449 mt 2119 2499 L
2280 2519 mt 2330 2569 L
2330 2519 mt 2280 2569 L
2430 2748 mt 2480 2798 L
2480 2748 mt 2430 2798 L
2589 2829 mt 2639 2879 L
2639 2829 mt 2589 2879 L
2740 2769 mt 2790 2819 L
2790 2769 mt 2740 2819 L
2901 3058 mt 2951 3108 L
2951 3058 mt 2901 3108 L
3054 3070 mt 3104 3120 L
3104 3070 mt 3054 3120 L
3216 3158 mt 3266 3208 L
3266 3158 mt 3216 3208 L
3367 3191 mt 3417 3241 L
3417 3191 mt 3367 3241 L
3530 3169 mt 3580 3219 L
3580 3169 mt 3530 3219 L
3677 3425 mt 3727 3475 L
3727 3425 mt 3677 3475 L
3835 3327 mt 3885 3377 L
3885 3327 mt 3835 3377 L
3989 3347 mt 4039 3397 L
4039 3347 mt 3989 3397 L
4148 3465 mt 4198 3515 L
4198 3465 mt 4148 3515 L
4301 3603 mt 4351 3653 L
4351 3603 mt 4301 3653 L
4462 3440 mt 4512 3490 L
4512 3440 mt 4462 3490 L
4615 3679 mt 4665 3729 L
4665 3679 mt 4615 3729 L
4771 3626 mt 4821 3676 L
4821 3626 mt 4771 3676 L
4934 3634 mt 4984 3684 L
4984 3634 mt 4934 3684 L
5122 3721 mt 5172 3771 L
5172 3721 mt 5122 3771 L
5313 3711 mt 5363 3761 L
5363 3711 mt 5313 3761 L
5501 3865 mt 5551 3915 L
5551 3865 mt 5501 3915 L
5692 3797 mt 5742 3847 L
5742 3797 mt 5692 3847 L
5882 3908 mt 5932 3958 L
5932 3908 mt 5882 3958 L
6109 3903 mt 6159 3953 L
6159 3903 mt 6109 3953 L
gs 899 469 5357 4147 rc
/c8 { 1.000000 0.000000 0.000000 sr} bdef
c8
899 499 PD
899 469 PD
71 0 899 469 2 MP stroke
71 0 899 469 2 MP stroke
0 140 970 941 2 MP stroke
142 0 899 941 2 MP stroke
142 0 899 1081 2 MP stroke
0 192 1041 1291 2 MP stroke
143 0 970 1291 2 MP stroke
143 0 970 1483 2 MP stroke
0 277 1113 1581 2 MP stroke
143 0 1041 1581 2 MP stroke
143 0 1041 1858 2 MP stroke
0 288 1184 1871 2 MP stroke
143 0 1113 1871 2 MP stroke
143 0 1113 2159 2 MP stroke
0 323 1256 2100 2 MP stroke
143 0 1184 2100 2 MP stroke
143 0 1184 2423 2 MP stroke
0 326 1327 2334 2 MP stroke
142 0 1256 2334 2 MP stroke
142 0 1256 2660 2 MP stroke
0 321 1398 2533 2 MP stroke
143 0 1327 2533 2 MP stroke
143 0 1327 2854 2 MP stroke
0 313 1470 2712 2 MP stroke
143 0 1398 2712 2 MP stroke
143 0 1398 3025 2 MP stroke
0 312 1541 2869 2 MP stroke
143 0 1470 2869 2 MP stroke
143 0 1470 3181 2 MP stroke
0 298 1613 3014 2 MP stroke
143 0 1541 3014 2 MP stroke
143 0 1541 3312 2 MP stroke
0 273 1684 3148 2 MP stroke
142 0 1613 3148 2 MP stroke
142 0 1613 3421 2 MP stroke
0 268 1755 3255 2 MP stroke
143 0 1684 3255 2 MP stroke
143 0 1684 3523 2 MP stroke
0 280 1827 3359 2 MP stroke
143 0 1755 3359 2 MP stroke
143 0 1755 3639 2 MP stroke
0 276 1898 3449 2 MP stroke
143 0 1827 3449 2 MP stroke
143 0 1827 3725 2 MP stroke
0 277 1970 3527 2 MP stroke
143 0 1898 3527 2 MP stroke
143 0 1898 3804 2 MP stroke
0 271 2041 3605 2 MP stroke
143 0 1970 3605 2 MP stroke
143 0 1970 3876 2 MP stroke
0 251 2113 3681 2 MP stroke
143 0 2041 3681 2 MP stroke
143 0 2041 3932 2 MP stroke
0 249 2184 3734 2 MP stroke
142 0 2113 3734 2 MP stroke
142 0 2113 3983 2 MP stroke
0 219 2255 3799 2 MP stroke
143 0 2184 3799 2 MP stroke
143 0 2184 4018 2 MP stroke
0 216 2327 3848 2 MP stroke
143 0 2255 3848 2 MP stroke
143 0 2255 4064 2 MP stroke
0 202 2398 3893 2 MP stroke
143 0 2327 3893 2 MP stroke
143 0 2327 4095 2 MP stroke
0 188 2470 3935 2 MP stroke
143 0 2398 3935 2 MP stroke
143 0 2398 4123 2 MP stroke
0 172 2541 3974 2 MP stroke
142 0 2470 3974 2 MP stroke
142 0 2470 4146 2 MP stroke
0 172 2612 4009 2 MP stroke
143 0 2541 4009 2 MP stroke
143 0 2541 4181 2 MP stroke
0 173 2684 4040 2 MP stroke
143 0 2612 4040 2 MP stroke
143 0 2612 4213 2 MP stroke
0 170 2755 4067 2 MP stroke
143 0 2684 4067 2 MP stroke
143 0 2684 4237 2 MP stroke
0 180 2827 4086 2 MP stroke
143 0 2755 4086 2 MP stroke
143 0 2755 4266 2 MP stroke
0 163 2898 4120 2 MP stroke
142 0 2827 4120 2 MP stroke
142 0 2827 4283 2 MP stroke
0 169 2969 4135 2 MP stroke
143 0 2898 4135 2 MP stroke
143 0 2898 4304 2 MP stroke
0 175 3041 4146 2 MP stroke
143 0 2969 4146 2 MP stroke
143 0 2969 4321 2 MP stroke
0 162 3112 4172 2 MP stroke
143 0 3041 4172 2 MP stroke
143 0 3041 4334 2 MP stroke
0 159 3184 4193 2 MP stroke
143 0 3112 4193 2 MP stroke
143 0 3112 4352 2 MP stroke
0 165 3255 4200 2 MP stroke
143 0 3184 4200 2 MP stroke
143 0 3184 4365 2 MP stroke
0 173 3327 4207 2 MP stroke
143 0 3255 4207 2 MP stroke
143 0 3255 4380 2 MP stroke
0 165 3398 4227 2 MP stroke
142 0 3327 4227 2 MP stroke
142 0 3327 4392 2 MP stroke
0 169 3469 4237 2 MP stroke
143 0 3398 4237 2 MP stroke
143 0 3398 4406 2 MP stroke
0 159 3541 4254 2 MP stroke
143 0 3469 4254 2 MP stroke
143 0 3469 4413 2 MP stroke
0 161 3612 4267 2 MP stroke
143 0 3541 4267 2 MP stroke
143 0 3541 4428 2 MP stroke
0 151 3684 4282 2 MP stroke
143 0 3612 4282 2 MP stroke
143 0 3612 4433 2 MP stroke
0 154 3755 4289 2 MP stroke
142 0 3684 4289 2 MP stroke
142 0 3684 4443 2 MP stroke
0 138 3826 4312 2 MP stroke
143 0 3755 4312 2 MP stroke
143 0 3755 4450 2 MP stroke
0 138 3898 4321 2 MP stroke
143 0 3826 4321 2 MP stroke
143 0 3826 4459 2 MP stroke
0 132 3969 4333 2 MP stroke
143 0 3898 4333 2 MP stroke
143 0 3898 4465 2 MP stroke
0 128 4041 4341 2 MP stroke
143 0 3969 4341 2 MP stroke
143 0 3969 4469 2 MP stroke
0 129 4112 4349 2 MP stroke
143 0 4041 4349 2 MP stroke
143 0 4041 4478 2 MP stroke
0 135 4184 4349 2 MP stroke
143 0 4112 4349 2 MP stroke
143 0 4112 4484 2 MP stroke
0 132 4255 4359 2 MP stroke
142 0 4184 4359 2 MP stroke
142 0 4184 4491 2 MP stroke
0 125 4326 4371 2 MP stroke
143 0 4255 4371 2 MP stroke
143 0 4255 4496 2 MP stroke
0 126 4398 4380 2 MP stroke
143 0 4326 4380 2 MP stroke
143 0 4326 4506 2 MP stroke
0 129 4469 4385 2 MP stroke
143 0 4398 4385 2 MP stroke
143 0 4398 4514 2 MP stroke
0 122 4541 4400 2 MP stroke
143 0 4469 4400 2 MP stroke
143 0 4469 4522 2 MP stroke
0 127 4612 4399 2 MP stroke
142 0 4541 4399 2 MP stroke
142 0 4541 4526 2 MP stroke
0 125 4683 4408 2 MP stroke
143 0 4612 4408 2 MP stroke
143 0 4612 4533 2 MP stroke
0 126 4755 4409 2 MP stroke
143 0 4683 4409 2 MP stroke
143 0 4683 4535 2 MP stroke
0 127 4826 4413 2 MP stroke
143 0 4755 4413 2 MP stroke
143 0 4755 4540 2 MP stroke
0 126 4898 4417 2 MP stroke
143 0 4826 4417 2 MP stroke
143 0 4826 4543 2 MP stroke
0 127 4969 4422 2 MP stroke
142 0 4898 4422 2 MP stroke
142 0 4898 4549 2 MP stroke
0 122 5040 4427 2 MP stroke
143 0 4969 4427 2 MP stroke
143 0 4969 4549 2 MP stroke
0 123 5112 4434 2 MP stroke
143 0 5040 4434 2 MP stroke
143 0 5040 4557 2 MP stroke
0 112 5183 4443 2 MP stroke
143 0 5112 4443 2 MP stroke
143 0 5112 4555 2 MP stroke
0 110 5255 4450 2 MP stroke
143 0 5183 4450 2 MP stroke
143 0 5183 4560 2 MP stroke
0 108 5326 4454 2 MP stroke
143 0 5255 4454 2 MP stroke
143 0 5255 4562 2 MP stroke
0 99 5398 4465 2 MP stroke
143 0 5326 4465 2 MP stroke
143 0 5326 4564 2 MP stroke
0 97 5469 4468 2 MP stroke
142 0 5398 4468 2 MP stroke
142 0 5398 4565 2 MP stroke
0 94 5540 4475 2 MP stroke
143 0 5469 4475 2 MP stroke
143 0 5469 4569 2 MP stroke
0 89 5612 4482 2 MP stroke
143 0 5540 4482 2 MP stroke
143 0 5540 4571 2 MP stroke
0 86 5683 4486 2 MP stroke
143 0 5612 4486 2 MP stroke
143 0 5612 4572 2 MP stroke
0 80 5755 4493 2 MP stroke
143 0 5683 4493 2 MP stroke
143 0 5683 4573 2 MP stroke
0 86 5826 4490 2 MP stroke
142 0 5755 4490 2 MP stroke
142 0 5755 4576 2 MP stroke
0 91 5897 4490 2 MP stroke
143 0 5826 4490 2 MP stroke
143 0 5826 4581 2 MP stroke
0 82 5969 4499 2 MP stroke
143 0 5897 4499 2 MP stroke
143 0 5897 4581 2 MP stroke
0 85 6040 4500 2 MP stroke
143 0 5969 4500 2 MP stroke
143 0 5969 4585 2 MP stroke
0 80 6112 4507 2 MP stroke
143 0 6040 4507 2 MP stroke
143 0 6040 4587 2 MP stroke
0 72 6183 4513 2 MP stroke
143 0 6112 4513 2 MP stroke
143 0 6112 4585 2 MP stroke
0 71 6255 4516 2 MP stroke
73 0 6183 4516 2 MP stroke
73 0 6183 4587 2 MP stroke
72 3 71 2 72 4 71 3 72 4 71 3 71 0 72 4 
71 2 72 5 71 5 71 3 72 6 71 3 72 6 71 4 
72 7 71 3 71 5 72 3 71 5 72 2 71 7 71 2 
72 11 71 7 72 10 71 8 71 9 72 3 71 8 72 6 
71 9 72 9 71 15 71 9 72 10 71 13 72 12 71 13 
71 15 72 11 71 11 72 19 71 19 72 15 71 17 71 26 
72 24 71 25 72 32 71 35 71 31 72 35 71 38 72 48 
71 49 71 53 72 66 71 74 72 79 71 88 72 110 71 105 
71 121 72 138 71 157 72 175 71 196 71 235 72 247 71 295 
72 333 71 376 71 542 899 469 76 MP stroke
gr

c8
  36   36  970 1011 FO
  36   36 1041 1387 FO
  36   36 1113 1720 FO
  36   36 1184 2015 FO
  36   36 1256 2262 FO
  36   36 1327 2497 FO
  36   36 1398 2693 FO
  36   36 1470 2868 FO
  36   36 1541 3025 FO
  36   36 1613 3163 FO
  36   36 1684 3284 FO
  36   36 1755 3389 FO
  36   36 1827 3499 FO
  36   36 1898 3587 FO
  36   36 1970 3666 FO
  36   36 2041 3740 FO
  36   36 2113 3806 FO
  36   36 2184 3859 FO
  36   36 2255 3908 FO
  36   36 2327 3956 FO
  36   36 2398 3994 FO
  36   36 2470 4029 FO
  36   36 2541 4060 FO
  36   36 2612 4095 FO
  36   36 2684 4127 FO
  36   36 2755 4152 FO
  36   36 2827 4176 FO
  36   36 2898 4202 FO
  36   36 2969 4219 FO
  36   36 3041 4234 FO
  36   36 3112 4253 FO
  36   36 3184 4272 FO
  36   36 3255 4283 FO
  36   36 3327 4294 FO
  36   36 3398 4309 FO
  36   36 3469 4322 FO
  36   36 3541 4334 FO
  36   36 3612 4347 FO
  36   36 3684 4357 FO
  36   36 3755 4366 FO
  36   36 3826 4381 FO
  36   36 3898 4390 FO
  36   36 3969 4399 FO
  36   36 4041 4405 FO
  36   36 4112 4413 FO
  36   36 4184 4416 FO
  36   36 4255 4425 FO
  36   36 4326 4433 FO
  36   36 4398 4443 FO
  36   36 4469 4450 FO
  36   36 4541 4461 FO
  36   36 4612 4463 FO
  36   36 4683 4470 FO
  36   36 4755 4472 FO
  36   36 4826 4477 FO
  36   36 4898 4480 FO
  36   36 4969 4485 FO
  36   36 5040 4488 FO
  36   36 5112 4495 FO
  36   36 5183 4499 FO
  36   36 5255 4505 FO
  36   36 5326 4508 FO
  36   36 5398 4514 FO
  36   36 5469 4517 FO
  36   36 5540 4522 FO
  36   36 5612 4527 FO
  36   36 5683 4529 FO
  36   36 5755 4533 FO
  36   36 5826 4533 FO
  36   36 5897 4536 FO
  36   36 5969 4540 FO
  36   36 6040 4543 FO
  36   36 6112 4547 FO
  36   36 6183 4549 FO
  36   36 6255 4552 FO
gs 899 469 5357 4147 rc
/c9 { 0.000000 0.500000 0.000000 sr} bdef
c9
899 523 PD
899 469 PD
71 0 899 469 2 MP stroke
71 0 899 469 2 MP stroke
0 45 970 469 2 MP stroke
142 0 899 514 2 MP stroke
0 126 1041 469 2 MP stroke
143 0 970 595 2 MP stroke
0 153 1113 495 2 MP stroke
143 0 1041 495 2 MP stroke
143 0 1041 648 2 MP stroke
0 179 1184 549 2 MP stroke
143 0 1113 549 2 MP stroke
143 0 1113 728 2 MP stroke
0 211 1256 596 2 MP stroke
143 0 1184 596 2 MP stroke
143 0 1184 807 2 MP stroke
0 276 1327 661 2 MP stroke
142 0 1256 661 2 MP stroke
142 0 1256 937 2 MP stroke
0 358 1398 704 2 MP stroke
143 0 1327 704 2 MP stroke
143 0 1327 1062 2 MP stroke
0 399 1470 787 2 MP stroke
143 0 1398 787 2 MP stroke
143 0 1398 1186 2 MP stroke
0 464 1541 835 2 MP stroke
143 0 1470 835 2 MP stroke
143 0 1470 1299 2 MP stroke
0 490 1613 923 2 MP stroke
143 0 1541 923 2 MP stroke
143 0 1541 1413 2 MP stroke
0 541 1684 996 2 MP stroke
142 0 1613 996 2 MP stroke
142 0 1613 1537 2 MP stroke
0 584 1755 1090 2 MP stroke
143 0 1684 1090 2 MP stroke
143 0 1684 1674 2 MP stroke
0 666 1827 1134 2 MP stroke
143 0 1755 1134 2 MP stroke
143 0 1755 1800 2 MP stroke
0 702 1898 1209 2 MP stroke
143 0 1827 1209 2 MP stroke
143 0 1827 1911 2 MP stroke
0 713 1970 1294 2 MP stroke
143 0 1898 1294 2 MP stroke
143 0 1898 2007 2 MP stroke
0 772 2041 1357 2 MP stroke
143 0 1970 1357 2 MP stroke
143 0 1970 2129 2 MP stroke
0 805 2113 1432 2 MP stroke
143 0 2041 1432 2 MP stroke
143 0 2041 2237 2 MP stroke
0 849 2184 1516 2 MP stroke
142 0 2113 1516 2 MP stroke
142 0 2113 2365 2 MP stroke
0 897 2255 1593 2 MP stroke
143 0 2184 1593 2 MP stroke
143 0 2184 2490 2 MP stroke
0 888 2327 1676 2 MP stroke
143 0 2255 1676 2 MP stroke
143 0 2255 2564 2 MP stroke
0 899 2398 1760 2 MP stroke
143 0 2327 1760 2 MP stroke
143 0 2327 2659 2 MP stroke
0 942 2470 1832 2 MP stroke
143 0 2398 1832 2 MP stroke
143 0 2398 2774 2 MP stroke
0 948 2541 1912 2 MP stroke
142 0 2470 1912 2 MP stroke
142 0 2470 2860 2 MP stroke
0 930 2612 1993 2 MP stroke
143 0 2541 1993 2 MP stroke
143 0 2541 2923 2 MP stroke
0 921 2684 2072 2 MP stroke
143 0 2612 2072 2 MP stroke
143 0 2612 2993 2 MP stroke
0 947 2755 2143 2 MP stroke
143 0 2684 2143 2 MP stroke
143 0 2684 3090 2 MP stroke
0 942 2827 2216 2 MP stroke
143 0 2755 2216 2 MP stroke
143 0 2755 3158 2 MP stroke
0 943 2898 2272 2 MP stroke
142 0 2827 2272 2 MP stroke
142 0 2827 3215 2 MP stroke
0 925 2969 2347 2 MP stroke
143 0 2898 2347 2 MP stroke
143 0 2898 3272 2 MP stroke
0 922 3041 2421 2 MP stroke
143 0 2969 2421 2 MP stroke
143 0 2969 3343 2 MP stroke
0 918 3112 2487 2 MP stroke
143 0 3041 2487 2 MP stroke
143 0 3041 3405 2 MP stroke
0 897 3184 2547 2 MP stroke
143 0 3112 2547 2 MP stroke
143 0 3112 3444 2 MP stroke
0 873 3255 2629 2 MP stroke
143 0 3184 2629 2 MP stroke
143 0 3184 3502 2 MP stroke
0 862 3327 2688 2 MP stroke
143 0 3255 2688 2 MP stroke
143 0 3255 3550 2 MP stroke
0 840 3398 2748 2 MP stroke
142 0 3327 2748 2 MP stroke
142 0 3327 3588 2 MP stroke
0 835 3469 2796 2 MP stroke
143 0 3398 2796 2 MP stroke
143 0 3398 3631 2 MP stroke
0 829 3541 2853 2 MP stroke
143 0 3469 2853 2 MP stroke
143 0 3469 3682 2 MP stroke
0 821 3612 2907 2 MP stroke
143 0 3541 2907 2 MP stroke
143 0 3541 3728 2 MP stroke
0 818 3684 2959 2 MP stroke
143 0 3612 2959 2 MP stroke
143 0 3612 3777 2 MP stroke
0 820 3755 3013 2 MP stroke
142 0 3684 3013 2 MP stroke
142 0 3684 3833 2 MP stroke
0 821 3826 3051 2 MP stroke
143 0 3755 3051 2 MP stroke
143 0 3755 3872 2 MP stroke
0 817 3898 3092 2 MP stroke
143 0 3826 3092 2 MP stroke
143 0 3826 3909 2 MP stroke
0 790 3969 3150 2 MP stroke
143 0 3898 3150 2 MP stroke
143 0 3898 3940 2 MP stroke
0 786 4041 3194 2 MP stroke
143 0 3969 3194 2 MP stroke
143 0 3969 3980 2 MP stroke
0 801 4112 3231 2 MP stroke
143 0 4041 3231 2 MP stroke
143 0 4041 4032 2 MP stroke
0 772 4184 3288 2 MP stroke
143 0 4112 3288 2 MP stroke
143 0 4112 4060 2 MP stroke
0 749 4255 3330 2 MP stroke
142 0 4184 3330 2 MP stroke
142 0 4184 4079 2 MP stroke
0 754 4326 3360 2 MP stroke
143 0 4255 3360 2 MP stroke
143 0 4255 4114 2 MP stroke
0 731 4398 3396 2 MP stroke
143 0 4326 3396 2 MP stroke
143 0 4326 4127 2 MP stroke
0 711 4469 3438 2 MP stroke
143 0 4398 3438 2 MP stroke
143 0 4398 4149 2 MP stroke
0 698 4541 3466 2 MP stroke
143 0 4469 3466 2 MP stroke
143 0 4469 4164 2 MP stroke
0 679 4612 3511 2 MP stroke
142 0 4541 3511 2 MP stroke
142 0 4541 4190 2 MP stroke
0 657 4683 3541 2 MP stroke
143 0 4612 3541 2 MP stroke
143 0 4612 4198 2 MP stroke
0 636 4755 3584 2 MP stroke
143 0 4683 3584 2 MP stroke
143 0 4683 4220 2 MP stroke
0 609 4826 3623 2 MP stroke
143 0 4755 3623 2 MP stroke
143 0 4755 4232 2 MP stroke
0 597 4898 3654 2 MP stroke
143 0 4826 3654 2 MP stroke
143 0 4826 4251 2 MP stroke
0 578 4969 3690 2 MP stroke
142 0 4898 3690 2 MP stroke
142 0 4898 4268 2 MP stroke
0 581 5040 3712 2 MP stroke
143 0 4969 3712 2 MP stroke
143 0 4969 4293 2 MP stroke
0 567 5112 3737 2 MP stroke
143 0 5040 3737 2 MP stroke
143 0 5040 4304 2 MP stroke
0 563 5183 3765 2 MP stroke
143 0 5112 3765 2 MP stroke
143 0 5112 4328 2 MP stroke
0 548 5255 3790 2 MP stroke
143 0 5183 3790 2 MP stroke
143 0 5183 4338 2 MP stroke
0 544 5326 3811 2 MP stroke
143 0 5255 3811 2 MP stroke
143 0 5255 4355 2 MP stroke
0 529 5398 3832 2 MP stroke
143 0 5326 3832 2 MP stroke
143 0 5326 4361 2 MP stroke
0 512 5469 3859 2 MP stroke
142 0 5398 3859 2 MP stroke
142 0 5398 4371 2 MP stroke
0 502 5540 3878 2 MP stroke
143 0 5469 3878 2 MP stroke
143 0 5469 4380 2 MP stroke
0 497 5612 3901 2 MP stroke
143 0 5540 3901 2 MP stroke
143 0 5540 4398 2 MP stroke
0 486 5683 3922 2 MP stroke
143 0 5612 3922 2 MP stroke
143 0 5612 4408 2 MP stroke
0 479 5755 3941 2 MP stroke
143 0 5683 3941 2 MP stroke
143 0 5683 4420 2 MP stroke
0 463 5826 3968 2 MP stroke
142 0 5755 3968 2 MP stroke
142 0 5755 4431 2 MP stroke
0 455 5897 3988 2 MP stroke
143 0 5826 3988 2 MP stroke
143 0 5826 4443 2 MP stroke
0 452 5969 3999 2 MP stroke
143 0 5897 3999 2 MP stroke
143 0 5897 4451 2 MP stroke
0 431 6040 4021 2 MP stroke
143 0 5969 4021 2 MP stroke
143 0 5969 4452 2 MP stroke
0 423 6112 4035 2 MP stroke
143 0 6040 4035 2 MP stroke
143 0 6040 4458 2 MP stroke
0 425 6183 4049 2 MP stroke
143 0 6112 4049 2 MP stroke
143 0 6112 4474 2 MP stroke
0 413 6255 4063 2 MP stroke
73 0 6183 4063 2 MP stroke
73 0 6183 4476 2 MP stroke
899 469 PD
gr

c9
gs 899 469 5357 4147 rc
72 9 71 14 72 11 71 11 72 9 71 16 71 19 72 16 
71 16 72 20 71 14 71 19 72 13 71 19 72 17 71 27 
72 18 71 23 71 27 72 25 71 25 72 32 71 20 71 35 
72 21 71 33 72 24 71 33 71 30 72 42 71 45 72 42 
71 45 72 38 71 39 71 55 72 51 71 49 72 55 71 45 
71 49 72 53 71 70 72 50 71 64 72 73 71 66 71 56 
72 71 71 84 72 74 71 72 71 83 72 93 71 90 72 78 
71 101 71 107 72 91 71 93 72 90 71 93 72 85 71 115 
71 99 72 101 71 80 72 104 71 84 71 97 72 63 71 67 
72 56 58 47 983 469 75 MP stroke
gr

  36   36 1041  516 FO
  36   36 1113  572 FO
  36   36 1184  639 FO
  36   36 1256  702 FO
  36   36 1327  799 FO
  36   36 1398  883 FO
  36   36 1470  987 FO
  36   36 1541 1067 FO
  36   36 1613 1168 FO
  36   36 1684 1267 FO
  36   36 1755 1382 FO
  36   36 1827 1467 FO
  36   36 1898 1560 FO
  36   36 1970 1650 FO
  36   36 2041 1743 FO
  36   36 2113 1834 FO
  36   36 2184 1941 FO
  36   36 2255 2042 FO
  36   36 2327 2120 FO
  36   36 2398 2210 FO
  36   36 2470 2303 FO
  36   36 2541 2386 FO
  36   36 2612 2458 FO
  36   36 2684 2532 FO
  36   36 2755 2616 FO
  36   36 2827 2687 FO
  36   36 2898 2743 FO
  36   36 2969 2809 FO
  36   36 3041 2882 FO
  36   36 3112 2946 FO
  36   36 3184 2996 FO
  36   36 3255 3066 FO
  36   36 3327 3119 FO
  36   36 3398 3168 FO
  36   36 3469 3213 FO
  36   36 3541 3268 FO
  36   36 3612 3317 FO
  36   36 3684 3368 FO
  36   36 3755 3423 FO
  36   36 3826 3462 FO
  36   36 3898 3500 FO
  36   36 3969 3545 FO
  36   36 4041 3587 FO
  36   36 4112 3632 FO
  36   36 4184 3674 FO
  36   36 4255 3704 FO
  36   36 4326 3737 FO
  36   36 4398 3761 FO
  36   36 4469 3794 FO
  36   36 4541 3815 FO
  36   36 4612 3850 FO
  36   36 4683 3870 FO
  36   36 4755 3902 FO
  36   36 4826 3927 FO
  36   36 4898 3952 FO
  36   36 4969 3979 FO
  36   36 5040 4002 FO
  36   36 5112 4020 FO
  36   36 5183 4047 FO
  36   36 5255 4064 FO
  36   36 5326 4083 FO
  36   36 5398 4096 FO
  36   36 5469 4115 FO
  36   36 5540 4129 FO
  36   36 5612 4149 FO
  36   36 5683 4165 FO
  36   36 5755 4181 FO
  36   36 5826 4200 FO
  36   36 5897 4216 FO
  36   36 5969 4225 FO
  36   36 6040 4236 FO
  36   36 6112 4247 FO
  36   36 6183 4261 FO
  36   36 6255 4270 FO
gs 899 469 5357 4147 rc
gr

0 sg
%%IncludeResource: font Helvetica
/Helvetica /ISOLatin1Encoding 168 FMSR

2481  156 mt 
(Src1-GFP in Early Anaphase) s
%%IncludeResource: font Helvetica
/Helvetica /ISOLatin1Encoding 144 FMSR

2369  293 mt 
(n) s
%%IncludeResource: font Helvetica
/Helvetica /ISOLatin1Encoding 108 FMSR

2449  377 mt 
(cells) s
%%IncludeResource: font Helvetica
/Helvetica /ISOLatin1Encoding 144 FMSR

2665  293 mt 
( = 21    -    Permeability = 0.0015) s
3314 4921 mt 
(Time \(s\)) s
 577 3058 mt  -90 rotate
(% Fluorescence) s
90 rotate
%%IncludeResource: font Helvetica
/Helvetica /ISOLatin1Encoding 120 FMSR

 882 4658 mt 
( ) s
6239  511 mt 
( ) s
5656  664 mt 
(mother) s
gs 5217 529 980 335 rc
c8
338 0 5284 621 2 MP stroke
gs 5380 548 147 147 rc
  36   36 5453  621 FO
gr

gr

c8
0 sg
5656  813 mt 
(daughter) s
gs 5217 529 980 335 rc
c9
338 0 5284 770 2 MP stroke
gs 5380 697 147 147 rc
  36   36 5453  770 FO
gr

gr

c9

end %%Color Dict

eplot
%%EndObject

epage
end

showpage

%%Trailer
%%EOF
