%!PS-Adobe-3.0 EPSF-3.0
%%Creator: MATLAB, The MathWorks, Inc. Version 8.1.0.604 (R2013a). Operating System: Darwin 11.4.2 Darwin Kernel Version 11.4.2: Thu Aug 23 16:25:48 PDT 2012; root:xnu-1699.32.7~1/RELEASE_X86_64 x86_64.
%%Title: ./EA_TetR-volexc_no.eps
%%CreationDate: 07/08/2013  12:18:57
%%DocumentNeededFonts: Helvetica
%%DocumentProcessColors: Cyan Magenta Yellow Black
%%LanguageLevel: 2
%%Pages: 1
%%BoundingBox:    52   197   551   616
%%EndComments

%%BeginProlog
% MathWorks dictionary
/MathWorks 160 dict begin
% definition operators
/bdef {bind def} bind def
/ldef {load def} bind def
/xdef {exch def} bdef
/xstore {exch store} bdef
% operator abbreviations
/c  /clip ldef
/cc /concat ldef
/cp /closepath ldef
/gr /grestore ldef
/gs /gsave ldef
/mt /moveto ldef
/np /newpath ldef
/cm /currentmatrix ldef
/sm /setmatrix ldef
/rm /rmoveto ldef
/rl /rlineto ldef
/s {show newpath} bdef
/sc {setcmykcolor} bdef
/sr /setrgbcolor ldef
/sg /setgray ldef
/w /setlinewidth ldef
/j /setlinejoin ldef
/cap /setlinecap ldef
/rc {rectclip} bdef
/rf {rectfill} bdef
% page state control
/pgsv () def
/bpage {/pgsv save def} bdef
/epage {pgsv restore} bdef
/bplot /gsave ldef
/eplot {stroke grestore} bdef
% orientation switch
/portraitMode 0 def /landscapeMode 1 def /rotateMode 2 def
% coordinate system mappings
/dpi2point 0 def
% font control
/FontSize 0 def
/FMS {/FontSize xstore findfont [FontSize 0 0 FontSize neg 0 0]
  makefont setfont} bdef
/reencode {exch dup where {pop load} {pop StandardEncoding} ifelse
  exch dup 3 1 roll findfont dup length dict begin
  { 1 index /FID ne {def}{pop pop} ifelse } forall
  /Encoding exch def currentdict end definefont pop} bdef
/isroman {findfont /CharStrings get /Agrave known} bdef
/FMSR {3 1 roll 1 index dup isroman {reencode} {pop pop} ifelse
  exch FMS} bdef
/csm {1 dpi2point div -1 dpi2point div scale neg translate
 dup landscapeMode eq {pop -90 rotate}
  {rotateMode eq {90 rotate} if} ifelse} bdef
% line types: solid, dotted, dashed, dotdash
/SO { [] 0 setdash } bdef
/DO { [.5 dpi2point mul 4 dpi2point mul] 0 setdash } bdef
/DA { [6 dpi2point mul] 0 setdash } bdef
/DD { [.5 dpi2point mul 4 dpi2point mul 6 dpi2point mul 4
  dpi2point mul] 0 setdash } bdef
% macros for lines and objects
/L {lineto stroke} bdef
/MP {3 1 roll moveto 1 sub {rlineto} repeat} bdef
/AP {{rlineto} repeat} bdef
/PDlw -1 def
/W {/PDlw currentlinewidth def setlinewidth} def
/PP {closepath eofill} bdef
/DP {closepath stroke} bdef
/MR {4 -2 roll moveto dup  0 exch rlineto exch 0 rlineto
  neg 0 exch rlineto closepath} bdef
/FR {MR stroke} bdef
/PR {MR fill} bdef
/L1i {{currentfile picstr readhexstring pop} image} bdef
/tMatrix matrix def
/MakeOval {newpath tMatrix currentmatrix pop translate scale
0 0 1 0 360 arc tMatrix setmatrix} bdef
/FO {MakeOval stroke} bdef
/PO {MakeOval fill} bdef
/PD {currentlinewidth 2 div 0 360 arc fill
   PDlw -1 eq not {PDlw w /PDlw -1 def} if} def
/FA {newpath tMatrix currentmatrix pop translate scale
  0 0 1 5 -2 roll arc tMatrix setmatrix stroke} bdef
/PA {newpath tMatrix currentmatrix pop	translate 0 0 moveto scale
  0 0 1 5 -2 roll arc closepath tMatrix setmatrix fill} bdef
/FAn {newpath tMatrix currentmatrix pop translate scale
  0 0 1 5 -2 roll arcn tMatrix setmatrix stroke} bdef
/PAn {newpath tMatrix currentmatrix pop translate 0 0 moveto scale
  0 0 1 5 -2 roll arcn closepath tMatrix setmatrix fill} bdef
/vradius 0 def /hradius 0 def /lry 0 def
/lrx 0 def /uly 0 def /ulx 0 def /rad 0 def
/MRR {/vradius xdef /hradius xdef /lry xdef /lrx xdef /uly xdef
  /ulx xdef newpath tMatrix currentmatrix pop ulx hradius add uly
  vradius add translate hradius vradius scale 0 0 1 180 270 arc 
  tMatrix setmatrix lrx hradius sub uly vradius add translate
  hradius vradius scale 0 0 1 270 360 arc tMatrix setmatrix
  lrx hradius sub lry vradius sub translate hradius vradius scale
  0 0 1 0 90 arc tMatrix setmatrix ulx hradius add lry vradius sub
  translate hradius vradius scale 0 0 1 90 180 arc tMatrix setmatrix
  closepath} bdef
/FRR {MRR stroke } bdef
/PRR {MRR fill } bdef
/MlrRR {/lry xdef /lrx xdef /uly xdef /ulx xdef /rad lry uly sub 2 div def
  newpath tMatrix currentmatrix pop ulx rad add uly rad add translate
  rad rad scale 0 0 1 90 270 arc tMatrix setmatrix lrx rad sub lry rad
  sub translate rad rad scale 0 0 1 270 90 arc tMatrix setmatrix
  closepath} bdef
/FlrRR {MlrRR stroke } bdef
/PlrRR {MlrRR fill } bdef
/MtbRR {/lry xdef /lrx xdef /uly xdef /ulx xdef /rad lrx ulx sub 2 div def
  newpath tMatrix currentmatrix pop ulx rad add uly rad add translate
  rad rad scale 0 0 1 180 360 arc tMatrix setmatrix lrx rad sub lry rad
  sub translate rad rad scale 0 0 1 0 180 arc tMatrix setmatrix
  closepath} bdef
/FtbRR {MtbRR stroke } bdef
/PtbRR {MtbRR fill } bdef
/stri 6 array def /dtri 6 array def
/smat 6 array def /dmat 6 array def
/tmat1 6 array def /tmat2 6 array def /dif 3 array def
/asub {/ind2 exch def /ind1 exch def dup dup
  ind1 get exch ind2 get sub exch } bdef
/tri_to_matrix {
  2 0 asub 3 1 asub 4 0 asub 5 1 asub
  dup 0 get exch 1 get 7 -1 roll astore } bdef
/compute_transform {
  dmat dtri tri_to_matrix tmat1 invertmatrix 
  smat stri tri_to_matrix tmat2 concatmatrix } bdef
/ds {stri astore pop} bdef
/dt {dtri astore pop} bdef
/db {2 copy /cols xdef /rows xdef mul dup 3 mul string
  currentfile 
  3 index 0 eq {/ASCIIHexDecode filter}
  {/ASCII85Decode filter 3 index 2 eq {/RunLengthDecode filter} if }
  ifelse exch readstring pop
  dup 0 3 index getinterval /rbmap xdef
  dup 2 index dup getinterval /gbmap xdef
  1 index dup 2 mul exch getinterval /bbmap xdef pop pop}bdef
/it {gs np dtri aload pop moveto lineto lineto cp c
  cols rows 8 compute_transform 
  rbmap gbmap bbmap true 3 colorimage gr}bdef
/il {newpath moveto lineto stroke}bdef
currentdict end def
%%EndProlog

%%BeginSetup
MathWorks begin

0 cap

end
%%EndSetup

%%Page: 1 1
%%BeginPageSetup
%%PageBoundingBox:    52   197   551   616
MathWorks begin
bpage
%%EndPageSetup

%%BeginObject: obj1
bplot

/dpi2point 12 def
portraitMode 0216 7344 csm

  418   -48  5986  5026 rc
85 dict begin %Colortable dictionary
/c0 { 0.000000 0.000000 0.000000 sr} bdef
/c1 { 1.000000 1.000000 1.000000 sr} bdef
/c2 { 0.900000 0.000000 0.000000 sr} bdef
/c3 { 0.000000 0.820000 0.000000 sr} bdef
/c4 { 0.000000 0.000000 0.800000 sr} bdef
/c5 { 0.910000 0.820000 0.320000 sr} bdef
/c6 { 1.000000 0.260000 0.820000 sr} bdef
/c7 { 0.000000 0.820000 0.820000 sr} bdef
c0
1 j
1 sg
   0    0 6913 5186 rf
6 w
0 4146 5356 0 0 -4146 899 4615 4 MP
PP
-5356 0 0 4146 5356 0 0 -4146 899 4615 5 MP stroke
4 w
DO
SO
6 w
0 sg
 899 4615 mt 6255 4615 L
 899  469 mt 6255  469 L
 899 4615 mt  899  469 L
6255 4615 mt 6255  469 L
 899 4615 mt 6255 4615 L
 899 4615 mt  899  469 L
 899 4615 mt  899 4561 L
 899  469 mt  899  522 L
%%IncludeResource: font Helvetica
/Helvetica /ISOLatin1Encoding 120 FMSR

 866 4760 mt 
(0) s
1434 4615 mt 1434 4561 L
1434  469 mt 1434  522 L
1368 4760 mt 
(10) s
1970 4615 mt 1970 4561 L
1970  469 mt 1970  522 L
1904 4760 mt 
(20) s
2505 4615 mt 2505 4561 L
2505  469 mt 2505  522 L
2439 4760 mt 
(30) s
3041 4615 mt 3041 4561 L
3041  469 mt 3041  522 L
2975 4760 mt 
(40) s
3577 4615 mt 3577 4561 L
3577  469 mt 3577  522 L
3511 4760 mt 
(50) s
4112 4615 mt 4112 4561 L
4112  469 mt 4112  522 L
4046 4760 mt 
(60) s
4648 4615 mt 4648 4561 L
4648  469 mt 4648  522 L
4582 4760 mt 
(70) s
5183 4615 mt 5183 4561 L
5183  469 mt 5183  522 L
5117 4760 mt 
(80) s
5719 4615 mt 5719 4561 L
5719  469 mt 5719  522 L
5653 4760 mt 
(90) s
6255 4615 mt 6255 4561 L
6255  469 mt 6255  522 L
6155 4760 mt 
(100) s
 899 4615 mt  952 4615 L
6255 4615 mt 6201 4615 L
 798 4659 mt 
(0) s
 899 4200 mt  952 4200 L
6255 4200 mt 6201 4200 L
 731 4244 mt 
(10) s
 899 3785 mt  952 3785 L
6255 3785 mt 6201 3785 L
 731 3829 mt 
(20) s
 899 3371 mt  952 3371 L
6255 3371 mt 6201 3371 L
 731 3415 mt 
(30) s
 899 2956 mt  952 2956 L
6255 2956 mt 6201 2956 L
 731 3000 mt 
(40) s
 899 2542 mt  952 2542 L
6255 2542 mt 6201 2542 L
 731 2586 mt 
(50) s
 899 2127 mt  952 2127 L
6255 2127 mt 6201 2127 L
 731 2171 mt 
(60) s
 899 1712 mt  952 1712 L
6255 1712 mt 6201 1712 L
 731 1756 mt 
(70) s
 899 1298 mt  952 1298 L
6255 1298 mt 6201 1298 L
 731 1342 mt 
(80) s
 899  883 mt  952  883 L
6255  883 mt 6201  883 L
 731  927 mt 
(90) s
 899  469 mt  952  469 L
6255  469 mt 6201  469 L
 664  513 mt 
(100) s
 899 4615 mt 6255 4615 L
 899  469 mt 6255  469 L
 899 4615 mt  899  469 L
6255 4615 mt 6255  469 L
gs 899 469 5357 4147 rc
899 469 PD
50 0 899 469 2 MP stroke
0 1582 1050 1780 2 MP stroke
102 0 999 1780 2 MP stroke
102 0 999 3362 2 MP stroke
0 1499 1202 2538 2 MP stroke
101 0 1151 2538 2 MP stroke
101 0 1151 4037 2 MP stroke
0 1242 1353 3059 2 MP stroke
102 0 1302 3059 2 MP stroke
102 0 1302 4301 2 MP stroke
0 798 1502 3557 2 MP stroke
102 0 1451 3557 2 MP stroke
102 0 1451 4355 2 MP stroke
0 766 1652 3679 2 MP stroke
101 0 1601 3679 2 MP stroke
101 0 1601 4445 2 MP stroke
0 714 1803 3797 2 MP stroke
102 0 1752 3797 2 MP stroke
102 0 1752 4511 2 MP stroke
0 684 1953 3825 2 MP stroke
101 0 1902 3825 2 MP stroke
101 0 1902 4509 2 MP stroke
0 459 2102 4080 2 MP stroke
101 0 2051 4080 2 MP stroke
101 0 2051 4539 2 MP stroke
0 401 2253 4151 2 MP stroke
102 0 2202 4151 2 MP stroke
102 0 2202 4552 2 MP stroke
0 288 2402 4305 2 MP stroke
102 0 2351 4305 2 MP stroke
102 0 2351 4593 2 MP stroke
0 355 2552 4231 2 MP stroke
102 0 2501 4231 2 MP stroke
102 0 2501 4586 2 MP stroke
0 155 2704 4422 2 MP stroke
101 0 2653 4422 2 MP stroke
101 0 2653 4577 2 MP stroke
0 193 2855 4401 2 MP stroke
102 0 2804 4401 2 MP stroke
102 0 2804 4594 2 MP stroke
0 329 3007 4287 2 MP stroke
101 0 2956 4287 2 MP stroke
0 125 3157 4473 2 MP stroke
101 0 3107 4473 2 MP stroke
101 0 3107 4598 2 MP stroke
0 167 3308 4418 2 MP stroke
101 0 3257 4418 2 MP stroke
101 0 3257 4585 2 MP stroke
0 154 3455 4451 2 MP stroke
101 0 3405 4451 2 MP stroke
101 0 3405 4605 2 MP stroke
0 147 3606 4469 2 MP stroke
101 0 3556 4469 2 MP stroke
0 139 3758 4477 2 MP stroke
102 0 3707 4477 2 MP stroke
0 291 3909 4325 2 MP stroke
101 0 3859 4325 2 MP stroke
0 144 4059 4449 2 MP stroke
101 0 4009 4449 2 MP stroke
101 0 4009 4593 2 MP stroke
0 71 4210 4541 2 MP stroke
101 0 4160 4541 2 MP stroke
101 0 4160 4612 2 MP stroke
0 81 4360 4535 2 MP stroke
101 0 4310 4535 2 MP stroke
0 93 4511 4523 2 MP stroke
102 0 4460 4523 2 MP stroke
0 122 4661 4494 2 MP stroke
102 0 4610 4494 2 MP stroke
0 88 4812 4528 2 MP stroke
101 0 4761 4528 2 MP stroke
0 103 4967 4511 2 MP stroke
102 0 4916 4511 2 MP stroke
102 0 4916 4614 2 MP stroke
0 75 5168 4535 2 MP stroke
101 0 5117 4535 2 MP stroke
101 0 5117 4610 2 MP stroke
0 110 5435 4506 2 MP stroke
101 0 5384 4506 2 MP stroke
0 71 5974 4545 2 MP stroke
102 0 5923 4545 2 MP stroke
539 20 267 -4 201 9 155 -13 151 18 150 -12 151 -8 150 2 
151 55 150 42 151 -70 152 -3 151 24 147 27 151 -34 150 76 
152 -38 151 -2 152 90 150 -40 149 98 151 41 149 143 150 13 
151 92 150 106 149 276 151 393 152 716 151 2102 899 469 31 MP stroke
gr

 874  444 mt  924  494 L
 924  444 mt  874  494 L
1025 2546 mt 1075 2596 L
1075 2546 mt 1025 2596 L
1177 3262 mt 1227 3312 L
1227 3262 mt 1177 3312 L
1328 3655 mt 1378 3705 L
1378 3655 mt 1328 3705 L
1477 3931 mt 1527 3981 L
1527 3931 mt 1477 3981 L
1627 4037 mt 1677 4087 L
1677 4037 mt 1627 4087 L
1778 4129 mt 1828 4179 L
1828 4129 mt 1778 4179 L
1928 4142 mt 1978 4192 L
1978 4142 mt 1928 4192 L
2077 4285 mt 2127 4335 L
2127 4285 mt 2077 4335 L
2228 4326 mt 2278 4376 L
2278 4326 mt 2228 4376 L
2377 4424 mt 2427 4474 L
2427 4424 mt 2377 4474 L
2527 4384 mt 2577 4434 L
2577 4384 mt 2527 4434 L
2679 4474 mt 2729 4524 L
2729 4474 mt 2679 4524 L
2830 4472 mt 2880 4522 L
2880 4472 mt 2830 4522 L
2982 4434 mt 3032 4484 L
3032 4434 mt 2982 4484 L
3132 4510 mt 3182 4560 L
3182 4510 mt 3132 4560 L
3283 4476 mt 3333 4526 L
3333 4476 mt 3283 4526 L
3430 4503 mt 3480 4553 L
3480 4503 mt 3430 4553 L
3581 4527 mt 3631 4577 L
3631 4527 mt 3581 4577 L
3733 4524 mt 3783 4574 L
3783 4524 mt 3733 4574 L
3884 4454 mt 3934 4504 L
3934 4454 mt 3884 4504 L
4034 4496 mt 4084 4546 L
4084 4496 mt 4034 4546 L
4185 4551 mt 4235 4601 L
4235 4551 mt 4185 4601 L
4335 4553 mt 4385 4603 L
4385 4553 mt 4335 4603 L
4486 4545 mt 4536 4595 L
4536 4545 mt 4486 4595 L
4636 4533 mt 4686 4583 L
4686 4533 mt 4636 4583 L
4787 4551 mt 4837 4601 L
4837 4551 mt 4787 4601 L
4942 4538 mt 4992 4588 L
4992 4538 mt 4942 4588 L
5143 4547 mt 5193 4597 L
5193 4547 mt 5143 4597 L
5410 4543 mt 5460 4593 L
5460 4543 mt 5410 4593 L
5949 4563 mt 5999 4613 L
5999 4563 mt 5949 4613 L
gs 899 469 5357 4147 rc
899 469 PD
50 0 899 469 2 MP stroke
50 0 899 469 2 MP stroke
0 1479 1050 1177 2 MP stroke
102 0 999 1177 2 MP stroke
102 0 999 2656 2 MP stroke
0 691 1202 1879 2 MP stroke
101 0 1151 1879 2 MP stroke
101 0 1151 2570 2 MP stroke
0 1170 1353 2312 2 MP stroke
102 0 1302 2312 2 MP stroke
102 0 1302 3482 2 MP stroke
0 646 1502 2699 2 MP stroke
102 0 1451 2699 2 MP stroke
102 0 1451 3345 2 MP stroke
0 938 1652 2908 2 MP stroke
101 0 1601 2908 2 MP stroke
101 0 1601 3846 2 MP stroke
0 937 1803 3228 2 MP stroke
102 0 1752 3228 2 MP stroke
102 0 1752 4165 2 MP stroke
0 665 1953 3631 2 MP stroke
101 0 1902 3631 2 MP stroke
101 0 1902 4296 2 MP stroke
0 624 2102 3662 2 MP stroke
101 0 2051 3662 2 MP stroke
101 0 2051 4286 2 MP stroke
0 662 2253 3781 2 MP stroke
102 0 2202 3781 2 MP stroke
102 0 2202 4443 2 MP stroke
0 550 2402 3913 2 MP stroke
102 0 2351 3913 2 MP stroke
102 0 2351 4463 2 MP stroke
0 372 2552 4113 2 MP stroke
102 0 2501 4113 2 MP stroke
102 0 2501 4485 2 MP stroke
0 468 2704 4053 2 MP stroke
101 0 2653 4053 2 MP stroke
101 0 2653 4521 2 MP stroke
0 350 2855 4176 2 MP stroke
102 0 2804 4176 2 MP stroke
102 0 2804 4526 2 MP stroke
0 250 3007 4290 2 MP stroke
101 0 2956 4290 2 MP stroke
101 0 2956 4540 2 MP stroke
0 385 3157 4181 2 MP stroke
101 0 3107 4181 2 MP stroke
101 0 3107 4566 2 MP stroke
0 331 3308 4280 2 MP stroke
101 0 3257 4280 2 MP stroke
101 0 3257 4611 2 MP stroke
0 122 3455 4476 2 MP stroke
101 0 3405 4476 2 MP stroke
101 0 3405 4598 2 MP stroke
0 235 3606 4381 2 MP stroke
101 0 3556 4381 2 MP stroke
0 231 3758 4367 2 MP stroke
102 0 3707 4367 2 MP stroke
102 0 3707 4598 2 MP stroke
0 218 3909 4398 2 MP stroke
101 0 3859 4398 2 MP stroke
0 234 4059 4360 2 MP stroke
101 0 4009 4360 2 MP stroke
101 0 4009 4594 2 MP stroke
0 220 4210 4345 2 MP stroke
101 0 4160 4345 2 MP stroke
101 0 4160 4565 2 MP stroke
0 100 4360 4514 2 MP stroke
101 0 4310 4514 2 MP stroke
101 0 4310 4614 2 MP stroke
0 229 4511 4387 2 MP stroke
102 0 4460 4387 2 MP stroke
0 137 4661 4448 2 MP stroke
102 0 4610 4448 2 MP stroke
102 0 4610 4585 2 MP stroke
0 206 4812 4395 2 MP stroke
101 0 4761 4395 2 MP stroke
101 0 4761 4601 2 MP stroke
0 183 4967 4433 2 MP stroke
102 0 4916 4433 2 MP stroke
0 161 5168 4444 2 MP stroke
101 0 5117 4444 2 MP stroke
101 0 5117 4605 2 MP stroke
0 189 5435 4427 2 MP stroke
101 0 5384 4427 2 MP stroke
0 111 5974 4449 2 MP stroke
102 0 5923 4449 2 MP stroke
102 0 5923 4560 2 MP stroke
539 -24 267 3 201 -3 155 30 151 -18 150 -4 151 -44 150 109 
151 -22 150 -39 151 34 152 -38 151 -17 147 91 151 72 150 -41 
152 64 151 64 152 -12 150 111 149 76 151 138 149 10 150 267 
151 320 150 355 149 125 151 672 152 309 151 1447 899 469 31 MP stroke
gr

 874  444 mt  924  494 L
 924  444 mt  874  494 L
1025 1891 mt 1075 1941 L
1075 1891 mt 1025 1941 L
1177 2200 mt 1227 2250 L
1227 2200 mt 1177 2250 L
1328 2872 mt 1378 2922 L
1378 2872 mt 1328 2922 L
1477 2997 mt 1527 3047 L
1527 2997 mt 1477 3047 L
1627 3352 mt 1677 3402 L
1677 3352 mt 1627 3402 L
1778 3672 mt 1828 3722 L
1828 3672 mt 1778 3722 L
1928 3939 mt 1978 3989 L
1978 3939 mt 1928 3989 L
2077 3949 mt 2127 3999 L
2127 3949 mt 2077 3999 L
2228 4087 mt 2278 4137 L
2278 4087 mt 2228 4137 L
2377 4163 mt 2427 4213 L
2427 4163 mt 2377 4213 L
2527 4274 mt 2577 4324 L
2577 4274 mt 2527 4324 L
2679 4262 mt 2729 4312 L
2729 4262 mt 2679 4312 L
2830 4326 mt 2880 4376 L
2880 4326 mt 2830 4376 L
2982 4390 mt 3032 4440 L
3032 4390 mt 2982 4440 L
3132 4349 mt 3182 4399 L
3182 4349 mt 3132 4399 L
3283 4421 mt 3333 4471 L
3333 4421 mt 3283 4471 L
3430 4512 mt 3480 4562 L
3480 4512 mt 3430 4562 L
3581 4495 mt 3631 4545 L
3631 4495 mt 3581 4545 L
3733 4457 mt 3783 4507 L
3783 4457 mt 3733 4507 L
3884 4491 mt 3934 4541 L
3934 4491 mt 3884 4541 L
4034 4452 mt 4084 4502 L
4084 4452 mt 4034 4502 L
4185 4430 mt 4235 4480 L
4235 4430 mt 4185 4480 L
4335 4539 mt 4385 4589 L
4385 4539 mt 4335 4589 L
4486 4495 mt 4536 4545 L
4536 4495 mt 4486 4545 L
4636 4491 mt 4686 4541 L
4686 4491 mt 4636 4541 L
4787 4473 mt 4837 4523 L
4837 4473 mt 4787 4523 L
4942 4503 mt 4992 4553 L
4992 4503 mt 4942 4553 L
5143 4500 mt 5193 4550 L
5193 4500 mt 5143 4550 L
5410 4503 mt 5460 4553 L
5460 4503 mt 5410 4553 L
5949 4479 mt 5999 4529 L
5999 4479 mt 5949 4529 L
gs 899 469 5357 4147 rc
/c8 { 1.000000 0.000000 0.000000 sr} bdef
c8
899 469 PD
53 0 899 469 2 MP stroke
53 0 899 469 2 MP stroke
0 274 1006 1333 2 MP stroke
107 0 952 1333 2 MP stroke
107 0 952 1607 2 MP stroke
0 386 1113 1956 2 MP stroke
107 0 1059 1956 2 MP stroke
107 0 1059 2342 2 MP stroke
0 451 1220 2439 2 MP stroke
107 0 1166 2439 2 MP stroke
107 0 1166 2890 2 MP stroke
0 469 1327 2840 2 MP stroke
108 0 1273 2840 2 MP stroke
108 0 1273 3309 2 MP stroke
0 462 1434 3168 2 MP stroke
107 0 1381 3168 2 MP stroke
107 0 1381 3630 2 MP stroke
0 438 1541 3428 2 MP stroke
107 0 1488 3428 2 MP stroke
107 0 1488 3866 2 MP stroke
0 410 1648 3637 2 MP stroke
107 0 1595 3637 2 MP stroke
107 0 1595 4047 2 MP stroke
0 363 1755 3820 2 MP stroke
107 0 1702 3820 2 MP stroke
107 0 1702 4183 2 MP stroke
0 326 1863 3962 2 MP stroke
107 0 1809 3962 2 MP stroke
107 0 1809 4288 2 MP stroke
0 293 1970 4078 2 MP stroke
107 0 1916 4078 2 MP stroke
107 0 1916 4371 2 MP stroke
0 255 2077 4178 2 MP stroke
107 0 2023 4178 2 MP stroke
107 0 2023 4433 2 MP stroke
0 220 2184 4256 2 MP stroke
108 0 2130 4256 2 MP stroke
108 0 2130 4476 2 MP stroke
0 193 2291 4319 2 MP stroke
107 0 2238 4319 2 MP stroke
107 0 2238 4512 2 MP stroke
0 163 2398 4375 2 MP stroke
107 0 2345 4375 2 MP stroke
107 0 2345 4538 2 MP stroke
0 141 2505 4417 2 MP stroke
107 0 2452 4417 2 MP stroke
107 0 2452 4558 2 MP stroke
0 122 2612 4452 2 MP stroke
107 0 2559 4452 2 MP stroke
107 0 2559 4574 2 MP stroke
0 105 2720 4479 2 MP stroke
107 0 2666 4479 2 MP stroke
107 0 2666 4584 2 MP stroke
0 87 2827 4505 2 MP stroke
107 0 2773 4505 2 MP stroke
107 0 2773 4592 2 MP stroke
0 77 2934 4523 2 MP stroke
107 0 2880 4523 2 MP stroke
107 0 2880 4600 2 MP stroke
0 67 3041 4538 2 MP stroke
107 0 2987 4538 2 MP stroke
107 0 2987 4605 2 MP stroke
0 58 3148 4550 2 MP stroke
108 0 3094 4550 2 MP stroke
108 0 3094 4608 2 MP stroke
0 48 3255 4562 2 MP stroke
107 0 3202 4562 2 MP stroke
107 0 3202 4610 2 MP stroke
0 41 3362 4571 2 MP stroke
107 0 3309 4571 2 MP stroke
107 0 3309 4612 2 MP stroke
0 35 3469 4578 2 MP stroke
107 0 3416 4578 2 MP stroke
107 0 3416 4613 2 MP stroke
0 29 3577 4585 2 MP stroke
107 0 3523 4585 2 MP stroke
107 0 3523 4614 2 MP stroke
0 25 3684 4590 2 MP stroke
107 0 3630 4590 2 MP stroke
107 0 3630 4615 2 MP stroke
0 21 3791 4594 2 MP stroke
107 0 3737 4594 2 MP stroke
107 0 3737 4615 2 MP stroke
0 20 3898 4596 2 MP stroke
107 0 3844 4596 2 MP stroke
0 15 4005 4600 2 MP stroke
108 0 3951 4600 2 MP stroke
108 0 3951 4615 2 MP stroke
0 14 4112 4602 2 MP stroke
107 0 4059 4602 2 MP stroke
0 12 4219 4604 2 MP stroke
107 0 4166 4604 2 MP stroke
0 10 4326 4606 2 MP stroke
107 0 4273 4606 2 MP stroke
0 9 4433 4607 2 MP stroke
107 0 4380 4607 2 MP stroke
0 8 4541 4608 2 MP stroke
107 0 4487 4608 2 MP stroke
0 6 4648 4609 2 MP stroke
107 0 4594 4609 2 MP stroke
107 0 4594 4615 2 MP stroke
0 5 4755 4610 2 MP stroke
107 0 4701 4610 2 MP stroke
107 0 4701 4615 2 MP stroke
0 4 4862 4611 2 MP stroke
108 0 4808 4611 2 MP stroke
108 0 4808 4615 2 MP stroke
0 3 4969 4612 2 MP stroke
107 0 4916 4612 2 MP stroke
107 0 4916 4615 2 MP stroke
0 3 5076 4612 2 MP stroke
107 0 5023 4612 2 MP stroke
107 0 5023 4615 2 MP stroke
0 3 5183 4612 2 MP stroke
107 0 5130 4612 2 MP stroke
107 0 5130 4615 2 MP stroke
0 2 5290 4613 2 MP stroke
107 0 5237 4613 2 MP stroke
107 0 5237 4615 2 MP stroke
0 2 5398 4613 2 MP stroke
107 0 5344 4613 2 MP stroke
107 0 5344 4615 2 MP stroke
0 2 5505 4613 2 MP stroke
107 0 5451 4613 2 MP stroke
107 0 5451 4615 2 MP stroke
0 2 5612 4613 2 MP stroke
107 0 5558 4613 2 MP stroke
107 0 5558 4615 2 MP stroke
0 1 5719 4614 2 MP stroke
107 0 5665 4614 2 MP stroke
107 0 5665 4615 2 MP stroke
0 1 5826 4614 2 MP stroke
108 0 5772 4614 2 MP stroke
108 0 5772 4615 2 MP stroke
0 1 5933 4614 2 MP stroke
107 0 5880 4614 2 MP stroke
107 0 5880 4615 2 MP stroke
0 1 6040 4614 2 MP stroke
107 0 5987 4614 2 MP stroke
107 0 5987 4615 2 MP stroke
0 1 6147 4614 2 MP stroke
107 0 6094 4614 2 MP stroke
107 0 6094 4615 2 MP stroke
0 1 6255 4614 2 MP stroke
55 0 6201 4614 2 MP stroke
55 0 6201 4615 2 MP stroke
108 0 107 0 107 0 107 0 107 0 107 0 107 0 107 0 
108 0 107 0 107 0 107 1 107 0 107 0 107 1 107 0 
108 1 107 0 107 1 107 1 107 1 107 2 107 1 107 3 
107 3 108 3 107 4 107 6 107 7 107 7 107 10 107 14 
107 17 108 18 107 25 107 32 107 41 107 49 107 61 107 80 
107 100 108 123 107 160 107 195 107 248 107 324 107 411 107 515 
107 679 107 1001 899 469 51 MP stroke
gr

c8
  36   36  899  469 FO
  36   36 1006 1470 FO
  36   36 1113 2149 FO
  36   36 1220 2664 FO
  36   36 1327 3075 FO
  36   36 1434 3399 FO
  36   36 1541 3647 FO
  36   36 1648 3842 FO
  36   36 1755 4002 FO
  36   36 1863 4125 FO
  36   36 1970 4225 FO
  36   36 2077 4305 FO
  36   36 2184 4366 FO
  36   36 2291 4415 FO
  36   36 2398 4456 FO
  36   36 2505 4488 FO
  36   36 2612 4513 FO
  36   36 2720 4531 FO
  36   36 2827 4548 FO
  36   36 2934 4562 FO
  36   36 3041 4572 FO
  36   36 3148 4579 FO
  36   36 3255 4586 FO
  36   36 3362 4592 FO
  36   36 3469 4596 FO
  36   36 3577 4599 FO
  36   36 3684 4602 FO
  36   36 3791 4605 FO
  36   36 3898 4606 FO
  36   36 4005 4608 FO
  36   36 4112 4609 FO
  36   36 4219 4610 FO
  36   36 4326 4611 FO
  36   36 4433 4611 FO
  36   36 4541 4612 FO
  36   36 4648 4612 FO
  36   36 4755 4613 FO
  36   36 4862 4613 FO
  36   36 4969 4613 FO
  36   36 5076 4614 FO
  36   36 5183 4614 FO
  36   36 5290 4614 FO
  36   36 5398 4614 FO
  36   36 5505 4614 FO
  36   36 5612 4614 FO
  36   36 5719 4614 FO
  36   36 5826 4614 FO
  36   36 5933 4614 FO
  36   36 6040 4614 FO
  36   36 6147 4614 FO
  36   36 6255 4614 FO
gs 899 469 5357 4147 rc
/c9 { 0.000000 0.500000 0.000000 sr} bdef
c9
899 469 PD
53 0 899 469 2 MP stroke
53 0 899 469 2 MP stroke
0 384 1006 780 2 MP stroke
107 0 952 780 2 MP stroke
107 0 952 1164 2 MP stroke
0 534 1113 1417 2 MP stroke
107 0 1059 1417 2 MP stroke
107 0 1059 1951 2 MP stroke
0 594 1220 2012 2 MP stroke
107 0 1166 2012 2 MP stroke
107 0 1166 2606 2 MP stroke
0 611 1327 2486 2 MP stroke
108 0 1273 2486 2 MP stroke
108 0 1273 3097 2 MP stroke
0 601 1434 2853 2 MP stroke
107 0 1381 2853 2 MP stroke
107 0 1381 3454 2 MP stroke
0 571 1541 3174 2 MP stroke
107 0 1488 3174 2 MP stroke
107 0 1488 3745 2 MP stroke
0 517 1648 3438 2 MP stroke
107 0 1595 3438 2 MP stroke
107 0 1595 3955 2 MP stroke
0 491 1755 3633 2 MP stroke
107 0 1702 3633 2 MP stroke
107 0 1702 4124 2 MP stroke
0 430 1863 3815 2 MP stroke
107 0 1809 3815 2 MP stroke
107 0 1809 4245 2 MP stroke
0 371 1970 3963 2 MP stroke
107 0 1916 3963 2 MP stroke
107 0 1916 4334 2 MP stroke
0 334 2077 4070 2 MP stroke
107 0 2023 4070 2 MP stroke
107 0 2023 4404 2 MP stroke
0 285 2184 4174 2 MP stroke
108 0 2130 4174 2 MP stroke
108 0 2130 4459 2 MP stroke
0 244 2291 4256 2 MP stroke
107 0 2238 4256 2 MP stroke
107 0 2238 4500 2 MP stroke
0 219 2398 4311 2 MP stroke
107 0 2345 4311 2 MP stroke
107 0 2345 4530 2 MP stroke
0 190 2505 4364 2 MP stroke
107 0 2452 4364 2 MP stroke
107 0 2452 4554 2 MP stroke
0 159 2612 4409 2 MP stroke
107 0 2559 4409 2 MP stroke
107 0 2559 4568 2 MP stroke
0 136 2720 4447 2 MP stroke
107 0 2666 4447 2 MP stroke
107 0 2666 4583 2 MP stroke
0 126 2827 4471 2 MP stroke
107 0 2773 4471 2 MP stroke
107 0 2773 4597 2 MP stroke
0 103 2934 4497 2 MP stroke
107 0 2880 4497 2 MP stroke
107 0 2880 4600 2 MP stroke
0 87 3041 4518 2 MP stroke
107 0 2987 4518 2 MP stroke
107 0 2987 4605 2 MP stroke
0 74 3148 4536 2 MP stroke
108 0 3094 4536 2 MP stroke
108 0 3094 4610 2 MP stroke
0 67 3255 4546 2 MP stroke
107 0 3202 4546 2 MP stroke
107 0 3202 4613 2 MP stroke
0 57 3362 4557 2 MP stroke
107 0 3309 4557 2 MP stroke
107 0 3309 4614 2 MP stroke
0 47 3469 4567 2 MP stroke
107 0 3416 4567 2 MP stroke
107 0 3416 4614 2 MP stroke
0 41 3577 4575 2 MP stroke
107 0 3523 4575 2 MP stroke
0 33 3684 4583 2 MP stroke
107 0 3630 4583 2 MP stroke
0 28 3791 4588 2 MP stroke
107 0 3737 4588 2 MP stroke
0 23 3898 4593 2 MP stroke
107 0 3844 4593 2 MP stroke
0 21 4005 4595 2 MP stroke
108 0 3951 4595 2 MP stroke
0 17 4112 4599 2 MP stroke
107 0 4059 4599 2 MP stroke
0 14 4219 4602 2 MP stroke
107 0 4166 4602 2 MP stroke
0 12 4326 4604 2 MP stroke
107 0 4273 4604 2 MP stroke
0 11 4433 4605 2 MP stroke
107 0 4380 4605 2 MP stroke
0 10 4541 4606 2 MP stroke
107 0 4487 4606 2 MP stroke
0 7 4648 4609 2 MP stroke
107 0 4594 4609 2 MP stroke
0 7 4755 4609 2 MP stroke
107 0 4701 4609 2 MP stroke
0 6 4862 4610 2 MP stroke
108 0 4808 4610 2 MP stroke
0 6 4969 4610 2 MP stroke
107 0 4916 4610 2 MP stroke
0 4 5076 4612 2 MP stroke
107 0 5023 4612 2 MP stroke
0 4 5183 4612 2 MP stroke
107 0 5130 4612 2 MP stroke
0 5 5290 4611 2 MP stroke
107 0 5237 4611 2 MP stroke
0 4 5398 4612 2 MP stroke
107 0 5344 4612 2 MP stroke
0 4 5505 4612 2 MP stroke
107 0 5451 4612 2 MP stroke
0 2 5612 4613 2 MP stroke
107 0 5558 4613 2 MP stroke
107 0 5558 4615 2 MP stroke
0 2 5719 4613 2 MP stroke
107 0 5665 4613 2 MP stroke
107 0 5665 4615 2 MP stroke
0 2 5826 4613 2 MP stroke
108 0 5772 4613 2 MP stroke
108 0 5772 4615 2 MP stroke
0 2 5933 4613 2 MP stroke
107 0 5880 4613 2 MP stroke
107 0 5880 4615 2 MP stroke
0 2 6040 4613 2 MP stroke
107 0 5987 4613 2 MP stroke
107 0 5987 4615 2 MP stroke
0 1 6147 4614 2 MP stroke
107 0 6094 4614 2 MP stroke
107 0 6094 4615 2 MP stroke
0 1 6255 4614 2 MP stroke
55 0 6201 4614 2 MP stroke
55 0 6201 4615 2 MP stroke
108 0 107 0 107 0 107 0 107 0 107 0 107 0 107 0 
108 0 107 0 107 0 107 1 107 0 107 1 107 -1 107 2 
108 0 107 1 107 1 107 1 107 2 107 1 107 3 107 2 
107 4 108 5 107 6 107 6 107 6 107 12 107 13 107 14 
107 19 108 27 107 29 107 39 107 42 107 61 107 80 107 89 
107 118 108 152 107 181 107 237 107 306 107 363 107 482 107 625 
107 712 107 503 899 469 51 MP stroke
gr

c9
  36   36  899  469 FO
  36   36 1006  972 FO
  36   36 1113 1684 FO
  36   36 1220 2309 FO
  36   36 1327 2791 FO
  36   36 1434 3154 FO
  36   36 1541 3460 FO
  36   36 1648 3697 FO
  36   36 1755 3878 FO
  36   36 1863 4030 FO
  36   36 1970 4148 FO
  36   36 2077 4237 FO
  36   36 2184 4317 FO
  36   36 2291 4378 FO
  36   36 2398 4420 FO
  36   36 2505 4459 FO
  36   36 2612 4488 FO
  36   36 2720 4515 FO
  36   36 2827 4534 FO
  36   36 2934 4548 FO
  36   36 3041 4561 FO
  36   36 3148 4573 FO
  36   36 3255 4579 FO
  36   36 3362 4585 FO
  36   36 3469 4591 FO
  36   36 3577 4596 FO
  36   36 3684 4600 FO
  36   36 3791 4602 FO
  36   36 3898 4605 FO
  36   36 4005 4606 FO
  36   36 4112 4608 FO
  36   36 4219 4609 FO
  36   36 4326 4610 FO
  36   36 4433 4611 FO
  36   36 4541 4611 FO
  36   36 4648 4613 FO
  36   36 4755 4612 FO
  36   36 4862 4613 FO
  36   36 4969 4613 FO
  36   36 5076 4614 FO
  36   36 5183 4614 FO
  36   36 5290 4614 FO
  36   36 5398 4614 FO
  36   36 5505 4614 FO
  36   36 5612 4614 FO
  36   36 5719 4614 FO
  36   36 5826 4614 FO
  36   36 5933 4614 FO
  36   36 6040 4614 FO
  36   36 6147 4614 FO
  36   36 6255 4614 FO
gs 899 469 5357 4147 rc
gr

0 sg
%%IncludeResource: font Helvetica
/Helvetica /ISOLatin1Encoding 168 FMSR

2472  156 mt 
(TetR-GFP in Early Anaphase) s
%%IncludeResource: font Helvetica
/Helvetica /ISOLatin1Encoding 144 FMSR

2549  293 mt 
(n) s
%%IncludeResource: font Helvetica
/Helvetica /ISOLatin1Encoding 108 FMSR

2629  377 mt 
(cells) s
%%IncludeResource: font Helvetica
/Helvetica /ISOLatin1Encoding 144 FMSR

2845  293 mt 
( = 21    -    Permeability = 1) s
3314 4921 mt 
(Time \(s\)) s
 577 3058 mt  -90 rotate
(% Fluorescence) s
90 rotate
%%IncludeResource: font Helvetica
/Helvetica /ISOLatin1Encoding 120 FMSR

 882 4658 mt 
( ) s
6239  511 mt 
( ) s
5656  664 mt 
(mother) s
gs 5217 529 980 335 rc
c8
338 0 5284 621 2 MP stroke
gs 5380 548 147 147 rc
  36   36 5453  621 FO
gr

gr

c8
0 sg
5656  813 mt 
(daughter) s
gs 5217 529 980 335 rc
c9
338 0 5284 770 2 MP stroke
gs 5380 697 147 147 rc
  36   36 5453  770 FO
gr

gr

c9

end %%Color Dict

eplot
%%EndObject

epage
end

showpage

%%Trailer
%%EOF
