%!PS-Adobe-3.0 EPSF-3.0
%%Creator: MATLAB, The MathWorks, Inc. Version 8.1.0.604 (R2013a). Operating System: Darwin 11.4.2 Darwin Kernel Version 11.4.2: Thu Aug 23 16:25:48 PDT 2012; root:xnu-1699.32.7~1/RELEASE_X86_64 x86_64.
%%Title: ./LA_Nup49-sphinbarr-ONM-1R_100nm.eps
%%CreationDate: 09/30/2013  08:48:19
%%DocumentNeededFonts: Helvetica
%%DocumentProcessColors: Cyan Magenta Yellow Black
%%LanguageLevel: 2
%%Pages: 1
%%BoundingBox:    52   197   551   616
%%EndComments

%%BeginProlog
% MathWorks dictionary
/MathWorks 160 dict begin
% definition operators
/bdef {bind def} bind def
/ldef {load def} bind def
/xdef {exch def} bdef
/xstore {exch store} bdef
% operator abbreviations
/c  /clip ldef
/cc /concat ldef
/cp /closepath ldef
/gr /grestore ldef
/gs /gsave ldef
/mt /moveto ldef
/np /newpath ldef
/cm /currentmatrix ldef
/sm /setmatrix ldef
/rm /rmoveto ldef
/rl /rlineto ldef
/s {show newpath} bdef
/sc {setcmykcolor} bdef
/sr /setrgbcolor ldef
/sg /setgray ldef
/w /setlinewidth ldef
/j /setlinejoin ldef
/cap /setlinecap ldef
/rc {rectclip} bdef
/rf {rectfill} bdef
% page state control
/pgsv () def
/bpage {/pgsv save def} bdef
/epage {pgsv restore} bdef
/bplot /gsave ldef
/eplot {stroke grestore} bdef
% orientation switch
/portraitMode 0 def /landscapeMode 1 def /rotateMode 2 def
% coordinate system mappings
/dpi2point 0 def
% font control
/FontSize 0 def
/FMS {/FontSize xstore findfont [FontSize 0 0 FontSize neg 0 0]
  makefont setfont} bdef
/reencode {exch dup where {pop load} {pop StandardEncoding} ifelse
  exch dup 3 1 roll findfont dup length dict begin
  { 1 index /FID ne {def}{pop pop} ifelse } forall
  /Encoding exch def currentdict end definefont pop} bdef
/isroman {findfont /CharStrings get /Agrave known} bdef
/FMSR {3 1 roll 1 index dup isroman {reencode} {pop pop} ifelse
  exch FMS} bdef
/csm {1 dpi2point div -1 dpi2point div scale neg translate
 dup landscapeMode eq {pop -90 rotate}
  {rotateMode eq {90 rotate} if} ifelse} bdef
% line types: solid, dotted, dashed, dotdash
/SO { [] 0 setdash } bdef
/DO { [.5 dpi2point mul 4 dpi2point mul] 0 setdash } bdef
/DA { [6 dpi2point mul] 0 setdash } bdef
/DD { [.5 dpi2point mul 4 dpi2point mul 6 dpi2point mul 4
  dpi2point mul] 0 setdash } bdef
% macros for lines and objects
/L {lineto stroke} bdef
/MP {3 1 roll moveto 1 sub {rlineto} repeat} bdef
/AP {{rlineto} repeat} bdef
/PDlw -1 def
/W {/PDlw currentlinewidth def setlinewidth} def
/PP {closepath eofill} bdef
/DP {closepath stroke} bdef
/MR {4 -2 roll moveto dup  0 exch rlineto exch 0 rlineto
  neg 0 exch rlineto closepath} bdef
/FR {MR stroke} bdef
/PR {MR fill} bdef
/L1i {{currentfile picstr readhexstring pop} image} bdef
/tMatrix matrix def
/MakeOval {newpath tMatrix currentmatrix pop translate scale
0 0 1 0 360 arc tMatrix setmatrix} bdef
/FO {MakeOval stroke} bdef
/PO {MakeOval fill} bdef
/PD {currentlinewidth 2 div 0 360 arc fill
   PDlw -1 eq not {PDlw w /PDlw -1 def} if} def
/FA {newpath tMatrix currentmatrix pop translate scale
  0 0 1 5 -2 roll arc tMatrix setmatrix stroke} bdef
/PA {newpath tMatrix currentmatrix pop	translate 0 0 moveto scale
  0 0 1 5 -2 roll arc closepath tMatrix setmatrix fill} bdef
/FAn {newpath tMatrix currentmatrix pop translate scale
  0 0 1 5 -2 roll arcn tMatrix setmatrix stroke} bdef
/PAn {newpath tMatrix currentmatrix pop translate 0 0 moveto scale
  0 0 1 5 -2 roll arcn closepath tMatrix setmatrix fill} bdef
/vradius 0 def /hradius 0 def /lry 0 def
/lrx 0 def /uly 0 def /ulx 0 def /rad 0 def
/MRR {/vradius xdef /hradius xdef /lry xdef /lrx xdef /uly xdef
  /ulx xdef newpath tMatrix currentmatrix pop ulx hradius add uly
  vradius add translate hradius vradius scale 0 0 1 180 270 arc 
  tMatrix setmatrix lrx hradius sub uly vradius add translate
  hradius vradius scale 0 0 1 270 360 arc tMatrix setmatrix
  lrx hradius sub lry vradius sub translate hradius vradius scale
  0 0 1 0 90 arc tMatrix setmatrix ulx hradius add lry vradius sub
  translate hradius vradius scale 0 0 1 90 180 arc tMatrix setmatrix
  closepath} bdef
/FRR {MRR stroke } bdef
/PRR {MRR fill } bdef
/MlrRR {/lry xdef /lrx xdef /uly xdef /ulx xdef /rad lry uly sub 2 div def
  newpath tMatrix currentmatrix pop ulx rad add uly rad add translate
  rad rad scale 0 0 1 90 270 arc tMatrix setmatrix lrx rad sub lry rad
  sub translate rad rad scale 0 0 1 270 90 arc tMatrix setmatrix
  closepath} bdef
/FlrRR {MlrRR stroke } bdef
/PlrRR {MlrRR fill } bdef
/MtbRR {/lry xdef /lrx xdef /uly xdef /ulx xdef /rad lrx ulx sub 2 div def
  newpath tMatrix currentmatrix pop ulx rad add uly rad add translate
  rad rad scale 0 0 1 180 360 arc tMatrix setmatrix lrx rad sub lry rad
  sub translate rad rad scale 0 0 1 0 180 arc tMatrix setmatrix
  closepath} bdef
/FtbRR {MtbRR stroke } bdef
/PtbRR {MtbRR fill } bdef
/stri 6 array def /dtri 6 array def
/smat 6 array def /dmat 6 array def
/tmat1 6 array def /tmat2 6 array def /dif 3 array def
/asub {/ind2 exch def /ind1 exch def dup dup
  ind1 get exch ind2 get sub exch } bdef
/tri_to_matrix {
  2 0 asub 3 1 asub 4 0 asub 5 1 asub
  dup 0 get exch 1 get 7 -1 roll astore } bdef
/compute_transform {
  dmat dtri tri_to_matrix tmat1 invertmatrix 
  smat stri tri_to_matrix tmat2 concatmatrix } bdef
/ds {stri astore pop} bdef
/dt {dtri astore pop} bdef
/db {2 copy /cols xdef /rows xdef mul dup 3 mul string
  currentfile 
  3 index 0 eq {/ASCIIHexDecode filter}
  {/ASCII85Decode filter 3 index 2 eq {/RunLengthDecode filter} if }
  ifelse exch readstring pop
  dup 0 3 index getinterval /rbmap xdef
  dup 2 index dup getinterval /gbmap xdef
  1 index dup 2 mul exch getinterval /bbmap xdef pop pop}bdef
/it {gs np dtri aload pop moveto lineto lineto cp c
  cols rows 8 compute_transform 
  rbmap gbmap bbmap true 3 colorimage gr}bdef
/il {newpath moveto lineto stroke}bdef
currentdict end def
%%EndProlog

%%BeginSetup
MathWorks begin

0 cap

end
%%EndSetup

%%Page: 1 1
%%BeginPageSetup
%%PageBoundingBox:    52   197   551   616
MathWorks begin
bpage
%%EndPageSetup

%%BeginObject: obj1
bplot

/dpi2point 12 def
portraitMode 0216 7344 csm

  418   -48  5986  5026 rc
85 dict begin %Colortable dictionary
/c0 { 0.000000 0.000000 0.000000 sr} bdef
/c1 { 1.000000 1.000000 1.000000 sr} bdef
/c2 { 0.900000 0.000000 0.000000 sr} bdef
/c3 { 0.000000 0.820000 0.000000 sr} bdef
/c4 { 0.000000 0.000000 0.800000 sr} bdef
/c5 { 0.910000 0.820000 0.320000 sr} bdef
/c6 { 1.000000 0.260000 0.820000 sr} bdef
/c7 { 0.000000 0.820000 0.820000 sr} bdef
c0
1 j
1 sg
   0    0 6913 5186 rf
6 w
0 4146 5356 0 0 -4146 899 4615 4 MP
PP
-5356 0 0 4146 5356 0 0 -4146 899 4615 5 MP stroke
4 w
DO
SO
6 w
0 sg
 899 4615 mt 6255 4615 L
 899  469 mt 6255  469 L
 899 4615 mt  899  469 L
6255 4615 mt 6255  469 L
 899 4615 mt 6255 4615 L
 899 4615 mt  899  469 L
 899 4615 mt  899 4561 L
 899  469 mt  899  522 L
%%IncludeResource: font Helvetica
/Helvetica /ISOLatin1Encoding 120 FMSR

 866 4760 mt 
(0) s
1791 4615 mt 1791 4561 L
1791  469 mt 1791  522 L
1725 4760 mt 
(50) s
2684 4615 mt 2684 4561 L
2684  469 mt 2684  522 L
2584 4760 mt 
(100) s
3577 4615 mt 3577 4561 L
3577  469 mt 3577  522 L
3477 4760 mt 
(150) s
4469 4615 mt 4469 4561 L
4469  469 mt 4469  522 L
4369 4760 mt 
(200) s
5362 4615 mt 5362 4561 L
5362  469 mt 5362  522 L
5262 4760 mt 
(250) s
6255 4615 mt 6255 4561 L
6255  469 mt 6255  522 L
6155 4760 mt 
(300) s
 899 4615 mt  952 4615 L
6255 4615 mt 6201 4615 L
 798 4659 mt 
(0) s
 899 4200 mt  952 4200 L
6255 4200 mt 6201 4200 L
 731 4244 mt 
(10) s
 899 3785 mt  952 3785 L
6255 3785 mt 6201 3785 L
 731 3829 mt 
(20) s
 899 3371 mt  952 3371 L
6255 3371 mt 6201 3371 L
 731 3415 mt 
(30) s
 899 2956 mt  952 2956 L
6255 2956 mt 6201 2956 L
 731 3000 mt 
(40) s
 899 2542 mt  952 2542 L
6255 2542 mt 6201 2542 L
 731 2586 mt 
(50) s
 899 2127 mt  952 2127 L
6255 2127 mt 6201 2127 L
 731 2171 mt 
(60) s
 899 1712 mt  952 1712 L
6255 1712 mt 6201 1712 L
 731 1756 mt 
(70) s
 899 1298 mt  952 1298 L
6255 1298 mt 6201 1298 L
 731 1342 mt 
(80) s
 899  883 mt  952  883 L
6255  883 mt 6201  883 L
 731  927 mt 
(90) s
 899  469 mt  952  469 L
6255  469 mt 6201  469 L
 664  513 mt 
(100) s
 899 4615 mt 6255 4615 L
 899  469 mt 6255  469 L
 899 4615 mt  899  469 L
6255 4615 mt 6255  469 L
gs 899 469 5357 4147 rc
899 469 PD
64 0 899 469 2 MP stroke
64 0 899 469 2 MP stroke
0 917 968 1681 2 MP stroke
128 0 904 1681 2 MP stroke
128 0 904 2598 2 MP stroke
0 804 1037 2106 2 MP stroke
128 0 973 2106 2 MP stroke
128 0 973 2910 2 MP stroke
0 960 1105 2267 2 MP stroke
128 0 1041 2267 2 MP stroke
128 0 1041 3227 2 MP stroke
0 884 1173 2559 2 MP stroke
129 0 1108 2559 2 MP stroke
129 0 1108 3443 2 MP stroke
0 749 1241 2786 2 MP stroke
129 0 1177 2786 2 MP stroke
129 0 1177 3535 2 MP stroke
0 701 1311 2964 2 MP stroke
129 0 1246 2964 2 MP stroke
129 0 1246 3665 2 MP stroke
0 841 1379 2992 2 MP stroke
129 0 1314 2992 2 MP stroke
129 0 1314 3833 2 MP stroke
0 802 1448 3107 2 MP stroke
129 0 1383 3107 2 MP stroke
129 0 1383 3909 2 MP stroke
0 867 1517 3151 2 MP stroke
128 0 1453 3151 2 MP stroke
128 0 1453 4018 2 MP stroke
0 792 1585 3210 2 MP stroke
129 0 1521 3210 2 MP stroke
129 0 1521 4002 2 MP stroke
0 727 1653 3382 2 MP stroke
129 0 1589 3382 2 MP stroke
129 0 1589 4109 2 MP stroke
0 716 1722 3445 2 MP stroke
128 0 1658 3445 2 MP stroke
128 0 1658 4161 2 MP stroke
0 730 1791 3507 2 MP stroke
129 0 1727 3507 2 MP stroke
129 0 1727 4237 2 MP stroke
0 655 1860 3559 2 MP stroke
129 0 1795 3559 2 MP stroke
129 0 1795 4214 2 MP stroke
0 616 1928 3699 2 MP stroke
128 0 1864 3699 2 MP stroke
128 0 1864 4315 2 MP stroke
0 591 1997 3737 2 MP stroke
129 0 1932 3737 2 MP stroke
129 0 1932 4328 2 MP stroke
0 635 2066 3743 2 MP stroke
129 0 2001 3743 2 MP stroke
129 0 2001 4378 2 MP stroke
0 598 2134 3781 2 MP stroke
128 0 2070 3781 2 MP stroke
128 0 2070 4379 2 MP stroke
0 626 2202 3812 2 MP stroke
129 0 2137 3812 2 MP stroke
129 0 2137 4438 2 MP stroke
0 585 2271 3880 2 MP stroke
129 0 2206 3880 2 MP stroke
129 0 2206 4465 2 MP stroke
0 604 2340 3900 2 MP stroke
129 0 2276 3900 2 MP stroke
129 0 2276 4504 2 MP stroke
0 560 2409 3953 2 MP stroke
129 0 2345 3953 2 MP stroke
129 0 2345 4513 2 MP stroke
0 559 2477 3942 2 MP stroke
129 0 2413 3942 2 MP stroke
129 0 2413 4501 2 MP stroke
0 462 2546 4043 2 MP stroke
129 0 2482 4043 2 MP stroke
129 0 2482 4505 2 MP stroke
0 586 2614 3963 2 MP stroke
129 0 2550 3963 2 MP stroke
129 0 2550 4549 2 MP stroke
0 515 2683 4011 2 MP stroke
128 0 2619 4011 2 MP stroke
128 0 2619 4526 2 MP stroke
0 539 2751 4005 2 MP stroke
129 0 2687 4005 2 MP stroke
129 0 2687 4544 2 MP stroke
0 498 2820 4108 2 MP stroke
128 0 2756 4108 2 MP stroke
128 0 2756 4606 2 MP stroke
0 620 2889 3996 2 MP stroke
129 0 2825 3996 2 MP stroke
0 484 2959 4132 2 MP stroke
129 0 2894 4132 2 MP stroke
0 524 3026 4092 2 MP stroke
128 0 2962 4092 2 MP stroke
0 499 3095 4117 2 MP stroke
129 0 3030 4117 2 MP stroke
0 514 3164 4102 2 MP stroke
128 0 3100 4102 2 MP stroke
0 360 3232 4256 2 MP stroke
129 0 3168 4256 2 MP stroke
0 383 3301 4233 2 MP stroke
129 0 3236 4233 2 MP stroke
0 362 3369 4254 2 MP stroke
129 0 3305 4254 2 MP stroke
0 377 3439 4239 2 MP stroke
129 0 3374 4239 2 MP stroke
0 395 3507 4221 2 MP stroke
128 0 3443 4221 2 MP stroke
0 354 3575 4262 2 MP stroke
128 0 3511 4262 2 MP stroke
0 312 3644 4304 2 MP stroke
129 0 3580 4304 2 MP stroke
0 358 3713 4258 2 MP stroke
128 0 3649 4258 2 MP stroke
0 283 3782 4333 2 MP stroke
128 0 3718 4333 2 MP stroke
0 293 3850 4323 2 MP stroke
128 0 3786 4323 2 MP stroke
0 372 3919 4244 2 MP stroke
129 0 3854 4244 2 MP stroke
0 289 3988 4327 2 MP stroke
129 0 3923 4327 2 MP stroke
0 235 4056 4381 2 MP stroke
129 0 3992 4381 2 MP stroke
0 260 4124 4356 2 MP stroke
129 0 4060 4356 2 MP stroke
0 242 4193 4374 2 MP stroke
129 0 4128 4374 2 MP stroke
0 238 4262 4378 2 MP stroke
128 0 4198 4378 2 MP stroke
0 212 4331 4404 2 MP stroke
129 0 4267 4404 2 MP stroke
0 153 4400 4463 2 MP stroke
129 0 4335 4463 2 MP stroke
0 197 4468 4419 2 MP stroke
128 0 4404 4419 2 MP stroke
0 188 4536 4428 2 MP stroke
129 0 4471 4428 2 MP stroke
0 198 4605 4418 2 MP stroke
129 0 4540 4418 2 MP stroke
0 158 4674 4458 2 MP stroke
128 0 4610 4458 2 MP stroke
0 142 4743 4474 2 MP stroke
129 0 4678 4474 2 MP stroke
0 170 4811 4446 2 MP stroke
129 0 4747 4446 2 MP stroke
0 188 4880 4428 2 MP stroke
128 0 4816 4428 2 MP stroke
0 219 4948 4397 2 MP stroke
128 0 4884 4397 2 MP stroke
0 226 5017 4390 2 MP stroke
129 0 4952 4390 2 MP stroke
0 161 5086 4455 2 MP stroke
129 0 5021 4455 2 MP stroke
0 131 5155 4485 2 MP stroke
128 0 5091 4485 2 MP stroke
0 142 5223 4474 2 MP stroke
129 0 5159 4474 2 MP stroke
0 138 5292 4478 2 MP stroke
129 0 5227 4478 2 MP stroke
0 122 5360 4494 2 MP stroke
129 0 5295 4494 2 MP stroke
0 115 5429 4501 2 MP stroke
129 0 5364 4501 2 MP stroke
0 212 5500 4404 2 MP stroke
129 0 5435 4404 2 MP stroke
0 162 5573 4454 2 MP stroke
129 0 5508 4454 2 MP stroke
0 177 5648 4439 2 MP stroke
128 0 5584 4439 2 MP stroke
0 165 5727 4451 2 MP stroke
129 0 5662 4451 2 MP stroke
0 165 5816 4451 2 MP stroke
128 0 5752 4451 2 MP stroke
0 122 5903 4494 2 MP stroke
128 0 5839 4494 2 MP stroke
0 114 5993 4502 2 MP stroke
129 0 5929 4502 2 MP stroke
0 122 6088 4494 2 MP stroke
129 0 6023 4494 2 MP stroke
0 160 6190 4456 2 MP stroke
129 0 6125 4456 2 MP stroke
2 0 6254 4522 2 MP stroke
48 17 68 -4 69 -4 69 31 69 -28 68 -2 69 16 68 -15 
69 17 69 8 69 18 68 -31 68 -16 69 22 69 12 69 -12 
69 64 68 -36 68 26 69 33 69 -1 68 -25 69 40 69 -24 
69 28 68 13 68 11 70 -7 68 29 69 -20 68 65 69 5 
69 10 67 -8 70 72 69 -45 69 83 68 6 69 12 68 -18 
69 53 68 -12 69 31 69 29 69 48 68 45 68 19 69 28 
69 26 68 121 69 14 69 69 69 57 68 140 68 22 69 76 
69 96 68 97 70 155 68 159 68 254 68 239 69 369 69 1670 
899 469 65 MP stroke
gr

 874  444 mt  924  494 L
 924  444 mt  874  494 L
 943 2114 mt  993 2164 L
 993 2114 mt  943 2164 L
1012 2483 mt 1062 2533 L
1062 2483 mt 1012 2533 L
1080 2722 mt 1130 2772 L
1130 2722 mt 1080 2772 L
1148 2976 mt 1198 3026 L
1198 2976 mt 1148 3026 L
1216 3135 mt 1266 3185 L
1266 3135 mt 1216 3185 L
1286 3290 mt 1336 3340 L
1336 3290 mt 1286 3340 L
1354 3387 mt 1404 3437 L
1404 3387 mt 1354 3437 L
1423 3483 mt 1473 3533 L
1473 3483 mt 1423 3533 L
1492 3559 mt 1542 3609 L
1542 3559 mt 1492 3609 L
1560 3581 mt 1610 3631 L
1610 3581 mt 1560 3631 L
1628 3721 mt 1678 3771 L
1678 3721 mt 1628 3771 L
1697 3778 mt 1747 3828 L
1747 3778 mt 1697 3828 L
1766 3847 mt 1816 3897 L
1816 3847 mt 1766 3897 L
1835 3861 mt 1885 3911 L
1885 3861 mt 1835 3911 L
1903 3982 mt 1953 4032 L
1953 3982 mt 1903 4032 L
1972 4008 mt 2022 4058 L
2022 4008 mt 1972 4058 L
2041 4036 mt 2091 4086 L
2091 4036 mt 2041 4086 L
2109 4055 mt 2159 4105 L
2159 4055 mt 2109 4105 L
2177 4100 mt 2227 4150 L
2227 4100 mt 2177 4150 L
2246 4148 mt 2296 4198 L
2296 4148 mt 2246 4198 L
2315 4177 mt 2365 4227 L
2365 4177 mt 2315 4227 L
2384 4208 mt 2434 4258 L
2434 4208 mt 2384 4258 L
2452 4196 mt 2502 4246 L
2502 4196 mt 2452 4246 L
2521 4249 mt 2571 4299 L
2571 4249 mt 2521 4299 L
2589 4231 mt 2639 4281 L
2639 4231 mt 2589 4281 L
2658 4243 mt 2708 4293 L
2708 4243 mt 2658 4293 L
2726 4249 mt 2776 4299 L
2776 4249 mt 2726 4299 L
2795 4332 mt 2845 4382 L
2845 4332 mt 2795 4382 L
2864 4287 mt 2914 4337 L
2914 4287 mt 2864 4337 L
2934 4359 mt 2984 4409 L
2984 4359 mt 2934 4409 L
3001 4351 mt 3051 4401 L
3051 4351 mt 3001 4401 L
3070 4361 mt 3120 4411 L
3120 4361 mt 3070 4411 L
3139 4366 mt 3189 4416 L
3189 4366 mt 3139 4416 L
3207 4431 mt 3257 4481 L
3257 4431 mt 3207 4481 L
3276 4411 mt 3326 4461 L
3326 4411 mt 3276 4461 L
3344 4440 mt 3394 4490 L
3394 4440 mt 3344 4490 L
3414 4433 mt 3464 4483 L
3464 4433 mt 3414 4483 L
3482 4444 mt 3532 4494 L
3532 4444 mt 3482 4494 L
3550 4457 mt 3600 4507 L
3600 4457 mt 3550 4507 L
3619 4485 mt 3669 4535 L
3669 4485 mt 3619 4535 L
3688 4461 mt 3738 4511 L
3738 4461 mt 3688 4511 L
3757 4501 mt 3807 4551 L
3807 4501 mt 3757 4551 L
3825 4476 mt 3875 4526 L
3875 4476 mt 3825 4526 L
3894 4475 mt 3944 4525 L
3944 4475 mt 3894 4525 L
3963 4508 mt 4013 4558 L
4013 4508 mt 3963 4558 L
4031 4534 mt 4081 4584 L
4081 4534 mt 4031 4584 L
4099 4498 mt 4149 4548 L
4149 4498 mt 4099 4548 L
4168 4562 mt 4218 4612 L
4218 4562 mt 4168 4612 L
4237 4550 mt 4287 4600 L
4287 4550 mt 4237 4600 L
4306 4562 mt 4356 4612 L
4356 4562 mt 4306 4612 L
4375 4584 mt 4425 4634 L
4425 4584 mt 4375 4634 L
4443 4568 mt 4493 4618 L
4493 4568 mt 4443 4618 L
4511 4537 mt 4561 4587 L
4561 4537 mt 4511 4587 L
4580 4555 mt 4630 4605 L
4630 4555 mt 4580 4605 L
4649 4563 mt 4699 4613 L
4699 4563 mt 4649 4613 L
4718 4580 mt 4768 4630 L
4768 4580 mt 4718 4630 L
4786 4565 mt 4836 4615 L
4836 4565 mt 4786 4615 L
4855 4581 mt 4905 4631 L
4905 4581 mt 4855 4631 L
4923 4579 mt 4973 4629 L
4973 4579 mt 4923 4629 L
4992 4551 mt 5042 4601 L
5042 4551 mt 4992 4601 L
5061 4582 mt 5111 4632 L
5111 4582 mt 5061 4632 L
5130 4578 mt 5180 4628 L
5180 4578 mt 5130 4628 L
5198 4574 mt 5248 4624 L
5248 4574 mt 5198 4624 L
gs 899 469 5357 4147 rc
68 22 89 2 79 -19 75 5 73 18 45 -28 5455 4616 7 MP stroke
gr

5475 4563 mt 5525 4613 L
5525 4563 mt 5475 4613 L
5548 4581 mt 5598 4631 L
5598 4581 mt 5548 4631 L
5623 4586 mt 5673 4636 L
5673 4586 mt 5623 4636 L
5702 4567 mt 5752 4617 L
5752 4567 mt 5702 4617 L
5791 4569 mt 5841 4619 L
5841 4569 mt 5791 4619 L
gs 899 469 5357 4147 rc
29 16 64 -16 6126 4616 3 MP stroke
gr

6165 4575 mt 6215 4625 L
6215 4575 mt 6165 4625 L
gs 899 469 5357 4147 rc
899 469 PD
64 0 899 469 2 MP stroke
64 0 899 469 2 MP stroke
0 664 968 469 2 MP stroke
128 0 904 1133 2 MP stroke
0 595 1037 568 2 MP stroke
128 0 973 568 2 MP stroke
128 0 973 1163 2 MP stroke
0 733 1105 469 2 MP stroke
128 0 1041 1202 2 MP stroke
0 631 1173 646 2 MP stroke
129 0 1108 646 2 MP stroke
129 0 1108 1277 2 MP stroke
0 560 1241 666 2 MP stroke
129 0 1177 666 2 MP stroke
129 0 1177 1226 2 MP stroke
0 753 1311 628 2 MP stroke
129 0 1246 628 2 MP stroke
129 0 1246 1381 2 MP stroke
0 784 1379 684 2 MP stroke
129 0 1314 684 2 MP stroke
129 0 1314 1468 2 MP stroke
0 600 1448 666 2 MP stroke
129 0 1383 666 2 MP stroke
129 0 1383 1266 2 MP stroke
0 781 1517 644 2 MP stroke
128 0 1453 644 2 MP stroke
128 0 1453 1425 2 MP stroke
0 621 1585 731 2 MP stroke
129 0 1521 731 2 MP stroke
129 0 1521 1352 2 MP stroke
0 1025 1653 600 2 MP stroke
129 0 1589 600 2 MP stroke
129 0 1589 1625 2 MP stroke
0 1026 1722 542 2 MP stroke
128 0 1658 542 2 MP stroke
128 0 1658 1568 2 MP stroke
0 908 1791 701 2 MP stroke
129 0 1727 701 2 MP stroke
129 0 1727 1609 2 MP stroke
0 955 1860 627 2 MP stroke
129 0 1795 627 2 MP stroke
129 0 1795 1582 2 MP stroke
0 1073 1928 571 2 MP stroke
128 0 1864 571 2 MP stroke
128 0 1864 1644 2 MP stroke
0 1001 1997 605 2 MP stroke
129 0 1932 605 2 MP stroke
129 0 1932 1606 2 MP stroke
0 1121 2066 504 2 MP stroke
129 0 2001 504 2 MP stroke
129 0 2001 1625 2 MP stroke
0 1355 2134 489 2 MP stroke
128 0 2070 489 2 MP stroke
128 0 2070 1844 2 MP stroke
0 1186 2202 632 2 MP stroke
129 0 2137 632 2 MP stroke
129 0 2137 1818 2 MP stroke
0 1430 2271 529 2 MP stroke
129 0 2206 529 2 MP stroke
129 0 2206 1959 2 MP stroke
0 1397 2340 578 2 MP stroke
129 0 2276 578 2 MP stroke
129 0 2276 1975 2 MP stroke
0 1363 2409 608 2 MP stroke
129 0 2345 608 2 MP stroke
129 0 2345 1971 2 MP stroke
0 1024 2477 758 2 MP stroke
129 0 2413 758 2 MP stroke
129 0 2413 1782 2 MP stroke
0 998 2546 710 2 MP stroke
129 0 2482 710 2 MP stroke
129 0 2482 1708 2 MP stroke
0 1137 2614 702 2 MP stroke
129 0 2550 702 2 MP stroke
129 0 2550 1839 2 MP stroke
0 1093 2683 741 2 MP stroke
128 0 2619 741 2 MP stroke
128 0 2619 1834 2 MP stroke
0 1201 2751 688 2 MP stroke
129 0 2687 688 2 MP stroke
129 0 2687 1889 2 MP stroke
0 1261 2820 606 2 MP stroke
128 0 2756 606 2 MP stroke
128 0 2756 1867 2 MP stroke
0 1329 2889 662 2 MP stroke
129 0 2825 662 2 MP stroke
129 0 2825 1991 2 MP stroke
0 1335 2959 545 2 MP stroke
129 0 2894 545 2 MP stroke
129 0 2894 1880 2 MP stroke
0 1195 3026 640 2 MP stroke
128 0 2962 640 2 MP stroke
128 0 2962 1835 2 MP stroke
0 1413 3095 566 2 MP stroke
129 0 3030 566 2 MP stroke
129 0 3030 1979 2 MP stroke
0 1262 3164 669 2 MP stroke
128 0 3100 669 2 MP stroke
128 0 3100 1931 2 MP stroke
0 1075 3232 649 2 MP stroke
129 0 3168 649 2 MP stroke
129 0 3168 1724 2 MP stroke
0 1174 3301 589 2 MP stroke
129 0 3236 589 2 MP stroke
129 0 3236 1763 2 MP stroke
0 1021 3369 868 2 MP stroke
129 0 3305 868 2 MP stroke
129 0 3305 1889 2 MP stroke
0 988 3439 899 2 MP stroke
129 0 3374 899 2 MP stroke
129 0 3374 1887 2 MP stroke
0 1116 3507 712 2 MP stroke
128 0 3443 712 2 MP stroke
128 0 3443 1828 2 MP stroke
0 1021 3575 811 2 MP stroke
128 0 3511 811 2 MP stroke
128 0 3511 1832 2 MP stroke
0 1008 3644 966 2 MP stroke
129 0 3580 966 2 MP stroke
129 0 3580 1974 2 MP stroke
0 900 3713 989 2 MP stroke
128 0 3649 989 2 MP stroke
128 0 3649 1889 2 MP stroke
0 923 3782 936 2 MP stroke
128 0 3718 936 2 MP stroke
128 0 3718 1859 2 MP stroke
0 947 3850 917 2 MP stroke
128 0 3786 917 2 MP stroke
128 0 3786 1864 2 MP stroke
0 991 3919 873 2 MP stroke
129 0 3854 873 2 MP stroke
129 0 3854 1864 2 MP stroke
0 1132 3988 840 2 MP stroke
129 0 3923 840 2 MP stroke
129 0 3923 1972 2 MP stroke
0 943 4056 974 2 MP stroke
129 0 3992 974 2 MP stroke
129 0 3992 1917 2 MP stroke
0 1045 4124 861 2 MP stroke
129 0 4060 861 2 MP stroke
129 0 4060 1906 2 MP stroke
0 1080 4193 878 2 MP stroke
129 0 4128 878 2 MP stroke
129 0 4128 1958 2 MP stroke
0 1005 4262 924 2 MP stroke
128 0 4198 924 2 MP stroke
128 0 4198 1929 2 MP stroke
0 1076 4331 979 2 MP stroke
129 0 4267 979 2 MP stroke
129 0 4267 2055 2 MP stroke
0 822 4400 955 2 MP stroke
129 0 4335 955 2 MP stroke
129 0 4335 1777 2 MP stroke
0 903 4468 1084 2 MP stroke
128 0 4404 1084 2 MP stroke
128 0 4404 1987 2 MP stroke
0 1184 4536 984 2 MP stroke
129 0 4471 984 2 MP stroke
129 0 4471 2168 2 MP stroke
0 1046 4605 981 2 MP stroke
129 0 4540 981 2 MP stroke
129 0 4540 2027 2 MP stroke
0 1021 4674 1035 2 MP stroke
128 0 4610 1035 2 MP stroke
128 0 4610 2056 2 MP stroke
0 1041 4743 876 2 MP stroke
129 0 4678 876 2 MP stroke
129 0 4678 1917 2 MP stroke
0 1105 4811 964 2 MP stroke
129 0 4747 964 2 MP stroke
129 0 4747 2069 2 MP stroke
0 1325 4880 790 2 MP stroke
128 0 4816 790 2 MP stroke
128 0 4816 2115 2 MP stroke
0 1160 4948 932 2 MP stroke
128 0 4884 932 2 MP stroke
128 0 4884 2092 2 MP stroke
0 979 5017 961 2 MP stroke
129 0 4952 961 2 MP stroke
129 0 4952 1940 2 MP stroke
0 1060 5086 939 2 MP stroke
129 0 5021 939 2 MP stroke
129 0 5021 1999 2 MP stroke
0 969 5155 883 2 MP stroke
128 0 5091 883 2 MP stroke
128 0 5091 1852 2 MP stroke
0 1119 5223 922 2 MP stroke
129 0 5159 922 2 MP stroke
129 0 5159 2041 2 MP stroke
0 1144 5292 1068 2 MP stroke
129 0 5227 1068 2 MP stroke
129 0 5227 2212 2 MP stroke
0 1130 5360 930 2 MP stroke
129 0 5295 930 2 MP stroke
129 0 5295 2060 2 MP stroke
0 917 5429 1026 2 MP stroke
129 0 5364 1026 2 MP stroke
129 0 5364 1943 2 MP stroke
0 1043 5500 1082 2 MP stroke
129 0 5435 1082 2 MP stroke
129 0 5435 2125 2 MP stroke
0 923 5573 953 2 MP stroke
129 0 5508 953 2 MP stroke
129 0 5508 1876 2 MP stroke
0 1320 5648 731 2 MP stroke
128 0 5584 731 2 MP stroke
128 0 5584 2051 2 MP stroke
0 1098 5727 1076 2 MP stroke
129 0 5662 1076 2 MP stroke
129 0 5662 2174 2 MP stroke
0 922 5816 978 2 MP stroke
128 0 5752 978 2 MP stroke
128 0 5752 1900 2 MP stroke
0 1002 5903 987 2 MP stroke
128 0 5839 987 2 MP stroke
128 0 5839 1989 2 MP stroke
0 872 5993 1018 2 MP stroke
129 0 5929 1018 2 MP stroke
129 0 5929 1890 2 MP stroke
0 1036 6088 906 2 MP stroke
129 0 6023 906 2 MP stroke
129 0 6023 1942 2 MP stroke
0 1213 6190 1003 2 MP stroke
129 0 6125 1003 2 MP stroke
129 0 6125 2216 2 MP stroke
2 0 6254 958 2 MP stroke
2 0 6254 2252 2 MP stroke
66 -3 102 186 95 -30 90 -34 87 49 89 -186 79 234 75 -24 
73 -188 71 118 69 -10 68 -145 69 159 68 114 69 -102 69 19 
69 -62 68 60 69 -64 68 119 69 -149 69 42 69 -72 68 41 
68 169 69 -151 69 91 69 8 69 34 68 -62 68 40 69 38 
69 -23 68 -6 69 -42 69 -31 69 149 68 51 68 -123 70 14 
68 203 69 -10 68 -114 69 27 69 36 67 25 70 -114 69 89 
69 -51 68 0 69 17 68 62 69 -61 68 -20 69 14 69 32 
69 19 68 59 68 101 69 -41 69 -2 68 4 69 -51 69 100 
69 -57 68 71 68 6 69 69 69 -110 68 72 70 58 68 -16 
68 170 68 -74 69 167 69 230 899 469 77 MP stroke
gr

 874  444 mt  924  494 L
 924  444 mt  874  494 L
 943  674 mt  993  724 L
 993  674 mt  943  724 L
1012  841 mt 1062  891 L
1062  841 mt 1012  891 L
1080  767 mt 1130  817 L
1130  767 mt 1080  817 L
1148  937 mt 1198  987 L
1198  937 mt 1148  987 L
1216  921 mt 1266  971 L
1266  921 mt 1216  971 L
1286  979 mt 1336 1029 L
1336  979 mt 1286 1029 L
1354 1051 mt 1404 1101 L
1404 1051 mt 1354 1101 L
1423  941 mt 1473  991 L
1473  941 mt 1423  991 L
1492 1010 mt 1542 1060 L
1542 1010 mt 1492 1060 L
1560 1016 mt 1610 1066 L
1610 1016 mt 1560 1066 L
1628 1087 mt 1678 1137 L
1678 1087 mt 1628 1137 L
1697 1030 mt 1747 1080 L
1747 1030 mt 1697 1080 L
1766 1130 mt 1816 1180 L
1816 1130 mt 1766 1180 L
1835 1079 mt 1885 1129 L
1885 1079 mt 1835 1129 L
1903 1083 mt 1953 1133 L
1953 1083 mt 1903 1133 L
1972 1081 mt 2022 1131 L
2022 1081 mt 1972 1131 L
2041 1040 mt 2091 1090 L
2091 1040 mt 2041 1090 L
2109 1141 mt 2159 1191 L
2159 1141 mt 2109 1191 L
2177 1200 mt 2227 1250 L
2227 1200 mt 2177 1250 L
2246 1219 mt 2296 1269 L
2296 1219 mt 2246 1269 L
2315 1251 mt 2365 1301 L
2365 1251 mt 2315 1301 L
2384 1265 mt 2434 1315 L
2434 1265 mt 2384 1315 L
2452 1245 mt 2502 1295 L
2502 1245 mt 2452 1295 L
2521 1184 mt 2571 1234 L
2571 1184 mt 2521 1234 L
2589 1246 mt 2639 1296 L
2639 1246 mt 2589 1296 L
2658 1263 mt 2708 1313 L
2708 1263 mt 2658 1313 L
2726 1263 mt 2776 1313 L
2776 1263 mt 2726 1313 L
2795 1212 mt 2845 1262 L
2845 1212 mt 2795 1262 L
2864 1301 mt 2914 1351 L
2914 1301 mt 2864 1351 L
2934 1187 mt 2984 1237 L
2984 1187 mt 2934 1237 L
3001 1212 mt 3051 1262 L
3051 1212 mt 3001 1262 L
3070 1248 mt 3120 1298 L
3120 1248 mt 3070 1298 L
3139 1275 mt 3189 1325 L
3189 1275 mt 3139 1325 L
3207 1161 mt 3257 1211 L
3257 1161 mt 3207 1211 L
3276 1151 mt 3326 1201 L
3326 1151 mt 3276 1201 L
3344 1354 mt 3394 1404 L
3394 1354 mt 3344 1404 L
3414 1368 mt 3464 1418 L
3464 1368 mt 3414 1418 L
3482 1245 mt 3532 1295 L
3532 1245 mt 3482 1295 L
3550 1296 mt 3600 1346 L
3600 1296 mt 3550 1346 L
3619 1445 mt 3669 1495 L
3669 1445 mt 3619 1495 L
3688 1414 mt 3738 1464 L
3738 1414 mt 3688 1464 L
3757 1372 mt 3807 1422 L
3807 1372 mt 3757 1422 L
3825 1366 mt 3875 1416 L
3875 1366 mt 3825 1416 L
3894 1343 mt 3944 1393 L
3944 1343 mt 3894 1393 L
3963 1381 mt 4013 1431 L
4013 1381 mt 3963 1431 L
4031 1421 mt 4081 1471 L
4081 1421 mt 4031 1471 L
4099 1359 mt 4149 1409 L
4149 1359 mt 4099 1409 L
4168 1393 mt 4218 1443 L
4218 1393 mt 4168 1443 L
4237 1401 mt 4287 1451 L
4287 1401 mt 4237 1451 L
4306 1492 mt 4356 1542 L
4356 1492 mt 4306 1542 L
4375 1341 mt 4425 1391 L
4425 1341 mt 4375 1391 L
4443 1510 mt 4493 1560 L
4493 1510 mt 4443 1560 L
4511 1551 mt 4561 1601 L
4561 1551 mt 4511 1601 L
4580 1479 mt 4630 1529 L
4630 1479 mt 4580 1529 L
4649 1521 mt 4699 1571 L
4699 1521 mt 4649 1571 L
4718 1372 mt 4768 1422 L
4768 1372 mt 4718 1422 L
4786 1491 mt 4836 1541 L
4836 1491 mt 4786 1541 L
4855 1427 mt 4905 1477 L
4905 1427 mt 4855 1477 L
4923 1487 mt 4973 1537 L
4973 1487 mt 4923 1537 L
4992 1425 mt 5042 1475 L
5042 1425 mt 4992 1475 L
5061 1444 mt 5111 1494 L
5111 1444 mt 5061 1494 L
5130 1342 mt 5180 1392 L
5180 1342 mt 5130 1392 L
5198 1456 mt 5248 1506 L
5248 1456 mt 5198 1506 L
5267 1615 mt 5317 1665 L
5317 1615 mt 5267 1665 L
5335 1470 mt 5385 1520 L
5385 1470 mt 5335 1520 L
5404 1460 mt 5454 1510 L
5454 1460 mt 5404 1510 L
5475 1578 mt 5525 1628 L
5525 1578 mt 5475 1628 L
5548 1390 mt 5598 1440 L
5598 1390 mt 5548 1440 L
5623 1366 mt 5673 1416 L
5673 1366 mt 5623 1416 L
5702 1600 mt 5752 1650 L
5752 1600 mt 5702 1650 L
5791 1414 mt 5841 1464 L
5841 1414 mt 5791 1464 L
5878 1463 mt 5928 1513 L
5928 1463 mt 5878 1513 L
5968 1429 mt 6018 1479 L
6018 1429 mt 5968 1479 L
6063 1399 mt 6113 1449 L
6113 1399 mt 6063 1449 L
6165 1585 mt 6215 1635 L
6215 1585 mt 6165 1635 L
gs 899 469 5357 4147 rc
/c8 { 1.000000 0.000000 0.000000 sr} bdef
c8
19 0 899 500 2 MP stroke
899 469 PD
55 0 899 469 2 MP stroke
55 0 899 469 2 MP stroke
0 452 934 964 2 MP stroke
91 0 899 964 2 MP stroke
91 0 899 1416 2 MP stroke
0 592 970 1340 2 MP stroke
110 0 915 1340 2 MP stroke
110 0 915 1932 2 MP stroke
0 706 1006 1633 2 MP stroke
111 0 950 1633 2 MP stroke
111 0 950 2339 2 MP stroke
0 789 1041 1913 2 MP stroke
111 0 986 1913 2 MP stroke
111 0 986 2702 2 MP stroke
0 813 1077 2183 2 MP stroke
110 0 1022 2183 2 MP stroke
110 0 1022 2996 2 MP stroke
0 779 1113 2435 2 MP stroke
111 0 1057 2435 2 MP stroke
111 0 1057 3214 2 MP stroke
0 767 1148 2692 2 MP stroke
111 0 1093 2692 2 MP stroke
111 0 1093 3459 2 MP stroke
0 738 1184 2906 2 MP stroke
110 0 1129 2906 2 MP stroke
110 0 1129 3644 2 MP stroke
0 726 1220 3075 2 MP stroke
110 0 1165 3075 2 MP stroke
110 0 1165 3801 2 MP stroke
0 725 1256 3214 2 MP stroke
111 0 1200 3214 2 MP stroke
111 0 1200 3939 2 MP stroke
0 651 1291 3348 2 MP stroke
111 0 1236 3348 2 MP stroke
111 0 1236 3999 2 MP stroke
0 624 1327 3471 2 MP stroke
110 0 1272 3471 2 MP stroke
110 0 1272 4095 2 MP stroke
0 630 1363 3551 2 MP stroke
111 0 1307 3551 2 MP stroke
111 0 1307 4181 2 MP stroke
0 570 1398 3642 2 MP stroke
111 0 1343 3642 2 MP stroke
111 0 1343 4212 2 MP stroke
0 553 1434 3728 2 MP stroke
110 0 1379 3728 2 MP stroke
110 0 1379 4281 2 MP stroke
0 492 1470 3809 2 MP stroke
111 0 1414 3809 2 MP stroke
111 0 1414 4301 2 MP stroke
0 456 1506 3874 2 MP stroke
111 0 1450 3874 2 MP stroke
111 0 1450 4330 2 MP stroke
0 428 1541 3924 2 MP stroke
111 0 1486 3924 2 MP stroke
111 0 1486 4352 2 MP stroke
0 358 1577 4001 2 MP stroke
110 0 1522 4001 2 MP stroke
110 0 1522 4359 2 MP stroke
0 297 1613 4080 2 MP stroke
111 0 1557 4080 2 MP stroke
111 0 1557 4377 2 MP stroke
0 292 1648 4106 2 MP stroke
111 0 1593 4106 2 MP stroke
111 0 1593 4398 2 MP stroke
0 284 1684 4151 2 MP stroke
110 0 1629 4151 2 MP stroke
110 0 1629 4435 2 MP stroke
0 268 1720 4180 2 MP stroke
111 0 1664 4180 2 MP stroke
111 0 1664 4448 2 MP stroke
0 226 1755 4232 2 MP stroke
111 0 1700 4232 2 MP stroke
111 0 1700 4458 2 MP stroke
0 231 1791 4248 2 MP stroke
111 0 1736 4248 2 MP stroke
111 0 1736 4479 2 MP stroke
0 248 1827 4253 2 MP stroke
110 0 1772 4253 2 MP stroke
110 0 1772 4501 2 MP stroke
0 256 1863 4271 2 MP stroke
111 0 1807 4271 2 MP stroke
111 0 1807 4527 2 MP stroke
0 231 1898 4301 2 MP stroke
111 0 1843 4301 2 MP stroke
111 0 1843 4532 2 MP stroke
0 226 1934 4310 2 MP stroke
110 0 1879 4310 2 MP stroke
110 0 1879 4536 2 MP stroke
0 213 1970 4331 2 MP stroke
111 0 1914 4331 2 MP stroke
111 0 1914 4544 2 MP stroke
0 217 2005 4339 2 MP stroke
111 0 1950 4339 2 MP stroke
111 0 1950 4556 2 MP stroke
0 207 2041 4354 2 MP stroke
110 0 1986 4354 2 MP stroke
110 0 1986 4561 2 MP stroke
0 200 2077 4358 2 MP stroke
111 0 2021 4358 2 MP stroke
111 0 2021 4558 2 MP stroke
0 205 2113 4357 2 MP stroke
111 0 2057 4357 2 MP stroke
111 0 2057 4562 2 MP stroke
0 187 2148 4381 2 MP stroke
111 0 2093 4381 2 MP stroke
111 0 2093 4568 2 MP stroke
0 171 2184 4390 2 MP stroke
110 0 2129 4390 2 MP stroke
110 0 2129 4561 2 MP stroke
0 172 2220 4392 2 MP stroke
111 0 2164 4392 2 MP stroke
111 0 2164 4564 2 MP stroke
0 174 2255 4400 2 MP stroke
111 0 2200 4400 2 MP stroke
111 0 2200 4574 2 MP stroke
0 174 2291 4403 2 MP stroke
110 0 2236 4403 2 MP stroke
110 0 2236 4577 2 MP stroke
0 166 2327 4410 2 MP stroke
111 0 2271 4410 2 MP stroke
111 0 2271 4576 2 MP stroke
0 156 2362 4413 2 MP stroke
111 0 2307 4413 2 MP stroke
111 0 2307 4569 2 MP stroke
0 153 2398 4419 2 MP stroke
111 0 2343 4419 2 MP stroke
111 0 2343 4572 2 MP stroke
0 148 2434 4425 2 MP stroke
110 0 2379 4425 2 MP stroke
110 0 2379 4573 2 MP stroke
0 140 2470 4428 2 MP stroke
111 0 2414 4428 2 MP stroke
111 0 2414 4568 2 MP stroke
0 130 2505 4434 2 MP stroke
111 0 2450 4434 2 MP stroke
111 0 2450 4564 2 MP stroke
0 140 2541 4429 2 MP stroke
110 0 2486 4429 2 MP stroke
110 0 2486 4569 2 MP stroke
0 136 2577 4439 2 MP stroke
111 0 2521 4439 2 MP stroke
111 0 2521 4575 2 MP stroke
0 140 2612 4427 2 MP stroke
111 0 2557 4427 2 MP stroke
111 0 2557 4567 2 MP stroke
0 141 2648 4428 2 MP stroke
110 0 2593 4428 2 MP stroke
110 0 2593 4569 2 MP stroke
0 132 2684 4436 2 MP stroke
111 0 2628 4436 2 MP stroke
111 0 2628 4568 2 MP stroke
0 146 2720 4433 2 MP stroke
111 0 2664 4433 2 MP stroke
111 0 2664 4579 2 MP stroke
0 144 2755 4427 2 MP stroke
111 0 2700 4427 2 MP stroke
111 0 2700 4571 2 MP stroke
0 146 2791 4427 2 MP stroke
110 0 2736 4427 2 MP stroke
110 0 2736 4573 2 MP stroke
0 132 2827 4449 2 MP stroke
111 0 2771 4449 2 MP stroke
111 0 2771 4581 2 MP stroke
0 137 2862 4453 2 MP stroke
111 0 2807 4453 2 MP stroke
111 0 2807 4590 2 MP stroke
0 136 2898 4455 2 MP stroke
110 0 2843 4455 2 MP stroke
110 0 2843 4591 2 MP stroke
0 165 2934 4434 2 MP stroke
111 0 2878 4434 2 MP stroke
111 0 2878 4599 2 MP stroke
0 151 2969 4440 2 MP stroke
111 0 2914 4440 2 MP stroke
111 0 2914 4591 2 MP stroke
0 167 3005 4430 2 MP stroke
111 0 2950 4430 2 MP stroke
111 0 2950 4597 2 MP stroke
0 171 3041 4434 2 MP stroke
110 0 2986 4434 2 MP stroke
110 0 2986 4605 2 MP stroke
0 168 3077 4443 2 MP stroke
111 0 3021 4443 2 MP stroke
111 0 3021 4611 2 MP stroke
0 159 3112 4451 2 MP stroke
111 0 3057 4451 2 MP stroke
111 0 3057 4610 2 MP stroke
0 138 3148 4467 2 MP stroke
110 0 3093 4467 2 MP stroke
110 0 3093 4605 2 MP stroke
0 151 3184 4453 2 MP stroke
111 0 3128 4453 2 MP stroke
111 0 3128 4604 2 MP stroke
0 154 3219 4448 2 MP stroke
111 0 3164 4448 2 MP stroke
111 0 3164 4602 2 MP stroke
0 175 3255 4436 2 MP stroke
110 0 3200 4436 2 MP stroke
110 0 3200 4611 2 MP stroke
0 176 3291 4432 2 MP stroke
110 0 3236 4432 2 MP stroke
110 0 3236 4608 2 MP stroke
0 181 3327 4434 2 MP stroke
111 0 3271 4434 2 MP stroke
111 0 3271 4615 2 MP stroke
0 164 3362 4445 2 MP stroke
111 0 3307 4445 2 MP stroke
111 0 3307 4609 2 MP stroke
0 161 3398 4454 2 MP stroke
110 0 3343 4454 2 MP stroke
110 0 3343 4615 2 MP stroke
0 139 3434 4452 2 MP stroke
111 0 3378 4452 2 MP stroke
111 0 3378 4591 2 MP stroke
0 139 3469 4461 2 MP stroke
111 0 3414 4461 2 MP stroke
111 0 3414 4600 2 MP stroke
0 121 3505 4476 2 MP stroke
110 0 3450 4476 2 MP stroke
110 0 3450 4597 2 MP stroke
0 110 3541 4483 2 MP stroke
111 0 3485 4483 2 MP stroke
111 0 3485 4593 2 MP stroke
0 119 3577 4469 2 MP stroke
111 0 3521 4469 2 MP stroke
111 0 3521 4588 2 MP stroke
0 134 3612 4460 2 MP stroke
111 0 3557 4460 2 MP stroke
111 0 3557 4594 2 MP stroke
0 140 3648 4461 2 MP stroke
110 0 3593 4461 2 MP stroke
110 0 3593 4601 2 MP stroke
0 144 3684 4453 2 MP stroke
111 0 3628 4453 2 MP stroke
111 0 3628 4597 2 MP stroke
0 159 3719 4442 2 MP stroke
111 0 3664 4442 2 MP stroke
111 0 3664 4601 2 MP stroke
0 161 3755 4447 2 MP stroke
110 0 3700 4447 2 MP stroke
110 0 3700 4608 2 MP stroke
0 140 3791 4464 2 MP stroke
111 0 3735 4464 2 MP stroke
111 0 3735 4604 2 MP stroke
0 131 3826 4470 2 MP stroke
111 0 3771 4470 2 MP stroke
111 0 3771 4601 2 MP stroke
0 140 3862 4465 2 MP stroke
110 0 3807 4465 2 MP stroke
110 0 3807 4605 2 MP stroke
0 129 3898 4470 2 MP stroke
110 0 3843 4470 2 MP stroke
110 0 3843 4599 2 MP stroke
0 128 3934 4473 2 MP stroke
111 0 3878 4473 2 MP stroke
111 0 3878 4601 2 MP stroke
0 123 3969 4473 2 MP stroke
111 0 3914 4473 2 MP stroke
111 0 3914 4596 2 MP stroke
0 130 4005 4467 2 MP stroke
110 0 3950 4467 2 MP stroke
110 0 3950 4597 2 MP stroke
0 129 4041 4466 2 MP stroke
111 0 3985 4466 2 MP stroke
111 0 3985 4595 2 MP stroke
0 142 4076 4459 2 MP stroke
111 0 4021 4459 2 MP stroke
111 0 4021 4601 2 MP stroke
0 149 4112 4463 2 MP stroke
110 0 4057 4463 2 MP stroke
110 0 4057 4612 2 MP stroke
0 128 4148 4473 2 MP stroke
111 0 4092 4473 2 MP stroke
111 0 4092 4601 2 MP stroke
0 121 4184 4484 2 MP stroke
111 0 4128 4484 2 MP stroke
111 0 4128 4605 2 MP stroke
0 108 4219 4489 2 MP stroke
111 0 4164 4489 2 MP stroke
111 0 4164 4597 2 MP stroke
0 118 4255 4478 2 MP stroke
110 0 4200 4478 2 MP stroke
110 0 4200 4596 2 MP stroke
0 104 4291 4481 2 MP stroke
111 0 4235 4481 2 MP stroke
111 0 4235 4585 2 MP stroke
0 110 4326 4476 2 MP stroke
111 0 4271 4476 2 MP stroke
111 0 4271 4586 2 MP stroke
0 113 4362 4478 2 MP stroke
110 0 4307 4478 2 MP stroke
110 0 4307 4591 2 MP stroke
0 102 4398 4496 2 MP stroke
111 0 4342 4496 2 MP stroke
111 0 4342 4598 2 MP stroke
0 94 4433 4499 2 MP stroke
111 0 4378 4499 2 MP stroke
111 0 4378 4593 2 MP stroke
0 105 4469 4493 2 MP stroke
111 0 4414 4493 2 MP stroke
111 0 4414 4598 2 MP stroke
0 91 4505 4490 2 MP stroke
110 0 4450 4490 2 MP stroke
110 0 4450 4581 2 MP stroke
0 106 4541 4484 2 MP stroke
111 0 4485 4484 2 MP stroke
111 0 4485 4590 2 MP stroke
0 124 4576 4462 2 MP stroke
111 0 4521 4462 2 MP stroke
111 0 4521 4586 2 MP stroke
0 138 4612 4449 2 MP stroke
110 0 4557 4449 2 MP stroke
110 0 4557 4587 2 MP stroke
0 146 4648 4442 2 MP stroke
111 0 4592 4442 2 MP stroke
111 0 4592 4588 2 MP stroke
0 148 4683 4438 2 MP stroke
111 0 4628 4438 2 MP stroke
111 0 4628 4586 2 MP stroke
0 164 4719 4430 2 MP stroke
110 0 4664 4430 2 MP stroke
110 0 4664 4594 2 MP stroke
0 165 4755 4430 2 MP stroke
111 0 4699 4430 2 MP stroke
111 0 4699 4595 2 MP stroke
0 180 4791 4423 2 MP stroke
111 0 4735 4423 2 MP stroke
111 0 4735 4603 2 MP stroke
0 175 4826 4427 2 MP stroke
111 0 4771 4427 2 MP stroke
111 0 4771 4602 2 MP stroke
0 164 4862 4433 2 MP stroke
110 0 4807 4433 2 MP stroke
110 0 4807 4597 2 MP stroke
0 170 4898 4429 2 MP stroke
111 0 4842 4429 2 MP stroke
111 0 4842 4599 2 MP stroke
0 162 4933 4427 2 MP stroke
111 0 4878 4427 2 MP stroke
111 0 4878 4589 2 MP stroke
0 146 4969 4449 2 MP stroke
110 0 4914 4449 2 MP stroke
110 0 4914 4595 2 MP stroke
0 139 5005 4454 2 MP stroke
111 0 4949 4454 2 MP stroke
111 0 4949 4593 2 MP stroke
0 133 5040 4461 2 MP stroke
111 0 4985 4461 2 MP stroke
111 0 4985 4594 2 MP stroke
0 122 5076 4478 2 MP stroke
111 0 5021 4478 2 MP stroke
111 0 5021 4600 2 MP stroke
0 122 5112 4472 2 MP stroke
110 0 5057 4472 2 MP stroke
110 0 5057 4594 2 MP stroke
0 108 5148 4478 2 MP stroke
111 0 5092 4478 2 MP stroke
111 0 5092 4586 2 MP stroke
0 104 5183 4486 2 MP stroke
111 0 5128 4486 2 MP stroke
111 0 5128 4590 2 MP stroke
0 108 5219 4490 2 MP stroke
110 0 5164 4490 2 MP stroke
110 0 5164 4598 2 MP stroke
0 113 5255 4486 2 MP stroke
111 0 5199 4486 2 MP stroke
111 0 5199 4599 2 MP stroke
0 115 5290 4482 2 MP stroke
111 0 5235 4482 2 MP stroke
111 0 5235 4597 2 MP stroke
0 122 5326 4485 2 MP stroke
110 0 5271 4485 2 MP stroke
110 0 5271 4607 2 MP stroke
0 102 5362 4496 2 MP stroke
111 0 5306 4496 2 MP stroke
111 0 5306 4598 2 MP stroke
0 110 5398 4492 2 MP stroke
111 0 5342 4492 2 MP stroke
111 0 5342 4602 2 MP stroke
0 138 5433 4475 2 MP stroke
111 0 5378 4475 2 MP stroke
111 0 5378 4613 2 MP stroke
0 132 5469 4476 2 MP stroke
110 0 5414 4476 2 MP stroke
110 0 5414 4608 2 MP stroke
0 123 5505 4484 2 MP stroke
111 0 5449 4484 2 MP stroke
111 0 5449 4607 2 MP stroke
0 123 5540 4489 2 MP stroke
111 0 5485 4489 2 MP stroke
111 0 5485 4612 2 MP stroke
0 123 5576 4483 2 MP stroke
110 0 5521 4483 2 MP stroke
110 0 5521 4606 2 MP stroke
0 128 5612 4488 2 MP stroke
111 0 5556 4488 2 MP stroke
0 134 5647 4482 2 MP stroke
111 0 5592 4482 2 MP stroke
0 132 5683 4483 2 MP stroke
111 0 5628 4483 2 MP stroke
111 0 5628 4615 2 MP stroke
0 124 5719 4489 2 MP stroke
110 0 5664 4489 2 MP stroke
110 0 5664 4613 2 MP stroke
0 116 5755 4493 2 MP stroke
111 0 5699 4493 2 MP stroke
111 0 5699 4609 2 MP stroke
0 135 5790 4478 2 MP stroke
111 0 5735 4478 2 MP stroke
111 0 5735 4613 2 MP stroke
0 127 5826 4485 2 MP stroke
110 0 5771 4485 2 MP stroke
110 0 5771 4612 2 MP stroke
0 129 5862 4481 2 MP stroke
111 0 5806 4481 2 MP stroke
111 0 5806 4610 2 MP stroke
0 119 5897 4492 2 MP stroke
111 0 5842 4492 2 MP stroke
111 0 5842 4611 2 MP stroke
0 113 5933 4493 2 MP stroke
110 0 5878 4493 2 MP stroke
110 0 5878 4606 2 MP stroke
0 123 5969 4486 2 MP stroke
110 0 5914 4486 2 MP stroke
110 0 5914 4609 2 MP stroke
0 116 6005 4491 2 MP stroke
111 0 5949 4491 2 MP stroke
111 0 5949 4607 2 MP stroke
0 132 6040 4484 2 MP stroke
111 0 5985 4484 2 MP stroke
0 124 6076 4489 2 MP stroke
110 0 6021 4489 2 MP stroke
110 0 6021 4613 2 MP stroke
0 133 6112 4483 2 MP stroke
111 0 6056 4483 2 MP stroke
0 124 6147 4492 2 MP stroke
111 0 6092 4492 2 MP stroke
0 124 6183 4489 2 MP stroke
110 0 6128 4489 2 MP stroke
110 0 6128 4613 2 MP stroke
0 123 6219 4488 2 MP stroke
93 0 6163 4488 2 MP stroke
93 0 6163 4611 2 MP stroke
0 115 6255 4496 2 MP stroke
57 0 6199 4496 2 MP stroke
57 0 6199 4611 2 MP stroke
36 4 36 -2 36 -6 35 7 36 -1 36 -1 35 3 36 2 
36 -2 36 -2 35 5 36 -2 36 2 35 -5 36 0 36 2 
36 -1 35 -4 36 10 36 -7 35 5 36 4 36 -2 35 -3 
36 0 36 1 36 6 35 -3 36 -1 36 6 35 6 36 -1 
36 -6 36 11 35 4 36 2 36 14 35 -6 36 -1 36 1 
35 1 36 1 36 0 36 0 35 -3 36 -3 36 -6 35 -13 
36 1 36 -10 36 0 35 -1 36 13 36 3 35 -2 36 -4 
36 -6 35 -2 36 8 36 -1 36 8 35 0 36 -2 36 -2 
35 -3 36 3 36 -1 36 0 35 1 36 7 36 5 35 -3 
36 -6 36 4 35 -2 36 -9 36 1 36 6 35 10 36 -13 
36 7 35 3 36 4 36 -3 36 -2 35 -3 36 -8 36 6 
35 3 36 8 36 5 36 -1 35 -2 36 -6 36 1 35 7 
36 15 36 1 35 -7 36 4 36 3 36 2 35 -10 36 8 
36 0 35 1 36 -1 36 4 36 4 35 -2 36 3 36 3 
35 9 36 2 36 1 35 15 36 2 36 1 36 10 35 9 
36 15 36 6 35 18 36 22 36 14 36 18 35 31 36 21 
36 41 35 23 36 49 36 42 35 36 36 47 36 51 36 77 
35 61 36 83 36 109 35 98 36 138 36 163 36 199 35 251 
36 235 36 282 35 322 36 350 36 446 35 721 899 469 151 MP stroke
gr

c8
  36   36  934 1190 FO
  36   36  970 1636 FO
  36   36 1006 1986 FO
  36   36 1041 2308 FO
  36   36 1077 2590 FO
  36   36 1113 2825 FO
  36   36 1148 3076 FO
  36   36 1184 3275 FO
  36   36 1220 3438 FO
  36   36 1256 3576 FO
  36   36 1291 3674 FO
  36   36 1327 3783 FO
  36   36 1363 3866 FO
  36   36 1398 3927 FO
  36   36 1434 4004 FO
  36   36 1470 4055 FO
  36   36 1506 4102 FO
  36   36 1541 4138 FO
  36   36 1577 4180 FO
  36   36 1613 4229 FO
  36   36 1648 4252 FO
  36   36 1684 4293 FO
  36   36 1720 4314 FO
  36   36 1755 4345 FO
  36   36 1791 4363 FO
  36   36 1827 4377 FO
  36   36 1863 4399 FO
  36   36 1898 4417 FO
  36   36 1934 4423 FO
  36   36 1970 4438 FO
  36   36 2005 4447 FO
  36   36 2041 4457 FO
  36   36 2077 4458 FO
  36   36 2113 4460 FO
  36   36 2148 4475 FO
  36   36 2184 4476 FO
  36   36 2220 4478 FO
  36   36 2255 4487 FO
  36   36 2291 4490 FO
  36   36 2327 4493 FO
  36   36 2362 4491 FO
  36   36 2398 4495 FO
  36   36 2434 4499 FO
  36   36 2470 4498 FO
  36   36 2505 4499 FO
  36   36 2541 4499 FO
  36   36 2577 4507 FO
  36   36 2612 4497 FO
  36   36 2648 4499 FO
  36   36 2684 4502 FO
  36   36 2720 4506 FO
  36   36 2755 4499 FO
  36   36 2791 4500 FO
  36   36 2827 4515 FO
  36   36 2862 4522 FO
  36   36 2898 4523 FO
  36   36 2934 4517 FO
  36   36 2969 4515 FO
  36   36 3005 4514 FO
  36   36 3041 4519 FO
  36   36 3077 4527 FO
  36   36 3112 4530 FO
  36   36 3148 4536 FO
  36   36 3184 4528 FO
  36   36 3219 4525 FO
  36   36 3255 4523 FO
  36   36 3291 4520 FO
  36   36 3327 4524 FO
  36   36 3362 4527 FO
  36   36 3398 4534 FO
  36   36 3434 4521 FO
  36   36 3469 4531 FO
  36   36 3505 4537 FO
  36   36 3541 4538 FO
  36   36 3577 4529 FO
  36   36 3612 4527 FO
  36   36 3648 4531 FO
  36   36 3684 4525 FO
  36   36 3719 4522 FO
  36   36 3755 4527 FO
  36   36 3791 4534 FO
  36   36 3826 4535 FO
  36   36 3862 4535 FO
  36   36 3898 4534 FO
  36   36 3934 4537 FO
  36   36 3969 4534 FO
  36   36 4005 4532 FO
  36   36 4041 4530 FO
  36   36 4076 4530 FO
  36   36 4112 4538 FO
  36   36 4148 4537 FO
  36   36 4184 4545 FO
  36   36 4219 4543 FO
  36   36 4255 4537 FO
  36   36 4291 4533 FO
  36   36 4326 4531 FO
  36   36 4362 4534 FO
  36   36 4398 4547 FO
  36   36 4433 4546 FO
  36   36 4469 4546 FO
  36   36 4505 4536 FO
  36   36 4541 4537 FO
  36   36 4576 4524 FO
  36   36 4612 4518 FO
  36   36 4648 4515 FO
  36   36 4683 4512 FO
  36   36 4719 4512 FO
  36   36 4755 4512 FO
  36   36 4791 4513 FO
  36   36 4826 4514 FO
  36   36 4862 4515 FO
  36   36 4898 4514 FO
  36   36 4933 4508 FO
  36   36 4969 4522 FO
  36   36 5005 4524 FO
  36   36 5040 4528 FO
  36   36 5076 4539 FO
  36   36 5112 4533 FO
  36   36 5148 4532 FO
  36   36 5183 4538 FO
  36   36 5219 4544 FO
  36   36 5255 4543 FO
  36   36 5290 4540 FO
  36   36 5326 4546 FO
  36   36 5362 4547 FO
  36   36 5398 4547 FO
  36   36 5433 4544 FO
  36   36 5469 4542 FO
  36   36 5505 4546 FO
  36   36 5540 4551 FO
  36   36 5576 4544 FO
  36   36 5612 4554 FO
  36   36 5647 4550 FO
  36   36 5683 4549 FO
  36   36 5719 4551 FO
  36   36 5755 4551 FO
  36   36 5790 4546 FO
  36   36 5826 4548 FO
  36   36 5862 4546 FO
  36   36 5897 4551 FO
  36   36 5933 4549 FO
  36   36 5969 4547 FO
  36   36 6005 4549 FO
  36   36 6040 4552 FO
  36   36 6076 4551 FO
  36   36 6112 4550 FO
  36   36 6147 4557 FO
  36   36 6183 4551 FO
  36   36 6219 4549 FO
  36   36 6255 4553 FO
gs 899 469 5357 4147 rc
/c9 { 0.000000 0.500000 0.000000 sr} bdef
c9
19 0 899 492 2 MP stroke
899 469 PD
55 0 899 469 2 MP stroke
55 0 899 469 2 MP stroke
0 31 934 469 2 MP stroke
91 0 899 500 2 MP stroke
0 36 970 469 2 MP stroke
110 0 915 505 2 MP stroke
0 48 1006 469 2 MP stroke
111 0 950 517 2 MP stroke
0 55 1041 469 2 MP stroke
111 0 986 524 2 MP stroke
0 61 1077 469 2 MP stroke
110 0 1022 530 2 MP stroke
0 80 1113 469 2 MP stroke
111 0 1057 549 2 MP stroke
0 84 1148 469 2 MP stroke
111 0 1093 553 2 MP stroke
0 93 1184 469 2 MP stroke
110 0 1129 562 2 MP stroke
0 85 1220 469 2 MP stroke
110 0 1165 554 2 MP stroke
0 100 1256 469 2 MP stroke
111 0 1200 569 2 MP stroke
0 100 1291 469 2 MP stroke
111 0 1236 569 2 MP stroke
0 106 1327 469 2 MP stroke
110 0 1272 575 2 MP stroke
0 113 1363 469 2 MP stroke
111 0 1307 582 2 MP stroke
0 153 1398 469 2 MP stroke
111 0 1343 622 2 MP stroke
0 161 1434 469 2 MP stroke
110 0 1379 630 2 MP stroke
0 168 1470 469 2 MP stroke
111 0 1414 637 2 MP stroke
0 184 1506 469 2 MP stroke
111 0 1450 653 2 MP stroke
0 196 1541 469 2 MP stroke
111 0 1486 665 2 MP stroke
0 201 1577 469 2 MP stroke
110 0 1522 670 2 MP stroke
0 210 1613 469 2 MP stroke
111 0 1557 679 2 MP stroke
0 228 1648 469 2 MP stroke
111 0 1593 697 2 MP stroke
0 239 1684 469 2 MP stroke
110 0 1629 708 2 MP stroke
0 249 1720 469 2 MP stroke
111 0 1664 718 2 MP stroke
0 259 1755 469 2 MP stroke
111 0 1700 728 2 MP stroke
0 266 1791 469 2 MP stroke
111 0 1736 735 2 MP stroke
0 280 1827 469 2 MP stroke
110 0 1772 749 2 MP stroke
0 293 1863 469 2 MP stroke
111 0 1807 762 2 MP stroke
0 304 1898 469 2 MP stroke
111 0 1843 773 2 MP stroke
0 317 1934 469 2 MP stroke
110 0 1879 786 2 MP stroke
0 347 1970 469 2 MP stroke
111 0 1914 816 2 MP stroke
0 354 2005 472 2 MP stroke
111 0 1950 472 2 MP stroke
111 0 1950 826 2 MP stroke
0 366 2041 479 2 MP stroke
110 0 1986 479 2 MP stroke
110 0 1986 845 2 MP stroke
0 368 2077 488 2 MP stroke
111 0 2021 488 2 MP stroke
111 0 2021 856 2 MP stroke
0 377 2113 503 2 MP stroke
111 0 2057 503 2 MP stroke
111 0 2057 880 2 MP stroke
0 369 2148 518 2 MP stroke
111 0 2093 518 2 MP stroke
111 0 2093 887 2 MP stroke
0 355 2184 536 2 MP stroke
110 0 2129 536 2 MP stroke
110 0 2129 891 2 MP stroke
0 345 2220 554 2 MP stroke
111 0 2164 554 2 MP stroke
111 0 2164 899 2 MP stroke
0 332 2255 568 2 MP stroke
111 0 2200 568 2 MP stroke
111 0 2200 900 2 MP stroke
0 328 2291 585 2 MP stroke
110 0 2236 585 2 MP stroke
110 0 2236 913 2 MP stroke
0 337 2327 591 2 MP stroke
111 0 2271 591 2 MP stroke
111 0 2271 928 2 MP stroke
0 352 2362 602 2 MP stroke
111 0 2307 602 2 MP stroke
111 0 2307 954 2 MP stroke
0 350 2398 609 2 MP stroke
111 0 2343 609 2 MP stroke
111 0 2343 959 2 MP stroke
0 347 2434 621 2 MP stroke
110 0 2379 621 2 MP stroke
110 0 2379 968 2 MP stroke
0 334 2470 644 2 MP stroke
111 0 2414 644 2 MP stroke
111 0 2414 978 2 MP stroke
0 323 2505 660 2 MP stroke
111 0 2450 660 2 MP stroke
111 0 2450 983 2 MP stroke
0 324 2541 667 2 MP stroke
110 0 2486 667 2 MP stroke
110 0 2486 991 2 MP stroke
0 333 2577 672 2 MP stroke
111 0 2521 672 2 MP stroke
111 0 2521 1005 2 MP stroke
0 339 2612 685 2 MP stroke
111 0 2557 685 2 MP stroke
111 0 2557 1024 2 MP stroke
0 331 2648 702 2 MP stroke
110 0 2593 702 2 MP stroke
110 0 2593 1033 2 MP stroke
0 342 2684 704 2 MP stroke
111 0 2628 704 2 MP stroke
111 0 2628 1046 2 MP stroke
0 352 2720 711 2 MP stroke
111 0 2664 711 2 MP stroke
111 0 2664 1063 2 MP stroke
0 362 2755 723 2 MP stroke
111 0 2700 723 2 MP stroke
111 0 2700 1085 2 MP stroke
0 356 2791 724 2 MP stroke
110 0 2736 724 2 MP stroke
110 0 2736 1080 2 MP stroke
0 377 2827 718 2 MP stroke
111 0 2771 718 2 MP stroke
111 0 2771 1095 2 MP stroke
0 367 2862 725 2 MP stroke
111 0 2807 725 2 MP stroke
111 0 2807 1092 2 MP stroke
0 386 2898 722 2 MP stroke
110 0 2843 722 2 MP stroke
110 0 2843 1108 2 MP stroke
0 405 2934 727 2 MP stroke
111 0 2878 727 2 MP stroke
111 0 2878 1132 2 MP stroke
0 401 2969 740 2 MP stroke
111 0 2914 740 2 MP stroke
111 0 2914 1141 2 MP stroke
0 379 3005 764 2 MP stroke
111 0 2950 764 2 MP stroke
111 0 2950 1143 2 MP stroke
0 385 3041 766 2 MP stroke
110 0 2986 766 2 MP stroke
110 0 2986 1151 2 MP stroke
0 388 3077 770 2 MP stroke
111 0 3021 770 2 MP stroke
111 0 3021 1158 2 MP stroke
0 385 3112 777 2 MP stroke
111 0 3057 777 2 MP stroke
111 0 3057 1162 2 MP stroke
0 383 3148 785 2 MP stroke
110 0 3093 785 2 MP stroke
110 0 3093 1168 2 MP stroke
0 391 3184 794 2 MP stroke
111 0 3128 794 2 MP stroke
111 0 3128 1185 2 MP stroke
0 392 3219 802 2 MP stroke
111 0 3164 802 2 MP stroke
111 0 3164 1194 2 MP stroke
0 398 3255 816 2 MP stroke
110 0 3200 816 2 MP stroke
110 0 3200 1214 2 MP stroke
0 408 3291 822 2 MP stroke
110 0 3236 822 2 MP stroke
110 0 3236 1230 2 MP stroke
0 409 3327 827 2 MP stroke
111 0 3271 827 2 MP stroke
111 0 3271 1236 2 MP stroke
0 406 3362 834 2 MP stroke
111 0 3307 834 2 MP stroke
111 0 3307 1240 2 MP stroke
0 409 3398 840 2 MP stroke
110 0 3343 840 2 MP stroke
110 0 3343 1249 2 MP stroke
0 416 3434 860 2 MP stroke
111 0 3378 860 2 MP stroke
111 0 3378 1276 2 MP stroke
0 431 3469 863 2 MP stroke
111 0 3414 863 2 MP stroke
111 0 3414 1294 2 MP stroke
0 403 3505 881 2 MP stroke
110 0 3450 881 2 MP stroke
110 0 3450 1284 2 MP stroke
0 399 3541 895 2 MP stroke
111 0 3485 895 2 MP stroke
111 0 3485 1294 2 MP stroke
0 398 3577 908 2 MP stroke
111 0 3521 908 2 MP stroke
111 0 3521 1306 2 MP stroke
0 410 3612 911 2 MP stroke
111 0 3557 911 2 MP stroke
111 0 3557 1321 2 MP stroke
0 420 3648 913 2 MP stroke
110 0 3593 913 2 MP stroke
110 0 3593 1333 2 MP stroke
0 426 3684 922 2 MP stroke
111 0 3628 922 2 MP stroke
111 0 3628 1348 2 MP stroke
0 420 3719 933 2 MP stroke
111 0 3664 933 2 MP stroke
111 0 3664 1353 2 MP stroke
0 422 3755 934 2 MP stroke
110 0 3700 934 2 MP stroke
110 0 3700 1356 2 MP stroke
0 436 3791 933 2 MP stroke
111 0 3735 933 2 MP stroke
111 0 3735 1369 2 MP stroke
0 453 3826 930 2 MP stroke
111 0 3771 930 2 MP stroke
111 0 3771 1383 2 MP stroke
0 445 3862 946 2 MP stroke
110 0 3807 946 2 MP stroke
110 0 3807 1391 2 MP stroke
0 441 3898 957 2 MP stroke
110 0 3843 957 2 MP stroke
110 0 3843 1398 2 MP stroke
0 444 3934 965 2 MP stroke
111 0 3878 965 2 MP stroke
111 0 3878 1409 2 MP stroke
0 447 3969 973 2 MP stroke
111 0 3914 973 2 MP stroke
111 0 3914 1420 2 MP stroke
0 473 4005 967 2 MP stroke
110 0 3950 967 2 MP stroke
110 0 3950 1440 2 MP stroke
0 488 4041 971 2 MP stroke
111 0 3985 971 2 MP stroke
111 0 3985 1459 2 MP stroke
0 495 4076 976 2 MP stroke
111 0 4021 976 2 MP stroke
111 0 4021 1471 2 MP stroke
0 493 4112 981 2 MP stroke
110 0 4057 981 2 MP stroke
110 0 4057 1474 2 MP stroke
0 481 4148 1002 2 MP stroke
111 0 4092 1002 2 MP stroke
111 0 4092 1483 2 MP stroke
0 476 4184 1012 2 MP stroke
111 0 4128 1012 2 MP stroke
111 0 4128 1488 2 MP stroke
0 486 4219 1014 2 MP stroke
111 0 4164 1014 2 MP stroke
111 0 4164 1500 2 MP stroke
0 490 4255 1023 2 MP stroke
110 0 4200 1023 2 MP stroke
110 0 4200 1513 2 MP stroke
0 502 4291 1030 2 MP stroke
111 0 4235 1030 2 MP stroke
111 0 4235 1532 2 MP stroke
0 496 4326 1043 2 MP stroke
111 0 4271 1043 2 MP stroke
111 0 4271 1539 2 MP stroke
0 497 4362 1049 2 MP stroke
110 0 4307 1049 2 MP stroke
110 0 4307 1546 2 MP stroke
0 497 4398 1049 2 MP stroke
111 0 4342 1049 2 MP stroke
111 0 4342 1546 2 MP stroke
0 490 4433 1063 2 MP stroke
111 0 4378 1063 2 MP stroke
111 0 4378 1553 2 MP stroke
0 489 4469 1073 2 MP stroke
111 0 4414 1073 2 MP stroke
111 0 4414 1562 2 MP stroke
0 467 4505 1099 2 MP stroke
110 0 4450 1099 2 MP stroke
110 0 4450 1566 2 MP stroke
0 470 4541 1105 2 MP stroke
111 0 4485 1105 2 MP stroke
111 0 4485 1575 2 MP stroke
0 462 4576 1124 2 MP stroke
111 0 4521 1124 2 MP stroke
111 0 4521 1586 2 MP stroke
0 476 4612 1127 2 MP stroke
110 0 4557 1127 2 MP stroke
110 0 4557 1603 2 MP stroke
0 475 4648 1138 2 MP stroke
111 0 4592 1138 2 MP stroke
111 0 4592 1613 2 MP stroke
0 480 4683 1146 2 MP stroke
111 0 4628 1146 2 MP stroke
111 0 4628 1626 2 MP stroke
0 495 4719 1148 2 MP stroke
110 0 4664 1148 2 MP stroke
110 0 4664 1643 2 MP stroke
0 509 4755 1150 2 MP stroke
111 0 4699 1150 2 MP stroke
111 0 4699 1659 2 MP stroke
0 522 4791 1154 2 MP stroke
111 0 4735 1154 2 MP stroke
111 0 4735 1676 2 MP stroke
0 530 4826 1157 2 MP stroke
111 0 4771 1157 2 MP stroke
111 0 4771 1687 2 MP stroke
0 523 4862 1168 2 MP stroke
110 0 4807 1168 2 MP stroke
110 0 4807 1691 2 MP stroke
0 520 4898 1180 2 MP stroke
111 0 4842 1180 2 MP stroke
111 0 4842 1700 2 MP stroke
0 530 4933 1186 2 MP stroke
111 0 4878 1186 2 MP stroke
111 0 4878 1716 2 MP stroke
0 532 4969 1182 2 MP stroke
110 0 4914 1182 2 MP stroke
110 0 4914 1714 2 MP stroke
0 525 5005 1195 2 MP stroke
111 0 4949 1195 2 MP stroke
111 0 4949 1720 2 MP stroke
0 531 5040 1194 2 MP stroke
111 0 4985 1194 2 MP stroke
111 0 4985 1725 2 MP stroke
0 536 5076 1195 2 MP stroke
111 0 5021 1195 2 MP stroke
111 0 5021 1731 2 MP stroke
0 520 5112 1213 2 MP stroke
110 0 5057 1213 2 MP stroke
110 0 5057 1733 2 MP stroke
0 529 5148 1221 2 MP stroke
111 0 5092 1221 2 MP stroke
111 0 5092 1750 2 MP stroke
0 521 5183 1231 2 MP stroke
111 0 5128 1231 2 MP stroke
111 0 5128 1752 2 MP stroke
0 526 5219 1231 2 MP stroke
110 0 5164 1231 2 MP stroke
110 0 5164 1757 2 MP stroke
0 526 5255 1238 2 MP stroke
111 0 5199 1238 2 MP stroke
111 0 5199 1764 2 MP stroke
0 526 5290 1242 2 MP stroke
111 0 5235 1242 2 MP stroke
111 0 5235 1768 2 MP stroke
0 531 5326 1243 2 MP stroke
110 0 5271 1243 2 MP stroke
110 0 5271 1774 2 MP stroke
0 552 5362 1242 2 MP stroke
111 0 5306 1242 2 MP stroke
111 0 5306 1794 2 MP stroke
0 555 5398 1246 2 MP stroke
111 0 5342 1246 2 MP stroke
111 0 5342 1801 2 MP stroke
0 565 5433 1250 2 MP stroke
111 0 5378 1250 2 MP stroke
111 0 5378 1815 2 MP stroke
0 553 5469 1263 2 MP stroke
110 0 5414 1263 2 MP stroke
110 0 5414 1816 2 MP stroke
0 567 5505 1262 2 MP stroke
111 0 5449 1262 2 MP stroke
111 0 5449 1829 2 MP stroke
0 563 5540 1273 2 MP stroke
111 0 5485 1273 2 MP stroke
111 0 5485 1836 2 MP stroke
0 565 5576 1281 2 MP stroke
110 0 5521 1281 2 MP stroke
110 0 5521 1846 2 MP stroke
0 558 5612 1283 2 MP stroke
111 0 5556 1283 2 MP stroke
111 0 5556 1841 2 MP stroke
0 552 5647 1295 2 MP stroke
111 0 5592 1295 2 MP stroke
111 0 5592 1847 2 MP stroke
0 566 5683 1297 2 MP stroke
111 0 5628 1297 2 MP stroke
111 0 5628 1863 2 MP stroke
0 564 5719 1296 2 MP stroke
110 0 5664 1296 2 MP stroke
110 0 5664 1860 2 MP stroke
0 552 5755 1311 2 MP stroke
111 0 5699 1311 2 MP stroke
111 0 5699 1863 2 MP stroke
0 548 5790 1325 2 MP stroke
111 0 5735 1325 2 MP stroke
111 0 5735 1873 2 MP stroke
0 539 5826 1333 2 MP stroke
110 0 5771 1333 2 MP stroke
110 0 5771 1872 2 MP stroke
0 543 5862 1339 2 MP stroke
111 0 5806 1339 2 MP stroke
111 0 5806 1882 2 MP stroke
0 540 5897 1351 2 MP stroke
111 0 5842 1351 2 MP stroke
111 0 5842 1891 2 MP stroke
0 550 5933 1357 2 MP stroke
110 0 5878 1357 2 MP stroke
110 0 5878 1907 2 MP stroke
0 550 5969 1365 2 MP stroke
110 0 5914 1365 2 MP stroke
110 0 5914 1915 2 MP stroke
0 539 6005 1375 2 MP stroke
111 0 5949 1375 2 MP stroke
111 0 5949 1914 2 MP stroke
0 545 6040 1382 2 MP stroke
111 0 5985 1382 2 MP stroke
111 0 5985 1927 2 MP stroke
0 560 6076 1384 2 MP stroke
110 0 6021 1384 2 MP stroke
110 0 6021 1944 2 MP stroke
0 555 6112 1393 2 MP stroke
111 0 6056 1393 2 MP stroke
111 0 6056 1948 2 MP stroke
0 548 6147 1399 2 MP stroke
111 0 6092 1399 2 MP stroke
111 0 6092 1947 2 MP stroke
0 565 6183 1400 2 MP stroke
110 0 6128 1400 2 MP stroke
110 0 6128 1965 2 MP stroke
0 569 6219 1409 2 MP stroke
93 0 6163 1409 2 MP stroke
93 0 6163 1978 2 MP stroke
0 567 6255 1409 2 MP stroke
57 0 6199 1409 2 MP stroke
57 0 6199 1976 2 MP stroke
899 469 PD
gr

c9
gs 899 469 5357 4147 rc
36 -1 36 11 36 10 35 2 36 7 36 10 35 9 36 5 
36 8 36 11 35 11 36 7 36 4 35 12 36 9 36 -2 
36 9 35 9 36 -1 36 8 35 9 36 7 36 6 35 10 
36 5 36 9 36 4 35 4 36 7 36 2 35 7 36 12 
36 10 36 3 35 2 36 10 36 -3 35 11 36 11 36 7 
35 7 36 10 36 10 36 9 35 10 36 11 36 10 35 15 
36 7 36 15 36 10 35 10 36 0 36 7 35 10 36 13 
36 11 35 7 36 7 36 16 36 3 35 9 36 11 36 7 
35 10 36 10 36 8 36 12 35 6 36 6 36 2 35 8 
36 12 36 7 35 9 36 12 36 13 36 3 35 11 36 24 
36 7 35 5 36 6 36 11 36 17 35 9 36 12 36 8 
35 5 36 5 36 6 36 13 35 11 36 14 36 7 35 1 
36 5 36 -2 35 17 36 12 36 7 36 13 35 17 36 9 
36 7 35 11 36 16 36 11 36 6 35 19 36 10 36 15 
35 8 36 12 36 11 35 11 36 20 36 10 36 13 35 10 
36 13 36 7 35 8 36 6 36 12 36 5 35 4 36 14 
36 9 35 11 36 4 36 9 35 11 36 17 36 9 36 5 
35 23 36 2 20 1 1307 469 140 MP stroke
gr

  36   36 1327  470 FO
  36   36 1363  472 FO
  36   36 1398  495 FO
  36   36 1434  500 FO
  36   36 1470  509 FO
  36   36 1506  526 FO
  36   36 1541  537 FO
  36   36 1577  546 FO
  36   36 1613  550 FO
  36   36 1648  561 FO
  36   36 1684  570 FO
  36   36 1720  584 FO
  36   36 1755  588 FO
  36   36 1791  593 FO
  36   36 1827  605 FO
  36   36 1863  611 FO
  36   36 1898  619 FO
  36   36 1934  626 FO
  36   36 1970  639 FO
  36   36 2005  649 FO
  36   36 2041  662 FO
  36   36 2077  672 FO
  36   36 2113  692 FO
  36   36 2148  703 FO
  36   36 2184  714 FO
  36   36 2220  726 FO
  36   36 2255  734 FO
  36   36 2291  749 FO
  36   36 2327  759 FO
  36   36 2362  778 FO
  36   36 2398  784 FO
  36   36 2434  795 FO
  36   36 2470  811 FO
  36   36 2505  822 FO
  36   36 2541  829 FO
  36   36 2577  838 FO
  36   36 2612  855 FO
  36   36 2648  868 FO
  36   36 2684  875 FO
  36   36 2720  887 FO
  36   36 2755  904 FO
  36   36 2791  902 FO
  36   36 2827  907 FO
  36   36 2862  908 FO
  36   36 2898  915 FO
  36   36 2934  929 FO
  36   36 2969  940 FO
  36   36 3005  953 FO
  36   36 3041  959 FO
  36   36 3077  964 FO
  36   36 3112  969 FO
  36   36 3148  977 FO
  36   36 3184  989 FO
  36   36 3219  998 FO
  36   36 3255 1015 FO
  36   36 3291 1026 FO
  36   36 3327 1032 FO
  36   36 3362 1037 FO
  36   36 3398 1044 FO
  36   36 3434 1068 FO
  36   36 3469 1079 FO
  36   36 3505 1082 FO
  36   36 3541 1095 FO
  36   36 3577 1107 FO
  36   36 3612 1116 FO
  36   36 3648 1123 FO
  36   36 3684 1135 FO
  36   36 3719 1143 FO
  36   36 3755 1145 FO
  36   36 3791 1151 FO
  36   36 3826 1157 FO
  36   36 3862 1169 FO
  36   36 3898 1177 FO
  36   36 3934 1187 FO
  36   36 3969 1197 FO
  36   36 4005 1204 FO
  36   36 4041 1215 FO
  36   36 4076 1224 FO
  36   36 4112 1227 FO
  36   36 4148 1243 FO
  36   36 4184 1250 FO
  36   36 4219 1257 FO
  36   36 4255 1268 FO
  36   36 4291 1281 FO
  36   36 4326 1291 FO
  36   36 4362 1298 FO
  36   36 4398 1298 FO
  36   36 4433 1308 FO
  36   36 4469 1318 FO
  36   36 4505 1333 FO
  36   36 4541 1340 FO
  36   36 4576 1355 FO
  36   36 4612 1365 FO
  36   36 4648 1376 FO
  36   36 4683 1386 FO
  36   36 4719 1395 FO
  36   36 4755 1405 FO
  36   36 4791 1415 FO
  36   36 4826 1422 FO
  36   36 4862 1429 FO
  36   36 4898 1440 FO
  36   36 4933 1451 FO
  36   36 4969 1448 FO
  36   36 5005 1458 FO
  36   36 5040 1460 FO
  36   36 5076 1463 FO
  36   36 5112 1473 FO
  36   36 5148 1485 FO
  36   36 5183 1492 FO
  36   36 5219 1494 FO
  36   36 5255 1501 FO
  36   36 5290 1505 FO
  36   36 5326 1509 FO
  36   36 5362 1518 FO
  36   36 5398 1523 FO
  36   36 5433 1533 FO
  36   36 5469 1539 FO
  36   36 5505 1546 FO
  36   36 5540 1555 FO
  36   36 5576 1563 FO
  36   36 5612 1562 FO
  36   36 5647 1571 FO
  36   36 5683 1580 FO
  36   36 5719 1578 FO
  36   36 5755 1587 FO
  36   36 5790 1599 FO
  36   36 5826 1603 FO
  36   36 5862 1610 FO
  36   36 5897 1621 FO
  36   36 5933 1632 FO
  36   36 5969 1640 FO
  36   36 6005 1645 FO
  36   36 6040 1654 FO
  36   36 6076 1664 FO
  36   36 6112 1671 FO
  36   36 6147 1673 FO
  36   36 6183 1683 FO
  36   36 6219 1694 FO
  36   36 6255 1693 FO
gs 899 469 5357 4147 rc
gr

0 sg
%%IncludeResource: font Helvetica
/Helvetica /ISOLatin1Encoding 168 FMSR

2435  156 mt 
(Nup49-GFP in Late Anaphase) s
%%IncludeResource: font Helvetica
/Helvetica /ISOLatin1Encoding 144 FMSR

1829  293 mt 
(n) s
%%IncludeResource: font Helvetica
/Helvetica /ISOLatin1Encoding 108 FMSR

1909  377 mt 
(cells) s
%%IncludeResource: font Helvetica
/Helvetica /ISOLatin1Encoding 144 FMSR

2125  293 mt 
( = 34    -    d) s
%%IncludeResource: font Helvetica
/Helvetica /ISOLatin1Encoding 108 FMSR

2933  377 mt 
(b) s
%%IncludeResource: font Helvetica
/Helvetica /ISOLatin1Encoding 144 FMSR

2993  293 mt 
( = 0.0566   -   One ring 100nm width) s
3314 4921 mt 
(Time \(s\)) s
 577 3058 mt  -90 rotate
(% Fluorescence) s
90 rotate
%%IncludeResource: font Helvetica
/Helvetica /ISOLatin1Encoding 120 FMSR

 882 4658 mt 
( ) s
6239  511 mt 
( ) s
5656  664 mt 
(mother) s
gs 5217 529 980 335 rc
c8
338 0 5284 621 2 MP stroke
gs 5380 548 147 147 rc
  36   36 5453  621 FO
gr

gr

c8
0 sg
5656  813 mt 
(daughter) s
gs 5217 529 980 335 rc
c9
338 0 5284 770 2 MP stroke
gs 5380 697 147 147 rc
  36   36 5453  770 FO
gr

gr

c9

end %%Color Dict

eplot
%%EndObject

epage
end

showpage

%%Trailer
%%EOF
