%!PS-Adobe-3.0 EPSF-3.0
%%Creator: MATLAB, The MathWorks, Inc. Version 8.1.0.604 (R2013a). Operating System: Darwin 11.4.2 Darwin Kernel Version 11.4.2: Thu Aug 23 16:25:48 PDT 2012; root:xnu-1699.32.7~1/RELEASE_X86_64 x86_64.
%%Title: ./LA_Nup49-sphinbarr-ONM-MRs_300nm.eps
%%CreationDate: 10/08/2013  10:52:11
%%DocumentNeededFonts: Helvetica
%%DocumentProcessColors: Cyan Magenta Yellow Black
%%LanguageLevel: 2
%%Pages: 1
%%BoundingBox:    52   197   551   616
%%EndComments

%%BeginProlog
% MathWorks dictionary
/MathWorks 160 dict begin
% definition operators
/bdef {bind def} bind def
/ldef {load def} bind def
/xdef {exch def} bdef
/xstore {exch store} bdef
% operator abbreviations
/c  /clip ldef
/cc /concat ldef
/cp /closepath ldef
/gr /grestore ldef
/gs /gsave ldef
/mt /moveto ldef
/np /newpath ldef
/cm /currentmatrix ldef
/sm /setmatrix ldef
/rm /rmoveto ldef
/rl /rlineto ldef
/s {show newpath} bdef
/sc {setcmykcolor} bdef
/sr /setrgbcolor ldef
/sg /setgray ldef
/w /setlinewidth ldef
/j /setlinejoin ldef
/cap /setlinecap ldef
/rc {rectclip} bdef
/rf {rectfill} bdef
% page state control
/pgsv () def
/bpage {/pgsv save def} bdef
/epage {pgsv restore} bdef
/bplot /gsave ldef
/eplot {stroke grestore} bdef
% orientation switch
/portraitMode 0 def /landscapeMode 1 def /rotateMode 2 def
% coordinate system mappings
/dpi2point 0 def
% font control
/FontSize 0 def
/FMS {/FontSize xstore findfont [FontSize 0 0 FontSize neg 0 0]
  makefont setfont} bdef
/reencode {exch dup where {pop load} {pop StandardEncoding} ifelse
  exch dup 3 1 roll findfont dup length dict begin
  { 1 index /FID ne {def}{pop pop} ifelse } forall
  /Encoding exch def currentdict end definefont pop} bdef
/isroman {findfont /CharStrings get /Agrave known} bdef
/FMSR {3 1 roll 1 index dup isroman {reencode} {pop pop} ifelse
  exch FMS} bdef
/csm {1 dpi2point div -1 dpi2point div scale neg translate
 dup landscapeMode eq {pop -90 rotate}
  {rotateMode eq {90 rotate} if} ifelse} bdef
% line types: solid, dotted, dashed, dotdash
/SO { [] 0 setdash } bdef
/DO { [.5 dpi2point mul 4 dpi2point mul] 0 setdash } bdef
/DA { [6 dpi2point mul] 0 setdash } bdef
/DD { [.5 dpi2point mul 4 dpi2point mul 6 dpi2point mul 4
  dpi2point mul] 0 setdash } bdef
% macros for lines and objects
/L {lineto stroke} bdef
/MP {3 1 roll moveto 1 sub {rlineto} repeat} bdef
/AP {{rlineto} repeat} bdef
/PDlw -1 def
/W {/PDlw currentlinewidth def setlinewidth} def
/PP {closepath eofill} bdef
/DP {closepath stroke} bdef
/MR {4 -2 roll moveto dup  0 exch rlineto exch 0 rlineto
  neg 0 exch rlineto closepath} bdef
/FR {MR stroke} bdef
/PR {MR fill} bdef
/L1i {{currentfile picstr readhexstring pop} image} bdef
/tMatrix matrix def
/MakeOval {newpath tMatrix currentmatrix pop translate scale
0 0 1 0 360 arc tMatrix setmatrix} bdef
/FO {MakeOval stroke} bdef
/PO {MakeOval fill} bdef
/PD {currentlinewidth 2 div 0 360 arc fill
   PDlw -1 eq not {PDlw w /PDlw -1 def} if} def
/FA {newpath tMatrix currentmatrix pop translate scale
  0 0 1 5 -2 roll arc tMatrix setmatrix stroke} bdef
/PA {newpath tMatrix currentmatrix pop	translate 0 0 moveto scale
  0 0 1 5 -2 roll arc closepath tMatrix setmatrix fill} bdef
/FAn {newpath tMatrix currentmatrix pop translate scale
  0 0 1 5 -2 roll arcn tMatrix setmatrix stroke} bdef
/PAn {newpath tMatrix currentmatrix pop translate 0 0 moveto scale
  0 0 1 5 -2 roll arcn closepath tMatrix setmatrix fill} bdef
/vradius 0 def /hradius 0 def /lry 0 def
/lrx 0 def /uly 0 def /ulx 0 def /rad 0 def
/MRR {/vradius xdef /hradius xdef /lry xdef /lrx xdef /uly xdef
  /ulx xdef newpath tMatrix currentmatrix pop ulx hradius add uly
  vradius add translate hradius vradius scale 0 0 1 180 270 arc 
  tMatrix setmatrix lrx hradius sub uly vradius add translate
  hradius vradius scale 0 0 1 270 360 arc tMatrix setmatrix
  lrx hradius sub lry vradius sub translate hradius vradius scale
  0 0 1 0 90 arc tMatrix setmatrix ulx hradius add lry vradius sub
  translate hradius vradius scale 0 0 1 90 180 arc tMatrix setmatrix
  closepath} bdef
/FRR {MRR stroke } bdef
/PRR {MRR fill } bdef
/MlrRR {/lry xdef /lrx xdef /uly xdef /ulx xdef /rad lry uly sub 2 div def
  newpath tMatrix currentmatrix pop ulx rad add uly rad add translate
  rad rad scale 0 0 1 90 270 arc tMatrix setmatrix lrx rad sub lry rad
  sub translate rad rad scale 0 0 1 270 90 arc tMatrix setmatrix
  closepath} bdef
/FlrRR {MlrRR stroke } bdef
/PlrRR {MlrRR fill } bdef
/MtbRR {/lry xdef /lrx xdef /uly xdef /ulx xdef /rad lrx ulx sub 2 div def
  newpath tMatrix currentmatrix pop ulx rad add uly rad add translate
  rad rad scale 0 0 1 180 360 arc tMatrix setmatrix lrx rad sub lry rad
  sub translate rad rad scale 0 0 1 0 180 arc tMatrix setmatrix
  closepath} bdef
/FtbRR {MtbRR stroke } bdef
/PtbRR {MtbRR fill } bdef
/stri 6 array def /dtri 6 array def
/smat 6 array def /dmat 6 array def
/tmat1 6 array def /tmat2 6 array def /dif 3 array def
/asub {/ind2 exch def /ind1 exch def dup dup
  ind1 get exch ind2 get sub exch } bdef
/tri_to_matrix {
  2 0 asub 3 1 asub 4 0 asub 5 1 asub
  dup 0 get exch 1 get 7 -1 roll astore } bdef
/compute_transform {
  dmat dtri tri_to_matrix tmat1 invertmatrix 
  smat stri tri_to_matrix tmat2 concatmatrix } bdef
/ds {stri astore pop} bdef
/dt {dtri astore pop} bdef
/db {2 copy /cols xdef /rows xdef mul dup 3 mul string
  currentfile 
  3 index 0 eq {/ASCIIHexDecode filter}
  {/ASCII85Decode filter 3 index 2 eq {/RunLengthDecode filter} if }
  ifelse exch readstring pop
  dup 0 3 index getinterval /rbmap xdef
  dup 2 index dup getinterval /gbmap xdef
  1 index dup 2 mul exch getinterval /bbmap xdef pop pop}bdef
/it {gs np dtri aload pop moveto lineto lineto cp c
  cols rows 8 compute_transform 
  rbmap gbmap bbmap true 3 colorimage gr}bdef
/il {newpath moveto lineto stroke}bdef
currentdict end def
%%EndProlog

%%BeginSetup
MathWorks begin

0 cap

end
%%EndSetup

%%Page: 1 1
%%BeginPageSetup
%%PageBoundingBox:    52   197   551   616
MathWorks begin
bpage
%%EndPageSetup

%%BeginObject: obj1
bplot

/dpi2point 12 def
portraitMode 0216 7344 csm

  418   -48  5986  5026 rc
85 dict begin %Colortable dictionary
/c0 { 0.000000 0.000000 0.000000 sr} bdef
/c1 { 1.000000 1.000000 1.000000 sr} bdef
/c2 { 0.900000 0.000000 0.000000 sr} bdef
/c3 { 0.000000 0.820000 0.000000 sr} bdef
/c4 { 0.000000 0.000000 0.800000 sr} bdef
/c5 { 0.910000 0.820000 0.320000 sr} bdef
/c6 { 1.000000 0.260000 0.820000 sr} bdef
/c7 { 0.000000 0.820000 0.820000 sr} bdef
c0
1 j
1 sg
   0    0 6913 5186 rf
6 w
0 4146 5356 0 0 -4146 899 4615 4 MP
PP
-5356 0 0 4146 5356 0 0 -4146 899 4615 5 MP stroke
4 w
DO
SO
6 w
0 sg
 899 4615 mt 6255 4615 L
 899  469 mt 6255  469 L
 899 4615 mt  899  469 L
6255 4615 mt 6255  469 L
 899 4615 mt 6255 4615 L
 899 4615 mt  899  469 L
 899 4615 mt  899 4561 L
 899  469 mt  899  522 L
%%IncludeResource: font Helvetica
/Helvetica /ISOLatin1Encoding 120 FMSR

 866 4760 mt 
(0) s
1791 4615 mt 1791 4561 L
1791  469 mt 1791  522 L
1725 4760 mt 
(50) s
2684 4615 mt 2684 4561 L
2684  469 mt 2684  522 L
2584 4760 mt 
(100) s
3577 4615 mt 3577 4561 L
3577  469 mt 3577  522 L
3477 4760 mt 
(150) s
4469 4615 mt 4469 4561 L
4469  469 mt 4469  522 L
4369 4760 mt 
(200) s
5362 4615 mt 5362 4561 L
5362  469 mt 5362  522 L
5262 4760 mt 
(250) s
6255 4615 mt 6255 4561 L
6255  469 mt 6255  522 L
6155 4760 mt 
(300) s
 899 4615 mt  952 4615 L
6255 4615 mt 6201 4615 L
 798 4659 mt 
(0) s
 899 4200 mt  952 4200 L
6255 4200 mt 6201 4200 L
 731 4244 mt 
(10) s
 899 3785 mt  952 3785 L
6255 3785 mt 6201 3785 L
 731 3829 mt 
(20) s
 899 3371 mt  952 3371 L
6255 3371 mt 6201 3371 L
 731 3415 mt 
(30) s
 899 2956 mt  952 2956 L
6255 2956 mt 6201 2956 L
 731 3000 mt 
(40) s
 899 2542 mt  952 2542 L
6255 2542 mt 6201 2542 L
 731 2586 mt 
(50) s
 899 2127 mt  952 2127 L
6255 2127 mt 6201 2127 L
 731 2171 mt 
(60) s
 899 1712 mt  952 1712 L
6255 1712 mt 6201 1712 L
 731 1756 mt 
(70) s
 899 1298 mt  952 1298 L
6255 1298 mt 6201 1298 L
 731 1342 mt 
(80) s
 899  883 mt  952  883 L
6255  883 mt 6201  883 L
 731  927 mt 
(90) s
 899  469 mt  952  469 L
6255  469 mt 6201  469 L
 664  513 mt 
(100) s
 899 4615 mt 6255 4615 L
 899  469 mt 6255  469 L
 899 4615 mt  899  469 L
6255 4615 mt 6255  469 L
gs 899 469 5357 4147 rc
899 469 PD
64 0 899 469 2 MP stroke
64 0 899 469 2 MP stroke
0 917 968 1681 2 MP stroke
128 0 904 1681 2 MP stroke
128 0 904 2598 2 MP stroke
0 804 1037 2106 2 MP stroke
128 0 973 2106 2 MP stroke
128 0 973 2910 2 MP stroke
0 960 1105 2267 2 MP stroke
128 0 1041 2267 2 MP stroke
128 0 1041 3227 2 MP stroke
0 884 1173 2559 2 MP stroke
129 0 1108 2559 2 MP stroke
129 0 1108 3443 2 MP stroke
0 749 1241 2786 2 MP stroke
129 0 1177 2786 2 MP stroke
129 0 1177 3535 2 MP stroke
0 701 1311 2964 2 MP stroke
129 0 1246 2964 2 MP stroke
129 0 1246 3665 2 MP stroke
0 841 1379 2992 2 MP stroke
129 0 1314 2992 2 MP stroke
129 0 1314 3833 2 MP stroke
0 802 1448 3107 2 MP stroke
129 0 1383 3107 2 MP stroke
129 0 1383 3909 2 MP stroke
0 867 1517 3151 2 MP stroke
128 0 1453 3151 2 MP stroke
128 0 1453 4018 2 MP stroke
0 792 1585 3210 2 MP stroke
129 0 1521 3210 2 MP stroke
129 0 1521 4002 2 MP stroke
0 727 1653 3382 2 MP stroke
129 0 1589 3382 2 MP stroke
129 0 1589 4109 2 MP stroke
0 716 1722 3445 2 MP stroke
128 0 1658 3445 2 MP stroke
128 0 1658 4161 2 MP stroke
0 730 1791 3507 2 MP stroke
129 0 1727 3507 2 MP stroke
129 0 1727 4237 2 MP stroke
0 655 1860 3559 2 MP stroke
129 0 1795 3559 2 MP stroke
129 0 1795 4214 2 MP stroke
0 616 1928 3699 2 MP stroke
128 0 1864 3699 2 MP stroke
128 0 1864 4315 2 MP stroke
0 591 1997 3737 2 MP stroke
129 0 1932 3737 2 MP stroke
129 0 1932 4328 2 MP stroke
0 635 2066 3743 2 MP stroke
129 0 2001 3743 2 MP stroke
129 0 2001 4378 2 MP stroke
0 598 2134 3781 2 MP stroke
128 0 2070 3781 2 MP stroke
128 0 2070 4379 2 MP stroke
0 626 2202 3812 2 MP stroke
129 0 2137 3812 2 MP stroke
129 0 2137 4438 2 MP stroke
0 585 2271 3880 2 MP stroke
129 0 2206 3880 2 MP stroke
129 0 2206 4465 2 MP stroke
0 604 2340 3900 2 MP stroke
129 0 2276 3900 2 MP stroke
129 0 2276 4504 2 MP stroke
0 560 2409 3953 2 MP stroke
129 0 2345 3953 2 MP stroke
129 0 2345 4513 2 MP stroke
0 559 2477 3942 2 MP stroke
129 0 2413 3942 2 MP stroke
129 0 2413 4501 2 MP stroke
0 462 2546 4043 2 MP stroke
129 0 2482 4043 2 MP stroke
129 0 2482 4505 2 MP stroke
0 586 2614 3963 2 MP stroke
129 0 2550 3963 2 MP stroke
129 0 2550 4549 2 MP stroke
0 515 2683 4011 2 MP stroke
128 0 2619 4011 2 MP stroke
128 0 2619 4526 2 MP stroke
0 539 2751 4005 2 MP stroke
129 0 2687 4005 2 MP stroke
129 0 2687 4544 2 MP stroke
0 498 2820 4108 2 MP stroke
128 0 2756 4108 2 MP stroke
128 0 2756 4606 2 MP stroke
0 620 2889 3996 2 MP stroke
129 0 2825 3996 2 MP stroke
0 484 2959 4132 2 MP stroke
129 0 2894 4132 2 MP stroke
0 524 3026 4092 2 MP stroke
128 0 2962 4092 2 MP stroke
0 499 3095 4117 2 MP stroke
129 0 3030 4117 2 MP stroke
0 514 3164 4102 2 MP stroke
128 0 3100 4102 2 MP stroke
0 360 3232 4256 2 MP stroke
129 0 3168 4256 2 MP stroke
0 383 3301 4233 2 MP stroke
129 0 3236 4233 2 MP stroke
0 362 3369 4254 2 MP stroke
129 0 3305 4254 2 MP stroke
0 377 3439 4239 2 MP stroke
129 0 3374 4239 2 MP stroke
0 395 3507 4221 2 MP stroke
128 0 3443 4221 2 MP stroke
0 354 3575 4262 2 MP stroke
128 0 3511 4262 2 MP stroke
0 312 3644 4304 2 MP stroke
129 0 3580 4304 2 MP stroke
0 358 3713 4258 2 MP stroke
128 0 3649 4258 2 MP stroke
0 283 3782 4333 2 MP stroke
128 0 3718 4333 2 MP stroke
0 293 3850 4323 2 MP stroke
128 0 3786 4323 2 MP stroke
0 372 3919 4244 2 MP stroke
129 0 3854 4244 2 MP stroke
0 289 3988 4327 2 MP stroke
129 0 3923 4327 2 MP stroke
0 235 4056 4381 2 MP stroke
129 0 3992 4381 2 MP stroke
0 260 4124 4356 2 MP stroke
129 0 4060 4356 2 MP stroke
0 242 4193 4374 2 MP stroke
129 0 4128 4374 2 MP stroke
0 238 4262 4378 2 MP stroke
128 0 4198 4378 2 MP stroke
0 212 4331 4404 2 MP stroke
129 0 4267 4404 2 MP stroke
0 153 4400 4463 2 MP stroke
129 0 4335 4463 2 MP stroke
0 197 4468 4419 2 MP stroke
128 0 4404 4419 2 MP stroke
0 188 4536 4428 2 MP stroke
129 0 4471 4428 2 MP stroke
0 198 4605 4418 2 MP stroke
129 0 4540 4418 2 MP stroke
0 158 4674 4458 2 MP stroke
128 0 4610 4458 2 MP stroke
0 142 4743 4474 2 MP stroke
129 0 4678 4474 2 MP stroke
0 170 4811 4446 2 MP stroke
129 0 4747 4446 2 MP stroke
0 188 4880 4428 2 MP stroke
128 0 4816 4428 2 MP stroke
0 219 4948 4397 2 MP stroke
128 0 4884 4397 2 MP stroke
0 226 5017 4390 2 MP stroke
129 0 4952 4390 2 MP stroke
0 161 5086 4455 2 MP stroke
129 0 5021 4455 2 MP stroke
0 131 5155 4485 2 MP stroke
128 0 5091 4485 2 MP stroke
0 142 5223 4474 2 MP stroke
129 0 5159 4474 2 MP stroke
0 138 5292 4478 2 MP stroke
129 0 5227 4478 2 MP stroke
0 122 5360 4494 2 MP stroke
129 0 5295 4494 2 MP stroke
0 115 5429 4501 2 MP stroke
129 0 5364 4501 2 MP stroke
0 212 5500 4404 2 MP stroke
129 0 5435 4404 2 MP stroke
0 162 5573 4454 2 MP stroke
129 0 5508 4454 2 MP stroke
0 177 5648 4439 2 MP stroke
128 0 5584 4439 2 MP stroke
0 165 5727 4451 2 MP stroke
129 0 5662 4451 2 MP stroke
0 165 5816 4451 2 MP stroke
128 0 5752 4451 2 MP stroke
0 122 5903 4494 2 MP stroke
128 0 5839 4494 2 MP stroke
0 114 5993 4502 2 MP stroke
129 0 5929 4502 2 MP stroke
0 122 6088 4494 2 MP stroke
129 0 6023 4494 2 MP stroke
0 160 6190 4456 2 MP stroke
129 0 6125 4456 2 MP stroke
2 0 6254 4522 2 MP stroke
48 17 68 -4 69 -4 69 31 69 -28 68 -2 69 16 68 -15 
69 17 69 8 69 18 68 -31 68 -16 69 22 69 12 69 -12 
69 64 68 -36 68 26 69 33 69 -1 68 -25 69 40 69 -24 
69 28 68 13 68 11 70 -7 68 29 69 -20 68 65 69 5 
69 10 67 -8 70 72 69 -45 69 83 68 6 69 12 68 -18 
69 53 68 -12 69 31 69 29 69 48 68 45 68 19 69 28 
69 26 68 121 69 14 69 69 69 57 68 140 68 22 69 76 
69 96 68 97 70 155 68 159 68 254 68 239 69 369 69 1670 
899 469 65 MP stroke
gr

 874  444 mt  924  494 L
 924  444 mt  874  494 L
 943 2114 mt  993 2164 L
 993 2114 mt  943 2164 L
1012 2483 mt 1062 2533 L
1062 2483 mt 1012 2533 L
1080 2722 mt 1130 2772 L
1130 2722 mt 1080 2772 L
1148 2976 mt 1198 3026 L
1198 2976 mt 1148 3026 L
1216 3135 mt 1266 3185 L
1266 3135 mt 1216 3185 L
1286 3290 mt 1336 3340 L
1336 3290 mt 1286 3340 L
1354 3387 mt 1404 3437 L
1404 3387 mt 1354 3437 L
1423 3483 mt 1473 3533 L
1473 3483 mt 1423 3533 L
1492 3559 mt 1542 3609 L
1542 3559 mt 1492 3609 L
1560 3581 mt 1610 3631 L
1610 3581 mt 1560 3631 L
1628 3721 mt 1678 3771 L
1678 3721 mt 1628 3771 L
1697 3778 mt 1747 3828 L
1747 3778 mt 1697 3828 L
1766 3847 mt 1816 3897 L
1816 3847 mt 1766 3897 L
1835 3861 mt 1885 3911 L
1885 3861 mt 1835 3911 L
1903 3982 mt 1953 4032 L
1953 3982 mt 1903 4032 L
1972 4008 mt 2022 4058 L
2022 4008 mt 1972 4058 L
2041 4036 mt 2091 4086 L
2091 4036 mt 2041 4086 L
2109 4055 mt 2159 4105 L
2159 4055 mt 2109 4105 L
2177 4100 mt 2227 4150 L
2227 4100 mt 2177 4150 L
2246 4148 mt 2296 4198 L
2296 4148 mt 2246 4198 L
2315 4177 mt 2365 4227 L
2365 4177 mt 2315 4227 L
2384 4208 mt 2434 4258 L
2434 4208 mt 2384 4258 L
2452 4196 mt 2502 4246 L
2502 4196 mt 2452 4246 L
2521 4249 mt 2571 4299 L
2571 4249 mt 2521 4299 L
2589 4231 mt 2639 4281 L
2639 4231 mt 2589 4281 L
2658 4243 mt 2708 4293 L
2708 4243 mt 2658 4293 L
2726 4249 mt 2776 4299 L
2776 4249 mt 2726 4299 L
2795 4332 mt 2845 4382 L
2845 4332 mt 2795 4382 L
2864 4287 mt 2914 4337 L
2914 4287 mt 2864 4337 L
2934 4359 mt 2984 4409 L
2984 4359 mt 2934 4409 L
3001 4351 mt 3051 4401 L
3051 4351 mt 3001 4401 L
3070 4361 mt 3120 4411 L
3120 4361 mt 3070 4411 L
3139 4366 mt 3189 4416 L
3189 4366 mt 3139 4416 L
3207 4431 mt 3257 4481 L
3257 4431 mt 3207 4481 L
3276 4411 mt 3326 4461 L
3326 4411 mt 3276 4461 L
3344 4440 mt 3394 4490 L
3394 4440 mt 3344 4490 L
3414 4433 mt 3464 4483 L
3464 4433 mt 3414 4483 L
3482 4444 mt 3532 4494 L
3532 4444 mt 3482 4494 L
3550 4457 mt 3600 4507 L
3600 4457 mt 3550 4507 L
3619 4485 mt 3669 4535 L
3669 4485 mt 3619 4535 L
3688 4461 mt 3738 4511 L
3738 4461 mt 3688 4511 L
3757 4501 mt 3807 4551 L
3807 4501 mt 3757 4551 L
3825 4476 mt 3875 4526 L
3875 4476 mt 3825 4526 L
3894 4475 mt 3944 4525 L
3944 4475 mt 3894 4525 L
3963 4508 mt 4013 4558 L
4013 4508 mt 3963 4558 L
4031 4534 mt 4081 4584 L
4081 4534 mt 4031 4584 L
4099 4498 mt 4149 4548 L
4149 4498 mt 4099 4548 L
4168 4562 mt 4218 4612 L
4218 4562 mt 4168 4612 L
4237 4550 mt 4287 4600 L
4287 4550 mt 4237 4600 L
4306 4562 mt 4356 4612 L
4356 4562 mt 4306 4612 L
4375 4584 mt 4425 4634 L
4425 4584 mt 4375 4634 L
4443 4568 mt 4493 4618 L
4493 4568 mt 4443 4618 L
4511 4537 mt 4561 4587 L
4561 4537 mt 4511 4587 L
4580 4555 mt 4630 4605 L
4630 4555 mt 4580 4605 L
4649 4563 mt 4699 4613 L
4699 4563 mt 4649 4613 L
4718 4580 mt 4768 4630 L
4768 4580 mt 4718 4630 L
4786 4565 mt 4836 4615 L
4836 4565 mt 4786 4615 L
4855 4581 mt 4905 4631 L
4905 4581 mt 4855 4631 L
4923 4579 mt 4973 4629 L
4973 4579 mt 4923 4629 L
4992 4551 mt 5042 4601 L
5042 4551 mt 4992 4601 L
5061 4582 mt 5111 4632 L
5111 4582 mt 5061 4632 L
5130 4578 mt 5180 4628 L
5180 4578 mt 5130 4628 L
5198 4574 mt 5248 4624 L
5248 4574 mt 5198 4624 L
gs 899 469 5357 4147 rc
68 22 89 2 79 -19 75 5 73 18 45 -28 5455 4616 7 MP stroke
gr

5475 4563 mt 5525 4613 L
5525 4563 mt 5475 4613 L
5548 4581 mt 5598 4631 L
5598 4581 mt 5548 4631 L
5623 4586 mt 5673 4636 L
5673 4586 mt 5623 4636 L
5702 4567 mt 5752 4617 L
5752 4567 mt 5702 4617 L
5791 4569 mt 5841 4619 L
5841 4569 mt 5791 4619 L
gs 899 469 5357 4147 rc
29 16 64 -16 6126 4616 3 MP stroke
gr

6165 4575 mt 6215 4625 L
6215 4575 mt 6165 4625 L
gs 899 469 5357 4147 rc
899 469 PD
64 0 899 469 2 MP stroke
64 0 899 469 2 MP stroke
0 664 968 469 2 MP stroke
128 0 904 1133 2 MP stroke
0 595 1037 568 2 MP stroke
128 0 973 568 2 MP stroke
128 0 973 1163 2 MP stroke
0 733 1105 469 2 MP stroke
128 0 1041 1202 2 MP stroke
0 631 1173 646 2 MP stroke
129 0 1108 646 2 MP stroke
129 0 1108 1277 2 MP stroke
0 560 1241 666 2 MP stroke
129 0 1177 666 2 MP stroke
129 0 1177 1226 2 MP stroke
0 753 1311 628 2 MP stroke
129 0 1246 628 2 MP stroke
129 0 1246 1381 2 MP stroke
0 784 1379 684 2 MP stroke
129 0 1314 684 2 MP stroke
129 0 1314 1468 2 MP stroke
0 600 1448 666 2 MP stroke
129 0 1383 666 2 MP stroke
129 0 1383 1266 2 MP stroke
0 781 1517 644 2 MP stroke
128 0 1453 644 2 MP stroke
128 0 1453 1425 2 MP stroke
0 621 1585 731 2 MP stroke
129 0 1521 731 2 MP stroke
129 0 1521 1352 2 MP stroke
0 1025 1653 600 2 MP stroke
129 0 1589 600 2 MP stroke
129 0 1589 1625 2 MP stroke
0 1026 1722 542 2 MP stroke
128 0 1658 542 2 MP stroke
128 0 1658 1568 2 MP stroke
0 908 1791 701 2 MP stroke
129 0 1727 701 2 MP stroke
129 0 1727 1609 2 MP stroke
0 955 1860 627 2 MP stroke
129 0 1795 627 2 MP stroke
129 0 1795 1582 2 MP stroke
0 1073 1928 571 2 MP stroke
128 0 1864 571 2 MP stroke
128 0 1864 1644 2 MP stroke
0 1001 1997 605 2 MP stroke
129 0 1932 605 2 MP stroke
129 0 1932 1606 2 MP stroke
0 1121 2066 504 2 MP stroke
129 0 2001 504 2 MP stroke
129 0 2001 1625 2 MP stroke
0 1355 2134 489 2 MP stroke
128 0 2070 489 2 MP stroke
128 0 2070 1844 2 MP stroke
0 1186 2202 632 2 MP stroke
129 0 2137 632 2 MP stroke
129 0 2137 1818 2 MP stroke
0 1430 2271 529 2 MP stroke
129 0 2206 529 2 MP stroke
129 0 2206 1959 2 MP stroke
0 1397 2340 578 2 MP stroke
129 0 2276 578 2 MP stroke
129 0 2276 1975 2 MP stroke
0 1363 2409 608 2 MP stroke
129 0 2345 608 2 MP stroke
129 0 2345 1971 2 MP stroke
0 1024 2477 758 2 MP stroke
129 0 2413 758 2 MP stroke
129 0 2413 1782 2 MP stroke
0 998 2546 710 2 MP stroke
129 0 2482 710 2 MP stroke
129 0 2482 1708 2 MP stroke
0 1137 2614 702 2 MP stroke
129 0 2550 702 2 MP stroke
129 0 2550 1839 2 MP stroke
0 1093 2683 741 2 MP stroke
128 0 2619 741 2 MP stroke
128 0 2619 1834 2 MP stroke
0 1201 2751 688 2 MP stroke
129 0 2687 688 2 MP stroke
129 0 2687 1889 2 MP stroke
0 1261 2820 606 2 MP stroke
128 0 2756 606 2 MP stroke
128 0 2756 1867 2 MP stroke
0 1329 2889 662 2 MP stroke
129 0 2825 662 2 MP stroke
129 0 2825 1991 2 MP stroke
0 1335 2959 545 2 MP stroke
129 0 2894 545 2 MP stroke
129 0 2894 1880 2 MP stroke
0 1195 3026 640 2 MP stroke
128 0 2962 640 2 MP stroke
128 0 2962 1835 2 MP stroke
0 1413 3095 566 2 MP stroke
129 0 3030 566 2 MP stroke
129 0 3030 1979 2 MP stroke
0 1262 3164 669 2 MP stroke
128 0 3100 669 2 MP stroke
128 0 3100 1931 2 MP stroke
0 1075 3232 649 2 MP stroke
129 0 3168 649 2 MP stroke
129 0 3168 1724 2 MP stroke
0 1174 3301 589 2 MP stroke
129 0 3236 589 2 MP stroke
129 0 3236 1763 2 MP stroke
0 1021 3369 868 2 MP stroke
129 0 3305 868 2 MP stroke
129 0 3305 1889 2 MP stroke
0 988 3439 899 2 MP stroke
129 0 3374 899 2 MP stroke
129 0 3374 1887 2 MP stroke
0 1116 3507 712 2 MP stroke
128 0 3443 712 2 MP stroke
128 0 3443 1828 2 MP stroke
0 1021 3575 811 2 MP stroke
128 0 3511 811 2 MP stroke
128 0 3511 1832 2 MP stroke
0 1008 3644 966 2 MP stroke
129 0 3580 966 2 MP stroke
129 0 3580 1974 2 MP stroke
0 900 3713 989 2 MP stroke
128 0 3649 989 2 MP stroke
128 0 3649 1889 2 MP stroke
0 923 3782 936 2 MP stroke
128 0 3718 936 2 MP stroke
128 0 3718 1859 2 MP stroke
0 947 3850 917 2 MP stroke
128 0 3786 917 2 MP stroke
128 0 3786 1864 2 MP stroke
0 991 3919 873 2 MP stroke
129 0 3854 873 2 MP stroke
129 0 3854 1864 2 MP stroke
0 1132 3988 840 2 MP stroke
129 0 3923 840 2 MP stroke
129 0 3923 1972 2 MP stroke
0 943 4056 974 2 MP stroke
129 0 3992 974 2 MP stroke
129 0 3992 1917 2 MP stroke
0 1045 4124 861 2 MP stroke
129 0 4060 861 2 MP stroke
129 0 4060 1906 2 MP stroke
0 1080 4193 878 2 MP stroke
129 0 4128 878 2 MP stroke
129 0 4128 1958 2 MP stroke
0 1005 4262 924 2 MP stroke
128 0 4198 924 2 MP stroke
128 0 4198 1929 2 MP stroke
0 1076 4331 979 2 MP stroke
129 0 4267 979 2 MP stroke
129 0 4267 2055 2 MP stroke
0 822 4400 955 2 MP stroke
129 0 4335 955 2 MP stroke
129 0 4335 1777 2 MP stroke
0 903 4468 1084 2 MP stroke
128 0 4404 1084 2 MP stroke
128 0 4404 1987 2 MP stroke
0 1184 4536 984 2 MP stroke
129 0 4471 984 2 MP stroke
129 0 4471 2168 2 MP stroke
0 1046 4605 981 2 MP stroke
129 0 4540 981 2 MP stroke
129 0 4540 2027 2 MP stroke
0 1021 4674 1035 2 MP stroke
128 0 4610 1035 2 MP stroke
128 0 4610 2056 2 MP stroke
0 1041 4743 876 2 MP stroke
129 0 4678 876 2 MP stroke
129 0 4678 1917 2 MP stroke
0 1105 4811 964 2 MP stroke
129 0 4747 964 2 MP stroke
129 0 4747 2069 2 MP stroke
0 1325 4880 790 2 MP stroke
128 0 4816 790 2 MP stroke
128 0 4816 2115 2 MP stroke
0 1160 4948 932 2 MP stroke
128 0 4884 932 2 MP stroke
128 0 4884 2092 2 MP stroke
0 979 5017 961 2 MP stroke
129 0 4952 961 2 MP stroke
129 0 4952 1940 2 MP stroke
0 1060 5086 939 2 MP stroke
129 0 5021 939 2 MP stroke
129 0 5021 1999 2 MP stroke
0 969 5155 883 2 MP stroke
128 0 5091 883 2 MP stroke
128 0 5091 1852 2 MP stroke
0 1119 5223 922 2 MP stroke
129 0 5159 922 2 MP stroke
129 0 5159 2041 2 MP stroke
0 1144 5292 1068 2 MP stroke
129 0 5227 1068 2 MP stroke
129 0 5227 2212 2 MP stroke
0 1130 5360 930 2 MP stroke
129 0 5295 930 2 MP stroke
129 0 5295 2060 2 MP stroke
0 917 5429 1026 2 MP stroke
129 0 5364 1026 2 MP stroke
129 0 5364 1943 2 MP stroke
0 1043 5500 1082 2 MP stroke
129 0 5435 1082 2 MP stroke
129 0 5435 2125 2 MP stroke
0 923 5573 953 2 MP stroke
129 0 5508 953 2 MP stroke
129 0 5508 1876 2 MP stroke
0 1320 5648 731 2 MP stroke
128 0 5584 731 2 MP stroke
128 0 5584 2051 2 MP stroke
0 1098 5727 1076 2 MP stroke
129 0 5662 1076 2 MP stroke
129 0 5662 2174 2 MP stroke
0 922 5816 978 2 MP stroke
128 0 5752 978 2 MP stroke
128 0 5752 1900 2 MP stroke
0 1002 5903 987 2 MP stroke
128 0 5839 987 2 MP stroke
128 0 5839 1989 2 MP stroke
0 872 5993 1018 2 MP stroke
129 0 5929 1018 2 MP stroke
129 0 5929 1890 2 MP stroke
0 1036 6088 906 2 MP stroke
129 0 6023 906 2 MP stroke
129 0 6023 1942 2 MP stroke
0 1213 6190 1003 2 MP stroke
129 0 6125 1003 2 MP stroke
129 0 6125 2216 2 MP stroke
2 0 6254 958 2 MP stroke
2 0 6254 2252 2 MP stroke
66 -3 102 186 95 -30 90 -34 87 49 89 -186 79 234 75 -24 
73 -188 71 118 69 -10 68 -145 69 159 68 114 69 -102 69 19 
69 -62 68 60 69 -64 68 119 69 -149 69 42 69 -72 68 41 
68 169 69 -151 69 91 69 8 69 34 68 -62 68 40 69 38 
69 -23 68 -6 69 -42 69 -31 69 149 68 51 68 -123 70 14 
68 203 69 -10 68 -114 69 27 69 36 67 25 70 -114 69 89 
69 -51 68 0 69 17 68 62 69 -61 68 -20 69 14 69 32 
69 19 68 59 68 101 69 -41 69 -2 68 4 69 -51 69 100 
69 -57 68 71 68 6 69 69 69 -110 68 72 70 58 68 -16 
68 170 68 -74 69 167 69 230 899 469 77 MP stroke
gr

 874  444 mt  924  494 L
 924  444 mt  874  494 L
 943  674 mt  993  724 L
 993  674 mt  943  724 L
1012  841 mt 1062  891 L
1062  841 mt 1012  891 L
1080  767 mt 1130  817 L
1130  767 mt 1080  817 L
1148  937 mt 1198  987 L
1198  937 mt 1148  987 L
1216  921 mt 1266  971 L
1266  921 mt 1216  971 L
1286  979 mt 1336 1029 L
1336  979 mt 1286 1029 L
1354 1051 mt 1404 1101 L
1404 1051 mt 1354 1101 L
1423  941 mt 1473  991 L
1473  941 mt 1423  991 L
1492 1010 mt 1542 1060 L
1542 1010 mt 1492 1060 L
1560 1016 mt 1610 1066 L
1610 1016 mt 1560 1066 L
1628 1087 mt 1678 1137 L
1678 1087 mt 1628 1137 L
1697 1030 mt 1747 1080 L
1747 1030 mt 1697 1080 L
1766 1130 mt 1816 1180 L
1816 1130 mt 1766 1180 L
1835 1079 mt 1885 1129 L
1885 1079 mt 1835 1129 L
1903 1083 mt 1953 1133 L
1953 1083 mt 1903 1133 L
1972 1081 mt 2022 1131 L
2022 1081 mt 1972 1131 L
2041 1040 mt 2091 1090 L
2091 1040 mt 2041 1090 L
2109 1141 mt 2159 1191 L
2159 1141 mt 2109 1191 L
2177 1200 mt 2227 1250 L
2227 1200 mt 2177 1250 L
2246 1219 mt 2296 1269 L
2296 1219 mt 2246 1269 L
2315 1251 mt 2365 1301 L
2365 1251 mt 2315 1301 L
2384 1265 mt 2434 1315 L
2434 1265 mt 2384 1315 L
2452 1245 mt 2502 1295 L
2502 1245 mt 2452 1295 L
2521 1184 mt 2571 1234 L
2571 1184 mt 2521 1234 L
2589 1246 mt 2639 1296 L
2639 1246 mt 2589 1296 L
2658 1263 mt 2708 1313 L
2708 1263 mt 2658 1313 L
2726 1263 mt 2776 1313 L
2776 1263 mt 2726 1313 L
2795 1212 mt 2845 1262 L
2845 1212 mt 2795 1262 L
2864 1301 mt 2914 1351 L
2914 1301 mt 2864 1351 L
2934 1187 mt 2984 1237 L
2984 1187 mt 2934 1237 L
3001 1212 mt 3051 1262 L
3051 1212 mt 3001 1262 L
3070 1248 mt 3120 1298 L
3120 1248 mt 3070 1298 L
3139 1275 mt 3189 1325 L
3189 1275 mt 3139 1325 L
3207 1161 mt 3257 1211 L
3257 1161 mt 3207 1211 L
3276 1151 mt 3326 1201 L
3326 1151 mt 3276 1201 L
3344 1354 mt 3394 1404 L
3394 1354 mt 3344 1404 L
3414 1368 mt 3464 1418 L
3464 1368 mt 3414 1418 L
3482 1245 mt 3532 1295 L
3532 1245 mt 3482 1295 L
3550 1296 mt 3600 1346 L
3600 1296 mt 3550 1346 L
3619 1445 mt 3669 1495 L
3669 1445 mt 3619 1495 L
3688 1414 mt 3738 1464 L
3738 1414 mt 3688 1464 L
3757 1372 mt 3807 1422 L
3807 1372 mt 3757 1422 L
3825 1366 mt 3875 1416 L
3875 1366 mt 3825 1416 L
3894 1343 mt 3944 1393 L
3944 1343 mt 3894 1393 L
3963 1381 mt 4013 1431 L
4013 1381 mt 3963 1431 L
4031 1421 mt 4081 1471 L
4081 1421 mt 4031 1471 L
4099 1359 mt 4149 1409 L
4149 1359 mt 4099 1409 L
4168 1393 mt 4218 1443 L
4218 1393 mt 4168 1443 L
4237 1401 mt 4287 1451 L
4287 1401 mt 4237 1451 L
4306 1492 mt 4356 1542 L
4356 1492 mt 4306 1542 L
4375 1341 mt 4425 1391 L
4425 1341 mt 4375 1391 L
4443 1510 mt 4493 1560 L
4493 1510 mt 4443 1560 L
4511 1551 mt 4561 1601 L
4561 1551 mt 4511 1601 L
4580 1479 mt 4630 1529 L
4630 1479 mt 4580 1529 L
4649 1521 mt 4699 1571 L
4699 1521 mt 4649 1571 L
4718 1372 mt 4768 1422 L
4768 1372 mt 4718 1422 L
4786 1491 mt 4836 1541 L
4836 1491 mt 4786 1541 L
4855 1427 mt 4905 1477 L
4905 1427 mt 4855 1477 L
4923 1487 mt 4973 1537 L
4973 1487 mt 4923 1537 L
4992 1425 mt 5042 1475 L
5042 1425 mt 4992 1475 L
5061 1444 mt 5111 1494 L
5111 1444 mt 5061 1494 L
5130 1342 mt 5180 1392 L
5180 1342 mt 5130 1392 L
5198 1456 mt 5248 1506 L
5248 1456 mt 5198 1506 L
5267 1615 mt 5317 1665 L
5317 1615 mt 5267 1665 L
5335 1470 mt 5385 1520 L
5385 1470 mt 5335 1520 L
5404 1460 mt 5454 1510 L
5454 1460 mt 5404 1510 L
5475 1578 mt 5525 1628 L
5525 1578 mt 5475 1628 L
5548 1390 mt 5598 1440 L
5598 1390 mt 5548 1440 L
5623 1366 mt 5673 1416 L
5673 1366 mt 5623 1416 L
5702 1600 mt 5752 1650 L
5752 1600 mt 5702 1650 L
5791 1414 mt 5841 1464 L
5841 1414 mt 5791 1464 L
5878 1463 mt 5928 1513 L
5928 1463 mt 5878 1513 L
5968 1429 mt 6018 1479 L
6018 1429 mt 5968 1479 L
6063 1399 mt 6113 1449 L
6113 1399 mt 6063 1449 L
6165 1585 mt 6215 1635 L
6215 1585 mt 6165 1635 L
gs 899 469 5357 4147 rc
/c8 { 1.000000 0.000000 0.000000 sr} bdef
c8
26 0 899 542 2 MP stroke
899 469 PD
62 0 899 469 2 MP stroke
62 0 899 469 2 MP stroke
0 418 934 1006 2 MP stroke
98 0 899 1006 2 MP stroke
98 0 899 1424 2 MP stroke
0 475 970 1419 2 MP stroke
125 0 907 1419 2 MP stroke
125 0 907 1894 2 MP stroke
0 594 1006 1769 2 MP stroke
125 0 943 1769 2 MP stroke
125 0 943 2363 2 MP stroke
0 675 1041 2013 2 MP stroke
125 0 979 2013 2 MP stroke
125 0 979 2688 2 MP stroke
0 698 1077 2318 2 MP stroke
125 0 1015 2318 2 MP stroke
125 0 1015 3016 2 MP stroke
0 748 1113 2501 2 MP stroke
125 0 1050 2501 2 MP stroke
125 0 1050 3249 2 MP stroke
0 695 1148 2736 2 MP stroke
125 0 1086 2736 2 MP stroke
125 0 1086 3431 2 MP stroke
0 648 1184 2918 2 MP stroke
125 0 1122 2918 2 MP stroke
125 0 1122 3566 2 MP stroke
0 656 1220 3053 2 MP stroke
125 0 1157 3053 2 MP stroke
125 0 1157 3709 2 MP stroke
0 650 1256 3215 2 MP stroke
125 0 1193 3215 2 MP stroke
125 0 1193 3865 2 MP stroke
0 593 1291 3375 2 MP stroke
125 0 1229 3375 2 MP stroke
125 0 1229 3968 2 MP stroke
0 583 1327 3503 2 MP stroke
125 0 1264 3503 2 MP stroke
125 0 1264 4086 2 MP stroke
0 522 1363 3607 2 MP stroke
125 0 1300 3607 2 MP stroke
125 0 1300 4129 2 MP stroke
0 476 1398 3718 2 MP stroke
125 0 1336 3718 2 MP stroke
125 0 1336 4194 2 MP stroke
0 489 1434 3756 2 MP stroke
125 0 1372 3756 2 MP stroke
125 0 1372 4245 2 MP stroke
0 441 1470 3853 2 MP stroke
125 0 1407 3853 2 MP stroke
125 0 1407 4294 2 MP stroke
0 427 1506 3888 2 MP stroke
125 0 1443 3888 2 MP stroke
125 0 1443 4315 2 MP stroke
0 406 1541 3935 2 MP stroke
125 0 1479 3935 2 MP stroke
125 0 1479 4341 2 MP stroke
0 367 1577 3983 2 MP stroke
125 0 1514 3983 2 MP stroke
125 0 1514 4350 2 MP stroke
0 383 1613 4009 2 MP stroke
125 0 1550 4009 2 MP stroke
125 0 1550 4392 2 MP stroke
0 376 1648 4026 2 MP stroke
125 0 1586 4026 2 MP stroke
125 0 1586 4402 2 MP stroke
0 368 1684 4039 2 MP stroke
125 0 1622 4039 2 MP stroke
125 0 1622 4407 2 MP stroke
0 311 1720 4097 2 MP stroke
125 0 1657 4097 2 MP stroke
125 0 1657 4408 2 MP stroke
0 290 1755 4130 2 MP stroke
125 0 1693 4130 2 MP stroke
125 0 1693 4420 2 MP stroke
0 302 1791 4156 2 MP stroke
125 0 1729 4156 2 MP stroke
125 0 1729 4458 2 MP stroke
0 303 1827 4165 2 MP stroke
125 0 1764 4165 2 MP stroke
125 0 1764 4468 2 MP stroke
0 297 1863 4189 2 MP stroke
125 0 1800 4189 2 MP stroke
125 0 1800 4486 2 MP stroke
0 259 1898 4201 2 MP stroke
125 0 1836 4201 2 MP stroke
125 0 1836 4460 2 MP stroke
0 295 1934 4182 2 MP stroke
124 0 1872 4182 2 MP stroke
124 0 1872 4477 2 MP stroke
0 233 1970 4221 2 MP stroke
125 0 1907 4221 2 MP stroke
125 0 1907 4454 2 MP stroke
0 228 2005 4232 2 MP stroke
125 0 1943 4232 2 MP stroke
125 0 1943 4460 2 MP stroke
0 205 2041 4258 2 MP stroke
125 0 1979 4258 2 MP stroke
125 0 1979 4463 2 MP stroke
0 227 2077 4264 2 MP stroke
125 0 2014 4264 2 MP stroke
125 0 2014 4491 2 MP stroke
0 219 2113 4273 2 MP stroke
125 0 2050 4273 2 MP stroke
125 0 2050 4492 2 MP stroke
0 223 2148 4295 2 MP stroke
125 0 2086 4295 2 MP stroke
125 0 2086 4518 2 MP stroke
0 226 2184 4299 2 MP stroke
125 0 2121 4299 2 MP stroke
125 0 2121 4525 2 MP stroke
0 209 2220 4339 2 MP stroke
125 0 2157 4339 2 MP stroke
125 0 2157 4548 2 MP stroke
0 215 2255 4319 2 MP stroke
125 0 2193 4319 2 MP stroke
125 0 2193 4534 2 MP stroke
0 207 2291 4335 2 MP stroke
125 0 2229 4335 2 MP stroke
125 0 2229 4542 2 MP stroke
0 201 2327 4325 2 MP stroke
125 0 2264 4325 2 MP stroke
125 0 2264 4526 2 MP stroke
0 192 2362 4326 2 MP stroke
125 0 2300 4326 2 MP stroke
125 0 2300 4518 2 MP stroke
0 215 2398 4323 2 MP stroke
125 0 2336 4323 2 MP stroke
125 0 2336 4538 2 MP stroke
0 196 2434 4333 2 MP stroke
125 0 2371 4333 2 MP stroke
125 0 2371 4529 2 MP stroke
0 201 2470 4348 2 MP stroke
125 0 2407 4348 2 MP stroke
125 0 2407 4549 2 MP stroke
0 183 2505 4364 2 MP stroke
125 0 2443 4364 2 MP stroke
125 0 2443 4547 2 MP stroke
0 185 2541 4354 2 MP stroke
124 0 2479 4354 2 MP stroke
124 0 2479 4539 2 MP stroke
0 185 2577 4360 2 MP stroke
125 0 2514 4360 2 MP stroke
125 0 2514 4545 2 MP stroke
0 199 2612 4358 2 MP stroke
125 0 2550 4358 2 MP stroke
125 0 2550 4557 2 MP stroke
0 219 2648 4342 2 MP stroke
125 0 2586 4342 2 MP stroke
125 0 2586 4561 2 MP stroke
0 205 2684 4349 2 MP stroke
125 0 2621 4349 2 MP stroke
125 0 2621 4554 2 MP stroke
0 227 2720 4343 2 MP stroke
125 0 2657 4343 2 MP stroke
125 0 2657 4570 2 MP stroke
0 204 2755 4356 2 MP stroke
125 0 2693 4356 2 MP stroke
125 0 2693 4560 2 MP stroke
0 191 2791 4360 2 MP stroke
125 0 2728 4360 2 MP stroke
125 0 2728 4551 2 MP stroke
0 194 2827 4363 2 MP stroke
125 0 2764 4363 2 MP stroke
125 0 2764 4557 2 MP stroke
0 199 2862 4372 2 MP stroke
125 0 2800 4372 2 MP stroke
125 0 2800 4571 2 MP stroke
0 183 2898 4388 2 MP stroke
125 0 2836 4388 2 MP stroke
125 0 2836 4571 2 MP stroke
0 179 2934 4367 2 MP stroke
125 0 2871 4367 2 MP stroke
125 0 2871 4546 2 MP stroke
0 176 2969 4378 2 MP stroke
125 0 2907 4378 2 MP stroke
125 0 2907 4554 2 MP stroke
0 178 3005 4371 2 MP stroke
125 0 2943 4371 2 MP stroke
125 0 2943 4549 2 MP stroke
0 147 3041 4379 2 MP stroke
125 0 2978 4379 2 MP stroke
125 0 2978 4526 2 MP stroke
0 154 3077 4371 2 MP stroke
125 0 3014 4371 2 MP stroke
125 0 3014 4525 2 MP stroke
0 143 3112 4382 2 MP stroke
125 0 3050 4382 2 MP stroke
125 0 3050 4525 2 MP stroke
0 141 3148 4391 2 MP stroke
125 0 3086 4391 2 MP stroke
125 0 3086 4532 2 MP stroke
0 172 3184 4371 2 MP stroke
125 0 3121 4371 2 MP stroke
125 0 3121 4543 2 MP stroke
0 189 3219 4368 2 MP stroke
125 0 3157 4368 2 MP stroke
125 0 3157 4557 2 MP stroke
0 168 3255 4389 2 MP stroke
125 0 3193 4389 2 MP stroke
125 0 3193 4557 2 MP stroke
0 158 3291 4400 2 MP stroke
125 0 3228 4400 2 MP stroke
125 0 3228 4558 2 MP stroke
0 164 3327 4404 2 MP stroke
125 0 3264 4404 2 MP stroke
125 0 3264 4568 2 MP stroke
0 153 3362 4403 2 MP stroke
125 0 3300 4403 2 MP stroke
125 0 3300 4556 2 MP stroke
0 144 3398 4405 2 MP stroke
125 0 3335 4405 2 MP stroke
125 0 3335 4549 2 MP stroke
0 158 3434 4396 2 MP stroke
125 0 3371 4396 2 MP stroke
125 0 3371 4554 2 MP stroke
0 176 3469 4379 2 MP stroke
125 0 3407 4379 2 MP stroke
125 0 3407 4555 2 MP stroke
0 174 3505 4380 2 MP stroke
125 0 3443 4380 2 MP stroke
125 0 3443 4554 2 MP stroke
0 167 3541 4387 2 MP stroke
125 0 3478 4387 2 MP stroke
125 0 3478 4554 2 MP stroke
0 150 3577 4389 2 MP stroke
125 0 3514 4389 2 MP stroke
125 0 3514 4539 2 MP stroke
0 154 3612 4396 2 MP stroke
125 0 3550 4396 2 MP stroke
125 0 3550 4550 2 MP stroke
0 169 3648 4379 2 MP stroke
125 0 3585 4379 2 MP stroke
125 0 3585 4548 2 MP stroke
0 161 3684 4382 2 MP stroke
125 0 3621 4382 2 MP stroke
125 0 3621 4543 2 MP stroke
0 160 3719 4398 2 MP stroke
125 0 3657 4398 2 MP stroke
125 0 3657 4558 2 MP stroke
0 177 3755 4400 2 MP stroke
125 0 3693 4400 2 MP stroke
125 0 3693 4577 2 MP stroke
0 196 3791 4391 2 MP stroke
125 0 3728 4391 2 MP stroke
125 0 3728 4587 2 MP stroke
0 194 3826 4389 2 MP stroke
125 0 3764 4389 2 MP stroke
125 0 3764 4583 2 MP stroke
0 172 3862 4391 2 MP stroke
125 0 3800 4391 2 MP stroke
125 0 3800 4563 2 MP stroke
0 158 3898 4383 2 MP stroke
125 0 3835 4383 2 MP stroke
125 0 3835 4541 2 MP stroke
0 149 3934 4404 2 MP stroke
125 0 3871 4404 2 MP stroke
125 0 3871 4553 2 MP stroke
0 164 3969 4405 2 MP stroke
125 0 3907 4405 2 MP stroke
125 0 3907 4569 2 MP stroke
0 133 4005 4413 2 MP stroke
125 0 3942 4413 2 MP stroke
125 0 3942 4546 2 MP stroke
0 147 4041 4408 2 MP stroke
125 0 3978 4408 2 MP stroke
125 0 3978 4555 2 MP stroke
0 139 4076 4432 2 MP stroke
125 0 4014 4432 2 MP stroke
125 0 4014 4571 2 MP stroke
0 158 4112 4410 2 MP stroke
125 0 4050 4410 2 MP stroke
125 0 4050 4568 2 MP stroke
0 172 4148 4400 2 MP stroke
125 0 4085 4400 2 MP stroke
125 0 4085 4572 2 MP stroke
0 147 4184 4416 2 MP stroke
125 0 4121 4416 2 MP stroke
125 0 4121 4563 2 MP stroke
0 164 4219 4416 2 MP stroke
125 0 4157 4416 2 MP stroke
125 0 4157 4580 2 MP stroke
0 175 4255 4410 2 MP stroke
125 0 4192 4410 2 MP stroke
125 0 4192 4585 2 MP stroke
0 160 4291 4419 2 MP stroke
125 0 4228 4419 2 MP stroke
125 0 4228 4579 2 MP stroke
0 187 4326 4407 2 MP stroke
125 0 4264 4407 2 MP stroke
125 0 4264 4594 2 MP stroke
0 178 4362 4418 2 MP stroke
125 0 4300 4418 2 MP stroke
125 0 4300 4596 2 MP stroke
0 165 4398 4422 2 MP stroke
125 0 4335 4422 2 MP stroke
125 0 4335 4587 2 MP stroke
0 170 4433 4424 2 MP stroke
125 0 4371 4424 2 MP stroke
125 0 4371 4594 2 MP stroke
0 166 4469 4433 2 MP stroke
125 0 4407 4433 2 MP stroke
125 0 4407 4599 2 MP stroke
0 174 4505 4402 2 MP stroke
125 0 4442 4402 2 MP stroke
125 0 4442 4576 2 MP stroke
0 173 4541 4413 2 MP stroke
125 0 4478 4413 2 MP stroke
125 0 4478 4586 2 MP stroke
0 182 4576 4410 2 MP stroke
125 0 4514 4410 2 MP stroke
125 0 4514 4592 2 MP stroke
0 172 4612 4422 2 MP stroke
124 0 4550 4422 2 MP stroke
124 0 4550 4594 2 MP stroke
0 177 4648 4412 2 MP stroke
125 0 4585 4412 2 MP stroke
125 0 4585 4589 2 MP stroke
0 167 4683 4415 2 MP stroke
125 0 4621 4415 2 MP stroke
125 0 4621 4582 2 MP stroke
0 144 4719 4439 2 MP stroke
125 0 4657 4439 2 MP stroke
125 0 4657 4583 2 MP stroke
0 155 4755 4422 2 MP stroke
125 0 4692 4422 2 MP stroke
125 0 4692 4577 2 MP stroke
0 178 4791 4410 2 MP stroke
125 0 4728 4410 2 MP stroke
125 0 4728 4588 2 MP stroke
0 162 4826 4409 2 MP stroke
125 0 4764 4409 2 MP stroke
125 0 4764 4571 2 MP stroke
0 170 4862 4407 2 MP stroke
125 0 4799 4407 2 MP stroke
125 0 4799 4577 2 MP stroke
0 170 4898 4415 2 MP stroke
125 0 4835 4415 2 MP stroke
125 0 4835 4585 2 MP stroke
0 167 4933 4414 2 MP stroke
125 0 4871 4414 2 MP stroke
125 0 4871 4581 2 MP stroke
0 173 4969 4417 2 MP stroke
125 0 4907 4417 2 MP stroke
125 0 4907 4590 2 MP stroke
0 201 5005 4388 2 MP stroke
125 0 4942 4388 2 MP stroke
125 0 4942 4589 2 MP stroke
0 188 5040 4397 2 MP stroke
125 0 4978 4397 2 MP stroke
125 0 4978 4585 2 MP stroke
0 200 5076 4403 2 MP stroke
125 0 5014 4403 2 MP stroke
125 0 5014 4603 2 MP stroke
0 193 5112 4404 2 MP stroke
125 0 5049 4404 2 MP stroke
125 0 5049 4597 2 MP stroke
0 186 5148 4402 2 MP stroke
125 0 5085 4402 2 MP stroke
125 0 5085 4588 2 MP stroke
0 195 5183 4392 2 MP stroke
125 0 5121 4392 2 MP stroke
125 0 5121 4587 2 MP stroke
0 192 5219 4393 2 MP stroke
124 0 5157 4393 2 MP stroke
124 0 5157 4585 2 MP stroke
0 183 5255 4392 2 MP stroke
125 0 5192 4392 2 MP stroke
125 0 5192 4575 2 MP stroke
0 214 5290 4363 2 MP stroke
125 0 5228 4363 2 MP stroke
125 0 5228 4577 2 MP stroke
0 235 5326 4354 2 MP stroke
125 0 5264 4354 2 MP stroke
125 0 5264 4589 2 MP stroke
0 196 5362 4377 2 MP stroke
125 0 5299 4377 2 MP stroke
125 0 5299 4573 2 MP stroke
0 198 5398 4388 2 MP stroke
125 0 5335 4388 2 MP stroke
125 0 5335 4586 2 MP stroke
0 190 5433 4380 2 MP stroke
125 0 5371 4380 2 MP stroke
125 0 5371 4570 2 MP stroke
0 169 5469 4399 2 MP stroke
125 0 5406 4399 2 MP stroke
125 0 5406 4568 2 MP stroke
0 176 5505 4403 2 MP stroke
125 0 5442 4403 2 MP stroke
125 0 5442 4579 2 MP stroke
0 180 5540 4395 2 MP stroke
125 0 5478 4395 2 MP stroke
125 0 5478 4575 2 MP stroke
0 187 5576 4396 2 MP stroke
125 0 5514 4396 2 MP stroke
125 0 5514 4583 2 MP stroke
0 146 5612 4418 2 MP stroke
125 0 5549 4418 2 MP stroke
125 0 5549 4564 2 MP stroke
0 173 5647 4402 2 MP stroke
125 0 5585 4402 2 MP stroke
125 0 5585 4575 2 MP stroke
0 167 5683 4409 2 MP stroke
125 0 5621 4409 2 MP stroke
125 0 5621 4576 2 MP stroke
0 160 5719 4425 2 MP stroke
125 0 5656 4425 2 MP stroke
125 0 5656 4585 2 MP stroke
0 143 5755 4437 2 MP stroke
125 0 5692 4437 2 MP stroke
125 0 5692 4580 2 MP stroke
0 136 5790 4439 2 MP stroke
125 0 5728 4439 2 MP stroke
125 0 5728 4575 2 MP stroke
0 168 5826 4421 2 MP stroke
125 0 5764 4421 2 MP stroke
125 0 5764 4589 2 MP stroke
0 141 5862 4442 2 MP stroke
125 0 5799 4442 2 MP stroke
125 0 5799 4583 2 MP stroke
0 162 5897 4422 2 MP stroke
125 0 5835 4422 2 MP stroke
125 0 5835 4584 2 MP stroke
0 145 5933 4431 2 MP stroke
125 0 5871 4431 2 MP stroke
125 0 5871 4576 2 MP stroke
0 180 5969 4403 2 MP stroke
125 0 5906 4403 2 MP stroke
125 0 5906 4583 2 MP stroke
0 155 6005 4419 2 MP stroke
125 0 5942 4419 2 MP stroke
125 0 5942 4574 2 MP stroke
0 168 6040 4411 2 MP stroke
125 0 5978 4411 2 MP stroke
125 0 5978 4579 2 MP stroke
0 169 6076 4412 2 MP stroke
125 0 6013 4412 2 MP stroke
125 0 6013 4581 2 MP stroke
0 148 6112 4437 2 MP stroke
125 0 6049 4437 2 MP stroke
125 0 6049 4585 2 MP stroke
0 165 6147 4427 2 MP stroke
125 0 6085 4427 2 MP stroke
125 0 6085 4592 2 MP stroke
0 169 6183 4420 2 MP stroke
125 0 6121 4420 2 MP stroke
125 0 6121 4589 2 MP stroke
0 188 6219 4399 2 MP stroke
100 0 6156 4399 2 MP stroke
100 0 6156 4587 2 MP stroke
0 189 6255 4394 2 MP stroke
64 0 6192 4394 2 MP stroke
64 0 6192 4583 2 MP stroke
36 -5 36 -12 36 -4 35 -2 36 14 36 2 35 -2 36 4 
36 -10 36 0 35 -10 36 8 36 -2 35 -1 36 3 36 13 
36 3 35 -2 36 1 36 5 35 -6 36 8 36 8 35 -12 
36 12 36 4 36 1 35 -13 36 -6 36 0 35 -6 36 -5 
36 -3 36 12 35 2 36 -14 36 5 35 -2 36 8 36 2 
35 -9 36 -1 36 -11 36 13 35 -2 36 -8 36 7 35 2 
36 10 36 -27 36 7 35 4 36 -2 36 7 35 1 36 2 
36 -1 35 8 36 4 36 -3 36 -13 35 20 36 2 36 -7 
35 9 36 16 36 -15 36 -9 35 -3 36 0 36 11 35 15 
36 0 36 -10 35 9 36 -6 36 3 36 0 35 -8 36 -2 
36 -3 35 -6 36 7 36 6 36 11 35 5 36 -4 36 7 
35 6 36 -4 36 -8 36 -6 35 10 36 -24 36 8 35 12 
36 5 36 -3 35 2 36 5 36 0 36 -6 35 4 36 6 
36 -9 35 8 36 17 36 0 36 9 35 -4 36 -12 36 11 
35 -17 36 32 36 6 35 24 36 5 36 17 36 14 35 9 
36 8 36 -2 35 -6 36 21 36 9 36 32 35 23 36 29 
36 9 35 13 36 34 36 29 35 36 36 29 36 72 36 45 
35 88 36 74 36 122 35 132 36 159 36 139 36 159 35 208 
36 208 36 317 35 284 36 410 36 441 35 746 899 469 151 MP stroke
gr

c8
  36   36  934 1215 FO
  36   36  970 1656 FO
  36   36 1006 2066 FO
  36   36 1041 2350 FO
  36   36 1077 2667 FO
  36   36 1113 2875 FO
  36   36 1148 3083 FO
  36   36 1184 3242 FO
  36   36 1220 3381 FO
  36   36 1256 3540 FO
  36   36 1291 3672 FO
  36   36 1327 3794 FO
  36   36 1363 3868 FO
  36   36 1398 3956 FO
  36   36 1434 4001 FO
  36   36 1470 4073 FO
  36   36 1506 4102 FO
  36   36 1541 4138 FO
  36   36 1577 4167 FO
  36   36 1613 4201 FO
  36   36 1648 4214 FO
  36   36 1684 4223 FO
  36   36 1720 4252 FO
  36   36 1755 4275 FO
  36   36 1791 4307 FO
  36   36 1827 4316 FO
  36   36 1863 4337 FO
  36   36 1898 4331 FO
  36   36 1934 4329 FO
  36   36 1970 4337 FO
  36   36 2005 4346 FO
  36   36 2041 4360 FO
  36   36 2077 4377 FO
  36   36 2113 4382 FO
  36   36 2148 4406 FO
  36   36 2184 4412 FO
  36   36 2220 4444 FO
  36   36 2255 4427 FO
  36   36 2291 4438 FO
  36   36 2327 4426 FO
  36   36 2362 4422 FO
  36   36 2398 4431 FO
  36   36 2434 4431 FO
  36   36 2470 4448 FO
  36   36 2505 4456 FO
  36   36 2541 4447 FO
  36   36 2577 4453 FO
  36   36 2612 4457 FO
  36   36 2648 4451 FO
  36   36 2684 4451 FO
  36   36 2720 4456 FO
  36   36 2755 4458 FO
  36   36 2791 4455 FO
  36   36 2827 4460 FO
  36   36 2862 4472 FO
  36   36 2898 4480 FO
  36   36 2934 4456 FO
  36   36 2969 4466 FO
  36   36 3005 4460 FO
  36   36 3041 4452 FO
  36   36 3077 4448 FO
  36   36 3112 4454 FO
  36   36 3148 4461 FO
  36   36 3184 4457 FO
  36   36 3219 4462 FO
  36   36 3255 4473 FO
  36   36 3291 4479 FO
  36   36 3327 4486 FO
  36   36 3362 4480 FO
  36   36 3398 4477 FO
  36   36 3434 4475 FO
  36   36 3469 4467 FO
  36   36 3505 4467 FO
  36   36 3541 4470 FO
  36   36 3577 4464 FO
  36   36 3612 4473 FO
  36   36 3648 4463 FO
  36   36 3684 4463 FO
  36   36 3719 4478 FO
  36   36 3755 4489 FO
  36   36 3791 4489 FO
  36   36 3826 4486 FO
  36   36 3862 4477 FO
  36   36 3898 4462 FO
  36   36 3934 4478 FO
  36   36 3969 4487 FO
  36   36 4005 4480 FO
  36   36 4041 4482 FO
  36   36 4076 4502 FO
  36   36 4112 4489 FO
  36   36 4148 4486 FO
  36   36 4184 4490 FO
  36   36 4219 4498 FO
  36   36 4255 4497 FO
  36   36 4291 4499 FO
  36   36 4326 4500 FO
  36   36 4362 4507 FO
  36   36 4398 4505 FO
  36   36 4433 4509 FO
  36   36 4469 4516 FO
  36   36 4505 4489 FO
  36   36 4541 4499 FO
  36   36 4576 4501 FO
  36   36 4612 4508 FO
  36   36 4648 4500 FO
  36   36 4683 4498 FO
  36   36 4719 4511 FO
  36   36 4755 4500 FO
  36   36 4791 4499 FO
  36   36 4826 4490 FO
  36   36 4862 4492 FO
  36   36 4898 4500 FO
  36   36 4933 4498 FO
  36   36 4969 4503 FO
  36   36 5005 4489 FO
  36   36 5040 4491 FO
  36   36 5076 4503 FO
  36   36 5112 4500 FO
  36   36 5148 4495 FO
  36   36 5183 4489 FO
  36   36 5219 4489 FO
  36   36 5255 4483 FO
  36   36 5290 4470 FO
  36   36 5326 4471 FO
  36   36 5362 4475 FO
  36   36 5398 4487 FO
  36   36 5433 4475 FO
  36   36 5469 4483 FO
  36   36 5505 4491 FO
  36   36 5540 4485 FO
  36   36 5576 4490 FO
  36   36 5612 4491 FO
  36   36 5647 4489 FO
  36   36 5683 4492 FO
  36   36 5719 4505 FO
  36   36 5755 4508 FO
  36   36 5790 4507 FO
  36   36 5826 4505 FO
  36   36 5862 4513 FO
  36   36 5897 4503 FO
  36   36 5933 4503 FO
  36   36 5969 4493 FO
  36   36 6005 4497 FO
  36   36 6040 4495 FO
  36   36 6076 4497 FO
  36   36 6112 4511 FO
  36   36 6147 4509 FO
  36   36 6183 4505 FO
  36   36 6219 4493 FO
  36   36 6255 4488 FO
gs 899 469 5357 4147 rc
/c9 { 0.000000 0.500000 0.000000 sr} bdef
c9
26 0 899 498 2 MP stroke
899 469 PD
62 0 899 469 2 MP stroke
62 0 899 469 2 MP stroke
0 51 934 469 2 MP stroke
98 0 899 520 2 MP stroke
0 122 970 469 2 MP stroke
125 0 907 591 2 MP stroke
0 135 1006 469 2 MP stroke
125 0 943 604 2 MP stroke
0 139 1041 469 2 MP stroke
125 0 979 608 2 MP stroke
0 139 1077 469 2 MP stroke
125 0 1015 608 2 MP stroke
0 135 1113 469 2 MP stroke
125 0 1050 604 2 MP stroke
0 126 1148 469 2 MP stroke
125 0 1086 595 2 MP stroke
0 129 1184 469 2 MP stroke
125 0 1122 598 2 MP stroke
0 163 1220 469 2 MP stroke
125 0 1157 632 2 MP stroke
0 141 1256 469 2 MP stroke
125 0 1193 610 2 MP stroke
0 164 1291 469 2 MP stroke
125 0 1229 633 2 MP stroke
0 177 1327 469 2 MP stroke
125 0 1264 646 2 MP stroke
0 175 1363 469 2 MP stroke
125 0 1300 644 2 MP stroke
0 185 1398 469 2 MP stroke
125 0 1336 654 2 MP stroke
0 209 1434 469 2 MP stroke
125 0 1372 678 2 MP stroke
0 208 1470 469 2 MP stroke
125 0 1407 677 2 MP stroke
0 223 1506 469 2 MP stroke
125 0 1443 692 2 MP stroke
0 230 1541 469 2 MP stroke
125 0 1479 699 2 MP stroke
0 254 1577 469 2 MP stroke
125 0 1514 723 2 MP stroke
0 258 1613 469 2 MP stroke
125 0 1550 727 2 MP stroke
0 277 1648 469 2 MP stroke
125 0 1586 746 2 MP stroke
0 283 1684 469 2 MP stroke
125 0 1622 752 2 MP stroke
0 319 1720 469 2 MP stroke
125 0 1657 788 2 MP stroke
0 337 1755 469 2 MP stroke
125 0 1693 806 2 MP stroke
0 375 1791 469 2 MP stroke
125 0 1729 844 2 MP stroke
0 385 1827 469 2 MP stroke
125 0 1764 854 2 MP stroke
0 390 1863 469 2 MP stroke
125 0 1800 859 2 MP stroke
0 405 1898 469 2 MP stroke
125 0 1836 874 2 MP stroke
0 436 1934 469 2 MP stroke
124 0 1872 905 2 MP stroke
0 412 1970 482 2 MP stroke
125 0 1907 482 2 MP stroke
125 0 1907 894 2 MP stroke
0 419 2005 496 2 MP stroke
125 0 1943 496 2 MP stroke
125 0 1943 915 2 MP stroke
0 433 2041 496 2 MP stroke
125 0 1979 496 2 MP stroke
125 0 1979 929 2 MP stroke
0 452 2077 493 2 MP stroke
125 0 2014 493 2 MP stroke
125 0 2014 945 2 MP stroke
0 462 2113 516 2 MP stroke
125 0 2050 516 2 MP stroke
125 0 2050 978 2 MP stroke
0 486 2148 506 2 MP stroke
125 0 2086 506 2 MP stroke
125 0 2086 992 2 MP stroke
0 506 2184 504 2 MP stroke
125 0 2121 504 2 MP stroke
125 0 2121 1010 2 MP stroke
0 451 2220 517 2 MP stroke
125 0 2157 517 2 MP stroke
125 0 2157 968 2 MP stroke
0 442 2255 555 2 MP stroke
125 0 2193 555 2 MP stroke
125 0 2193 997 2 MP stroke
0 479 2291 537 2 MP stroke
125 0 2229 537 2 MP stroke
125 0 2229 1016 2 MP stroke
0 441 2327 581 2 MP stroke
125 0 2264 581 2 MP stroke
125 0 2264 1022 2 MP stroke
0 434 2362 598 2 MP stroke
125 0 2300 598 2 MP stroke
125 0 2300 1032 2 MP stroke
0 407 2398 616 2 MP stroke
125 0 2336 616 2 MP stroke
125 0 2336 1023 2 MP stroke
0 432 2434 624 2 MP stroke
125 0 2371 624 2 MP stroke
125 0 2371 1056 2 MP stroke
0 453 2470 618 2 MP stroke
125 0 2407 618 2 MP stroke
125 0 2407 1071 2 MP stroke
0 437 2505 628 2 MP stroke
125 0 2443 628 2 MP stroke
125 0 2443 1065 2 MP stroke
0 472 2541 634 2 MP stroke
124 0 2479 634 2 MP stroke
124 0 2479 1106 2 MP stroke
0 440 2577 650 2 MP stroke
125 0 2514 650 2 MP stroke
125 0 2514 1090 2 MP stroke
0 453 2612 648 2 MP stroke
125 0 2550 648 2 MP stroke
125 0 2550 1101 2 MP stroke
0 451 2648 664 2 MP stroke
125 0 2586 664 2 MP stroke
125 0 2586 1115 2 MP stroke
0 467 2684 671 2 MP stroke
125 0 2621 671 2 MP stroke
125 0 2621 1138 2 MP stroke
0 488 2720 667 2 MP stroke
125 0 2657 667 2 MP stroke
125 0 2657 1155 2 MP stroke
0 444 2755 700 2 MP stroke
125 0 2693 700 2 MP stroke
125 0 2693 1144 2 MP stroke
0 433 2791 723 2 MP stroke
125 0 2728 723 2 MP stroke
125 0 2728 1156 2 MP stroke
0 454 2827 718 2 MP stroke
125 0 2764 718 2 MP stroke
125 0 2764 1172 2 MP stroke
0 445 2862 720 2 MP stroke
125 0 2800 720 2 MP stroke
125 0 2800 1165 2 MP stroke
0 483 2898 704 2 MP stroke
125 0 2836 704 2 MP stroke
125 0 2836 1187 2 MP stroke
0 492 2934 727 2 MP stroke
125 0 2871 727 2 MP stroke
125 0 2871 1219 2 MP stroke
0 491 2969 725 2 MP stroke
125 0 2907 725 2 MP stroke
125 0 2907 1216 2 MP stroke
0 494 3005 741 2 MP stroke
125 0 2943 741 2 MP stroke
125 0 2943 1235 2 MP stroke
0 498 3041 757 2 MP stroke
125 0 2978 757 2 MP stroke
125 0 2978 1255 2 MP stroke
0 494 3077 776 2 MP stroke
125 0 3014 776 2 MP stroke
125 0 3014 1270 2 MP stroke
0 501 3112 779 2 MP stroke
125 0 3050 779 2 MP stroke
125 0 3050 1280 2 MP stroke
0 495 3148 787 2 MP stroke
125 0 3086 787 2 MP stroke
125 0 3086 1282 2 MP stroke
0 504 3184 798 2 MP stroke
125 0 3121 798 2 MP stroke
125 0 3121 1302 2 MP stroke
0 506 3219 805 2 MP stroke
125 0 3157 805 2 MP stroke
125 0 3157 1311 2 MP stroke
0 510 3255 805 2 MP stroke
125 0 3193 805 2 MP stroke
125 0 3193 1315 2 MP stroke
0 528 3291 796 2 MP stroke
125 0 3228 796 2 MP stroke
125 0 3228 1324 2 MP stroke
0 545 3327 795 2 MP stroke
125 0 3264 795 2 MP stroke
125 0 3264 1340 2 MP stroke
0 539 3362 813 2 MP stroke
125 0 3300 813 2 MP stroke
125 0 3300 1352 2 MP stroke
0 525 3398 828 2 MP stroke
125 0 3335 828 2 MP stroke
125 0 3335 1353 2 MP stroke
0 545 3434 830 2 MP stroke
125 0 3371 830 2 MP stroke
125 0 3371 1375 2 MP stroke
0 578 3469 837 2 MP stroke
125 0 3407 837 2 MP stroke
125 0 3407 1415 2 MP stroke
0 573 3505 847 2 MP stroke
125 0 3443 847 2 MP stroke
125 0 3443 1420 2 MP stroke
0 563 3541 853 2 MP stroke
125 0 3478 853 2 MP stroke
125 0 3478 1416 2 MP stroke
0 555 3577 871 2 MP stroke
125 0 3514 871 2 MP stroke
125 0 3514 1426 2 MP stroke
0 562 3612 863 2 MP stroke
125 0 3550 863 2 MP stroke
125 0 3550 1425 2 MP stroke
0 557 3648 888 2 MP stroke
125 0 3585 888 2 MP stroke
125 0 3585 1445 2 MP stroke
0 572 3684 891 2 MP stroke
125 0 3621 891 2 MP stroke
125 0 3621 1463 2 MP stroke
0 565 3719 889 2 MP stroke
125 0 3657 889 2 MP stroke
125 0 3657 1454 2 MP stroke
0 595 3755 880 2 MP stroke
125 0 3693 880 2 MP stroke
125 0 3693 1475 2 MP stroke
0 645 3791 868 2 MP stroke
125 0 3728 868 2 MP stroke
125 0 3728 1513 2 MP stroke
0 616 3826 889 2 MP stroke
125 0 3764 889 2 MP stroke
125 0 3764 1505 2 MP stroke
0 623 3862 906 2 MP stroke
125 0 3800 906 2 MP stroke
125 0 3800 1529 2 MP stroke
0 624 3898 931 2 MP stroke
125 0 3835 931 2 MP stroke
125 0 3835 1555 2 MP stroke
0 616 3934 934 2 MP stroke
125 0 3871 934 2 MP stroke
125 0 3871 1550 2 MP stroke
0 631 3969 934 2 MP stroke
125 0 3907 934 2 MP stroke
125 0 3907 1565 2 MP stroke
0 631 4005 963 2 MP stroke
125 0 3942 963 2 MP stroke
125 0 3942 1594 2 MP stroke
0 615 4041 977 2 MP stroke
125 0 3978 977 2 MP stroke
125 0 3978 1592 2 MP stroke
0 615 4076 972 2 MP stroke
125 0 4014 972 2 MP stroke
125 0 4014 1587 2 MP stroke
0 605 4112 992 2 MP stroke
125 0 4050 992 2 MP stroke
125 0 4050 1597 2 MP stroke
0 620 4148 998 2 MP stroke
125 0 4085 998 2 MP stroke
125 0 4085 1618 2 MP stroke
0 632 4184 1001 2 MP stroke
125 0 4121 1001 2 MP stroke
125 0 4121 1633 2 MP stroke
0 654 4219 999 2 MP stroke
125 0 4157 999 2 MP stroke
125 0 4157 1653 2 MP stroke
0 638 4255 1011 2 MP stroke
125 0 4192 1011 2 MP stroke
125 0 4192 1649 2 MP stroke
0 666 4291 1006 2 MP stroke
125 0 4228 1006 2 MP stroke
125 0 4228 1672 2 MP stroke
0 680 4326 1011 2 MP stroke
125 0 4264 1011 2 MP stroke
125 0 4264 1691 2 MP stroke
0 700 4362 1004 2 MP stroke
125 0 4300 1004 2 MP stroke
125 0 4300 1704 2 MP stroke
0 685 4398 1023 2 MP stroke
125 0 4335 1023 2 MP stroke
125 0 4335 1708 2 MP stroke
0 676 4433 1028 2 MP stroke
125 0 4371 1028 2 MP stroke
125 0 4371 1704 2 MP stroke
0 689 4469 1024 2 MP stroke
125 0 4407 1024 2 MP stroke
125 0 4407 1713 2 MP stroke
0 726 4505 1042 2 MP stroke
125 0 4442 1042 2 MP stroke
125 0 4442 1768 2 MP stroke
0 737 4541 1036 2 MP stroke
125 0 4478 1036 2 MP stroke
125 0 4478 1773 2 MP stroke
0 771 4576 1020 2 MP stroke
125 0 4514 1020 2 MP stroke
125 0 4514 1791 2 MP stroke
0 742 4612 1034 2 MP stroke
124 0 4550 1034 2 MP stroke
124 0 4550 1776 2 MP stroke
0 747 4648 1044 2 MP stroke
125 0 4585 1044 2 MP stroke
125 0 4585 1791 2 MP stroke
0 738 4683 1061 2 MP stroke
125 0 4621 1061 2 MP stroke
125 0 4621 1799 2 MP stroke
0 725 4719 1066 2 MP stroke
125 0 4657 1066 2 MP stroke
125 0 4657 1791 2 MP stroke
0 728 4755 1089 2 MP stroke
125 0 4692 1089 2 MP stroke
125 0 4692 1817 2 MP stroke
0 732 4791 1096 2 MP stroke
125 0 4728 1096 2 MP stroke
125 0 4728 1828 2 MP stroke
0 714 4826 1119 2 MP stroke
125 0 4764 1119 2 MP stroke
125 0 4764 1833 2 MP stroke
0 728 4862 1120 2 MP stroke
125 0 4799 1120 2 MP stroke
125 0 4799 1848 2 MP stroke
0 706 4898 1130 2 MP stroke
125 0 4835 1130 2 MP stroke
125 0 4835 1836 2 MP stroke
0 722 4933 1133 2 MP stroke
125 0 4871 1133 2 MP stroke
125 0 4871 1855 2 MP stroke
0 736 4969 1126 2 MP stroke
125 0 4907 1126 2 MP stroke
125 0 4907 1862 2 MP stroke
0 724 5005 1154 2 MP stroke
125 0 4942 1154 2 MP stroke
125 0 4942 1878 2 MP stroke
0 706 5040 1169 2 MP stroke
125 0 4978 1169 2 MP stroke
125 0 4978 1875 2 MP stroke
0 707 5076 1167 2 MP stroke
125 0 5014 1167 2 MP stroke
125 0 5014 1874 2 MP stroke
0 703 5112 1176 2 MP stroke
125 0 5049 1176 2 MP stroke
125 0 5049 1879 2 MP stroke
0 700 5148 1192 2 MP stroke
125 0 5085 1192 2 MP stroke
125 0 5085 1892 2 MP stroke
0 709 5183 1204 2 MP stroke
125 0 5121 1204 2 MP stroke
125 0 5121 1913 2 MP stroke
0 714 5219 1207 2 MP stroke
124 0 5157 1207 2 MP stroke
124 0 5157 1921 2 MP stroke
0 713 5255 1220 2 MP stroke
125 0 5192 1220 2 MP stroke
125 0 5192 1933 2 MP stroke
0 713 5290 1242 2 MP stroke
125 0 5228 1242 2 MP stroke
125 0 5228 1955 2 MP stroke
0 730 5326 1239 2 MP stroke
125 0 5264 1239 2 MP stroke
125 0 5264 1969 2 MP stroke
0 739 5362 1237 2 MP stroke
125 0 5299 1237 2 MP stroke
125 0 5299 1976 2 MP stroke
0 778 5398 1211 2 MP stroke
125 0 5335 1211 2 MP stroke
125 0 5335 1989 2 MP stroke
0 782 5433 1233 2 MP stroke
125 0 5371 1233 2 MP stroke
125 0 5371 2015 2 MP stroke
0 756 5469 1243 2 MP stroke
125 0 5406 1243 2 MP stroke
125 0 5406 1999 2 MP stroke
0 745 5505 1250 2 MP stroke
125 0 5442 1250 2 MP stroke
125 0 5442 1995 2 MP stroke
0 769 5540 1256 2 MP stroke
125 0 5478 1256 2 MP stroke
125 0 5478 2025 2 MP stroke
0 753 5576 1261 2 MP stroke
125 0 5514 1261 2 MP stroke
125 0 5514 2014 2 MP stroke
0 754 5612 1265 2 MP stroke
125 0 5549 1265 2 MP stroke
125 0 5549 2019 2 MP stroke
0 741 5647 1279 2 MP stroke
125 0 5585 1279 2 MP stroke
125 0 5585 2020 2 MP stroke
0 773 5683 1268 2 MP stroke
125 0 5621 1268 2 MP stroke
125 0 5621 2041 2 MP stroke
0 763 5719 1269 2 MP stroke
125 0 5656 1269 2 MP stroke
125 0 5656 2032 2 MP stroke
0 781 5755 1273 2 MP stroke
125 0 5692 1273 2 MP stroke
125 0 5692 2054 2 MP stroke
0 789 5790 1278 2 MP stroke
125 0 5728 1278 2 MP stroke
125 0 5728 2067 2 MP stroke
0 792 5826 1281 2 MP stroke
125 0 5764 1281 2 MP stroke
125 0 5764 2073 2 MP stroke
0 793 5862 1283 2 MP stroke
125 0 5799 1283 2 MP stroke
125 0 5799 2076 2 MP stroke
0 777 5897 1304 2 MP stroke
125 0 5835 1304 2 MP stroke
125 0 5835 2081 2 MP stroke
0 781 5933 1304 2 MP stroke
125 0 5871 1304 2 MP stroke
125 0 5871 2085 2 MP stroke
0 800 5969 1320 2 MP stroke
125 0 5906 1320 2 MP stroke
125 0 5906 2120 2 MP stroke
0 802 6005 1328 2 MP stroke
125 0 5942 1328 2 MP stroke
125 0 5942 2130 2 MP stroke
0 811 6040 1336 2 MP stroke
125 0 5978 1336 2 MP stroke
125 0 5978 2147 2 MP stroke
0 828 6076 1336 2 MP stroke
125 0 6013 1336 2 MP stroke
125 0 6013 2164 2 MP stroke
0 825 6112 1342 2 MP stroke
125 0 6049 1342 2 MP stroke
125 0 6049 2167 2 MP stroke
0 810 6147 1353 2 MP stroke
125 0 6085 1353 2 MP stroke
125 0 6085 2163 2 MP stroke
0 816 6183 1363 2 MP stroke
125 0 6121 1363 2 MP stroke
125 0 6121 2179 2 MP stroke
0 826 6219 1376 2 MP stroke
100 0 6156 1376 2 MP stroke
100 0 6156 2202 2 MP stroke
0 823 6255 1387 2 MP stroke
64 0 6192 1387 2 MP stroke
64 0 6192 2210 2 MP stroke
899 469 PD
gr

c9
gs 899 469 5357 4147 rc
2 0 36 -5 36 -9 35 6 36 -2 17 10 953 469 7 MP stroke
gr

  36   36  970  479 FO
  36   36 1006  477 FO
  36   36 1041  483 FO
  36   36 1077  474 FO
  36   36 1113  469 FO
gs 899 469 5357 4147 rc
36 9 36 18 36 13 35 4 36 4 36 8 35 13 36 9 
36 25 36 2 35 14 36 2 36 5 35 9 36 13 36 -4 
36 5 35 7 36 5 36 -3 35 18 36 1 36 -3 35 24 
36 -7 36 3 36 6 35 22 36 12 36 5 35 17 36 15 
36 7 36 -2 35 6 36 22 36 0 35 11 36 -1 36 8 
35 14 36 9 36 25 36 -2 35 13 36 12 36 -1 35 1 
36 0 36 36 36 3 35 1 36 11 36 3 35 12 36 9 
36 4 35 9 36 9 36 14 36 15 35 -6 36 7 36 28 
35 8 36 -1 36 25 36 21 35 6 36 13 36 7 35 -6 
36 10 36 23 35 -5 36 15 36 1 36 7 35 23 36 12 
36 9 35 15 36 7 36 0 36 2 35 8 36 16 36 4 
35 7 36 17 36 18 36 18 35 -3 36 28 36 2 35 -2 
36 6 36 17 35 11 36 7 36 14 36 16 35 4 36 0 
36 24 35 2 36 4 36 21 36 4 35 13 36 26 36 0 
35 34 36 -15 36 8 35 2 36 28 36 7 36 7 35 17 
36 5 36 15 35 30 36 2 36 11 36 3 35 11 36 12 
36 17 35 16 36 8 36 26 35 6 36 21 36 -11 36 17 
35 11 36 7 36 -3 35 13 36 -5 17 7 1203 469 143 MP stroke
gr

  36   36 1220  476 FO
  36   36 1256  471 FO
  36   36 1291  484 FO
  36   36 1327  481 FO
  36   36 1363  488 FO
  36   36 1398  499 FO
  36   36 1434  516 FO
  36   36 1470  505 FO
  36   36 1506  526 FO
  36   36 1541  532 FO
  36   36 1577  558 FO
  36   36 1613  566 FO
  36   36 1648  582 FO
  36   36 1684  599 FO
  36   36 1720  611 FO
  36   36 1755  622 FO
  36   36 1791  625 FO
  36   36 1827  636 FO
  36   36 1863  638 FO
  36   36 1898  668 FO
  36   36 1934  683 FO
  36   36 1970  688 FO
  36   36 2005  705 FO
  36   36 2041  712 FO
  36   36 2077  719 FO
  36   36 2113  747 FO
  36   36 2148  749 FO
  36   36 2184  757 FO
  36   36 2220  742 FO
  36   36 2255  776 FO
  36   36 2291  776 FO
  36   36 2327  802 FO
  36   36 2362  815 FO
  36   36 2398  819 FO
  36   36 2434  840 FO
  36   36 2470  844 FO
  36   36 2505  846 FO
  36   36 2541  870 FO
  36   36 2577  870 FO
  36   36 2612  874 FO
  36   36 2648  890 FO
  36   36 2684  904 FO
  36   36 2720  911 FO
  36   36 2755  922 FO
  36   36 2791  939 FO
  36   36 2827  945 FO
  36   36 2862  943 FO
  36   36 2898  945 FO
  36   36 2934  973 FO
  36   36 2969  970 FO
  36   36 3005  988 FO
  36   36 3041 1006 FO
  36   36 3077 1023 FO
  36   36 3112 1030 FO
  36   36 3148 1034 FO
  36   36 3184 1050 FO
  36   36 3219 1058 FO
  36   36 3255 1060 FO
  36   36 3291 1060 FO
  36   36 3327 1067 FO
  36   36 3362 1082 FO
  36   36 3398 1091 FO
  36   36 3434 1103 FO
  36   36 3469 1126 FO
  36   36 3505 1133 FO
  36   36 3541 1134 FO
  36   36 3577 1149 FO
  36   36 3612 1144 FO
  36   36 3648 1167 FO
  36   36 3684 1177 FO
  36   36 3719 1171 FO
  36   36 3755 1178 FO
  36   36 3791 1191 FO
  36   36 3826 1197 FO
  36   36 3862 1218 FO
  36   36 3898 1243 FO
  36   36 3934 1242 FO
  36   36 3969 1250 FO
  36   36 4005 1278 FO
  36   36 4041 1285 FO
  36   36 4076 1279 FO
  36   36 4112 1294 FO
  36   36 4148 1308 FO
  36   36 4184 1317 FO
  36   36 4219 1326 FO
  36   36 4255 1330 FO
  36   36 4291 1339 FO
  36   36 4326 1351 FO
  36   36 4362 1354 FO
  36   36 4398 1365 FO
  36   36 4433 1366 FO
  36   36 4469 1369 FO
  36   36 4505 1405 FO
  36   36 4541 1405 FO
  36   36 4576 1406 FO
  36   36 4612 1405 FO
  36   36 4648 1417 FO
  36   36 4683 1430 FO
  36   36 4719 1428 FO
  36   36 4755 1453 FO
  36   36 4791 1462 FO
  36   36 4826 1476 FO
  36   36 4862 1484 FO
  36   36 4898 1483 FO
  36   36 4933 1494 FO
  36   36 4969 1494 FO
  36   36 5005 1516 FO
  36   36 5040 1522 FO
  36   36 5076 1520 FO
  36   36 5112 1527 FO
  36   36 5148 1542 FO
  36   36 5183 1559 FO
  36   36 5219 1564 FO
  36   36 5255 1576 FO
  36   36 5290 1598 FO
  36   36 5326 1604 FO
  36   36 5362 1607 FO
  36   36 5398 1600 FO
  36   36 5433 1624 FO
  36   36 5469 1621 FO
  36   36 5505 1622 FO
  36   36 5540 1640 FO
  36   36 5576 1637 FO
  36   36 5612 1642 FO
  36   36 5647 1649 FO
  36   36 5683 1654 FO
  36   36 5719 1650 FO
  36   36 5755 1663 FO
  36   36 5790 1672 FO
  36   36 5826 1677 FO
  36   36 5862 1679 FO
  36   36 5897 1693 FO
  36   36 5933 1695 FO
  36   36 5969 1720 FO
  36   36 6005 1729 FO
  36   36 6040 1742 FO
  36   36 6076 1750 FO
  36   36 6112 1754 FO
  36   36 6147 1758 FO
  36   36 6183 1771 FO
  36   36 6219 1789 FO
  36   36 6255 1798 FO
gs 899 469 5357 4147 rc
gr

0 sg
%%IncludeResource: font Helvetica
/Helvetica /ISOLatin1Encoding 168 FMSR

2435  156 mt 
(Nup49-GFP in Late Anaphase) s
%%IncludeResource: font Helvetica
/Helvetica /ISOLatin1Encoding 144 FMSR

1250  293 mt 
(n) s
%%IncludeResource: font Helvetica
/Helvetica /ISOLatin1Encoding 108 FMSR

1330  377 mt 
(cells) s
%%IncludeResource: font Helvetica
/Helvetica /ISOLatin1Encoding 144 FMSR

1546  293 mt 
( = 34    -    d) s
%%IncludeResource: font Helvetica
/Helvetica /ISOLatin1Encoding 108 FMSR

2354  377 mt 
(b) s
%%IncludeResource: font Helvetica
/Helvetica /ISOLatin1Encoding 144 FMSR

2414  293 mt 
( = 0.0566   -   Multiple rings 300nm width   -   P) s
%%IncludeResource: font Helvetica
/Helvetica /ISOLatin1Encoding 108 FMSR

5469  377 mt 
(in) s
%%IncludeResource: font Helvetica
/Helvetica /ISOLatin1Encoding 144 FMSR

5553  293 mt 
( = 0.2) s
3314 4921 mt 
(Time \(s\)) s
 577 3058 mt  -90 rotate
(% Fluorescence) s
90 rotate
%%IncludeResource: font Helvetica
/Helvetica /ISOLatin1Encoding 120 FMSR

 882 4658 mt 
( ) s
6239  511 mt 
( ) s
5656  664 mt 
(mother) s
gs 5217 529 980 335 rc
c8
338 0 5284 621 2 MP stroke
gs 5380 548 147 147 rc
  36   36 5453  621 FO
gr

gr

c8
0 sg
5656  813 mt 
(daughter) s
gs 5217 529 980 335 rc
c9
338 0 5284 770 2 MP stroke
gs 5380 697 147 147 rc
  36   36 5453  770 FO
gr

gr

c9

end %%Color Dict

eplot
%%EndObject

epage
end

showpage

%%Trailer
%%EOF
