%!PS-Adobe-3.0 EPSF-3.0
%%Creator: MATLAB, The MathWorks, Inc. Version 8.1.0.604 (R2013a). Operating System: Darwin 11.4.2 Darwin Kernel Version 11.4.2: Thu Aug 23 16:25:48 PDT 2012; root:xnu-1699.32.7~1/RELEASE_X86_64 x86_64.
%%Title: ./LA_Nup49-volexc_no.eps
%%CreationDate: 07/25/2013  10:23:22
%%DocumentNeededFonts: Helvetica
%%DocumentProcessColors: Cyan Magenta Yellow Black
%%LanguageLevel: 2
%%Pages: 1
%%BoundingBox:    52   197   551   616
%%EndComments

%%BeginProlog
% MathWorks dictionary
/MathWorks 160 dict begin
% definition operators
/bdef {bind def} bind def
/ldef {load def} bind def
/xdef {exch def} bdef
/xstore {exch store} bdef
% operator abbreviations
/c  /clip ldef
/cc /concat ldef
/cp /closepath ldef
/gr /grestore ldef
/gs /gsave ldef
/mt /moveto ldef
/np /newpath ldef
/cm /currentmatrix ldef
/sm /setmatrix ldef
/rm /rmoveto ldef
/rl /rlineto ldef
/s {show newpath} bdef
/sc {setcmykcolor} bdef
/sr /setrgbcolor ldef
/sg /setgray ldef
/w /setlinewidth ldef
/j /setlinejoin ldef
/cap /setlinecap ldef
/rc {rectclip} bdef
/rf {rectfill} bdef
% page state control
/pgsv () def
/bpage {/pgsv save def} bdef
/epage {pgsv restore} bdef
/bplot /gsave ldef
/eplot {stroke grestore} bdef
% orientation switch
/portraitMode 0 def /landscapeMode 1 def /rotateMode 2 def
% coordinate system mappings
/dpi2point 0 def
% font control
/FontSize 0 def
/FMS {/FontSize xstore findfont [FontSize 0 0 FontSize neg 0 0]
  makefont setfont} bdef
/reencode {exch dup where {pop load} {pop StandardEncoding} ifelse
  exch dup 3 1 roll findfont dup length dict begin
  { 1 index /FID ne {def}{pop pop} ifelse } forall
  /Encoding exch def currentdict end definefont pop} bdef
/isroman {findfont /CharStrings get /Agrave known} bdef
/FMSR {3 1 roll 1 index dup isroman {reencode} {pop pop} ifelse
  exch FMS} bdef
/csm {1 dpi2point div -1 dpi2point div scale neg translate
 dup landscapeMode eq {pop -90 rotate}
  {rotateMode eq {90 rotate} if} ifelse} bdef
% line types: solid, dotted, dashed, dotdash
/SO { [] 0 setdash } bdef
/DO { [.5 dpi2point mul 4 dpi2point mul] 0 setdash } bdef
/DA { [6 dpi2point mul] 0 setdash } bdef
/DD { [.5 dpi2point mul 4 dpi2point mul 6 dpi2point mul 4
  dpi2point mul] 0 setdash } bdef
% macros for lines and objects
/L {lineto stroke} bdef
/MP {3 1 roll moveto 1 sub {rlineto} repeat} bdef
/AP {{rlineto} repeat} bdef
/PDlw -1 def
/W {/PDlw currentlinewidth def setlinewidth} def
/PP {closepath eofill} bdef
/DP {closepath stroke} bdef
/MR {4 -2 roll moveto dup  0 exch rlineto exch 0 rlineto
  neg 0 exch rlineto closepath} bdef
/FR {MR stroke} bdef
/PR {MR fill} bdef
/L1i {{currentfile picstr readhexstring pop} image} bdef
/tMatrix matrix def
/MakeOval {newpath tMatrix currentmatrix pop translate scale
0 0 1 0 360 arc tMatrix setmatrix} bdef
/FO {MakeOval stroke} bdef
/PO {MakeOval fill} bdef
/PD {currentlinewidth 2 div 0 360 arc fill
   PDlw -1 eq not {PDlw w /PDlw -1 def} if} def
/FA {newpath tMatrix currentmatrix pop translate scale
  0 0 1 5 -2 roll arc tMatrix setmatrix stroke} bdef
/PA {newpath tMatrix currentmatrix pop	translate 0 0 moveto scale
  0 0 1 5 -2 roll arc closepath tMatrix setmatrix fill} bdef
/FAn {newpath tMatrix currentmatrix pop translate scale
  0 0 1 5 -2 roll arcn tMatrix setmatrix stroke} bdef
/PAn {newpath tMatrix currentmatrix pop translate 0 0 moveto scale
  0 0 1 5 -2 roll arcn closepath tMatrix setmatrix fill} bdef
/vradius 0 def /hradius 0 def /lry 0 def
/lrx 0 def /uly 0 def /ulx 0 def /rad 0 def
/MRR {/vradius xdef /hradius xdef /lry xdef /lrx xdef /uly xdef
  /ulx xdef newpath tMatrix currentmatrix pop ulx hradius add uly
  vradius add translate hradius vradius scale 0 0 1 180 270 arc 
  tMatrix setmatrix lrx hradius sub uly vradius add translate
  hradius vradius scale 0 0 1 270 360 arc tMatrix setmatrix
  lrx hradius sub lry vradius sub translate hradius vradius scale
  0 0 1 0 90 arc tMatrix setmatrix ulx hradius add lry vradius sub
  translate hradius vradius scale 0 0 1 90 180 arc tMatrix setmatrix
  closepath} bdef
/FRR {MRR stroke } bdef
/PRR {MRR fill } bdef
/MlrRR {/lry xdef /lrx xdef /uly xdef /ulx xdef /rad lry uly sub 2 div def
  newpath tMatrix currentmatrix pop ulx rad add uly rad add translate
  rad rad scale 0 0 1 90 270 arc tMatrix setmatrix lrx rad sub lry rad
  sub translate rad rad scale 0 0 1 270 90 arc tMatrix setmatrix
  closepath} bdef
/FlrRR {MlrRR stroke } bdef
/PlrRR {MlrRR fill } bdef
/MtbRR {/lry xdef /lrx xdef /uly xdef /ulx xdef /rad lrx ulx sub 2 div def
  newpath tMatrix currentmatrix pop ulx rad add uly rad add translate
  rad rad scale 0 0 1 180 360 arc tMatrix setmatrix lrx rad sub lry rad
  sub translate rad rad scale 0 0 1 0 180 arc tMatrix setmatrix
  closepath} bdef
/FtbRR {MtbRR stroke } bdef
/PtbRR {MtbRR fill } bdef
/stri 6 array def /dtri 6 array def
/smat 6 array def /dmat 6 array def
/tmat1 6 array def /tmat2 6 array def /dif 3 array def
/asub {/ind2 exch def /ind1 exch def dup dup
  ind1 get exch ind2 get sub exch } bdef
/tri_to_matrix {
  2 0 asub 3 1 asub 4 0 asub 5 1 asub
  dup 0 get exch 1 get 7 -1 roll astore } bdef
/compute_transform {
  dmat dtri tri_to_matrix tmat1 invertmatrix 
  smat stri tri_to_matrix tmat2 concatmatrix } bdef
/ds {stri astore pop} bdef
/dt {dtri astore pop} bdef
/db {2 copy /cols xdef /rows xdef mul dup 3 mul string
  currentfile 
  3 index 0 eq {/ASCIIHexDecode filter}
  {/ASCII85Decode filter 3 index 2 eq {/RunLengthDecode filter} if }
  ifelse exch readstring pop
  dup 0 3 index getinterval /rbmap xdef
  dup 2 index dup getinterval /gbmap xdef
  1 index dup 2 mul exch getinterval /bbmap xdef pop pop}bdef
/it {gs np dtri aload pop moveto lineto lineto cp c
  cols rows 8 compute_transform 
  rbmap gbmap bbmap true 3 colorimage gr}bdef
/il {newpath moveto lineto stroke}bdef
currentdict end def
%%EndProlog

%%BeginSetup
MathWorks begin

0 cap

end
%%EndSetup

%%Page: 1 1
%%BeginPageSetup
%%PageBoundingBox:    52   197   551   616
MathWorks begin
bpage
%%EndPageSetup

%%BeginObject: obj1
bplot

/dpi2point 12 def
portraitMode 0216 7344 csm

  418   -48  5986  5026 rc
85 dict begin %Colortable dictionary
/c0 { 0.000000 0.000000 0.000000 sr} bdef
/c1 { 1.000000 1.000000 1.000000 sr} bdef
/c2 { 0.900000 0.000000 0.000000 sr} bdef
/c3 { 0.000000 0.820000 0.000000 sr} bdef
/c4 { 0.000000 0.000000 0.800000 sr} bdef
/c5 { 0.910000 0.820000 0.320000 sr} bdef
/c6 { 1.000000 0.260000 0.820000 sr} bdef
/c7 { 0.000000 0.820000 0.820000 sr} bdef
c0
1 j
1 sg
   0    0 6913 5186 rf
6 w
0 4146 5356 0 0 -4146 899 4615 4 MP
PP
-5356 0 0 4146 5356 0 0 -4146 899 4615 5 MP stroke
4 w
DO
SO
6 w
0 sg
 899 4615 mt 6255 4615 L
 899  469 mt 6255  469 L
 899 4615 mt  899  469 L
6255 4615 mt 6255  469 L
 899 4615 mt 6255 4615 L
 899 4615 mt  899  469 L
 899 4615 mt  899 4561 L
 899  469 mt  899  522 L
%%IncludeResource: font Helvetica
/Helvetica /ISOLatin1Encoding 120 FMSR

 866 4760 mt 
(0) s
1791 4615 mt 1791 4561 L
1791  469 mt 1791  522 L
1725 4760 mt 
(50) s
2684 4615 mt 2684 4561 L
2684  469 mt 2684  522 L
2584 4760 mt 
(100) s
3577 4615 mt 3577 4561 L
3577  469 mt 3577  522 L
3477 4760 mt 
(150) s
4469 4615 mt 4469 4561 L
4469  469 mt 4469  522 L
4369 4760 mt 
(200) s
5362 4615 mt 5362 4561 L
5362  469 mt 5362  522 L
5262 4760 mt 
(250) s
6255 4615 mt 6255 4561 L
6255  469 mt 6255  522 L
6155 4760 mt 
(300) s
 899 4615 mt  952 4615 L
6255 4615 mt 6201 4615 L
 798 4659 mt 
(0) s
 899 4200 mt  952 4200 L
6255 4200 mt 6201 4200 L
 731 4244 mt 
(10) s
 899 3785 mt  952 3785 L
6255 3785 mt 6201 3785 L
 731 3829 mt 
(20) s
 899 3371 mt  952 3371 L
6255 3371 mt 6201 3371 L
 731 3415 mt 
(30) s
 899 2956 mt  952 2956 L
6255 2956 mt 6201 2956 L
 731 3000 mt 
(40) s
 899 2542 mt  952 2542 L
6255 2542 mt 6201 2542 L
 731 2586 mt 
(50) s
 899 2127 mt  952 2127 L
6255 2127 mt 6201 2127 L
 731 2171 mt 
(60) s
 899 1712 mt  952 1712 L
6255 1712 mt 6201 1712 L
 731 1756 mt 
(70) s
 899 1298 mt  952 1298 L
6255 1298 mt 6201 1298 L
 731 1342 mt 
(80) s
 899  883 mt  952  883 L
6255  883 mt 6201  883 L
 731  927 mt 
(90) s
 899  469 mt  952  469 L
6255  469 mt 6201  469 L
 664  513 mt 
(100) s
 899 4615 mt 6255 4615 L
 899  469 mt 6255  469 L
 899 4615 mt  899  469 L
6255 4615 mt 6255  469 L
gs 899 469 5357 4147 rc
899 469 PD
64 0 899 469 2 MP stroke
64 0 899 469 2 MP stroke
0 917 968 1681 2 MP stroke
128 0 904 1681 2 MP stroke
128 0 904 2598 2 MP stroke
0 804 1037 2106 2 MP stroke
128 0 973 2106 2 MP stroke
128 0 973 2910 2 MP stroke
0 960 1105 2267 2 MP stroke
128 0 1041 2267 2 MP stroke
128 0 1041 3227 2 MP stroke
0 884 1173 2559 2 MP stroke
129 0 1108 2559 2 MP stroke
129 0 1108 3443 2 MP stroke
0 749 1241 2786 2 MP stroke
129 0 1177 2786 2 MP stroke
129 0 1177 3535 2 MP stroke
0 701 1311 2964 2 MP stroke
129 0 1246 2964 2 MP stroke
129 0 1246 3665 2 MP stroke
0 841 1379 2992 2 MP stroke
129 0 1314 2992 2 MP stroke
129 0 1314 3833 2 MP stroke
0 802 1448 3107 2 MP stroke
129 0 1383 3107 2 MP stroke
129 0 1383 3909 2 MP stroke
0 867 1517 3151 2 MP stroke
128 0 1453 3151 2 MP stroke
128 0 1453 4018 2 MP stroke
0 792 1585 3210 2 MP stroke
129 0 1521 3210 2 MP stroke
129 0 1521 4002 2 MP stroke
0 727 1653 3382 2 MP stroke
129 0 1589 3382 2 MP stroke
129 0 1589 4109 2 MP stroke
0 716 1722 3445 2 MP stroke
128 0 1658 3445 2 MP stroke
128 0 1658 4161 2 MP stroke
0 730 1791 3507 2 MP stroke
129 0 1727 3507 2 MP stroke
129 0 1727 4237 2 MP stroke
0 655 1860 3559 2 MP stroke
129 0 1795 3559 2 MP stroke
129 0 1795 4214 2 MP stroke
0 616 1928 3699 2 MP stroke
128 0 1864 3699 2 MP stroke
128 0 1864 4315 2 MP stroke
0 591 1997 3737 2 MP stroke
129 0 1932 3737 2 MP stroke
129 0 1932 4328 2 MP stroke
0 635 2066 3743 2 MP stroke
129 0 2001 3743 2 MP stroke
129 0 2001 4378 2 MP stroke
0 598 2134 3781 2 MP stroke
128 0 2070 3781 2 MP stroke
128 0 2070 4379 2 MP stroke
0 626 2202 3812 2 MP stroke
129 0 2137 3812 2 MP stroke
129 0 2137 4438 2 MP stroke
0 585 2271 3880 2 MP stroke
129 0 2206 3880 2 MP stroke
129 0 2206 4465 2 MP stroke
0 604 2340 3900 2 MP stroke
129 0 2276 3900 2 MP stroke
129 0 2276 4504 2 MP stroke
0 560 2409 3953 2 MP stroke
129 0 2345 3953 2 MP stroke
129 0 2345 4513 2 MP stroke
0 559 2477 3942 2 MP stroke
129 0 2413 3942 2 MP stroke
129 0 2413 4501 2 MP stroke
0 462 2546 4043 2 MP stroke
129 0 2482 4043 2 MP stroke
129 0 2482 4505 2 MP stroke
0 586 2614 3963 2 MP stroke
129 0 2550 3963 2 MP stroke
129 0 2550 4549 2 MP stroke
0 515 2683 4011 2 MP stroke
128 0 2619 4011 2 MP stroke
128 0 2619 4526 2 MP stroke
0 539 2751 4005 2 MP stroke
129 0 2687 4005 2 MP stroke
129 0 2687 4544 2 MP stroke
0 498 2820 4108 2 MP stroke
128 0 2756 4108 2 MP stroke
128 0 2756 4606 2 MP stroke
0 620 2889 3996 2 MP stroke
129 0 2825 3996 2 MP stroke
0 484 2959 4132 2 MP stroke
129 0 2894 4132 2 MP stroke
0 524 3026 4092 2 MP stroke
128 0 2962 4092 2 MP stroke
0 499 3095 4117 2 MP stroke
129 0 3030 4117 2 MP stroke
0 514 3164 4102 2 MP stroke
128 0 3100 4102 2 MP stroke
0 360 3232 4256 2 MP stroke
129 0 3168 4256 2 MP stroke
0 383 3301 4233 2 MP stroke
129 0 3236 4233 2 MP stroke
0 362 3369 4254 2 MP stroke
129 0 3305 4254 2 MP stroke
0 377 3439 4239 2 MP stroke
129 0 3374 4239 2 MP stroke
0 395 3507 4221 2 MP stroke
128 0 3443 4221 2 MP stroke
0 354 3575 4262 2 MP stroke
128 0 3511 4262 2 MP stroke
0 312 3644 4304 2 MP stroke
129 0 3580 4304 2 MP stroke
0 358 3713 4258 2 MP stroke
128 0 3649 4258 2 MP stroke
0 283 3782 4333 2 MP stroke
128 0 3718 4333 2 MP stroke
0 293 3850 4323 2 MP stroke
128 0 3786 4323 2 MP stroke
0 372 3919 4244 2 MP stroke
129 0 3854 4244 2 MP stroke
0 289 3988 4327 2 MP stroke
129 0 3923 4327 2 MP stroke
0 235 4056 4381 2 MP stroke
129 0 3992 4381 2 MP stroke
0 260 4124 4356 2 MP stroke
129 0 4060 4356 2 MP stroke
0 242 4193 4374 2 MP stroke
129 0 4128 4374 2 MP stroke
0 238 4262 4378 2 MP stroke
128 0 4198 4378 2 MP stroke
0 212 4331 4404 2 MP stroke
129 0 4267 4404 2 MP stroke
0 153 4400 4463 2 MP stroke
129 0 4335 4463 2 MP stroke
0 197 4468 4419 2 MP stroke
128 0 4404 4419 2 MP stroke
0 188 4536 4428 2 MP stroke
129 0 4471 4428 2 MP stroke
0 198 4605 4418 2 MP stroke
129 0 4540 4418 2 MP stroke
0 158 4674 4458 2 MP stroke
128 0 4610 4458 2 MP stroke
0 142 4743 4474 2 MP stroke
129 0 4678 4474 2 MP stroke
0 170 4811 4446 2 MP stroke
129 0 4747 4446 2 MP stroke
0 188 4880 4428 2 MP stroke
128 0 4816 4428 2 MP stroke
0 219 4948 4397 2 MP stroke
128 0 4884 4397 2 MP stroke
0 226 5017 4390 2 MP stroke
129 0 4952 4390 2 MP stroke
0 161 5086 4455 2 MP stroke
129 0 5021 4455 2 MP stroke
0 131 5155 4485 2 MP stroke
128 0 5091 4485 2 MP stroke
0 142 5223 4474 2 MP stroke
129 0 5159 4474 2 MP stroke
0 138 5292 4478 2 MP stroke
129 0 5227 4478 2 MP stroke
0 122 5360 4494 2 MP stroke
129 0 5295 4494 2 MP stroke
0 115 5429 4501 2 MP stroke
129 0 5364 4501 2 MP stroke
0 212 5500 4404 2 MP stroke
129 0 5435 4404 2 MP stroke
0 162 5573 4454 2 MP stroke
129 0 5508 4454 2 MP stroke
0 177 5648 4439 2 MP stroke
128 0 5584 4439 2 MP stroke
0 165 5727 4451 2 MP stroke
129 0 5662 4451 2 MP stroke
0 165 5816 4451 2 MP stroke
128 0 5752 4451 2 MP stroke
0 122 5903 4494 2 MP stroke
128 0 5839 4494 2 MP stroke
0 114 5993 4502 2 MP stroke
129 0 5929 4502 2 MP stroke
0 122 6088 4494 2 MP stroke
129 0 6023 4494 2 MP stroke
0 160 6190 4456 2 MP stroke
129 0 6125 4456 2 MP stroke
2 0 6254 4522 2 MP stroke
48 17 68 -4 69 -4 69 31 69 -28 68 -2 69 16 68 -15 
69 17 69 8 69 18 68 -31 68 -16 69 22 69 12 69 -12 
69 64 68 -36 68 26 69 33 69 -1 68 -25 69 40 69 -24 
69 28 68 13 68 11 70 -7 68 29 69 -20 68 65 69 5 
69 10 67 -8 70 72 69 -45 69 83 68 6 69 12 68 -18 
69 53 68 -12 69 31 69 29 69 48 68 45 68 19 69 28 
69 26 68 121 69 14 69 69 69 57 68 140 68 22 69 76 
69 96 68 97 70 155 68 159 68 254 68 239 69 369 69 1670 
899 469 65 MP stroke
gr

 874  444 mt  924  494 L
 924  444 mt  874  494 L
 943 2114 mt  993 2164 L
 993 2114 mt  943 2164 L
1012 2483 mt 1062 2533 L
1062 2483 mt 1012 2533 L
1080 2722 mt 1130 2772 L
1130 2722 mt 1080 2772 L
1148 2976 mt 1198 3026 L
1198 2976 mt 1148 3026 L
1216 3135 mt 1266 3185 L
1266 3135 mt 1216 3185 L
1286 3290 mt 1336 3340 L
1336 3290 mt 1286 3340 L
1354 3387 mt 1404 3437 L
1404 3387 mt 1354 3437 L
1423 3483 mt 1473 3533 L
1473 3483 mt 1423 3533 L
1492 3559 mt 1542 3609 L
1542 3559 mt 1492 3609 L
1560 3581 mt 1610 3631 L
1610 3581 mt 1560 3631 L
1628 3721 mt 1678 3771 L
1678 3721 mt 1628 3771 L
1697 3778 mt 1747 3828 L
1747 3778 mt 1697 3828 L
1766 3847 mt 1816 3897 L
1816 3847 mt 1766 3897 L
1835 3861 mt 1885 3911 L
1885 3861 mt 1835 3911 L
1903 3982 mt 1953 4032 L
1953 3982 mt 1903 4032 L
1972 4008 mt 2022 4058 L
2022 4008 mt 1972 4058 L
2041 4036 mt 2091 4086 L
2091 4036 mt 2041 4086 L
2109 4055 mt 2159 4105 L
2159 4055 mt 2109 4105 L
2177 4100 mt 2227 4150 L
2227 4100 mt 2177 4150 L
2246 4148 mt 2296 4198 L
2296 4148 mt 2246 4198 L
2315 4177 mt 2365 4227 L
2365 4177 mt 2315 4227 L
2384 4208 mt 2434 4258 L
2434 4208 mt 2384 4258 L
2452 4196 mt 2502 4246 L
2502 4196 mt 2452 4246 L
2521 4249 mt 2571 4299 L
2571 4249 mt 2521 4299 L
2589 4231 mt 2639 4281 L
2639 4231 mt 2589 4281 L
2658 4243 mt 2708 4293 L
2708 4243 mt 2658 4293 L
2726 4249 mt 2776 4299 L
2776 4249 mt 2726 4299 L
2795 4332 mt 2845 4382 L
2845 4332 mt 2795 4382 L
2864 4287 mt 2914 4337 L
2914 4287 mt 2864 4337 L
2934 4359 mt 2984 4409 L
2984 4359 mt 2934 4409 L
3001 4351 mt 3051 4401 L
3051 4351 mt 3001 4401 L
3070 4361 mt 3120 4411 L
3120 4361 mt 3070 4411 L
3139 4366 mt 3189 4416 L
3189 4366 mt 3139 4416 L
3207 4431 mt 3257 4481 L
3257 4431 mt 3207 4481 L
3276 4411 mt 3326 4461 L
3326 4411 mt 3276 4461 L
3344 4440 mt 3394 4490 L
3394 4440 mt 3344 4490 L
3414 4433 mt 3464 4483 L
3464 4433 mt 3414 4483 L
3482 4444 mt 3532 4494 L
3532 4444 mt 3482 4494 L
3550 4457 mt 3600 4507 L
3600 4457 mt 3550 4507 L
3619 4485 mt 3669 4535 L
3669 4485 mt 3619 4535 L
3688 4461 mt 3738 4511 L
3738 4461 mt 3688 4511 L
3757 4501 mt 3807 4551 L
3807 4501 mt 3757 4551 L
3825 4476 mt 3875 4526 L
3875 4476 mt 3825 4526 L
3894 4475 mt 3944 4525 L
3944 4475 mt 3894 4525 L
3963 4508 mt 4013 4558 L
4013 4508 mt 3963 4558 L
4031 4534 mt 4081 4584 L
4081 4534 mt 4031 4584 L
4099 4498 mt 4149 4548 L
4149 4498 mt 4099 4548 L
4168 4562 mt 4218 4612 L
4218 4562 mt 4168 4612 L
4237 4550 mt 4287 4600 L
4287 4550 mt 4237 4600 L
4306 4562 mt 4356 4612 L
4356 4562 mt 4306 4612 L
4375 4584 mt 4425 4634 L
4425 4584 mt 4375 4634 L
4443 4568 mt 4493 4618 L
4493 4568 mt 4443 4618 L
4511 4537 mt 4561 4587 L
4561 4537 mt 4511 4587 L
4580 4555 mt 4630 4605 L
4630 4555 mt 4580 4605 L
4649 4563 mt 4699 4613 L
4699 4563 mt 4649 4613 L
4718 4580 mt 4768 4630 L
4768 4580 mt 4718 4630 L
4786 4565 mt 4836 4615 L
4836 4565 mt 4786 4615 L
4855 4581 mt 4905 4631 L
4905 4581 mt 4855 4631 L
4923 4579 mt 4973 4629 L
4973 4579 mt 4923 4629 L
4992 4551 mt 5042 4601 L
5042 4551 mt 4992 4601 L
5061 4582 mt 5111 4632 L
5111 4582 mt 5061 4632 L
5130 4578 mt 5180 4628 L
5180 4578 mt 5130 4628 L
5198 4574 mt 5248 4624 L
5248 4574 mt 5198 4624 L
gs 899 469 5357 4147 rc
68 22 89 2 79 -19 75 5 73 18 45 -28 5455 4616 7 MP stroke
gr

5475 4563 mt 5525 4613 L
5525 4563 mt 5475 4613 L
5548 4581 mt 5598 4631 L
5598 4581 mt 5548 4631 L
5623 4586 mt 5673 4636 L
5673 4586 mt 5623 4636 L
5702 4567 mt 5752 4617 L
5752 4567 mt 5702 4617 L
5791 4569 mt 5841 4619 L
5841 4569 mt 5791 4619 L
gs 899 469 5357 4147 rc
29 16 64 -16 6126 4616 3 MP stroke
gr

6165 4575 mt 6215 4625 L
6215 4575 mt 6165 4625 L
gs 899 469 5357 4147 rc
899 469 PD
64 0 899 469 2 MP stroke
64 0 899 469 2 MP stroke
0 664 968 469 2 MP stroke
128 0 904 1133 2 MP stroke
0 595 1037 568 2 MP stroke
128 0 973 568 2 MP stroke
128 0 973 1163 2 MP stroke
0 733 1105 469 2 MP stroke
128 0 1041 1202 2 MP stroke
0 631 1173 646 2 MP stroke
129 0 1108 646 2 MP stroke
129 0 1108 1277 2 MP stroke
0 560 1241 666 2 MP stroke
129 0 1177 666 2 MP stroke
129 0 1177 1226 2 MP stroke
0 753 1311 628 2 MP stroke
129 0 1246 628 2 MP stroke
129 0 1246 1381 2 MP stroke
0 784 1379 684 2 MP stroke
129 0 1314 684 2 MP stroke
129 0 1314 1468 2 MP stroke
0 600 1448 666 2 MP stroke
129 0 1383 666 2 MP stroke
129 0 1383 1266 2 MP stroke
0 781 1517 644 2 MP stroke
128 0 1453 644 2 MP stroke
128 0 1453 1425 2 MP stroke
0 621 1585 731 2 MP stroke
129 0 1521 731 2 MP stroke
129 0 1521 1352 2 MP stroke
0 1025 1653 600 2 MP stroke
129 0 1589 600 2 MP stroke
129 0 1589 1625 2 MP stroke
0 1026 1722 542 2 MP stroke
128 0 1658 542 2 MP stroke
128 0 1658 1568 2 MP stroke
0 908 1791 701 2 MP stroke
129 0 1727 701 2 MP stroke
129 0 1727 1609 2 MP stroke
0 955 1860 627 2 MP stroke
129 0 1795 627 2 MP stroke
129 0 1795 1582 2 MP stroke
0 1073 1928 571 2 MP stroke
128 0 1864 571 2 MP stroke
128 0 1864 1644 2 MP stroke
0 1001 1997 605 2 MP stroke
129 0 1932 605 2 MP stroke
129 0 1932 1606 2 MP stroke
0 1121 2066 504 2 MP stroke
129 0 2001 504 2 MP stroke
129 0 2001 1625 2 MP stroke
0 1355 2134 489 2 MP stroke
128 0 2070 489 2 MP stroke
128 0 2070 1844 2 MP stroke
0 1186 2202 632 2 MP stroke
129 0 2137 632 2 MP stroke
129 0 2137 1818 2 MP stroke
0 1430 2271 529 2 MP stroke
129 0 2206 529 2 MP stroke
129 0 2206 1959 2 MP stroke
0 1397 2340 578 2 MP stroke
129 0 2276 578 2 MP stroke
129 0 2276 1975 2 MP stroke
0 1363 2409 608 2 MP stroke
129 0 2345 608 2 MP stroke
129 0 2345 1971 2 MP stroke
0 1024 2477 758 2 MP stroke
129 0 2413 758 2 MP stroke
129 0 2413 1782 2 MP stroke
0 998 2546 710 2 MP stroke
129 0 2482 710 2 MP stroke
129 0 2482 1708 2 MP stroke
0 1137 2614 702 2 MP stroke
129 0 2550 702 2 MP stroke
129 0 2550 1839 2 MP stroke
0 1093 2683 741 2 MP stroke
128 0 2619 741 2 MP stroke
128 0 2619 1834 2 MP stroke
0 1201 2751 688 2 MP stroke
129 0 2687 688 2 MP stroke
129 0 2687 1889 2 MP stroke
0 1261 2820 606 2 MP stroke
128 0 2756 606 2 MP stroke
128 0 2756 1867 2 MP stroke
0 1329 2889 662 2 MP stroke
129 0 2825 662 2 MP stroke
129 0 2825 1991 2 MP stroke
0 1335 2959 545 2 MP stroke
129 0 2894 545 2 MP stroke
129 0 2894 1880 2 MP stroke
0 1195 3026 640 2 MP stroke
128 0 2962 640 2 MP stroke
128 0 2962 1835 2 MP stroke
0 1413 3095 566 2 MP stroke
129 0 3030 566 2 MP stroke
129 0 3030 1979 2 MP stroke
0 1262 3164 669 2 MP stroke
128 0 3100 669 2 MP stroke
128 0 3100 1931 2 MP stroke
0 1075 3232 649 2 MP stroke
129 0 3168 649 2 MP stroke
129 0 3168 1724 2 MP stroke
0 1174 3301 589 2 MP stroke
129 0 3236 589 2 MP stroke
129 0 3236 1763 2 MP stroke
0 1021 3369 868 2 MP stroke
129 0 3305 868 2 MP stroke
129 0 3305 1889 2 MP stroke
0 988 3439 899 2 MP stroke
129 0 3374 899 2 MP stroke
129 0 3374 1887 2 MP stroke
0 1116 3507 712 2 MP stroke
128 0 3443 712 2 MP stroke
128 0 3443 1828 2 MP stroke
0 1021 3575 811 2 MP stroke
128 0 3511 811 2 MP stroke
128 0 3511 1832 2 MP stroke
0 1008 3644 966 2 MP stroke
129 0 3580 966 2 MP stroke
129 0 3580 1974 2 MP stroke
0 900 3713 989 2 MP stroke
128 0 3649 989 2 MP stroke
128 0 3649 1889 2 MP stroke
0 923 3782 936 2 MP stroke
128 0 3718 936 2 MP stroke
128 0 3718 1859 2 MP stroke
0 947 3850 917 2 MP stroke
128 0 3786 917 2 MP stroke
128 0 3786 1864 2 MP stroke
0 991 3919 873 2 MP stroke
129 0 3854 873 2 MP stroke
129 0 3854 1864 2 MP stroke
0 1132 3988 840 2 MP stroke
129 0 3923 840 2 MP stroke
129 0 3923 1972 2 MP stroke
0 943 4056 974 2 MP stroke
129 0 3992 974 2 MP stroke
129 0 3992 1917 2 MP stroke
0 1045 4124 861 2 MP stroke
129 0 4060 861 2 MP stroke
129 0 4060 1906 2 MP stroke
0 1080 4193 878 2 MP stroke
129 0 4128 878 2 MP stroke
129 0 4128 1958 2 MP stroke
0 1005 4262 924 2 MP stroke
128 0 4198 924 2 MP stroke
128 0 4198 1929 2 MP stroke
0 1076 4331 979 2 MP stroke
129 0 4267 979 2 MP stroke
129 0 4267 2055 2 MP stroke
0 822 4400 955 2 MP stroke
129 0 4335 955 2 MP stroke
129 0 4335 1777 2 MP stroke
0 903 4468 1084 2 MP stroke
128 0 4404 1084 2 MP stroke
128 0 4404 1987 2 MP stroke
0 1184 4536 984 2 MP stroke
129 0 4471 984 2 MP stroke
129 0 4471 2168 2 MP stroke
0 1046 4605 981 2 MP stroke
129 0 4540 981 2 MP stroke
129 0 4540 2027 2 MP stroke
0 1021 4674 1035 2 MP stroke
128 0 4610 1035 2 MP stroke
128 0 4610 2056 2 MP stroke
0 1041 4743 876 2 MP stroke
129 0 4678 876 2 MP stroke
129 0 4678 1917 2 MP stroke
0 1105 4811 964 2 MP stroke
129 0 4747 964 2 MP stroke
129 0 4747 2069 2 MP stroke
0 1325 4880 790 2 MP stroke
128 0 4816 790 2 MP stroke
128 0 4816 2115 2 MP stroke
0 1160 4948 932 2 MP stroke
128 0 4884 932 2 MP stroke
128 0 4884 2092 2 MP stroke
0 979 5017 961 2 MP stroke
129 0 4952 961 2 MP stroke
129 0 4952 1940 2 MP stroke
0 1060 5086 939 2 MP stroke
129 0 5021 939 2 MP stroke
129 0 5021 1999 2 MP stroke
0 969 5155 883 2 MP stroke
128 0 5091 883 2 MP stroke
128 0 5091 1852 2 MP stroke
0 1119 5223 922 2 MP stroke
129 0 5159 922 2 MP stroke
129 0 5159 2041 2 MP stroke
0 1144 5292 1068 2 MP stroke
129 0 5227 1068 2 MP stroke
129 0 5227 2212 2 MP stroke
0 1130 5360 930 2 MP stroke
129 0 5295 930 2 MP stroke
129 0 5295 2060 2 MP stroke
0 917 5429 1026 2 MP stroke
129 0 5364 1026 2 MP stroke
129 0 5364 1943 2 MP stroke
0 1043 5500 1082 2 MP stroke
129 0 5435 1082 2 MP stroke
129 0 5435 2125 2 MP stroke
0 923 5573 953 2 MP stroke
129 0 5508 953 2 MP stroke
129 0 5508 1876 2 MP stroke
0 1320 5648 731 2 MP stroke
128 0 5584 731 2 MP stroke
128 0 5584 2051 2 MP stroke
0 1098 5727 1076 2 MP stroke
129 0 5662 1076 2 MP stroke
129 0 5662 2174 2 MP stroke
0 922 5816 978 2 MP stroke
128 0 5752 978 2 MP stroke
128 0 5752 1900 2 MP stroke
0 1002 5903 987 2 MP stroke
128 0 5839 987 2 MP stroke
128 0 5839 1989 2 MP stroke
0 872 5993 1018 2 MP stroke
129 0 5929 1018 2 MP stroke
129 0 5929 1890 2 MP stroke
0 1036 6088 906 2 MP stroke
129 0 6023 906 2 MP stroke
129 0 6023 1942 2 MP stroke
0 1213 6190 1003 2 MP stroke
129 0 6125 1003 2 MP stroke
129 0 6125 2216 2 MP stroke
2 0 6254 958 2 MP stroke
2 0 6254 2252 2 MP stroke
66 -3 102 186 95 -30 90 -34 87 49 89 -186 79 234 75 -24 
73 -188 71 118 69 -10 68 -145 69 159 68 114 69 -102 69 19 
69 -62 68 60 69 -64 68 119 69 -149 69 42 69 -72 68 41 
68 169 69 -151 69 91 69 8 69 34 68 -62 68 40 69 38 
69 -23 68 -6 69 -42 69 -31 69 149 68 51 68 -123 70 14 
68 203 69 -10 68 -114 69 27 69 36 67 25 70 -114 69 89 
69 -51 68 0 69 17 68 62 69 -61 68 -20 69 14 69 32 
69 19 68 59 68 101 69 -41 69 -2 68 4 69 -51 69 100 
69 -57 68 71 68 6 69 69 69 -110 68 72 70 58 68 -16 
68 170 68 -74 69 167 69 230 899 469 77 MP stroke
gr

 874  444 mt  924  494 L
 924  444 mt  874  494 L
 943  674 mt  993  724 L
 993  674 mt  943  724 L
1012  841 mt 1062  891 L
1062  841 mt 1012  891 L
1080  767 mt 1130  817 L
1130  767 mt 1080  817 L
1148  937 mt 1198  987 L
1198  937 mt 1148  987 L
1216  921 mt 1266  971 L
1266  921 mt 1216  971 L
1286  979 mt 1336 1029 L
1336  979 mt 1286 1029 L
1354 1051 mt 1404 1101 L
1404 1051 mt 1354 1101 L
1423  941 mt 1473  991 L
1473  941 mt 1423  991 L
1492 1010 mt 1542 1060 L
1542 1010 mt 1492 1060 L
1560 1016 mt 1610 1066 L
1610 1016 mt 1560 1066 L
1628 1087 mt 1678 1137 L
1678 1087 mt 1628 1137 L
1697 1030 mt 1747 1080 L
1747 1030 mt 1697 1080 L
1766 1130 mt 1816 1180 L
1816 1130 mt 1766 1180 L
1835 1079 mt 1885 1129 L
1885 1079 mt 1835 1129 L
1903 1083 mt 1953 1133 L
1953 1083 mt 1903 1133 L
1972 1081 mt 2022 1131 L
2022 1081 mt 1972 1131 L
2041 1040 mt 2091 1090 L
2091 1040 mt 2041 1090 L
2109 1141 mt 2159 1191 L
2159 1141 mt 2109 1191 L
2177 1200 mt 2227 1250 L
2227 1200 mt 2177 1250 L
2246 1219 mt 2296 1269 L
2296 1219 mt 2246 1269 L
2315 1251 mt 2365 1301 L
2365 1251 mt 2315 1301 L
2384 1265 mt 2434 1315 L
2434 1265 mt 2384 1315 L
2452 1245 mt 2502 1295 L
2502 1245 mt 2452 1295 L
2521 1184 mt 2571 1234 L
2571 1184 mt 2521 1234 L
2589 1246 mt 2639 1296 L
2639 1246 mt 2589 1296 L
2658 1263 mt 2708 1313 L
2708 1263 mt 2658 1313 L
2726 1263 mt 2776 1313 L
2776 1263 mt 2726 1313 L
2795 1212 mt 2845 1262 L
2845 1212 mt 2795 1262 L
2864 1301 mt 2914 1351 L
2914 1301 mt 2864 1351 L
2934 1187 mt 2984 1237 L
2984 1187 mt 2934 1237 L
3001 1212 mt 3051 1262 L
3051 1212 mt 3001 1262 L
3070 1248 mt 3120 1298 L
3120 1248 mt 3070 1298 L
3139 1275 mt 3189 1325 L
3189 1275 mt 3139 1325 L
3207 1161 mt 3257 1211 L
3257 1161 mt 3207 1211 L
3276 1151 mt 3326 1201 L
3326 1151 mt 3276 1201 L
3344 1354 mt 3394 1404 L
3394 1354 mt 3344 1404 L
3414 1368 mt 3464 1418 L
3464 1368 mt 3414 1418 L
3482 1245 mt 3532 1295 L
3532 1245 mt 3482 1295 L
3550 1296 mt 3600 1346 L
3600 1296 mt 3550 1346 L
3619 1445 mt 3669 1495 L
3669 1445 mt 3619 1495 L
3688 1414 mt 3738 1464 L
3738 1414 mt 3688 1464 L
3757 1372 mt 3807 1422 L
3807 1372 mt 3757 1422 L
3825 1366 mt 3875 1416 L
3875 1366 mt 3825 1416 L
3894 1343 mt 3944 1393 L
3944 1343 mt 3894 1393 L
3963 1381 mt 4013 1431 L
4013 1381 mt 3963 1431 L
4031 1421 mt 4081 1471 L
4081 1421 mt 4031 1471 L
4099 1359 mt 4149 1409 L
4149 1359 mt 4099 1409 L
4168 1393 mt 4218 1443 L
4218 1393 mt 4168 1443 L
4237 1401 mt 4287 1451 L
4287 1401 mt 4237 1451 L
4306 1492 mt 4356 1542 L
4356 1492 mt 4306 1542 L
4375 1341 mt 4425 1391 L
4425 1341 mt 4375 1391 L
4443 1510 mt 4493 1560 L
4493 1510 mt 4443 1560 L
4511 1551 mt 4561 1601 L
4561 1551 mt 4511 1601 L
4580 1479 mt 4630 1529 L
4630 1479 mt 4580 1529 L
4649 1521 mt 4699 1571 L
4699 1521 mt 4649 1571 L
4718 1372 mt 4768 1422 L
4768 1372 mt 4718 1422 L
4786 1491 mt 4836 1541 L
4836 1491 mt 4786 1541 L
4855 1427 mt 4905 1477 L
4905 1427 mt 4855 1477 L
4923 1487 mt 4973 1537 L
4973 1487 mt 4923 1537 L
4992 1425 mt 5042 1475 L
5042 1425 mt 4992 1475 L
5061 1444 mt 5111 1494 L
5111 1444 mt 5061 1494 L
5130 1342 mt 5180 1392 L
5180 1342 mt 5130 1392 L
5198 1456 mt 5248 1506 L
5248 1456 mt 5198 1506 L
5267 1615 mt 5317 1665 L
5317 1615 mt 5267 1665 L
5335 1470 mt 5385 1520 L
5385 1470 mt 5335 1520 L
5404 1460 mt 5454 1510 L
5454 1460 mt 5404 1510 L
5475 1578 mt 5525 1628 L
5525 1578 mt 5475 1628 L
5548 1390 mt 5598 1440 L
5598 1390 mt 5548 1440 L
5623 1366 mt 5673 1416 L
5673 1366 mt 5623 1416 L
5702 1600 mt 5752 1650 L
5752 1600 mt 5702 1650 L
5791 1414 mt 5841 1464 L
5841 1414 mt 5791 1464 L
5878 1463 mt 5928 1513 L
5928 1463 mt 5878 1513 L
5968 1429 mt 6018 1479 L
6018 1429 mt 5968 1479 L
6063 1399 mt 6113 1449 L
6113 1399 mt 6063 1449 L
6165 1585 mt 6215 1635 L
6215 1585 mt 6165 1635 L
gs 899 469 5357 4147 rc
/c8 { 1.000000 0.000000 0.000000 sr} bdef
c8
899 469 PD
53 0 899 469 2 MP stroke
53 0 899 469 2 MP stroke
0 334 934 1042 2 MP stroke
89 0 899 1042 2 MP stroke
89 0 899 1376 2 MP stroke
0 525 970 1379 2 MP stroke
107 0 916 1379 2 MP stroke
107 0 916 1904 2 MP stroke
0 544 1006 1700 2 MP stroke
107 0 952 1700 2 MP stroke
107 0 952 2244 2 MP stroke
0 600 1041 1965 2 MP stroke
107 0 988 1965 2 MP stroke
107 0 988 2565 2 MP stroke
0 613 1077 2232 2 MP stroke
108 0 1023 2232 2 MP stroke
108 0 1023 2845 2 MP stroke
0 595 1113 2496 2 MP stroke
107 0 1059 2496 2 MP stroke
107 0 1059 3091 2 MP stroke
0 646 1148 2712 2 MP stroke
107 0 1095 2712 2 MP stroke
107 0 1095 3358 2 MP stroke
0 644 1184 2924 2 MP stroke
107 0 1131 2924 2 MP stroke
107 0 1131 3568 2 MP stroke
0 561 1220 3108 2 MP stroke
107 0 1166 3108 2 MP stroke
107 0 1166 3669 2 MP stroke
0 576 1256 3234 2 MP stroke
107 0 1202 3234 2 MP stroke
107 0 1202 3810 2 MP stroke
0 522 1291 3387 2 MP stroke
107 0 1238 3387 2 MP stroke
107 0 1238 3909 2 MP stroke
0 491 1327 3513 2 MP stroke
108 0 1273 3513 2 MP stroke
108 0 1273 4004 2 MP stroke
0 449 1363 3637 2 MP stroke
107 0 1309 3637 2 MP stroke
107 0 1309 4086 2 MP stroke
0 428 1398 3719 2 MP stroke
107 0 1345 3719 2 MP stroke
107 0 1345 4147 2 MP stroke
0 384 1434 3814 2 MP stroke
107 0 1381 3814 2 MP stroke
107 0 1381 4198 2 MP stroke
0 358 1470 3880 2 MP stroke
107 0 1416 3880 2 MP stroke
107 0 1416 4238 2 MP stroke
0 342 1506 3955 2 MP stroke
107 0 1452 3955 2 MP stroke
107 0 1452 4297 2 MP stroke
0 340 1541 4017 2 MP stroke
107 0 1488 4017 2 MP stroke
107 0 1488 4357 2 MP stroke
0 331 1577 4061 2 MP stroke
107 0 1523 4061 2 MP stroke
107 0 1523 4392 2 MP stroke
0 341 1613 4086 2 MP stroke
107 0 1559 4086 2 MP stroke
107 0 1559 4427 2 MP stroke
0 337 1648 4121 2 MP stroke
107 0 1595 4121 2 MP stroke
107 0 1595 4458 2 MP stroke
0 319 1684 4159 2 MP stroke
108 0 1630 4159 2 MP stroke
108 0 1630 4478 2 MP stroke
0 292 1720 4193 2 MP stroke
107 0 1666 4193 2 MP stroke
107 0 1666 4485 2 MP stroke
0 272 1755 4228 2 MP stroke
107 0 1702 4228 2 MP stroke
107 0 1702 4500 2 MP stroke
0 236 1791 4267 2 MP stroke
107 0 1738 4267 2 MP stroke
107 0 1738 4503 2 MP stroke
0 223 1827 4297 2 MP stroke
107 0 1773 4297 2 MP stroke
107 0 1773 4520 2 MP stroke
0 207 1863 4319 2 MP stroke
107 0 1809 4319 2 MP stroke
107 0 1809 4526 2 MP stroke
0 187 1898 4354 2 MP stroke
107 0 1845 4354 2 MP stroke
107 0 1845 4541 2 MP stroke
0 157 1934 4380 2 MP stroke
108 0 1880 4380 2 MP stroke
108 0 1880 4537 2 MP stroke
0 176 1970 4371 2 MP stroke
107 0 1916 4371 2 MP stroke
107 0 1916 4547 2 MP stroke
0 181 2005 4378 2 MP stroke
107 0 1952 4378 2 MP stroke
107 0 1952 4559 2 MP stroke
0 182 2041 4373 2 MP stroke
107 0 1988 4373 2 MP stroke
107 0 1988 4555 2 MP stroke
0 180 2077 4373 2 MP stroke
107 0 2023 4373 2 MP stroke
107 0 2023 4553 2 MP stroke
0 167 2113 4382 2 MP stroke
107 0 2059 4382 2 MP stroke
107 0 2059 4549 2 MP stroke
0 187 2148 4385 2 MP stroke
107 0 2095 4385 2 MP stroke
107 0 2095 4572 2 MP stroke
0 162 2184 4403 2 MP stroke
108 0 2130 4403 2 MP stroke
108 0 2130 4565 2 MP stroke
0 162 2220 4399 2 MP stroke
107 0 2166 4399 2 MP stroke
107 0 2166 4561 2 MP stroke
0 165 2255 4405 2 MP stroke
107 0 2202 4405 2 MP stroke
107 0 2202 4570 2 MP stroke
0 152 2291 4425 2 MP stroke
107 0 2238 4425 2 MP stroke
107 0 2238 4577 2 MP stroke
0 139 2327 4439 2 MP stroke
107 0 2273 4439 2 MP stroke
107 0 2273 4578 2 MP stroke
0 111 2362 4460 2 MP stroke
107 0 2309 4460 2 MP stroke
107 0 2309 4571 2 MP stroke
0 112 2398 4466 2 MP stroke
107 0 2345 4466 2 MP stroke
107 0 2345 4578 2 MP stroke
0 109 2434 4466 2 MP stroke
107 0 2380 4466 2 MP stroke
107 0 2380 4575 2 MP stroke
0 102 2470 4483 2 MP stroke
107 0 2416 4483 2 MP stroke
107 0 2416 4585 2 MP stroke
0 96 2505 4487 2 MP stroke
107 0 2452 4487 2 MP stroke
107 0 2452 4583 2 MP stroke
0 120 2541 4479 2 MP stroke
108 0 2487 4479 2 MP stroke
108 0 2487 4599 2 MP stroke
0 123 2577 4468 2 MP stroke
107 0 2523 4468 2 MP stroke
107 0 2523 4591 2 MP stroke
0 112 2612 4476 2 MP stroke
107 0 2559 4476 2 MP stroke
107 0 2559 4588 2 MP stroke
0 116 2648 4477 2 MP stroke
107 0 2595 4477 2 MP stroke
107 0 2595 4593 2 MP stroke
0 119 2684 4477 2 MP stroke
107 0 2630 4477 2 MP stroke
107 0 2630 4596 2 MP stroke
0 120 2720 4477 2 MP stroke
107 0 2666 4477 2 MP stroke
107 0 2666 4597 2 MP stroke
0 120 2755 4482 2 MP stroke
107 0 2702 4482 2 MP stroke
107 0 2702 4602 2 MP stroke
0 120 2791 4481 2 MP stroke
108 0 2737 4481 2 MP stroke
108 0 2737 4601 2 MP stroke
0 146 2827 4467 2 MP stroke
107 0 2773 4467 2 MP stroke
107 0 2773 4613 2 MP stroke
0 124 2862 4476 2 MP stroke
107 0 2809 4476 2 MP stroke
107 0 2809 4600 2 MP stroke
0 116 2898 4487 2 MP stroke
107 0 2845 4487 2 MP stroke
107 0 2845 4603 2 MP stroke
0 100 2934 4500 2 MP stroke
107 0 2880 4500 2 MP stroke
107 0 2880 4600 2 MP stroke
0 106 2969 4496 2 MP stroke
107 0 2916 4496 2 MP stroke
107 0 2916 4602 2 MP stroke
0 109 3005 4493 2 MP stroke
107 0 2952 4493 2 MP stroke
107 0 2952 4602 2 MP stroke
0 123 3041 4481 2 MP stroke
107 0 2987 4481 2 MP stroke
107 0 2987 4604 2 MP stroke
0 128 3077 4475 2 MP stroke
107 0 3023 4475 2 MP stroke
107 0 3023 4603 2 MP stroke
0 135 3112 4464 2 MP stroke
107 0 3059 4464 2 MP stroke
107 0 3059 4599 2 MP stroke
0 146 3148 4463 2 MP stroke
108 0 3094 4463 2 MP stroke
108 0 3094 4609 2 MP stroke
0 142 3184 4463 2 MP stroke
107 0 3130 4463 2 MP stroke
107 0 3130 4605 2 MP stroke
0 152 3219 4460 2 MP stroke
107 0 3166 4460 2 MP stroke
107 0 3166 4612 2 MP stroke
0 167 3255 4444 2 MP stroke
107 0 3202 4444 2 MP stroke
107 0 3202 4611 2 MP stroke
0 161 3291 4440 2 MP stroke
107 0 3237 4440 2 MP stroke
107 0 3237 4601 2 MP stroke
0 163 3327 4437 2 MP stroke
107 0 3273 4437 2 MP stroke
107 0 3273 4600 2 MP stroke
0 173 3362 4430 2 MP stroke
107 0 3309 4430 2 MP stroke
107 0 3309 4603 2 MP stroke
0 147 3398 4446 2 MP stroke
108 0 3344 4446 2 MP stroke
108 0 3344 4593 2 MP stroke
0 141 3434 4457 2 MP stroke
107 0 3380 4457 2 MP stroke
107 0 3380 4598 2 MP stroke
0 144 3469 4460 2 MP stroke
107 0 3416 4460 2 MP stroke
107 0 3416 4604 2 MP stroke
0 152 3505 4460 2 MP stroke
107 0 3452 4460 2 MP stroke
107 0 3452 4612 2 MP stroke
0 153 3541 4463 2 MP stroke
107 0 3487 4463 2 MP stroke
0 158 3577 4458 2 MP stroke
107 0 3523 4458 2 MP stroke
0 154 3612 4462 2 MP stroke
107 0 3559 4462 2 MP stroke
0 154 3648 4462 2 MP stroke
107 0 3594 4462 2 MP stroke
0 164 3684 4450 2 MP stroke
107 0 3630 4450 2 MP stroke
107 0 3630 4614 2 MP stroke
0 169 3719 4441 2 MP stroke
107 0 3666 4441 2 MP stroke
107 0 3666 4610 2 MP stroke
0 171 3755 4445 2 MP stroke
108 0 3701 4445 2 MP stroke
0 144 3791 4469 2 MP stroke
107 0 3737 4469 2 MP stroke
107 0 3737 4613 2 MP stroke
0 146 3826 4468 2 MP stroke
107 0 3773 4468 2 MP stroke
107 0 3773 4614 2 MP stroke
0 136 3862 4475 2 MP stroke
107 0 3809 4475 2 MP stroke
107 0 3809 4611 2 MP stroke
0 131 3898 4483 2 MP stroke
107 0 3844 4483 2 MP stroke
107 0 3844 4614 2 MP stroke
0 130 3934 4481 2 MP stroke
107 0 3880 4481 2 MP stroke
107 0 3880 4611 2 MP stroke
0 122 3969 4484 2 MP stroke
107 0 3916 4484 2 MP stroke
107 0 3916 4606 2 MP stroke
0 117 4005 4487 2 MP stroke
108 0 3951 4487 2 MP stroke
108 0 3951 4604 2 MP stroke
0 114 4041 4486 2 MP stroke
107 0 3987 4486 2 MP stroke
107 0 3987 4600 2 MP stroke
0 116 4076 4484 2 MP stroke
107 0 4023 4484 2 MP stroke
107 0 4023 4600 2 MP stroke
0 127 4112 4472 2 MP stroke
107 0 4059 4472 2 MP stroke
107 0 4059 4599 2 MP stroke
0 131 4148 4471 2 MP stroke
107 0 4094 4471 2 MP stroke
107 0 4094 4602 2 MP stroke
0 136 4184 4468 2 MP stroke
107 0 4130 4468 2 MP stroke
107 0 4130 4604 2 MP stroke
0 142 4219 4463 2 MP stroke
107 0 4166 4463 2 MP stroke
107 0 4166 4605 2 MP stroke
0 149 4255 4454 2 MP stroke
107 0 4201 4454 2 MP stroke
107 0 4201 4603 2 MP stroke
0 160 4291 4446 2 MP stroke
107 0 4237 4446 2 MP stroke
107 0 4237 4606 2 MP stroke
0 174 4326 4436 2 MP stroke
107 0 4273 4436 2 MP stroke
107 0 4273 4610 2 MP stroke
0 166 4362 4443 2 MP stroke
108 0 4308 4443 2 MP stroke
108 0 4308 4609 2 MP stroke
0 144 4398 4458 2 MP stroke
107 0 4344 4458 2 MP stroke
107 0 4344 4602 2 MP stroke
0 149 4433 4448 2 MP stroke
107 0 4380 4448 2 MP stroke
107 0 4380 4597 2 MP stroke
0 146 4469 4453 2 MP stroke
107 0 4416 4453 2 MP stroke
107 0 4416 4599 2 MP stroke
0 138 4505 4460 2 MP stroke
107 0 4451 4460 2 MP stroke
107 0 4451 4598 2 MP stroke
0 139 4541 4462 2 MP stroke
107 0 4487 4462 2 MP stroke
107 0 4487 4601 2 MP stroke
0 139 4576 4455 2 MP stroke
107 0 4523 4455 2 MP stroke
107 0 4523 4594 2 MP stroke
0 140 4612 4442 2 MP stroke
108 0 4558 4442 2 MP stroke
108 0 4558 4582 2 MP stroke
0 137 4648 4445 2 MP stroke
107 0 4594 4445 2 MP stroke
107 0 4594 4582 2 MP stroke
0 143 4683 4445 2 MP stroke
107 0 4630 4445 2 MP stroke
107 0 4630 4588 2 MP stroke
0 156 4719 4436 2 MP stroke
107 0 4666 4436 2 MP stroke
107 0 4666 4592 2 MP stroke
0 145 4755 4451 2 MP stroke
107 0 4701 4451 2 MP stroke
107 0 4701 4596 2 MP stroke
0 124 4791 4468 2 MP stroke
107 0 4737 4468 2 MP stroke
107 0 4737 4592 2 MP stroke
0 118 4826 4471 2 MP stroke
107 0 4773 4471 2 MP stroke
107 0 4773 4589 2 MP stroke
0 126 4862 4471 2 MP stroke
108 0 4808 4471 2 MP stroke
108 0 4808 4597 2 MP stroke
0 125 4898 4472 2 MP stroke
107 0 4844 4472 2 MP stroke
107 0 4844 4597 2 MP stroke
0 124 4933 4468 2 MP stroke
107 0 4880 4468 2 MP stroke
107 0 4880 4592 2 MP stroke
0 130 4969 4468 2 MP stroke
107 0 4916 4468 2 MP stroke
107 0 4916 4598 2 MP stroke
0 131 5005 4463 2 MP stroke
107 0 4951 4463 2 MP stroke
107 0 4951 4594 2 MP stroke
0 139 5040 4457 2 MP stroke
107 0 4987 4457 2 MP stroke
107 0 4987 4596 2 MP stroke
0 137 5076 4451 2 MP stroke
107 0 5023 4451 2 MP stroke
107 0 5023 4588 2 MP stroke
0 135 5112 4460 2 MP stroke
107 0 5058 4460 2 MP stroke
107 0 5058 4595 2 MP stroke
0 119 5148 4468 2 MP stroke
107 0 5094 4468 2 MP stroke
107 0 5094 4587 2 MP stroke
0 134 5183 4456 2 MP stroke
107 0 5130 4456 2 MP stroke
107 0 5130 4590 2 MP stroke
0 125 5219 4462 2 MP stroke
108 0 5165 4462 2 MP stroke
108 0 5165 4587 2 MP stroke
0 126 5255 4467 2 MP stroke
107 0 5201 4467 2 MP stroke
107 0 5201 4593 2 MP stroke
0 137 5290 4466 2 MP stroke
107 0 5237 4466 2 MP stroke
107 0 5237 4603 2 MP stroke
0 132 5326 4464 2 MP stroke
107 0 5273 4464 2 MP stroke
107 0 5273 4596 2 MP stroke
0 133 5362 4472 2 MP stroke
107 0 5308 4472 2 MP stroke
107 0 5308 4605 2 MP stroke
0 139 5398 4461 2 MP stroke
107 0 5344 4461 2 MP stroke
107 0 5344 4600 2 MP stroke
0 148 5433 4461 2 MP stroke
107 0 5380 4461 2 MP stroke
107 0 5380 4609 2 MP stroke
0 137 5469 4473 2 MP stroke
108 0 5415 4473 2 MP stroke
108 0 5415 4610 2 MP stroke
0 121 5505 4488 2 MP stroke
107 0 5451 4488 2 MP stroke
107 0 5451 4609 2 MP stroke
0 113 5540 4499 2 MP stroke
107 0 5487 4499 2 MP stroke
107 0 5487 4612 2 MP stroke
0 122 5576 4491 2 MP stroke
107 0 5523 4491 2 MP stroke
107 0 5523 4613 2 MP stroke
0 104 5612 4509 2 MP stroke
107 0 5558 4509 2 MP stroke
107 0 5558 4613 2 MP stroke
0 109 5647 4506 2 MP stroke
107 0 5594 4506 2 MP stroke
107 0 5594 4615 2 MP stroke
0 102 5683 4508 2 MP stroke
107 0 5630 4508 2 MP stroke
107 0 5630 4610 2 MP stroke
0 96 5719 4511 2 MP stroke
107 0 5665 4511 2 MP stroke
107 0 5665 4607 2 MP stroke
0 102 5755 4508 2 MP stroke
107 0 5701 4508 2 MP stroke
107 0 5701 4610 2 MP stroke
0 115 5790 4498 2 MP stroke
107 0 5737 4498 2 MP stroke
107 0 5737 4613 2 MP stroke
0 111 5826 4505 2 MP stroke
108 0 5772 4505 2 MP stroke
0 105 5862 4511 2 MP stroke
107 0 5808 4511 2 MP stroke
0 89 5897 4527 2 MP stroke
107 0 5844 4527 2 MP stroke
0 82 5933 4534 2 MP stroke
107 0 5880 4534 2 MP stroke
0 73 5969 4543 2 MP stroke
107 0 5915 4543 2 MP stroke
0 67 6005 4549 2 MP stroke
107 0 5951 4549 2 MP stroke
0 73 6040 4543 2 MP stroke
107 0 5987 4543 2 MP stroke
0 75 6076 4539 2 MP stroke
108 0 6022 4539 2 MP stroke
108 0 6022 4614 2 MP stroke
0 84 6112 4531 2 MP stroke
107 0 6058 4531 2 MP stroke
107 0 6058 4615 2 MP stroke
0 102 6147 4512 2 MP stroke
107 0 6094 4512 2 MP stroke
107 0 6094 4614 2 MP stroke
0 101 6183 4506 2 MP stroke
107 0 6130 4506 2 MP stroke
107 0 6130 4607 2 MP stroke
0 105 6219 4508 2 MP stroke
91 0 6165 4508 2 MP stroke
91 0 6165 4613 2 MP stroke
0 104 6255 4512 2 MP stroke
55 0 6201 4512 2 MP stroke
36 5 36 3 36 -6 35 -10 36 -3 36 -5 35 -4 36 3 
36 7 36 1 35 8 36 3 36 8 35 -4 36 0 36 0 
36 -2 35 0 36 9 36 -3 35 7 36 6 36 7 35 4 
36 -7 36 8 36 -5 35 5 36 6 36 1 35 -4 36 -1 
36 8 36 -7 35 -1 36 -5 36 3 35 -5 36 1 36 4 
35 0 36 7 36 9 36 -2 35 3 36 1 36 -12 35 -7 
36 2 36 3 36 3 35 -7 36 4 36 3 35 -3 36 -3 
36 -5 35 -2 36 0 36 1 36 -7 35 -1 36 -3 36 1 
35 -1 36 -2 36 5 36 2 35 0 36 7 36 8 35 -6 
36 -7 36 -1 35 2 36 -3 36 5 36 4 35 5 36 8 
36 3 35 -2 36 -2 36 -8 36 -8 35 2 36 -2 36 5 
35 -8 36 -3 36 -5 36 -2 35 -1 36 5 36 7 35 -2 
36 -1 36 -1 35 5 36 1 36 1 36 3 35 2 36 -9 
36 4 35 1 36 13 36 -1 36 6 35 7 36 8 36 14 
35 7 36 -4 36 6 35 12 36 3 36 -1 36 -5 35 10 
36 0 36 12 35 25 36 13 36 24 36 21 35 25 36 21 
36 28 35 34 36 30 36 39 35 61 36 67 36 53 36 73 
35 72 36 103 36 110 35 126 36 133 36 143 36 211 35 242 
36 254 36 274 35 293 36 330 36 433 35 740 899 469 151 MP stroke
gr

c8
  36   36  899  469 FO
  36   36  934 1209 FO
  36   36  970 1642 FO
  36   36 1006 1972 FO
  36   36 1041 2265 FO
  36   36 1077 2539 FO
  36   36 1113 2793 FO
  36   36 1148 3035 FO
  36   36 1184 3246 FO
  36   36 1220 3389 FO
  36   36 1256 3522 FO
  36   36 1291 3648 FO
  36   36 1327 3758 FO
  36   36 1363 3861 FO
  36   36 1398 3933 FO
  36   36 1434 4006 FO
  36   36 1470 4059 FO
  36   36 1506 4126 FO
  36   36 1541 4187 FO
  36   36 1577 4226 FO
  36   36 1613 4256 FO
  36   36 1648 4290 FO
  36   36 1684 4318 FO
  36   36 1720 4339 FO
  36   36 1755 4364 FO
  36   36 1791 4385 FO
  36   36 1827 4409 FO
  36   36 1863 4422 FO
  36   36 1898 4447 FO
  36   36 1934 4459 FO
  36   36 1970 4459 FO
  36   36 2005 4469 FO
  36   36 2041 4464 FO
  36   36 2077 4463 FO
  36   36 2113 4466 FO
  36   36 2148 4478 FO
  36   36 2184 4484 FO
  36   36 2220 4480 FO
  36   36 2255 4487 FO
  36   36 2291 4501 FO
  36   36 2327 4509 FO
  36   36 2362 4516 FO
  36   36 2398 4522 FO
  36   36 2434 4521 FO
  36   36 2470 4534 FO
  36   36 2505 4535 FO
  36   36 2541 4539 FO
  36   36 2577 4530 FO
  36   36 2612 4532 FO
  36   36 2648 4535 FO
  36   36 2684 4536 FO
  36   36 2720 4537 FO
  36   36 2755 4542 FO
  36   36 2791 4541 FO
  36   36 2827 4540 FO
  36   36 2862 4538 FO
  36   36 2898 4545 FO
  36   36 2934 4550 FO
  36   36 2969 4549 FO
  36   36 3005 4547 FO
  36   36 3041 4542 FO
  36   36 3077 4539 FO
  36   36 3112 4531 FO
  36   36 3148 4536 FO
  36   36 3184 4534 FO
  36   36 3219 4536 FO
  36   36 3255 4528 FO
  36   36 3291 4520 FO
  36   36 3327 4518 FO
  36   36 3362 4516 FO
  36   36 3398 4519 FO
  36   36 3434 4527 FO
  36   36 3469 4532 FO
  36   36 3505 4536 FO
  36   36 3541 4541 FO
  36   36 3577 4538 FO
  36   36 3612 4540 FO
  36   36 3648 4539 FO
  36   36 3684 4532 FO
  36   36 3719 4526 FO
  36   36 3755 4534 FO
  36   36 3791 4541 FO
  36   36 3826 4541 FO
  36   36 3862 4543 FO
  36   36 3898 4548 FO
  36   36 3934 4546 FO
  36   36 3969 4545 FO
  36   36 4005 4546 FO
  36   36 4041 4543 FO
  36   36 4076 4542 FO
  36   36 4112 4535 FO
  36   36 4148 4536 FO
  36   36 4184 4536 FO
  36   36 4219 4534 FO
  36   36 4255 4529 FO
  36   36 4291 4526 FO
  36   36 4326 4523 FO
  36   36 4362 4526 FO
  36   36 4398 4530 FO
  36   36 4433 4523 FO
  36   36 4469 4526 FO
  36   36 4505 4529 FO
  36   36 4541 4531 FO
  36   36 4576 4524 FO
  36   36 4612 4512 FO
  36   36 4648 4513 FO
  36   36 4683 4516 FO
  36   36 4719 4514 FO
  36   36 4755 4523 FO
  36   36 4791 4530 FO
  36   36 4826 4530 FO
  36   36 4862 4534 FO
  36   36 4898 4535 FO
  36   36 4933 4530 FO
  36   36 4969 4533 FO
  36   36 5005 4528 FO
  36   36 5040 4527 FO
  36   36 5076 4520 FO
  36   36 5112 4528 FO
  36   36 5148 4527 FO
  36   36 5183 4523 FO
  36   36 5219 4524 FO
  36   36 5255 4530 FO
  36   36 5290 4535 FO
  36   36 5326 4530 FO
  36   36 5362 4538 FO
  36   36 5398 4531 FO
  36   36 5433 4535 FO
  36   36 5469 4542 FO
  36   36 5505 4548 FO
  36   36 5540 4555 FO
  36   36 5576 4552 FO
  36   36 5612 4561 FO
  36   36 5647 4561 FO
  36   36 5683 4559 FO
  36   36 5719 4559 FO
  36   36 5755 4559 FO
  36   36 5790 4555 FO
  36   36 5826 4563 FO
  36   36 5862 4566 FO
  36   36 5897 4574 FO
  36   36 5933 4575 FO
  36   36 5969 4582 FO
  36   36 6005 4585 FO
  36   36 6040 4581 FO
  36   36 6076 4576 FO
  36   36 6112 4573 FO
  36   36 6147 4563 FO
  36   36 6183 4557 FO
  36   36 6219 4560 FO
  36   36 6255 4565 FO
gs 899 469 5357 4147 rc
/c9 { 0.000000 0.500000 0.000000 sr} bdef
c9
899 469 PD
53 0 899 469 2 MP stroke
53 0 899 469 2 MP stroke
0 33 934 469 2 MP stroke
89 0 899 502 2 MP stroke
0 35 970 469 2 MP stroke
107 0 916 504 2 MP stroke
0 46 1006 469 2 MP stroke
107 0 952 515 2 MP stroke
0 55 1041 469 2 MP stroke
107 0 988 524 2 MP stroke
0 64 1077 469 2 MP stroke
108 0 1023 533 2 MP stroke
0 77 1113 469 2 MP stroke
107 0 1059 546 2 MP stroke
0 91 1148 469 2 MP stroke
107 0 1095 560 2 MP stroke
0 104 1184 469 2 MP stroke
107 0 1131 573 2 MP stroke
0 111 1220 469 2 MP stroke
107 0 1166 580 2 MP stroke
0 117 1256 469 2 MP stroke
107 0 1202 586 2 MP stroke
0 128 1291 469 2 MP stroke
107 0 1238 597 2 MP stroke
0 140 1327 469 2 MP stroke
108 0 1273 609 2 MP stroke
0 156 1363 469 2 MP stroke
107 0 1309 625 2 MP stroke
0 175 1398 469 2 MP stroke
107 0 1345 644 2 MP stroke
0 184 1434 469 2 MP stroke
107 0 1381 653 2 MP stroke
0 203 1470 469 2 MP stroke
107 0 1416 672 2 MP stroke
0 208 1506 469 2 MP stroke
107 0 1452 677 2 MP stroke
0 216 1541 469 2 MP stroke
107 0 1488 685 2 MP stroke
0 227 1577 469 2 MP stroke
107 0 1523 696 2 MP stroke
0 231 1613 477 2 MP stroke
107 0 1559 477 2 MP stroke
107 0 1559 708 2 MP stroke
0 244 1648 478 2 MP stroke
107 0 1595 478 2 MP stroke
107 0 1595 722 2 MP stroke
0 240 1684 482 2 MP stroke
108 0 1630 482 2 MP stroke
108 0 1630 722 2 MP stroke
0 237 1720 490 2 MP stroke
107 0 1666 490 2 MP stroke
107 0 1666 727 2 MP stroke
0 239 1755 502 2 MP stroke
107 0 1702 502 2 MP stroke
107 0 1702 741 2 MP stroke
0 262 1791 497 2 MP stroke
107 0 1738 497 2 MP stroke
107 0 1738 759 2 MP stroke
0 269 1827 509 2 MP stroke
107 0 1773 509 2 MP stroke
107 0 1773 778 2 MP stroke
0 277 1863 514 2 MP stroke
107 0 1809 514 2 MP stroke
107 0 1809 791 2 MP stroke
0 290 1898 515 2 MP stroke
107 0 1845 515 2 MP stroke
107 0 1845 805 2 MP stroke
0 284 1934 524 2 MP stroke
108 0 1880 524 2 MP stroke
108 0 1880 808 2 MP stroke
0 307 1970 532 2 MP stroke
107 0 1916 532 2 MP stroke
107 0 1916 839 2 MP stroke
0 303 2005 539 2 MP stroke
107 0 1952 539 2 MP stroke
107 0 1952 842 2 MP stroke
0 306 2041 555 2 MP stroke
107 0 1988 555 2 MP stroke
107 0 1988 861 2 MP stroke
0 324 2077 556 2 MP stroke
107 0 2023 556 2 MP stroke
107 0 2023 880 2 MP stroke
0 336 2113 558 2 MP stroke
107 0 2059 558 2 MP stroke
107 0 2059 894 2 MP stroke
0 345 2148 553 2 MP stroke
107 0 2095 553 2 MP stroke
107 0 2095 898 2 MP stroke
0 358 2184 559 2 MP stroke
108 0 2130 559 2 MP stroke
108 0 2130 917 2 MP stroke
0 371 2220 564 2 MP stroke
107 0 2166 564 2 MP stroke
107 0 2166 935 2 MP stroke
0 373 2255 569 2 MP stroke
107 0 2202 569 2 MP stroke
107 0 2202 942 2 MP stroke
0 378 2291 570 2 MP stroke
107 0 2238 570 2 MP stroke
107 0 2238 948 2 MP stroke
0 375 2327 576 2 MP stroke
107 0 2273 576 2 MP stroke
107 0 2273 951 2 MP stroke
0 380 2362 581 2 MP stroke
107 0 2309 581 2 MP stroke
107 0 2309 961 2 MP stroke
0 381 2398 584 2 MP stroke
107 0 2345 584 2 MP stroke
107 0 2345 965 2 MP stroke
0 386 2434 591 2 MP stroke
107 0 2380 591 2 MP stroke
107 0 2380 977 2 MP stroke
0 398 2470 586 2 MP stroke
107 0 2416 586 2 MP stroke
107 0 2416 984 2 MP stroke
0 405 2505 591 2 MP stroke
107 0 2452 591 2 MP stroke
107 0 2452 996 2 MP stroke
0 392 2541 608 2 MP stroke
108 0 2487 608 2 MP stroke
108 0 2487 1000 2 MP stroke
0 391 2577 623 2 MP stroke
107 0 2523 623 2 MP stroke
107 0 2523 1014 2 MP stroke
0 415 2612 618 2 MP stroke
107 0 2559 618 2 MP stroke
107 0 2559 1033 2 MP stroke
0 416 2648 628 2 MP stroke
107 0 2595 628 2 MP stroke
107 0 2595 1044 2 MP stroke
0 401 2684 643 2 MP stroke
107 0 2630 643 2 MP stroke
107 0 2630 1044 2 MP stroke
0 420 2720 640 2 MP stroke
107 0 2666 640 2 MP stroke
107 0 2666 1060 2 MP stroke
0 414 2755 648 2 MP stroke
107 0 2702 648 2 MP stroke
107 0 2702 1062 2 MP stroke
0 406 2791 660 2 MP stroke
108 0 2737 660 2 MP stroke
108 0 2737 1066 2 MP stroke
0 398 2827 674 2 MP stroke
107 0 2773 674 2 MP stroke
107 0 2773 1072 2 MP stroke
0 404 2862 682 2 MP stroke
107 0 2809 682 2 MP stroke
107 0 2809 1086 2 MP stroke
0 400 2898 686 2 MP stroke
107 0 2845 686 2 MP stroke
107 0 2845 1086 2 MP stroke
0 405 2934 687 2 MP stroke
107 0 2880 687 2 MP stroke
107 0 2880 1092 2 MP stroke
0 422 2969 688 2 MP stroke
107 0 2916 688 2 MP stroke
107 0 2916 1110 2 MP stroke
0 418 3005 695 2 MP stroke
107 0 2952 695 2 MP stroke
107 0 2952 1113 2 MP stroke
0 412 3041 703 2 MP stroke
107 0 2987 703 2 MP stroke
107 0 2987 1115 2 MP stroke
0 403 3077 717 2 MP stroke
107 0 3023 717 2 MP stroke
107 0 3023 1120 2 MP stroke
0 420 3112 717 2 MP stroke
107 0 3059 717 2 MP stroke
107 0 3059 1137 2 MP stroke
0 425 3148 720 2 MP stroke
108 0 3094 720 2 MP stroke
108 0 3094 1145 2 MP stroke
0 423 3184 732 2 MP stroke
107 0 3130 732 2 MP stroke
107 0 3130 1155 2 MP stroke
0 434 3219 731 2 MP stroke
107 0 3166 731 2 MP stroke
107 0 3166 1165 2 MP stroke
0 439 3255 743 2 MP stroke
107 0 3202 743 2 MP stroke
107 0 3202 1182 2 MP stroke
0 428 3291 758 2 MP stroke
107 0 3237 758 2 MP stroke
107 0 3237 1186 2 MP stroke
0 447 3327 762 2 MP stroke
107 0 3273 762 2 MP stroke
107 0 3273 1209 2 MP stroke
0 462 3362 763 2 MP stroke
107 0 3309 763 2 MP stroke
107 0 3309 1225 2 MP stroke
0 483 3398 763 2 MP stroke
108 0 3344 763 2 MP stroke
108 0 3344 1246 2 MP stroke
0 476 3434 771 2 MP stroke
107 0 3380 771 2 MP stroke
107 0 3380 1247 2 MP stroke
0 465 3469 780 2 MP stroke
107 0 3416 780 2 MP stroke
107 0 3416 1245 2 MP stroke
0 482 3505 782 2 MP stroke
107 0 3452 782 2 MP stroke
107 0 3452 1264 2 MP stroke
0 495 3541 778 2 MP stroke
107 0 3487 778 2 MP stroke
107 0 3487 1273 2 MP stroke
0 504 3577 789 2 MP stroke
107 0 3523 789 2 MP stroke
107 0 3523 1293 2 MP stroke
0 506 3612 794 2 MP stroke
107 0 3559 794 2 MP stroke
107 0 3559 1300 2 MP stroke
0 507 3648 799 2 MP stroke
107 0 3594 799 2 MP stroke
107 0 3594 1306 2 MP stroke
0 520 3684 807 2 MP stroke
107 0 3630 807 2 MP stroke
107 0 3630 1327 2 MP stroke
0 535 3719 811 2 MP stroke
107 0 3666 811 2 MP stroke
107 0 3666 1346 2 MP stroke
0 540 3755 813 2 MP stroke
108 0 3701 813 2 MP stroke
108 0 3701 1353 2 MP stroke
0 534 3791 819 2 MP stroke
107 0 3737 819 2 MP stroke
107 0 3737 1353 2 MP stroke
0 518 3826 831 2 MP stroke
107 0 3773 831 2 MP stroke
107 0 3773 1349 2 MP stroke
0 519 3862 836 2 MP stroke
107 0 3809 836 2 MP stroke
107 0 3809 1355 2 MP stroke
0 522 3898 838 2 MP stroke
107 0 3844 838 2 MP stroke
107 0 3844 1360 2 MP stroke
0 534 3934 838 2 MP stroke
107 0 3880 838 2 MP stroke
107 0 3880 1372 2 MP stroke
0 531 3969 843 2 MP stroke
107 0 3916 843 2 MP stroke
107 0 3916 1374 2 MP stroke
0 528 4005 850 2 MP stroke
108 0 3951 850 2 MP stroke
108 0 3951 1378 2 MP stroke
0 530 4041 856 2 MP stroke
107 0 3987 856 2 MP stroke
107 0 3987 1386 2 MP stroke
0 532 4076 861 2 MP stroke
107 0 4023 861 2 MP stroke
107 0 4023 1393 2 MP stroke
0 530 4112 875 2 MP stroke
107 0 4059 875 2 MP stroke
107 0 4059 1405 2 MP stroke
0 540 4148 881 2 MP stroke
107 0 4094 881 2 MP stroke
107 0 4094 1421 2 MP stroke
0 537 4184 888 2 MP stroke
107 0 4130 888 2 MP stroke
107 0 4130 1425 2 MP stroke
0 528 4219 897 2 MP stroke
107 0 4166 897 2 MP stroke
107 0 4166 1425 2 MP stroke
0 529 4255 907 2 MP stroke
107 0 4201 907 2 MP stroke
107 0 4201 1436 2 MP stroke
0 529 4291 920 2 MP stroke
107 0 4237 920 2 MP stroke
107 0 4237 1449 2 MP stroke
0 550 4326 915 2 MP stroke
107 0 4273 915 2 MP stroke
107 0 4273 1465 2 MP stroke
0 550 4362 922 2 MP stroke
108 0 4308 922 2 MP stroke
108 0 4308 1472 2 MP stroke
0 548 4398 930 2 MP stroke
107 0 4344 930 2 MP stroke
107 0 4344 1478 2 MP stroke
0 553 4433 941 2 MP stroke
107 0 4380 941 2 MP stroke
107 0 4380 1494 2 MP stroke
0 554 4469 953 2 MP stroke
107 0 4416 953 2 MP stroke
107 0 4416 1507 2 MP stroke
0 545 4505 962 2 MP stroke
107 0 4451 962 2 MP stroke
107 0 4451 1507 2 MP stroke
0 546 4541 965 2 MP stroke
107 0 4487 965 2 MP stroke
107 0 4487 1511 2 MP stroke
0 561 4576 975 2 MP stroke
107 0 4523 975 2 MP stroke
107 0 4523 1536 2 MP stroke
0 562 4612 992 2 MP stroke
108 0 4558 992 2 MP stroke
108 0 4558 1554 2 MP stroke
0 560 4648 998 2 MP stroke
107 0 4594 998 2 MP stroke
107 0 4594 1558 2 MP stroke
0 554 4683 1013 2 MP stroke
107 0 4630 1013 2 MP stroke
107 0 4630 1567 2 MP stroke
0 557 4719 1022 2 MP stroke
107 0 4666 1022 2 MP stroke
107 0 4666 1579 2 MP stroke
0 559 4755 1019 2 MP stroke
107 0 4701 1019 2 MP stroke
107 0 4701 1578 2 MP stroke
0 559 4791 1026 2 MP stroke
107 0 4737 1026 2 MP stroke
107 0 4737 1585 2 MP stroke
0 561 4826 1031 2 MP stroke
107 0 4773 1031 2 MP stroke
107 0 4773 1592 2 MP stroke
0 567 4862 1033 2 MP stroke
108 0 4808 1033 2 MP stroke
108 0 4808 1600 2 MP stroke
0 561 4898 1039 2 MP stroke
107 0 4844 1039 2 MP stroke
107 0 4844 1600 2 MP stroke
0 564 4933 1046 2 MP stroke
107 0 4880 1046 2 MP stroke
107 0 4880 1610 2 MP stroke
0 566 4969 1052 2 MP stroke
107 0 4916 1052 2 MP stroke
107 0 4916 1618 2 MP stroke
0 563 5005 1063 2 MP stroke
107 0 4951 1063 2 MP stroke
107 0 4951 1626 2 MP stroke
0 565 5040 1065 2 MP stroke
107 0 4987 1065 2 MP stroke
107 0 4987 1630 2 MP stroke
0 585 5076 1066 2 MP stroke
107 0 5023 1066 2 MP stroke
107 0 5023 1651 2 MP stroke
0 593 5112 1066 2 MP stroke
107 0 5058 1066 2 MP stroke
107 0 5058 1659 2 MP stroke
0 585 5148 1082 2 MP stroke
107 0 5094 1082 2 MP stroke
107 0 5094 1667 2 MP stroke
0 586 5183 1089 2 MP stroke
107 0 5130 1089 2 MP stroke
107 0 5130 1675 2 MP stroke
0 593 5219 1090 2 MP stroke
108 0 5165 1090 2 MP stroke
108 0 5165 1683 2 MP stroke
0 595 5255 1094 2 MP stroke
107 0 5201 1094 2 MP stroke
107 0 5201 1689 2 MP stroke
0 595 5290 1097 2 MP stroke
107 0 5237 1097 2 MP stroke
107 0 5237 1692 2 MP stroke
0 595 5326 1108 2 MP stroke
107 0 5273 1108 2 MP stroke
107 0 5273 1703 2 MP stroke
0 594 5362 1112 2 MP stroke
107 0 5308 1112 2 MP stroke
107 0 5308 1706 2 MP stroke
0 598 5398 1123 2 MP stroke
107 0 5344 1123 2 MP stroke
107 0 5344 1721 2 MP stroke
0 603 5433 1124 2 MP stroke
107 0 5380 1124 2 MP stroke
107 0 5380 1727 2 MP stroke
0 605 5469 1128 2 MP stroke
108 0 5415 1128 2 MP stroke
108 0 5415 1733 2 MP stroke
0 601 5505 1133 2 MP stroke
107 0 5451 1133 2 MP stroke
107 0 5451 1734 2 MP stroke
0 601 5540 1133 2 MP stroke
107 0 5487 1133 2 MP stroke
107 0 5487 1734 2 MP stroke
0 595 5576 1143 2 MP stroke
107 0 5523 1143 2 MP stroke
107 0 5523 1738 2 MP stroke
0 588 5612 1153 2 MP stroke
107 0 5558 1153 2 MP stroke
107 0 5558 1741 2 MP stroke
0 593 5647 1154 2 MP stroke
107 0 5594 1154 2 MP stroke
107 0 5594 1747 2 MP stroke
0 605 5683 1165 2 MP stroke
107 0 5630 1165 2 MP stroke
107 0 5630 1770 2 MP stroke
0 608 5719 1168 2 MP stroke
107 0 5665 1168 2 MP stroke
107 0 5665 1776 2 MP stroke
0 611 5755 1170 2 MP stroke
107 0 5701 1170 2 MP stroke
107 0 5701 1781 2 MP stroke
0 611 5790 1177 2 MP stroke
107 0 5737 1177 2 MP stroke
107 0 5737 1788 2 MP stroke
0 613 5826 1180 2 MP stroke
108 0 5772 1180 2 MP stroke
108 0 5772 1793 2 MP stroke
0 613 5862 1181 2 MP stroke
107 0 5808 1181 2 MP stroke
107 0 5808 1794 2 MP stroke
0 622 5897 1182 2 MP stroke
107 0 5844 1182 2 MP stroke
107 0 5844 1804 2 MP stroke
0 619 5933 1189 2 MP stroke
107 0 5880 1189 2 MP stroke
107 0 5880 1808 2 MP stroke
0 620 5969 1187 2 MP stroke
107 0 5915 1187 2 MP stroke
107 0 5915 1807 2 MP stroke
0 619 6005 1188 2 MP stroke
107 0 5951 1188 2 MP stroke
107 0 5951 1807 2 MP stroke
0 614 6040 1196 2 MP stroke
107 0 5987 1196 2 MP stroke
107 0 5987 1810 2 MP stroke
0 617 6076 1203 2 MP stroke
108 0 6022 1203 2 MP stroke
108 0 6022 1820 2 MP stroke
0 616 6112 1211 2 MP stroke
107 0 6058 1211 2 MP stroke
107 0 6058 1827 2 MP stroke
0 614 6147 1226 2 MP stroke
107 0 6094 1226 2 MP stroke
107 0 6094 1840 2 MP stroke
0 616 6183 1234 2 MP stroke
107 0 6130 1234 2 MP stroke
107 0 6130 1850 2 MP stroke
0 614 6219 1238 2 MP stroke
91 0 6165 1238 2 MP stroke
91 0 6165 1852 2 MP stroke
0 612 6255 1241 2 MP stroke
55 0 6201 1241 2 MP stroke
55 0 6201 1853 2 MP stroke
11 -3 35 3 899 469 3 MP stroke
gr

c9
  36   36  899  469 FO
  36   36  934  472 FO
gs 899 469 5357 4147 rc
36 2 36 3 36 9 35 14 36 8 36 8 35 5 36 1 
36 -2 36 6 35 6 36 1 36 4 35 6 36 4 36 4 
36 18 35 3 36 7 36 6 35 0 36 3 36 5 35 4 
36 13 36 4 36 10 35 4 36 5 36 4 35 8 36 12 
36 3 36 12 35 3 36 9 36 7 35 8 36 3 36 6 
35 5 36 7 36 -1 36 10 35 12 36 5 36 18 35 17 
36 3 36 5 36 12 35 14 36 7 36 7 35 5 36 14 
36 10 35 5 36 5 36 11 36 13 35 6 36 7 36 5 
35 4 36 6 36 3 36 6 35 4 36 3 36 4 35 12 
36 15 36 5 35 6 36 15 36 3 36 11 35 3 36 5 
36 10 35 8 36 14 36 9 36 15 35 5 36 11 36 5 
35 9 36 9 36 5 36 5 35 9 36 4 36 2 35 11 
36 10 36 8 35 5 36 6 36 8 36 10 35 7 36 15 
36 11 35 8 36 1 36 10 36 3 35 7 36 5 36 4 
35 6 36 11 36 13 35 -1 36 8 36 10 36 17 35 5 
36 20 36 6 35 8 36 8 36 16 36 6 35 13 36 7 
36 2 35 7 36 13 36 12 35 2 36 5 36 18 36 5 
35 13 36 15 36 12 35 5 36 5 36 4 36 8 35 0 
36 7 9 0 1068 469 147 MP stroke
gr

  36   36 1077  469 FO
  36   36 1113  476 FO
  36   36 1148  476 FO
  36   36 1184  484 FO
  36   36 1220  488 FO
  36   36 1256  493 FO
  36   36 1291  498 FO
  36   36 1327  510 FO
  36   36 1363  525 FO
  36   36 1398  538 FO
  36   36 1434  543 FO
  36   36 1470  561 FO
  36   36 1506  566 FO
  36   36 1541  568 FO
  36   36 1577  580 FO
  36   36 1613  593 FO
  36   36 1648  600 FO
  36   36 1684  602 FO
  36   36 1720  609 FO
  36   36 1755  622 FO
  36   36 1791  628 FO
  36   36 1827  644 FO
  36   36 1863  652 FO
  36   36 1898  660 FO
  36   36 1934  666 FO
  36   36 1970  686 FO
  36   36 2005  691 FO
  36   36 2041  708 FO
  36   36 2077  718 FO
  36   36 2113  726 FO
  36   36 2148  725 FO
  36   36 2184  738 FO
  36   36 2220  749 FO
  36   36 2255  755 FO
  36   36 2291  759 FO
  36   36 2327  764 FO
  36   36 2362  771 FO
  36   36 2398  774 FO
  36   36 2434  784 FO
  36   36 2470  785 FO
  36   36 2505  793 FO
  36   36 2541  804 FO
  36   36 2577  819 FO
  36   36 2612  826 FO
  36   36 2648  836 FO
  36   36 2684  844 FO
  36   36 2720  850 FO
  36   36 2755  855 FO
  36   36 2791  863 FO
  36   36 2827  873 FO
  36   36 2862  884 FO
  36   36 2898  886 FO
  36   36 2934  890 FO
  36   36 2969  899 FO
  36   36 3005  904 FO
  36   36 3041  909 FO
  36   36 3077  918 FO
  36   36 3112  927 FO
  36   36 3148  932 FO
  36   36 3184  943 FO
  36   36 3219  948 FO
  36   36 3255  963 FO
  36   36 3291  972 FO
  36   36 3327  986 FO
  36   36 3362  994 FO
  36   36 3398 1004 FO
  36   36 3434 1009 FO
  36   36 3469 1012 FO
  36   36 3505 1023 FO
  36   36 3541 1026 FO
  36   36 3577 1041 FO
  36   36 3612 1047 FO
  36   36 3648 1052 FO
  36   36 3684 1067 FO
  36   36 3719 1079 FO
  36   36 3755 1083 FO
  36   36 3791 1086 FO
  36   36 3826 1090 FO
  36   36 3862 1096 FO
  36   36 3898 1099 FO
  36   36 3934 1105 FO
  36   36 3969 1109 FO
  36   36 4005 1114 FO
  36   36 4041 1121 FO
  36   36 4076 1127 FO
  36   36 4112 1140 FO
  36   36 4148 1151 FO
  36   36 4184 1156 FO
  36   36 4219 1161 FO
  36   36 4255 1171 FO
  36   36 4291 1185 FO
  36   36 4326 1190 FO
  36   36 4362 1197 FO
  36   36 4398 1204 FO
  36   36 4433 1218 FO
  36   36 4469 1230 FO
  36   36 4505 1235 FO
  36   36 4541 1238 FO
  36   36 4576 1255 FO
  36   36 4612 1273 FO
  36   36 4648 1278 FO
  36   36 4683 1290 FO
  36   36 4719 1300 FO
  36   36 4755 1299 FO
  36   36 4791 1306 FO
  36   36 4826 1311 FO
  36   36 4862 1317 FO
  36   36 4898 1320 FO
  36   36 4933 1328 FO
  36   36 4969 1335 FO
  36   36 5005 1344 FO
  36   36 5040 1347 FO
  36   36 5076 1359 FO
  36   36 5112 1362 FO
  36   36 5148 1374 FO
  36   36 5183 1382 FO
  36   36 5219 1386 FO
  36   36 5255 1391 FO
  36   36 5290 1395 FO
  36   36 5326 1405 FO
  36   36 5362 1409 FO
  36   36 5398 1422 FO
  36   36 5433 1426 FO
  36   36 5469 1431 FO
  36   36 5505 1434 FO
  36   36 5540 1434 FO
  36   36 5576 1440 FO
  36   36 5612 1447 FO
  36   36 5647 1450 FO
  36   36 5683 1468 FO
  36   36 5719 1472 FO
  36   36 5755 1476 FO
  36   36 5790 1482 FO
  36   36 5826 1486 FO
  36   36 5862 1487 FO
  36   36 5897 1493 FO
  36   36 5933 1499 FO
  36   36 5969 1497 FO
  36   36 6005 1498 FO
  36   36 6040 1503 FO
  36   36 6076 1511 FO
  36   36 6112 1519 FO
  36   36 6147 1533 FO
  36   36 6183 1542 FO
  36   36 6219 1545 FO
  36   36 6255 1547 FO
gs 899 469 5357 4147 rc
gr

0 sg
%%IncludeResource: font Helvetica
/Helvetica /ISOLatin1Encoding 168 FMSR

2435  156 mt 
(Nup49-GFP in Late Anaphase) s
%%IncludeResource: font Helvetica
/Helvetica /ISOLatin1Encoding 144 FMSR

2369  293 mt 
(n) s
%%IncludeResource: font Helvetica
/Helvetica /ISOLatin1Encoding 108 FMSR

2449  377 mt 
(cells) s
%%IncludeResource: font Helvetica
/Helvetica /ISOLatin1Encoding 144 FMSR

2665  293 mt 
( = 34    -    Permeability = 0.0005) s
3314 4921 mt 
(Time \(s\)) s
 577 3058 mt  -90 rotate
(% Fluorescence) s
90 rotate
%%IncludeResource: font Helvetica
/Helvetica /ISOLatin1Encoding 120 FMSR

 882 4658 mt 
( ) s
6239  511 mt 
( ) s
5656  664 mt 
(mother) s
gs 5217 529 980 335 rc
c8
338 0 5284 621 2 MP stroke
gs 5380 548 147 147 rc
  36   36 5453  621 FO
gr

gr

c8
0 sg
5656  813 mt 
(daughter) s
gs 5217 529 980 335 rc
c9
338 0 5284 770 2 MP stroke
gs 5380 697 147 147 rc
  36   36 5453  770 FO
gr

gr

c9

end %%Color Dict

eplot
%%EndObject

epage
end

showpage

%%Trailer
%%EOF
