%!PS-Adobe-3.0 EPSF-3.0
%%Creator: MATLAB, The MathWorks, Inc. Version 8.1.0.604 (R2013a). Operating System: Darwin 11.4.2 Darwin Kernel Version 11.4.2: Thu Aug 23 16:25:48 PDT 2012; root:xnu-1699.32.7~1/RELEASE_X86_64 x86_64.
%%Title: ./LA_Nup49-sphinbarr-NE-1R_100nm.eps
%%CreationDate: 10/03/2013  11:56:44
%%DocumentNeededFonts: Helvetica
%%DocumentProcessColors: Cyan Magenta Yellow Black
%%LanguageLevel: 2
%%Pages: 1
%%BoundingBox:    52   197   551   616
%%EndComments

%%BeginProlog
% MathWorks dictionary
/MathWorks 160 dict begin
% definition operators
/bdef {bind def} bind def
/ldef {load def} bind def
/xdef {exch def} bdef
/xstore {exch store} bdef
% operator abbreviations
/c  /clip ldef
/cc /concat ldef
/cp /closepath ldef
/gr /grestore ldef
/gs /gsave ldef
/mt /moveto ldef
/np /newpath ldef
/cm /currentmatrix ldef
/sm /setmatrix ldef
/rm /rmoveto ldef
/rl /rlineto ldef
/s {show newpath} bdef
/sc {setcmykcolor} bdef
/sr /setrgbcolor ldef
/sg /setgray ldef
/w /setlinewidth ldef
/j /setlinejoin ldef
/cap /setlinecap ldef
/rc {rectclip} bdef
/rf {rectfill} bdef
% page state control
/pgsv () def
/bpage {/pgsv save def} bdef
/epage {pgsv restore} bdef
/bplot /gsave ldef
/eplot {stroke grestore} bdef
% orientation switch
/portraitMode 0 def /landscapeMode 1 def /rotateMode 2 def
% coordinate system mappings
/dpi2point 0 def
% font control
/FontSize 0 def
/FMS {/FontSize xstore findfont [FontSize 0 0 FontSize neg 0 0]
  makefont setfont} bdef
/reencode {exch dup where {pop load} {pop StandardEncoding} ifelse
  exch dup 3 1 roll findfont dup length dict begin
  { 1 index /FID ne {def}{pop pop} ifelse } forall
  /Encoding exch def currentdict end definefont pop} bdef
/isroman {findfont /CharStrings get /Agrave known} bdef
/FMSR {3 1 roll 1 index dup isroman {reencode} {pop pop} ifelse
  exch FMS} bdef
/csm {1 dpi2point div -1 dpi2point div scale neg translate
 dup landscapeMode eq {pop -90 rotate}
  {rotateMode eq {90 rotate} if} ifelse} bdef
% line types: solid, dotted, dashed, dotdash
/SO { [] 0 setdash } bdef
/DO { [.5 dpi2point mul 4 dpi2point mul] 0 setdash } bdef
/DA { [6 dpi2point mul] 0 setdash } bdef
/DD { [.5 dpi2point mul 4 dpi2point mul 6 dpi2point mul 4
  dpi2point mul] 0 setdash } bdef
% macros for lines and objects
/L {lineto stroke} bdef
/MP {3 1 roll moveto 1 sub {rlineto} repeat} bdef
/AP {{rlineto} repeat} bdef
/PDlw -1 def
/W {/PDlw currentlinewidth def setlinewidth} def
/PP {closepath eofill} bdef
/DP {closepath stroke} bdef
/MR {4 -2 roll moveto dup  0 exch rlineto exch 0 rlineto
  neg 0 exch rlineto closepath} bdef
/FR {MR stroke} bdef
/PR {MR fill} bdef
/L1i {{currentfile picstr readhexstring pop} image} bdef
/tMatrix matrix def
/MakeOval {newpath tMatrix currentmatrix pop translate scale
0 0 1 0 360 arc tMatrix setmatrix} bdef
/FO {MakeOval stroke} bdef
/PO {MakeOval fill} bdef
/PD {currentlinewidth 2 div 0 360 arc fill
   PDlw -1 eq not {PDlw w /PDlw -1 def} if} def
/FA {newpath tMatrix currentmatrix pop translate scale
  0 0 1 5 -2 roll arc tMatrix setmatrix stroke} bdef
/PA {newpath tMatrix currentmatrix pop	translate 0 0 moveto scale
  0 0 1 5 -2 roll arc closepath tMatrix setmatrix fill} bdef
/FAn {newpath tMatrix currentmatrix pop translate scale
  0 0 1 5 -2 roll arcn tMatrix setmatrix stroke} bdef
/PAn {newpath tMatrix currentmatrix pop translate 0 0 moveto scale
  0 0 1 5 -2 roll arcn closepath tMatrix setmatrix fill} bdef
/vradius 0 def /hradius 0 def /lry 0 def
/lrx 0 def /uly 0 def /ulx 0 def /rad 0 def
/MRR {/vradius xdef /hradius xdef /lry xdef /lrx xdef /uly xdef
  /ulx xdef newpath tMatrix currentmatrix pop ulx hradius add uly
  vradius add translate hradius vradius scale 0 0 1 180 270 arc 
  tMatrix setmatrix lrx hradius sub uly vradius add translate
  hradius vradius scale 0 0 1 270 360 arc tMatrix setmatrix
  lrx hradius sub lry vradius sub translate hradius vradius scale
  0 0 1 0 90 arc tMatrix setmatrix ulx hradius add lry vradius sub
  translate hradius vradius scale 0 0 1 90 180 arc tMatrix setmatrix
  closepath} bdef
/FRR {MRR stroke } bdef
/PRR {MRR fill } bdef
/MlrRR {/lry xdef /lrx xdef /uly xdef /ulx xdef /rad lry uly sub 2 div def
  newpath tMatrix currentmatrix pop ulx rad add uly rad add translate
  rad rad scale 0 0 1 90 270 arc tMatrix setmatrix lrx rad sub lry rad
  sub translate rad rad scale 0 0 1 270 90 arc tMatrix setmatrix
  closepath} bdef
/FlrRR {MlrRR stroke } bdef
/PlrRR {MlrRR fill } bdef
/MtbRR {/lry xdef /lrx xdef /uly xdef /ulx xdef /rad lrx ulx sub 2 div def
  newpath tMatrix currentmatrix pop ulx rad add uly rad add translate
  rad rad scale 0 0 1 180 360 arc tMatrix setmatrix lrx rad sub lry rad
  sub translate rad rad scale 0 0 1 0 180 arc tMatrix setmatrix
  closepath} bdef
/FtbRR {MtbRR stroke } bdef
/PtbRR {MtbRR fill } bdef
/stri 6 array def /dtri 6 array def
/smat 6 array def /dmat 6 array def
/tmat1 6 array def /tmat2 6 array def /dif 3 array def
/asub {/ind2 exch def /ind1 exch def dup dup
  ind1 get exch ind2 get sub exch } bdef
/tri_to_matrix {
  2 0 asub 3 1 asub 4 0 asub 5 1 asub
  dup 0 get exch 1 get 7 -1 roll astore } bdef
/compute_transform {
  dmat dtri tri_to_matrix tmat1 invertmatrix 
  smat stri tri_to_matrix tmat2 concatmatrix } bdef
/ds {stri astore pop} bdef
/dt {dtri astore pop} bdef
/db {2 copy /cols xdef /rows xdef mul dup 3 mul string
  currentfile 
  3 index 0 eq {/ASCIIHexDecode filter}
  {/ASCII85Decode filter 3 index 2 eq {/RunLengthDecode filter} if }
  ifelse exch readstring pop
  dup 0 3 index getinterval /rbmap xdef
  dup 2 index dup getinterval /gbmap xdef
  1 index dup 2 mul exch getinterval /bbmap xdef pop pop}bdef
/it {gs np dtri aload pop moveto lineto lineto cp c
  cols rows 8 compute_transform 
  rbmap gbmap bbmap true 3 colorimage gr}bdef
/il {newpath moveto lineto stroke}bdef
currentdict end def
%%EndProlog

%%BeginSetup
MathWorks begin

0 cap

end
%%EndSetup

%%Page: 1 1
%%BeginPageSetup
%%PageBoundingBox:    52   197   551   616
MathWorks begin
bpage
%%EndPageSetup

%%BeginObject: obj1
bplot

/dpi2point 12 def
portraitMode 0216 7344 csm

  418   -48  5986  5026 rc
85 dict begin %Colortable dictionary
/c0 { 0.000000 0.000000 0.000000 sr} bdef
/c1 { 1.000000 1.000000 1.000000 sr} bdef
/c2 { 0.900000 0.000000 0.000000 sr} bdef
/c3 { 0.000000 0.820000 0.000000 sr} bdef
/c4 { 0.000000 0.000000 0.800000 sr} bdef
/c5 { 0.910000 0.820000 0.320000 sr} bdef
/c6 { 1.000000 0.260000 0.820000 sr} bdef
/c7 { 0.000000 0.820000 0.820000 sr} bdef
c0
1 j
1 sg
   0    0 6913 5186 rf
6 w
0 4146 5356 0 0 -4146 899 4615 4 MP
PP
-5356 0 0 4146 5356 0 0 -4146 899 4615 5 MP stroke
4 w
DO
SO
6 w
0 sg
 899 4615 mt 6255 4615 L
 899  469 mt 6255  469 L
 899 4615 mt  899  469 L
6255 4615 mt 6255  469 L
 899 4615 mt 6255 4615 L
 899 4615 mt  899  469 L
 899 4615 mt  899 4561 L
 899  469 mt  899  522 L
%%IncludeResource: font Helvetica
/Helvetica /ISOLatin1Encoding 120 FMSR

 866 4760 mt 
(0) s
1791 4615 mt 1791 4561 L
1791  469 mt 1791  522 L
1725 4760 mt 
(50) s
2684 4615 mt 2684 4561 L
2684  469 mt 2684  522 L
2584 4760 mt 
(100) s
3577 4615 mt 3577 4561 L
3577  469 mt 3577  522 L
3477 4760 mt 
(150) s
4469 4615 mt 4469 4561 L
4469  469 mt 4469  522 L
4369 4760 mt 
(200) s
5362 4615 mt 5362 4561 L
5362  469 mt 5362  522 L
5262 4760 mt 
(250) s
6255 4615 mt 6255 4561 L
6255  469 mt 6255  522 L
6155 4760 mt 
(300) s
 899 4615 mt  952 4615 L
6255 4615 mt 6201 4615 L
 798 4659 mt 
(0) s
 899 4200 mt  952 4200 L
6255 4200 mt 6201 4200 L
 731 4244 mt 
(10) s
 899 3785 mt  952 3785 L
6255 3785 mt 6201 3785 L
 731 3829 mt 
(20) s
 899 3371 mt  952 3371 L
6255 3371 mt 6201 3371 L
 731 3415 mt 
(30) s
 899 2956 mt  952 2956 L
6255 2956 mt 6201 2956 L
 731 3000 mt 
(40) s
 899 2542 mt  952 2542 L
6255 2542 mt 6201 2542 L
 731 2586 mt 
(50) s
 899 2127 mt  952 2127 L
6255 2127 mt 6201 2127 L
 731 2171 mt 
(60) s
 899 1712 mt  952 1712 L
6255 1712 mt 6201 1712 L
 731 1756 mt 
(70) s
 899 1298 mt  952 1298 L
6255 1298 mt 6201 1298 L
 731 1342 mt 
(80) s
 899  883 mt  952  883 L
6255  883 mt 6201  883 L
 731  927 mt 
(90) s
 899  469 mt  952  469 L
6255  469 mt 6201  469 L
 664  513 mt 
(100) s
 899 4615 mt 6255 4615 L
 899  469 mt 6255  469 L
 899 4615 mt  899  469 L
6255 4615 mt 6255  469 L
gs 899 469 5357 4147 rc
899 469 PD
64 0 899 469 2 MP stroke
64 0 899 469 2 MP stroke
0 917 968 1681 2 MP stroke
128 0 904 1681 2 MP stroke
128 0 904 2598 2 MP stroke
0 804 1037 2106 2 MP stroke
128 0 973 2106 2 MP stroke
128 0 973 2910 2 MP stroke
0 960 1105 2267 2 MP stroke
128 0 1041 2267 2 MP stroke
128 0 1041 3227 2 MP stroke
0 884 1173 2559 2 MP stroke
129 0 1108 2559 2 MP stroke
129 0 1108 3443 2 MP stroke
0 749 1241 2786 2 MP stroke
129 0 1177 2786 2 MP stroke
129 0 1177 3535 2 MP stroke
0 701 1311 2964 2 MP stroke
129 0 1246 2964 2 MP stroke
129 0 1246 3665 2 MP stroke
0 841 1379 2992 2 MP stroke
129 0 1314 2992 2 MP stroke
129 0 1314 3833 2 MP stroke
0 802 1448 3107 2 MP stroke
129 0 1383 3107 2 MP stroke
129 0 1383 3909 2 MP stroke
0 867 1517 3151 2 MP stroke
128 0 1453 3151 2 MP stroke
128 0 1453 4018 2 MP stroke
0 792 1585 3210 2 MP stroke
129 0 1521 3210 2 MP stroke
129 0 1521 4002 2 MP stroke
0 727 1653 3382 2 MP stroke
129 0 1589 3382 2 MP stroke
129 0 1589 4109 2 MP stroke
0 716 1722 3445 2 MP stroke
128 0 1658 3445 2 MP stroke
128 0 1658 4161 2 MP stroke
0 730 1791 3507 2 MP stroke
129 0 1727 3507 2 MP stroke
129 0 1727 4237 2 MP stroke
0 655 1860 3559 2 MP stroke
129 0 1795 3559 2 MP stroke
129 0 1795 4214 2 MP stroke
0 616 1928 3699 2 MP stroke
128 0 1864 3699 2 MP stroke
128 0 1864 4315 2 MP stroke
0 591 1997 3737 2 MP stroke
129 0 1932 3737 2 MP stroke
129 0 1932 4328 2 MP stroke
0 635 2066 3743 2 MP stroke
129 0 2001 3743 2 MP stroke
129 0 2001 4378 2 MP stroke
0 598 2134 3781 2 MP stroke
128 0 2070 3781 2 MP stroke
128 0 2070 4379 2 MP stroke
0 626 2202 3812 2 MP stroke
129 0 2137 3812 2 MP stroke
129 0 2137 4438 2 MP stroke
0 585 2271 3880 2 MP stroke
129 0 2206 3880 2 MP stroke
129 0 2206 4465 2 MP stroke
0 604 2340 3900 2 MP stroke
129 0 2276 3900 2 MP stroke
129 0 2276 4504 2 MP stroke
0 560 2409 3953 2 MP stroke
129 0 2345 3953 2 MP stroke
129 0 2345 4513 2 MP stroke
0 559 2477 3942 2 MP stroke
129 0 2413 3942 2 MP stroke
129 0 2413 4501 2 MP stroke
0 462 2546 4043 2 MP stroke
129 0 2482 4043 2 MP stroke
129 0 2482 4505 2 MP stroke
0 586 2614 3963 2 MP stroke
129 0 2550 3963 2 MP stroke
129 0 2550 4549 2 MP stroke
0 515 2683 4011 2 MP stroke
128 0 2619 4011 2 MP stroke
128 0 2619 4526 2 MP stroke
0 539 2751 4005 2 MP stroke
129 0 2687 4005 2 MP stroke
129 0 2687 4544 2 MP stroke
0 498 2820 4108 2 MP stroke
128 0 2756 4108 2 MP stroke
128 0 2756 4606 2 MP stroke
0 620 2889 3996 2 MP stroke
129 0 2825 3996 2 MP stroke
0 484 2959 4132 2 MP stroke
129 0 2894 4132 2 MP stroke
0 524 3026 4092 2 MP stroke
128 0 2962 4092 2 MP stroke
0 499 3095 4117 2 MP stroke
129 0 3030 4117 2 MP stroke
0 514 3164 4102 2 MP stroke
128 0 3100 4102 2 MP stroke
0 360 3232 4256 2 MP stroke
129 0 3168 4256 2 MP stroke
0 383 3301 4233 2 MP stroke
129 0 3236 4233 2 MP stroke
0 362 3369 4254 2 MP stroke
129 0 3305 4254 2 MP stroke
0 377 3439 4239 2 MP stroke
129 0 3374 4239 2 MP stroke
0 395 3507 4221 2 MP stroke
128 0 3443 4221 2 MP stroke
0 354 3575 4262 2 MP stroke
128 0 3511 4262 2 MP stroke
0 312 3644 4304 2 MP stroke
129 0 3580 4304 2 MP stroke
0 358 3713 4258 2 MP stroke
128 0 3649 4258 2 MP stroke
0 283 3782 4333 2 MP stroke
128 0 3718 4333 2 MP stroke
0 293 3850 4323 2 MP stroke
128 0 3786 4323 2 MP stroke
0 372 3919 4244 2 MP stroke
129 0 3854 4244 2 MP stroke
0 289 3988 4327 2 MP stroke
129 0 3923 4327 2 MP stroke
0 235 4056 4381 2 MP stroke
129 0 3992 4381 2 MP stroke
0 260 4124 4356 2 MP stroke
129 0 4060 4356 2 MP stroke
0 242 4193 4374 2 MP stroke
129 0 4128 4374 2 MP stroke
0 238 4262 4378 2 MP stroke
128 0 4198 4378 2 MP stroke
0 212 4331 4404 2 MP stroke
129 0 4267 4404 2 MP stroke
0 153 4400 4463 2 MP stroke
129 0 4335 4463 2 MP stroke
0 197 4468 4419 2 MP stroke
128 0 4404 4419 2 MP stroke
0 188 4536 4428 2 MP stroke
129 0 4471 4428 2 MP stroke
0 198 4605 4418 2 MP stroke
129 0 4540 4418 2 MP stroke
0 158 4674 4458 2 MP stroke
128 0 4610 4458 2 MP stroke
0 142 4743 4474 2 MP stroke
129 0 4678 4474 2 MP stroke
0 170 4811 4446 2 MP stroke
129 0 4747 4446 2 MP stroke
0 188 4880 4428 2 MP stroke
128 0 4816 4428 2 MP stroke
0 219 4948 4397 2 MP stroke
128 0 4884 4397 2 MP stroke
0 226 5017 4390 2 MP stroke
129 0 4952 4390 2 MP stroke
0 161 5086 4455 2 MP stroke
129 0 5021 4455 2 MP stroke
0 131 5155 4485 2 MP stroke
128 0 5091 4485 2 MP stroke
0 142 5223 4474 2 MP stroke
129 0 5159 4474 2 MP stroke
0 138 5292 4478 2 MP stroke
129 0 5227 4478 2 MP stroke
0 122 5360 4494 2 MP stroke
129 0 5295 4494 2 MP stroke
0 115 5429 4501 2 MP stroke
129 0 5364 4501 2 MP stroke
0 212 5500 4404 2 MP stroke
129 0 5435 4404 2 MP stroke
0 162 5573 4454 2 MP stroke
129 0 5508 4454 2 MP stroke
0 177 5648 4439 2 MP stroke
128 0 5584 4439 2 MP stroke
0 165 5727 4451 2 MP stroke
129 0 5662 4451 2 MP stroke
0 165 5816 4451 2 MP stroke
128 0 5752 4451 2 MP stroke
0 122 5903 4494 2 MP stroke
128 0 5839 4494 2 MP stroke
0 114 5993 4502 2 MP stroke
129 0 5929 4502 2 MP stroke
0 122 6088 4494 2 MP stroke
129 0 6023 4494 2 MP stroke
0 160 6190 4456 2 MP stroke
129 0 6125 4456 2 MP stroke
2 0 6254 4522 2 MP stroke
48 17 68 -4 69 -4 69 31 69 -28 68 -2 69 16 68 -15 
69 17 69 8 69 18 68 -31 68 -16 69 22 69 12 69 -12 
69 64 68 -36 68 26 69 33 69 -1 68 -25 69 40 69 -24 
69 28 68 13 68 11 70 -7 68 29 69 -20 68 65 69 5 
69 10 67 -8 70 72 69 -45 69 83 68 6 69 12 68 -18 
69 53 68 -12 69 31 69 29 69 48 68 45 68 19 69 28 
69 26 68 121 69 14 69 69 69 57 68 140 68 22 69 76 
69 96 68 97 70 155 68 159 68 254 68 239 69 369 69 1670 
899 469 65 MP stroke
gr

 874  444 mt  924  494 L
 924  444 mt  874  494 L
 943 2114 mt  993 2164 L
 993 2114 mt  943 2164 L
1012 2483 mt 1062 2533 L
1062 2483 mt 1012 2533 L
1080 2722 mt 1130 2772 L
1130 2722 mt 1080 2772 L
1148 2976 mt 1198 3026 L
1198 2976 mt 1148 3026 L
1216 3135 mt 1266 3185 L
1266 3135 mt 1216 3185 L
1286 3290 mt 1336 3340 L
1336 3290 mt 1286 3340 L
1354 3387 mt 1404 3437 L
1404 3387 mt 1354 3437 L
1423 3483 mt 1473 3533 L
1473 3483 mt 1423 3533 L
1492 3559 mt 1542 3609 L
1542 3559 mt 1492 3609 L
1560 3581 mt 1610 3631 L
1610 3581 mt 1560 3631 L
1628 3721 mt 1678 3771 L
1678 3721 mt 1628 3771 L
1697 3778 mt 1747 3828 L
1747 3778 mt 1697 3828 L
1766 3847 mt 1816 3897 L
1816 3847 mt 1766 3897 L
1835 3861 mt 1885 3911 L
1885 3861 mt 1835 3911 L
1903 3982 mt 1953 4032 L
1953 3982 mt 1903 4032 L
1972 4008 mt 2022 4058 L
2022 4008 mt 1972 4058 L
2041 4036 mt 2091 4086 L
2091 4036 mt 2041 4086 L
2109 4055 mt 2159 4105 L
2159 4055 mt 2109 4105 L
2177 4100 mt 2227 4150 L
2227 4100 mt 2177 4150 L
2246 4148 mt 2296 4198 L
2296 4148 mt 2246 4198 L
2315 4177 mt 2365 4227 L
2365 4177 mt 2315 4227 L
2384 4208 mt 2434 4258 L
2434 4208 mt 2384 4258 L
2452 4196 mt 2502 4246 L
2502 4196 mt 2452 4246 L
2521 4249 mt 2571 4299 L
2571 4249 mt 2521 4299 L
2589 4231 mt 2639 4281 L
2639 4231 mt 2589 4281 L
2658 4243 mt 2708 4293 L
2708 4243 mt 2658 4293 L
2726 4249 mt 2776 4299 L
2776 4249 mt 2726 4299 L
2795 4332 mt 2845 4382 L
2845 4332 mt 2795 4382 L
2864 4287 mt 2914 4337 L
2914 4287 mt 2864 4337 L
2934 4359 mt 2984 4409 L
2984 4359 mt 2934 4409 L
3001 4351 mt 3051 4401 L
3051 4351 mt 3001 4401 L
3070 4361 mt 3120 4411 L
3120 4361 mt 3070 4411 L
3139 4366 mt 3189 4416 L
3189 4366 mt 3139 4416 L
3207 4431 mt 3257 4481 L
3257 4431 mt 3207 4481 L
3276 4411 mt 3326 4461 L
3326 4411 mt 3276 4461 L
3344 4440 mt 3394 4490 L
3394 4440 mt 3344 4490 L
3414 4433 mt 3464 4483 L
3464 4433 mt 3414 4483 L
3482 4444 mt 3532 4494 L
3532 4444 mt 3482 4494 L
3550 4457 mt 3600 4507 L
3600 4457 mt 3550 4507 L
3619 4485 mt 3669 4535 L
3669 4485 mt 3619 4535 L
3688 4461 mt 3738 4511 L
3738 4461 mt 3688 4511 L
3757 4501 mt 3807 4551 L
3807 4501 mt 3757 4551 L
3825 4476 mt 3875 4526 L
3875 4476 mt 3825 4526 L
3894 4475 mt 3944 4525 L
3944 4475 mt 3894 4525 L
3963 4508 mt 4013 4558 L
4013 4508 mt 3963 4558 L
4031 4534 mt 4081 4584 L
4081 4534 mt 4031 4584 L
4099 4498 mt 4149 4548 L
4149 4498 mt 4099 4548 L
4168 4562 mt 4218 4612 L
4218 4562 mt 4168 4612 L
4237 4550 mt 4287 4600 L
4287 4550 mt 4237 4600 L
4306 4562 mt 4356 4612 L
4356 4562 mt 4306 4612 L
4375 4584 mt 4425 4634 L
4425 4584 mt 4375 4634 L
4443 4568 mt 4493 4618 L
4493 4568 mt 4443 4618 L
4511 4537 mt 4561 4587 L
4561 4537 mt 4511 4587 L
4580 4555 mt 4630 4605 L
4630 4555 mt 4580 4605 L
4649 4563 mt 4699 4613 L
4699 4563 mt 4649 4613 L
4718 4580 mt 4768 4630 L
4768 4580 mt 4718 4630 L
4786 4565 mt 4836 4615 L
4836 4565 mt 4786 4615 L
4855 4581 mt 4905 4631 L
4905 4581 mt 4855 4631 L
4923 4579 mt 4973 4629 L
4973 4579 mt 4923 4629 L
4992 4551 mt 5042 4601 L
5042 4551 mt 4992 4601 L
5061 4582 mt 5111 4632 L
5111 4582 mt 5061 4632 L
5130 4578 mt 5180 4628 L
5180 4578 mt 5130 4628 L
5198 4574 mt 5248 4624 L
5248 4574 mt 5198 4624 L
gs 899 469 5357 4147 rc
68 22 89 2 79 -19 75 5 73 18 45 -28 5455 4616 7 MP stroke
gr

5475 4563 mt 5525 4613 L
5525 4563 mt 5475 4613 L
5548 4581 mt 5598 4631 L
5598 4581 mt 5548 4631 L
5623 4586 mt 5673 4636 L
5673 4586 mt 5623 4636 L
5702 4567 mt 5752 4617 L
5752 4567 mt 5702 4617 L
5791 4569 mt 5841 4619 L
5841 4569 mt 5791 4619 L
gs 899 469 5357 4147 rc
29 16 64 -16 6126 4616 3 MP stroke
gr

6165 4575 mt 6215 4625 L
6215 4575 mt 6165 4625 L
gs 899 469 5357 4147 rc
899 469 PD
64 0 899 469 2 MP stroke
64 0 899 469 2 MP stroke
0 664 968 469 2 MP stroke
128 0 904 1133 2 MP stroke
0 595 1037 568 2 MP stroke
128 0 973 568 2 MP stroke
128 0 973 1163 2 MP stroke
0 733 1105 469 2 MP stroke
128 0 1041 1202 2 MP stroke
0 631 1173 646 2 MP stroke
129 0 1108 646 2 MP stroke
129 0 1108 1277 2 MP stroke
0 560 1241 666 2 MP stroke
129 0 1177 666 2 MP stroke
129 0 1177 1226 2 MP stroke
0 753 1311 628 2 MP stroke
129 0 1246 628 2 MP stroke
129 0 1246 1381 2 MP stroke
0 784 1379 684 2 MP stroke
129 0 1314 684 2 MP stroke
129 0 1314 1468 2 MP stroke
0 600 1448 666 2 MP stroke
129 0 1383 666 2 MP stroke
129 0 1383 1266 2 MP stroke
0 781 1517 644 2 MP stroke
128 0 1453 644 2 MP stroke
128 0 1453 1425 2 MP stroke
0 621 1585 731 2 MP stroke
129 0 1521 731 2 MP stroke
129 0 1521 1352 2 MP stroke
0 1025 1653 600 2 MP stroke
129 0 1589 600 2 MP stroke
129 0 1589 1625 2 MP stroke
0 1026 1722 542 2 MP stroke
128 0 1658 542 2 MP stroke
128 0 1658 1568 2 MP stroke
0 908 1791 701 2 MP stroke
129 0 1727 701 2 MP stroke
129 0 1727 1609 2 MP stroke
0 955 1860 627 2 MP stroke
129 0 1795 627 2 MP stroke
129 0 1795 1582 2 MP stroke
0 1073 1928 571 2 MP stroke
128 0 1864 571 2 MP stroke
128 0 1864 1644 2 MP stroke
0 1001 1997 605 2 MP stroke
129 0 1932 605 2 MP stroke
129 0 1932 1606 2 MP stroke
0 1121 2066 504 2 MP stroke
129 0 2001 504 2 MP stroke
129 0 2001 1625 2 MP stroke
0 1355 2134 489 2 MP stroke
128 0 2070 489 2 MP stroke
128 0 2070 1844 2 MP stroke
0 1186 2202 632 2 MP stroke
129 0 2137 632 2 MP stroke
129 0 2137 1818 2 MP stroke
0 1430 2271 529 2 MP stroke
129 0 2206 529 2 MP stroke
129 0 2206 1959 2 MP stroke
0 1397 2340 578 2 MP stroke
129 0 2276 578 2 MP stroke
129 0 2276 1975 2 MP stroke
0 1363 2409 608 2 MP stroke
129 0 2345 608 2 MP stroke
129 0 2345 1971 2 MP stroke
0 1024 2477 758 2 MP stroke
129 0 2413 758 2 MP stroke
129 0 2413 1782 2 MP stroke
0 998 2546 710 2 MP stroke
129 0 2482 710 2 MP stroke
129 0 2482 1708 2 MP stroke
0 1137 2614 702 2 MP stroke
129 0 2550 702 2 MP stroke
129 0 2550 1839 2 MP stroke
0 1093 2683 741 2 MP stroke
128 0 2619 741 2 MP stroke
128 0 2619 1834 2 MP stroke
0 1201 2751 688 2 MP stroke
129 0 2687 688 2 MP stroke
129 0 2687 1889 2 MP stroke
0 1261 2820 606 2 MP stroke
128 0 2756 606 2 MP stroke
128 0 2756 1867 2 MP stroke
0 1329 2889 662 2 MP stroke
129 0 2825 662 2 MP stroke
129 0 2825 1991 2 MP stroke
0 1335 2959 545 2 MP stroke
129 0 2894 545 2 MP stroke
129 0 2894 1880 2 MP stroke
0 1195 3026 640 2 MP stroke
128 0 2962 640 2 MP stroke
128 0 2962 1835 2 MP stroke
0 1413 3095 566 2 MP stroke
129 0 3030 566 2 MP stroke
129 0 3030 1979 2 MP stroke
0 1262 3164 669 2 MP stroke
128 0 3100 669 2 MP stroke
128 0 3100 1931 2 MP stroke
0 1075 3232 649 2 MP stroke
129 0 3168 649 2 MP stroke
129 0 3168 1724 2 MP stroke
0 1174 3301 589 2 MP stroke
129 0 3236 589 2 MP stroke
129 0 3236 1763 2 MP stroke
0 1021 3369 868 2 MP stroke
129 0 3305 868 2 MP stroke
129 0 3305 1889 2 MP stroke
0 988 3439 899 2 MP stroke
129 0 3374 899 2 MP stroke
129 0 3374 1887 2 MP stroke
0 1116 3507 712 2 MP stroke
128 0 3443 712 2 MP stroke
128 0 3443 1828 2 MP stroke
0 1021 3575 811 2 MP stroke
128 0 3511 811 2 MP stroke
128 0 3511 1832 2 MP stroke
0 1008 3644 966 2 MP stroke
129 0 3580 966 2 MP stroke
129 0 3580 1974 2 MP stroke
0 900 3713 989 2 MP stroke
128 0 3649 989 2 MP stroke
128 0 3649 1889 2 MP stroke
0 923 3782 936 2 MP stroke
128 0 3718 936 2 MP stroke
128 0 3718 1859 2 MP stroke
0 947 3850 917 2 MP stroke
128 0 3786 917 2 MP stroke
128 0 3786 1864 2 MP stroke
0 991 3919 873 2 MP stroke
129 0 3854 873 2 MP stroke
129 0 3854 1864 2 MP stroke
0 1132 3988 840 2 MP stroke
129 0 3923 840 2 MP stroke
129 0 3923 1972 2 MP stroke
0 943 4056 974 2 MP stroke
129 0 3992 974 2 MP stroke
129 0 3992 1917 2 MP stroke
0 1045 4124 861 2 MP stroke
129 0 4060 861 2 MP stroke
129 0 4060 1906 2 MP stroke
0 1080 4193 878 2 MP stroke
129 0 4128 878 2 MP stroke
129 0 4128 1958 2 MP stroke
0 1005 4262 924 2 MP stroke
128 0 4198 924 2 MP stroke
128 0 4198 1929 2 MP stroke
0 1076 4331 979 2 MP stroke
129 0 4267 979 2 MP stroke
129 0 4267 2055 2 MP stroke
0 822 4400 955 2 MP stroke
129 0 4335 955 2 MP stroke
129 0 4335 1777 2 MP stroke
0 903 4468 1084 2 MP stroke
128 0 4404 1084 2 MP stroke
128 0 4404 1987 2 MP stroke
0 1184 4536 984 2 MP stroke
129 0 4471 984 2 MP stroke
129 0 4471 2168 2 MP stroke
0 1046 4605 981 2 MP stroke
129 0 4540 981 2 MP stroke
129 0 4540 2027 2 MP stroke
0 1021 4674 1035 2 MP stroke
128 0 4610 1035 2 MP stroke
128 0 4610 2056 2 MP stroke
0 1041 4743 876 2 MP stroke
129 0 4678 876 2 MP stroke
129 0 4678 1917 2 MP stroke
0 1105 4811 964 2 MP stroke
129 0 4747 964 2 MP stroke
129 0 4747 2069 2 MP stroke
0 1325 4880 790 2 MP stroke
128 0 4816 790 2 MP stroke
128 0 4816 2115 2 MP stroke
0 1160 4948 932 2 MP stroke
128 0 4884 932 2 MP stroke
128 0 4884 2092 2 MP stroke
0 979 5017 961 2 MP stroke
129 0 4952 961 2 MP stroke
129 0 4952 1940 2 MP stroke
0 1060 5086 939 2 MP stroke
129 0 5021 939 2 MP stroke
129 0 5021 1999 2 MP stroke
0 969 5155 883 2 MP stroke
128 0 5091 883 2 MP stroke
128 0 5091 1852 2 MP stroke
0 1119 5223 922 2 MP stroke
129 0 5159 922 2 MP stroke
129 0 5159 2041 2 MP stroke
0 1144 5292 1068 2 MP stroke
129 0 5227 1068 2 MP stroke
129 0 5227 2212 2 MP stroke
0 1130 5360 930 2 MP stroke
129 0 5295 930 2 MP stroke
129 0 5295 2060 2 MP stroke
0 917 5429 1026 2 MP stroke
129 0 5364 1026 2 MP stroke
129 0 5364 1943 2 MP stroke
0 1043 5500 1082 2 MP stroke
129 0 5435 1082 2 MP stroke
129 0 5435 2125 2 MP stroke
0 923 5573 953 2 MP stroke
129 0 5508 953 2 MP stroke
129 0 5508 1876 2 MP stroke
0 1320 5648 731 2 MP stroke
128 0 5584 731 2 MP stroke
128 0 5584 2051 2 MP stroke
0 1098 5727 1076 2 MP stroke
129 0 5662 1076 2 MP stroke
129 0 5662 2174 2 MP stroke
0 922 5816 978 2 MP stroke
128 0 5752 978 2 MP stroke
128 0 5752 1900 2 MP stroke
0 1002 5903 987 2 MP stroke
128 0 5839 987 2 MP stroke
128 0 5839 1989 2 MP stroke
0 872 5993 1018 2 MP stroke
129 0 5929 1018 2 MP stroke
129 0 5929 1890 2 MP stroke
0 1036 6088 906 2 MP stroke
129 0 6023 906 2 MP stroke
129 0 6023 1942 2 MP stroke
0 1213 6190 1003 2 MP stroke
129 0 6125 1003 2 MP stroke
129 0 6125 2216 2 MP stroke
2 0 6254 958 2 MP stroke
2 0 6254 2252 2 MP stroke
66 -3 102 186 95 -30 90 -34 87 49 89 -186 79 234 75 -24 
73 -188 71 118 69 -10 68 -145 69 159 68 114 69 -102 69 19 
69 -62 68 60 69 -64 68 119 69 -149 69 42 69 -72 68 41 
68 169 69 -151 69 91 69 8 69 34 68 -62 68 40 69 38 
69 -23 68 -6 69 -42 69 -31 69 149 68 51 68 -123 70 14 
68 203 69 -10 68 -114 69 27 69 36 67 25 70 -114 69 89 
69 -51 68 0 69 17 68 62 69 -61 68 -20 69 14 69 32 
69 19 68 59 68 101 69 -41 69 -2 68 4 69 -51 69 100 
69 -57 68 71 68 6 69 69 69 -110 68 72 70 58 68 -16 
68 170 68 -74 69 167 69 230 899 469 77 MP stroke
gr

 874  444 mt  924  494 L
 924  444 mt  874  494 L
 943  674 mt  993  724 L
 993  674 mt  943  724 L
1012  841 mt 1062  891 L
1062  841 mt 1012  891 L
1080  767 mt 1130  817 L
1130  767 mt 1080  817 L
1148  937 mt 1198  987 L
1198  937 mt 1148  987 L
1216  921 mt 1266  971 L
1266  921 mt 1216  971 L
1286  979 mt 1336 1029 L
1336  979 mt 1286 1029 L
1354 1051 mt 1404 1101 L
1404 1051 mt 1354 1101 L
1423  941 mt 1473  991 L
1473  941 mt 1423  991 L
1492 1010 mt 1542 1060 L
1542 1010 mt 1492 1060 L
1560 1016 mt 1610 1066 L
1610 1016 mt 1560 1066 L
1628 1087 mt 1678 1137 L
1678 1087 mt 1628 1137 L
1697 1030 mt 1747 1080 L
1747 1030 mt 1697 1080 L
1766 1130 mt 1816 1180 L
1816 1130 mt 1766 1180 L
1835 1079 mt 1885 1129 L
1885 1079 mt 1835 1129 L
1903 1083 mt 1953 1133 L
1953 1083 mt 1903 1133 L
1972 1081 mt 2022 1131 L
2022 1081 mt 1972 1131 L
2041 1040 mt 2091 1090 L
2091 1040 mt 2041 1090 L
2109 1141 mt 2159 1191 L
2159 1141 mt 2109 1191 L
2177 1200 mt 2227 1250 L
2227 1200 mt 2177 1250 L
2246 1219 mt 2296 1269 L
2296 1219 mt 2246 1269 L
2315 1251 mt 2365 1301 L
2365 1251 mt 2315 1301 L
2384 1265 mt 2434 1315 L
2434 1265 mt 2384 1315 L
2452 1245 mt 2502 1295 L
2502 1245 mt 2452 1295 L
2521 1184 mt 2571 1234 L
2571 1184 mt 2521 1234 L
2589 1246 mt 2639 1296 L
2639 1246 mt 2589 1296 L
2658 1263 mt 2708 1313 L
2708 1263 mt 2658 1313 L
2726 1263 mt 2776 1313 L
2776 1263 mt 2726 1313 L
2795 1212 mt 2845 1262 L
2845 1212 mt 2795 1262 L
2864 1301 mt 2914 1351 L
2914 1301 mt 2864 1351 L
2934 1187 mt 2984 1237 L
2984 1187 mt 2934 1237 L
3001 1212 mt 3051 1262 L
3051 1212 mt 3001 1262 L
3070 1248 mt 3120 1298 L
3120 1248 mt 3070 1298 L
3139 1275 mt 3189 1325 L
3189 1275 mt 3139 1325 L
3207 1161 mt 3257 1211 L
3257 1161 mt 3207 1211 L
3276 1151 mt 3326 1201 L
3326 1151 mt 3276 1201 L
3344 1354 mt 3394 1404 L
3394 1354 mt 3344 1404 L
3414 1368 mt 3464 1418 L
3464 1368 mt 3414 1418 L
3482 1245 mt 3532 1295 L
3532 1245 mt 3482 1295 L
3550 1296 mt 3600 1346 L
3600 1296 mt 3550 1346 L
3619 1445 mt 3669 1495 L
3669 1445 mt 3619 1495 L
3688 1414 mt 3738 1464 L
3738 1414 mt 3688 1464 L
3757 1372 mt 3807 1422 L
3807 1372 mt 3757 1422 L
3825 1366 mt 3875 1416 L
3875 1366 mt 3825 1416 L
3894 1343 mt 3944 1393 L
3944 1343 mt 3894 1393 L
3963 1381 mt 4013 1431 L
4013 1381 mt 3963 1431 L
4031 1421 mt 4081 1471 L
4081 1421 mt 4031 1471 L
4099 1359 mt 4149 1409 L
4149 1359 mt 4099 1409 L
4168 1393 mt 4218 1443 L
4218 1393 mt 4168 1443 L
4237 1401 mt 4287 1451 L
4287 1401 mt 4237 1451 L
4306 1492 mt 4356 1542 L
4356 1492 mt 4306 1542 L
4375 1341 mt 4425 1391 L
4425 1341 mt 4375 1391 L
4443 1510 mt 4493 1560 L
4493 1510 mt 4443 1560 L
4511 1551 mt 4561 1601 L
4561 1551 mt 4511 1601 L
4580 1479 mt 4630 1529 L
4630 1479 mt 4580 1529 L
4649 1521 mt 4699 1571 L
4699 1521 mt 4649 1571 L
4718 1372 mt 4768 1422 L
4768 1372 mt 4718 1422 L
4786 1491 mt 4836 1541 L
4836 1491 mt 4786 1541 L
4855 1427 mt 4905 1477 L
4905 1427 mt 4855 1477 L
4923 1487 mt 4973 1537 L
4973 1487 mt 4923 1537 L
4992 1425 mt 5042 1475 L
5042 1425 mt 4992 1475 L
5061 1444 mt 5111 1494 L
5111 1444 mt 5061 1494 L
5130 1342 mt 5180 1392 L
5180 1342 mt 5130 1392 L
5198 1456 mt 5248 1506 L
5248 1456 mt 5198 1506 L
5267 1615 mt 5317 1665 L
5317 1615 mt 5267 1665 L
5335 1470 mt 5385 1520 L
5385 1470 mt 5335 1520 L
5404 1460 mt 5454 1510 L
5454 1460 mt 5404 1510 L
5475 1578 mt 5525 1628 L
5525 1578 mt 5475 1628 L
5548 1390 mt 5598 1440 L
5598 1390 mt 5548 1440 L
5623 1366 mt 5673 1416 L
5673 1366 mt 5623 1416 L
5702 1600 mt 5752 1650 L
5752 1600 mt 5702 1650 L
5791 1414 mt 5841 1464 L
5841 1414 mt 5791 1464 L
5878 1463 mt 5928 1513 L
5928 1463 mt 5878 1513 L
5968 1429 mt 6018 1479 L
6018 1429 mt 5968 1479 L
6063 1399 mt 6113 1449 L
6113 1399 mt 6063 1449 L
6165 1585 mt 6215 1635 L
6215 1585 mt 6165 1635 L
gs 899 469 5357 4147 rc
/c8 { 1.000000 0.000000 0.000000 sr} bdef
c8
19 0 899 494 2 MP stroke
899 469 PD
55 0 899 469 2 MP stroke
55 0 899 469 2 MP stroke
0 334 934 1028 2 MP stroke
91 0 899 1028 2 MP stroke
91 0 899 1362 2 MP stroke
0 504 970 1406 2 MP stroke
110 0 915 1406 2 MP stroke
110 0 915 1910 2 MP stroke
0 577 1006 1733 2 MP stroke
111 0 950 1733 2 MP stroke
111 0 950 2310 2 MP stroke
0 638 1041 2014 2 MP stroke
111 0 986 2014 2 MP stroke
111 0 986 2652 2 MP stroke
0 652 1077 2305 2 MP stroke
110 0 1022 2305 2 MP stroke
110 0 1022 2957 2 MP stroke
0 738 1113 2498 2 MP stroke
111 0 1057 2498 2 MP stroke
111 0 1057 3236 2 MP stroke
0 712 1148 2707 2 MP stroke
111 0 1093 2707 2 MP stroke
111 0 1093 3419 2 MP stroke
0 662 1184 2901 2 MP stroke
110 0 1129 2901 2 MP stroke
110 0 1129 3563 2 MP stroke
0 624 1220 3074 2 MP stroke
110 0 1165 3074 2 MP stroke
110 0 1165 3698 2 MP stroke
0 637 1256 3203 2 MP stroke
111 0 1200 3203 2 MP stroke
111 0 1200 3840 2 MP stroke
0 624 1291 3346 2 MP stroke
111 0 1236 3346 2 MP stroke
111 0 1236 3970 2 MP stroke
0 593 1327 3485 2 MP stroke
110 0 1272 3485 2 MP stroke
110 0 1272 4078 2 MP stroke
0 520 1363 3616 2 MP stroke
111 0 1307 3616 2 MP stroke
111 0 1307 4136 2 MP stroke
0 539 1398 3678 2 MP stroke
111 0 1343 3678 2 MP stroke
111 0 1343 4217 2 MP stroke
0 516 1434 3752 2 MP stroke
110 0 1379 3752 2 MP stroke
110 0 1379 4268 2 MP stroke
0 479 1470 3826 2 MP stroke
111 0 1414 3826 2 MP stroke
111 0 1414 4305 2 MP stroke
0 415 1506 3940 2 MP stroke
111 0 1450 3940 2 MP stroke
111 0 1450 4355 2 MP stroke
0 407 1541 3975 2 MP stroke
111 0 1486 3975 2 MP stroke
111 0 1486 4382 2 MP stroke
0 408 1577 4013 2 MP stroke
110 0 1522 4013 2 MP stroke
110 0 1522 4421 2 MP stroke
0 380 1613 4058 2 MP stroke
111 0 1557 4058 2 MP stroke
111 0 1557 4438 2 MP stroke
0 345 1648 4119 2 MP stroke
111 0 1593 4119 2 MP stroke
111 0 1593 4464 2 MP stroke
0 325 1684 4151 2 MP stroke
110 0 1629 4151 2 MP stroke
110 0 1629 4476 2 MP stroke
0 289 1720 4203 2 MP stroke
111 0 1664 4203 2 MP stroke
111 0 1664 4492 2 MP stroke
0 247 1755 4258 2 MP stroke
111 0 1700 4258 2 MP stroke
111 0 1700 4505 2 MP stroke
0 255 1791 4276 2 MP stroke
111 0 1736 4276 2 MP stroke
111 0 1736 4531 2 MP stroke
0 246 1827 4293 2 MP stroke
110 0 1772 4293 2 MP stroke
110 0 1772 4539 2 MP stroke
0 222 1863 4320 2 MP stroke
111 0 1807 4320 2 MP stroke
111 0 1807 4542 2 MP stroke
0 208 1898 4330 2 MP stroke
111 0 1843 4330 2 MP stroke
111 0 1843 4538 2 MP stroke
0 208 1934 4336 2 MP stroke
110 0 1879 4336 2 MP stroke
110 0 1879 4544 2 MP stroke
0 222 1970 4338 2 MP stroke
111 0 1914 4338 2 MP stroke
111 0 1914 4560 2 MP stroke
0 196 2005 4362 2 MP stroke
111 0 1950 4362 2 MP stroke
111 0 1950 4558 2 MP stroke
0 177 2041 4384 2 MP stroke
110 0 1986 4384 2 MP stroke
110 0 1986 4561 2 MP stroke
0 191 2077 4379 2 MP stroke
111 0 2021 4379 2 MP stroke
111 0 2021 4570 2 MP stroke
0 207 2113 4369 2 MP stroke
111 0 2057 4369 2 MP stroke
111 0 2057 4576 2 MP stroke
0 212 2148 4377 2 MP stroke
111 0 2093 4377 2 MP stroke
111 0 2093 4589 2 MP stroke
0 201 2184 4394 2 MP stroke
110 0 2129 4394 2 MP stroke
110 0 2129 4595 2 MP stroke
0 196 2220 4406 2 MP stroke
111 0 2164 4406 2 MP stroke
111 0 2164 4602 2 MP stroke
0 203 2255 4403 2 MP stroke
111 0 2200 4403 2 MP stroke
111 0 2200 4606 2 MP stroke
0 202 2291 4414 2 MP stroke
110 0 2236 4414 2 MP stroke
0 199 2327 4417 2 MP stroke
111 0 2271 4417 2 MP stroke
0 193 2362 4421 2 MP stroke
111 0 2307 4421 2 MP stroke
111 0 2307 4614 2 MP stroke
0 182 2398 4421 2 MP stroke
111 0 2343 4421 2 MP stroke
111 0 2343 4603 2 MP stroke
0 173 2434 4426 2 MP stroke
110 0 2379 4426 2 MP stroke
110 0 2379 4599 2 MP stroke
0 172 2470 4425 2 MP stroke
111 0 2414 4425 2 MP stroke
111 0 2414 4597 2 MP stroke
0 163 2505 4432 2 MP stroke
111 0 2450 4432 2 MP stroke
111 0 2450 4595 2 MP stroke
0 161 2541 4437 2 MP stroke
110 0 2486 4437 2 MP stroke
110 0 2486 4598 2 MP stroke
0 145 2577 4438 2 MP stroke
111 0 2521 4438 2 MP stroke
111 0 2521 4583 2 MP stroke
0 129 2612 4451 2 MP stroke
111 0 2557 4451 2 MP stroke
111 0 2557 4580 2 MP stroke
0 128 2648 4455 2 MP stroke
110 0 2593 4455 2 MP stroke
110 0 2593 4583 2 MP stroke
0 139 2684 4453 2 MP stroke
111 0 2628 4453 2 MP stroke
111 0 2628 4592 2 MP stroke
0 155 2720 4443 2 MP stroke
111 0 2664 4443 2 MP stroke
111 0 2664 4598 2 MP stroke
0 170 2755 4438 2 MP stroke
111 0 2700 4438 2 MP stroke
111 0 2700 4608 2 MP stroke
0 175 2791 4426 2 MP stroke
110 0 2736 4426 2 MP stroke
110 0 2736 4601 2 MP stroke
0 163 2827 4439 2 MP stroke
111 0 2771 4439 2 MP stroke
111 0 2771 4602 2 MP stroke
0 141 2862 4467 2 MP stroke
111 0 2807 4467 2 MP stroke
111 0 2807 4608 2 MP stroke
0 138 2898 4468 2 MP stroke
110 0 2843 4468 2 MP stroke
110 0 2843 4606 2 MP stroke
0 147 2934 4465 2 MP stroke
111 0 2878 4465 2 MP stroke
111 0 2878 4612 2 MP stroke
0 153 2969 4463 2 MP stroke
111 0 2914 4463 2 MP stroke
0 158 3005 4458 2 MP stroke
111 0 2950 4458 2 MP stroke
0 163 3041 4443 2 MP stroke
110 0 2986 4443 2 MP stroke
110 0 2986 4606 2 MP stroke
0 141 3077 4456 2 MP stroke
111 0 3021 4456 2 MP stroke
111 0 3021 4597 2 MP stroke
0 141 3112 4462 2 MP stroke
111 0 3057 4462 2 MP stroke
111 0 3057 4603 2 MP stroke
0 140 3148 4467 2 MP stroke
110 0 3093 4467 2 MP stroke
110 0 3093 4607 2 MP stroke
0 139 3184 4469 2 MP stroke
111 0 3128 4469 2 MP stroke
111 0 3128 4608 2 MP stroke
0 153 3219 4460 2 MP stroke
111 0 3164 4460 2 MP stroke
111 0 3164 4613 2 MP stroke
0 169 3255 4447 2 MP stroke
110 0 3200 4447 2 MP stroke
0 164 3291 4440 2 MP stroke
110 0 3236 4440 2 MP stroke
110 0 3236 4604 2 MP stroke
0 172 3327 4434 2 MP stroke
111 0 3271 4434 2 MP stroke
111 0 3271 4606 2 MP stroke
0 157 3362 4446 2 MP stroke
111 0 3307 4446 2 MP stroke
111 0 3307 4603 2 MP stroke
0 132 3398 4462 2 MP stroke
110 0 3343 4462 2 MP stroke
110 0 3343 4594 2 MP stroke
0 135 3434 4467 2 MP stroke
111 0 3378 4467 2 MP stroke
111 0 3378 4602 2 MP stroke
0 125 3469 4479 2 MP stroke
111 0 3414 4479 2 MP stroke
111 0 3414 4604 2 MP stroke
0 124 3505 4478 2 MP stroke
110 0 3450 4478 2 MP stroke
110 0 3450 4602 2 MP stroke
0 119 3541 4481 2 MP stroke
111 0 3485 4481 2 MP stroke
111 0 3485 4600 2 MP stroke
0 119 3577 4476 2 MP stroke
111 0 3521 4476 2 MP stroke
111 0 3521 4595 2 MP stroke
0 119 3612 4475 2 MP stroke
111 0 3557 4475 2 MP stroke
111 0 3557 4594 2 MP stroke
0 111 3648 4484 2 MP stroke
110 0 3593 4484 2 MP stroke
110 0 3593 4595 2 MP stroke
0 104 3684 4485 2 MP stroke
111 0 3628 4485 2 MP stroke
111 0 3628 4589 2 MP stroke
0 99 3719 4489 2 MP stroke
111 0 3664 4489 2 MP stroke
111 0 3664 4588 2 MP stroke
0 100 3755 4484 2 MP stroke
110 0 3700 4484 2 MP stroke
110 0 3700 4584 2 MP stroke
0 88 3791 4496 2 MP stroke
111 0 3735 4496 2 MP stroke
111 0 3735 4584 2 MP stroke
0 89 3826 4497 2 MP stroke
111 0 3771 4497 2 MP stroke
111 0 3771 4586 2 MP stroke
0 103 3862 4494 2 MP stroke
110 0 3807 4494 2 MP stroke
110 0 3807 4597 2 MP stroke
0 117 3898 4486 2 MP stroke
110 0 3843 4486 2 MP stroke
110 0 3843 4603 2 MP stroke
0 120 3934 4491 2 MP stroke
111 0 3878 4491 2 MP stroke
111 0 3878 4611 2 MP stroke
0 116 3969 4494 2 MP stroke
111 0 3914 4494 2 MP stroke
111 0 3914 4610 2 MP stroke
0 112 4005 4502 2 MP stroke
110 0 3950 4502 2 MP stroke
110 0 3950 4614 2 MP stroke
0 97 4041 4507 2 MP stroke
111 0 3985 4507 2 MP stroke
111 0 3985 4604 2 MP stroke
0 101 4076 4494 2 MP stroke
111 0 4021 4494 2 MP stroke
111 0 4021 4595 2 MP stroke
0 103 4112 4491 2 MP stroke
110 0 4057 4491 2 MP stroke
110 0 4057 4594 2 MP stroke
0 110 4148 4488 2 MP stroke
111 0 4092 4488 2 MP stroke
111 0 4092 4598 2 MP stroke
0 109 4184 4491 2 MP stroke
111 0 4128 4491 2 MP stroke
111 0 4128 4600 2 MP stroke
0 103 4219 4499 2 MP stroke
111 0 4164 4499 2 MP stroke
111 0 4164 4602 2 MP stroke
0 132 4255 4478 2 MP stroke
110 0 4200 4478 2 MP stroke
110 0 4200 4610 2 MP stroke
0 125 4291 4480 2 MP stroke
111 0 4235 4480 2 MP stroke
111 0 4235 4605 2 MP stroke
0 124 4326 4483 2 MP stroke
111 0 4271 4483 2 MP stroke
111 0 4271 4607 2 MP stroke
0 134 4362 4478 2 MP stroke
110 0 4307 4478 2 MP stroke
110 0 4307 4612 2 MP stroke
0 136 4398 4469 2 MP stroke
111 0 4342 4469 2 MP stroke
111 0 4342 4605 2 MP stroke
0 141 4433 4466 2 MP stroke
111 0 4378 4466 2 MP stroke
111 0 4378 4607 2 MP stroke
0 114 4469 4481 2 MP stroke
111 0 4414 4481 2 MP stroke
111 0 4414 4595 2 MP stroke
0 111 4505 4483 2 MP stroke
110 0 4450 4483 2 MP stroke
110 0 4450 4594 2 MP stroke
0 134 4541 4468 2 MP stroke
111 0 4485 4468 2 MP stroke
111 0 4485 4602 2 MP stroke
0 129 4576 4476 2 MP stroke
111 0 4521 4476 2 MP stroke
111 0 4521 4605 2 MP stroke
0 119 4612 4484 2 MP stroke
110 0 4557 4484 2 MP stroke
110 0 4557 4603 2 MP stroke
0 118 4648 4491 2 MP stroke
111 0 4592 4491 2 MP stroke
111 0 4592 4609 2 MP stroke
0 121 4683 4490 2 MP stroke
111 0 4628 4490 2 MP stroke
111 0 4628 4611 2 MP stroke
0 123 4719 4491 2 MP stroke
110 0 4664 4491 2 MP stroke
110 0 4664 4614 2 MP stroke
0 127 4755 4485 2 MP stroke
111 0 4699 4485 2 MP stroke
111 0 4699 4612 2 MP stroke
0 112 4791 4490 2 MP stroke
111 0 4735 4490 2 MP stroke
111 0 4735 4602 2 MP stroke
0 121 4826 4487 2 MP stroke
111 0 4771 4487 2 MP stroke
111 0 4771 4608 2 MP stroke
0 113 4862 4497 2 MP stroke
110 0 4807 4497 2 MP stroke
110 0 4807 4610 2 MP stroke
0 105 4898 4500 2 MP stroke
111 0 4842 4500 2 MP stroke
111 0 4842 4605 2 MP stroke
0 105 4933 4499 2 MP stroke
111 0 4878 4499 2 MP stroke
111 0 4878 4604 2 MP stroke
0 90 4969 4506 2 MP stroke
110 0 4914 4506 2 MP stroke
110 0 4914 4596 2 MP stroke
0 82 5005 4512 2 MP stroke
111 0 4949 4512 2 MP stroke
111 0 4949 4594 2 MP stroke
0 88 5040 4509 2 MP stroke
111 0 4985 4509 2 MP stroke
111 0 4985 4597 2 MP stroke
0 105 5076 4495 2 MP stroke
111 0 5021 4495 2 MP stroke
111 0 5021 4600 2 MP stroke
0 112 5112 4487 2 MP stroke
110 0 5057 4487 2 MP stroke
110 0 5057 4599 2 MP stroke
0 119 5148 4482 2 MP stroke
111 0 5092 4482 2 MP stroke
111 0 5092 4601 2 MP stroke
0 119 5183 4477 2 MP stroke
111 0 5128 4477 2 MP stroke
111 0 5128 4596 2 MP stroke
0 144 5219 4465 2 MP stroke
110 0 5164 4465 2 MP stroke
110 0 5164 4609 2 MP stroke
0 134 5255 4466 2 MP stroke
111 0 5199 4466 2 MP stroke
111 0 5199 4600 2 MP stroke
0 147 5290 4461 2 MP stroke
111 0 5235 4461 2 MP stroke
111 0 5235 4608 2 MP stroke
0 134 5326 4474 2 MP stroke
110 0 5271 4474 2 MP stroke
110 0 5271 4608 2 MP stroke
0 142 5362 4467 2 MP stroke
111 0 5306 4467 2 MP stroke
111 0 5306 4609 2 MP stroke
0 139 5398 4472 2 MP stroke
111 0 5342 4472 2 MP stroke
111 0 5342 4611 2 MP stroke
0 134 5433 4476 2 MP stroke
111 0 5378 4476 2 MP stroke
111 0 5378 4610 2 MP stroke
0 155 5469 4461 2 MP stroke
110 0 5414 4461 2 MP stroke
0 154 5505 4462 2 MP stroke
111 0 5449 4462 2 MP stroke
0 150 5540 4466 2 MP stroke
111 0 5485 4466 2 MP stroke
0 106 5576 4497 2 MP stroke
110 0 5521 4497 2 MP stroke
110 0 5521 4603 2 MP stroke
0 111 5612 4495 2 MP stroke
111 0 5556 4495 2 MP stroke
111 0 5556 4606 2 MP stroke
0 108 5647 4493 2 MP stroke
111 0 5592 4493 2 MP stroke
111 0 5592 4601 2 MP stroke
0 101 5683 4505 2 MP stroke
111 0 5628 4505 2 MP stroke
111 0 5628 4606 2 MP stroke
0 106 5719 4499 2 MP stroke
110 0 5664 4499 2 MP stroke
110 0 5664 4605 2 MP stroke
0 102 5755 4498 2 MP stroke
111 0 5699 4498 2 MP stroke
111 0 5699 4600 2 MP stroke
0 108 5790 4496 2 MP stroke
111 0 5735 4496 2 MP stroke
111 0 5735 4604 2 MP stroke
0 106 5826 4503 2 MP stroke
110 0 5771 4503 2 MP stroke
110 0 5771 4609 2 MP stroke
0 105 5862 4507 2 MP stroke
111 0 5806 4507 2 MP stroke
111 0 5806 4612 2 MP stroke
0 101 5897 4511 2 MP stroke
111 0 5842 4511 2 MP stroke
111 0 5842 4612 2 MP stroke
0 111 5933 4501 2 MP stroke
110 0 5878 4501 2 MP stroke
110 0 5878 4612 2 MP stroke
0 107 5969 4506 2 MP stroke
110 0 5914 4506 2 MP stroke
110 0 5914 4613 2 MP stroke
0 99 6005 4509 2 MP stroke
111 0 5949 4509 2 MP stroke
111 0 5949 4608 2 MP stroke
0 115 6040 4501 2 MP stroke
111 0 5985 4501 2 MP stroke
0 119 6076 4494 2 MP stroke
110 0 6021 4494 2 MP stroke
110 0 6021 4613 2 MP stroke
0 128 6112 4486 2 MP stroke
111 0 6056 4486 2 MP stroke
111 0 6056 4614 2 MP stroke
0 125 6147 4484 2 MP stroke
111 0 6092 4484 2 MP stroke
111 0 6092 4609 2 MP stroke
0 125 6183 4486 2 MP stroke
110 0 6128 4486 2 MP stroke
110 0 6128 4611 2 MP stroke
0 113 6219 4495 2 MP stroke
93 0 6163 4495 2 MP stroke
93 0 6163 4608 2 MP stroke
0 104 6255 4502 2 MP stroke
57 0 6199 4502 2 MP stroke
57 0 6199 4606 2 MP stroke
36 3 36 2 36 3 35 -4 36 -3 36 -6 35 0 36 -1 
36 4 36 -5 35 2 36 3 36 6 35 1 36 -3 36 -3 
36 8 35 -3 36 0 36 9 35 1 36 1 36 -4 35 2 
36 3 36 -3 36 7 35 1 36 -4 36 0 35 -4 36 -2 
36 -5 36 -5 35 0 36 2 36 0 35 -1 36 -2 36 7 
35 1 36 -2 36 -5 36 2 35 1 36 7 36 2 35 6 
36 -4 36 1 36 2 35 -1 36 -8 36 0 35 2 36 -1 
36 -7 35 6 36 2 36 1 36 -2 35 -12 36 -2 36 6 
35 1 36 6 36 0 36 4 35 1 36 6 36 -5 35 2 
36 -2 36 4 35 -1 36 -4 36 0 36 -2 35 8 36 6 
36 3 35 5 36 -2 36 -9 36 -6 35 -1 36 1 36 4 
35 6 36 3 36 -13 36 -4 35 2 36 2 36 0 35 17 
36 7 36 -10 35 3 36 -3 36 4 36 3 35 6 36 -8 
36 4 35 3 36 -2 36 1 36 -6 35 1 36 2 36 10 
35 1 36 9 36 12 35 10 36 -2 36 3 36 12 35 11 
36 9 36 6 35 3 36 15 36 12 36 23 35 33 36 35 
36 21 35 44 36 31 36 38 35 32 36 82 36 55 36 63 
35 71 36 94 36 124 35 136 36 136 36 154 36 169 35 196 
36 236 36 298 35 312 36 363 36 463 35 726 899 469 151 MP stroke
gr

c8
  36   36  934 1195 FO
  36   36  970 1658 FO
  36   36 1006 2021 FO
  36   36 1041 2333 FO
  36   36 1077 2631 FO
  36   36 1113 2867 FO
  36   36 1148 3063 FO
  36   36 1184 3232 FO
  36   36 1220 3386 FO
  36   36 1256 3522 FO
  36   36 1291 3658 FO
  36   36 1327 3782 FO
  36   36 1363 3876 FO
  36   36 1398 3947 FO
  36   36 1434 4010 FO
  36   36 1470 4065 FO
  36   36 1506 4147 FO
  36   36 1541 4179 FO
  36   36 1577 4217 FO
  36   36 1613 4248 FO
  36   36 1648 4292 FO
  36   36 1684 4313 FO
  36   36 1720 4348 FO
  36   36 1755 4381 FO
  36   36 1791 4404 FO
  36   36 1827 4416 FO
  36   36 1863 4431 FO
  36   36 1898 4434 FO
  36   36 1934 4440 FO
  36   36 1970 4449 FO
  36   36 2005 4460 FO
  36   36 2041 4472 FO
  36   36 2077 4475 FO
  36   36 2113 4473 FO
  36   36 2148 4483 FO
  36   36 2184 4495 FO
  36   36 2220 4504 FO
  36   36 2255 4505 FO
  36   36 2291 4515 FO
  36   36 2327 4517 FO
  36   36 2362 4518 FO
  36   36 2398 4512 FO
  36   36 2434 4513 FO
  36   36 2470 4511 FO
  36   36 2505 4514 FO
  36   36 2541 4518 FO
  36   36 2577 4510 FO
  36   36 2612 4516 FO
  36   36 2648 4519 FO
  36   36 2684 4523 FO
  36   36 2720 4520 FO
  36   36 2755 4523 FO
  36   36 2791 4513 FO
  36   36 2827 4520 FO
  36   36 2862 4537 FO
  36   36 2898 4537 FO
  36   36 2934 4539 FO
  36   36 2969 4541 FO
  36   36 3005 4537 FO
  36   36 3041 4524 FO
  36   36 3077 4527 FO
  36   36 3112 4533 FO
  36   36 3148 4537 FO
  36   36 3184 4538 FO
  36   36 3219 4537 FO
  36   36 3255 4531 FO
  36   36 3291 4522 FO
  36   36 3327 4520 FO
  36   36 3362 4525 FO
  36   36 3398 4528 FO
  36   36 3434 4534 FO
  36   36 3469 4542 FO
  36   36 3505 4540 FO
  36   36 3541 4540 FO
  36   36 3577 4536 FO
  36   36 3612 4535 FO
  36   36 3648 4539 FO
  36   36 3684 4537 FO
  36   36 3719 4539 FO
  36   36 3755 4534 FO
  36   36 3791 4540 FO
  36   36 3826 4541 FO
  36   36 3862 4545 FO
  36   36 3898 4545 FO
  36   36 3934 4551 FO
  36   36 3969 4552 FO
  36   36 4005 4558 FO
  36   36 4041 4556 FO
  36   36 4076 4544 FO
  36   36 4112 4542 FO
  36   36 4148 4543 FO
  36   36 4184 4545 FO
  36   36 4219 4551 FO
  36   36 4255 4544 FO
  36   36 4291 4543 FO
  36   36 4326 4545 FO
  36   36 4362 4545 FO
  36   36 4398 4537 FO
  36   36 4433 4536 FO
  36   36 4469 4538 FO
  36   36 4505 4539 FO
  36   36 4541 4535 FO
  36   36 4576 4541 FO
  36   36 4612 4543 FO
  36   36 4648 4550 FO
  36   36 4683 4551 FO
  36   36 4719 4553 FO
  36   36 4755 4548 FO
  36   36 4791 4546 FO
  36   36 4826 4547 FO
  36   36 4862 4554 FO
  36   36 4898 4552 FO
  36   36 4933 4551 FO
  36   36 4969 4551 FO
  36   36 5005 4553 FO
  36   36 5040 4553 FO
  36   36 5076 4548 FO
  36   36 5112 4543 FO
  36   36 5148 4541 FO
  36   36 5183 4537 FO
  36   36 5219 4537 FO
  36   36 5255 4533 FO
  36   36 5290 4534 FO
  36   36 5326 4541 FO
  36   36 5362 4538 FO
  36   36 5398 4541 FO
  36   36 5433 4543 FO
  36   36 5469 4539 FO
  36   36 5505 4540 FO
  36   36 5540 4541 FO
  36   36 5576 4550 FO
  36   36 5612 4550 FO
  36   36 5647 4547 FO
  36   36 5683 4555 FO
  36   36 5719 4552 FO
  36   36 5755 4549 FO
  36   36 5790 4550 FO
  36   36 5826 4556 FO
  36   36 5862 4559 FO
  36   36 5897 4561 FO
  36   36 5933 4556 FO
  36   36 5969 4560 FO
  36   36 6005 4559 FO
  36   36 6040 4559 FO
  36   36 6076 4553 FO
  36   36 6112 4550 FO
  36   36 6147 4546 FO
  36   36 6183 4549 FO
  36   36 6219 4551 FO
  36   36 6255 4554 FO
gs 899 469 5357 4147 rc
/c9 { 0.000000 0.500000 0.000000 sr} bdef
c9
19 0 899 502 2 MP stroke
899 469 PD
55 0 899 469 2 MP stroke
55 0 899 469 2 MP stroke
0 41 934 469 2 MP stroke
91 0 899 510 2 MP stroke
0 49 970 469 2 MP stroke
110 0 915 518 2 MP stroke
0 51 1006 469 2 MP stroke
111 0 950 520 2 MP stroke
0 75 1041 469 2 MP stroke
111 0 986 544 2 MP stroke
0 73 1077 469 2 MP stroke
110 0 1022 542 2 MP stroke
0 71 1113 469 2 MP stroke
111 0 1057 540 2 MP stroke
0 93 1148 469 2 MP stroke
111 0 1093 562 2 MP stroke
0 84 1184 469 2 MP stroke
110 0 1129 553 2 MP stroke
0 110 1220 469 2 MP stroke
110 0 1165 579 2 MP stroke
0 117 1256 469 2 MP stroke
111 0 1200 586 2 MP stroke
0 132 1291 469 2 MP stroke
111 0 1236 601 2 MP stroke
0 134 1327 469 2 MP stroke
110 0 1272 603 2 MP stroke
0 141 1363 469 2 MP stroke
111 0 1307 610 2 MP stroke
0 146 1398 469 2 MP stroke
111 0 1343 615 2 MP stroke
0 174 1434 469 2 MP stroke
110 0 1379 643 2 MP stroke
0 186 1470 469 2 MP stroke
111 0 1414 655 2 MP stroke
0 191 1506 469 2 MP stroke
111 0 1450 660 2 MP stroke
0 203 1541 469 2 MP stroke
111 0 1486 672 2 MP stroke
0 220 1577 469 2 MP stroke
110 0 1522 689 2 MP stroke
0 234 1613 469 2 MP stroke
111 0 1557 703 2 MP stroke
0 227 1648 469 2 MP stroke
111 0 1593 696 2 MP stroke
0 241 1684 469 2 MP stroke
110 0 1629 710 2 MP stroke
0 251 1720 469 2 MP stroke
111 0 1664 469 2 MP stroke
111 0 1664 720 2 MP stroke
0 248 1755 472 2 MP stroke
111 0 1700 472 2 MP stroke
111 0 1700 720 2 MP stroke
0 243 1791 482 2 MP stroke
111 0 1736 482 2 MP stroke
111 0 1736 725 2 MP stroke
0 241 1827 486 2 MP stroke
110 0 1772 486 2 MP stroke
110 0 1772 727 2 MP stroke
0 253 1863 493 2 MP stroke
111 0 1807 493 2 MP stroke
111 0 1807 746 2 MP stroke
0 259 1898 498 2 MP stroke
111 0 1843 498 2 MP stroke
111 0 1843 757 2 MP stroke
0 273 1934 504 2 MP stroke
110 0 1879 504 2 MP stroke
110 0 1879 777 2 MP stroke
0 274 1970 510 2 MP stroke
111 0 1914 510 2 MP stroke
111 0 1914 784 2 MP stroke
0 279 2005 518 2 MP stroke
111 0 1950 518 2 MP stroke
111 0 1950 797 2 MP stroke
0 300 2041 512 2 MP stroke
110 0 1986 512 2 MP stroke
110 0 1986 812 2 MP stroke
0 303 2077 515 2 MP stroke
111 0 2021 515 2 MP stroke
111 0 2021 818 2 MP stroke
0 324 2113 520 2 MP stroke
111 0 2057 520 2 MP stroke
111 0 2057 844 2 MP stroke
0 334 2148 520 2 MP stroke
111 0 2093 520 2 MP stroke
111 0 2093 854 2 MP stroke
0 339 2184 523 2 MP stroke
110 0 2129 523 2 MP stroke
110 0 2129 862 2 MP stroke
0 341 2220 529 2 MP stroke
111 0 2164 529 2 MP stroke
111 0 2164 870 2 MP stroke
0 347 2255 536 2 MP stroke
111 0 2200 536 2 MP stroke
111 0 2200 883 2 MP stroke
0 346 2291 538 2 MP stroke
110 0 2236 538 2 MP stroke
110 0 2236 884 2 MP stroke
0 357 2327 544 2 MP stroke
111 0 2271 544 2 MP stroke
111 0 2271 901 2 MP stroke
0 351 2362 552 2 MP stroke
111 0 2307 552 2 MP stroke
111 0 2307 903 2 MP stroke
0 356 2398 561 2 MP stroke
111 0 2343 561 2 MP stroke
111 0 2343 917 2 MP stroke
0 366 2434 560 2 MP stroke
110 0 2379 560 2 MP stroke
110 0 2379 926 2 MP stroke
0 358 2470 574 2 MP stroke
111 0 2414 574 2 MP stroke
111 0 2414 932 2 MP stroke
0 358 2505 577 2 MP stroke
111 0 2450 577 2 MP stroke
111 0 2450 935 2 MP stroke
0 371 2541 579 2 MP stroke
110 0 2486 579 2 MP stroke
110 0 2486 950 2 MP stroke
0 353 2577 608 2 MP stroke
111 0 2521 608 2 MP stroke
111 0 2521 961 2 MP stroke
0 367 2612 610 2 MP stroke
111 0 2557 610 2 MP stroke
111 0 2557 977 2 MP stroke
0 360 2648 625 2 MP stroke
110 0 2593 625 2 MP stroke
110 0 2593 985 2 MP stroke
0 344 2684 641 2 MP stroke
111 0 2628 641 2 MP stroke
111 0 2628 985 2 MP stroke
0 355 2720 648 2 MP stroke
111 0 2664 648 2 MP stroke
111 0 2664 1003 2 MP stroke
0 357 2755 657 2 MP stroke
111 0 2700 657 2 MP stroke
111 0 2700 1014 2 MP stroke
0 351 2791 676 2 MP stroke
110 0 2736 676 2 MP stroke
110 0 2736 1027 2 MP stroke
0 346 2827 683 2 MP stroke
111 0 2771 683 2 MP stroke
111 0 2771 1029 2 MP stroke
0 339 2862 697 2 MP stroke
111 0 2807 697 2 MP stroke
111 0 2807 1036 2 MP stroke
0 348 2898 701 2 MP stroke
110 0 2843 701 2 MP stroke
110 0 2843 1049 2 MP stroke
0 362 2934 704 2 MP stroke
111 0 2878 704 2 MP stroke
111 0 2878 1066 2 MP stroke
0 357 2969 714 2 MP stroke
111 0 2914 714 2 MP stroke
111 0 2914 1071 2 MP stroke
0 357 3005 721 2 MP stroke
111 0 2950 721 2 MP stroke
111 0 2950 1078 2 MP stroke
0 351 3041 739 2 MP stroke
110 0 2986 739 2 MP stroke
110 0 2986 1090 2 MP stroke
0 369 3077 737 2 MP stroke
111 0 3021 737 2 MP stroke
111 0 3021 1106 2 MP stroke
0 366 3112 744 2 MP stroke
111 0 3057 744 2 MP stroke
111 0 3057 1110 2 MP stroke
0 367 3148 749 2 MP stroke
110 0 3093 749 2 MP stroke
110 0 3093 1116 2 MP stroke
0 355 3184 765 2 MP stroke
111 0 3128 765 2 MP stroke
111 0 3128 1120 2 MP stroke
0 343 3219 776 2 MP stroke
111 0 3164 776 2 MP stroke
111 0 3164 1119 2 MP stroke
0 341 3255 790 2 MP stroke
110 0 3200 790 2 MP stroke
110 0 3200 1131 2 MP stroke
0 346 3291 800 2 MP stroke
110 0 3236 800 2 MP stroke
110 0 3236 1146 2 MP stroke
0 358 3327 803 2 MP stroke
111 0 3271 803 2 MP stroke
111 0 3271 1161 2 MP stroke
0 346 3362 813 2 MP stroke
111 0 3307 813 2 MP stroke
111 0 3307 1159 2 MP stroke
0 350 3398 818 2 MP stroke
110 0 3343 818 2 MP stroke
110 0 3343 1168 2 MP stroke
0 348 3434 824 2 MP stroke
111 0 3378 824 2 MP stroke
111 0 3378 1172 2 MP stroke
0 353 3469 828 2 MP stroke
111 0 3414 828 2 MP stroke
111 0 3414 1181 2 MP stroke
0 342 3505 839 2 MP stroke
110 0 3450 839 2 MP stroke
110 0 3450 1181 2 MP stroke
0 351 3541 841 2 MP stroke
111 0 3485 841 2 MP stroke
111 0 3485 1192 2 MP stroke
0 350 3577 856 2 MP stroke
111 0 3521 856 2 MP stroke
111 0 3521 1206 2 MP stroke
0 354 3612 862 2 MP stroke
111 0 3557 862 2 MP stroke
111 0 3557 1216 2 MP stroke
0 370 3648 854 2 MP stroke
110 0 3593 854 2 MP stroke
110 0 3593 1224 2 MP stroke
0 383 3684 857 2 MP stroke
111 0 3628 857 2 MP stroke
111 0 3628 1240 2 MP stroke
0 381 3719 865 2 MP stroke
111 0 3664 865 2 MP stroke
111 0 3664 1246 2 MP stroke
0 389 3755 875 2 MP stroke
110 0 3700 875 2 MP stroke
110 0 3700 1264 2 MP stroke
0 385 3791 884 2 MP stroke
111 0 3735 884 2 MP stroke
111 0 3735 1269 2 MP stroke
0 391 3826 885 2 MP stroke
111 0 3771 885 2 MP stroke
111 0 3771 1276 2 MP stroke
0 395 3862 887 2 MP stroke
110 0 3807 887 2 MP stroke
110 0 3807 1282 2 MP stroke
0 396 3898 894 2 MP stroke
110 0 3843 894 2 MP stroke
110 0 3843 1290 2 MP stroke
0 391 3934 898 2 MP stroke
111 0 3878 898 2 MP stroke
111 0 3878 1289 2 MP stroke
0 392 3969 903 2 MP stroke
111 0 3914 903 2 MP stroke
111 0 3914 1295 2 MP stroke
0 384 4005 909 2 MP stroke
110 0 3950 909 2 MP stroke
110 0 3950 1293 2 MP stroke
0 398 4041 913 2 MP stroke
111 0 3985 913 2 MP stroke
111 0 3985 1311 2 MP stroke
0 385 4076 935 2 MP stroke
111 0 4021 935 2 MP stroke
111 0 4021 1320 2 MP stroke
0 389 4112 940 2 MP stroke
110 0 4057 940 2 MP stroke
110 0 4057 1329 2 MP stroke
0 382 4148 948 2 MP stroke
111 0 4092 948 2 MP stroke
111 0 4092 1330 2 MP stroke
0 387 4184 957 2 MP stroke
111 0 4128 957 2 MP stroke
111 0 4128 1344 2 MP stroke
0 390 4219 961 2 MP stroke
111 0 4164 961 2 MP stroke
111 0 4164 1351 2 MP stroke
0 400 4255 968 2 MP stroke
110 0 4200 968 2 MP stroke
110 0 4200 1368 2 MP stroke
0 397 4291 975 2 MP stroke
111 0 4235 975 2 MP stroke
111 0 4235 1372 2 MP stroke
0 404 4326 977 2 MP stroke
111 0 4271 977 2 MP stroke
111 0 4271 1381 2 MP stroke
0 395 4362 987 2 MP stroke
110 0 4307 987 2 MP stroke
110 0 4307 1382 2 MP stroke
0 405 4398 994 2 MP stroke
111 0 4342 994 2 MP stroke
111 0 4342 1399 2 MP stroke
0 406 4433 1000 2 MP stroke
111 0 4378 1000 2 MP stroke
111 0 4378 1406 2 MP stroke
0 427 4469 998 2 MP stroke
111 0 4414 998 2 MP stroke
111 0 4414 1425 2 MP stroke
0 425 4505 999 2 MP stroke
110 0 4450 999 2 MP stroke
110 0 4450 1424 2 MP stroke
0 437 4541 1007 2 MP stroke
111 0 4485 1007 2 MP stroke
111 0 4485 1444 2 MP stroke
0 430 4576 1011 2 MP stroke
111 0 4521 1011 2 MP stroke
111 0 4521 1441 2 MP stroke
0 433 4612 1013 2 MP stroke
110 0 4557 1013 2 MP stroke
110 0 4557 1446 2 MP stroke
0 439 4648 1017 2 MP stroke
111 0 4592 1017 2 MP stroke
111 0 4592 1456 2 MP stroke
0 429 4683 1026 2 MP stroke
111 0 4628 1026 2 MP stroke
111 0 4628 1455 2 MP stroke
0 429 4719 1034 2 MP stroke
110 0 4664 1034 2 MP stroke
110 0 4664 1463 2 MP stroke
0 427 4755 1040 2 MP stroke
111 0 4699 1040 2 MP stroke
111 0 4699 1467 2 MP stroke
0 444 4791 1045 2 MP stroke
111 0 4735 1045 2 MP stroke
111 0 4735 1489 2 MP stroke
0 433 4826 1051 2 MP stroke
111 0 4771 1051 2 MP stroke
111 0 4771 1484 2 MP stroke
0 440 4862 1048 2 MP stroke
110 0 4807 1048 2 MP stroke
110 0 4807 1488 2 MP stroke
0 436 4898 1053 2 MP stroke
111 0 4842 1053 2 MP stroke
111 0 4842 1489 2 MP stroke
0 451 4933 1055 2 MP stroke
111 0 4878 1055 2 MP stroke
111 0 4878 1506 2 MP stroke
0 451 4969 1062 2 MP stroke
110 0 4914 1062 2 MP stroke
110 0 4914 1513 2 MP stroke
0 445 5005 1069 2 MP stroke
111 0 4949 1069 2 MP stroke
111 0 4949 1514 2 MP stroke
0 448 5040 1073 2 MP stroke
111 0 4985 1073 2 MP stroke
111 0 4985 1521 2 MP stroke
0 448 5076 1081 2 MP stroke
111 0 5021 1081 2 MP stroke
111 0 5021 1529 2 MP stroke
0 463 5112 1082 2 MP stroke
110 0 5057 1082 2 MP stroke
110 0 5057 1545 2 MP stroke
0 485 5148 1078 2 MP stroke
111 0 5092 1078 2 MP stroke
111 0 5092 1563 2 MP stroke
0 483 5183 1089 2 MP stroke
111 0 5128 1089 2 MP stroke
111 0 5128 1572 2 MP stroke
0 490 5219 1094 2 MP stroke
110 0 5164 1094 2 MP stroke
110 0 5164 1584 2 MP stroke
0 480 5255 1109 2 MP stroke
111 0 5199 1109 2 MP stroke
111 0 5199 1589 2 MP stroke
0 477 5290 1114 2 MP stroke
111 0 5235 1114 2 MP stroke
111 0 5235 1591 2 MP stroke
0 502 5326 1110 2 MP stroke
110 0 5271 1110 2 MP stroke
110 0 5271 1612 2 MP stroke
0 502 5362 1118 2 MP stroke
111 0 5306 1118 2 MP stroke
111 0 5306 1620 2 MP stroke
0 511 5398 1117 2 MP stroke
111 0 5342 1117 2 MP stroke
111 0 5342 1628 2 MP stroke
0 511 5433 1122 2 MP stroke
111 0 5378 1122 2 MP stroke
111 0 5378 1633 2 MP stroke
0 522 5469 1129 2 MP stroke
110 0 5414 1129 2 MP stroke
110 0 5414 1651 2 MP stroke
0 529 5505 1130 2 MP stroke
111 0 5449 1130 2 MP stroke
111 0 5449 1659 2 MP stroke
0 532 5540 1136 2 MP stroke
111 0 5485 1136 2 MP stroke
111 0 5485 1668 2 MP stroke
0 520 5576 1146 2 MP stroke
110 0 5521 1146 2 MP stroke
110 0 5521 1666 2 MP stroke
0 523 5612 1151 2 MP stroke
111 0 5556 1151 2 MP stroke
111 0 5556 1674 2 MP stroke
0 523 5647 1158 2 MP stroke
111 0 5592 1158 2 MP stroke
111 0 5592 1681 2 MP stroke
0 523 5683 1158 2 MP stroke
111 0 5628 1158 2 MP stroke
111 0 5628 1681 2 MP stroke
0 515 5719 1174 2 MP stroke
110 0 5664 1174 2 MP stroke
110 0 5664 1689 2 MP stroke
0 525 5755 1178 2 MP stroke
111 0 5699 1178 2 MP stroke
111 0 5699 1703 2 MP stroke
0 520 5790 1183 2 MP stroke
111 0 5735 1183 2 MP stroke
111 0 5735 1703 2 MP stroke
0 523 5826 1182 2 MP stroke
110 0 5771 1182 2 MP stroke
110 0 5771 1705 2 MP stroke
0 524 5862 1184 2 MP stroke
111 0 5806 1184 2 MP stroke
111 0 5806 1708 2 MP stroke
0 521 5897 1188 2 MP stroke
111 0 5842 1188 2 MP stroke
111 0 5842 1709 2 MP stroke
0 528 5933 1197 2 MP stroke
110 0 5878 1197 2 MP stroke
110 0 5878 1725 2 MP stroke
0 531 5969 1201 2 MP stroke
110 0 5914 1201 2 MP stroke
110 0 5914 1732 2 MP stroke
0 536 6005 1209 2 MP stroke
111 0 5949 1209 2 MP stroke
111 0 5949 1745 2 MP stroke
0 531 6040 1222 2 MP stroke
111 0 5985 1222 2 MP stroke
111 0 5985 1753 2 MP stroke
0 528 6076 1236 2 MP stroke
110 0 6021 1236 2 MP stroke
110 0 6021 1764 2 MP stroke
0 517 6112 1251 2 MP stroke
111 0 6056 1251 2 MP stroke
111 0 6056 1768 2 MP stroke
0 513 6147 1260 2 MP stroke
111 0 6092 1260 2 MP stroke
111 0 6092 1773 2 MP stroke
0 512 6183 1265 2 MP stroke
110 0 6128 1265 2 MP stroke
110 0 6128 1777 2 MP stroke
0 502 6219 1276 2 MP stroke
93 0 6163 1276 2 MP stroke
93 0 6163 1778 2 MP stroke
0 506 6255 1276 2 MP stroke
57 0 6199 1276 2 MP stroke
57 0 6199 1782 2 MP stroke
5 -1 36 -6 35 7 899 469 4 MP stroke
gr

c9
  36   36  934  476 FO
  36   36  970  470 FO
gs 899 469 5357 4147 rc
36 2 36 6 36 5 35 6 36 10 36 13 35 10 36 10 
36 6 36 13 35 2 36 2 36 1 35 3 36 9 36 12 
36 0 35 6 36 7 36 4 35 7 36 5 36 12 35 5 
36 4 36 8 36 9 35 3 36 10 36 8 35 10 36 8 
36 8 36 8 35 5 36 5 36 7 35 9 36 3 36 0 
35 1 36 13 36 6 36 7 35 5 36 7 36 3 35 1 
36 14 36 0 36 8 35 6 36 12 36 6 35 6 36 5 
36 12 35 5 36 12 36 5 36 7 35 15 36 11 36 2 
35 6 36 1 36 7 36 4 35 4 36 7 36 14 35 7 
36 10 36 0 35 8 36 14 36 7 36 5 35 7 36 5 
36 7 35 4 36 9 36 12 36 14 35 4 36 11 36 5 
35 5 36 8 36 14 36 7 35 8 36 10 36 9 35 10 
36 4 36 16 35 11 36 12 36 8 36 11 35 10 36 19 
36 9 35 3 36 10 36 4 36 11 35 5 36 12 36 1 
35 11 36 7 36 5 35 5 36 16 36 4 36 5 35 10 
36 6 36 13 35 8 36 13 36 3 36 8 35 1 36 7 
36 16 35 -3 36 14 36 10 35 6 36 0 36 9 36 15 
35 8 36 6 36 -1 35 4 36 6 36 14 36 1 35 9 
36 5 36 -3 11 3 1030 469 148 MP stroke
gr

  36   36 1041  472 FO
  36   36 1077  469 FO
  36   36 1113  474 FO
  36   36 1148  483 FO
  36   36 1184  484 FO
  36   36 1220  498 FO
  36   36 1256  504 FO
  36   36 1291  508 FO
  36   36 1327  507 FO
  36   36 1363  513 FO
  36   36 1398  521 FO
  36   36 1434  536 FO
  36   36 1470  545 FO
  36   36 1506  545 FO
  36   36 1541  551 FO
  36   36 1577  561 FO
  36   36 1613  575 FO
  36   36 1648  572 FO
  36   36 1684  588 FO
  36   36 1720  595 FO
  36   36 1755  596 FO
  36   36 1791  604 FO
  36   36 1827  607 FO
  36   36 1863  620 FO
  36   36 1898  628 FO
  36   36 1934  641 FO
  36   36 1970  647 FO
  36   36 2005  657 FO
  36   36 2041  662 FO
  36   36 2077  666 FO
  36   36 2113  682 FO
  36   36 2148  687 FO
  36   36 2184  692 FO
  36   36 2220  699 FO
  36   36 2255  710 FO
  36   36 2291  711 FO
  36   36 2327  723 FO
  36   36 2362  728 FO
  36   36 2398  739 FO
  36   36 2434  743 FO
  36   36 2470  753 FO
  36   36 2505  756 FO
  36   36 2541  765 FO
  36   36 2577  784 FO
  36   36 2612  794 FO
  36   36 2648  805 FO
  36   36 2684  813 FO
  36   36 2720  825 FO
  36   36 2755  836 FO
  36   36 2791  852 FO
  36   36 2827  856 FO
  36   36 2862  866 FO
  36   36 2898  875 FO
  36   36 2934  885 FO
  36   36 2969  893 FO
  36   36 3005  900 FO
  36   36 3041  914 FO
  36   36 3077  922 FO
  36   36 3112  927 FO
  36   36 3148  932 FO
  36   36 3184  943 FO
  36   36 3219  947 FO
  36   36 3255  961 FO
  36   36 3291  973 FO
  36   36 3327  982 FO
  36   36 3362  986 FO
  36   36 3398  993 FO
  36   36 3434  998 FO
  36   36 3469 1005 FO
  36   36 3505 1010 FO
  36   36 3541 1017 FO
  36   36 3577 1031 FO
  36   36 3612 1039 FO
  36   36 3648 1039 FO
  36   36 3684 1049 FO
  36   36 3719 1056 FO
  36   36 3755 1070 FO
  36   36 3791 1077 FO
  36   36 3826 1081 FO
  36   36 3862 1085 FO
  36   36 3898 1092 FO
  36   36 3934 1093 FO
  36   36 3969 1099 FO
  36   36 4005 1101 FO
  36   36 4041 1112 FO
  36   36 4076 1127 FO
  36   36 4112 1134 FO
  36   36 4148 1139 FO
  36   36 4184 1151 FO
  36   36 4219 1156 FO
  36   36 4255 1168 FO
  36   36 4291 1173 FO
  36   36 4326 1179 FO
  36   36 4362 1185 FO
  36   36 4398 1197 FO
  36   36 4433 1203 FO
  36   36 4469 1211 FO
  36   36 4505 1211 FO
  36   36 4541 1225 FO
  36   36 4576 1226 FO
  36   36 4612 1229 FO
  36   36 4648 1236 FO
  36   36 4683 1241 FO
  36   36 4719 1248 FO
  36   36 4755 1254 FO
  36   36 4791 1267 FO
  36   36 4826 1268 FO
  36   36 4862 1268 FO
  36   36 4898 1271 FO
  36   36 4933 1280 FO
  36   36 4969 1287 FO
  36   36 5005 1292 FO
  36   36 5040 1297 FO
  36   36 5076 1305 FO
  36   36 5112 1313 FO
  36   36 5148 1321 FO
  36   36 5183 1331 FO
  36   36 5219 1339 FO
  36   36 5255 1349 FO
  36   36 5290 1352 FO
  36   36 5326 1361 FO
  36   36 5362 1369 FO
  36   36 5398 1373 FO
  36   36 5433 1378 FO
  36   36 5469 1390 FO
  36   36 5505 1395 FO
  36   36 5540 1402 FO
  36   36 5576 1406 FO
  36   36 5612 1413 FO
  36   36 5647 1419 FO
  36   36 5683 1419 FO
  36   36 5719 1431 FO
  36   36 5755 1440 FO
  36   36 5790 1443 FO
  36   36 5826 1444 FO
  36   36 5862 1446 FO
  36   36 5897 1448 FO
  36   36 5933 1461 FO
  36   36 5969 1467 FO
  36   36 6005 1477 FO
  36   36 6040 1487 FO
  36   36 6076 1500 FO
  36   36 6112 1510 FO
  36   36 6147 1516 FO
  36   36 6183 1521 FO
  36   36 6219 1527 FO
  36   36 6255 1529 FO
gs 899 469 5357 4147 rc
gr

0 sg
%%IncludeResource: font Helvetica
/Helvetica /ISOLatin1Encoding 168 FMSR

2435  156 mt 
(Nup49-GFP in Late Anaphase) s
%%IncludeResource: font Helvetica
/Helvetica /ISOLatin1Encoding 144 FMSR

1829  293 mt 
(n) s
%%IncludeResource: font Helvetica
/Helvetica /ISOLatin1Encoding 108 FMSR

1909  377 mt 
(cells) s
%%IncludeResource: font Helvetica
/Helvetica /ISOLatin1Encoding 144 FMSR

2125  293 mt 
( = 34    -    d) s
%%IncludeResource: font Helvetica
/Helvetica /ISOLatin1Encoding 108 FMSR

2933  377 mt 
(b) s
%%IncludeResource: font Helvetica
/Helvetica /ISOLatin1Encoding 144 FMSR

2993  293 mt 
( = 0.0393   -   One ring 100nm width) s
3314 4921 mt 
(Time \(s\)) s
 577 3058 mt  -90 rotate
(% Fluorescence) s
90 rotate
%%IncludeResource: font Helvetica
/Helvetica /ISOLatin1Encoding 120 FMSR

 882 4658 mt 
( ) s
6239  511 mt 
( ) s
5656  664 mt 
(mother) s
gs 5217 529 980 335 rc
c8
338 0 5284 621 2 MP stroke
gs 5380 548 147 147 rc
  36   36 5453  621 FO
gr

gr

c8
0 sg
5656  813 mt 
(daughter) s
gs 5217 529 980 335 rc
c9
338 0 5284 770 2 MP stroke
gs 5380 697 147 147 rc
  36   36 5453  770 FO
gr

gr

c9

end %%Color Dict

eplot
%%EndObject

epage
end

showpage

%%Trailer
%%EOF
