%!PS-Adobe-3.0 EPSF-3.0
%%Creator: MATLAB, The MathWorks, Inc. Version 8.1.0.604 (R2013a). Operating System: Darwin 11.4.2 Darwin Kernel Version 11.4.2: Thu Aug 23 16:25:48 PDT 2012; root:xnu-1699.32.7~1/RELEASE_X86_64 x86_64.
%%Title: ./LA_Nsg1-sphinbarr-1R_300nm.eps
%%CreationDate: 09/26/2013  15:58:36
%%DocumentNeededFonts: Helvetica
%%DocumentProcessColors: Cyan Magenta Yellow Black
%%LanguageLevel: 2
%%Pages: 1
%%BoundingBox:    52   197   551   616
%%EndComments

%%BeginProlog
% MathWorks dictionary
/MathWorks 160 dict begin
% definition operators
/bdef {bind def} bind def
/ldef {load def} bind def
/xdef {exch def} bdef
/xstore {exch store} bdef
% operator abbreviations
/c  /clip ldef
/cc /concat ldef
/cp /closepath ldef
/gr /grestore ldef
/gs /gsave ldef
/mt /moveto ldef
/np /newpath ldef
/cm /currentmatrix ldef
/sm /setmatrix ldef
/rm /rmoveto ldef
/rl /rlineto ldef
/s {show newpath} bdef
/sc {setcmykcolor} bdef
/sr /setrgbcolor ldef
/sg /setgray ldef
/w /setlinewidth ldef
/j /setlinejoin ldef
/cap /setlinecap ldef
/rc {rectclip} bdef
/rf {rectfill} bdef
% page state control
/pgsv () def
/bpage {/pgsv save def} bdef
/epage {pgsv restore} bdef
/bplot /gsave ldef
/eplot {stroke grestore} bdef
% orientation switch
/portraitMode 0 def /landscapeMode 1 def /rotateMode 2 def
% coordinate system mappings
/dpi2point 0 def
% font control
/FontSize 0 def
/FMS {/FontSize xstore findfont [FontSize 0 0 FontSize neg 0 0]
  makefont setfont} bdef
/reencode {exch dup where {pop load} {pop StandardEncoding} ifelse
  exch dup 3 1 roll findfont dup length dict begin
  { 1 index /FID ne {def}{pop pop} ifelse } forall
  /Encoding exch def currentdict end definefont pop} bdef
/isroman {findfont /CharStrings get /Agrave known} bdef
/FMSR {3 1 roll 1 index dup isroman {reencode} {pop pop} ifelse
  exch FMS} bdef
/csm {1 dpi2point div -1 dpi2point div scale neg translate
 dup landscapeMode eq {pop -90 rotate}
  {rotateMode eq {90 rotate} if} ifelse} bdef
% line types: solid, dotted, dashed, dotdash
/SO { [] 0 setdash } bdef
/DO { [.5 dpi2point mul 4 dpi2point mul] 0 setdash } bdef
/DA { [6 dpi2point mul] 0 setdash } bdef
/DD { [.5 dpi2point mul 4 dpi2point mul 6 dpi2point mul 4
  dpi2point mul] 0 setdash } bdef
% macros for lines and objects
/L {lineto stroke} bdef
/MP {3 1 roll moveto 1 sub {rlineto} repeat} bdef
/AP {{rlineto} repeat} bdef
/PDlw -1 def
/W {/PDlw currentlinewidth def setlinewidth} def
/PP {closepath eofill} bdef
/DP {closepath stroke} bdef
/MR {4 -2 roll moveto dup  0 exch rlineto exch 0 rlineto
  neg 0 exch rlineto closepath} bdef
/FR {MR stroke} bdef
/PR {MR fill} bdef
/L1i {{currentfile picstr readhexstring pop} image} bdef
/tMatrix matrix def
/MakeOval {newpath tMatrix currentmatrix pop translate scale
0 0 1 0 360 arc tMatrix setmatrix} bdef
/FO {MakeOval stroke} bdef
/PO {MakeOval fill} bdef
/PD {currentlinewidth 2 div 0 360 arc fill
   PDlw -1 eq not {PDlw w /PDlw -1 def} if} def
/FA {newpath tMatrix currentmatrix pop translate scale
  0 0 1 5 -2 roll arc tMatrix setmatrix stroke} bdef
/PA {newpath tMatrix currentmatrix pop	translate 0 0 moveto scale
  0 0 1 5 -2 roll arc closepath tMatrix setmatrix fill} bdef
/FAn {newpath tMatrix currentmatrix pop translate scale
  0 0 1 5 -2 roll arcn tMatrix setmatrix stroke} bdef
/PAn {newpath tMatrix currentmatrix pop translate 0 0 moveto scale
  0 0 1 5 -2 roll arcn closepath tMatrix setmatrix fill} bdef
/vradius 0 def /hradius 0 def /lry 0 def
/lrx 0 def /uly 0 def /ulx 0 def /rad 0 def
/MRR {/vradius xdef /hradius xdef /lry xdef /lrx xdef /uly xdef
  /ulx xdef newpath tMatrix currentmatrix pop ulx hradius add uly
  vradius add translate hradius vradius scale 0 0 1 180 270 arc 
  tMatrix setmatrix lrx hradius sub uly vradius add translate
  hradius vradius scale 0 0 1 270 360 arc tMatrix setmatrix
  lrx hradius sub lry vradius sub translate hradius vradius scale
  0 0 1 0 90 arc tMatrix setmatrix ulx hradius add lry vradius sub
  translate hradius vradius scale 0 0 1 90 180 arc tMatrix setmatrix
  closepath} bdef
/FRR {MRR stroke } bdef
/PRR {MRR fill } bdef
/MlrRR {/lry xdef /lrx xdef /uly xdef /ulx xdef /rad lry uly sub 2 div def
  newpath tMatrix currentmatrix pop ulx rad add uly rad add translate
  rad rad scale 0 0 1 90 270 arc tMatrix setmatrix lrx rad sub lry rad
  sub translate rad rad scale 0 0 1 270 90 arc tMatrix setmatrix
  closepath} bdef
/FlrRR {MlrRR stroke } bdef
/PlrRR {MlrRR fill } bdef
/MtbRR {/lry xdef /lrx xdef /uly xdef /ulx xdef /rad lrx ulx sub 2 div def
  newpath tMatrix currentmatrix pop ulx rad add uly rad add translate
  rad rad scale 0 0 1 180 360 arc tMatrix setmatrix lrx rad sub lry rad
  sub translate rad rad scale 0 0 1 0 180 arc tMatrix setmatrix
  closepath} bdef
/FtbRR {MtbRR stroke } bdef
/PtbRR {MtbRR fill } bdef
/stri 6 array def /dtri 6 array def
/smat 6 array def /dmat 6 array def
/tmat1 6 array def /tmat2 6 array def /dif 3 array def
/asub {/ind2 exch def /ind1 exch def dup dup
  ind1 get exch ind2 get sub exch } bdef
/tri_to_matrix {
  2 0 asub 3 1 asub 4 0 asub 5 1 asub
  dup 0 get exch 1 get 7 -1 roll astore } bdef
/compute_transform {
  dmat dtri tri_to_matrix tmat1 invertmatrix 
  smat stri tri_to_matrix tmat2 concatmatrix } bdef
/ds {stri astore pop} bdef
/dt {dtri astore pop} bdef
/db {2 copy /cols xdef /rows xdef mul dup 3 mul string
  currentfile 
  3 index 0 eq {/ASCIIHexDecode filter}
  {/ASCII85Decode filter 3 index 2 eq {/RunLengthDecode filter} if }
  ifelse exch readstring pop
  dup 0 3 index getinterval /rbmap xdef
  dup 2 index dup getinterval /gbmap xdef
  1 index dup 2 mul exch getinterval /bbmap xdef pop pop}bdef
/it {gs np dtri aload pop moveto lineto lineto cp c
  cols rows 8 compute_transform 
  rbmap gbmap bbmap true 3 colorimage gr}bdef
/il {newpath moveto lineto stroke}bdef
currentdict end def
%%EndProlog

%%BeginSetup
MathWorks begin

0 cap

end
%%EndSetup

%%Page: 1 1
%%BeginPageSetup
%%PageBoundingBox:    52   197   551   616
MathWorks begin
bpage
%%EndPageSetup

%%BeginObject: obj1
bplot

/dpi2point 12 def
portraitMode 0216 7344 csm

  418   -48  5986  5026 rc
85 dict begin %Colortable dictionary
/c0 { 0.000000 0.000000 0.000000 sr} bdef
/c1 { 1.000000 1.000000 1.000000 sr} bdef
/c2 { 0.900000 0.000000 0.000000 sr} bdef
/c3 { 0.000000 0.820000 0.000000 sr} bdef
/c4 { 0.000000 0.000000 0.800000 sr} bdef
/c5 { 0.910000 0.820000 0.320000 sr} bdef
/c6 { 1.000000 0.260000 0.820000 sr} bdef
/c7 { 0.000000 0.820000 0.820000 sr} bdef
c0
1 j
1 sg
   0    0 6913 5186 rf
6 w
0 4146 5356 0 0 -4146 899 4615 4 MP
PP
-5356 0 0 4146 5356 0 0 -4146 899 4615 5 MP stroke
4 w
DO
SO
6 w
0 sg
 899 4615 mt 6255 4615 L
 899  469 mt 6255  469 L
 899 4615 mt  899  469 L
6255 4615 mt 6255  469 L
 899 4615 mt 6255 4615 L
 899 4615 mt  899  469 L
 899 4615 mt  899 4561 L
 899  469 mt  899  522 L
%%IncludeResource: font Helvetica
/Helvetica /ISOLatin1Encoding 120 FMSR

 866 4760 mt 
(0) s
2684 4615 mt 2684 4561 L
2684  469 mt 2684  522 L
2618 4760 mt 
(50) s
4469 4615 mt 4469 4561 L
4469  469 mt 4469  522 L
4369 4760 mt 
(100) s
6255 4615 mt 6255 4561 L
6255  469 mt 6255  522 L
6155 4760 mt 
(150) s
 899 4615 mt  952 4615 L
6255 4615 mt 6201 4615 L
 798 4659 mt 
(0) s
 899 4200 mt  952 4200 L
6255 4200 mt 6201 4200 L
 731 4244 mt 
(10) s
 899 3785 mt  952 3785 L
6255 3785 mt 6201 3785 L
 731 3829 mt 
(20) s
 899 3371 mt  952 3371 L
6255 3371 mt 6201 3371 L
 731 3415 mt 
(30) s
 899 2956 mt  952 2956 L
6255 2956 mt 6201 2956 L
 731 3000 mt 
(40) s
 899 2542 mt  952 2542 L
6255 2542 mt 6201 2542 L
 731 2586 mt 
(50) s
 899 2127 mt  952 2127 L
6255 2127 mt 6201 2127 L
 731 2171 mt 
(60) s
 899 1712 mt  952 1712 L
6255 1712 mt 6201 1712 L
 731 1756 mt 
(70) s
 899 1298 mt  952 1298 L
6255 1298 mt 6201 1298 L
 731 1342 mt 
(80) s
 899  883 mt  952  883 L
6255  883 mt 6201  883 L
 731  927 mt 
(90) s
 899  469 mt  952  469 L
6255  469 mt 6201  469 L
 664  513 mt 
(100) s
 899 4615 mt 6255 4615 L
 899  469 mt 6255  469 L
 899 4615 mt  899  469 L
6255 4615 mt 6255  469 L
gs 899 469 5357 4147 rc
899 469 PD
124 0 899 469 2 MP stroke
124 0 899 469 2 MP stroke
0 602 1036 1806 2 MP stroke
249 0 912 1806 2 MP stroke
249 0 912 2408 2 MP stroke
0 780 1174 2222 2 MP stroke
248 0 1050 2222 2 MP stroke
248 0 1050 3002 2 MP stroke
0 709 1309 2602 2 MP stroke
248 0 1185 2602 2 MP stroke
248 0 1185 3311 2 MP stroke
0 754 1444 2880 2 MP stroke
248 0 1320 2880 2 MP stroke
248 0 1320 3634 2 MP stroke
0 686 1580 3122 2 MP stroke
248 0 1456 3122 2 MP stroke
248 0 1456 3808 2 MP stroke
0 574 1716 3269 2 MP stroke
248 0 1592 3269 2 MP stroke
248 0 1592 3843 2 MP stroke
0 572 1853 3441 2 MP stroke
248 0 1729 3441 2 MP stroke
248 0 1729 4013 2 MP stroke
0 563 1988 3489 2 MP stroke
249 0 1864 3489 2 MP stroke
249 0 1864 4052 2 MP stroke
0 459 2125 3686 2 MP stroke
248 0 2001 3686 2 MP stroke
248 0 2001 4145 2 MP stroke
0 442 2261 3759 2 MP stroke
248 0 2137 3759 2 MP stroke
248 0 2137 4201 2 MP stroke
0 399 2398 3894 2 MP stroke
249 0 2274 3894 2 MP stroke
249 0 2274 4293 2 MP stroke
0 433 2535 3879 2 MP stroke
248 0 2411 3879 2 MP stroke
248 0 2411 4312 2 MP stroke
0 463 2672 3906 2 MP stroke
249 0 2547 3906 2 MP stroke
249 0 2547 4369 2 MP stroke
0 408 2808 3947 2 MP stroke
248 0 2684 3947 2 MP stroke
248 0 2684 4355 2 MP stroke
0 445 2945 3990 2 MP stroke
249 0 2820 3990 2 MP stroke
249 0 2820 4435 2 MP stroke
0 353 3080 4064 2 MP stroke
248 0 2956 4064 2 MP stroke
248 0 2956 4417 2 MP stroke
0 360 3216 4082 2 MP stroke
248 0 3092 4082 2 MP stroke
248 0 3092 4442 2 MP stroke
0 344 3352 4128 2 MP stroke
248 0 3228 4128 2 MP stroke
248 0 3228 4472 2 MP stroke
0 338 3488 4153 2 MP stroke
249 0 3364 4153 2 MP stroke
249 0 3364 4491 2 MP stroke
0 351 3626 4138 2 MP stroke
248 0 3502 4138 2 MP stroke
248 0 3502 4489 2 MP stroke
0 287 3762 4228 2 MP stroke
248 0 3638 4228 2 MP stroke
248 0 3638 4515 2 MP stroke
0 267 3899 4227 2 MP stroke
248 0 3775 4227 2 MP stroke
248 0 3775 4494 2 MP stroke
0 288 4033 4225 2 MP stroke
248 0 3909 4225 2 MP stroke
248 0 3909 4513 2 MP stroke
0 272 4170 4269 2 MP stroke
248 0 4046 4269 2 MP stroke
248 0 4046 4541 2 MP stroke
0 263 4307 4282 2 MP stroke
248 0 4183 4282 2 MP stroke
248 0 4183 4545 2 MP stroke
0 255 4443 4298 2 MP stroke
248 0 4319 4298 2 MP stroke
248 0 4319 4553 2 MP stroke
0 266 4580 4299 2 MP stroke
248 0 4456 4299 2 MP stroke
248 0 4456 4565 2 MP stroke
0 253 4716 4312 2 MP stroke
248 0 4592 4312 2 MP stroke
248 0 4592 4565 2 MP stroke
0 226 4852 4356 2 MP stroke
248 0 4728 4356 2 MP stroke
248 0 4728 4582 2 MP stroke
0 169 4988 4388 2 MP stroke
248 0 4864 4388 2 MP stroke
248 0 4864 4557 2 MP stroke
0 228 5125 4338 2 MP stroke
248 0 5001 4338 2 MP stroke
248 0 5001 4566 2 MP stroke
0 231 5262 4385 2 MP stroke
248 0 5138 4385 2 MP stroke
0 222 5398 4384 2 MP stroke
248 0 5274 4384 2 MP stroke
248 0 5274 4606 2 MP stroke
0 209 5535 4391 2 MP stroke
248 0 5411 4391 2 MP stroke
248 0 5411 4600 2 MP stroke
0 169 5671 4409 2 MP stroke
248 0 5547 4409 2 MP stroke
248 0 5547 4578 2 MP stroke
0 218 5806 4397 2 MP stroke
248 0 5682 4397 2 MP stroke
248 0 5682 4615 2 MP stroke
0 175 5943 4441 2 MP stroke
248 0 5819 4441 2 MP stroke
0 216 6080 4386 2 MP stroke
249 0 5955 4386 2 MP stroke
249 0 5955 4602 2 MP stroke
0 197 6215 4415 2 MP stroke
165 0 6091 4415 2 MP stroke
165 0 6091 4612 2 MP stroke
28 0 6228 4444 2 MP stroke
28 0 6228 4613 2 MP stroke
41 5 135 19 137 -35 137 23 135 13 136 -2 137 0 136 -7 
137 50 137 -20 136 3 136 31 136 6 137 6 136 13 137 8 
137 36 134 9 137 -11 136 58 138 -9 136 22 136 38 136 21 
135 29 137 61 136 13 137 42 137 3 137 113 136 64 137 146 
135 43 137 171 136 91 136 208 135 300 135 345 138 505 137 1638 
899 469 41 MP stroke
gr

 874  444 mt  924  494 L
 924  444 mt  874  494 L
1011 2082 mt 1061 2132 L
1061 2082 mt 1011 2132 L
1149 2587 mt 1199 2637 L
1199 2587 mt 1149 2637 L
1284 2932 mt 1334 2982 L
1334 2932 mt 1284 2982 L
1419 3232 mt 1469 3282 L
1469 3232 mt 1419 3282 L
1555 3440 mt 1605 3490 L
1605 3440 mt 1555 3490 L
1691 3531 mt 1741 3581 L
1741 3531 mt 1691 3581 L
1828 3702 mt 1878 3752 L
1878 3702 mt 1828 3752 L
1963 3745 mt 2013 3795 L
2013 3745 mt 1963 3795 L
2100 3891 mt 2150 3941 L
2150 3891 mt 2100 3941 L
2236 3955 mt 2286 4005 L
2286 3955 mt 2236 4005 L
2373 4068 mt 2423 4118 L
2423 4068 mt 2373 4118 L
2510 4071 mt 2560 4121 L
2560 4071 mt 2510 4121 L
2647 4113 mt 2697 4163 L
2697 4113 mt 2647 4163 L
2783 4126 mt 2833 4176 L
2833 4126 mt 2783 4176 L
2920 4187 mt 2970 4237 L
2970 4187 mt 2920 4237 L
3055 4216 mt 3105 4266 L
3105 4216 mt 3055 4266 L
3191 4237 mt 3241 4287 L
3241 4237 mt 3191 4287 L
3327 4275 mt 3377 4325 L
3377 4275 mt 3327 4325 L
3463 4297 mt 3513 4347 L
3513 4297 mt 3463 4347 L
3601 4288 mt 3651 4338 L
3651 4288 mt 3601 4338 L
3737 4346 mt 3787 4396 L
3787 4346 mt 3737 4396 L
3874 4335 mt 3924 4385 L
3924 4335 mt 3874 4385 L
4008 4344 mt 4058 4394 L
4058 4344 mt 4008 4394 L
4145 4380 mt 4195 4430 L
4195 4380 mt 4145 4430 L
4282 4388 mt 4332 4438 L
4332 4388 mt 4282 4438 L
4418 4401 mt 4468 4451 L
4468 4401 mt 4418 4451 L
4555 4407 mt 4605 4457 L
4605 4407 mt 4555 4457 L
4691 4413 mt 4741 4463 L
4741 4413 mt 4691 4463 L
4827 4444 mt 4877 4494 L
4877 4444 mt 4827 4494 L
4963 4447 mt 5013 4497 L
5013 4447 mt 4963 4497 L
5100 4427 mt 5150 4477 L
5150 4427 mt 5100 4477 L
5237 4477 mt 5287 4527 L
5287 4477 mt 5237 4527 L
5373 4470 mt 5423 4520 L
5423 4470 mt 5373 4520 L
5510 4470 mt 5560 4520 L
5560 4470 mt 5510 4520 L
5646 4468 mt 5696 4518 L
5696 4468 mt 5646 4518 L
5781 4481 mt 5831 4531 L
5831 4481 mt 5781 4531 L
5918 4504 mt 5968 4554 L
5968 4504 mt 5918 4554 L
6055 4469 mt 6105 4519 L
6105 4469 mt 6055 4519 L
6190 4488 mt 6240 4538 L
6240 4488 mt 6190 4538 L
gs 899 469 5357 4147 rc
899 469 PD
124 0 899 469 2 MP stroke
124 0 899 469 2 MP stroke
0 359 1036 469 2 MP stroke
249 0 912 828 2 MP stroke
0 484 1174 529 2 MP stroke
248 0 1050 529 2 MP stroke
248 0 1050 1013 2 MP stroke
0 558 1309 561 2 MP stroke
248 0 1185 561 2 MP stroke
248 0 1185 1119 2 MP stroke
0 529 1444 617 2 MP stroke
248 0 1320 617 2 MP stroke
248 0 1320 1146 2 MP stroke
0 476 1580 654 2 MP stroke
248 0 1456 654 2 MP stroke
248 0 1456 1130 2 MP stroke
0 450 1716 722 2 MP stroke
248 0 1592 722 2 MP stroke
248 0 1592 1172 2 MP stroke
0 577 1853 634 2 MP stroke
248 0 1729 634 2 MP stroke
248 0 1729 1211 2 MP stroke
0 485 1988 698 2 MP stroke
249 0 1864 698 2 MP stroke
249 0 1864 1183 2 MP stroke
0 435 2125 756 2 MP stroke
248 0 2001 756 2 MP stroke
248 0 2001 1191 2 MP stroke
0 461 2261 670 2 MP stroke
248 0 2137 670 2 MP stroke
248 0 2137 1131 2 MP stroke
0 558 2398 752 2 MP stroke
249 0 2274 752 2 MP stroke
249 0 2274 1310 2 MP stroke
0 598 2535 768 2 MP stroke
248 0 2411 768 2 MP stroke
248 0 2411 1366 2 MP stroke
0 571 2672 728 2 MP stroke
249 0 2547 728 2 MP stroke
249 0 2547 1299 2 MP stroke
0 621 2808 786 2 MP stroke
248 0 2684 786 2 MP stroke
248 0 2684 1407 2 MP stroke
0 627 2945 782 2 MP stroke
249 0 2820 782 2 MP stroke
249 0 2820 1409 2 MP stroke
0 613 3080 772 2 MP stroke
248 0 2956 772 2 MP stroke
248 0 2956 1385 2 MP stroke
0 660 3216 809 2 MP stroke
248 0 3092 809 2 MP stroke
248 0 3092 1469 2 MP stroke
0 633 3352 753 2 MP stroke
248 0 3228 753 2 MP stroke
248 0 3228 1386 2 MP stroke
0 678 3488 806 2 MP stroke
249 0 3364 806 2 MP stroke
249 0 3364 1484 2 MP stroke
0 593 3626 835 2 MP stroke
248 0 3502 835 2 MP stroke
248 0 3502 1428 2 MP stroke
0 546 3762 941 2 MP stroke
248 0 3638 941 2 MP stroke
248 0 3638 1487 2 MP stroke
0 673 3899 840 2 MP stroke
248 0 3775 840 2 MP stroke
248 0 3775 1513 2 MP stroke
0 799 4033 743 2 MP stroke
248 0 3909 743 2 MP stroke
248 0 3909 1542 2 MP stroke
0 680 4170 891 2 MP stroke
248 0 4046 891 2 MP stroke
248 0 4046 1571 2 MP stroke
0 835 4307 853 2 MP stroke
248 0 4183 853 2 MP stroke
248 0 4183 1688 2 MP stroke
0 745 4443 874 2 MP stroke
248 0 4319 874 2 MP stroke
248 0 4319 1619 2 MP stroke
0 853 4580 769 2 MP stroke
248 0 4456 769 2 MP stroke
248 0 4456 1622 2 MP stroke
0 813 4716 859 2 MP stroke
248 0 4592 859 2 MP stroke
248 0 4592 1672 2 MP stroke
0 816 4852 913 2 MP stroke
248 0 4728 913 2 MP stroke
248 0 4728 1729 2 MP stroke
0 750 4988 981 2 MP stroke
248 0 4864 981 2 MP stroke
248 0 4864 1731 2 MP stroke
0 752 5125 951 2 MP stroke
248 0 5001 951 2 MP stroke
248 0 5001 1703 2 MP stroke
0 653 5262 1018 2 MP stroke
248 0 5138 1018 2 MP stroke
248 0 5138 1671 2 MP stroke
0 820 5398 928 2 MP stroke
248 0 5274 928 2 MP stroke
248 0 5274 1748 2 MP stroke
0 808 5535 994 2 MP stroke
248 0 5411 994 2 MP stroke
248 0 5411 1802 2 MP stroke
0 948 5671 915 2 MP stroke
248 0 5547 915 2 MP stroke
248 0 5547 1863 2 MP stroke
0 969 5806 971 2 MP stroke
248 0 5682 971 2 MP stroke
248 0 5682 1940 2 MP stroke
0 948 5943 917 2 MP stroke
248 0 5819 917 2 MP stroke
248 0 5819 1865 2 MP stroke
0 800 6080 1049 2 MP stroke
249 0 5955 1049 2 MP stroke
249 0 5955 1849 2 MP stroke
0 849 6215 971 2 MP stroke
165 0 6091 971 2 MP stroke
165 0 6091 1820 2 MP stroke
28 0 6228 1017 2 MP stroke
28 0 6228 1838 2 MP stroke
41 9 135 -53 137 58 137 -64 135 66 136 -9 137 60 136 -6 
137 17 137 -29 136 35 136 55 136 70 137 -51 136 -23 137 39 
137 88 134 -33 137 -38 136 83 138 -14 136 75 136 -69 136 60 
135 -17 137 -1 136 83 137 -53 137 36 137 130 136 -72 137 33 
135 17 137 -24 136 55 136 10 135 42 135 69 138 133 137 169 
899 469 41 MP stroke
gr

 874  444 mt  924  494 L
 924  444 mt  874  494 L
1011  613 mt 1061  663 L
1061  613 mt 1011  663 L
1149  746 mt 1199  796 L
1199  746 mt 1149  796 L
1284  815 mt 1334  865 L
1334  815 mt 1284  865 L
1419  857 mt 1469  907 L
1469  857 mt 1419  907 L
1555  867 mt 1605  917 L
1605  867 mt 1555  917 L
1691  922 mt 1741  972 L
1741  922 mt 1691  972 L
1828  898 mt 1878  948 L
1878  898 mt 1828  948 L
1963  915 mt 2013  965 L
2013  915 mt 1963  965 L
2100  948 mt 2150  998 L
2150  948 mt 2100  998 L
2236  876 mt 2286  926 L
2286  876 mt 2236  926 L
2373 1006 mt 2423 1056 L
2423 1006 mt 2373 1056 L
2510 1042 mt 2560 1092 L
2560 1042 mt 2510 1092 L
2647  989 mt 2697 1039 L
2697  989 mt 2647 1039 L
2783 1072 mt 2833 1122 L
2833 1072 mt 2783 1122 L
2920 1071 mt 2970 1121 L
2970 1071 mt 2920 1121 L
3055 1054 mt 3105 1104 L
3105 1054 mt 3055 1104 L
3191 1114 mt 3241 1164 L
3241 1114 mt 3191 1164 L
3327 1045 mt 3377 1095 L
3377 1045 mt 3327 1095 L
3463 1120 mt 3513 1170 L
3513 1120 mt 3463 1170 L
3601 1106 mt 3651 1156 L
3651 1106 mt 3601 1156 L
3737 1189 mt 3787 1239 L
3787 1189 mt 3737 1239 L
3874 1151 mt 3924 1201 L
3924 1151 mt 3874 1201 L
4008 1118 mt 4058 1168 L
4058 1118 mt 4008 1168 L
4145 1206 mt 4195 1256 L
4195 1206 mt 4145 1256 L
4282 1245 mt 4332 1295 L
4332 1245 mt 4282 1295 L
4418 1222 mt 4468 1272 L
4468 1222 mt 4418 1272 L
4555 1171 mt 4605 1221 L
4605 1171 mt 4555 1221 L
4691 1241 mt 4741 1291 L
4741 1241 mt 4691 1291 L
4827 1296 mt 4877 1346 L
4877 1296 mt 4827 1346 L
4963 1331 mt 5013 1381 L
5013 1331 mt 4963 1381 L
5100 1302 mt 5150 1352 L
5150 1302 mt 5100 1352 L
5237 1319 mt 5287 1369 L
5287 1319 mt 5237 1369 L
5373 1313 mt 5423 1363 L
5423 1313 mt 5373 1363 L
5510 1373 mt 5560 1423 L
5560 1373 mt 5510 1423 L
5646 1364 mt 5696 1414 L
5696 1364 mt 5646 1414 L
5781 1430 mt 5831 1480 L
5831 1430 mt 5781 1480 L
5918 1366 mt 5968 1416 L
5968 1366 mt 5918 1416 L
6055 1424 mt 6105 1474 L
6105 1424 mt 6055 1474 L
6190 1371 mt 6240 1421 L
6240 1371 mt 6190 1421 L
gs 899 469 5357 4147 rc
/c8 { 1.000000 0.000000 0.000000 sr} bdef
c8
899 488 PD
899 469 PD
71 0 899 469 2 MP stroke
71 0 899 469 2 MP stroke
0 190 970 935 2 MP stroke
142 0 899 935 2 MP stroke
142 0 899 1125 2 MP stroke
0 304 1041 1285 2 MP stroke
143 0 970 1285 2 MP stroke
143 0 970 1589 2 MP stroke
0 360 1113 1602 2 MP stroke
143 0 1041 1602 2 MP stroke
143 0 1041 1962 2 MP stroke
0 408 1184 1883 2 MP stroke
143 0 1113 1883 2 MP stroke
143 0 1113 2291 2 MP stroke
0 444 1256 2133 2 MP stroke
143 0 1184 2133 2 MP stroke
143 0 1184 2577 2 MP stroke
0 451 1327 2368 2 MP stroke
142 0 1256 2368 2 MP stroke
142 0 1256 2819 2 MP stroke
0 448 1398 2560 2 MP stroke
143 0 1327 2560 2 MP stroke
143 0 1327 3008 2 MP stroke
0 450 1470 2736 2 MP stroke
143 0 1398 2736 2 MP stroke
143 0 1398 3186 2 MP stroke
0 443 1541 2899 2 MP stroke
143 0 1470 2899 2 MP stroke
143 0 1470 3342 2 MP stroke
0 432 1613 3047 2 MP stroke
143 0 1541 3047 2 MP stroke
143 0 1541 3479 2 MP stroke
0 430 1684 3171 2 MP stroke
142 0 1613 3171 2 MP stroke
142 0 1613 3601 2 MP stroke
0 424 1755 3289 2 MP stroke
143 0 1684 3289 2 MP stroke
143 0 1684 3713 2 MP stroke
0 398 1827 3398 2 MP stroke
143 0 1755 3398 2 MP stroke
143 0 1755 3796 2 MP stroke
0 370 1898 3499 2 MP stroke
143 0 1827 3499 2 MP stroke
143 0 1827 3869 2 MP stroke
0 355 1970 3586 2 MP stroke
143 0 1898 3586 2 MP stroke
143 0 1898 3941 2 MP stroke
0 344 2041 3659 2 MP stroke
143 0 1970 3659 2 MP stroke
143 0 1970 4003 2 MP stroke
0 334 2113 3723 2 MP stroke
143 0 2041 3723 2 MP stroke
143 0 2041 4057 2 MP stroke
0 315 2184 3787 2 MP stroke
142 0 2113 3787 2 MP stroke
142 0 2113 4102 2 MP stroke
0 294 2255 3847 2 MP stroke
143 0 2184 3847 2 MP stroke
143 0 2184 4141 2 MP stroke
0 269 2327 3908 2 MP stroke
143 0 2255 3908 2 MP stroke
143 0 2255 4177 2 MP stroke
0 252 2398 3957 2 MP stroke
143 0 2327 3957 2 MP stroke
143 0 2327 4209 2 MP stroke
0 238 2470 4005 2 MP stroke
143 0 2398 4005 2 MP stroke
143 0 2398 4243 2 MP stroke
0 227 2541 4038 2 MP stroke
142 0 2470 4038 2 MP stroke
142 0 2470 4265 2 MP stroke
0 212 2612 4072 2 MP stroke
143 0 2541 4072 2 MP stroke
143 0 2541 4284 2 MP stroke
0 203 2684 4101 2 MP stroke
143 0 2612 4101 2 MP stroke
143 0 2612 4304 2 MP stroke
0 186 2755 4130 2 MP stroke
143 0 2684 4130 2 MP stroke
143 0 2684 4316 2 MP stroke
0 167 2827 4162 2 MP stroke
143 0 2755 4162 2 MP stroke
143 0 2755 4329 2 MP stroke
0 160 2898 4185 2 MP stroke
142 0 2827 4185 2 MP stroke
142 0 2827 4345 2 MP stroke
0 160 2969 4202 2 MP stroke
143 0 2898 4202 2 MP stroke
143 0 2898 4362 2 MP stroke
0 153 3041 4218 2 MP stroke
143 0 2969 4218 2 MP stroke
143 0 2969 4371 2 MP stroke
0 151 3112 4227 2 MP stroke
143 0 3041 4227 2 MP stroke
143 0 3041 4378 2 MP stroke
0 148 3184 4240 2 MP stroke
143 0 3112 4240 2 MP stroke
143 0 3112 4388 2 MP stroke
0 149 3255 4251 2 MP stroke
143 0 3184 4251 2 MP stroke
143 0 3184 4400 2 MP stroke
0 143 3327 4264 2 MP stroke
143 0 3255 4264 2 MP stroke
143 0 3255 4407 2 MP stroke
0 137 3398 4279 2 MP stroke
142 0 3327 4279 2 MP stroke
142 0 3327 4416 2 MP stroke
0 128 3469 4290 2 MP stroke
143 0 3398 4290 2 MP stroke
143 0 3398 4418 2 MP stroke
0 115 3541 4306 2 MP stroke
143 0 3469 4306 2 MP stroke
143 0 3469 4421 2 MP stroke
0 114 3612 4309 2 MP stroke
143 0 3541 4309 2 MP stroke
143 0 3541 4423 2 MP stroke
0 121 3684 4311 2 MP stroke
143 0 3612 4311 2 MP stroke
143 0 3612 4432 2 MP stroke
0 112 3755 4321 2 MP stroke
142 0 3684 4321 2 MP stroke
142 0 3684 4433 2 MP stroke
0 109 3826 4330 2 MP stroke
143 0 3755 4330 2 MP stroke
143 0 3755 4439 2 MP stroke
0 113 3898 4328 2 MP stroke
143 0 3826 4328 2 MP stroke
143 0 3826 4441 2 MP stroke
0 105 3969 4336 2 MP stroke
143 0 3898 4336 2 MP stroke
143 0 3898 4441 2 MP stroke
0 102 4041 4340 2 MP stroke
143 0 3969 4340 2 MP stroke
143 0 3969 4442 2 MP stroke
0 105 4112 4343 2 MP stroke
143 0 4041 4343 2 MP stroke
143 0 4041 4448 2 MP stroke
0 100 4184 4349 2 MP stroke
143 0 4112 4349 2 MP stroke
143 0 4112 4449 2 MP stroke
0 101 4255 4352 2 MP stroke
142 0 4184 4352 2 MP stroke
142 0 4184 4453 2 MP stroke
0 98 4326 4358 2 MP stroke
143 0 4255 4358 2 MP stroke
143 0 4255 4456 2 MP stroke
0 101 4398 4360 2 MP stroke
143 0 4326 4360 2 MP stroke
143 0 4326 4461 2 MP stroke
0 104 4469 4361 2 MP stroke
143 0 4398 4361 2 MP stroke
143 0 4398 4465 2 MP stroke
0 109 4541 4361 2 MP stroke
143 0 4469 4361 2 MP stroke
143 0 4469 4470 2 MP stroke
0 109 4612 4365 2 MP stroke
142 0 4541 4365 2 MP stroke
142 0 4541 4474 2 MP stroke
0 105 4683 4372 2 MP stroke
143 0 4612 4372 2 MP stroke
143 0 4612 4477 2 MP stroke
0 101 4755 4376 2 MP stroke
143 0 4683 4376 2 MP stroke
143 0 4683 4477 2 MP stroke
0 94 4826 4384 2 MP stroke
143 0 4755 4384 2 MP stroke
143 0 4755 4478 2 MP stroke
0 92 4898 4383 2 MP stroke
143 0 4826 4383 2 MP stroke
143 0 4826 4475 2 MP stroke
0 95 4969 4383 2 MP stroke
142 0 4898 4383 2 MP stroke
142 0 4898 4478 2 MP stroke
0 88 5040 4388 2 MP stroke
143 0 4969 4388 2 MP stroke
143 0 4969 4476 2 MP stroke
0 84 5112 4394 2 MP stroke
143 0 5040 4394 2 MP stroke
143 0 5040 4478 2 MP stroke
0 87 5183 4393 2 MP stroke
143 0 5112 4393 2 MP stroke
143 0 5112 4480 2 MP stroke
0 88 5255 4389 2 MP stroke
143 0 5183 4389 2 MP stroke
143 0 5183 4477 2 MP stroke
0 83 5326 4390 2 MP stroke
143 0 5255 4390 2 MP stroke
143 0 5255 4473 2 MP stroke
0 85 5398 4391 2 MP stroke
143 0 5326 4391 2 MP stroke
143 0 5326 4476 2 MP stroke
0 86 5469 4392 2 MP stroke
142 0 5398 4392 2 MP stroke
142 0 5398 4478 2 MP stroke
0 82 5540 4395 2 MP stroke
143 0 5469 4395 2 MP stroke
143 0 5469 4477 2 MP stroke
0 77 5612 4400 2 MP stroke
143 0 5540 4400 2 MP stroke
143 0 5540 4477 2 MP stroke
0 77 5683 4399 2 MP stroke
143 0 5612 4399 2 MP stroke
143 0 5612 4476 2 MP stroke
0 73 5755 4396 2 MP stroke
143 0 5683 4396 2 MP stroke
143 0 5683 4469 2 MP stroke
0 78 5826 4397 2 MP stroke
142 0 5755 4397 2 MP stroke
142 0 5755 4475 2 MP stroke
0 80 5897 4397 2 MP stroke
143 0 5826 4397 2 MP stroke
143 0 5826 4477 2 MP stroke
0 80 5969 4398 2 MP stroke
143 0 5897 4398 2 MP stroke
143 0 5897 4478 2 MP stroke
0 86 6040 4398 2 MP stroke
143 0 5969 4398 2 MP stroke
143 0 5969 4484 2 MP stroke
0 90 6112 4397 2 MP stroke
143 0 6040 4397 2 MP stroke
143 0 6040 4487 2 MP stroke
0 86 6183 4399 2 MP stroke
143 0 6112 4399 2 MP stroke
143 0 6112 4485 2 MP stroke
0 93 6255 4397 2 MP stroke
73 0 6183 4397 2 MP stroke
73 0 6183 4490 2 MP stroke
72 1 71 0 72 1 71 3 72 1 71 1 71 3 72 -4 
71 -1 72 2 71 1 71 2 72 1 71 -1 72 -3 71 0 
72 4 71 1 71 2 72 -2 71 5 72 2 71 4 71 5 
72 2 71 3 72 3 71 5 71 3 72 3 71 5 72 3 
71 3 72 0 71 8 71 6 72 5 71 3 72 9 71 6 
71 12 72 11 71 11 72 12 71 7 72 13 71 17 71 19 
72 23 71 20 72 25 71 26 71 28 72 41 71 40 72 49 
71 49 71 55 72 59 71 68 72 79 71 87 72 96 71 115 
71 123 72 143 71 159 72 177 71 191 71 238 72 268 71 305 
72 345 71 407 71 561 899 469 76 MP stroke
gr

c8
  36   36  970 1030 FO
  36   36 1041 1437 FO
  36   36 1113 1782 FO
  36   36 1184 2087 FO
  36   36 1256 2355 FO
  36   36 1327 2593 FO
  36   36 1398 2784 FO
  36   36 1470 2961 FO
  36   36 1541 3120 FO
  36   36 1613 3263 FO
  36   36 1684 3386 FO
  36   36 1755 3501 FO
  36   36 1827 3597 FO
  36   36 1898 3684 FO
  36   36 1970 3763 FO
  36   36 2041 3831 FO
  36   36 2113 3890 FO
  36   36 2184 3945 FO
  36   36 2255 3994 FO
  36   36 2327 4043 FO
  36   36 2398 4083 FO
  36   36 2470 4124 FO
  36   36 2541 4152 FO
  36   36 2612 4178 FO
  36   36 2684 4203 FO
  36   36 2755 4223 FO
  36   36 2827 4246 FO
  36   36 2898 4265 FO
  36   36 2969 4282 FO
  36   36 3041 4295 FO
  36   36 3112 4302 FO
  36   36 3184 4314 FO
  36   36 3255 4325 FO
  36   36 3327 4336 FO
  36   36 3398 4348 FO
  36   36 3469 4354 FO
  36   36 3541 4363 FO
  36   36 3612 4366 FO
  36   36 3684 4371 FO
  36   36 3755 4377 FO
  36   36 3826 4385 FO
  36   36 3898 4385 FO
  36   36 3969 4388 FO
  36   36 4041 4391 FO
  36   36 4112 4396 FO
  36   36 4184 4399 FO
  36   36 4255 4402 FO
  36   36 4326 4407 FO
  36   36 4398 4410 FO
  36   36 4469 4413 FO
  36   36 4541 4415 FO
  36   36 4612 4420 FO
  36   36 4683 4424 FO
  36   36 4755 4426 FO
  36   36 4826 4431 FO
  36   36 4898 4429 FO
  36   36 4969 4431 FO
  36   36 5040 4432 FO
  36   36 5112 4436 FO
  36   36 5183 4436 FO
  36   36 5255 4433 FO
  36   36 5326 4432 FO
  36   36 5398 4433 FO
  36   36 5469 4435 FO
  36   36 5540 4436 FO
  36   36 5612 4438 FO
  36   36 5683 4437 FO
  36   36 5755 4433 FO
  36   36 5826 4436 FO
  36   36 5897 4437 FO
  36   36 5969 4438 FO
  36   36 6040 4441 FO
  36   36 6112 4442 FO
  36   36 6183 4442 FO
  36   36 6255 4443 FO
gs 899 469 5357 4147 rc
/c9 { 0.000000 0.500000 0.000000 sr} bdef
c9
899 485 PD
899 469 PD
71 0 899 469 2 MP stroke
71 0 899 469 2 MP stroke
0 15 970 469 2 MP stroke
142 0 899 484 2 MP stroke
0 20 1041 469 2 MP stroke
143 0 970 489 2 MP stroke
0 26 1113 469 2 MP stroke
143 0 1041 495 2 MP stroke
0 38 1184 469 2 MP stroke
143 0 1113 507 2 MP stroke
0 53 1256 469 2 MP stroke
143 0 1184 522 2 MP stroke
0 68 1327 469 2 MP stroke
142 0 1256 537 2 MP stroke
0 81 1398 469 2 MP stroke
143 0 1327 550 2 MP stroke
0 100 1470 469 2 MP stroke
143 0 1398 569 2 MP stroke
0 104 1541 473 2 MP stroke
143 0 1470 473 2 MP stroke
143 0 1470 577 2 MP stroke
0 114 1613 481 2 MP stroke
143 0 1541 481 2 MP stroke
143 0 1541 595 2 MP stroke
0 119 1684 495 2 MP stroke
142 0 1613 495 2 MP stroke
142 0 1613 614 2 MP stroke
0 128 1755 507 2 MP stroke
143 0 1684 507 2 MP stroke
143 0 1684 635 2 MP stroke
0 140 1827 521 2 MP stroke
143 0 1755 521 2 MP stroke
143 0 1755 661 2 MP stroke
0 146 1898 535 2 MP stroke
143 0 1827 535 2 MP stroke
143 0 1827 681 2 MP stroke
0 141 1970 553 2 MP stroke
143 0 1898 553 2 MP stroke
143 0 1898 694 2 MP stroke
0 157 2041 566 2 MP stroke
143 0 1970 566 2 MP stroke
143 0 1970 723 2 MP stroke
0 158 2113 583 2 MP stroke
143 0 2041 583 2 MP stroke
143 0 2041 741 2 MP stroke
0 162 2184 601 2 MP stroke
142 0 2113 601 2 MP stroke
142 0 2113 763 2 MP stroke
0 168 2255 619 2 MP stroke
143 0 2184 619 2 MP stroke
143 0 2184 787 2 MP stroke
0 182 2327 629 2 MP stroke
143 0 2255 629 2 MP stroke
143 0 2255 811 2 MP stroke
0 197 2398 643 2 MP stroke
143 0 2327 643 2 MP stroke
143 0 2327 840 2 MP stroke
0 198 2470 658 2 MP stroke
143 0 2398 658 2 MP stroke
143 0 2398 856 2 MP stroke
0 206 2541 678 2 MP stroke
142 0 2470 678 2 MP stroke
142 0 2470 884 2 MP stroke
0 216 2612 694 2 MP stroke
143 0 2541 694 2 MP stroke
143 0 2541 910 2 MP stroke
0 222 2684 708 2 MP stroke
143 0 2612 708 2 MP stroke
143 0 2612 930 2 MP stroke
0 227 2755 727 2 MP stroke
143 0 2684 727 2 MP stroke
143 0 2684 954 2 MP stroke
0 233 2827 742 2 MP stroke
143 0 2755 742 2 MP stroke
143 0 2755 975 2 MP stroke
0 240 2898 758 2 MP stroke
142 0 2827 758 2 MP stroke
142 0 2827 998 2 MP stroke
0 250 2969 771 2 MP stroke
143 0 2898 771 2 MP stroke
143 0 2898 1021 2 MP stroke
0 262 3041 786 2 MP stroke
143 0 2969 786 2 MP stroke
143 0 2969 1048 2 MP stroke
0 271 3112 805 2 MP stroke
143 0 3041 805 2 MP stroke
143 0 3041 1076 2 MP stroke
0 280 3184 820 2 MP stroke
143 0 3112 820 2 MP stroke
143 0 3112 1100 2 MP stroke
0 282 3255 836 2 MP stroke
143 0 3184 836 2 MP stroke
143 0 3184 1118 2 MP stroke
0 283 3327 855 2 MP stroke
143 0 3255 855 2 MP stroke
143 0 3255 1138 2 MP stroke
0 293 3398 867 2 MP stroke
142 0 3327 867 2 MP stroke
142 0 3327 1160 2 MP stroke
0 296 3469 887 2 MP stroke
143 0 3398 887 2 MP stroke
143 0 3398 1183 2 MP stroke
0 310 3541 899 2 MP stroke
143 0 3469 899 2 MP stroke
143 0 3469 1209 2 MP stroke
0 316 3612 915 2 MP stroke
143 0 3541 915 2 MP stroke
143 0 3541 1231 2 MP stroke
0 321 3684 933 2 MP stroke
143 0 3612 933 2 MP stroke
143 0 3612 1254 2 MP stroke
0 327 3755 948 2 MP stroke
142 0 3684 948 2 MP stroke
142 0 3684 1275 2 MP stroke
0 333 3826 960 2 MP stroke
143 0 3755 960 2 MP stroke
143 0 3755 1293 2 MP stroke
0 343 3898 976 2 MP stroke
143 0 3826 976 2 MP stroke
143 0 3826 1319 2 MP stroke
0 348 3969 993 2 MP stroke
143 0 3898 993 2 MP stroke
143 0 3898 1341 2 MP stroke
0 354 4041 1010 2 MP stroke
143 0 3969 1010 2 MP stroke
143 0 3969 1364 2 MP stroke
0 357 4112 1025 2 MP stroke
143 0 4041 1025 2 MP stroke
143 0 4041 1382 2 MP stroke
0 356 4184 1044 2 MP stroke
143 0 4112 1044 2 MP stroke
143 0 4112 1400 2 MP stroke
0 370 4255 1055 2 MP stroke
142 0 4184 1055 2 MP stroke
142 0 4184 1425 2 MP stroke
0 377 4326 1071 2 MP stroke
143 0 4255 1071 2 MP stroke
143 0 4255 1448 2 MP stroke
0 381 4398 1086 2 MP stroke
143 0 4326 1086 2 MP stroke
143 0 4326 1467 2 MP stroke
0 387 4469 1102 2 MP stroke
143 0 4398 1102 2 MP stroke
143 0 4398 1489 2 MP stroke
0 391 4541 1119 2 MP stroke
143 0 4469 1119 2 MP stroke
143 0 4469 1510 2 MP stroke
0 391 4612 1134 2 MP stroke
142 0 4541 1134 2 MP stroke
142 0 4541 1525 2 MP stroke
0 395 4683 1147 2 MP stroke
143 0 4612 1147 2 MP stroke
143 0 4612 1542 2 MP stroke
0 401 4755 1162 2 MP stroke
143 0 4683 1162 2 MP stroke
143 0 4683 1563 2 MP stroke
0 404 4826 1176 2 MP stroke
143 0 4755 1176 2 MP stroke
143 0 4755 1580 2 MP stroke
0 414 4898 1191 2 MP stroke
143 0 4826 1191 2 MP stroke
143 0 4826 1605 2 MP stroke
0 415 4969 1205 2 MP stroke
142 0 4898 1205 2 MP stroke
142 0 4898 1620 2 MP stroke
0 421 5040 1219 2 MP stroke
143 0 4969 1219 2 MP stroke
143 0 4969 1640 2 MP stroke
0 430 5112 1230 2 MP stroke
143 0 5040 1230 2 MP stroke
143 0 5040 1660 2 MP stroke
0 427 5183 1249 2 MP stroke
143 0 5112 1249 2 MP stroke
143 0 5112 1676 2 MP stroke
0 434 5255 1265 2 MP stroke
143 0 5183 1265 2 MP stroke
143 0 5183 1699 2 MP stroke
0 427 5326 1287 2 MP stroke
143 0 5255 1287 2 MP stroke
143 0 5255 1714 2 MP stroke
0 427 5398 1302 2 MP stroke
143 0 5326 1302 2 MP stroke
143 0 5326 1729 2 MP stroke
0 430 5469 1318 2 MP stroke
142 0 5398 1318 2 MP stroke
142 0 5398 1748 2 MP stroke
0 432 5540 1335 2 MP stroke
143 0 5469 1335 2 MP stroke
143 0 5469 1767 2 MP stroke
0 443 5612 1346 2 MP stroke
143 0 5540 1346 2 MP stroke
143 0 5540 1789 2 MP stroke
0 440 5683 1367 2 MP stroke
143 0 5612 1367 2 MP stroke
143 0 5612 1807 2 MP stroke
0 448 5755 1383 2 MP stroke
143 0 5683 1383 2 MP stroke
143 0 5683 1831 2 MP stroke
0 452 5826 1397 2 MP stroke
142 0 5755 1397 2 MP stroke
142 0 5755 1849 2 MP stroke
0 457 5897 1411 2 MP stroke
143 0 5826 1411 2 MP stroke
143 0 5826 1868 2 MP stroke
0 457 5969 1429 2 MP stroke
143 0 5897 1429 2 MP stroke
143 0 5897 1886 2 MP stroke
0 463 6040 1442 2 MP stroke
143 0 5969 1442 2 MP stroke
143 0 5969 1905 2 MP stroke
0 465 6112 1456 2 MP stroke
143 0 6040 1456 2 MP stroke
143 0 6040 1921 2 MP stroke
0 478 6183 1470 2 MP stroke
143 0 6112 1470 2 MP stroke
143 0 6112 1948 2 MP stroke
0 479 6255 1482 2 MP stroke
73 0 6183 1482 2 MP stroke
73 0 6183 1961 2 MP stroke
899 469 PD
gr

c9
gs 899 469 5357 4147 rc
72 13 71 21 72 15 71 16 72 17 71 17 71 16 72 20 
71 19 72 17 71 18 71 18 72 14 71 19 72 20 71 17 
72 16 71 16 71 15 72 20 71 16 72 17 71 15 71 16 
72 18 71 20 72 17 71 19 71 18 72 19 71 16 72 20 
71 19 72 21 71 16 71 17 72 21 71 19 72 19 71 22 
71 17 72 19 71 17 72 20 71 23 72 21 71 18 71 19 
72 18 71 22 72 17 71 21 71 24 72 16 71 21 72 17 
71 21 71 20 72 17 71 22 72 15 71 17 72 20 71 17 
71 16 72 13 71 9 72 13 71 11 71 9 72 7 55 7 
1129 469 73 MP stroke
gr

  36   36 1184  476 FO
  36   36 1256  483 FO
  36   36 1327  492 FO
  36   36 1398  503 FO
  36   36 1470  516 FO
  36   36 1541  525 FO
  36   36 1613  538 FO
  36   36 1684  554 FO
  36   36 1755  571 FO
  36   36 1827  591 FO
  36   36 1898  608 FO
  36   36 1970  623 FO
  36   36 2041  645 FO
  36   36 2113  662 FO
  36   36 2184  682 FO
  36   36 2255  703 FO
  36   36 2327  720 FO
  36   36 2398  741 FO
  36   36 2470  757 FO
  36   36 2541  781 FO
  36   36 2612  802 FO
  36   36 2684  819 FO
  36   36 2755  841 FO
  36   36 2827  859 FO
  36   36 2898  878 FO
  36   36 2969  896 FO
  36   36 3041  917 FO
  36   36 3112  940 FO
  36   36 3184  960 FO
  36   36 3255  977 FO
  36   36 3327  996 FO
  36   36 3398 1013 FO
  36   36 3469 1035 FO
  36   36 3541 1054 FO
  36   36 3612 1073 FO
  36   36 3684 1094 FO
  36   36 3755 1111 FO
  36   36 3826 1127 FO
  36   36 3898 1148 FO
  36   36 3969 1167 FO
  36   36 4041 1187 FO
  36   36 4112 1203 FO
  36   36 4184 1222 FO
  36   36 4255 1240 FO
  36   36 4326 1259 FO
  36   36 4398 1276 FO
  36   36 4469 1296 FO
  36   36 4541 1314 FO
  36   36 4612 1330 FO
  36   36 4683 1345 FO
  36   36 4755 1362 FO
  36   36 4826 1378 FO
  36   36 4898 1398 FO
  36   36 4969 1413 FO
  36   36 5040 1429 FO
  36   36 5112 1445 FO
  36   36 5183 1462 FO
  36   36 5255 1482 FO
  36   36 5326 1501 FO
  36   36 5398 1515 FO
  36   36 5469 1533 FO
  36   36 5540 1551 FO
  36   36 5612 1568 FO
  36   36 5683 1587 FO
  36   36 5755 1607 FO
  36   36 5826 1623 FO
  36   36 5897 1640 FO
  36   36 5969 1657 FO
  36   36 6040 1673 FO
  36   36 6112 1688 FO
  36   36 6183 1709 FO
  36   36 6255 1722 FO
gs 899 469 5357 4147 rc
gr

0 sg
%%IncludeResource: font Helvetica
/Helvetica /ISOLatin1Encoding 168 FMSR

2486  156 mt 
(Nsg1-GFP in Late Anaphase) s
%%IncludeResource: font Helvetica
/Helvetica /ISOLatin1Encoding 144 FMSR

2363  293 mt 
(n) s
%%IncludeResource: font Helvetica
/Helvetica /ISOLatin1Encoding 108 FMSR

2443  377 mt 
(cells) s
%%IncludeResource: font Helvetica
/Helvetica /ISOLatin1Encoding 144 FMSR

2659  293 mt 
( = 34    -    One ring 300nm width) s
3314 4921 mt 
(Time \(s\)) s
 577 3058 mt  -90 rotate
(% Fluorescence) s
90 rotate
%%IncludeResource: font Helvetica
/Helvetica /ISOLatin1Encoding 120 FMSR

 882 4658 mt 
( ) s
6239  511 mt 
( ) s
5656  664 mt 
(mother) s
gs 5217 529 980 335 rc
c8
338 0 5284 621 2 MP stroke
gs 5380 548 147 147 rc
  36   36 5453  621 FO
gr

gr

c8
0 sg
5656  813 mt 
(daughter) s
gs 5217 529 980 335 rc
c9
338 0 5284 770 2 MP stroke
gs 5380 697 147 147 rc
  36   36 5453  770 FO
gr

gr

c9

end %%Color Dict

eplot
%%EndObject

epage
end

showpage

%%Trailer
%%EOF
