%!PS-Adobe-3.0 EPSF-3.0
%%Creator: MATLAB, The MathWorks, Inc. Version 8.1.0.604 (R2013a). Operating System: Darwin 11.4.2 Darwin Kernel Version 11.4.2: Thu Aug 23 16:25:48 PDT 2012; root:xnu-1699.32.7~1/RELEASE_X86_64 x86_64.
%%Title: ./LA_Nup49-sphinbarr-NE-MRs_300nm.eps
%%CreationDate: 10/10/2013  09:53:25
%%DocumentNeededFonts: Helvetica
%%DocumentProcessColors: Cyan Magenta Yellow Black
%%LanguageLevel: 2
%%Pages: 1
%%BoundingBox:    52   197   551   616
%%EndComments

%%BeginProlog
% MathWorks dictionary
/MathWorks 160 dict begin
% definition operators
/bdef {bind def} bind def
/ldef {load def} bind def
/xdef {exch def} bdef
/xstore {exch store} bdef
% operator abbreviations
/c  /clip ldef
/cc /concat ldef
/cp /closepath ldef
/gr /grestore ldef
/gs /gsave ldef
/mt /moveto ldef
/np /newpath ldef
/cm /currentmatrix ldef
/sm /setmatrix ldef
/rm /rmoveto ldef
/rl /rlineto ldef
/s {show newpath} bdef
/sc {setcmykcolor} bdef
/sr /setrgbcolor ldef
/sg /setgray ldef
/w /setlinewidth ldef
/j /setlinejoin ldef
/cap /setlinecap ldef
/rc {rectclip} bdef
/rf {rectfill} bdef
% page state control
/pgsv () def
/bpage {/pgsv save def} bdef
/epage {pgsv restore} bdef
/bplot /gsave ldef
/eplot {stroke grestore} bdef
% orientation switch
/portraitMode 0 def /landscapeMode 1 def /rotateMode 2 def
% coordinate system mappings
/dpi2point 0 def
% font control
/FontSize 0 def
/FMS {/FontSize xstore findfont [FontSize 0 0 FontSize neg 0 0]
  makefont setfont} bdef
/reencode {exch dup where {pop load} {pop StandardEncoding} ifelse
  exch dup 3 1 roll findfont dup length dict begin
  { 1 index /FID ne {def}{pop pop} ifelse } forall
  /Encoding exch def currentdict end definefont pop} bdef
/isroman {findfont /CharStrings get /Agrave known} bdef
/FMSR {3 1 roll 1 index dup isroman {reencode} {pop pop} ifelse
  exch FMS} bdef
/csm {1 dpi2point div -1 dpi2point div scale neg translate
 dup landscapeMode eq {pop -90 rotate}
  {rotateMode eq {90 rotate} if} ifelse} bdef
% line types: solid, dotted, dashed, dotdash
/SO { [] 0 setdash } bdef
/DO { [.5 dpi2point mul 4 dpi2point mul] 0 setdash } bdef
/DA { [6 dpi2point mul] 0 setdash } bdef
/DD { [.5 dpi2point mul 4 dpi2point mul 6 dpi2point mul 4
  dpi2point mul] 0 setdash } bdef
% macros for lines and objects
/L {lineto stroke} bdef
/MP {3 1 roll moveto 1 sub {rlineto} repeat} bdef
/AP {{rlineto} repeat} bdef
/PDlw -1 def
/W {/PDlw currentlinewidth def setlinewidth} def
/PP {closepath eofill} bdef
/DP {closepath stroke} bdef
/MR {4 -2 roll moveto dup  0 exch rlineto exch 0 rlineto
  neg 0 exch rlineto closepath} bdef
/FR {MR stroke} bdef
/PR {MR fill} bdef
/L1i {{currentfile picstr readhexstring pop} image} bdef
/tMatrix matrix def
/MakeOval {newpath tMatrix currentmatrix pop translate scale
0 0 1 0 360 arc tMatrix setmatrix} bdef
/FO {MakeOval stroke} bdef
/PO {MakeOval fill} bdef
/PD {currentlinewidth 2 div 0 360 arc fill
   PDlw -1 eq not {PDlw w /PDlw -1 def} if} def
/FA {newpath tMatrix currentmatrix pop translate scale
  0 0 1 5 -2 roll arc tMatrix setmatrix stroke} bdef
/PA {newpath tMatrix currentmatrix pop	translate 0 0 moveto scale
  0 0 1 5 -2 roll arc closepath tMatrix setmatrix fill} bdef
/FAn {newpath tMatrix currentmatrix pop translate scale
  0 0 1 5 -2 roll arcn tMatrix setmatrix stroke} bdef
/PAn {newpath tMatrix currentmatrix pop translate 0 0 moveto scale
  0 0 1 5 -2 roll arcn closepath tMatrix setmatrix fill} bdef
/vradius 0 def /hradius 0 def /lry 0 def
/lrx 0 def /uly 0 def /ulx 0 def /rad 0 def
/MRR {/vradius xdef /hradius xdef /lry xdef /lrx xdef /uly xdef
  /ulx xdef newpath tMatrix currentmatrix pop ulx hradius add uly
  vradius add translate hradius vradius scale 0 0 1 180 270 arc 
  tMatrix setmatrix lrx hradius sub uly vradius add translate
  hradius vradius scale 0 0 1 270 360 arc tMatrix setmatrix
  lrx hradius sub lry vradius sub translate hradius vradius scale
  0 0 1 0 90 arc tMatrix setmatrix ulx hradius add lry vradius sub
  translate hradius vradius scale 0 0 1 90 180 arc tMatrix setmatrix
  closepath} bdef
/FRR {MRR stroke } bdef
/PRR {MRR fill } bdef
/MlrRR {/lry xdef /lrx xdef /uly xdef /ulx xdef /rad lry uly sub 2 div def
  newpath tMatrix currentmatrix pop ulx rad add uly rad add translate
  rad rad scale 0 0 1 90 270 arc tMatrix setmatrix lrx rad sub lry rad
  sub translate rad rad scale 0 0 1 270 90 arc tMatrix setmatrix
  closepath} bdef
/FlrRR {MlrRR stroke } bdef
/PlrRR {MlrRR fill } bdef
/MtbRR {/lry xdef /lrx xdef /uly xdef /ulx xdef /rad lrx ulx sub 2 div def
  newpath tMatrix currentmatrix pop ulx rad add uly rad add translate
  rad rad scale 0 0 1 180 360 arc tMatrix setmatrix lrx rad sub lry rad
  sub translate rad rad scale 0 0 1 0 180 arc tMatrix setmatrix
  closepath} bdef
/FtbRR {MtbRR stroke } bdef
/PtbRR {MtbRR fill } bdef
/stri 6 array def /dtri 6 array def
/smat 6 array def /dmat 6 array def
/tmat1 6 array def /tmat2 6 array def /dif 3 array def
/asub {/ind2 exch def /ind1 exch def dup dup
  ind1 get exch ind2 get sub exch } bdef
/tri_to_matrix {
  2 0 asub 3 1 asub 4 0 asub 5 1 asub
  dup 0 get exch 1 get 7 -1 roll astore } bdef
/compute_transform {
  dmat dtri tri_to_matrix tmat1 invertmatrix 
  smat stri tri_to_matrix tmat2 concatmatrix } bdef
/ds {stri astore pop} bdef
/dt {dtri astore pop} bdef
/db {2 copy /cols xdef /rows xdef mul dup 3 mul string
  currentfile 
  3 index 0 eq {/ASCIIHexDecode filter}
  {/ASCII85Decode filter 3 index 2 eq {/RunLengthDecode filter} if }
  ifelse exch readstring pop
  dup 0 3 index getinterval /rbmap xdef
  dup 2 index dup getinterval /gbmap xdef
  1 index dup 2 mul exch getinterval /bbmap xdef pop pop}bdef
/it {gs np dtri aload pop moveto lineto lineto cp c
  cols rows 8 compute_transform 
  rbmap gbmap bbmap true 3 colorimage gr}bdef
/il {newpath moveto lineto stroke}bdef
currentdict end def
%%EndProlog

%%BeginSetup
MathWorks begin

0 cap

end
%%EndSetup

%%Page: 1 1
%%BeginPageSetup
%%PageBoundingBox:    52   197   551   616
MathWorks begin
bpage
%%EndPageSetup

%%BeginObject: obj1
bplot

/dpi2point 12 def
portraitMode 0216 7344 csm

  418   -48  5986  5026 rc
85 dict begin %Colortable dictionary
/c0 { 0.000000 0.000000 0.000000 sr} bdef
/c1 { 1.000000 1.000000 1.000000 sr} bdef
/c2 { 0.900000 0.000000 0.000000 sr} bdef
/c3 { 0.000000 0.820000 0.000000 sr} bdef
/c4 { 0.000000 0.000000 0.800000 sr} bdef
/c5 { 0.910000 0.820000 0.320000 sr} bdef
/c6 { 1.000000 0.260000 0.820000 sr} bdef
/c7 { 0.000000 0.820000 0.820000 sr} bdef
c0
1 j
1 sg
   0    0 6913 5186 rf
6 w
0 4146 5356 0 0 -4146 899 4615 4 MP
PP
-5356 0 0 4146 5356 0 0 -4146 899 4615 5 MP stroke
4 w
DO
SO
6 w
0 sg
 899 4615 mt 6255 4615 L
 899  469 mt 6255  469 L
 899 4615 mt  899  469 L
6255 4615 mt 6255  469 L
 899 4615 mt 6255 4615 L
 899 4615 mt  899  469 L
 899 4615 mt  899 4561 L
 899  469 mt  899  522 L
%%IncludeResource: font Helvetica
/Helvetica /ISOLatin1Encoding 120 FMSR

 866 4760 mt 
(0) s
1791 4615 mt 1791 4561 L
1791  469 mt 1791  522 L
1725 4760 mt 
(50) s
2684 4615 mt 2684 4561 L
2684  469 mt 2684  522 L
2584 4760 mt 
(100) s
3577 4615 mt 3577 4561 L
3577  469 mt 3577  522 L
3477 4760 mt 
(150) s
4469 4615 mt 4469 4561 L
4469  469 mt 4469  522 L
4369 4760 mt 
(200) s
5362 4615 mt 5362 4561 L
5362  469 mt 5362  522 L
5262 4760 mt 
(250) s
6255 4615 mt 6255 4561 L
6255  469 mt 6255  522 L
6155 4760 mt 
(300) s
 899 4615 mt  952 4615 L
6255 4615 mt 6201 4615 L
 798 4659 mt 
(0) s
 899 4200 mt  952 4200 L
6255 4200 mt 6201 4200 L
 731 4244 mt 
(10) s
 899 3785 mt  952 3785 L
6255 3785 mt 6201 3785 L
 731 3829 mt 
(20) s
 899 3371 mt  952 3371 L
6255 3371 mt 6201 3371 L
 731 3415 mt 
(30) s
 899 2956 mt  952 2956 L
6255 2956 mt 6201 2956 L
 731 3000 mt 
(40) s
 899 2542 mt  952 2542 L
6255 2542 mt 6201 2542 L
 731 2586 mt 
(50) s
 899 2127 mt  952 2127 L
6255 2127 mt 6201 2127 L
 731 2171 mt 
(60) s
 899 1712 mt  952 1712 L
6255 1712 mt 6201 1712 L
 731 1756 mt 
(70) s
 899 1298 mt  952 1298 L
6255 1298 mt 6201 1298 L
 731 1342 mt 
(80) s
 899  883 mt  952  883 L
6255  883 mt 6201  883 L
 731  927 mt 
(90) s
 899  469 mt  952  469 L
6255  469 mt 6201  469 L
 664  513 mt 
(100) s
 899 4615 mt 6255 4615 L
 899  469 mt 6255  469 L
 899 4615 mt  899  469 L
6255 4615 mt 6255  469 L
gs 899 469 5357 4147 rc
899 469 PD
64 0 899 469 2 MP stroke
64 0 899 469 2 MP stroke
0 917 968 1681 2 MP stroke
128 0 904 1681 2 MP stroke
128 0 904 2598 2 MP stroke
0 804 1037 2106 2 MP stroke
128 0 973 2106 2 MP stroke
128 0 973 2910 2 MP stroke
0 960 1105 2267 2 MP stroke
128 0 1041 2267 2 MP stroke
128 0 1041 3227 2 MP stroke
0 884 1173 2559 2 MP stroke
129 0 1108 2559 2 MP stroke
129 0 1108 3443 2 MP stroke
0 749 1241 2786 2 MP stroke
129 0 1177 2786 2 MP stroke
129 0 1177 3535 2 MP stroke
0 701 1311 2964 2 MP stroke
129 0 1246 2964 2 MP stroke
129 0 1246 3665 2 MP stroke
0 841 1379 2992 2 MP stroke
129 0 1314 2992 2 MP stroke
129 0 1314 3833 2 MP stroke
0 802 1448 3107 2 MP stroke
129 0 1383 3107 2 MP stroke
129 0 1383 3909 2 MP stroke
0 867 1517 3151 2 MP stroke
128 0 1453 3151 2 MP stroke
128 0 1453 4018 2 MP stroke
0 792 1585 3210 2 MP stroke
129 0 1521 3210 2 MP stroke
129 0 1521 4002 2 MP stroke
0 727 1653 3382 2 MP stroke
129 0 1589 3382 2 MP stroke
129 0 1589 4109 2 MP stroke
0 716 1722 3445 2 MP stroke
128 0 1658 3445 2 MP stroke
128 0 1658 4161 2 MP stroke
0 730 1791 3507 2 MP stroke
129 0 1727 3507 2 MP stroke
129 0 1727 4237 2 MP stroke
0 655 1860 3559 2 MP stroke
129 0 1795 3559 2 MP stroke
129 0 1795 4214 2 MP stroke
0 616 1928 3699 2 MP stroke
128 0 1864 3699 2 MP stroke
128 0 1864 4315 2 MP stroke
0 591 1997 3737 2 MP stroke
129 0 1932 3737 2 MP stroke
129 0 1932 4328 2 MP stroke
0 635 2066 3743 2 MP stroke
129 0 2001 3743 2 MP stroke
129 0 2001 4378 2 MP stroke
0 598 2134 3781 2 MP stroke
128 0 2070 3781 2 MP stroke
128 0 2070 4379 2 MP stroke
0 626 2202 3812 2 MP stroke
129 0 2137 3812 2 MP stroke
129 0 2137 4438 2 MP stroke
0 585 2271 3880 2 MP stroke
129 0 2206 3880 2 MP stroke
129 0 2206 4465 2 MP stroke
0 604 2340 3900 2 MP stroke
129 0 2276 3900 2 MP stroke
129 0 2276 4504 2 MP stroke
0 560 2409 3953 2 MP stroke
129 0 2345 3953 2 MP stroke
129 0 2345 4513 2 MP stroke
0 559 2477 3942 2 MP stroke
129 0 2413 3942 2 MP stroke
129 0 2413 4501 2 MP stroke
0 462 2546 4043 2 MP stroke
129 0 2482 4043 2 MP stroke
129 0 2482 4505 2 MP stroke
0 586 2614 3963 2 MP stroke
129 0 2550 3963 2 MP stroke
129 0 2550 4549 2 MP stroke
0 515 2683 4011 2 MP stroke
128 0 2619 4011 2 MP stroke
128 0 2619 4526 2 MP stroke
0 539 2751 4005 2 MP stroke
129 0 2687 4005 2 MP stroke
129 0 2687 4544 2 MP stroke
0 498 2820 4108 2 MP stroke
128 0 2756 4108 2 MP stroke
128 0 2756 4606 2 MP stroke
0 620 2889 3996 2 MP stroke
129 0 2825 3996 2 MP stroke
0 484 2959 4132 2 MP stroke
129 0 2894 4132 2 MP stroke
0 524 3026 4092 2 MP stroke
128 0 2962 4092 2 MP stroke
0 499 3095 4117 2 MP stroke
129 0 3030 4117 2 MP stroke
0 514 3164 4102 2 MP stroke
128 0 3100 4102 2 MP stroke
0 360 3232 4256 2 MP stroke
129 0 3168 4256 2 MP stroke
0 383 3301 4233 2 MP stroke
129 0 3236 4233 2 MP stroke
0 362 3369 4254 2 MP stroke
129 0 3305 4254 2 MP stroke
0 377 3439 4239 2 MP stroke
129 0 3374 4239 2 MP stroke
0 395 3507 4221 2 MP stroke
128 0 3443 4221 2 MP stroke
0 354 3575 4262 2 MP stroke
128 0 3511 4262 2 MP stroke
0 312 3644 4304 2 MP stroke
129 0 3580 4304 2 MP stroke
0 358 3713 4258 2 MP stroke
128 0 3649 4258 2 MP stroke
0 283 3782 4333 2 MP stroke
128 0 3718 4333 2 MP stroke
0 293 3850 4323 2 MP stroke
128 0 3786 4323 2 MP stroke
0 372 3919 4244 2 MP stroke
129 0 3854 4244 2 MP stroke
0 289 3988 4327 2 MP stroke
129 0 3923 4327 2 MP stroke
0 235 4056 4381 2 MP stroke
129 0 3992 4381 2 MP stroke
0 260 4124 4356 2 MP stroke
129 0 4060 4356 2 MP stroke
0 242 4193 4374 2 MP stroke
129 0 4128 4374 2 MP stroke
0 238 4262 4378 2 MP stroke
128 0 4198 4378 2 MP stroke
0 212 4331 4404 2 MP stroke
129 0 4267 4404 2 MP stroke
0 153 4400 4463 2 MP stroke
129 0 4335 4463 2 MP stroke
0 197 4468 4419 2 MP stroke
128 0 4404 4419 2 MP stroke
0 188 4536 4428 2 MP stroke
129 0 4471 4428 2 MP stroke
0 198 4605 4418 2 MP stroke
129 0 4540 4418 2 MP stroke
0 158 4674 4458 2 MP stroke
128 0 4610 4458 2 MP stroke
0 142 4743 4474 2 MP stroke
129 0 4678 4474 2 MP stroke
0 170 4811 4446 2 MP stroke
129 0 4747 4446 2 MP stroke
0 188 4880 4428 2 MP stroke
128 0 4816 4428 2 MP stroke
0 219 4948 4397 2 MP stroke
128 0 4884 4397 2 MP stroke
0 226 5017 4390 2 MP stroke
129 0 4952 4390 2 MP stroke
0 161 5086 4455 2 MP stroke
129 0 5021 4455 2 MP stroke
0 131 5155 4485 2 MP stroke
128 0 5091 4485 2 MP stroke
0 142 5223 4474 2 MP stroke
129 0 5159 4474 2 MP stroke
0 138 5292 4478 2 MP stroke
129 0 5227 4478 2 MP stroke
0 122 5360 4494 2 MP stroke
129 0 5295 4494 2 MP stroke
0 115 5429 4501 2 MP stroke
129 0 5364 4501 2 MP stroke
0 212 5500 4404 2 MP stroke
129 0 5435 4404 2 MP stroke
0 162 5573 4454 2 MP stroke
129 0 5508 4454 2 MP stroke
0 177 5648 4439 2 MP stroke
128 0 5584 4439 2 MP stroke
0 165 5727 4451 2 MP stroke
129 0 5662 4451 2 MP stroke
0 165 5816 4451 2 MP stroke
128 0 5752 4451 2 MP stroke
0 122 5903 4494 2 MP stroke
128 0 5839 4494 2 MP stroke
0 114 5993 4502 2 MP stroke
129 0 5929 4502 2 MP stroke
0 122 6088 4494 2 MP stroke
129 0 6023 4494 2 MP stroke
0 160 6190 4456 2 MP stroke
129 0 6125 4456 2 MP stroke
2 0 6254 4522 2 MP stroke
48 17 68 -4 69 -4 69 31 69 -28 68 -2 69 16 68 -15 
69 17 69 8 69 18 68 -31 68 -16 69 22 69 12 69 -12 
69 64 68 -36 68 26 69 33 69 -1 68 -25 69 40 69 -24 
69 28 68 13 68 11 70 -7 68 29 69 -20 68 65 69 5 
69 10 67 -8 70 72 69 -45 69 83 68 6 69 12 68 -18 
69 53 68 -12 69 31 69 29 69 48 68 45 68 19 69 28 
69 26 68 121 69 14 69 69 69 57 68 140 68 22 69 76 
69 96 68 97 70 155 68 159 68 254 68 239 69 369 69 1670 
899 469 65 MP stroke
gr

 874  444 mt  924  494 L
 924  444 mt  874  494 L
 943 2114 mt  993 2164 L
 993 2114 mt  943 2164 L
1012 2483 mt 1062 2533 L
1062 2483 mt 1012 2533 L
1080 2722 mt 1130 2772 L
1130 2722 mt 1080 2772 L
1148 2976 mt 1198 3026 L
1198 2976 mt 1148 3026 L
1216 3135 mt 1266 3185 L
1266 3135 mt 1216 3185 L
1286 3290 mt 1336 3340 L
1336 3290 mt 1286 3340 L
1354 3387 mt 1404 3437 L
1404 3387 mt 1354 3437 L
1423 3483 mt 1473 3533 L
1473 3483 mt 1423 3533 L
1492 3559 mt 1542 3609 L
1542 3559 mt 1492 3609 L
1560 3581 mt 1610 3631 L
1610 3581 mt 1560 3631 L
1628 3721 mt 1678 3771 L
1678 3721 mt 1628 3771 L
1697 3778 mt 1747 3828 L
1747 3778 mt 1697 3828 L
1766 3847 mt 1816 3897 L
1816 3847 mt 1766 3897 L
1835 3861 mt 1885 3911 L
1885 3861 mt 1835 3911 L
1903 3982 mt 1953 4032 L
1953 3982 mt 1903 4032 L
1972 4008 mt 2022 4058 L
2022 4008 mt 1972 4058 L
2041 4036 mt 2091 4086 L
2091 4036 mt 2041 4086 L
2109 4055 mt 2159 4105 L
2159 4055 mt 2109 4105 L
2177 4100 mt 2227 4150 L
2227 4100 mt 2177 4150 L
2246 4148 mt 2296 4198 L
2296 4148 mt 2246 4198 L
2315 4177 mt 2365 4227 L
2365 4177 mt 2315 4227 L
2384 4208 mt 2434 4258 L
2434 4208 mt 2384 4258 L
2452 4196 mt 2502 4246 L
2502 4196 mt 2452 4246 L
2521 4249 mt 2571 4299 L
2571 4249 mt 2521 4299 L
2589 4231 mt 2639 4281 L
2639 4231 mt 2589 4281 L
2658 4243 mt 2708 4293 L
2708 4243 mt 2658 4293 L
2726 4249 mt 2776 4299 L
2776 4249 mt 2726 4299 L
2795 4332 mt 2845 4382 L
2845 4332 mt 2795 4382 L
2864 4287 mt 2914 4337 L
2914 4287 mt 2864 4337 L
2934 4359 mt 2984 4409 L
2984 4359 mt 2934 4409 L
3001 4351 mt 3051 4401 L
3051 4351 mt 3001 4401 L
3070 4361 mt 3120 4411 L
3120 4361 mt 3070 4411 L
3139 4366 mt 3189 4416 L
3189 4366 mt 3139 4416 L
3207 4431 mt 3257 4481 L
3257 4431 mt 3207 4481 L
3276 4411 mt 3326 4461 L
3326 4411 mt 3276 4461 L
3344 4440 mt 3394 4490 L
3394 4440 mt 3344 4490 L
3414 4433 mt 3464 4483 L
3464 4433 mt 3414 4483 L
3482 4444 mt 3532 4494 L
3532 4444 mt 3482 4494 L
3550 4457 mt 3600 4507 L
3600 4457 mt 3550 4507 L
3619 4485 mt 3669 4535 L
3669 4485 mt 3619 4535 L
3688 4461 mt 3738 4511 L
3738 4461 mt 3688 4511 L
3757 4501 mt 3807 4551 L
3807 4501 mt 3757 4551 L
3825 4476 mt 3875 4526 L
3875 4476 mt 3825 4526 L
3894 4475 mt 3944 4525 L
3944 4475 mt 3894 4525 L
3963 4508 mt 4013 4558 L
4013 4508 mt 3963 4558 L
4031 4534 mt 4081 4584 L
4081 4534 mt 4031 4584 L
4099 4498 mt 4149 4548 L
4149 4498 mt 4099 4548 L
4168 4562 mt 4218 4612 L
4218 4562 mt 4168 4612 L
4237 4550 mt 4287 4600 L
4287 4550 mt 4237 4600 L
4306 4562 mt 4356 4612 L
4356 4562 mt 4306 4612 L
4375 4584 mt 4425 4634 L
4425 4584 mt 4375 4634 L
4443 4568 mt 4493 4618 L
4493 4568 mt 4443 4618 L
4511 4537 mt 4561 4587 L
4561 4537 mt 4511 4587 L
4580 4555 mt 4630 4605 L
4630 4555 mt 4580 4605 L
4649 4563 mt 4699 4613 L
4699 4563 mt 4649 4613 L
4718 4580 mt 4768 4630 L
4768 4580 mt 4718 4630 L
4786 4565 mt 4836 4615 L
4836 4565 mt 4786 4615 L
4855 4581 mt 4905 4631 L
4905 4581 mt 4855 4631 L
4923 4579 mt 4973 4629 L
4973 4579 mt 4923 4629 L
4992 4551 mt 5042 4601 L
5042 4551 mt 4992 4601 L
5061 4582 mt 5111 4632 L
5111 4582 mt 5061 4632 L
5130 4578 mt 5180 4628 L
5180 4578 mt 5130 4628 L
5198 4574 mt 5248 4624 L
5248 4574 mt 5198 4624 L
gs 899 469 5357 4147 rc
68 22 89 2 79 -19 75 5 73 18 45 -28 5455 4616 7 MP stroke
gr

5475 4563 mt 5525 4613 L
5525 4563 mt 5475 4613 L
5548 4581 mt 5598 4631 L
5598 4581 mt 5548 4631 L
5623 4586 mt 5673 4636 L
5673 4586 mt 5623 4636 L
5702 4567 mt 5752 4617 L
5752 4567 mt 5702 4617 L
5791 4569 mt 5841 4619 L
5841 4569 mt 5791 4619 L
gs 899 469 5357 4147 rc
29 16 64 -16 6126 4616 3 MP stroke
gr

6165 4575 mt 6215 4625 L
6215 4575 mt 6165 4625 L
gs 899 469 5357 4147 rc
899 469 PD
64 0 899 469 2 MP stroke
64 0 899 469 2 MP stroke
0 664 968 469 2 MP stroke
128 0 904 1133 2 MP stroke
0 595 1037 568 2 MP stroke
128 0 973 568 2 MP stroke
128 0 973 1163 2 MP stroke
0 733 1105 469 2 MP stroke
128 0 1041 1202 2 MP stroke
0 631 1173 646 2 MP stroke
129 0 1108 646 2 MP stroke
129 0 1108 1277 2 MP stroke
0 560 1241 666 2 MP stroke
129 0 1177 666 2 MP stroke
129 0 1177 1226 2 MP stroke
0 753 1311 628 2 MP stroke
129 0 1246 628 2 MP stroke
129 0 1246 1381 2 MP stroke
0 784 1379 684 2 MP stroke
129 0 1314 684 2 MP stroke
129 0 1314 1468 2 MP stroke
0 600 1448 666 2 MP stroke
129 0 1383 666 2 MP stroke
129 0 1383 1266 2 MP stroke
0 781 1517 644 2 MP stroke
128 0 1453 644 2 MP stroke
128 0 1453 1425 2 MP stroke
0 621 1585 731 2 MP stroke
129 0 1521 731 2 MP stroke
129 0 1521 1352 2 MP stroke
0 1025 1653 600 2 MP stroke
129 0 1589 600 2 MP stroke
129 0 1589 1625 2 MP stroke
0 1026 1722 542 2 MP stroke
128 0 1658 542 2 MP stroke
128 0 1658 1568 2 MP stroke
0 908 1791 701 2 MP stroke
129 0 1727 701 2 MP stroke
129 0 1727 1609 2 MP stroke
0 955 1860 627 2 MP stroke
129 0 1795 627 2 MP stroke
129 0 1795 1582 2 MP stroke
0 1073 1928 571 2 MP stroke
128 0 1864 571 2 MP stroke
128 0 1864 1644 2 MP stroke
0 1001 1997 605 2 MP stroke
129 0 1932 605 2 MP stroke
129 0 1932 1606 2 MP stroke
0 1121 2066 504 2 MP stroke
129 0 2001 504 2 MP stroke
129 0 2001 1625 2 MP stroke
0 1355 2134 489 2 MP stroke
128 0 2070 489 2 MP stroke
128 0 2070 1844 2 MP stroke
0 1186 2202 632 2 MP stroke
129 0 2137 632 2 MP stroke
129 0 2137 1818 2 MP stroke
0 1430 2271 529 2 MP stroke
129 0 2206 529 2 MP stroke
129 0 2206 1959 2 MP stroke
0 1397 2340 578 2 MP stroke
129 0 2276 578 2 MP stroke
129 0 2276 1975 2 MP stroke
0 1363 2409 608 2 MP stroke
129 0 2345 608 2 MP stroke
129 0 2345 1971 2 MP stroke
0 1024 2477 758 2 MP stroke
129 0 2413 758 2 MP stroke
129 0 2413 1782 2 MP stroke
0 998 2546 710 2 MP stroke
129 0 2482 710 2 MP stroke
129 0 2482 1708 2 MP stroke
0 1137 2614 702 2 MP stroke
129 0 2550 702 2 MP stroke
129 0 2550 1839 2 MP stroke
0 1093 2683 741 2 MP stroke
128 0 2619 741 2 MP stroke
128 0 2619 1834 2 MP stroke
0 1201 2751 688 2 MP stroke
129 0 2687 688 2 MP stroke
129 0 2687 1889 2 MP stroke
0 1261 2820 606 2 MP stroke
128 0 2756 606 2 MP stroke
128 0 2756 1867 2 MP stroke
0 1329 2889 662 2 MP stroke
129 0 2825 662 2 MP stroke
129 0 2825 1991 2 MP stroke
0 1335 2959 545 2 MP stroke
129 0 2894 545 2 MP stroke
129 0 2894 1880 2 MP stroke
0 1195 3026 640 2 MP stroke
128 0 2962 640 2 MP stroke
128 0 2962 1835 2 MP stroke
0 1413 3095 566 2 MP stroke
129 0 3030 566 2 MP stroke
129 0 3030 1979 2 MP stroke
0 1262 3164 669 2 MP stroke
128 0 3100 669 2 MP stroke
128 0 3100 1931 2 MP stroke
0 1075 3232 649 2 MP stroke
129 0 3168 649 2 MP stroke
129 0 3168 1724 2 MP stroke
0 1174 3301 589 2 MP stroke
129 0 3236 589 2 MP stroke
129 0 3236 1763 2 MP stroke
0 1021 3369 868 2 MP stroke
129 0 3305 868 2 MP stroke
129 0 3305 1889 2 MP stroke
0 988 3439 899 2 MP stroke
129 0 3374 899 2 MP stroke
129 0 3374 1887 2 MP stroke
0 1116 3507 712 2 MP stroke
128 0 3443 712 2 MP stroke
128 0 3443 1828 2 MP stroke
0 1021 3575 811 2 MP stroke
128 0 3511 811 2 MP stroke
128 0 3511 1832 2 MP stroke
0 1008 3644 966 2 MP stroke
129 0 3580 966 2 MP stroke
129 0 3580 1974 2 MP stroke
0 900 3713 989 2 MP stroke
128 0 3649 989 2 MP stroke
128 0 3649 1889 2 MP stroke
0 923 3782 936 2 MP stroke
128 0 3718 936 2 MP stroke
128 0 3718 1859 2 MP stroke
0 947 3850 917 2 MP stroke
128 0 3786 917 2 MP stroke
128 0 3786 1864 2 MP stroke
0 991 3919 873 2 MP stroke
129 0 3854 873 2 MP stroke
129 0 3854 1864 2 MP stroke
0 1132 3988 840 2 MP stroke
129 0 3923 840 2 MP stroke
129 0 3923 1972 2 MP stroke
0 943 4056 974 2 MP stroke
129 0 3992 974 2 MP stroke
129 0 3992 1917 2 MP stroke
0 1045 4124 861 2 MP stroke
129 0 4060 861 2 MP stroke
129 0 4060 1906 2 MP stroke
0 1080 4193 878 2 MP stroke
129 0 4128 878 2 MP stroke
129 0 4128 1958 2 MP stroke
0 1005 4262 924 2 MP stroke
128 0 4198 924 2 MP stroke
128 0 4198 1929 2 MP stroke
0 1076 4331 979 2 MP stroke
129 0 4267 979 2 MP stroke
129 0 4267 2055 2 MP stroke
0 822 4400 955 2 MP stroke
129 0 4335 955 2 MP stroke
129 0 4335 1777 2 MP stroke
0 903 4468 1084 2 MP stroke
128 0 4404 1084 2 MP stroke
128 0 4404 1987 2 MP stroke
0 1184 4536 984 2 MP stroke
129 0 4471 984 2 MP stroke
129 0 4471 2168 2 MP stroke
0 1046 4605 981 2 MP stroke
129 0 4540 981 2 MP stroke
129 0 4540 2027 2 MP stroke
0 1021 4674 1035 2 MP stroke
128 0 4610 1035 2 MP stroke
128 0 4610 2056 2 MP stroke
0 1041 4743 876 2 MP stroke
129 0 4678 876 2 MP stroke
129 0 4678 1917 2 MP stroke
0 1105 4811 964 2 MP stroke
129 0 4747 964 2 MP stroke
129 0 4747 2069 2 MP stroke
0 1325 4880 790 2 MP stroke
128 0 4816 790 2 MP stroke
128 0 4816 2115 2 MP stroke
0 1160 4948 932 2 MP stroke
128 0 4884 932 2 MP stroke
128 0 4884 2092 2 MP stroke
0 979 5017 961 2 MP stroke
129 0 4952 961 2 MP stroke
129 0 4952 1940 2 MP stroke
0 1060 5086 939 2 MP stroke
129 0 5021 939 2 MP stroke
129 0 5021 1999 2 MP stroke
0 969 5155 883 2 MP stroke
128 0 5091 883 2 MP stroke
128 0 5091 1852 2 MP stroke
0 1119 5223 922 2 MP stroke
129 0 5159 922 2 MP stroke
129 0 5159 2041 2 MP stroke
0 1144 5292 1068 2 MP stroke
129 0 5227 1068 2 MP stroke
129 0 5227 2212 2 MP stroke
0 1130 5360 930 2 MP stroke
129 0 5295 930 2 MP stroke
129 0 5295 2060 2 MP stroke
0 917 5429 1026 2 MP stroke
129 0 5364 1026 2 MP stroke
129 0 5364 1943 2 MP stroke
0 1043 5500 1082 2 MP stroke
129 0 5435 1082 2 MP stroke
129 0 5435 2125 2 MP stroke
0 923 5573 953 2 MP stroke
129 0 5508 953 2 MP stroke
129 0 5508 1876 2 MP stroke
0 1320 5648 731 2 MP stroke
128 0 5584 731 2 MP stroke
128 0 5584 2051 2 MP stroke
0 1098 5727 1076 2 MP stroke
129 0 5662 1076 2 MP stroke
129 0 5662 2174 2 MP stroke
0 922 5816 978 2 MP stroke
128 0 5752 978 2 MP stroke
128 0 5752 1900 2 MP stroke
0 1002 5903 987 2 MP stroke
128 0 5839 987 2 MP stroke
128 0 5839 1989 2 MP stroke
0 872 5993 1018 2 MP stroke
129 0 5929 1018 2 MP stroke
129 0 5929 1890 2 MP stroke
0 1036 6088 906 2 MP stroke
129 0 6023 906 2 MP stroke
129 0 6023 1942 2 MP stroke
0 1213 6190 1003 2 MP stroke
129 0 6125 1003 2 MP stroke
129 0 6125 2216 2 MP stroke
2 0 6254 958 2 MP stroke
2 0 6254 2252 2 MP stroke
66 -3 102 186 95 -30 90 -34 87 49 89 -186 79 234 75 -24 
73 -188 71 118 69 -10 68 -145 69 159 68 114 69 -102 69 19 
69 -62 68 60 69 -64 68 119 69 -149 69 42 69 -72 68 41 
68 169 69 -151 69 91 69 8 69 34 68 -62 68 40 69 38 
69 -23 68 -6 69 -42 69 -31 69 149 68 51 68 -123 70 14 
68 203 69 -10 68 -114 69 27 69 36 67 25 70 -114 69 89 
69 -51 68 0 69 17 68 62 69 -61 68 -20 69 14 69 32 
69 19 68 59 68 101 69 -41 69 -2 68 4 69 -51 69 100 
69 -57 68 71 68 6 69 69 69 -110 68 72 70 58 68 -16 
68 170 68 -74 69 167 69 230 899 469 77 MP stroke
gr

 874  444 mt  924  494 L
 924  444 mt  874  494 L
 943  674 mt  993  724 L
 993  674 mt  943  724 L
1012  841 mt 1062  891 L
1062  841 mt 1012  891 L
1080  767 mt 1130  817 L
1130  767 mt 1080  817 L
1148  937 mt 1198  987 L
1198  937 mt 1148  987 L
1216  921 mt 1266  971 L
1266  921 mt 1216  971 L
1286  979 mt 1336 1029 L
1336  979 mt 1286 1029 L
1354 1051 mt 1404 1101 L
1404 1051 mt 1354 1101 L
1423  941 mt 1473  991 L
1473  941 mt 1423  991 L
1492 1010 mt 1542 1060 L
1542 1010 mt 1492 1060 L
1560 1016 mt 1610 1066 L
1610 1016 mt 1560 1066 L
1628 1087 mt 1678 1137 L
1678 1087 mt 1628 1137 L
1697 1030 mt 1747 1080 L
1747 1030 mt 1697 1080 L
1766 1130 mt 1816 1180 L
1816 1130 mt 1766 1180 L
1835 1079 mt 1885 1129 L
1885 1079 mt 1835 1129 L
1903 1083 mt 1953 1133 L
1953 1083 mt 1903 1133 L
1972 1081 mt 2022 1131 L
2022 1081 mt 1972 1131 L
2041 1040 mt 2091 1090 L
2091 1040 mt 2041 1090 L
2109 1141 mt 2159 1191 L
2159 1141 mt 2109 1191 L
2177 1200 mt 2227 1250 L
2227 1200 mt 2177 1250 L
2246 1219 mt 2296 1269 L
2296 1219 mt 2246 1269 L
2315 1251 mt 2365 1301 L
2365 1251 mt 2315 1301 L
2384 1265 mt 2434 1315 L
2434 1265 mt 2384 1315 L
2452 1245 mt 2502 1295 L
2502 1245 mt 2452 1295 L
2521 1184 mt 2571 1234 L
2571 1184 mt 2521 1234 L
2589 1246 mt 2639 1296 L
2639 1246 mt 2589 1296 L
2658 1263 mt 2708 1313 L
2708 1263 mt 2658 1313 L
2726 1263 mt 2776 1313 L
2776 1263 mt 2726 1313 L
2795 1212 mt 2845 1262 L
2845 1212 mt 2795 1262 L
2864 1301 mt 2914 1351 L
2914 1301 mt 2864 1351 L
2934 1187 mt 2984 1237 L
2984 1187 mt 2934 1237 L
3001 1212 mt 3051 1262 L
3051 1212 mt 3001 1262 L
3070 1248 mt 3120 1298 L
3120 1248 mt 3070 1298 L
3139 1275 mt 3189 1325 L
3189 1275 mt 3139 1325 L
3207 1161 mt 3257 1211 L
3257 1161 mt 3207 1211 L
3276 1151 mt 3326 1201 L
3326 1151 mt 3276 1201 L
3344 1354 mt 3394 1404 L
3394 1354 mt 3344 1404 L
3414 1368 mt 3464 1418 L
3464 1368 mt 3414 1418 L
3482 1245 mt 3532 1295 L
3532 1245 mt 3482 1295 L
3550 1296 mt 3600 1346 L
3600 1296 mt 3550 1346 L
3619 1445 mt 3669 1495 L
3669 1445 mt 3619 1495 L
3688 1414 mt 3738 1464 L
3738 1414 mt 3688 1464 L
3757 1372 mt 3807 1422 L
3807 1372 mt 3757 1422 L
3825 1366 mt 3875 1416 L
3875 1366 mt 3825 1416 L
3894 1343 mt 3944 1393 L
3944 1343 mt 3894 1393 L
3963 1381 mt 4013 1431 L
4013 1381 mt 3963 1431 L
4031 1421 mt 4081 1471 L
4081 1421 mt 4031 1471 L
4099 1359 mt 4149 1409 L
4149 1359 mt 4099 1409 L
4168 1393 mt 4218 1443 L
4218 1393 mt 4168 1443 L
4237 1401 mt 4287 1451 L
4287 1401 mt 4237 1451 L
4306 1492 mt 4356 1542 L
4356 1492 mt 4306 1542 L
4375 1341 mt 4425 1391 L
4425 1341 mt 4375 1391 L
4443 1510 mt 4493 1560 L
4493 1510 mt 4443 1560 L
4511 1551 mt 4561 1601 L
4561 1551 mt 4511 1601 L
4580 1479 mt 4630 1529 L
4630 1479 mt 4580 1529 L
4649 1521 mt 4699 1571 L
4699 1521 mt 4649 1571 L
4718 1372 mt 4768 1422 L
4768 1372 mt 4718 1422 L
4786 1491 mt 4836 1541 L
4836 1491 mt 4786 1541 L
4855 1427 mt 4905 1477 L
4905 1427 mt 4855 1477 L
4923 1487 mt 4973 1537 L
4973 1487 mt 4923 1537 L
4992 1425 mt 5042 1475 L
5042 1425 mt 4992 1475 L
5061 1444 mt 5111 1494 L
5111 1444 mt 5061 1494 L
5130 1342 mt 5180 1392 L
5180 1342 mt 5130 1392 L
5198 1456 mt 5248 1506 L
5248 1456 mt 5198 1506 L
5267 1615 mt 5317 1665 L
5317 1615 mt 5267 1665 L
5335 1470 mt 5385 1520 L
5385 1470 mt 5335 1520 L
5404 1460 mt 5454 1510 L
5454 1460 mt 5404 1510 L
5475 1578 mt 5525 1628 L
5525 1578 mt 5475 1628 L
5548 1390 mt 5598 1440 L
5598 1390 mt 5548 1440 L
5623 1366 mt 5673 1416 L
5673 1366 mt 5623 1416 L
5702 1600 mt 5752 1650 L
5752 1600 mt 5702 1650 L
5791 1414 mt 5841 1464 L
5841 1414 mt 5791 1464 L
5878 1463 mt 5928 1513 L
5928 1463 mt 5878 1513 L
5968 1429 mt 6018 1479 L
6018 1429 mt 5968 1479 L
6063 1399 mt 6113 1449 L
6113 1399 mt 6063 1449 L
6165 1585 mt 6215 1635 L
6215 1585 mt 6165 1635 L
gs 899 469 5357 4147 rc
/c8 { 1.000000 0.000000 0.000000 sr} bdef
c8
26 0 899 540 2 MP stroke
899 469 PD
62 0 899 469 2 MP stroke
62 0 899 469 2 MP stroke
0 330 934 1038 2 MP stroke
98 0 899 1038 2 MP stroke
98 0 899 1368 2 MP stroke
0 447 970 1460 2 MP stroke
125 0 907 1460 2 MP stroke
125 0 907 1907 2 MP stroke
0 535 1006 1815 2 MP stroke
125 0 943 1815 2 MP stroke
125 0 943 2350 2 MP stroke
0 594 1041 2060 2 MP stroke
125 0 979 2060 2 MP stroke
125 0 979 2654 2 MP stroke
0 591 1077 2365 2 MP stroke
125 0 1015 2365 2 MP stroke
125 0 1015 2956 2 MP stroke
0 620 1113 2577 2 MP stroke
125 0 1050 2577 2 MP stroke
125 0 1050 3197 2 MP stroke
0 556 1148 2831 2 MP stroke
125 0 1086 2831 2 MP stroke
125 0 1086 3387 2 MP stroke
0 622 1184 2988 2 MP stroke
125 0 1122 2988 2 MP stroke
125 0 1122 3610 2 MP stroke
0 529 1220 3164 2 MP stroke
125 0 1157 3164 2 MP stroke
125 0 1157 3693 2 MP stroke
0 539 1256 3285 2 MP stroke
125 0 1193 3285 2 MP stroke
125 0 1193 3824 2 MP stroke
0 552 1291 3389 2 MP stroke
125 0 1229 3389 2 MP stroke
125 0 1229 3941 2 MP stroke
0 533 1327 3491 2 MP stroke
125 0 1264 3491 2 MP stroke
125 0 1264 4024 2 MP stroke
0 494 1363 3617 2 MP stroke
125 0 1300 3617 2 MP stroke
125 0 1300 4111 2 MP stroke
0 487 1398 3701 2 MP stroke
125 0 1336 3701 2 MP stroke
125 0 1336 4188 2 MP stroke
0 500 1434 3749 2 MP stroke
125 0 1372 3749 2 MP stroke
125 0 1372 4249 2 MP stroke
0 439 1470 3846 2 MP stroke
125 0 1407 3846 2 MP stroke
125 0 1407 4285 2 MP stroke
0 392 1506 3896 2 MP stroke
125 0 1443 3896 2 MP stroke
125 0 1443 4288 2 MP stroke
0 360 1541 3971 2 MP stroke
125 0 1479 3971 2 MP stroke
125 0 1479 4331 2 MP stroke
0 364 1577 4010 2 MP stroke
125 0 1514 4010 2 MP stroke
125 0 1514 4374 2 MP stroke
0 362 1613 4036 2 MP stroke
125 0 1550 4036 2 MP stroke
125 0 1550 4398 2 MP stroke
0 364 1648 4066 2 MP stroke
125 0 1586 4066 2 MP stroke
125 0 1586 4430 2 MP stroke
0 353 1684 4078 2 MP stroke
125 0 1622 4078 2 MP stroke
125 0 1622 4431 2 MP stroke
0 341 1720 4111 2 MP stroke
125 0 1657 4111 2 MP stroke
125 0 1657 4452 2 MP stroke
0 318 1755 4132 2 MP stroke
125 0 1693 4132 2 MP stroke
125 0 1693 4450 2 MP stroke
0 270 1791 4176 2 MP stroke
125 0 1729 4176 2 MP stroke
125 0 1729 4446 2 MP stroke
0 264 1827 4202 2 MP stroke
125 0 1764 4202 2 MP stroke
125 0 1764 4466 2 MP stroke
0 259 1863 4238 2 MP stroke
125 0 1800 4238 2 MP stroke
125 0 1800 4497 2 MP stroke
0 242 1898 4261 2 MP stroke
125 0 1836 4261 2 MP stroke
125 0 1836 4503 2 MP stroke
0 231 1934 4273 2 MP stroke
124 0 1872 4273 2 MP stroke
124 0 1872 4504 2 MP stroke
0 214 1970 4295 2 MP stroke
125 0 1907 4295 2 MP stroke
125 0 1907 4509 2 MP stroke
0 206 2005 4303 2 MP stroke
125 0 1943 4303 2 MP stroke
125 0 1943 4509 2 MP stroke
0 194 2041 4328 2 MP stroke
125 0 1979 4328 2 MP stroke
125 0 1979 4522 2 MP stroke
0 184 2077 4335 2 MP stroke
125 0 2014 4335 2 MP stroke
125 0 2014 4519 2 MP stroke
0 207 2113 4321 2 MP stroke
125 0 2050 4321 2 MP stroke
125 0 2050 4528 2 MP stroke
0 199 2148 4329 2 MP stroke
125 0 2086 4329 2 MP stroke
125 0 2086 4528 2 MP stroke
0 186 2184 4342 2 MP stroke
125 0 2121 4342 2 MP stroke
125 0 2121 4528 2 MP stroke
0 176 2220 4352 2 MP stroke
125 0 2157 4352 2 MP stroke
125 0 2157 4528 2 MP stroke
0 196 2255 4342 2 MP stroke
125 0 2193 4342 2 MP stroke
125 0 2193 4538 2 MP stroke
0 169 2291 4368 2 MP stroke
125 0 2229 4368 2 MP stroke
125 0 2229 4537 2 MP stroke
0 174 2327 4370 2 MP stroke
125 0 2264 4370 2 MP stroke
125 0 2264 4544 2 MP stroke
0 172 2362 4354 2 MP stroke
125 0 2300 4354 2 MP stroke
125 0 2300 4526 2 MP stroke
0 188 2398 4334 2 MP stroke
125 0 2336 4334 2 MP stroke
125 0 2336 4522 2 MP stroke
0 205 2434 4345 2 MP stroke
125 0 2371 4345 2 MP stroke
125 0 2371 4550 2 MP stroke
0 197 2470 4362 2 MP stroke
125 0 2407 4362 2 MP stroke
125 0 2407 4559 2 MP stroke
0 196 2505 4370 2 MP stroke
125 0 2443 4370 2 MP stroke
125 0 2443 4566 2 MP stroke
0 215 2541 4356 2 MP stroke
124 0 2479 4356 2 MP stroke
124 0 2479 4571 2 MP stroke
0 208 2577 4357 2 MP stroke
125 0 2514 4357 2 MP stroke
125 0 2514 4565 2 MP stroke
0 175 2612 4379 2 MP stroke
125 0 2550 4379 2 MP stroke
125 0 2550 4554 2 MP stroke
0 162 2648 4375 2 MP stroke
125 0 2586 4375 2 MP stroke
125 0 2586 4537 2 MP stroke
0 169 2684 4372 2 MP stroke
125 0 2621 4372 2 MP stroke
125 0 2621 4541 2 MP stroke
0 176 2720 4373 2 MP stroke
125 0 2657 4373 2 MP stroke
125 0 2657 4549 2 MP stroke
0 190 2755 4367 2 MP stroke
125 0 2693 4367 2 MP stroke
125 0 2693 4557 2 MP stroke
0 178 2791 4376 2 MP stroke
125 0 2728 4376 2 MP stroke
125 0 2728 4554 2 MP stroke
0 177 2827 4371 2 MP stroke
125 0 2764 4371 2 MP stroke
125 0 2764 4548 2 MP stroke
0 183 2862 4366 2 MP stroke
125 0 2800 4366 2 MP stroke
125 0 2800 4549 2 MP stroke
0 192 2898 4368 2 MP stroke
125 0 2836 4368 2 MP stroke
125 0 2836 4560 2 MP stroke
0 216 2934 4347 2 MP stroke
125 0 2871 4347 2 MP stroke
125 0 2871 4563 2 MP stroke
0 196 2969 4348 2 MP stroke
125 0 2907 4348 2 MP stroke
125 0 2907 4544 2 MP stroke
0 205 3005 4344 2 MP stroke
125 0 2943 4344 2 MP stroke
125 0 2943 4549 2 MP stroke
0 188 3041 4352 2 MP stroke
125 0 2978 4352 2 MP stroke
125 0 2978 4540 2 MP stroke
0 190 3077 4351 2 MP stroke
125 0 3014 4351 2 MP stroke
125 0 3014 4541 2 MP stroke
0 214 3112 4337 2 MP stroke
125 0 3050 4337 2 MP stroke
125 0 3050 4551 2 MP stroke
0 198 3148 4345 2 MP stroke
125 0 3086 4345 2 MP stroke
125 0 3086 4543 2 MP stroke
0 187 3184 4352 2 MP stroke
125 0 3121 4352 2 MP stroke
125 0 3121 4539 2 MP stroke
0 196 3219 4355 2 MP stroke
125 0 3157 4355 2 MP stroke
125 0 3157 4551 2 MP stroke
0 169 3255 4371 2 MP stroke
125 0 3193 4371 2 MP stroke
125 0 3193 4540 2 MP stroke
0 150 3291 4393 2 MP stroke
125 0 3228 4393 2 MP stroke
125 0 3228 4543 2 MP stroke
0 136 3327 4396 2 MP stroke
125 0 3264 4396 2 MP stroke
125 0 3264 4532 2 MP stroke
0 174 3362 4378 2 MP stroke
125 0 3300 4378 2 MP stroke
125 0 3300 4552 2 MP stroke
0 152 3398 4391 2 MP stroke
125 0 3335 4391 2 MP stroke
125 0 3335 4543 2 MP stroke
0 132 3434 4405 2 MP stroke
125 0 3371 4405 2 MP stroke
125 0 3371 4537 2 MP stroke
0 143 3469 4402 2 MP stroke
125 0 3407 4402 2 MP stroke
125 0 3407 4545 2 MP stroke
0 137 3505 4404 2 MP stroke
125 0 3443 4404 2 MP stroke
125 0 3443 4541 2 MP stroke
0 149 3541 4408 2 MP stroke
125 0 3478 4408 2 MP stroke
125 0 3478 4557 2 MP stroke
0 175 3577 4381 2 MP stroke
125 0 3514 4381 2 MP stroke
125 0 3514 4556 2 MP stroke
0 158 3612 4389 2 MP stroke
125 0 3550 4389 2 MP stroke
125 0 3550 4547 2 MP stroke
0 177 3648 4382 2 MP stroke
125 0 3585 4382 2 MP stroke
125 0 3585 4559 2 MP stroke
0 182 3684 4375 2 MP stroke
125 0 3621 4375 2 MP stroke
125 0 3621 4557 2 MP stroke
0 196 3719 4359 2 MP stroke
125 0 3657 4359 2 MP stroke
125 0 3657 4555 2 MP stroke
0 186 3755 4370 2 MP stroke
125 0 3693 4370 2 MP stroke
125 0 3693 4556 2 MP stroke
0 197 3791 4368 2 MP stroke
125 0 3728 4368 2 MP stroke
125 0 3728 4565 2 MP stroke
0 177 3826 4380 2 MP stroke
125 0 3764 4380 2 MP stroke
125 0 3764 4557 2 MP stroke
0 156 3862 4391 2 MP stroke
125 0 3800 4391 2 MP stroke
125 0 3800 4547 2 MP stroke
0 151 3898 4398 2 MP stroke
125 0 3835 4398 2 MP stroke
125 0 3835 4549 2 MP stroke
0 151 3934 4407 2 MP stroke
125 0 3871 4407 2 MP stroke
125 0 3871 4558 2 MP stroke
0 186 3969 4365 2 MP stroke
125 0 3907 4365 2 MP stroke
125 0 3907 4551 2 MP stroke
0 154 4005 4394 2 MP stroke
125 0 3942 4394 2 MP stroke
125 0 3942 4548 2 MP stroke
0 176 4041 4381 2 MP stroke
125 0 3978 4381 2 MP stroke
125 0 3978 4557 2 MP stroke
0 158 4076 4401 2 MP stroke
125 0 4014 4401 2 MP stroke
125 0 4014 4559 2 MP stroke
0 150 4112 4407 2 MP stroke
125 0 4050 4407 2 MP stroke
125 0 4050 4557 2 MP stroke
0 161 4148 4407 2 MP stroke
125 0 4085 4407 2 MP stroke
125 0 4085 4568 2 MP stroke
0 161 4184 4403 2 MP stroke
125 0 4121 4403 2 MP stroke
125 0 4121 4564 2 MP stroke
0 147 4219 4413 2 MP stroke
125 0 4157 4413 2 MP stroke
125 0 4157 4560 2 MP stroke
0 141 4255 4423 2 MP stroke
125 0 4192 4423 2 MP stroke
125 0 4192 4564 2 MP stroke
0 157 4291 4420 2 MP stroke
125 0 4228 4420 2 MP stroke
125 0 4228 4577 2 MP stroke
0 169 4326 4410 2 MP stroke
125 0 4264 4410 2 MP stroke
125 0 4264 4579 2 MP stroke
0 161 4362 4401 2 MP stroke
125 0 4300 4401 2 MP stroke
125 0 4300 4562 2 MP stroke
0 144 4398 4418 2 MP stroke
125 0 4335 4418 2 MP stroke
125 0 4335 4562 2 MP stroke
0 140 4433 4415 2 MP stroke
125 0 4371 4415 2 MP stroke
125 0 4371 4555 2 MP stroke
0 132 4469 4422 2 MP stroke
125 0 4407 4422 2 MP stroke
125 0 4407 4554 2 MP stroke
0 148 4505 4414 2 MP stroke
125 0 4442 4414 2 MP stroke
125 0 4442 4562 2 MP stroke
0 145 4541 4428 2 MP stroke
125 0 4478 4428 2 MP stroke
125 0 4478 4573 2 MP stroke
0 176 4576 4416 2 MP stroke
125 0 4514 4416 2 MP stroke
125 0 4514 4592 2 MP stroke
0 165 4612 4434 2 MP stroke
124 0 4550 4434 2 MP stroke
124 0 4550 4599 2 MP stroke
0 173 4648 4425 2 MP stroke
125 0 4585 4425 2 MP stroke
125 0 4585 4598 2 MP stroke
0 167 4683 4429 2 MP stroke
125 0 4621 4429 2 MP stroke
125 0 4621 4596 2 MP stroke
0 141 4719 4445 2 MP stroke
125 0 4657 4445 2 MP stroke
125 0 4657 4586 2 MP stroke
0 145 4755 4450 2 MP stroke
125 0 4692 4450 2 MP stroke
125 0 4692 4595 2 MP stroke
0 130 4791 4460 2 MP stroke
125 0 4728 4460 2 MP stroke
125 0 4728 4590 2 MP stroke
0 100 4826 4495 2 MP stroke
125 0 4764 4495 2 MP stroke
125 0 4764 4595 2 MP stroke
0 105 4862 4487 2 MP stroke
125 0 4799 4487 2 MP stroke
125 0 4799 4592 2 MP stroke
0 149 4898 4453 2 MP stroke
125 0 4835 4453 2 MP stroke
125 0 4835 4602 2 MP stroke
0 137 4933 4455 2 MP stroke
125 0 4871 4455 2 MP stroke
125 0 4871 4592 2 MP stroke
0 128 4969 4459 2 MP stroke
125 0 4907 4459 2 MP stroke
125 0 4907 4587 2 MP stroke
0 132 5005 4455 2 MP stroke
125 0 4942 4455 2 MP stroke
125 0 4942 4587 2 MP stroke
0 117 5040 4463 2 MP stroke
125 0 4978 4463 2 MP stroke
125 0 4978 4580 2 MP stroke
0 127 5076 4463 2 MP stroke
125 0 5014 4463 2 MP stroke
125 0 5014 4590 2 MP stroke
0 162 5112 4421 2 MP stroke
125 0 5049 4421 2 MP stroke
125 0 5049 4583 2 MP stroke
0 179 5148 4403 2 MP stroke
125 0 5085 4403 2 MP stroke
125 0 5085 4582 2 MP stroke
0 157 5183 4425 2 MP stroke
125 0 5121 4425 2 MP stroke
125 0 5121 4582 2 MP stroke
0 155 5219 4426 2 MP stroke
124 0 5157 4426 2 MP stroke
124 0 5157 4581 2 MP stroke
0 176 5255 4405 2 MP stroke
125 0 5192 4405 2 MP stroke
125 0 5192 4581 2 MP stroke
0 144 5290 4432 2 MP stroke
125 0 5228 4432 2 MP stroke
125 0 5228 4576 2 MP stroke
0 142 5326 4431 2 MP stroke
125 0 5264 4431 2 MP stroke
125 0 5264 4573 2 MP stroke
0 166 5362 4416 2 MP stroke
125 0 5299 4416 2 MP stroke
125 0 5299 4582 2 MP stroke
0 174 5398 4412 2 MP stroke
125 0 5335 4412 2 MP stroke
125 0 5335 4586 2 MP stroke
0 148 5433 4421 2 MP stroke
125 0 5371 4421 2 MP stroke
125 0 5371 4569 2 MP stroke
0 133 5469 4438 2 MP stroke
125 0 5406 4438 2 MP stroke
125 0 5406 4571 2 MP stroke
0 128 5505 4446 2 MP stroke
125 0 5442 4446 2 MP stroke
125 0 5442 4574 2 MP stroke
0 137 5540 4446 2 MP stroke
125 0 5478 4446 2 MP stroke
125 0 5478 4583 2 MP stroke
0 131 5576 4437 2 MP stroke
125 0 5514 4437 2 MP stroke
125 0 5514 4568 2 MP stroke
0 138 5612 4430 2 MP stroke
125 0 5549 4430 2 MP stroke
125 0 5549 4568 2 MP stroke
0 150 5647 4427 2 MP stroke
125 0 5585 4427 2 MP stroke
125 0 5585 4577 2 MP stroke
0 124 5683 4444 2 MP stroke
125 0 5621 4444 2 MP stroke
125 0 5621 4568 2 MP stroke
0 139 5719 4442 2 MP stroke
125 0 5656 4442 2 MP stroke
125 0 5656 4581 2 MP stroke
0 140 5755 4438 2 MP stroke
125 0 5692 4438 2 MP stroke
125 0 5692 4578 2 MP stroke
0 158 5790 4428 2 MP stroke
125 0 5728 4428 2 MP stroke
125 0 5728 4586 2 MP stroke
0 158 5826 4425 2 MP stroke
125 0 5764 4425 2 MP stroke
125 0 5764 4583 2 MP stroke
0 144 5862 4442 2 MP stroke
125 0 5799 4442 2 MP stroke
125 0 5799 4586 2 MP stroke
0 147 5897 4441 2 MP stroke
125 0 5835 4441 2 MP stroke
125 0 5835 4588 2 MP stroke
0 145 5933 4442 2 MP stroke
125 0 5871 4442 2 MP stroke
125 0 5871 4587 2 MP stroke
0 133 5969 4444 2 MP stroke
125 0 5906 4444 2 MP stroke
125 0 5906 4577 2 MP stroke
0 135 6005 4434 2 MP stroke
125 0 5942 4434 2 MP stroke
125 0 5942 4569 2 MP stroke
0 127 6040 4436 2 MP stroke
125 0 5978 4436 2 MP stroke
125 0 5978 4563 2 MP stroke
0 120 6076 4450 2 MP stroke
125 0 6013 4450 2 MP stroke
125 0 6013 4570 2 MP stroke
0 142 6112 4438 2 MP stroke
125 0 6049 4438 2 MP stroke
125 0 6049 4580 2 MP stroke
0 133 6147 4438 2 MP stroke
125 0 6085 4438 2 MP stroke
125 0 6085 4571 2 MP stroke
0 144 6183 4432 2 MP stroke
125 0 6121 4432 2 MP stroke
125 0 6121 4576 2 MP stroke
0 145 6219 4413 2 MP stroke
100 0 6156 4413 2 MP stroke
100 0 6156 4558 2 MP stroke
0 146 6255 4414 2 MP stroke
64 0 6192 4414 2 MP stroke
64 0 6192 4560 2 MP stroke
36 1 36 -18 36 -1 35 -4 36 -1 36 11 35 -3 36 -9 
36 -3 36 0 35 0 36 10 36 -3 35 -1 36 -4 36 6 
36 4 35 3 36 -3 36 -12 35 4 36 6 36 9 35 -4 
36 0 36 -3 36 -2 35 11 36 -10 36 0 35 10 36 -9 
36 -24 36 4 35 1 36 -2 36 -1 35 -3 36 -13 36 -5 
35 20 36 3 36 6 36 4 35 1 36 -6 36 13 35 3 
36 13 36 0 36 3 35 -5 36 8 36 -13 35 -4 36 5 
36 8 35 3 36 -5 36 6 36 2 35 11 36 -2 36 13 
35 -24 36 8 36 5 36 1 35 2 36 3 36 6 35 -9 
36 -4 36 2 35 -1 36 -13 36 10 36 -2 35 3 36 4 
36 2 35 1 36 -4 36 12 36 3 35 7 36 2 36 0 
35 -2 36 0 36 0 36 0 35 -9 36 -9 36 6 35 -1 
36 -6 36 3 35 1 36 4 36 1 36 -10 35 5 36 -3 
36 -4 35 7 36 13 36 20 36 -12 35 -17 36 4 36 13 
35 0 36 5 36 7 35 3 36 -2 36 2 36 19 35 4 
36 14 36 6 35 14 36 34 36 23 36 20 35 10 36 26 
36 7 35 31 36 25 36 41 35 59 36 26 36 67 36 55 
35 80 36 106 36 93 35 111 36 125 36 130 36 190 35 222 
36 227 36 303 35 274 36 400 36 480 35 734 899 469 151 MP stroke
gr

c8
  36   36  934 1203 FO
  36   36  970 1683 FO
  36   36 1006 2083 FO
  36   36 1041 2357 FO
  36   36 1077 2660 FO
  36   36 1113 2887 FO
  36   36 1148 3109 FO
  36   36 1184 3299 FO
  36   36 1220 3429 FO
  36   36 1256 3554 FO
  36   36 1291 3665 FO
  36   36 1327 3758 FO
  36   36 1363 3864 FO
  36   36 1398 3944 FO
  36   36 1434 3999 FO
  36   36 1470 4066 FO
  36   36 1506 4092 FO
  36   36 1541 4151 FO
  36   36 1577 4192 FO
  36   36 1613 4217 FO
  36   36 1648 4248 FO
  36   36 1684 4255 FO
  36   36 1720 4281 FO
  36   36 1755 4291 FO
  36   36 1791 4311 FO
  36   36 1827 4334 FO
  36   36 1863 4368 FO
  36   36 1898 4382 FO
  36   36 1934 4388 FO
  36   36 1970 4402 FO
  36   36 2005 4406 FO
  36   36 2041 4425 FO
  36   36 2077 4427 FO
  36   36 2113 4425 FO
  36   36 2148 4428 FO
  36   36 2184 4435 FO
  36   36 2220 4440 FO
  36   36 2255 4440 FO
  36   36 2291 4453 FO
  36   36 2327 4457 FO
  36   36 2362 4440 FO
  36   36 2398 4428 FO
  36   36 2434 4448 FO
  36   36 2470 4461 FO
  36   36 2505 4468 FO
  36   36 2541 4464 FO
  36   36 2577 4461 FO
  36   36 2612 4466 FO
  36   36 2648 4456 FO
  36   36 2684 4457 FO
  36   36 2720 4461 FO
  36   36 2755 4462 FO
  36   36 2791 4465 FO
  36   36 2827 4459 FO
  36   36 2862 4458 FO
  36   36 2898 4464 FO
  36   36 2934 4455 FO
  36   36 2969 4446 FO
  36   36 3005 4446 FO
  36   36 3041 4446 FO
  36   36 3077 4446 FO
  36   36 3112 4444 FO
  36   36 3148 4444 FO
  36   36 3184 4446 FO
  36   36 3219 4453 FO
  36   36 3255 4456 FO
  36   36 3291 4468 FO
  36   36 3327 4464 FO
  36   36 3362 4465 FO
  36   36 3398 4467 FO
  36   36 3434 4471 FO
  36   36 3469 4474 FO
  36   36 3505 4472 FO
  36   36 3541 4482 FO
  36   36 3577 4469 FO
  36   36 3612 4468 FO
  36   36 3648 4470 FO
  36   36 3684 4466 FO
  36   36 3719 4457 FO
  36   36 3755 4463 FO
  36   36 3791 4466 FO
  36   36 3826 4468 FO
  36   36 3862 4469 FO
  36   36 3898 4474 FO
  36   36 3934 4482 FO
  36   36 3969 4458 FO
  36   36 4005 4471 FO
  36   36 4041 4469 FO
  36   36 4076 4480 FO
  36   36 4112 4482 FO
  36   36 4148 4488 FO
  36   36 4184 4483 FO
  36   36 4219 4486 FO
  36   36 4255 4494 FO
  36   36 4291 4499 FO
  36   36 4326 4495 FO
  36   36 4362 4482 FO
  36   36 4398 4490 FO
  36   36 4433 4485 FO
  36   36 4469 4488 FO
  36   36 4505 4488 FO
  36   36 4541 4501 FO
  36   36 4576 4504 FO
  36   36 4612 4517 FO
  36   36 4648 4511 FO
  36   36 4683 4512 FO
  36   36 4719 4516 FO
  36   36 4755 4522 FO
  36   36 4791 4525 FO
  36   36 4826 4545 FO
  36   36 4862 4540 FO
  36   36 4898 4527 FO
  36   36 4933 4524 FO
  36   36 4969 4523 FO
  36   36 5005 4521 FO
  36   36 5040 4522 FO
  36   36 5076 4526 FO
  36   36 5112 4502 FO
  36   36 5148 4493 FO
  36   36 5183 4503 FO
  36   36 5219 4503 FO
  36   36 5255 4493 FO
  36   36 5290 4504 FO
  36   36 5326 4502 FO
  36   36 5362 4499 FO
  36   36 5398 4499 FO
  36   36 5433 4495 FO
  36   36 5469 4504 FO
  36   36 5505 4510 FO
  36   36 5540 4514 FO
  36   36 5576 4502 FO
  36   36 5612 4499 FO
  36   36 5647 4502 FO
  36   36 5683 4506 FO
  36   36 5719 4512 FO
  36   36 5755 4508 FO
  36   36 5790 4507 FO
  36   36 5826 4504 FO
  36   36 5862 4514 FO
  36   36 5897 4514 FO
  36   36 5933 4514 FO
  36   36 5969 4511 FO
  36   36 6005 4502 FO
  36   36 6040 4499 FO
  36   36 6076 4510 FO
  36   36 6112 4509 FO
  36   36 6147 4505 FO
  36   36 6183 4504 FO
  36   36 6219 4486 FO
  36   36 6255 4487 FO
gs 899 469 5357 4147 rc
/c9 { 0.000000 0.500000 0.000000 sr} bdef
c9
26 0 899 524 2 MP stroke
899 469 PD
62 0 899 469 2 MP stroke
62 0 899 469 2 MP stroke
0 82 934 469 2 MP stroke
98 0 899 551 2 MP stroke
0 75 970 469 2 MP stroke
125 0 907 544 2 MP stroke
0 58 1006 469 2 MP stroke
125 0 943 527 2 MP stroke
0 102 1041 469 2 MP stroke
125 0 979 571 2 MP stroke
0 93 1077 469 2 MP stroke
125 0 1015 562 2 MP stroke
0 124 1113 469 2 MP stroke
125 0 1050 593 2 MP stroke
0 86 1148 469 2 MP stroke
125 0 1086 555 2 MP stroke
0 101 1184 469 2 MP stroke
125 0 1122 570 2 MP stroke
0 137 1220 469 2 MP stroke
125 0 1157 606 2 MP stroke
0 152 1256 469 2 MP stroke
125 0 1193 621 2 MP stroke
0 167 1291 469 2 MP stroke
125 0 1229 636 2 MP stroke
0 161 1327 469 2 MP stroke
125 0 1264 630 2 MP stroke
0 137 1363 469 2 MP stroke
125 0 1300 606 2 MP stroke
0 149 1398 469 2 MP stroke
125 0 1336 618 2 MP stroke
0 193 1434 469 2 MP stroke
125 0 1372 662 2 MP stroke
0 178 1470 469 2 MP stroke
125 0 1407 647 2 MP stroke
0 215 1506 469 2 MP stroke
125 0 1443 684 2 MP stroke
0 205 1541 469 2 MP stroke
125 0 1479 674 2 MP stroke
0 223 1577 469 2 MP stroke
125 0 1514 692 2 MP stroke
0 204 1613 469 2 MP stroke
125 0 1550 673 2 MP stroke
0 234 1648 469 2 MP stroke
125 0 1586 703 2 MP stroke
0 245 1684 469 2 MP stroke
125 0 1622 714 2 MP stroke
0 243 1720 469 2 MP stroke
125 0 1657 712 2 MP stroke
0 281 1755 469 2 MP stroke
125 0 1693 750 2 MP stroke
0 279 1791 472 2 MP stroke
125 0 1729 472 2 MP stroke
125 0 1729 751 2 MP stroke
0 308 1827 469 2 MP stroke
125 0 1764 777 2 MP stroke
0 284 1863 469 2 MP stroke
125 0 1800 753 2 MP stroke
0 288 1898 469 2 MP stroke
125 0 1836 757 2 MP stroke
0 306 1934 476 2 MP stroke
124 0 1872 476 2 MP stroke
124 0 1872 782 2 MP stroke
0 276 1970 496 2 MP stroke
125 0 1907 496 2 MP stroke
125 0 1907 772 2 MP stroke
0 281 2005 514 2 MP stroke
125 0 1943 514 2 MP stroke
125 0 1943 795 2 MP stroke
0 286 2041 503 2 MP stroke
125 0 1979 503 2 MP stroke
125 0 1979 789 2 MP stroke
0 314 2077 497 2 MP stroke
125 0 2014 497 2 MP stroke
125 0 2014 811 2 MP stroke
0 283 2113 520 2 MP stroke
125 0 2050 520 2 MP stroke
125 0 2050 803 2 MP stroke
0 294 2148 525 2 MP stroke
125 0 2086 525 2 MP stroke
125 0 2086 819 2 MP stroke
0 324 2184 526 2 MP stroke
125 0 2121 526 2 MP stroke
125 0 2121 850 2 MP stroke
0 334 2220 529 2 MP stroke
125 0 2157 529 2 MP stroke
125 0 2157 863 2 MP stroke
0 323 2255 549 2 MP stroke
125 0 2193 549 2 MP stroke
125 0 2193 872 2 MP stroke
0 340 2291 543 2 MP stroke
125 0 2229 543 2 MP stroke
125 0 2229 883 2 MP stroke
0 339 2327 549 2 MP stroke
125 0 2264 549 2 MP stroke
125 0 2264 888 2 MP stroke
0 343 2362 573 2 MP stroke
125 0 2300 573 2 MP stroke
125 0 2300 916 2 MP stroke
0 353 2398 591 2 MP stroke
125 0 2336 591 2 MP stroke
125 0 2336 944 2 MP stroke
0 383 2434 570 2 MP stroke
125 0 2371 570 2 MP stroke
125 0 2371 953 2 MP stroke
0 373 2470 573 2 MP stroke
125 0 2407 573 2 MP stroke
125 0 2407 946 2 MP stroke
0 371 2505 571 2 MP stroke
125 0 2443 571 2 MP stroke
125 0 2443 942 2 MP stroke
0 390 2541 575 2 MP stroke
124 0 2479 575 2 MP stroke
124 0 2479 965 2 MP stroke
0 397 2577 583 2 MP stroke
125 0 2514 583 2 MP stroke
125 0 2514 980 2 MP stroke
0 396 2612 602 2 MP stroke
125 0 2550 602 2 MP stroke
125 0 2550 998 2 MP stroke
0 418 2648 620 2 MP stroke
125 0 2586 620 2 MP stroke
125 0 2586 1038 2 MP stroke
0 415 2684 633 2 MP stroke
125 0 2621 633 2 MP stroke
125 0 2621 1048 2 MP stroke
0 422 2720 628 2 MP stroke
125 0 2657 628 2 MP stroke
125 0 2657 1050 2 MP stroke
0 395 2755 651 2 MP stroke
125 0 2693 651 2 MP stroke
125 0 2693 1046 2 MP stroke
0 398 2791 654 2 MP stroke
125 0 2728 654 2 MP stroke
125 0 2728 1052 2 MP stroke
0 449 2827 642 2 MP stroke
125 0 2764 642 2 MP stroke
125 0 2764 1091 2 MP stroke
0 449 2862 661 2 MP stroke
125 0 2800 661 2 MP stroke
125 0 2800 1110 2 MP stroke
0 455 2898 657 2 MP stroke
125 0 2836 657 2 MP stroke
125 0 2836 1112 2 MP stroke
0 446 2934 686 2 MP stroke
125 0 2871 686 2 MP stroke
125 0 2871 1132 2 MP stroke
0 453 2969 699 2 MP stroke
125 0 2907 699 2 MP stroke
125 0 2907 1152 2 MP stroke
0 481 3005 701 2 MP stroke
125 0 2943 701 2 MP stroke
125 0 2943 1182 2 MP stroke
0 456 3041 722 2 MP stroke
125 0 2978 722 2 MP stroke
125 0 2978 1178 2 MP stroke
0 471 3077 726 2 MP stroke
125 0 3014 726 2 MP stroke
125 0 3014 1197 2 MP stroke
0 434 3112 755 2 MP stroke
125 0 3050 755 2 MP stroke
125 0 3050 1189 2 MP stroke
0 451 3148 752 2 MP stroke
125 0 3086 752 2 MP stroke
125 0 3086 1203 2 MP stroke
0 438 3184 769 2 MP stroke
125 0 3121 769 2 MP stroke
125 0 3121 1207 2 MP stroke
0 436 3219 770 2 MP stroke
125 0 3157 770 2 MP stroke
125 0 3157 1206 2 MP stroke
0 436 3255 782 2 MP stroke
125 0 3193 782 2 MP stroke
125 0 3193 1218 2 MP stroke
0 437 3291 780 2 MP stroke
125 0 3228 780 2 MP stroke
125 0 3228 1217 2 MP stroke
0 479 3327 774 2 MP stroke
125 0 3264 774 2 MP stroke
125 0 3264 1253 2 MP stroke
0 490 3362 780 2 MP stroke
125 0 3300 780 2 MP stroke
125 0 3300 1270 2 MP stroke
0 479 3398 795 2 MP stroke
125 0 3335 795 2 MP stroke
125 0 3335 1274 2 MP stroke
0 477 3434 804 2 MP stroke
125 0 3371 804 2 MP stroke
125 0 3371 1281 2 MP stroke
0 494 3469 801 2 MP stroke
125 0 3407 801 2 MP stroke
125 0 3407 1295 2 MP stroke
0 482 3505 820 2 MP stroke
125 0 3443 820 2 MP stroke
125 0 3443 1302 2 MP stroke
0 520 3541 793 2 MP stroke
125 0 3478 793 2 MP stroke
125 0 3478 1313 2 MP stroke
0 496 3577 825 2 MP stroke
125 0 3514 825 2 MP stroke
125 0 3514 1321 2 MP stroke
0 522 3612 829 2 MP stroke
125 0 3550 829 2 MP stroke
125 0 3550 1351 2 MP stroke
0 538 3648 834 2 MP stroke
125 0 3585 834 2 MP stroke
125 0 3585 1372 2 MP stroke
0 545 3684 839 2 MP stroke
125 0 3621 839 2 MP stroke
125 0 3621 1384 2 MP stroke
0 562 3719 854 2 MP stroke
125 0 3657 854 2 MP stroke
125 0 3657 1416 2 MP stroke
0 583 3755 847 2 MP stroke
125 0 3693 847 2 MP stroke
125 0 3693 1430 2 MP stroke
0 566 3791 854 2 MP stroke
125 0 3728 854 2 MP stroke
125 0 3728 1420 2 MP stroke
0 539 3826 875 2 MP stroke
125 0 3764 875 2 MP stroke
125 0 3764 1414 2 MP stroke
0 570 3862 869 2 MP stroke
125 0 3800 869 2 MP stroke
125 0 3800 1439 2 MP stroke
0 583 3898 876 2 MP stroke
125 0 3835 876 2 MP stroke
125 0 3835 1459 2 MP stroke
0 613 3934 859 2 MP stroke
125 0 3871 859 2 MP stroke
125 0 3871 1472 2 MP stroke
0 618 3969 888 2 MP stroke
125 0 3907 888 2 MP stroke
125 0 3907 1506 2 MP stroke
0 615 4005 891 2 MP stroke
125 0 3942 891 2 MP stroke
125 0 3942 1506 2 MP stroke
0 615 4041 906 2 MP stroke
125 0 3978 906 2 MP stroke
125 0 3978 1521 2 MP stroke
0 597 4076 913 2 MP stroke
125 0 4014 913 2 MP stroke
125 0 4014 1510 2 MP stroke
0 605 4112 922 2 MP stroke
125 0 4050 922 2 MP stroke
125 0 4050 1527 2 MP stroke
0 590 4148 931 2 MP stroke
125 0 4085 931 2 MP stroke
125 0 4085 1521 2 MP stroke
0 571 4184 955 2 MP stroke
125 0 4121 955 2 MP stroke
125 0 4121 1526 2 MP stroke
0 578 4219 955 2 MP stroke
125 0 4157 955 2 MP stroke
125 0 4157 1533 2 MP stroke
0 598 4255 947 2 MP stroke
125 0 4192 947 2 MP stroke
125 0 4192 1545 2 MP stroke
0 610 4291 947 2 MP stroke
125 0 4228 947 2 MP stroke
125 0 4228 1557 2 MP stroke
0 626 4326 952 2 MP stroke
125 0 4264 952 2 MP stroke
125 0 4264 1578 2 MP stroke
0 595 4362 990 2 MP stroke
125 0 4300 990 2 MP stroke
125 0 4300 1585 2 MP stroke
0 616 4398 981 2 MP stroke
125 0 4335 981 2 MP stroke
125 0 4335 1597 2 MP stroke
0 629 4433 992 2 MP stroke
125 0 4371 992 2 MP stroke
125 0 4371 1621 2 MP stroke
0 647 4469 983 2 MP stroke
125 0 4407 983 2 MP stroke
125 0 4407 1630 2 MP stroke
0 650 4505 989 2 MP stroke
125 0 4442 989 2 MP stroke
125 0 4442 1639 2 MP stroke
0 637 4541 990 2 MP stroke
125 0 4478 990 2 MP stroke
125 0 4478 1627 2 MP stroke
0 641 4576 997 2 MP stroke
125 0 4514 997 2 MP stroke
125 0 4514 1638 2 MP stroke
0 644 4612 989 2 MP stroke
124 0 4550 989 2 MP stroke
124 0 4550 1633 2 MP stroke
0 646 4648 1002 2 MP stroke
125 0 4585 1002 2 MP stroke
125 0 4585 1648 2 MP stroke
0 660 4683 1007 2 MP stroke
125 0 4621 1007 2 MP stroke
125 0 4621 1667 2 MP stroke
0 668 4719 1009 2 MP stroke
125 0 4657 1009 2 MP stroke
125 0 4657 1677 2 MP stroke
0 655 4755 1018 2 MP stroke
125 0 4692 1018 2 MP stroke
125 0 4692 1673 2 MP stroke
0 667 4791 1017 2 MP stroke
125 0 4728 1017 2 MP stroke
125 0 4728 1684 2 MP stroke
0 642 4826 1017 2 MP stroke
125 0 4764 1017 2 MP stroke
125 0 4764 1659 2 MP stroke
0 654 4862 1022 2 MP stroke
125 0 4799 1022 2 MP stroke
125 0 4799 1676 2 MP stroke
0 649 4898 1039 2 MP stroke
125 0 4835 1039 2 MP stroke
125 0 4835 1688 2 MP stroke
0 647 4933 1050 2 MP stroke
125 0 4871 1050 2 MP stroke
125 0 4871 1697 2 MP stroke
0 657 4969 1050 2 MP stroke
125 0 4907 1050 2 MP stroke
125 0 4907 1707 2 MP stroke
0 656 5005 1053 2 MP stroke
125 0 4942 1053 2 MP stroke
125 0 4942 1709 2 MP stroke
0 642 5040 1061 2 MP stroke
125 0 4978 1061 2 MP stroke
125 0 4978 1703 2 MP stroke
0 632 5076 1066 2 MP stroke
125 0 5014 1066 2 MP stroke
125 0 5014 1698 2 MP stroke
0 637 5112 1095 2 MP stroke
125 0 5049 1095 2 MP stroke
125 0 5049 1732 2 MP stroke
0 644 5148 1112 2 MP stroke
125 0 5085 1112 2 MP stroke
125 0 5085 1756 2 MP stroke
0 632 5183 1115 2 MP stroke
125 0 5121 1115 2 MP stroke
125 0 5121 1747 2 MP stroke
0 636 5219 1120 2 MP stroke
124 0 5157 1120 2 MP stroke
124 0 5157 1756 2 MP stroke
0 649 5255 1130 2 MP stroke
125 0 5192 1130 2 MP stroke
125 0 5192 1779 2 MP stroke
0 629 5290 1138 2 MP stroke
125 0 5228 1138 2 MP stroke
125 0 5228 1767 2 MP stroke
0 636 5326 1148 2 MP stroke
125 0 5264 1148 2 MP stroke
125 0 5264 1784 2 MP stroke
0 689 5362 1131 2 MP stroke
125 0 5299 1131 2 MP stroke
125 0 5299 1820 2 MP stroke
0 683 5398 1143 2 MP stroke
125 0 5335 1143 2 MP stroke
125 0 5335 1826 2 MP stroke
0 657 5433 1167 2 MP stroke
125 0 5371 1167 2 MP stroke
125 0 5371 1824 2 MP stroke
0 669 5469 1158 2 MP stroke
125 0 5406 1158 2 MP stroke
125 0 5406 1827 2 MP stroke
0 671 5505 1158 2 MP stroke
125 0 5442 1158 2 MP stroke
125 0 5442 1829 2 MP stroke
0 663 5540 1160 2 MP stroke
125 0 5478 1160 2 MP stroke
125 0 5478 1823 2 MP stroke
0 685 5576 1172 2 MP stroke
125 0 5514 1172 2 MP stroke
125 0 5514 1857 2 MP stroke
0 675 5612 1186 2 MP stroke
125 0 5549 1186 2 MP stroke
125 0 5549 1861 2 MP stroke
0 681 5647 1189 2 MP stroke
125 0 5585 1189 2 MP stroke
125 0 5585 1870 2 MP stroke
0 707 5683 1184 2 MP stroke
125 0 5621 1184 2 MP stroke
125 0 5621 1891 2 MP stroke
0 676 5719 1210 2 MP stroke
125 0 5656 1210 2 MP stroke
125 0 5656 1886 2 MP stroke
0 698 5755 1209 2 MP stroke
125 0 5692 1209 2 MP stroke
125 0 5692 1907 2 MP stroke
0 727 5790 1203 2 MP stroke
125 0 5728 1203 2 MP stroke
125 0 5728 1930 2 MP stroke
0 730 5826 1213 2 MP stroke
125 0 5764 1213 2 MP stroke
125 0 5764 1943 2 MP stroke
0 710 5862 1219 2 MP stroke
125 0 5799 1219 2 MP stroke
125 0 5799 1929 2 MP stroke
0 720 5897 1216 2 MP stroke
125 0 5835 1216 2 MP stroke
125 0 5835 1936 2 MP stroke
0 722 5933 1221 2 MP stroke
125 0 5871 1221 2 MP stroke
125 0 5871 1943 2 MP stroke
0 722 5969 1230 2 MP stroke
125 0 5906 1230 2 MP stroke
125 0 5906 1952 2 MP stroke
0 711 6005 1256 2 MP stroke
125 0 5942 1256 2 MP stroke
125 0 5942 1967 2 MP stroke
0 742 6040 1259 2 MP stroke
125 0 5978 1259 2 MP stroke
125 0 5978 2001 2 MP stroke
0 739 6076 1260 2 MP stroke
125 0 6013 1260 2 MP stroke
125 0 6013 1999 2 MP stroke
0 756 6112 1258 2 MP stroke
125 0 6049 1258 2 MP stroke
125 0 6049 2014 2 MP stroke
0 749 6147 1271 2 MP stroke
125 0 6085 1271 2 MP stroke
125 0 6085 2020 2 MP stroke
0 760 6183 1266 2 MP stroke
125 0 6121 1266 2 MP stroke
125 0 6121 2026 2 MP stroke
0 738 6219 1304 2 MP stroke
100 0 6156 1304 2 MP stroke
100 0 6156 2042 2 MP stroke
0 754 6255 1298 2 MP stroke
64 0 6192 1298 2 MP stroke
64 0 6192 2052 2 MP stroke
8 -3 35 3 899 469 3 MP stroke
gr

c9
  36   36  934  472 FO
gs 899 469 5357 4147 rc
16 -4 6 4 1035 469 3 MP stroke
gr

  36   36 1041  473 FO
gs 899 469 5357 4147 rc
12 -6 20 6 1093 469 3 MP stroke
gr

  36   36 1113  475 FO
gs 899 469 5357 4147 rc
36 2 36 27 36 1 35 9 36 6 36 0 35 19 36 20 
36 9 36 6 35 2 36 -4 36 12 35 8 36 10 36 11 
36 8 35 6 36 8 36 24 35 -3 36 1 36 -3 35 11 
36 10 36 9 36 14 35 -2 36 16 36 7 35 -3 36 20 
36 32 36 0 35 1 36 3 36 4 35 11 36 14 36 11 
35 -13 36 5 36 3 36 6 35 12 36 14 36 -7 35 9 
36 -5 36 7 36 0 35 18 36 2 36 22 35 13 36 6 
36 2 35 4 36 14 36 1 36 13 35 -2 36 15 36 2 
35 32 36 -2 36 13 36 10 35 7 36 -1 36 3 35 23 
36 9 36 13 35 17 36 20 36 -8 36 13 35 5 36 9 
36 9 35 11 36 15 36 -1 36 12 35 0 36 11 36 5 
35 11 36 11 36 9 36 16 35 16 36 25 36 -1 35 19 
36 13 36 4 35 10 36 -1 36 11 36 29 35 19 36 11 
36 13 35 -2 36 -2 36 -6 36 22 35 26 36 6 36 2 
35 15 36 8 36 16 35 10 36 8 36 8 36 -9 35 21 
36 5 36 23 35 9 36 -15 36 1 36 9 35 29 36 -2 
36 21 35 1 36 8 36 -3 35 -8 36 29 36 1 36 29 
35 12 36 -7 36 -11 35 12 36 19 9 3 1211 469 143 MP stroke
gr

  36   36 1220  472 FO
  36   36 1256  491 FO
  36   36 1291  503 FO
  36   36 1327  492 FO
  36   36 1363  485 FO
  36   36 1398  497 FO
  36   36 1434  526 FO
  36   36 1470  527 FO
  36   36 1506  556 FO
  36   36 1541  548 FO
  36   36 1577  545 FO
  36   36 1613  553 FO
  36   36 1648  554 FO
  36   36 1684  575 FO
  36   36 1720  573 FO
  36   36 1755  602 FO
  36   36 1791  611 FO
  36   36 1827  612 FO
  36   36 1863  597 FO
  36   36 1898  606 FO
  36   36 1934  629 FO
  36   36 1970  634 FO
  36   36 2005  655 FO
  36   36 2041  646 FO
  36   36 2077  654 FO
  36   36 2113  662 FO
  36   36 2148  672 FO
  36   36 2184  688 FO
  36   36 2220  696 FO
  36   36 2255  711 FO
  36   36 2291  713 FO
  36   36 2327  719 FO
  36   36 2362  745 FO
  36   36 2398  767 FO
  36   36 2434  761 FO
  36   36 2470  759 FO
  36   36 2505  757 FO
  36   36 2541  770 FO
  36   36 2577  781 FO
  36   36 2612  800 FO
  36   36 2648  829 FO
  36   36 2684  840 FO
  36   36 2720  839 FO
  36   36 2755  849 FO
  36   36 2791  853 FO
  36   36 2827  866 FO
  36   36 2862  885 FO
  36   36 2898  884 FO
  36   36 2934  909 FO
  36   36 2969  925 FO
  36   36 3005  941 FO
  36   36 3041  950 FO
  36   36 3077  961 FO
  36   36 3112  972 FO
  36   36 3148  977 FO
  36   36 3184  988 FO
  36   36 3219  988 FO
  36   36 3255 1000 FO
  36   36 3291  999 FO
  36   36 3327 1014 FO
  36   36 3362 1025 FO
  36   36 3398 1034 FO
  36   36 3434 1043 FO
  36   36 3469 1048 FO
  36   36 3505 1061 FO
  36   36 3541 1053 FO
  36   36 3577 1073 FO
  36   36 3612 1090 FO
  36   36 3648 1103 FO
  36   36 3684 1112 FO
  36   36 3719 1135 FO
  36   36 3755 1138 FO
  36   36 3791 1137 FO
  36   36 3826 1144 FO
  36   36 3862 1154 FO
  36   36 3898 1167 FO
  36   36 3934 1165 FO
  36   36 3969 1197 FO
  36   36 4005 1199 FO
  36   36 4041 1214 FO
  36   36 4076 1212 FO
  36   36 4112 1225 FO
  36   36 4148 1226 FO
  36   36 4184 1240 FO
  36   36 4219 1244 FO
  36   36 4255 1246 FO
  36   36 4291 1252 FO
  36   36 4326 1265 FO
  36   36 4362 1287 FO
  36   36 4398 1289 FO
  36   36 4433 1307 FO
  36   36 4469 1307 FO
  36   36 4505 1314 FO
  36   36 4541 1309 FO
  36   36 4576 1318 FO
  36   36 4612 1311 FO
  36   36 4648 1325 FO
  36   36 4683 1337 FO
  36   36 4719 1343 FO
  36   36 4755 1346 FO
  36   36 4791 1351 FO
  36   36 4826 1338 FO
  36   36 4862 1349 FO
  36   36 4898 1363 FO
  36   36 4933 1374 FO
  36   36 4969 1378 FO
  36   36 5005 1381 FO
  36   36 5040 1382 FO
  36   36 5076 1382 FO
  36   36 5112 1414 FO
  36   36 5148 1434 FO
  36   36 5183 1431 FO
  36   36 5219 1438 FO
  36   36 5255 1454 FO
  36   36 5290 1452 FO
  36   36 5326 1466 FO
  36   36 5362 1475 FO
  36   36 5398 1485 FO
  36   36 5433 1496 FO
  36   36 5469 1493 FO
  36   36 5505 1494 FO
  36   36 5540 1491 FO
  36   36 5576 1515 FO
  36   36 5612 1523 FO
  36   36 5647 1529 FO
  36   36 5683 1537 FO
  36   36 5719 1548 FO
  36   36 5755 1558 FO
  36   36 5790 1566 FO
  36   36 5826 1578 FO
  36   36 5862 1574 FO
  36   36 5897 1576 FO
  36   36 5933 1582 FO
  36   36 5969 1591 FO
  36   36 6005 1611 FO
  36   36 6040 1630 FO
  36   36 6076 1630 FO
  36   36 6112 1636 FO
  36   36 6147 1645 FO
  36   36 6183 1646 FO
  36   36 6219 1673 FO
  36   36 6255 1675 FO
gs 899 469 5357 4147 rc
gr

0 sg
%%IncludeResource: font Helvetica
/Helvetica /ISOLatin1Encoding 168 FMSR

2435  156 mt 
(Nup49-GFP in Late Anaphase) s
%%IncludeResource: font Helvetica
/Helvetica /ISOLatin1Encoding 144 FMSR

1250  293 mt 
(n) s
%%IncludeResource: font Helvetica
/Helvetica /ISOLatin1Encoding 108 FMSR

1330  377 mt 
(cells) s
%%IncludeResource: font Helvetica
/Helvetica /ISOLatin1Encoding 144 FMSR

1546  293 mt 
( = 34    -    d) s
%%IncludeResource: font Helvetica
/Helvetica /ISOLatin1Encoding 108 FMSR

2354  377 mt 
(b) s
%%IncludeResource: font Helvetica
/Helvetica /ISOLatin1Encoding 144 FMSR

2414  293 mt 
( = 0.0393   -   Multiple rings 300nm width   -   P) s
%%IncludeResource: font Helvetica
/Helvetica /ISOLatin1Encoding 108 FMSR

5469  377 mt 
(in) s
%%IncludeResource: font Helvetica
/Helvetica /ISOLatin1Encoding 144 FMSR

5553  293 mt 
( = 0.2) s
3314 4921 mt 
(Time \(s\)) s
 577 3058 mt  -90 rotate
(% Fluorescence) s
90 rotate
%%IncludeResource: font Helvetica
/Helvetica /ISOLatin1Encoding 120 FMSR

 882 4658 mt 
( ) s
6239  511 mt 
( ) s
5656  664 mt 
(mother) s
gs 5217 529 980 335 rc
c8
338 0 5284 621 2 MP stroke
gs 5380 548 147 147 rc
  36   36 5453  621 FO
gr

gr

c8
0 sg
5656  813 mt 
(daughter) s
gs 5217 529 980 335 rc
c9
338 0 5284 770 2 MP stroke
gs 5380 697 147 147 rc
  36   36 5453  770 FO
gr

gr

c9

end %%Color Dict

eplot
%%EndObject

epage
end

showpage

%%Trailer
%%EOF
