%!PS-Adobe-3.0 EPSF-3.0
%%Creator: MATLAB, The MathWorks, Inc. Version 8.1.0.604 (R2013a). Operating System: Darwin 11.4.2 Darwin Kernel Version 11.4.2: Thu Aug 23 16:25:48 PDT 2012; root:xnu-1699.32.7~1/RELEASE_X86_64 x86_64.
%%Title: ./LA_Nsg1-sphinbarr-MRs_300nm.eps
%%CreationDate: 10/03/2013  11:07:12
%%DocumentNeededFonts: Helvetica
%%DocumentProcessColors: Cyan Magenta Yellow Black
%%LanguageLevel: 2
%%Pages: 1
%%BoundingBox:    52   197   551   616
%%EndComments

%%BeginProlog
% MathWorks dictionary
/MathWorks 160 dict begin
% definition operators
/bdef {bind def} bind def
/ldef {load def} bind def
/xdef {exch def} bdef
/xstore {exch store} bdef
% operator abbreviations
/c  /clip ldef
/cc /concat ldef
/cp /closepath ldef
/gr /grestore ldef
/gs /gsave ldef
/mt /moveto ldef
/np /newpath ldef
/cm /currentmatrix ldef
/sm /setmatrix ldef
/rm /rmoveto ldef
/rl /rlineto ldef
/s {show newpath} bdef
/sc {setcmykcolor} bdef
/sr /setrgbcolor ldef
/sg /setgray ldef
/w /setlinewidth ldef
/j /setlinejoin ldef
/cap /setlinecap ldef
/rc {rectclip} bdef
/rf {rectfill} bdef
% page state control
/pgsv () def
/bpage {/pgsv save def} bdef
/epage {pgsv restore} bdef
/bplot /gsave ldef
/eplot {stroke grestore} bdef
% orientation switch
/portraitMode 0 def /landscapeMode 1 def /rotateMode 2 def
% coordinate system mappings
/dpi2point 0 def
% font control
/FontSize 0 def
/FMS {/FontSize xstore findfont [FontSize 0 0 FontSize neg 0 0]
  makefont setfont} bdef
/reencode {exch dup where {pop load} {pop StandardEncoding} ifelse
  exch dup 3 1 roll findfont dup length dict begin
  { 1 index /FID ne {def}{pop pop} ifelse } forall
  /Encoding exch def currentdict end definefont pop} bdef
/isroman {findfont /CharStrings get /Agrave known} bdef
/FMSR {3 1 roll 1 index dup isroman {reencode} {pop pop} ifelse
  exch FMS} bdef
/csm {1 dpi2point div -1 dpi2point div scale neg translate
 dup landscapeMode eq {pop -90 rotate}
  {rotateMode eq {90 rotate} if} ifelse} bdef
% line types: solid, dotted, dashed, dotdash
/SO { [] 0 setdash } bdef
/DO { [.5 dpi2point mul 4 dpi2point mul] 0 setdash } bdef
/DA { [6 dpi2point mul] 0 setdash } bdef
/DD { [.5 dpi2point mul 4 dpi2point mul 6 dpi2point mul 4
  dpi2point mul] 0 setdash } bdef
% macros for lines and objects
/L {lineto stroke} bdef
/MP {3 1 roll moveto 1 sub {rlineto} repeat} bdef
/AP {{rlineto} repeat} bdef
/PDlw -1 def
/W {/PDlw currentlinewidth def setlinewidth} def
/PP {closepath eofill} bdef
/DP {closepath stroke} bdef
/MR {4 -2 roll moveto dup  0 exch rlineto exch 0 rlineto
  neg 0 exch rlineto closepath} bdef
/FR {MR stroke} bdef
/PR {MR fill} bdef
/L1i {{currentfile picstr readhexstring pop} image} bdef
/tMatrix matrix def
/MakeOval {newpath tMatrix currentmatrix pop translate scale
0 0 1 0 360 arc tMatrix setmatrix} bdef
/FO {MakeOval stroke} bdef
/PO {MakeOval fill} bdef
/PD {currentlinewidth 2 div 0 360 arc fill
   PDlw -1 eq not {PDlw w /PDlw -1 def} if} def
/FA {newpath tMatrix currentmatrix pop translate scale
  0 0 1 5 -2 roll arc tMatrix setmatrix stroke} bdef
/PA {newpath tMatrix currentmatrix pop	translate 0 0 moveto scale
  0 0 1 5 -2 roll arc closepath tMatrix setmatrix fill} bdef
/FAn {newpath tMatrix currentmatrix pop translate scale
  0 0 1 5 -2 roll arcn tMatrix setmatrix stroke} bdef
/PAn {newpath tMatrix currentmatrix pop translate 0 0 moveto scale
  0 0 1 5 -2 roll arcn closepath tMatrix setmatrix fill} bdef
/vradius 0 def /hradius 0 def /lry 0 def
/lrx 0 def /uly 0 def /ulx 0 def /rad 0 def
/MRR {/vradius xdef /hradius xdef /lry xdef /lrx xdef /uly xdef
  /ulx xdef newpath tMatrix currentmatrix pop ulx hradius add uly
  vradius add translate hradius vradius scale 0 0 1 180 270 arc 
  tMatrix setmatrix lrx hradius sub uly vradius add translate
  hradius vradius scale 0 0 1 270 360 arc tMatrix setmatrix
  lrx hradius sub lry vradius sub translate hradius vradius scale
  0 0 1 0 90 arc tMatrix setmatrix ulx hradius add lry vradius sub
  translate hradius vradius scale 0 0 1 90 180 arc tMatrix setmatrix
  closepath} bdef
/FRR {MRR stroke } bdef
/PRR {MRR fill } bdef
/MlrRR {/lry xdef /lrx xdef /uly xdef /ulx xdef /rad lry uly sub 2 div def
  newpath tMatrix currentmatrix pop ulx rad add uly rad add translate
  rad rad scale 0 0 1 90 270 arc tMatrix setmatrix lrx rad sub lry rad
  sub translate rad rad scale 0 0 1 270 90 arc tMatrix setmatrix
  closepath} bdef
/FlrRR {MlrRR stroke } bdef
/PlrRR {MlrRR fill } bdef
/MtbRR {/lry xdef /lrx xdef /uly xdef /ulx xdef /rad lrx ulx sub 2 div def
  newpath tMatrix currentmatrix pop ulx rad add uly rad add translate
  rad rad scale 0 0 1 180 360 arc tMatrix setmatrix lrx rad sub lry rad
  sub translate rad rad scale 0 0 1 0 180 arc tMatrix setmatrix
  closepath} bdef
/FtbRR {MtbRR stroke } bdef
/PtbRR {MtbRR fill } bdef
/stri 6 array def /dtri 6 array def
/smat 6 array def /dmat 6 array def
/tmat1 6 array def /tmat2 6 array def /dif 3 array def
/asub {/ind2 exch def /ind1 exch def dup dup
  ind1 get exch ind2 get sub exch } bdef
/tri_to_matrix {
  2 0 asub 3 1 asub 4 0 asub 5 1 asub
  dup 0 get exch 1 get 7 -1 roll astore } bdef
/compute_transform {
  dmat dtri tri_to_matrix tmat1 invertmatrix 
  smat stri tri_to_matrix tmat2 concatmatrix } bdef
/ds {stri astore pop} bdef
/dt {dtri astore pop} bdef
/db {2 copy /cols xdef /rows xdef mul dup 3 mul string
  currentfile 
  3 index 0 eq {/ASCIIHexDecode filter}
  {/ASCII85Decode filter 3 index 2 eq {/RunLengthDecode filter} if }
  ifelse exch readstring pop
  dup 0 3 index getinterval /rbmap xdef
  dup 2 index dup getinterval /gbmap xdef
  1 index dup 2 mul exch getinterval /bbmap xdef pop pop}bdef
/it {gs np dtri aload pop moveto lineto lineto cp c
  cols rows 8 compute_transform 
  rbmap gbmap bbmap true 3 colorimage gr}bdef
/il {newpath moveto lineto stroke}bdef
currentdict end def
%%EndProlog

%%BeginSetup
MathWorks begin

0 cap

end
%%EndSetup

%%Page: 1 1
%%BeginPageSetup
%%PageBoundingBox:    52   197   551   616
MathWorks begin
bpage
%%EndPageSetup

%%BeginObject: obj1
bplot

/dpi2point 12 def
portraitMode 0216 7344 csm

  418   -48  5986  5026 rc
85 dict begin %Colortable dictionary
/c0 { 0.000000 0.000000 0.000000 sr} bdef
/c1 { 1.000000 1.000000 1.000000 sr} bdef
/c2 { 0.900000 0.000000 0.000000 sr} bdef
/c3 { 0.000000 0.820000 0.000000 sr} bdef
/c4 { 0.000000 0.000000 0.800000 sr} bdef
/c5 { 0.910000 0.820000 0.320000 sr} bdef
/c6 { 1.000000 0.260000 0.820000 sr} bdef
/c7 { 0.000000 0.820000 0.820000 sr} bdef
c0
1 j
1 sg
   0    0 6913 5186 rf
6 w
0 4146 5356 0 0 -4146 899 4615 4 MP
PP
-5356 0 0 4146 5356 0 0 -4146 899 4615 5 MP stroke
4 w
DO
SO
6 w
0 sg
 899 4615 mt 6255 4615 L
 899  469 mt 6255  469 L
 899 4615 mt  899  469 L
6255 4615 mt 6255  469 L
 899 4615 mt 6255 4615 L
 899 4615 mt  899  469 L
 899 4615 mt  899 4561 L
 899  469 mt  899  522 L
%%IncludeResource: font Helvetica
/Helvetica /ISOLatin1Encoding 120 FMSR

 866 4760 mt 
(0) s
2684 4615 mt 2684 4561 L
2684  469 mt 2684  522 L
2618 4760 mt 
(50) s
4469 4615 mt 4469 4561 L
4469  469 mt 4469  522 L
4369 4760 mt 
(100) s
6255 4615 mt 6255 4561 L
6255  469 mt 6255  522 L
6155 4760 mt 
(150) s
 899 4615 mt  952 4615 L
6255 4615 mt 6201 4615 L
 798 4659 mt 
(0) s
 899 4200 mt  952 4200 L
6255 4200 mt 6201 4200 L
 731 4244 mt 
(10) s
 899 3785 mt  952 3785 L
6255 3785 mt 6201 3785 L
 731 3829 mt 
(20) s
 899 3371 mt  952 3371 L
6255 3371 mt 6201 3371 L
 731 3415 mt 
(30) s
 899 2956 mt  952 2956 L
6255 2956 mt 6201 2956 L
 731 3000 mt 
(40) s
 899 2542 mt  952 2542 L
6255 2542 mt 6201 2542 L
 731 2586 mt 
(50) s
 899 2127 mt  952 2127 L
6255 2127 mt 6201 2127 L
 731 2171 mt 
(60) s
 899 1712 mt  952 1712 L
6255 1712 mt 6201 1712 L
 731 1756 mt 
(70) s
 899 1298 mt  952 1298 L
6255 1298 mt 6201 1298 L
 731 1342 mt 
(80) s
 899  883 mt  952  883 L
6255  883 mt 6201  883 L
 731  927 mt 
(90) s
 899  469 mt  952  469 L
6255  469 mt 6201  469 L
 664  513 mt 
(100) s
 899 4615 mt 6255 4615 L
 899  469 mt 6255  469 L
 899 4615 mt  899  469 L
6255 4615 mt 6255  469 L
gs 899 469 5357 4147 rc
899 469 PD
124 0 899 469 2 MP stroke
124 0 899 469 2 MP stroke
0 602 1036 1806 2 MP stroke
249 0 912 1806 2 MP stroke
249 0 912 2408 2 MP stroke
0 780 1174 2222 2 MP stroke
248 0 1050 2222 2 MP stroke
248 0 1050 3002 2 MP stroke
0 709 1309 2602 2 MP stroke
248 0 1185 2602 2 MP stroke
248 0 1185 3311 2 MP stroke
0 754 1444 2880 2 MP stroke
248 0 1320 2880 2 MP stroke
248 0 1320 3634 2 MP stroke
0 686 1580 3122 2 MP stroke
248 0 1456 3122 2 MP stroke
248 0 1456 3808 2 MP stroke
0 574 1716 3269 2 MP stroke
248 0 1592 3269 2 MP stroke
248 0 1592 3843 2 MP stroke
0 572 1853 3441 2 MP stroke
248 0 1729 3441 2 MP stroke
248 0 1729 4013 2 MP stroke
0 563 1988 3489 2 MP stroke
249 0 1864 3489 2 MP stroke
249 0 1864 4052 2 MP stroke
0 459 2125 3686 2 MP stroke
248 0 2001 3686 2 MP stroke
248 0 2001 4145 2 MP stroke
0 442 2261 3759 2 MP stroke
248 0 2137 3759 2 MP stroke
248 0 2137 4201 2 MP stroke
0 399 2398 3894 2 MP stroke
249 0 2274 3894 2 MP stroke
249 0 2274 4293 2 MP stroke
0 433 2535 3879 2 MP stroke
248 0 2411 3879 2 MP stroke
248 0 2411 4312 2 MP stroke
0 463 2672 3906 2 MP stroke
249 0 2547 3906 2 MP stroke
249 0 2547 4369 2 MP stroke
0 408 2808 3947 2 MP stroke
248 0 2684 3947 2 MP stroke
248 0 2684 4355 2 MP stroke
0 445 2945 3990 2 MP stroke
249 0 2820 3990 2 MP stroke
249 0 2820 4435 2 MP stroke
0 353 3080 4064 2 MP stroke
248 0 2956 4064 2 MP stroke
248 0 2956 4417 2 MP stroke
0 360 3216 4082 2 MP stroke
248 0 3092 4082 2 MP stroke
248 0 3092 4442 2 MP stroke
0 344 3352 4128 2 MP stroke
248 0 3228 4128 2 MP stroke
248 0 3228 4472 2 MP stroke
0 338 3488 4153 2 MP stroke
249 0 3364 4153 2 MP stroke
249 0 3364 4491 2 MP stroke
0 351 3626 4138 2 MP stroke
248 0 3502 4138 2 MP stroke
248 0 3502 4489 2 MP stroke
0 287 3762 4228 2 MP stroke
248 0 3638 4228 2 MP stroke
248 0 3638 4515 2 MP stroke
0 267 3899 4227 2 MP stroke
248 0 3775 4227 2 MP stroke
248 0 3775 4494 2 MP stroke
0 288 4033 4225 2 MP stroke
248 0 3909 4225 2 MP stroke
248 0 3909 4513 2 MP stroke
0 272 4170 4269 2 MP stroke
248 0 4046 4269 2 MP stroke
248 0 4046 4541 2 MP stroke
0 263 4307 4282 2 MP stroke
248 0 4183 4282 2 MP stroke
248 0 4183 4545 2 MP stroke
0 255 4443 4298 2 MP stroke
248 0 4319 4298 2 MP stroke
248 0 4319 4553 2 MP stroke
0 266 4580 4299 2 MP stroke
248 0 4456 4299 2 MP stroke
248 0 4456 4565 2 MP stroke
0 253 4716 4312 2 MP stroke
248 0 4592 4312 2 MP stroke
248 0 4592 4565 2 MP stroke
0 226 4852 4356 2 MP stroke
248 0 4728 4356 2 MP stroke
248 0 4728 4582 2 MP stroke
0 169 4988 4388 2 MP stroke
248 0 4864 4388 2 MP stroke
248 0 4864 4557 2 MP stroke
0 228 5125 4338 2 MP stroke
248 0 5001 4338 2 MP stroke
248 0 5001 4566 2 MP stroke
0 231 5262 4385 2 MP stroke
248 0 5138 4385 2 MP stroke
0 222 5398 4384 2 MP stroke
248 0 5274 4384 2 MP stroke
248 0 5274 4606 2 MP stroke
0 209 5535 4391 2 MP stroke
248 0 5411 4391 2 MP stroke
248 0 5411 4600 2 MP stroke
0 169 5671 4409 2 MP stroke
248 0 5547 4409 2 MP stroke
248 0 5547 4578 2 MP stroke
0 218 5806 4397 2 MP stroke
248 0 5682 4397 2 MP stroke
248 0 5682 4615 2 MP stroke
0 175 5943 4441 2 MP stroke
248 0 5819 4441 2 MP stroke
0 216 6080 4386 2 MP stroke
249 0 5955 4386 2 MP stroke
249 0 5955 4602 2 MP stroke
0 197 6215 4415 2 MP stroke
165 0 6091 4415 2 MP stroke
165 0 6091 4612 2 MP stroke
28 0 6228 4444 2 MP stroke
28 0 6228 4613 2 MP stroke
41 5 135 19 137 -35 137 23 135 13 136 -2 137 0 136 -7 
137 50 137 -20 136 3 136 31 136 6 137 6 136 13 137 8 
137 36 134 9 137 -11 136 58 138 -9 136 22 136 38 136 21 
135 29 137 61 136 13 137 42 137 3 137 113 136 64 137 146 
135 43 137 171 136 91 136 208 135 300 135 345 138 505 137 1638 
899 469 41 MP stroke
gr

 874  444 mt  924  494 L
 924  444 mt  874  494 L
1011 2082 mt 1061 2132 L
1061 2082 mt 1011 2132 L
1149 2587 mt 1199 2637 L
1199 2587 mt 1149 2637 L
1284 2932 mt 1334 2982 L
1334 2932 mt 1284 2982 L
1419 3232 mt 1469 3282 L
1469 3232 mt 1419 3282 L
1555 3440 mt 1605 3490 L
1605 3440 mt 1555 3490 L
1691 3531 mt 1741 3581 L
1741 3531 mt 1691 3581 L
1828 3702 mt 1878 3752 L
1878 3702 mt 1828 3752 L
1963 3745 mt 2013 3795 L
2013 3745 mt 1963 3795 L
2100 3891 mt 2150 3941 L
2150 3891 mt 2100 3941 L
2236 3955 mt 2286 4005 L
2286 3955 mt 2236 4005 L
2373 4068 mt 2423 4118 L
2423 4068 mt 2373 4118 L
2510 4071 mt 2560 4121 L
2560 4071 mt 2510 4121 L
2647 4113 mt 2697 4163 L
2697 4113 mt 2647 4163 L
2783 4126 mt 2833 4176 L
2833 4126 mt 2783 4176 L
2920 4187 mt 2970 4237 L
2970 4187 mt 2920 4237 L
3055 4216 mt 3105 4266 L
3105 4216 mt 3055 4266 L
3191 4237 mt 3241 4287 L
3241 4237 mt 3191 4287 L
3327 4275 mt 3377 4325 L
3377 4275 mt 3327 4325 L
3463 4297 mt 3513 4347 L
3513 4297 mt 3463 4347 L
3601 4288 mt 3651 4338 L
3651 4288 mt 3601 4338 L
3737 4346 mt 3787 4396 L
3787 4346 mt 3737 4396 L
3874 4335 mt 3924 4385 L
3924 4335 mt 3874 4385 L
4008 4344 mt 4058 4394 L
4058 4344 mt 4008 4394 L
4145 4380 mt 4195 4430 L
4195 4380 mt 4145 4430 L
4282 4388 mt 4332 4438 L
4332 4388 mt 4282 4438 L
4418 4401 mt 4468 4451 L
4468 4401 mt 4418 4451 L
4555 4407 mt 4605 4457 L
4605 4407 mt 4555 4457 L
4691 4413 mt 4741 4463 L
4741 4413 mt 4691 4463 L
4827 4444 mt 4877 4494 L
4877 4444 mt 4827 4494 L
4963 4447 mt 5013 4497 L
5013 4447 mt 4963 4497 L
5100 4427 mt 5150 4477 L
5150 4427 mt 5100 4477 L
5237 4477 mt 5287 4527 L
5287 4477 mt 5237 4527 L
5373 4470 mt 5423 4520 L
5423 4470 mt 5373 4520 L
5510 4470 mt 5560 4520 L
5560 4470 mt 5510 4520 L
5646 4468 mt 5696 4518 L
5696 4468 mt 5646 4518 L
5781 4481 mt 5831 4531 L
5831 4481 mt 5781 4531 L
5918 4504 mt 5968 4554 L
5968 4504 mt 5918 4554 L
6055 4469 mt 6105 4519 L
6105 4469 mt 6055 4519 L
6190 4488 mt 6240 4538 L
6240 4488 mt 6190 4538 L
gs 899 469 5357 4147 rc
899 469 PD
124 0 899 469 2 MP stroke
124 0 899 469 2 MP stroke
0 359 1036 469 2 MP stroke
249 0 912 828 2 MP stroke
0 484 1174 529 2 MP stroke
248 0 1050 529 2 MP stroke
248 0 1050 1013 2 MP stroke
0 558 1309 561 2 MP stroke
248 0 1185 561 2 MP stroke
248 0 1185 1119 2 MP stroke
0 529 1444 617 2 MP stroke
248 0 1320 617 2 MP stroke
248 0 1320 1146 2 MP stroke
0 476 1580 654 2 MP stroke
248 0 1456 654 2 MP stroke
248 0 1456 1130 2 MP stroke
0 450 1716 722 2 MP stroke
248 0 1592 722 2 MP stroke
248 0 1592 1172 2 MP stroke
0 577 1853 634 2 MP stroke
248 0 1729 634 2 MP stroke
248 0 1729 1211 2 MP stroke
0 485 1988 698 2 MP stroke
249 0 1864 698 2 MP stroke
249 0 1864 1183 2 MP stroke
0 435 2125 756 2 MP stroke
248 0 2001 756 2 MP stroke
248 0 2001 1191 2 MP stroke
0 461 2261 670 2 MP stroke
248 0 2137 670 2 MP stroke
248 0 2137 1131 2 MP stroke
0 558 2398 752 2 MP stroke
249 0 2274 752 2 MP stroke
249 0 2274 1310 2 MP stroke
0 598 2535 768 2 MP stroke
248 0 2411 768 2 MP stroke
248 0 2411 1366 2 MP stroke
0 571 2672 728 2 MP stroke
249 0 2547 728 2 MP stroke
249 0 2547 1299 2 MP stroke
0 621 2808 786 2 MP stroke
248 0 2684 786 2 MP stroke
248 0 2684 1407 2 MP stroke
0 627 2945 782 2 MP stroke
249 0 2820 782 2 MP stroke
249 0 2820 1409 2 MP stroke
0 613 3080 772 2 MP stroke
248 0 2956 772 2 MP stroke
248 0 2956 1385 2 MP stroke
0 660 3216 809 2 MP stroke
248 0 3092 809 2 MP stroke
248 0 3092 1469 2 MP stroke
0 633 3352 753 2 MP stroke
248 0 3228 753 2 MP stroke
248 0 3228 1386 2 MP stroke
0 678 3488 806 2 MP stroke
249 0 3364 806 2 MP stroke
249 0 3364 1484 2 MP stroke
0 593 3626 835 2 MP stroke
248 0 3502 835 2 MP stroke
248 0 3502 1428 2 MP stroke
0 546 3762 941 2 MP stroke
248 0 3638 941 2 MP stroke
248 0 3638 1487 2 MP stroke
0 673 3899 840 2 MP stroke
248 0 3775 840 2 MP stroke
248 0 3775 1513 2 MP stroke
0 799 4033 743 2 MP stroke
248 0 3909 743 2 MP stroke
248 0 3909 1542 2 MP stroke
0 680 4170 891 2 MP stroke
248 0 4046 891 2 MP stroke
248 0 4046 1571 2 MP stroke
0 835 4307 853 2 MP stroke
248 0 4183 853 2 MP stroke
248 0 4183 1688 2 MP stroke
0 745 4443 874 2 MP stroke
248 0 4319 874 2 MP stroke
248 0 4319 1619 2 MP stroke
0 853 4580 769 2 MP stroke
248 0 4456 769 2 MP stroke
248 0 4456 1622 2 MP stroke
0 813 4716 859 2 MP stroke
248 0 4592 859 2 MP stroke
248 0 4592 1672 2 MP stroke
0 816 4852 913 2 MP stroke
248 0 4728 913 2 MP stroke
248 0 4728 1729 2 MP stroke
0 750 4988 981 2 MP stroke
248 0 4864 981 2 MP stroke
248 0 4864 1731 2 MP stroke
0 752 5125 951 2 MP stroke
248 0 5001 951 2 MP stroke
248 0 5001 1703 2 MP stroke
0 653 5262 1018 2 MP stroke
248 0 5138 1018 2 MP stroke
248 0 5138 1671 2 MP stroke
0 820 5398 928 2 MP stroke
248 0 5274 928 2 MP stroke
248 0 5274 1748 2 MP stroke
0 808 5535 994 2 MP stroke
248 0 5411 994 2 MP stroke
248 0 5411 1802 2 MP stroke
0 948 5671 915 2 MP stroke
248 0 5547 915 2 MP stroke
248 0 5547 1863 2 MP stroke
0 969 5806 971 2 MP stroke
248 0 5682 971 2 MP stroke
248 0 5682 1940 2 MP stroke
0 948 5943 917 2 MP stroke
248 0 5819 917 2 MP stroke
248 0 5819 1865 2 MP stroke
0 800 6080 1049 2 MP stroke
249 0 5955 1049 2 MP stroke
249 0 5955 1849 2 MP stroke
0 849 6215 971 2 MP stroke
165 0 6091 971 2 MP stroke
165 0 6091 1820 2 MP stroke
28 0 6228 1017 2 MP stroke
28 0 6228 1838 2 MP stroke
41 9 135 -53 137 58 137 -64 135 66 136 -9 137 60 136 -6 
137 17 137 -29 136 35 136 55 136 70 137 -51 136 -23 137 39 
137 88 134 -33 137 -38 136 83 138 -14 136 75 136 -69 136 60 
135 -17 137 -1 136 83 137 -53 137 36 137 130 136 -72 137 33 
135 17 137 -24 136 55 136 10 135 42 135 69 138 133 137 169 
899 469 41 MP stroke
gr

 874  444 mt  924  494 L
 924  444 mt  874  494 L
1011  613 mt 1061  663 L
1061  613 mt 1011  663 L
1149  746 mt 1199  796 L
1199  746 mt 1149  796 L
1284  815 mt 1334  865 L
1334  815 mt 1284  865 L
1419  857 mt 1469  907 L
1469  857 mt 1419  907 L
1555  867 mt 1605  917 L
1605  867 mt 1555  917 L
1691  922 mt 1741  972 L
1741  922 mt 1691  972 L
1828  898 mt 1878  948 L
1878  898 mt 1828  948 L
1963  915 mt 2013  965 L
2013  915 mt 1963  965 L
2100  948 mt 2150  998 L
2150  948 mt 2100  998 L
2236  876 mt 2286  926 L
2286  876 mt 2236  926 L
2373 1006 mt 2423 1056 L
2423 1006 mt 2373 1056 L
2510 1042 mt 2560 1092 L
2560 1042 mt 2510 1092 L
2647  989 mt 2697 1039 L
2697  989 mt 2647 1039 L
2783 1072 mt 2833 1122 L
2833 1072 mt 2783 1122 L
2920 1071 mt 2970 1121 L
2970 1071 mt 2920 1121 L
3055 1054 mt 3105 1104 L
3105 1054 mt 3055 1104 L
3191 1114 mt 3241 1164 L
3241 1114 mt 3191 1164 L
3327 1045 mt 3377 1095 L
3377 1045 mt 3327 1095 L
3463 1120 mt 3513 1170 L
3513 1120 mt 3463 1170 L
3601 1106 mt 3651 1156 L
3651 1106 mt 3601 1156 L
3737 1189 mt 3787 1239 L
3787 1189 mt 3737 1239 L
3874 1151 mt 3924 1201 L
3924 1151 mt 3874 1201 L
4008 1118 mt 4058 1168 L
4058 1118 mt 4008 1168 L
4145 1206 mt 4195 1256 L
4195 1206 mt 4145 1256 L
4282 1245 mt 4332 1295 L
4332 1245 mt 4282 1295 L
4418 1222 mt 4468 1272 L
4468 1222 mt 4418 1272 L
4555 1171 mt 4605 1221 L
4605 1171 mt 4555 1221 L
4691 1241 mt 4741 1291 L
4741 1241 mt 4691 1291 L
4827 1296 mt 4877 1346 L
4877 1296 mt 4827 1346 L
4963 1331 mt 5013 1381 L
5013 1331 mt 4963 1381 L
5100 1302 mt 5150 1352 L
5150 1302 mt 5100 1352 L
5237 1319 mt 5287 1369 L
5287 1319 mt 5237 1369 L
5373 1313 mt 5423 1363 L
5423 1313 mt 5373 1363 L
5510 1373 mt 5560 1423 L
5560 1373 mt 5510 1423 L
5646 1364 mt 5696 1414 L
5696 1364 mt 5646 1414 L
5781 1430 mt 5831 1480 L
5831 1430 mt 5781 1480 L
5918 1366 mt 5968 1416 L
5968 1366 mt 5918 1416 L
6055 1424 mt 6105 1474 L
6105 1424 mt 6055 1474 L
6190 1371 mt 6240 1421 L
6240 1371 mt 6190 1421 L
gs 899 469 5357 4147 rc
/c8 { 1.000000 0.000000 0.000000 sr} bdef
c8
899 491 PD
899 469 PD
71 0 899 469 2 MP stroke
71 0 899 469 2 MP stroke
0 174 970 967 2 MP stroke
142 0 899 967 2 MP stroke
142 0 899 1141 2 MP stroke
0 287 1041 1325 2 MP stroke
143 0 970 1325 2 MP stroke
143 0 970 1612 2 MP stroke
0 338 1113 1672 2 MP stroke
143 0 1041 1672 2 MP stroke
143 0 1041 2010 2 MP stroke
0 362 1184 1986 2 MP stroke
143 0 1113 1986 2 MP stroke
143 0 1113 2348 2 MP stroke
0 398 1256 2236 2 MP stroke
143 0 1184 2236 2 MP stroke
143 0 1184 2634 2 MP stroke
0 397 1327 2466 2 MP stroke
142 0 1256 2466 2 MP stroke
142 0 1256 2863 2 MP stroke
0 417 1398 2662 2 MP stroke
143 0 1327 2662 2 MP stroke
143 0 1327 3079 2 MP stroke
0 422 1470 2832 2 MP stroke
143 0 1398 2832 2 MP stroke
143 0 1398 3254 2 MP stroke
0 425 1541 2987 2 MP stroke
143 0 1470 2987 2 MP stroke
143 0 1470 3412 2 MP stroke
0 414 1613 3121 2 MP stroke
143 0 1541 3121 2 MP stroke
143 0 1541 3535 2 MP stroke
0 401 1684 3244 2 MP stroke
142 0 1613 3244 2 MP stroke
142 0 1613 3645 2 MP stroke
0 390 1755 3350 2 MP stroke
143 0 1684 3350 2 MP stroke
143 0 1684 3740 2 MP stroke
0 375 1827 3448 2 MP stroke
143 0 1755 3448 2 MP stroke
143 0 1755 3823 2 MP stroke
0 351 1898 3535 2 MP stroke
143 0 1827 3535 2 MP stroke
143 0 1827 3886 2 MP stroke
0 335 1970 3604 2 MP stroke
143 0 1898 3604 2 MP stroke
143 0 1898 3939 2 MP stroke
0 331 2041 3672 2 MP stroke
143 0 1970 3672 2 MP stroke
143 0 1970 4003 2 MP stroke
0 323 2113 3722 2 MP stroke
143 0 2041 3722 2 MP stroke
143 0 2041 4045 2 MP stroke
0 304 2184 3783 2 MP stroke
142 0 2113 3783 2 MP stroke
142 0 2113 4087 2 MP stroke
0 291 2255 3831 2 MP stroke
143 0 2184 3831 2 MP stroke
143 0 2184 4122 2 MP stroke
0 278 2327 3866 2 MP stroke
143 0 2255 3866 2 MP stroke
143 0 2255 4144 2 MP stroke
0 260 2398 3911 2 MP stroke
143 0 2327 3911 2 MP stroke
143 0 2327 4171 2 MP stroke
0 260 2470 3935 2 MP stroke
143 0 2398 3935 2 MP stroke
143 0 2398 4195 2 MP stroke
0 251 2541 3968 2 MP stroke
142 0 2470 3968 2 MP stroke
142 0 2470 4219 2 MP stroke
0 244 2612 3994 2 MP stroke
143 0 2541 3994 2 MP stroke
143 0 2541 4238 2 MP stroke
0 241 2684 4017 2 MP stroke
143 0 2612 4017 2 MP stroke
143 0 2612 4258 2 MP stroke
0 234 2755 4045 2 MP stroke
143 0 2684 4045 2 MP stroke
143 0 2684 4279 2 MP stroke
0 219 2827 4073 2 MP stroke
143 0 2755 4073 2 MP stroke
143 0 2755 4292 2 MP stroke
0 212 2898 4089 2 MP stroke
142 0 2827 4089 2 MP stroke
142 0 2827 4301 2 MP stroke
0 213 2969 4099 2 MP stroke
143 0 2898 4099 2 MP stroke
143 0 2898 4312 2 MP stroke
0 210 3041 4116 2 MP stroke
143 0 2969 4116 2 MP stroke
143 0 2969 4326 2 MP stroke
0 214 3112 4124 2 MP stroke
143 0 3041 4124 2 MP stroke
143 0 3041 4338 2 MP stroke
0 221 3184 4132 2 MP stroke
143 0 3112 4132 2 MP stroke
143 0 3112 4353 2 MP stroke
0 224 3255 4138 2 MP stroke
143 0 3184 4138 2 MP stroke
143 0 3184 4362 2 MP stroke
0 209 3327 4161 2 MP stroke
143 0 3255 4161 2 MP stroke
143 0 3255 4370 2 MP stroke
0 214 3398 4167 2 MP stroke
142 0 3327 4167 2 MP stroke
142 0 3327 4381 2 MP stroke
0 200 3469 4181 2 MP stroke
143 0 3398 4181 2 MP stroke
143 0 3398 4381 2 MP stroke
0 204 3541 4187 2 MP stroke
143 0 3469 4187 2 MP stroke
143 0 3469 4391 2 MP stroke
0 206 3612 4192 2 MP stroke
143 0 3541 4192 2 MP stroke
143 0 3541 4398 2 MP stroke
0 206 3684 4194 2 MP stroke
143 0 3612 4194 2 MP stroke
143 0 3612 4400 2 MP stroke
0 196 3755 4209 2 MP stroke
142 0 3684 4209 2 MP stroke
142 0 3684 4405 2 MP stroke
0 199 3826 4207 2 MP stroke
143 0 3755 4207 2 MP stroke
143 0 3755 4406 2 MP stroke
0 204 3898 4209 2 MP stroke
143 0 3826 4209 2 MP stroke
143 0 3826 4413 2 MP stroke
0 189 3969 4219 2 MP stroke
143 0 3898 4219 2 MP stroke
143 0 3898 4408 2 MP stroke
0 187 4041 4218 2 MP stroke
143 0 3969 4218 2 MP stroke
143 0 3969 4405 2 MP stroke
0 188 4112 4221 2 MP stroke
143 0 4041 4221 2 MP stroke
143 0 4041 4409 2 MP stroke
0 188 4184 4228 2 MP stroke
143 0 4112 4228 2 MP stroke
143 0 4112 4416 2 MP stroke
0 176 4255 4236 2 MP stroke
142 0 4184 4236 2 MP stroke
142 0 4184 4412 2 MP stroke
0 182 4326 4241 2 MP stroke
143 0 4255 4241 2 MP stroke
143 0 4255 4423 2 MP stroke
0 193 4398 4236 2 MP stroke
143 0 4326 4236 2 MP stroke
143 0 4326 4429 2 MP stroke
0 181 4469 4244 2 MP stroke
143 0 4398 4244 2 MP stroke
143 0 4398 4425 2 MP stroke
0 176 4541 4251 2 MP stroke
143 0 4469 4251 2 MP stroke
143 0 4469 4427 2 MP stroke
0 170 4612 4257 2 MP stroke
142 0 4541 4257 2 MP stroke
142 0 4541 4427 2 MP stroke
0 173 4683 4255 2 MP stroke
143 0 4612 4255 2 MP stroke
143 0 4612 4428 2 MP stroke
0 163 4755 4263 2 MP stroke
143 0 4683 4263 2 MP stroke
143 0 4683 4426 2 MP stroke
0 155 4826 4267 2 MP stroke
143 0 4755 4267 2 MP stroke
143 0 4755 4422 2 MP stroke
0 161 4898 4267 2 MP stroke
143 0 4826 4267 2 MP stroke
143 0 4826 4428 2 MP stroke
0 152 4969 4274 2 MP stroke
142 0 4898 4274 2 MP stroke
142 0 4898 4426 2 MP stroke
0 150 5040 4279 2 MP stroke
143 0 4969 4279 2 MP stroke
143 0 4969 4429 2 MP stroke
0 154 5112 4278 2 MP stroke
143 0 5040 4278 2 MP stroke
143 0 5040 4432 2 MP stroke
0 166 5183 4274 2 MP stroke
143 0 5112 4274 2 MP stroke
143 0 5112 4440 2 MP stroke
0 165 5255 4279 2 MP stroke
143 0 5183 4279 2 MP stroke
143 0 5183 4444 2 MP stroke
0 160 5326 4286 2 MP stroke
143 0 5255 4286 2 MP stroke
143 0 5255 4446 2 MP stroke
0 154 5398 4291 2 MP stroke
143 0 5326 4291 2 MP stroke
143 0 5326 4445 2 MP stroke
0 151 5469 4290 2 MP stroke
142 0 5398 4290 2 MP stroke
142 0 5398 4441 2 MP stroke
0 149 5540 4295 2 MP stroke
143 0 5469 4295 2 MP stroke
143 0 5469 4444 2 MP stroke
0 142 5612 4298 2 MP stroke
143 0 5540 4298 2 MP stroke
143 0 5540 4440 2 MP stroke
0 158 5683 4294 2 MP stroke
143 0 5612 4294 2 MP stroke
143 0 5612 4452 2 MP stroke
0 161 5755 4294 2 MP stroke
143 0 5683 4294 2 MP stroke
143 0 5683 4455 2 MP stroke
0 164 5826 4290 2 MP stroke
142 0 5755 4290 2 MP stroke
142 0 5755 4454 2 MP stroke
0 155 5897 4296 2 MP stroke
143 0 5826 4296 2 MP stroke
143 0 5826 4451 2 MP stroke
0 152 5969 4299 2 MP stroke
143 0 5897 4299 2 MP stroke
143 0 5897 4451 2 MP stroke
0 142 6040 4307 2 MP stroke
143 0 5969 4307 2 MP stroke
143 0 5969 4449 2 MP stroke
0 140 6112 4307 2 MP stroke
143 0 6040 4307 2 MP stroke
143 0 6040 4447 2 MP stroke
0 143 6183 4305 2 MP stroke
143 0 6112 4305 2 MP stroke
143 0 6112 4448 2 MP stroke
0 145 6255 4306 2 MP stroke
73 0 6183 4306 2 MP stroke
73 0 6183 4451 2 MP stroke
72 2 71 0 72 -1 71 3 72 1 71 2 71 -3 72 2 
71 4 72 -1 71 4 71 -2 72 2 71 4 72 5 71 2 
72 1 71 4 71 2 72 4 71 0 72 2 71 0 71 3 
72 4 71 3 72 0 71 8 71 2 72 7 71 3 72 -1 
71 2 72 5 71 -1 71 10 72 2 71 6 72 8 71 7 
71 8 72 16 71 8 72 11 71 10 72 15 71 11 71 12 
72 21 71 25 72 21 71 22 71 29 72 24 71 36 72 28 
71 42 71 51 72 47 71 66 72 60 71 75 72 91 71 100 
71 117 72 128 71 157 72 172 71 206 71 230 72 268 71 326 
72 372 71 415 71 585 899 469 76 MP stroke
gr

c8
  36   36  970 1054 FO
  36   36 1041 1469 FO
  36   36 1113 1841 FO
  36   36 1184 2167 FO
  36   36 1256 2435 FO
  36   36 1327 2665 FO
  36   36 1398 2871 FO
  36   36 1470 3043 FO
  36   36 1541 3200 FO
  36   36 1613 3328 FO
  36   36 1684 3445 FO
  36   36 1755 3545 FO
  36   36 1827 3636 FO
  36   36 1898 3711 FO
  36   36 1970 3771 FO
  36   36 2041 3837 FO
  36   36 2113 3884 FO
  36   36 2184 3935 FO
  36   36 2255 3977 FO
  36   36 2327 4005 FO
  36   36 2398 4041 FO
  36   36 2470 4065 FO
  36   36 2541 4094 FO
  36   36 2612 4116 FO
  36   36 2684 4137 FO
  36   36 2755 4162 FO
  36   36 2827 4183 FO
  36   36 2898 4195 FO
  36   36 2969 4206 FO
  36   36 3041 4221 FO
  36   36 3112 4231 FO
  36   36 3184 4242 FO
  36   36 3255 4250 FO
  36   36 3327 4266 FO
  36   36 3398 4274 FO
  36   36 3469 4281 FO
  36   36 3541 4289 FO
  36   36 3612 4295 FO
  36   36 3684 4297 FO
  36   36 3755 4307 FO
  36   36 3826 4306 FO
  36   36 3898 4311 FO
  36   36 3969 4313 FO
  36   36 4041 4312 FO
  36   36 4112 4315 FO
  36   36 4184 4322 FO
  36   36 4255 4324 FO
  36   36 4326 4332 FO
  36   36 4398 4332 FO
  36   36 4469 4335 FO
  36   36 4541 4339 FO
  36   36 4612 4342 FO
  36   36 4683 4342 FO
  36   36 4755 4344 FO
  36   36 4826 4344 FO
  36   36 4898 4348 FO
  36   36 4969 4350 FO
  36   36 5040 4354 FO
  36   36 5112 4355 FO
  36   36 5183 4357 FO
  36   36 5255 4362 FO
  36   36 5326 4366 FO
  36   36 5398 4368 FO
  36   36 5469 4366 FO
  36   36 5540 4370 FO
  36   36 5612 4369 FO
  36   36 5683 4373 FO
  36   36 5755 4375 FO
  36   36 5826 4372 FO
  36   36 5897 4374 FO
  36   36 5969 4375 FO
  36   36 6040 4378 FO
  36   36 6112 4377 FO
  36   36 6183 4377 FO
  36   36 6255 4379 FO
gs 899 469 5357 4147 rc
/c9 { 0.000000 0.500000 0.000000 sr} bdef
c9
899 493 PD
899 469 PD
71 0 899 469 2 MP stroke
71 0 899 469 2 MP stroke
0 20 970 469 2 MP stroke
142 0 899 489 2 MP stroke
0 23 1041 469 2 MP stroke
143 0 970 492 2 MP stroke
0 24 1113 469 2 MP stroke
143 0 1041 493 2 MP stroke
0 31 1184 469 2 MP stroke
143 0 1113 500 2 MP stroke
0 35 1256 469 2 MP stroke
143 0 1184 504 2 MP stroke
0 49 1327 469 2 MP stroke
142 0 1256 518 2 MP stroke
0 55 1398 469 2 MP stroke
143 0 1327 524 2 MP stroke
0 68 1470 469 2 MP stroke
143 0 1398 537 2 MP stroke
0 78 1541 469 2 MP stroke
143 0 1470 547 2 MP stroke
0 91 1613 469 2 MP stroke
143 0 1541 560 2 MP stroke
0 105 1684 472 2 MP stroke
142 0 1613 472 2 MP stroke
142 0 1613 577 2 MP stroke
0 118 1755 479 2 MP stroke
143 0 1684 479 2 MP stroke
143 0 1684 597 2 MP stroke
0 120 1827 485 2 MP stroke
143 0 1755 485 2 MP stroke
143 0 1755 605 2 MP stroke
0 137 1898 494 2 MP stroke
143 0 1827 494 2 MP stroke
143 0 1827 631 2 MP stroke
0 142 1970 508 2 MP stroke
143 0 1898 508 2 MP stroke
143 0 1898 650 2 MP stroke
0 155 2041 509 2 MP stroke
143 0 1970 509 2 MP stroke
143 0 1970 664 2 MP stroke
0 169 2113 523 2 MP stroke
143 0 2041 523 2 MP stroke
143 0 2041 692 2 MP stroke
0 179 2184 526 2 MP stroke
142 0 2113 526 2 MP stroke
142 0 2113 705 2 MP stroke
0 188 2255 537 2 MP stroke
143 0 2184 537 2 MP stroke
143 0 2184 725 2 MP stroke
0 202 2327 551 2 MP stroke
143 0 2255 551 2 MP stroke
143 0 2255 753 2 MP stroke
0 226 2398 555 2 MP stroke
143 0 2327 555 2 MP stroke
143 0 2327 781 2 MP stroke
0 231 2470 575 2 MP stroke
143 0 2398 575 2 MP stroke
143 0 2398 806 2 MP stroke
0 244 2541 584 2 MP stroke
142 0 2470 584 2 MP stroke
142 0 2470 828 2 MP stroke
0 259 2612 596 2 MP stroke
143 0 2541 596 2 MP stroke
143 0 2541 855 2 MP stroke
0 258 2684 613 2 MP stroke
143 0 2612 613 2 MP stroke
143 0 2612 871 2 MP stroke
0 263 2755 625 2 MP stroke
143 0 2684 625 2 MP stroke
143 0 2684 888 2 MP stroke
0 272 2827 637 2 MP stroke
143 0 2755 637 2 MP stroke
143 0 2755 909 2 MP stroke
0 289 2898 650 2 MP stroke
142 0 2827 650 2 MP stroke
142 0 2827 939 2 MP stroke
0 289 2969 668 2 MP stroke
143 0 2898 668 2 MP stroke
143 0 2898 957 2 MP stroke
0 298 3041 680 2 MP stroke
143 0 2969 680 2 MP stroke
143 0 2969 978 2 MP stroke
0 301 3112 698 2 MP stroke
143 0 3041 698 2 MP stroke
143 0 3041 999 2 MP stroke
0 312 3184 709 2 MP stroke
143 0 3112 709 2 MP stroke
143 0 3112 1021 2 MP stroke
0 321 3255 721 2 MP stroke
143 0 3184 721 2 MP stroke
143 0 3184 1042 2 MP stroke
0 331 3327 729 2 MP stroke
143 0 3255 729 2 MP stroke
143 0 3255 1060 2 MP stroke
0 338 3398 741 2 MP stroke
142 0 3327 741 2 MP stroke
142 0 3327 1079 2 MP stroke
0 348 3469 752 2 MP stroke
143 0 3398 752 2 MP stroke
143 0 3398 1100 2 MP stroke
0 353 3541 765 2 MP stroke
143 0 3469 765 2 MP stroke
143 0 3469 1118 2 MP stroke
0 357 3612 777 2 MP stroke
143 0 3541 777 2 MP stroke
143 0 3541 1134 2 MP stroke
0 374 3684 789 2 MP stroke
143 0 3612 789 2 MP stroke
143 0 3612 1163 2 MP stroke
0 396 3755 789 2 MP stroke
142 0 3684 789 2 MP stroke
142 0 3684 1185 2 MP stroke
0 386 3826 816 2 MP stroke
143 0 3755 816 2 MP stroke
143 0 3755 1202 2 MP stroke
0 403 3898 823 2 MP stroke
143 0 3826 823 2 MP stroke
143 0 3826 1226 2 MP stroke
0 406 3969 840 2 MP stroke
143 0 3898 840 2 MP stroke
143 0 3898 1246 2 MP stroke
0 434 4041 849 2 MP stroke
143 0 3969 849 2 MP stroke
143 0 3969 1283 2 MP stroke
0 444 4112 860 2 MP stroke
143 0 4041 860 2 MP stroke
143 0 4041 1304 2 MP stroke
0 447 4184 871 2 MP stroke
143 0 4112 871 2 MP stroke
143 0 4112 1318 2 MP stroke
0 449 4255 885 2 MP stroke
142 0 4184 885 2 MP stroke
142 0 4184 1334 2 MP stroke
0 452 4326 897 2 MP stroke
143 0 4255 897 2 MP stroke
143 0 4255 1349 2 MP stroke
0 460 4398 910 2 MP stroke
143 0 4326 910 2 MP stroke
143 0 4326 1370 2 MP stroke
0 472 4469 920 2 MP stroke
143 0 4398 920 2 MP stroke
143 0 4398 1392 2 MP stroke
0 481 4541 929 2 MP stroke
143 0 4469 929 2 MP stroke
143 0 4469 1410 2 MP stroke
0 492 4612 939 2 MP stroke
142 0 4541 939 2 MP stroke
142 0 4541 1431 2 MP stroke
0 499 4683 953 2 MP stroke
143 0 4612 953 2 MP stroke
143 0 4612 1452 2 MP stroke
0 510 4755 965 2 MP stroke
143 0 4683 965 2 MP stroke
143 0 4683 1475 2 MP stroke
0 519 4826 979 2 MP stroke
143 0 4755 979 2 MP stroke
143 0 4755 1498 2 MP stroke
0 530 4898 990 2 MP stroke
143 0 4826 990 2 MP stroke
143 0 4826 1520 2 MP stroke
0 544 4969 996 2 MP stroke
142 0 4898 996 2 MP stroke
142 0 4898 1540 2 MP stroke
0 565 5040 1001 2 MP stroke
143 0 4969 1001 2 MP stroke
143 0 4969 1566 2 MP stroke
0 567 5112 1016 2 MP stroke
143 0 5040 1016 2 MP stroke
143 0 5040 1583 2 MP stroke
0 570 5183 1029 2 MP stroke
143 0 5112 1029 2 MP stroke
143 0 5112 1599 2 MP stroke
0 571 5255 1041 2 MP stroke
143 0 5183 1041 2 MP stroke
143 0 5183 1612 2 MP stroke
0 575 5326 1053 2 MP stroke
143 0 5255 1053 2 MP stroke
143 0 5255 1628 2 MP stroke
0 584 5398 1065 2 MP stroke
143 0 5326 1065 2 MP stroke
143 0 5326 1649 2 MP stroke
0 590 5469 1080 2 MP stroke
142 0 5398 1080 2 MP stroke
142 0 5398 1670 2 MP stroke
0 600 5540 1086 2 MP stroke
143 0 5469 1086 2 MP stroke
143 0 5469 1686 2 MP stroke
0 604 5612 1099 2 MP stroke
143 0 5540 1099 2 MP stroke
143 0 5540 1703 2 MP stroke
0 617 5683 1105 2 MP stroke
143 0 5612 1105 2 MP stroke
143 0 5612 1722 2 MP stroke
0 628 5755 1113 2 MP stroke
143 0 5683 1113 2 MP stroke
143 0 5683 1741 2 MP stroke
0 636 5826 1128 2 MP stroke
142 0 5755 1128 2 MP stroke
142 0 5755 1764 2 MP stroke
0 639 5897 1140 2 MP stroke
143 0 5826 1140 2 MP stroke
143 0 5826 1779 2 MP stroke
0 643 5969 1152 2 MP stroke
143 0 5897 1152 2 MP stroke
143 0 5897 1795 2 MP stroke
0 650 6040 1162 2 MP stroke
143 0 5969 1162 2 MP stroke
143 0 5969 1812 2 MP stroke
0 656 6112 1175 2 MP stroke
143 0 6040 1175 2 MP stroke
143 0 6040 1831 2 MP stroke
0 665 6183 1185 2 MP stroke
143 0 6112 1185 2 MP stroke
143 0 6112 1850 2 MP stroke
0 662 6255 1201 2 MP stroke
73 0 6183 1201 2 MP stroke
73 0 6183 1863 2 MP stroke
899 469 PD
gr

c9
gs 899 469 5357 4147 rc
72 15 71 14 72 16 71 13 72 14 71 14 71 19 72 14 
71 12 72 15 71 11 71 18 72 17 71 13 72 13 71 15 
72 15 71 16 71 13 72 16 71 19 72 17 71 18 71 15 
72 14 71 16 72 17 71 13 71 16 72 12 71 16 72 23 
71 18 72 16 71 22 71 11 72 20 71 15 72 15 71 16 
71 16 72 12 71 17 72 17 71 19 72 16 71 19 71 21 
72 16 71 15 72 17 71 19 71 16 72 22 71 16 72 21 
71 15 71 9 72 21 71 7 72 16 71 18 72 7 71 14 
71 15 72 13 71 8 72 13 71 4 18 2 1309 469 71 MP stroke
gr

  36   36 1327  471 FO
  36   36 1398  475 FO
  36   36 1470  488 FO
  36   36 1541  496 FO
  36   36 1613  509 FO
  36   36 1684  524 FO
  36   36 1755  538 FO
  36   36 1827  545 FO
  36   36 1898  563 FO
  36   36 1970  579 FO
  36   36 2041  586 FO
  36   36 2113  607 FO
  36   36 2184  616 FO
  36   36 2255  631 FO
  36   36 2327  652 FO
  36   36 2398  668 FO
  36   36 2470  690 FO
  36   36 2541  706 FO
  36   36 2612  725 FO
  36   36 2684  742 FO
  36   36 2755  757 FO
  36   36 2827  773 FO
  36   36 2898  794 FO
  36   36 2969  813 FO
  36   36 3041  829 FO
  36   36 3112  848 FO
  36   36 3184  865 FO
  36   36 3255  882 FO
  36   36 3327  894 FO
  36   36 3398  910 FO
  36   36 3469  926 FO
  36   36 3541  941 FO
  36   36 3612  956 FO
  36   36 3684  976 FO
  36   36 3755  987 FO
  36   36 3826 1009 FO
  36   36 3898 1025 FO
  36   36 3969 1043 FO
  36   36 4041 1066 FO
  36   36 4112 1082 FO
  36   36 4184 1094 FO
  36   36 4255 1110 FO
  36   36 4326 1123 FO
  36   36 4398 1140 FO
  36   36 4469 1156 FO
  36   36 4541 1170 FO
  36   36 4612 1185 FO
  36   36 4683 1203 FO
  36   36 4755 1220 FO
  36   36 4826 1239 FO
  36   36 4898 1255 FO
  36   36 4969 1268 FO
  36   36 5040 1284 FO
  36   36 5112 1299 FO
  36   36 5183 1314 FO
  36   36 5255 1327 FO
  36   36 5326 1340 FO
  36   36 5398 1357 FO
  36   36 5469 1375 FO
  36   36 5540 1386 FO
  36   36 5612 1401 FO
  36   36 5683 1413 FO
  36   36 5755 1427 FO
  36   36 5826 1446 FO
  36   36 5897 1460 FO
  36   36 5969 1474 FO
  36   36 6040 1487 FO
  36   36 6112 1503 FO
  36   36 6183 1517 FO
  36   36 6255 1532 FO
gs 899 469 5357 4147 rc
gr

0 sg
%%IncludeResource: font Helvetica
/Helvetica /ISOLatin1Encoding 168 FMSR

2486  156 mt 
(Nsg1-GFP in Late Anaphase) s
%%IncludeResource: font Helvetica
/Helvetica /ISOLatin1Encoding 144 FMSR

1784  293 mt 
(n) s
%%IncludeResource: font Helvetica
/Helvetica /ISOLatin1Encoding 108 FMSR

1864  377 mt 
(cells) s
%%IncludeResource: font Helvetica
/Helvetica /ISOLatin1Encoding 144 FMSR

2080  293 mt 
( = 34    -    Multiple rings 300nm width   -   P) s
%%IncludeResource: font Helvetica
/Helvetica /ISOLatin1Encoding 108 FMSR

4935  377 mt 
(in) s
%%IncludeResource: font Helvetica
/Helvetica /ISOLatin1Encoding 144 FMSR

5019  293 mt 
( = 0.1) s
3314 4921 mt 
(Time \(s\)) s
 577 3058 mt  -90 rotate
(% Fluorescence) s
90 rotate
%%IncludeResource: font Helvetica
/Helvetica /ISOLatin1Encoding 120 FMSR

 882 4658 mt 
( ) s
6239  511 mt 
( ) s
5656  664 mt 
(mother) s
gs 5217 529 980 335 rc
c8
338 0 5284 621 2 MP stroke
gs 5380 548 147 147 rc
  36   36 5453  621 FO
gr

gr

c8
0 sg
5656  813 mt 
(daughter) s
gs 5217 529 980 335 rc
c9
338 0 5284 770 2 MP stroke
gs 5380 697 147 147 rc
  36   36 5453  770 FO
gr

gr

c9

end %%Color Dict

eplot
%%EndObject

epage
end

showpage

%%Trailer
%%EOF
