%!PS-Adobe-3.0 EPSF-3.0
%%Creator: MATLAB, The MathWorks, Inc. Version 8.1.0.604 (R2013a). Operating System: Darwin 11.4.2 Darwin Kernel Version 11.4.2: Thu Aug 23 16:25:48 PDT 2012; root:xnu-1699.32.7~1/RELEASE_X86_64 x86_64.
%%Title: ./LA_Nup49-volexc_yes.eps
%%CreationDate: 08/16/2013  10:31:15
%%DocumentNeededFonts: Helvetica
%%DocumentProcessColors: Cyan Magenta Yellow Black
%%LanguageLevel: 2
%%Pages: 1
%%BoundingBox:    52   197   551   616
%%EndComments

%%BeginProlog
% MathWorks dictionary
/MathWorks 160 dict begin
% definition operators
/bdef {bind def} bind def
/ldef {load def} bind def
/xdef {exch def} bdef
/xstore {exch store} bdef
% operator abbreviations
/c  /clip ldef
/cc /concat ldef
/cp /closepath ldef
/gr /grestore ldef
/gs /gsave ldef
/mt /moveto ldef
/np /newpath ldef
/cm /currentmatrix ldef
/sm /setmatrix ldef
/rm /rmoveto ldef
/rl /rlineto ldef
/s {show newpath} bdef
/sc {setcmykcolor} bdef
/sr /setrgbcolor ldef
/sg /setgray ldef
/w /setlinewidth ldef
/j /setlinejoin ldef
/cap /setlinecap ldef
/rc {rectclip} bdef
/rf {rectfill} bdef
% page state control
/pgsv () def
/bpage {/pgsv save def} bdef
/epage {pgsv restore} bdef
/bplot /gsave ldef
/eplot {stroke grestore} bdef
% orientation switch
/portraitMode 0 def /landscapeMode 1 def /rotateMode 2 def
% coordinate system mappings
/dpi2point 0 def
% font control
/FontSize 0 def
/FMS {/FontSize xstore findfont [FontSize 0 0 FontSize neg 0 0]
  makefont setfont} bdef
/reencode {exch dup where {pop load} {pop StandardEncoding} ifelse
  exch dup 3 1 roll findfont dup length dict begin
  { 1 index /FID ne {def}{pop pop} ifelse } forall
  /Encoding exch def currentdict end definefont pop} bdef
/isroman {findfont /CharStrings get /Agrave known} bdef
/FMSR {3 1 roll 1 index dup isroman {reencode} {pop pop} ifelse
  exch FMS} bdef
/csm {1 dpi2point div -1 dpi2point div scale neg translate
 dup landscapeMode eq {pop -90 rotate}
  {rotateMode eq {90 rotate} if} ifelse} bdef
% line types: solid, dotted, dashed, dotdash
/SO { [] 0 setdash } bdef
/DO { [.5 dpi2point mul 4 dpi2point mul] 0 setdash } bdef
/DA { [6 dpi2point mul] 0 setdash } bdef
/DD { [.5 dpi2point mul 4 dpi2point mul 6 dpi2point mul 4
  dpi2point mul] 0 setdash } bdef
% macros for lines and objects
/L {lineto stroke} bdef
/MP {3 1 roll moveto 1 sub {rlineto} repeat} bdef
/AP {{rlineto} repeat} bdef
/PDlw -1 def
/W {/PDlw currentlinewidth def setlinewidth} def
/PP {closepath eofill} bdef
/DP {closepath stroke} bdef
/MR {4 -2 roll moveto dup  0 exch rlineto exch 0 rlineto
  neg 0 exch rlineto closepath} bdef
/FR {MR stroke} bdef
/PR {MR fill} bdef
/L1i {{currentfile picstr readhexstring pop} image} bdef
/tMatrix matrix def
/MakeOval {newpath tMatrix currentmatrix pop translate scale
0 0 1 0 360 arc tMatrix setmatrix} bdef
/FO {MakeOval stroke} bdef
/PO {MakeOval fill} bdef
/PD {currentlinewidth 2 div 0 360 arc fill
   PDlw -1 eq not {PDlw w /PDlw -1 def} if} def
/FA {newpath tMatrix currentmatrix pop translate scale
  0 0 1 5 -2 roll arc tMatrix setmatrix stroke} bdef
/PA {newpath tMatrix currentmatrix pop	translate 0 0 moveto scale
  0 0 1 5 -2 roll arc closepath tMatrix setmatrix fill} bdef
/FAn {newpath tMatrix currentmatrix pop translate scale
  0 0 1 5 -2 roll arcn tMatrix setmatrix stroke} bdef
/PAn {newpath tMatrix currentmatrix pop translate 0 0 moveto scale
  0 0 1 5 -2 roll arcn closepath tMatrix setmatrix fill} bdef
/vradius 0 def /hradius 0 def /lry 0 def
/lrx 0 def /uly 0 def /ulx 0 def /rad 0 def
/MRR {/vradius xdef /hradius xdef /lry xdef /lrx xdef /uly xdef
  /ulx xdef newpath tMatrix currentmatrix pop ulx hradius add uly
  vradius add translate hradius vradius scale 0 0 1 180 270 arc 
  tMatrix setmatrix lrx hradius sub uly vradius add translate
  hradius vradius scale 0 0 1 270 360 arc tMatrix setmatrix
  lrx hradius sub lry vradius sub translate hradius vradius scale
  0 0 1 0 90 arc tMatrix setmatrix ulx hradius add lry vradius sub
  translate hradius vradius scale 0 0 1 90 180 arc tMatrix setmatrix
  closepath} bdef
/FRR {MRR stroke } bdef
/PRR {MRR fill } bdef
/MlrRR {/lry xdef /lrx xdef /uly xdef /ulx xdef /rad lry uly sub 2 div def
  newpath tMatrix currentmatrix pop ulx rad add uly rad add translate
  rad rad scale 0 0 1 90 270 arc tMatrix setmatrix lrx rad sub lry rad
  sub translate rad rad scale 0 0 1 270 90 arc tMatrix setmatrix
  closepath} bdef
/FlrRR {MlrRR stroke } bdef
/PlrRR {MlrRR fill } bdef
/MtbRR {/lry xdef /lrx xdef /uly xdef /ulx xdef /rad lrx ulx sub 2 div def
  newpath tMatrix currentmatrix pop ulx rad add uly rad add translate
  rad rad scale 0 0 1 180 360 arc tMatrix setmatrix lrx rad sub lry rad
  sub translate rad rad scale 0 0 1 0 180 arc tMatrix setmatrix
  closepath} bdef
/FtbRR {MtbRR stroke } bdef
/PtbRR {MtbRR fill } bdef
/stri 6 array def /dtri 6 array def
/smat 6 array def /dmat 6 array def
/tmat1 6 array def /tmat2 6 array def /dif 3 array def
/asub {/ind2 exch def /ind1 exch def dup dup
  ind1 get exch ind2 get sub exch } bdef
/tri_to_matrix {
  2 0 asub 3 1 asub 4 0 asub 5 1 asub
  dup 0 get exch 1 get 7 -1 roll astore } bdef
/compute_transform {
  dmat dtri tri_to_matrix tmat1 invertmatrix 
  smat stri tri_to_matrix tmat2 concatmatrix } bdef
/ds {stri astore pop} bdef
/dt {dtri astore pop} bdef
/db {2 copy /cols xdef /rows xdef mul dup 3 mul string
  currentfile 
  3 index 0 eq {/ASCIIHexDecode filter}
  {/ASCII85Decode filter 3 index 2 eq {/RunLengthDecode filter} if }
  ifelse exch readstring pop
  dup 0 3 index getinterval /rbmap xdef
  dup 2 index dup getinterval /gbmap xdef
  1 index dup 2 mul exch getinterval /bbmap xdef pop pop}bdef
/it {gs np dtri aload pop moveto lineto lineto cp c
  cols rows 8 compute_transform 
  rbmap gbmap bbmap true 3 colorimage gr}bdef
/il {newpath moveto lineto stroke}bdef
currentdict end def
%%EndProlog

%%BeginSetup
MathWorks begin

0 cap

end
%%EndSetup

%%Page: 1 1
%%BeginPageSetup
%%PageBoundingBox:    52   197   551   616
MathWorks begin
bpage
%%EndPageSetup

%%BeginObject: obj1
bplot

/dpi2point 12 def
portraitMode 0216 7344 csm

  418   -48  5986  5026 rc
85 dict begin %Colortable dictionary
/c0 { 0.000000 0.000000 0.000000 sr} bdef
/c1 { 1.000000 1.000000 1.000000 sr} bdef
/c2 { 0.900000 0.000000 0.000000 sr} bdef
/c3 { 0.000000 0.820000 0.000000 sr} bdef
/c4 { 0.000000 0.000000 0.800000 sr} bdef
/c5 { 0.910000 0.820000 0.320000 sr} bdef
/c6 { 1.000000 0.260000 0.820000 sr} bdef
/c7 { 0.000000 0.820000 0.820000 sr} bdef
c0
1 j
1 sg
   0    0 6913 5186 rf
6 w
0 4146 5356 0 0 -4146 899 4615 4 MP
PP
-5356 0 0 4146 5356 0 0 -4146 899 4615 5 MP stroke
4 w
DO
SO
6 w
0 sg
 899 4615 mt 6255 4615 L
 899  469 mt 6255  469 L
 899 4615 mt  899  469 L
6255 4615 mt 6255  469 L
 899 4615 mt 6255 4615 L
 899 4615 mt  899  469 L
 899 4615 mt  899 4561 L
 899  469 mt  899  522 L
%%IncludeResource: font Helvetica
/Helvetica /ISOLatin1Encoding 120 FMSR

 866 4760 mt 
(0) s
1791 4615 mt 1791 4561 L
1791  469 mt 1791  522 L
1725 4760 mt 
(50) s
2684 4615 mt 2684 4561 L
2684  469 mt 2684  522 L
2584 4760 mt 
(100) s
3577 4615 mt 3577 4561 L
3577  469 mt 3577  522 L
3477 4760 mt 
(150) s
4469 4615 mt 4469 4561 L
4469  469 mt 4469  522 L
4369 4760 mt 
(200) s
5362 4615 mt 5362 4561 L
5362  469 mt 5362  522 L
5262 4760 mt 
(250) s
6255 4615 mt 6255 4561 L
6255  469 mt 6255  522 L
6155 4760 mt 
(300) s
 899 4615 mt  952 4615 L
6255 4615 mt 6201 4615 L
 798 4659 mt 
(0) s
 899 4200 mt  952 4200 L
6255 4200 mt 6201 4200 L
 731 4244 mt 
(10) s
 899 3785 mt  952 3785 L
6255 3785 mt 6201 3785 L
 731 3829 mt 
(20) s
 899 3371 mt  952 3371 L
6255 3371 mt 6201 3371 L
 731 3415 mt 
(30) s
 899 2956 mt  952 2956 L
6255 2956 mt 6201 2956 L
 731 3000 mt 
(40) s
 899 2542 mt  952 2542 L
6255 2542 mt 6201 2542 L
 731 2586 mt 
(50) s
 899 2127 mt  952 2127 L
6255 2127 mt 6201 2127 L
 731 2171 mt 
(60) s
 899 1712 mt  952 1712 L
6255 1712 mt 6201 1712 L
 731 1756 mt 
(70) s
 899 1298 mt  952 1298 L
6255 1298 mt 6201 1298 L
 731 1342 mt 
(80) s
 899  883 mt  952  883 L
6255  883 mt 6201  883 L
 731  927 mt 
(90) s
 899  469 mt  952  469 L
6255  469 mt 6201  469 L
 664  513 mt 
(100) s
 899 4615 mt 6255 4615 L
 899  469 mt 6255  469 L
 899 4615 mt  899  469 L
6255 4615 mt 6255  469 L
gs 899 469 5357 4147 rc
899 469 PD
64 0 899 469 2 MP stroke
64 0 899 469 2 MP stroke
0 917 968 1681 2 MP stroke
128 0 904 1681 2 MP stroke
128 0 904 2598 2 MP stroke
0 804 1037 2106 2 MP stroke
128 0 973 2106 2 MP stroke
128 0 973 2910 2 MP stroke
0 960 1105 2267 2 MP stroke
128 0 1041 2267 2 MP stroke
128 0 1041 3227 2 MP stroke
0 884 1173 2559 2 MP stroke
129 0 1108 2559 2 MP stroke
129 0 1108 3443 2 MP stroke
0 749 1241 2786 2 MP stroke
129 0 1177 2786 2 MP stroke
129 0 1177 3535 2 MP stroke
0 701 1311 2964 2 MP stroke
129 0 1246 2964 2 MP stroke
129 0 1246 3665 2 MP stroke
0 841 1379 2992 2 MP stroke
129 0 1314 2992 2 MP stroke
129 0 1314 3833 2 MP stroke
0 802 1448 3107 2 MP stroke
129 0 1383 3107 2 MP stroke
129 0 1383 3909 2 MP stroke
0 867 1517 3151 2 MP stroke
128 0 1453 3151 2 MP stroke
128 0 1453 4018 2 MP stroke
0 792 1585 3210 2 MP stroke
129 0 1521 3210 2 MP stroke
129 0 1521 4002 2 MP stroke
0 727 1653 3382 2 MP stroke
129 0 1589 3382 2 MP stroke
129 0 1589 4109 2 MP stroke
0 716 1722 3445 2 MP stroke
128 0 1658 3445 2 MP stroke
128 0 1658 4161 2 MP stroke
0 730 1791 3507 2 MP stroke
129 0 1727 3507 2 MP stroke
129 0 1727 4237 2 MP stroke
0 655 1860 3559 2 MP stroke
129 0 1795 3559 2 MP stroke
129 0 1795 4214 2 MP stroke
0 616 1928 3699 2 MP stroke
128 0 1864 3699 2 MP stroke
128 0 1864 4315 2 MP stroke
0 591 1997 3737 2 MP stroke
129 0 1932 3737 2 MP stroke
129 0 1932 4328 2 MP stroke
0 635 2066 3743 2 MP stroke
129 0 2001 3743 2 MP stroke
129 0 2001 4378 2 MP stroke
0 598 2134 3781 2 MP stroke
128 0 2070 3781 2 MP stroke
128 0 2070 4379 2 MP stroke
0 626 2202 3812 2 MP stroke
129 0 2137 3812 2 MP stroke
129 0 2137 4438 2 MP stroke
0 585 2271 3880 2 MP stroke
129 0 2206 3880 2 MP stroke
129 0 2206 4465 2 MP stroke
0 604 2340 3900 2 MP stroke
129 0 2276 3900 2 MP stroke
129 0 2276 4504 2 MP stroke
0 560 2409 3953 2 MP stroke
129 0 2345 3953 2 MP stroke
129 0 2345 4513 2 MP stroke
0 559 2477 3942 2 MP stroke
129 0 2413 3942 2 MP stroke
129 0 2413 4501 2 MP stroke
0 462 2546 4043 2 MP stroke
129 0 2482 4043 2 MP stroke
129 0 2482 4505 2 MP stroke
0 586 2614 3963 2 MP stroke
129 0 2550 3963 2 MP stroke
129 0 2550 4549 2 MP stroke
0 515 2683 4011 2 MP stroke
128 0 2619 4011 2 MP stroke
128 0 2619 4526 2 MP stroke
0 539 2751 4005 2 MP stroke
129 0 2687 4005 2 MP stroke
129 0 2687 4544 2 MP stroke
0 498 2820 4108 2 MP stroke
128 0 2756 4108 2 MP stroke
128 0 2756 4606 2 MP stroke
0 620 2889 3996 2 MP stroke
129 0 2825 3996 2 MP stroke
0 484 2959 4132 2 MP stroke
129 0 2894 4132 2 MP stroke
0 524 3026 4092 2 MP stroke
128 0 2962 4092 2 MP stroke
0 499 3095 4117 2 MP stroke
129 0 3030 4117 2 MP stroke
0 514 3164 4102 2 MP stroke
128 0 3100 4102 2 MP stroke
0 360 3232 4256 2 MP stroke
129 0 3168 4256 2 MP stroke
0 383 3301 4233 2 MP stroke
129 0 3236 4233 2 MP stroke
0 362 3369 4254 2 MP stroke
129 0 3305 4254 2 MP stroke
0 377 3439 4239 2 MP stroke
129 0 3374 4239 2 MP stroke
0 395 3507 4221 2 MP stroke
128 0 3443 4221 2 MP stroke
0 354 3575 4262 2 MP stroke
128 0 3511 4262 2 MP stroke
0 312 3644 4304 2 MP stroke
129 0 3580 4304 2 MP stroke
0 358 3713 4258 2 MP stroke
128 0 3649 4258 2 MP stroke
0 283 3782 4333 2 MP stroke
128 0 3718 4333 2 MP stroke
0 293 3850 4323 2 MP stroke
128 0 3786 4323 2 MP stroke
0 372 3919 4244 2 MP stroke
129 0 3854 4244 2 MP stroke
0 289 3988 4327 2 MP stroke
129 0 3923 4327 2 MP stroke
0 235 4056 4381 2 MP stroke
129 0 3992 4381 2 MP stroke
0 260 4124 4356 2 MP stroke
129 0 4060 4356 2 MP stroke
0 242 4193 4374 2 MP stroke
129 0 4128 4374 2 MP stroke
0 238 4262 4378 2 MP stroke
128 0 4198 4378 2 MP stroke
0 212 4331 4404 2 MP stroke
129 0 4267 4404 2 MP stroke
0 153 4400 4463 2 MP stroke
129 0 4335 4463 2 MP stroke
0 197 4468 4419 2 MP stroke
128 0 4404 4419 2 MP stroke
0 188 4536 4428 2 MP stroke
129 0 4471 4428 2 MP stroke
0 198 4605 4418 2 MP stroke
129 0 4540 4418 2 MP stroke
0 158 4674 4458 2 MP stroke
128 0 4610 4458 2 MP stroke
0 142 4743 4474 2 MP stroke
129 0 4678 4474 2 MP stroke
0 170 4811 4446 2 MP stroke
129 0 4747 4446 2 MP stroke
0 188 4880 4428 2 MP stroke
128 0 4816 4428 2 MP stroke
0 219 4948 4397 2 MP stroke
128 0 4884 4397 2 MP stroke
0 226 5017 4390 2 MP stroke
129 0 4952 4390 2 MP stroke
0 161 5086 4455 2 MP stroke
129 0 5021 4455 2 MP stroke
0 131 5155 4485 2 MP stroke
128 0 5091 4485 2 MP stroke
0 142 5223 4474 2 MP stroke
129 0 5159 4474 2 MP stroke
0 138 5292 4478 2 MP stroke
129 0 5227 4478 2 MP stroke
0 122 5360 4494 2 MP stroke
129 0 5295 4494 2 MP stroke
0 115 5429 4501 2 MP stroke
129 0 5364 4501 2 MP stroke
0 212 5500 4404 2 MP stroke
129 0 5435 4404 2 MP stroke
0 162 5573 4454 2 MP stroke
129 0 5508 4454 2 MP stroke
0 177 5648 4439 2 MP stroke
128 0 5584 4439 2 MP stroke
0 165 5727 4451 2 MP stroke
129 0 5662 4451 2 MP stroke
0 165 5816 4451 2 MP stroke
128 0 5752 4451 2 MP stroke
0 122 5903 4494 2 MP stroke
128 0 5839 4494 2 MP stroke
0 114 5993 4502 2 MP stroke
129 0 5929 4502 2 MP stroke
0 122 6088 4494 2 MP stroke
129 0 6023 4494 2 MP stroke
0 160 6190 4456 2 MP stroke
129 0 6125 4456 2 MP stroke
2 0 6254 4522 2 MP stroke
48 17 68 -4 69 -4 69 31 69 -28 68 -2 69 16 68 -15 
69 17 69 8 69 18 68 -31 68 -16 69 22 69 12 69 -12 
69 64 68 -36 68 26 69 33 69 -1 68 -25 69 40 69 -24 
69 28 68 13 68 11 70 -7 68 29 69 -20 68 65 69 5 
69 10 67 -8 70 72 69 -45 69 83 68 6 69 12 68 -18 
69 53 68 -12 69 31 69 29 69 48 68 45 68 19 69 28 
69 26 68 121 69 14 69 69 69 57 68 140 68 22 69 76 
69 96 68 97 70 155 68 159 68 254 68 239 69 369 69 1670 
899 469 65 MP stroke
gr

 874  444 mt  924  494 L
 924  444 mt  874  494 L
 943 2114 mt  993 2164 L
 993 2114 mt  943 2164 L
1012 2483 mt 1062 2533 L
1062 2483 mt 1012 2533 L
1080 2722 mt 1130 2772 L
1130 2722 mt 1080 2772 L
1148 2976 mt 1198 3026 L
1198 2976 mt 1148 3026 L
1216 3135 mt 1266 3185 L
1266 3135 mt 1216 3185 L
1286 3290 mt 1336 3340 L
1336 3290 mt 1286 3340 L
1354 3387 mt 1404 3437 L
1404 3387 mt 1354 3437 L
1423 3483 mt 1473 3533 L
1473 3483 mt 1423 3533 L
1492 3559 mt 1542 3609 L
1542 3559 mt 1492 3609 L
1560 3581 mt 1610 3631 L
1610 3581 mt 1560 3631 L
1628 3721 mt 1678 3771 L
1678 3721 mt 1628 3771 L
1697 3778 mt 1747 3828 L
1747 3778 mt 1697 3828 L
1766 3847 mt 1816 3897 L
1816 3847 mt 1766 3897 L
1835 3861 mt 1885 3911 L
1885 3861 mt 1835 3911 L
1903 3982 mt 1953 4032 L
1953 3982 mt 1903 4032 L
1972 4008 mt 2022 4058 L
2022 4008 mt 1972 4058 L
2041 4036 mt 2091 4086 L
2091 4036 mt 2041 4086 L
2109 4055 mt 2159 4105 L
2159 4055 mt 2109 4105 L
2177 4100 mt 2227 4150 L
2227 4100 mt 2177 4150 L
2246 4148 mt 2296 4198 L
2296 4148 mt 2246 4198 L
2315 4177 mt 2365 4227 L
2365 4177 mt 2315 4227 L
2384 4208 mt 2434 4258 L
2434 4208 mt 2384 4258 L
2452 4196 mt 2502 4246 L
2502 4196 mt 2452 4246 L
2521 4249 mt 2571 4299 L
2571 4249 mt 2521 4299 L
2589 4231 mt 2639 4281 L
2639 4231 mt 2589 4281 L
2658 4243 mt 2708 4293 L
2708 4243 mt 2658 4293 L
2726 4249 mt 2776 4299 L
2776 4249 mt 2726 4299 L
2795 4332 mt 2845 4382 L
2845 4332 mt 2795 4382 L
2864 4287 mt 2914 4337 L
2914 4287 mt 2864 4337 L
2934 4359 mt 2984 4409 L
2984 4359 mt 2934 4409 L
3001 4351 mt 3051 4401 L
3051 4351 mt 3001 4401 L
3070 4361 mt 3120 4411 L
3120 4361 mt 3070 4411 L
3139 4366 mt 3189 4416 L
3189 4366 mt 3139 4416 L
3207 4431 mt 3257 4481 L
3257 4431 mt 3207 4481 L
3276 4411 mt 3326 4461 L
3326 4411 mt 3276 4461 L
3344 4440 mt 3394 4490 L
3394 4440 mt 3344 4490 L
3414 4433 mt 3464 4483 L
3464 4433 mt 3414 4483 L
3482 4444 mt 3532 4494 L
3532 4444 mt 3482 4494 L
3550 4457 mt 3600 4507 L
3600 4457 mt 3550 4507 L
3619 4485 mt 3669 4535 L
3669 4485 mt 3619 4535 L
3688 4461 mt 3738 4511 L
3738 4461 mt 3688 4511 L
3757 4501 mt 3807 4551 L
3807 4501 mt 3757 4551 L
3825 4476 mt 3875 4526 L
3875 4476 mt 3825 4526 L
3894 4475 mt 3944 4525 L
3944 4475 mt 3894 4525 L
3963 4508 mt 4013 4558 L
4013 4508 mt 3963 4558 L
4031 4534 mt 4081 4584 L
4081 4534 mt 4031 4584 L
4099 4498 mt 4149 4548 L
4149 4498 mt 4099 4548 L
4168 4562 mt 4218 4612 L
4218 4562 mt 4168 4612 L
4237 4550 mt 4287 4600 L
4287 4550 mt 4237 4600 L
4306 4562 mt 4356 4612 L
4356 4562 mt 4306 4612 L
4375 4584 mt 4425 4634 L
4425 4584 mt 4375 4634 L
4443 4568 mt 4493 4618 L
4493 4568 mt 4443 4618 L
4511 4537 mt 4561 4587 L
4561 4537 mt 4511 4587 L
4580 4555 mt 4630 4605 L
4630 4555 mt 4580 4605 L
4649 4563 mt 4699 4613 L
4699 4563 mt 4649 4613 L
4718 4580 mt 4768 4630 L
4768 4580 mt 4718 4630 L
4786 4565 mt 4836 4615 L
4836 4565 mt 4786 4615 L
4855 4581 mt 4905 4631 L
4905 4581 mt 4855 4631 L
4923 4579 mt 4973 4629 L
4973 4579 mt 4923 4629 L
4992 4551 mt 5042 4601 L
5042 4551 mt 4992 4601 L
5061 4582 mt 5111 4632 L
5111 4582 mt 5061 4632 L
5130 4578 mt 5180 4628 L
5180 4578 mt 5130 4628 L
5198 4574 mt 5248 4624 L
5248 4574 mt 5198 4624 L
gs 899 469 5357 4147 rc
68 22 89 2 79 -19 75 5 73 18 45 -28 5455 4616 7 MP stroke
gr

5475 4563 mt 5525 4613 L
5525 4563 mt 5475 4613 L
5548 4581 mt 5598 4631 L
5598 4581 mt 5548 4631 L
5623 4586 mt 5673 4636 L
5673 4586 mt 5623 4636 L
5702 4567 mt 5752 4617 L
5752 4567 mt 5702 4617 L
5791 4569 mt 5841 4619 L
5841 4569 mt 5791 4619 L
gs 899 469 5357 4147 rc
29 16 64 -16 6126 4616 3 MP stroke
gr

6165 4575 mt 6215 4625 L
6215 4575 mt 6165 4625 L
gs 899 469 5357 4147 rc
899 469 PD
64 0 899 469 2 MP stroke
64 0 899 469 2 MP stroke
0 664 968 469 2 MP stroke
128 0 904 1133 2 MP stroke
0 595 1037 568 2 MP stroke
128 0 973 568 2 MP stroke
128 0 973 1163 2 MP stroke
0 733 1105 469 2 MP stroke
128 0 1041 1202 2 MP stroke
0 631 1173 646 2 MP stroke
129 0 1108 646 2 MP stroke
129 0 1108 1277 2 MP stroke
0 560 1241 666 2 MP stroke
129 0 1177 666 2 MP stroke
129 0 1177 1226 2 MP stroke
0 753 1311 628 2 MP stroke
129 0 1246 628 2 MP stroke
129 0 1246 1381 2 MP stroke
0 784 1379 684 2 MP stroke
129 0 1314 684 2 MP stroke
129 0 1314 1468 2 MP stroke
0 600 1448 666 2 MP stroke
129 0 1383 666 2 MP stroke
129 0 1383 1266 2 MP stroke
0 781 1517 644 2 MP stroke
128 0 1453 644 2 MP stroke
128 0 1453 1425 2 MP stroke
0 621 1585 731 2 MP stroke
129 0 1521 731 2 MP stroke
129 0 1521 1352 2 MP stroke
0 1025 1653 600 2 MP stroke
129 0 1589 600 2 MP stroke
129 0 1589 1625 2 MP stroke
0 1026 1722 542 2 MP stroke
128 0 1658 542 2 MP stroke
128 0 1658 1568 2 MP stroke
0 908 1791 701 2 MP stroke
129 0 1727 701 2 MP stroke
129 0 1727 1609 2 MP stroke
0 955 1860 627 2 MP stroke
129 0 1795 627 2 MP stroke
129 0 1795 1582 2 MP stroke
0 1073 1928 571 2 MP stroke
128 0 1864 571 2 MP stroke
128 0 1864 1644 2 MP stroke
0 1001 1997 605 2 MP stroke
129 0 1932 605 2 MP stroke
129 0 1932 1606 2 MP stroke
0 1121 2066 504 2 MP stroke
129 0 2001 504 2 MP stroke
129 0 2001 1625 2 MP stroke
0 1355 2134 489 2 MP stroke
128 0 2070 489 2 MP stroke
128 0 2070 1844 2 MP stroke
0 1186 2202 632 2 MP stroke
129 0 2137 632 2 MP stroke
129 0 2137 1818 2 MP stroke
0 1430 2271 529 2 MP stroke
129 0 2206 529 2 MP stroke
129 0 2206 1959 2 MP stroke
0 1397 2340 578 2 MP stroke
129 0 2276 578 2 MP stroke
129 0 2276 1975 2 MP stroke
0 1363 2409 608 2 MP stroke
129 0 2345 608 2 MP stroke
129 0 2345 1971 2 MP stroke
0 1024 2477 758 2 MP stroke
129 0 2413 758 2 MP stroke
129 0 2413 1782 2 MP stroke
0 998 2546 710 2 MP stroke
129 0 2482 710 2 MP stroke
129 0 2482 1708 2 MP stroke
0 1137 2614 702 2 MP stroke
129 0 2550 702 2 MP stroke
129 0 2550 1839 2 MP stroke
0 1093 2683 741 2 MP stroke
128 0 2619 741 2 MP stroke
128 0 2619 1834 2 MP stroke
0 1201 2751 688 2 MP stroke
129 0 2687 688 2 MP stroke
129 0 2687 1889 2 MP stroke
0 1261 2820 606 2 MP stroke
128 0 2756 606 2 MP stroke
128 0 2756 1867 2 MP stroke
0 1329 2889 662 2 MP stroke
129 0 2825 662 2 MP stroke
129 0 2825 1991 2 MP stroke
0 1335 2959 545 2 MP stroke
129 0 2894 545 2 MP stroke
129 0 2894 1880 2 MP stroke
0 1195 3026 640 2 MP stroke
128 0 2962 640 2 MP stroke
128 0 2962 1835 2 MP stroke
0 1413 3095 566 2 MP stroke
129 0 3030 566 2 MP stroke
129 0 3030 1979 2 MP stroke
0 1262 3164 669 2 MP stroke
128 0 3100 669 2 MP stroke
128 0 3100 1931 2 MP stroke
0 1075 3232 649 2 MP stroke
129 0 3168 649 2 MP stroke
129 0 3168 1724 2 MP stroke
0 1174 3301 589 2 MP stroke
129 0 3236 589 2 MP stroke
129 0 3236 1763 2 MP stroke
0 1021 3369 868 2 MP stroke
129 0 3305 868 2 MP stroke
129 0 3305 1889 2 MP stroke
0 988 3439 899 2 MP stroke
129 0 3374 899 2 MP stroke
129 0 3374 1887 2 MP stroke
0 1116 3507 712 2 MP stroke
128 0 3443 712 2 MP stroke
128 0 3443 1828 2 MP stroke
0 1021 3575 811 2 MP stroke
128 0 3511 811 2 MP stroke
128 0 3511 1832 2 MP stroke
0 1008 3644 966 2 MP stroke
129 0 3580 966 2 MP stroke
129 0 3580 1974 2 MP stroke
0 900 3713 989 2 MP stroke
128 0 3649 989 2 MP stroke
128 0 3649 1889 2 MP stroke
0 923 3782 936 2 MP stroke
128 0 3718 936 2 MP stroke
128 0 3718 1859 2 MP stroke
0 947 3850 917 2 MP stroke
128 0 3786 917 2 MP stroke
128 0 3786 1864 2 MP stroke
0 991 3919 873 2 MP stroke
129 0 3854 873 2 MP stroke
129 0 3854 1864 2 MP stroke
0 1132 3988 840 2 MP stroke
129 0 3923 840 2 MP stroke
129 0 3923 1972 2 MP stroke
0 943 4056 974 2 MP stroke
129 0 3992 974 2 MP stroke
129 0 3992 1917 2 MP stroke
0 1045 4124 861 2 MP stroke
129 0 4060 861 2 MP stroke
129 0 4060 1906 2 MP stroke
0 1080 4193 878 2 MP stroke
129 0 4128 878 2 MP stroke
129 0 4128 1958 2 MP stroke
0 1005 4262 924 2 MP stroke
128 0 4198 924 2 MP stroke
128 0 4198 1929 2 MP stroke
0 1076 4331 979 2 MP stroke
129 0 4267 979 2 MP stroke
129 0 4267 2055 2 MP stroke
0 822 4400 955 2 MP stroke
129 0 4335 955 2 MP stroke
129 0 4335 1777 2 MP stroke
0 903 4468 1084 2 MP stroke
128 0 4404 1084 2 MP stroke
128 0 4404 1987 2 MP stroke
0 1184 4536 984 2 MP stroke
129 0 4471 984 2 MP stroke
129 0 4471 2168 2 MP stroke
0 1046 4605 981 2 MP stroke
129 0 4540 981 2 MP stroke
129 0 4540 2027 2 MP stroke
0 1021 4674 1035 2 MP stroke
128 0 4610 1035 2 MP stroke
128 0 4610 2056 2 MP stroke
0 1041 4743 876 2 MP stroke
129 0 4678 876 2 MP stroke
129 0 4678 1917 2 MP stroke
0 1105 4811 964 2 MP stroke
129 0 4747 964 2 MP stroke
129 0 4747 2069 2 MP stroke
0 1325 4880 790 2 MP stroke
128 0 4816 790 2 MP stroke
128 0 4816 2115 2 MP stroke
0 1160 4948 932 2 MP stroke
128 0 4884 932 2 MP stroke
128 0 4884 2092 2 MP stroke
0 979 5017 961 2 MP stroke
129 0 4952 961 2 MP stroke
129 0 4952 1940 2 MP stroke
0 1060 5086 939 2 MP stroke
129 0 5021 939 2 MP stroke
129 0 5021 1999 2 MP stroke
0 969 5155 883 2 MP stroke
128 0 5091 883 2 MP stroke
128 0 5091 1852 2 MP stroke
0 1119 5223 922 2 MP stroke
129 0 5159 922 2 MP stroke
129 0 5159 2041 2 MP stroke
0 1144 5292 1068 2 MP stroke
129 0 5227 1068 2 MP stroke
129 0 5227 2212 2 MP stroke
0 1130 5360 930 2 MP stroke
129 0 5295 930 2 MP stroke
129 0 5295 2060 2 MP stroke
0 917 5429 1026 2 MP stroke
129 0 5364 1026 2 MP stroke
129 0 5364 1943 2 MP stroke
0 1043 5500 1082 2 MP stroke
129 0 5435 1082 2 MP stroke
129 0 5435 2125 2 MP stroke
0 923 5573 953 2 MP stroke
129 0 5508 953 2 MP stroke
129 0 5508 1876 2 MP stroke
0 1320 5648 731 2 MP stroke
128 0 5584 731 2 MP stroke
128 0 5584 2051 2 MP stroke
0 1098 5727 1076 2 MP stroke
129 0 5662 1076 2 MP stroke
129 0 5662 2174 2 MP stroke
0 922 5816 978 2 MP stroke
128 0 5752 978 2 MP stroke
128 0 5752 1900 2 MP stroke
0 1002 5903 987 2 MP stroke
128 0 5839 987 2 MP stroke
128 0 5839 1989 2 MP stroke
0 872 5993 1018 2 MP stroke
129 0 5929 1018 2 MP stroke
129 0 5929 1890 2 MP stroke
0 1036 6088 906 2 MP stroke
129 0 6023 906 2 MP stroke
129 0 6023 1942 2 MP stroke
0 1213 6190 1003 2 MP stroke
129 0 6125 1003 2 MP stroke
129 0 6125 2216 2 MP stroke
2 0 6254 958 2 MP stroke
2 0 6254 2252 2 MP stroke
66 -3 102 186 95 -30 90 -34 87 49 89 -186 79 234 75 -24 
73 -188 71 118 69 -10 68 -145 69 159 68 114 69 -102 69 19 
69 -62 68 60 69 -64 68 119 69 -149 69 42 69 -72 68 41 
68 169 69 -151 69 91 69 8 69 34 68 -62 68 40 69 38 
69 -23 68 -6 69 -42 69 -31 69 149 68 51 68 -123 70 14 
68 203 69 -10 68 -114 69 27 69 36 67 25 70 -114 69 89 
69 -51 68 0 69 17 68 62 69 -61 68 -20 69 14 69 32 
69 19 68 59 68 101 69 -41 69 -2 68 4 69 -51 69 100 
69 -57 68 71 68 6 69 69 69 -110 68 72 70 58 68 -16 
68 170 68 -74 69 167 69 230 899 469 77 MP stroke
gr

 874  444 mt  924  494 L
 924  444 mt  874  494 L
 943  674 mt  993  724 L
 993  674 mt  943  724 L
1012  841 mt 1062  891 L
1062  841 mt 1012  891 L
1080  767 mt 1130  817 L
1130  767 mt 1080  817 L
1148  937 mt 1198  987 L
1198  937 mt 1148  987 L
1216  921 mt 1266  971 L
1266  921 mt 1216  971 L
1286  979 mt 1336 1029 L
1336  979 mt 1286 1029 L
1354 1051 mt 1404 1101 L
1404 1051 mt 1354 1101 L
1423  941 mt 1473  991 L
1473  941 mt 1423  991 L
1492 1010 mt 1542 1060 L
1542 1010 mt 1492 1060 L
1560 1016 mt 1610 1066 L
1610 1016 mt 1560 1066 L
1628 1087 mt 1678 1137 L
1678 1087 mt 1628 1137 L
1697 1030 mt 1747 1080 L
1747 1030 mt 1697 1080 L
1766 1130 mt 1816 1180 L
1816 1130 mt 1766 1180 L
1835 1079 mt 1885 1129 L
1885 1079 mt 1835 1129 L
1903 1083 mt 1953 1133 L
1953 1083 mt 1903 1133 L
1972 1081 mt 2022 1131 L
2022 1081 mt 1972 1131 L
2041 1040 mt 2091 1090 L
2091 1040 mt 2041 1090 L
2109 1141 mt 2159 1191 L
2159 1141 mt 2109 1191 L
2177 1200 mt 2227 1250 L
2227 1200 mt 2177 1250 L
2246 1219 mt 2296 1269 L
2296 1219 mt 2246 1269 L
2315 1251 mt 2365 1301 L
2365 1251 mt 2315 1301 L
2384 1265 mt 2434 1315 L
2434 1265 mt 2384 1315 L
2452 1245 mt 2502 1295 L
2502 1245 mt 2452 1295 L
2521 1184 mt 2571 1234 L
2571 1184 mt 2521 1234 L
2589 1246 mt 2639 1296 L
2639 1246 mt 2589 1296 L
2658 1263 mt 2708 1313 L
2708 1263 mt 2658 1313 L
2726 1263 mt 2776 1313 L
2776 1263 mt 2726 1313 L
2795 1212 mt 2845 1262 L
2845 1212 mt 2795 1262 L
2864 1301 mt 2914 1351 L
2914 1301 mt 2864 1351 L
2934 1187 mt 2984 1237 L
2984 1187 mt 2934 1237 L
3001 1212 mt 3051 1262 L
3051 1212 mt 3001 1262 L
3070 1248 mt 3120 1298 L
3120 1248 mt 3070 1298 L
3139 1275 mt 3189 1325 L
3189 1275 mt 3139 1325 L
3207 1161 mt 3257 1211 L
3257 1161 mt 3207 1211 L
3276 1151 mt 3326 1201 L
3326 1151 mt 3276 1201 L
3344 1354 mt 3394 1404 L
3394 1354 mt 3344 1404 L
3414 1368 mt 3464 1418 L
3464 1368 mt 3414 1418 L
3482 1245 mt 3532 1295 L
3532 1245 mt 3482 1295 L
3550 1296 mt 3600 1346 L
3600 1296 mt 3550 1346 L
3619 1445 mt 3669 1495 L
3669 1445 mt 3619 1495 L
3688 1414 mt 3738 1464 L
3738 1414 mt 3688 1464 L
3757 1372 mt 3807 1422 L
3807 1372 mt 3757 1422 L
3825 1366 mt 3875 1416 L
3875 1366 mt 3825 1416 L
3894 1343 mt 3944 1393 L
3944 1343 mt 3894 1393 L
3963 1381 mt 4013 1431 L
4013 1381 mt 3963 1431 L
4031 1421 mt 4081 1471 L
4081 1421 mt 4031 1471 L
4099 1359 mt 4149 1409 L
4149 1359 mt 4099 1409 L
4168 1393 mt 4218 1443 L
4218 1393 mt 4168 1443 L
4237 1401 mt 4287 1451 L
4287 1401 mt 4237 1451 L
4306 1492 mt 4356 1542 L
4356 1492 mt 4306 1542 L
4375 1341 mt 4425 1391 L
4425 1341 mt 4375 1391 L
4443 1510 mt 4493 1560 L
4493 1510 mt 4443 1560 L
4511 1551 mt 4561 1601 L
4561 1551 mt 4511 1601 L
4580 1479 mt 4630 1529 L
4630 1479 mt 4580 1529 L
4649 1521 mt 4699 1571 L
4699 1521 mt 4649 1571 L
4718 1372 mt 4768 1422 L
4768 1372 mt 4718 1422 L
4786 1491 mt 4836 1541 L
4836 1491 mt 4786 1541 L
4855 1427 mt 4905 1477 L
4905 1427 mt 4855 1477 L
4923 1487 mt 4973 1537 L
4973 1487 mt 4923 1537 L
4992 1425 mt 5042 1475 L
5042 1425 mt 4992 1475 L
5061 1444 mt 5111 1494 L
5111 1444 mt 5061 1494 L
5130 1342 mt 5180 1392 L
5180 1342 mt 5130 1392 L
5198 1456 mt 5248 1506 L
5248 1456 mt 5198 1506 L
5267 1615 mt 5317 1665 L
5317 1615 mt 5267 1665 L
5335 1470 mt 5385 1520 L
5385 1470 mt 5335 1520 L
5404 1460 mt 5454 1510 L
5454 1460 mt 5404 1510 L
5475 1578 mt 5525 1628 L
5525 1578 mt 5475 1628 L
5548 1390 mt 5598 1440 L
5598 1390 mt 5548 1440 L
5623 1366 mt 5673 1416 L
5673 1366 mt 5623 1416 L
5702 1600 mt 5752 1650 L
5752 1600 mt 5702 1650 L
5791 1414 mt 5841 1464 L
5841 1414 mt 5791 1464 L
5878 1463 mt 5928 1513 L
5928 1463 mt 5878 1513 L
5968 1429 mt 6018 1479 L
6018 1429 mt 5968 1479 L
6063 1399 mt 6113 1449 L
6113 1399 mt 6063 1449 L
6165 1585 mt 6215 1635 L
6215 1585 mt 6165 1635 L
gs 899 469 5357 4147 rc
/c8 { 1.000000 0.000000 0.000000 sr} bdef
c8
899 469 PD
53 0 899 469 2 MP stroke
53 0 899 469 2 MP stroke
0 296 934 974 2 MP stroke
89 0 899 974 2 MP stroke
89 0 899 1270 2 MP stroke
0 398 970 1309 2 MP stroke
107 0 916 1309 2 MP stroke
107 0 916 1707 2 MP stroke
0 400 1006 1644 2 MP stroke
107 0 952 1644 2 MP stroke
107 0 952 2044 2 MP stroke
0 448 1041 1912 2 MP stroke
107 0 988 1912 2 MP stroke
107 0 988 2360 2 MP stroke
0 505 1077 2145 2 MP stroke
108 0 1023 2145 2 MP stroke
108 0 1023 2650 2 MP stroke
0 550 1113 2363 2 MP stroke
107 0 1059 2363 2 MP stroke
107 0 1059 2913 2 MP stroke
0 585 1148 2557 2 MP stroke
107 0 1095 2557 2 MP stroke
107 0 1095 3142 2 MP stroke
0 515 1184 2792 2 MP stroke
107 0 1131 2792 2 MP stroke
107 0 1131 3307 2 MP stroke
0 554 1220 2956 2 MP stroke
107 0 1166 2956 2 MP stroke
107 0 1166 3510 2 MP stroke
0 541 1256 3116 2 MP stroke
107 0 1202 3116 2 MP stroke
107 0 1202 3657 2 MP stroke
0 537 1291 3228 2 MP stroke
107 0 1238 3228 2 MP stroke
107 0 1238 3765 2 MP stroke
0 545 1327 3344 2 MP stroke
108 0 1273 3344 2 MP stroke
108 0 1273 3889 2 MP stroke
0 532 1363 3432 2 MP stroke
107 0 1309 3432 2 MP stroke
107 0 1309 3964 2 MP stroke
0 496 1398 3527 2 MP stroke
107 0 1345 3527 2 MP stroke
107 0 1345 4023 2 MP stroke
0 470 1434 3617 2 MP stroke
107 0 1381 3617 2 MP stroke
107 0 1381 4087 2 MP stroke
0 395 1470 3718 2 MP stroke
107 0 1416 3718 2 MP stroke
107 0 1416 4113 2 MP stroke
0 406 1506 3777 2 MP stroke
107 0 1452 3777 2 MP stroke
107 0 1452 4183 2 MP stroke
0 367 1541 3860 2 MP stroke
107 0 1488 3860 2 MP stroke
107 0 1488 4227 2 MP stroke
0 326 1577 3936 2 MP stroke
107 0 1523 3936 2 MP stroke
107 0 1523 4262 2 MP stroke
0 337 1613 3971 2 MP stroke
107 0 1559 3971 2 MP stroke
107 0 1559 4308 2 MP stroke
0 317 1648 4032 2 MP stroke
107 0 1595 4032 2 MP stroke
107 0 1595 4349 2 MP stroke
0 326 1684 4053 2 MP stroke
108 0 1630 4053 2 MP stroke
108 0 1630 4379 2 MP stroke
0 309 1720 4097 2 MP stroke
107 0 1666 4097 2 MP stroke
107 0 1666 4406 2 MP stroke
0 270 1755 4151 2 MP stroke
107 0 1702 4151 2 MP stroke
107 0 1702 4421 2 MP stroke
0 259 1791 4186 2 MP stroke
107 0 1738 4186 2 MP stroke
107 0 1738 4445 2 MP stroke
0 237 1827 4212 2 MP stroke
107 0 1773 4212 2 MP stroke
107 0 1773 4449 2 MP stroke
0 246 1863 4225 2 MP stroke
107 0 1809 4225 2 MP stroke
107 0 1809 4471 2 MP stroke
0 240 1898 4236 2 MP stroke
107 0 1845 4236 2 MP stroke
107 0 1845 4476 2 MP stroke
0 223 1934 4256 2 MP stroke
108 0 1880 4256 2 MP stroke
108 0 1880 4479 2 MP stroke
0 215 1970 4274 2 MP stroke
107 0 1916 4274 2 MP stroke
107 0 1916 4489 2 MP stroke
0 210 2005 4292 2 MP stroke
107 0 1952 4292 2 MP stroke
107 0 1952 4502 2 MP stroke
0 199 2041 4304 2 MP stroke
107 0 1988 4304 2 MP stroke
107 0 1988 4503 2 MP stroke
0 196 2077 4326 2 MP stroke
107 0 2023 4326 2 MP stroke
107 0 2023 4522 2 MP stroke
0 204 2113 4325 2 MP stroke
107 0 2059 4325 2 MP stroke
107 0 2059 4529 2 MP stroke
0 199 2148 4336 2 MP stroke
107 0 2095 4336 2 MP stroke
107 0 2095 4535 2 MP stroke
0 198 2184 4329 2 MP stroke
108 0 2130 4329 2 MP stroke
108 0 2130 4527 2 MP stroke
0 198 2220 4344 2 MP stroke
107 0 2166 4344 2 MP stroke
107 0 2166 4542 2 MP stroke
0 166 2255 4371 2 MP stroke
107 0 2202 4371 2 MP stroke
107 0 2202 4537 2 MP stroke
0 171 2291 4367 2 MP stroke
107 0 2238 4367 2 MP stroke
107 0 2238 4538 2 MP stroke
0 177 2327 4374 2 MP stroke
107 0 2273 4374 2 MP stroke
107 0 2273 4551 2 MP stroke
0 169 2362 4384 2 MP stroke
107 0 2309 4384 2 MP stroke
107 0 2309 4553 2 MP stroke
0 163 2398 4385 2 MP stroke
107 0 2345 4385 2 MP stroke
107 0 2345 4548 2 MP stroke
0 182 2434 4373 2 MP stroke
107 0 2380 4373 2 MP stroke
107 0 2380 4555 2 MP stroke
0 184 2470 4375 2 MP stroke
107 0 2416 4375 2 MP stroke
107 0 2416 4559 2 MP stroke
0 175 2505 4385 2 MP stroke
107 0 2452 4385 2 MP stroke
107 0 2452 4560 2 MP stroke
0 169 2541 4393 2 MP stroke
108 0 2487 4393 2 MP stroke
108 0 2487 4562 2 MP stroke
0 160 2577 4399 2 MP stroke
107 0 2523 4399 2 MP stroke
107 0 2523 4559 2 MP stroke
0 178 2612 4406 2 MP stroke
107 0 2559 4406 2 MP stroke
107 0 2559 4584 2 MP stroke
0 170 2648 4422 2 MP stroke
107 0 2595 4422 2 MP stroke
107 0 2595 4592 2 MP stroke
0 169 2684 4422 2 MP stroke
107 0 2630 4422 2 MP stroke
107 0 2630 4591 2 MP stroke
0 145 2720 4444 2 MP stroke
107 0 2666 4444 2 MP stroke
107 0 2666 4589 2 MP stroke
0 145 2755 4445 2 MP stroke
107 0 2702 4445 2 MP stroke
107 0 2702 4590 2 MP stroke
0 133 2791 4448 2 MP stroke
108 0 2737 4448 2 MP stroke
108 0 2737 4581 2 MP stroke
0 131 2827 4452 2 MP stroke
107 0 2773 4452 2 MP stroke
107 0 2773 4583 2 MP stroke
0 127 2862 4452 2 MP stroke
107 0 2809 4452 2 MP stroke
107 0 2809 4579 2 MP stroke
0 126 2898 4449 2 MP stroke
107 0 2845 4449 2 MP stroke
107 0 2845 4575 2 MP stroke
0 128 2934 4449 2 MP stroke
107 0 2880 4449 2 MP stroke
107 0 2880 4577 2 MP stroke
0 110 2969 4458 2 MP stroke
107 0 2916 4458 2 MP stroke
107 0 2916 4568 2 MP stroke
0 116 3005 4456 2 MP stroke
107 0 2952 4456 2 MP stroke
107 0 2952 4572 2 MP stroke
0 119 3041 4449 2 MP stroke
107 0 2987 4449 2 MP stroke
107 0 2987 4568 2 MP stroke
0 121 3077 4451 2 MP stroke
107 0 3023 4451 2 MP stroke
107 0 3023 4572 2 MP stroke
0 116 3112 4459 2 MP stroke
107 0 3059 4459 2 MP stroke
107 0 3059 4575 2 MP stroke
0 112 3148 4460 2 MP stroke
108 0 3094 4460 2 MP stroke
108 0 3094 4572 2 MP stroke
0 123 3184 4457 2 MP stroke
107 0 3130 4457 2 MP stroke
107 0 3130 4580 2 MP stroke
0 139 3219 4440 2 MP stroke
107 0 3166 4440 2 MP stroke
107 0 3166 4579 2 MP stroke
0 124 3255 4453 2 MP stroke
107 0 3202 4453 2 MP stroke
107 0 3202 4577 2 MP stroke
0 125 3291 4454 2 MP stroke
107 0 3237 4454 2 MP stroke
107 0 3237 4579 2 MP stroke
0 124 3327 4458 2 MP stroke
107 0 3273 4458 2 MP stroke
107 0 3273 4582 2 MP stroke
0 142 3362 4446 2 MP stroke
107 0 3309 4446 2 MP stroke
107 0 3309 4588 2 MP stroke
0 155 3398 4439 2 MP stroke
108 0 3344 4439 2 MP stroke
108 0 3344 4594 2 MP stroke
0 144 3434 4456 2 MP stroke
107 0 3380 4456 2 MP stroke
107 0 3380 4600 2 MP stroke
0 129 3469 4471 2 MP stroke
107 0 3416 4471 2 MP stroke
107 0 3416 4600 2 MP stroke
0 124 3505 4477 2 MP stroke
107 0 3452 4477 2 MP stroke
107 0 3452 4601 2 MP stroke
0 127 3541 4467 2 MP stroke
107 0 3487 4467 2 MP stroke
107 0 3487 4594 2 MP stroke
0 113 3577 4473 2 MP stroke
107 0 3523 4473 2 MP stroke
107 0 3523 4586 2 MP stroke
0 140 3612 4464 2 MP stroke
107 0 3559 4464 2 MP stroke
107 0 3559 4604 2 MP stroke
0 150 3648 4449 2 MP stroke
107 0 3594 4449 2 MP stroke
107 0 3594 4599 2 MP stroke
0 155 3684 4446 2 MP stroke
107 0 3630 4446 2 MP stroke
107 0 3630 4601 2 MP stroke
0 141 3719 4464 2 MP stroke
107 0 3666 4464 2 MP stroke
107 0 3666 4605 2 MP stroke
0 159 3755 4453 2 MP stroke
108 0 3701 4453 2 MP stroke
108 0 3701 4612 2 MP stroke
0 142 3791 4464 2 MP stroke
107 0 3737 4464 2 MP stroke
107 0 3737 4606 2 MP stroke
0 149 3826 4456 2 MP stroke
107 0 3773 4456 2 MP stroke
107 0 3773 4605 2 MP stroke
0 150 3862 4459 2 MP stroke
107 0 3809 4459 2 MP stroke
107 0 3809 4609 2 MP stroke
0 159 3898 4455 2 MP stroke
107 0 3844 4455 2 MP stroke
107 0 3844 4614 2 MP stroke
0 161 3934 4455 2 MP stroke
107 0 3880 4455 2 MP stroke
0 146 3969 4461 2 MP stroke
107 0 3916 4461 2 MP stroke
107 0 3916 4607 2 MP stroke
0 141 4005 4465 2 MP stroke
108 0 3951 4465 2 MP stroke
108 0 3951 4606 2 MP stroke
0 149 4041 4466 2 MP stroke
107 0 3987 4466 2 MP stroke
107 0 3987 4615 2 MP stroke
0 139 4076 4477 2 MP stroke
107 0 4023 4477 2 MP stroke
0 146 4112 4467 2 MP stroke
107 0 4059 4467 2 MP stroke
107 0 4059 4613 2 MP stroke
0 134 4148 4471 2 MP stroke
107 0 4094 4471 2 MP stroke
107 0 4094 4605 2 MP stroke
0 134 4184 4469 2 MP stroke
107 0 4130 4469 2 MP stroke
107 0 4130 4603 2 MP stroke
0 126 4219 4477 2 MP stroke
107 0 4166 4477 2 MP stroke
107 0 4166 4603 2 MP stroke
0 113 4255 4483 2 MP stroke
107 0 4201 4483 2 MP stroke
107 0 4201 4596 2 MP stroke
0 124 4291 4477 2 MP stroke
107 0 4237 4477 2 MP stroke
107 0 4237 4601 2 MP stroke
0 136 4326 4471 2 MP stroke
107 0 4273 4471 2 MP stroke
107 0 4273 4607 2 MP stroke
0 126 4362 4479 2 MP stroke
108 0 4308 4479 2 MP stroke
108 0 4308 4605 2 MP stroke
0 110 4398 4490 2 MP stroke
107 0 4344 4490 2 MP stroke
107 0 4344 4600 2 MP stroke
0 116 4433 4478 2 MP stroke
107 0 4380 4478 2 MP stroke
107 0 4380 4594 2 MP stroke
0 124 4469 4470 2 MP stroke
107 0 4416 4470 2 MP stroke
107 0 4416 4594 2 MP stroke
0 121 4505 4483 2 MP stroke
107 0 4451 4483 2 MP stroke
107 0 4451 4604 2 MP stroke
0 126 4541 4476 2 MP stroke
107 0 4487 4476 2 MP stroke
107 0 4487 4602 2 MP stroke
0 123 4576 4476 2 MP stroke
107 0 4523 4476 2 MP stroke
107 0 4523 4599 2 MP stroke
0 145 4612 4462 2 MP stroke
108 0 4558 4462 2 MP stroke
108 0 4558 4607 2 MP stroke
0 168 4648 4448 2 MP stroke
107 0 4594 4448 2 MP stroke
0 165 4683 4451 2 MP stroke
107 0 4630 4451 2 MP stroke
0 161 4719 4455 2 MP stroke
107 0 4666 4455 2 MP stroke
0 168 4755 4448 2 MP stroke
107 0 4701 4448 2 MP stroke
0 161 4791 4453 2 MP stroke
107 0 4737 4453 2 MP stroke
107 0 4737 4614 2 MP stroke
0 153 4826 4453 2 MP stroke
107 0 4773 4453 2 MP stroke
107 0 4773 4606 2 MP stroke
0 139 4862 4457 2 MP stroke
108 0 4808 4457 2 MP stroke
108 0 4808 4596 2 MP stroke
0 142 4898 4461 2 MP stroke
107 0 4844 4461 2 MP stroke
107 0 4844 4603 2 MP stroke
0 147 4933 4455 2 MP stroke
107 0 4880 4455 2 MP stroke
107 0 4880 4602 2 MP stroke
0 160 4969 4443 2 MP stroke
107 0 4916 4443 2 MP stroke
107 0 4916 4603 2 MP stroke
0 157 5005 4437 2 MP stroke
107 0 4951 4437 2 MP stroke
107 0 4951 4594 2 MP stroke
0 149 5040 4439 2 MP stroke
107 0 4987 4439 2 MP stroke
107 0 4987 4588 2 MP stroke
0 148 5076 4437 2 MP stroke
107 0 5023 4437 2 MP stroke
107 0 5023 4585 2 MP stroke
0 140 5112 4443 2 MP stroke
107 0 5058 4443 2 MP stroke
107 0 5058 4583 2 MP stroke
0 124 5148 4449 2 MP stroke
107 0 5094 4449 2 MP stroke
107 0 5094 4573 2 MP stroke
0 125 5183 4449 2 MP stroke
107 0 5130 4449 2 MP stroke
107 0 5130 4574 2 MP stroke
0 124 5219 4451 2 MP stroke
108 0 5165 4451 2 MP stroke
108 0 5165 4575 2 MP stroke
0 135 5255 4447 2 MP stroke
107 0 5201 4447 2 MP stroke
107 0 5201 4582 2 MP stroke
0 135 5290 4449 2 MP stroke
107 0 5237 4449 2 MP stroke
107 0 5237 4584 2 MP stroke
0 140 5326 4446 2 MP stroke
107 0 5273 4446 2 MP stroke
107 0 5273 4586 2 MP stroke
0 132 5362 4460 2 MP stroke
107 0 5308 4460 2 MP stroke
107 0 5308 4592 2 MP stroke
0 136 5398 4454 2 MP stroke
107 0 5344 4454 2 MP stroke
107 0 5344 4590 2 MP stroke
0 135 5433 4451 2 MP stroke
107 0 5380 4451 2 MP stroke
107 0 5380 4586 2 MP stroke
0 131 5469 4455 2 MP stroke
108 0 5415 4455 2 MP stroke
108 0 5415 4586 2 MP stroke
0 132 5505 4458 2 MP stroke
107 0 5451 4458 2 MP stroke
107 0 5451 4590 2 MP stroke
0 123 5540 4463 2 MP stroke
107 0 5487 4463 2 MP stroke
107 0 5487 4586 2 MP stroke
0 134 5576 4455 2 MP stroke
107 0 5523 4455 2 MP stroke
107 0 5523 4589 2 MP stroke
0 141 5612 4447 2 MP stroke
107 0 5558 4447 2 MP stroke
107 0 5558 4588 2 MP stroke
0 135 5647 4454 2 MP stroke
107 0 5594 4454 2 MP stroke
107 0 5594 4589 2 MP stroke
0 141 5683 4459 2 MP stroke
107 0 5630 4459 2 MP stroke
107 0 5630 4600 2 MP stroke
0 136 5719 4460 2 MP stroke
107 0 5665 4460 2 MP stroke
107 0 5665 4596 2 MP stroke
0 122 5755 4475 2 MP stroke
107 0 5701 4475 2 MP stroke
107 0 5701 4597 2 MP stroke
0 127 5790 4474 2 MP stroke
107 0 5737 4474 2 MP stroke
107 0 5737 4601 2 MP stroke
0 138 5826 4470 2 MP stroke
108 0 5772 4470 2 MP stroke
108 0 5772 4608 2 MP stroke
0 128 5862 4478 2 MP stroke
107 0 5808 4478 2 MP stroke
107 0 5808 4606 2 MP stroke
0 123 5897 4482 2 MP stroke
107 0 5844 4482 2 MP stroke
107 0 5844 4605 2 MP stroke
0 124 5933 4480 2 MP stroke
107 0 5880 4480 2 MP stroke
107 0 5880 4604 2 MP stroke
0 136 5969 4469 2 MP stroke
107 0 5915 4469 2 MP stroke
107 0 5915 4605 2 MP stroke
0 152 6005 4455 2 MP stroke
107 0 5951 4455 2 MP stroke
107 0 5951 4607 2 MP stroke
0 146 6040 4461 2 MP stroke
107 0 5987 4461 2 MP stroke
107 0 5987 4607 2 MP stroke
0 139 6076 4466 2 MP stroke
108 0 6022 4466 2 MP stroke
108 0 6022 4605 2 MP stroke
0 150 6112 4456 2 MP stroke
107 0 6058 4456 2 MP stroke
107 0 6058 4606 2 MP stroke
0 145 6147 4460 2 MP stroke
107 0 6094 4460 2 MP stroke
107 0 6094 4605 2 MP stroke
0 143 6183 4464 2 MP stroke
107 0 6130 4464 2 MP stroke
107 0 6130 4607 2 MP stroke
0 163 6219 4448 2 MP stroke
91 0 6165 4448 2 MP stroke
91 0 6165 4611 2 MP stroke
0 161 6255 4448 2 MP stroke
55 0 6201 4448 2 MP stroke
55 0 6201 4609 2 MP stroke
36 -2 36 -6 36 4 35 1 36 -5 36 2 35 3 36 -6 
36 -5 36 -1 35 1 36 3 36 1 35 2 36 8 36 -2 
36 9 35 3 36 -4 36 -3 35 1 36 4 36 2 35 -4 
36 -4 36 10 36 -1 35 3 36 1 36 2 35 0 36 -2 
36 2 36 -3 35 -1 36 -8 36 -6 35 -3 36 6 36 -4 
35 -4 36 -3 36 -2 36 1 35 3 36 1 36 -4 35 -1 
36 -4 36 11 36 -4 35 -9 36 3 36 3 35 0 36 -1 
36 0 35 4 36 -2 36 -2 36 -7 35 7 36 5 36 1 
35 -1 36 0 36 1 36 3 35 -4 36 2 36 -1 35 11 
36 -1 36 -10 35 5 36 -2 36 -8 36 3 35 8 36 12 
36 -1 35 -3 36 3 36 2 36 6 35 -9 36 2 36 -1 
35 5 36 4 36 -6 36 1 35 0 36 1 36 -4 35 -2 
36 3 36 -2 35 1 36 10 36 -1 36 12 35 16 36 1 
36 5 35 6 36 3 36 -3 36 -2 35 6 36 11 36 -2 
35 11 36 15 36 -8 35 9 36 3 36 21 36 6 35 16 
36 14 36 11 35 8 36 18 36 15 36 29 35 35 36 35 
36 25 35 52 36 40 36 55 35 64 36 64 36 64 36 77 
35 77 36 82 36 119 35 110 36 154 36 184 36 199 35 212 
36 240 36 262 35 292 36 336 36 386 35 653 899 469 151 MP stroke
gr

c8
  36   36  899  469 FO
  36   36  934 1122 FO
  36   36  970 1508 FO
  36   36 1006 1844 FO
  36   36 1041 2136 FO
  36   36 1077 2398 FO
  36   36 1113 2638 FO
  36   36 1148 2850 FO
  36   36 1184 3049 FO
  36   36 1220 3233 FO
  36   36 1256 3387 FO
  36   36 1291 3497 FO
  36   36 1327 3616 FO
  36   36 1363 3698 FO
  36   36 1398 3775 FO
  36   36 1434 3852 FO
  36   36 1470 3916 FO
  36   36 1506 3980 FO
  36   36 1541 4044 FO
  36   36 1577 4099 FO
  36   36 1613 4139 FO
  36   36 1648 4191 FO
  36   36 1684 4216 FO
  36   36 1720 4251 FO
  36   36 1755 4286 FO
  36   36 1791 4315 FO
  36   36 1827 4330 FO
  36   36 1863 4348 FO
  36   36 1898 4356 FO
  36   36 1934 4367 FO
  36   36 1970 4381 FO
  36   36 2005 4397 FO
  36   36 2041 4403 FO
  36   36 2077 4424 FO
  36   36 2113 4427 FO
  36   36 2148 4436 FO
  36   36 2184 4428 FO
  36   36 2220 4443 FO
  36   36 2255 4454 FO
  36   36 2291 4452 FO
  36   36 2327 4463 FO
  36   36 2362 4469 FO
  36   36 2398 4467 FO
  36   36 2434 4464 FO
  36   36 2470 4467 FO
  36   36 2505 4473 FO
  36   36 2541 4478 FO
  36   36 2577 4479 FO
  36   36 2612 4495 FO
  36   36 2648 4507 FO
  36   36 2684 4506 FO
  36   36 2720 4516 FO
  36   36 2755 4517 FO
  36   36 2791 4515 FO
  36   36 2827 4518 FO
  36   36 2862 4516 FO
  36   36 2898 4512 FO
  36   36 2934 4513 FO
  36   36 2969 4513 FO
  36   36 3005 4514 FO
  36   36 3041 4508 FO
  36   36 3077 4512 FO
  36   36 3112 4517 FO
  36   36 3148 4516 FO
  36   36 3184 4518 FO
  36   36 3219 4509 FO
  36   36 3255 4515 FO
  36   36 3291 4517 FO
  36   36 3327 4520 FO
  36   36 3362 4517 FO
  36   36 3398 4516 FO
  36   36 3434 4528 FO
  36   36 3469 4536 FO
  36   36 3505 4539 FO
  36   36 3541 4531 FO
  36   36 3577 4529 FO
  36   36 3612 4534 FO
  36   36 3648 4524 FO
  36   36 3684 4523 FO
  36   36 3719 4534 FO
  36   36 3755 4533 FO
  36   36 3791 4535 FO
  36   36 3826 4531 FO
  36   36 3862 4534 FO
  36   36 3898 4535 FO
  36   36 3934 4535 FO
  36   36 3969 4534 FO
  36   36 4005 4535 FO
  36   36 4041 4540 FO
  36   36 4076 4547 FO
  36   36 4112 4540 FO
  36   36 4148 4538 FO
  36   36 4184 4536 FO
  36   36 4219 4540 FO
  36   36 4255 4540 FO
  36   36 4291 4539 FO
  36   36 4326 4539 FO
  36   36 4362 4542 FO
  36   36 4398 4545 FO
  36   36 4433 4536 FO
  36   36 4469 4532 FO
  36   36 4505 4543 FO
  36   36 4541 4539 FO
  36   36 4576 4538 FO
  36   36 4612 4534 FO
  36   36 4648 4535 FO
  36   36 4683 4538 FO
  36   36 4719 4539 FO
  36   36 4755 4537 FO
  36   36 4791 4534 FO
  36   36 4826 4530 FO
  36   36 4862 4526 FO
  36   36 4898 4532 FO
  36   36 4933 4529 FO
  36   36 4969 4523 FO
  36   36 5005 4515 FO
  36   36 5040 4514 FO
  36   36 5076 4511 FO
  36   36 5112 4513 FO
  36   36 5148 4511 FO
  36   36 5183 4511 FO
  36   36 5219 4513 FO
  36   36 5255 4514 FO
  36   36 5290 4517 FO
  36   36 5326 4516 FO
  36   36 5362 4526 FO
  36   36 5398 4522 FO
  36   36 5433 4518 FO
  36   36 5469 4520 FO
  36   36 5505 4524 FO
  36   36 5540 4525 FO
  36   36 5576 4522 FO
  36   36 5612 4518 FO
  36   36 5647 4521 FO
  36   36 5683 4530 FO
  36   36 5719 4528 FO
  36   36 5755 4536 FO
  36   36 5790 4538 FO
  36   36 5826 4539 FO
  36   36 5862 4542 FO
  36   36 5897 4543 FO
  36   36 5933 4542 FO
  36   36 5969 4537 FO
  36   36 6005 4531 FO
  36   36 6040 4534 FO
  36   36 6076 4536 FO
  36   36 6112 4531 FO
  36   36 6147 4532 FO
  36   36 6183 4536 FO
  36   36 6219 4530 FO
  36   36 6255 4528 FO
gs 899 469 5357 4147 rc
/c9 { 0.000000 0.500000 0.000000 sr} bdef
c9
899 469 PD
53 0 899 469 2 MP stroke
53 0 899 469 2 MP stroke
0 49 934 469 2 MP stroke
89 0 899 518 2 MP stroke
0 56 970 469 2 MP stroke
107 0 916 525 2 MP stroke
0 79 1006 469 2 MP stroke
107 0 952 548 2 MP stroke
0 86 1041 469 2 MP stroke
107 0 988 555 2 MP stroke
0 100 1077 469 2 MP stroke
108 0 1023 569 2 MP stroke
0 101 1113 469 2 MP stroke
107 0 1059 570 2 MP stroke
0 122 1148 469 2 MP stroke
107 0 1095 591 2 MP stroke
0 118 1184 469 2 MP stroke
107 0 1131 587 2 MP stroke
0 113 1220 469 2 MP stroke
107 0 1166 582 2 MP stroke
0 122 1256 469 2 MP stroke
107 0 1202 591 2 MP stroke
0 129 1291 469 2 MP stroke
107 0 1238 598 2 MP stroke
0 128 1327 469 2 MP stroke
108 0 1273 597 2 MP stroke
0 142 1363 469 2 MP stroke
107 0 1309 611 2 MP stroke
0 157 1398 469 2 MP stroke
107 0 1345 626 2 MP stroke
0 155 1434 469 2 MP stroke
107 0 1381 624 2 MP stroke
0 172 1470 469 2 MP stroke
107 0 1416 641 2 MP stroke
0 179 1506 469 2 MP stroke
107 0 1452 648 2 MP stroke
0 179 1541 469 2 MP stroke
107 0 1488 648 2 MP stroke
0 207 1577 469 2 MP stroke
107 0 1523 676 2 MP stroke
0 211 1613 469 2 MP stroke
107 0 1559 680 2 MP stroke
0 217 1648 469 2 MP stroke
107 0 1595 686 2 MP stroke
0 232 1684 469 2 MP stroke
108 0 1630 701 2 MP stroke
0 252 1720 469 2 MP stroke
107 0 1666 721 2 MP stroke
0 269 1755 469 2 MP stroke
107 0 1702 738 2 MP stroke
0 275 1791 469 2 MP stroke
107 0 1738 744 2 MP stroke
0 283 1827 469 2 MP stroke
107 0 1773 752 2 MP stroke
0 296 1863 469 2 MP stroke
107 0 1809 765 2 MP stroke
0 309 1898 469 2 MP stroke
107 0 1845 778 2 MP stroke
0 314 1934 469 2 MP stroke
108 0 1880 783 2 MP stroke
0 331 1970 469 2 MP stroke
107 0 1916 800 2 MP stroke
0 339 2005 469 2 MP stroke
107 0 1952 469 2 MP stroke
107 0 1952 808 2 MP stroke
0 343 2041 480 2 MP stroke
107 0 1988 480 2 MP stroke
107 0 1988 823 2 MP stroke
0 348 2077 483 2 MP stroke
107 0 2023 483 2 MP stroke
107 0 2023 831 2 MP stroke
0 349 2113 491 2 MP stroke
107 0 2059 491 2 MP stroke
107 0 2059 840 2 MP stroke
0 368 2148 491 2 MP stroke
107 0 2095 491 2 MP stroke
107 0 2095 859 2 MP stroke
0 376 2184 514 2 MP stroke
108 0 2130 514 2 MP stroke
108 0 2130 890 2 MP stroke
0 380 2220 522 2 MP stroke
107 0 2166 522 2 MP stroke
107 0 2166 902 2 MP stroke
0 381 2255 529 2 MP stroke
107 0 2202 529 2 MP stroke
107 0 2202 910 2 MP stroke
0 384 2291 533 2 MP stroke
107 0 2238 533 2 MP stroke
107 0 2238 917 2 MP stroke
0 398 2327 532 2 MP stroke
107 0 2273 532 2 MP stroke
107 0 2273 930 2 MP stroke
0 397 2362 536 2 MP stroke
107 0 2309 536 2 MP stroke
107 0 2309 933 2 MP stroke
0 397 2398 551 2 MP stroke
107 0 2345 551 2 MP stroke
107 0 2345 948 2 MP stroke
0 388 2434 566 2 MP stroke
107 0 2380 566 2 MP stroke
107 0 2380 954 2 MP stroke
0 385 2470 571 2 MP stroke
107 0 2416 571 2 MP stroke
107 0 2416 956 2 MP stroke
0 392 2505 573 2 MP stroke
107 0 2452 573 2 MP stroke
107 0 2452 965 2 MP stroke
0 394 2541 582 2 MP stroke
108 0 2487 582 2 MP stroke
108 0 2487 976 2 MP stroke
0 392 2577 592 2 MP stroke
107 0 2523 592 2 MP stroke
107 0 2523 984 2 MP stroke
0 395 2612 590 2 MP stroke
107 0 2559 590 2 MP stroke
107 0 2559 985 2 MP stroke
0 409 2648 591 2 MP stroke
107 0 2595 591 2 MP stroke
107 0 2595 1000 2 MP stroke
0 422 2684 596 2 MP stroke
107 0 2630 596 2 MP stroke
107 0 2630 1018 2 MP stroke
0 426 2720 595 2 MP stroke
107 0 2666 595 2 MP stroke
107 0 2666 1021 2 MP stroke
0 434 2755 598 2 MP stroke
107 0 2702 598 2 MP stroke
107 0 2702 1032 2 MP stroke
0 429 2791 612 2 MP stroke
108 0 2737 612 2 MP stroke
108 0 2737 1041 2 MP stroke
0 419 2827 620 2 MP stroke
107 0 2773 620 2 MP stroke
107 0 2773 1039 2 MP stroke
0 422 2862 629 2 MP stroke
107 0 2809 629 2 MP stroke
107 0 2809 1051 2 MP stroke
0 421 2898 643 2 MP stroke
107 0 2845 643 2 MP stroke
107 0 2845 1064 2 MP stroke
0 440 2934 638 2 MP stroke
107 0 2880 638 2 MP stroke
107 0 2880 1078 2 MP stroke
0 437 2969 649 2 MP stroke
107 0 2916 649 2 MP stroke
107 0 2916 1086 2 MP stroke
0 438 3005 655 2 MP stroke
107 0 2952 655 2 MP stroke
107 0 2952 1093 2 MP stroke
0 431 3041 671 2 MP stroke
107 0 2987 671 2 MP stroke
107 0 2987 1102 2 MP stroke
0 437 3077 678 2 MP stroke
107 0 3023 678 2 MP stroke
107 0 3023 1115 2 MP stroke
0 439 3112 680 2 MP stroke
107 0 3059 680 2 MP stroke
107 0 3059 1119 2 MP stroke
0 446 3148 684 2 MP stroke
108 0 3094 684 2 MP stroke
108 0 3094 1130 2 MP stroke
0 461 3184 684 2 MP stroke
107 0 3130 684 2 MP stroke
107 0 3130 1145 2 MP stroke
0 467 3219 694 2 MP stroke
107 0 3166 694 2 MP stroke
107 0 3166 1161 2 MP stroke
0 468 3255 697 2 MP stroke
107 0 3202 697 2 MP stroke
107 0 3202 1165 2 MP stroke
0 467 3291 699 2 MP stroke
107 0 3237 699 2 MP stroke
107 0 3237 1166 2 MP stroke
0 463 3327 710 2 MP stroke
107 0 3273 710 2 MP stroke
107 0 3273 1173 2 MP stroke
0 467 3362 719 2 MP stroke
107 0 3309 719 2 MP stroke
107 0 3309 1186 2 MP stroke
0 469 3398 724 2 MP stroke
108 0 3344 724 2 MP stroke
108 0 3344 1193 2 MP stroke
0 476 3434 723 2 MP stroke
107 0 3380 723 2 MP stroke
107 0 3380 1199 2 MP stroke
0 478 3469 724 2 MP stroke
107 0 3416 724 2 MP stroke
107 0 3416 1202 2 MP stroke
0 480 3505 727 2 MP stroke
107 0 3452 727 2 MP stroke
107 0 3452 1207 2 MP stroke
0 484 3541 737 2 MP stroke
107 0 3487 737 2 MP stroke
107 0 3487 1221 2 MP stroke
0 478 3577 752 2 MP stroke
107 0 3523 752 2 MP stroke
107 0 3523 1230 2 MP stroke
0 475 3612 763 2 MP stroke
107 0 3559 763 2 MP stroke
107 0 3559 1238 2 MP stroke
0 489 3648 771 2 MP stroke
107 0 3594 771 2 MP stroke
107 0 3594 1260 2 MP stroke
0 493 3684 782 2 MP stroke
107 0 3630 782 2 MP stroke
107 0 3630 1275 2 MP stroke
0 495 3719 787 2 MP stroke
107 0 3666 787 2 MP stroke
107 0 3666 1282 2 MP stroke
0 509 3755 792 2 MP stroke
108 0 3701 792 2 MP stroke
108 0 3701 1301 2 MP stroke
0 522 3791 792 2 MP stroke
107 0 3737 792 2 MP stroke
107 0 3737 1314 2 MP stroke
0 515 3826 805 2 MP stroke
107 0 3773 805 2 MP stroke
107 0 3773 1320 2 MP stroke
0 523 3862 807 2 MP stroke
107 0 3809 807 2 MP stroke
107 0 3809 1330 2 MP stroke
0 533 3898 810 2 MP stroke
107 0 3844 810 2 MP stroke
107 0 3844 1343 2 MP stroke
0 533 3934 817 2 MP stroke
107 0 3880 817 2 MP stroke
107 0 3880 1350 2 MP stroke
0 543 3969 820 2 MP stroke
107 0 3916 820 2 MP stroke
107 0 3916 1363 2 MP stroke
0 537 4005 826 2 MP stroke
108 0 3951 826 2 MP stroke
108 0 3951 1363 2 MP stroke
0 535 4041 829 2 MP stroke
107 0 3987 829 2 MP stroke
107 0 3987 1364 2 MP stroke
0 551 4076 825 2 MP stroke
107 0 4023 825 2 MP stroke
107 0 4023 1376 2 MP stroke
0 556 4112 833 2 MP stroke
107 0 4059 833 2 MP stroke
107 0 4059 1389 2 MP stroke
0 547 4148 846 2 MP stroke
107 0 4094 846 2 MP stroke
107 0 4094 1393 2 MP stroke
0 540 4184 851 2 MP stroke
107 0 4130 851 2 MP stroke
107 0 4130 1391 2 MP stroke
0 547 4219 855 2 MP stroke
107 0 4166 855 2 MP stroke
107 0 4166 1402 2 MP stroke
0 544 4255 862 2 MP stroke
107 0 4201 862 2 MP stroke
107 0 4201 1406 2 MP stroke
0 551 4291 865 2 MP stroke
107 0 4237 865 2 MP stroke
107 0 4237 1416 2 MP stroke
0 565 4326 865 2 MP stroke
107 0 4273 865 2 MP stroke
107 0 4273 1430 2 MP stroke
0 571 4362 867 2 MP stroke
108 0 4308 867 2 MP stroke
108 0 4308 1438 2 MP stroke
0 589 4398 869 2 MP stroke
107 0 4344 869 2 MP stroke
107 0 4344 1458 2 MP stroke
0 583 4433 886 2 MP stroke
107 0 4380 886 2 MP stroke
107 0 4380 1469 2 MP stroke
0 603 4469 887 2 MP stroke
107 0 4416 887 2 MP stroke
107 0 4416 1490 2 MP stroke
0 600 4505 887 2 MP stroke
107 0 4451 887 2 MP stroke
107 0 4451 1487 2 MP stroke
0 604 4541 895 2 MP stroke
107 0 4487 895 2 MP stroke
107 0 4487 1499 2 MP stroke
0 611 4576 898 2 MP stroke
107 0 4523 898 2 MP stroke
107 0 4523 1509 2 MP stroke
0 610 4612 907 2 MP stroke
108 0 4558 907 2 MP stroke
108 0 4558 1517 2 MP stroke
0 617 4648 915 2 MP stroke
107 0 4594 915 2 MP stroke
107 0 4594 1532 2 MP stroke
0 608 4683 923 2 MP stroke
107 0 4630 923 2 MP stroke
107 0 4630 1531 2 MP stroke
0 608 4719 925 2 MP stroke
107 0 4666 925 2 MP stroke
107 0 4666 1533 2 MP stroke
0 621 4755 927 2 MP stroke
107 0 4701 927 2 MP stroke
107 0 4701 1548 2 MP stroke
0 620 4791 938 2 MP stroke
107 0 4737 938 2 MP stroke
107 0 4737 1558 2 MP stroke
0 601 4826 960 2 MP stroke
107 0 4773 960 2 MP stroke
107 0 4773 1561 2 MP stroke
0 612 4862 966 2 MP stroke
108 0 4808 966 2 MP stroke
108 0 4808 1578 2 MP stroke
0 621 4898 964 2 MP stroke
107 0 4844 964 2 MP stroke
107 0 4844 1585 2 MP stroke
0 618 4933 977 2 MP stroke
107 0 4880 977 2 MP stroke
107 0 4880 1595 2 MP stroke
0 611 4969 996 2 MP stroke
107 0 4916 996 2 MP stroke
107 0 4916 1607 2 MP stroke
0 601 5005 1013 2 MP stroke
107 0 4951 1013 2 MP stroke
107 0 4951 1614 2 MP stroke
0 594 5040 1025 2 MP stroke
107 0 4987 1025 2 MP stroke
107 0 4987 1619 2 MP stroke
0 583 5076 1048 2 MP stroke
107 0 5023 1048 2 MP stroke
107 0 5023 1631 2 MP stroke
0 577 5112 1058 2 MP stroke
107 0 5058 1058 2 MP stroke
107 0 5058 1635 2 MP stroke
0 575 5148 1065 2 MP stroke
107 0 5094 1065 2 MP stroke
107 0 5094 1640 2 MP stroke
0 578 5183 1070 2 MP stroke
107 0 5130 1070 2 MP stroke
107 0 5130 1648 2 MP stroke
0 582 5219 1072 2 MP stroke
108 0 5165 1072 2 MP stroke
108 0 5165 1654 2 MP stroke
0 572 5255 1079 2 MP stroke
107 0 5201 1079 2 MP stroke
107 0 5201 1651 2 MP stroke
0 582 5290 1075 2 MP stroke
107 0 5237 1075 2 MP stroke
107 0 5237 1657 2 MP stroke
0 575 5326 1084 2 MP stroke
107 0 5273 1084 2 MP stroke
107 0 5273 1659 2 MP stroke
0 587 5362 1082 2 MP stroke
107 0 5308 1082 2 MP stroke
107 0 5308 1669 2 MP stroke
0 624 5398 1078 2 MP stroke
107 0 5344 1078 2 MP stroke
107 0 5344 1702 2 MP stroke
0 623 5433 1087 2 MP stroke
107 0 5380 1087 2 MP stroke
107 0 5380 1710 2 MP stroke
0 620 5469 1093 2 MP stroke
108 0 5415 1093 2 MP stroke
108 0 5415 1713 2 MP stroke
0 619 5505 1096 2 MP stroke
107 0 5451 1096 2 MP stroke
107 0 5451 1715 2 MP stroke
0 620 5540 1101 2 MP stroke
107 0 5487 1101 2 MP stroke
107 0 5487 1721 2 MP stroke
0 633 5576 1100 2 MP stroke
107 0 5523 1100 2 MP stroke
107 0 5523 1733 2 MP stroke
0 626 5612 1116 2 MP stroke
107 0 5558 1116 2 MP stroke
107 0 5558 1742 2 MP stroke
0 629 5647 1123 2 MP stroke
107 0 5594 1123 2 MP stroke
107 0 5594 1752 2 MP stroke
0 627 5683 1127 2 MP stroke
107 0 5630 1127 2 MP stroke
107 0 5630 1754 2 MP stroke
0 653 5719 1123 2 MP stroke
107 0 5665 1123 2 MP stroke
107 0 5665 1776 2 MP stroke
0 658 5755 1126 2 MP stroke
107 0 5701 1126 2 MP stroke
107 0 5701 1784 2 MP stroke
0 672 5790 1130 2 MP stroke
107 0 5737 1130 2 MP stroke
107 0 5737 1802 2 MP stroke
0 668 5826 1138 2 MP stroke
108 0 5772 1138 2 MP stroke
108 0 5772 1806 2 MP stroke
0 665 5862 1143 2 MP stroke
107 0 5808 1143 2 MP stroke
107 0 5808 1808 2 MP stroke
0 674 5897 1144 2 MP stroke
107 0 5844 1144 2 MP stroke
107 0 5844 1818 2 MP stroke
0 671 5933 1150 2 MP stroke
107 0 5880 1150 2 MP stroke
107 0 5880 1821 2 MP stroke
0 685 5969 1150 2 MP stroke
107 0 5915 1150 2 MP stroke
107 0 5915 1835 2 MP stroke
0 682 6005 1160 2 MP stroke
107 0 5951 1160 2 MP stroke
107 0 5951 1842 2 MP stroke
0 680 6040 1163 2 MP stroke
107 0 5987 1163 2 MP stroke
107 0 5987 1843 2 MP stroke
0 674 6076 1172 2 MP stroke
108 0 6022 1172 2 MP stroke
108 0 6022 1846 2 MP stroke
0 670 6112 1184 2 MP stroke
107 0 6058 1184 2 MP stroke
107 0 6058 1854 2 MP stroke
0 669 6147 1186 2 MP stroke
107 0 6094 1186 2 MP stroke
107 0 6094 1855 2 MP stroke
0 661 6183 1199 2 MP stroke
107 0 6130 1199 2 MP stroke
107 0 6130 1860 2 MP stroke
0 671 6219 1203 2 MP stroke
91 0 6165 1203 2 MP stroke
91 0 6165 1874 2 MP stroke
0 671 6255 1212 2 MP stroke
55 0 6201 1212 2 MP stroke
55 0 6201 1883 2 MP stroke
1 0 36 -1 36 0 35 1 899 469 5 MP stroke
gr

c9
  36   36  899  469 FO
  36   36  934  470 FO
  36   36  970  470 FO
  36   36 1006  469 FO
gs 899 469 5357 4147 rc
36 9 36 8 36 9 35 2 36 10 36 6 35 2 36 8 
36 7 36 5 35 5 36 4 36 6 35 11 36 6 36 9 
36 3 35 8 36 12 36 6 35 6 36 2 36 4 35 9 
36 15 36 4 36 5 35 1 36 2 36 4 35 6 36 7 
36 7 36 17 35 8 36 13 36 15 35 12 36 2 36 12 
35 12 36 10 36 9 36 2 35 3 36 12 36 8 35 7 
36 10 36 -1 36 10 35 15 36 11 36 5 35 7 36 6 
36 6 35 7 36 1 36 9 36 11 35 3 36 2 36 3 
35 9 36 6 36 9 36 6 35 9 36 6 36 13 35 5 
36 14 36 14 35 10 36 12 36 12 36 4 35 2 36 2 
36 7 35 11 36 9 36 1 36 3 35 13 36 8 36 7 
35 4 36 9 36 13 36 7 35 9 36 5 36 13 35 10 
36 4 36 11 35 7 36 1 36 11 36 9 35 -1 36 9 
36 10 35 5 36 4 36 10 36 16 35 3 36 6 36 5 
35 8 36 10 36 27 35 10 36 8 36 6 36 12 35 10 
36 7 36 7 35 8 36 10 36 6 36 8 35 8 36 8 
36 10 35 10 36 8 36 13 35 3 36 1 36 11 36 3 
35 9 36 13 36 11 35 3 36 3 36 0 36 -2 8 2 
1140 469 145 MP stroke
gr

  36   36 1148  471 FO
  36   36 1184  469 FO
  36   36 1220  469 FO
  36   36 1256  472 FO
  36   36 1291  475 FO
  36   36 1327  486 FO
  36   36 1363  499 FO
  36   36 1398  508 FO
  36   36 1434  511 FO
  36   36 1470  522 FO
  36   36 1506  523 FO
  36   36 1541  526 FO
  36   36 1577  539 FO
  36   36 1613  547 FO
  36   36 1648  557 FO
  36   36 1684  567 FO
  36   36 1720  575 FO
  36   36 1755  583 FO
  36   36 1791  591 FO
  36   36 1827  597 FO
  36   36 1863  607 FO
  36   36 1898  615 FO
  36   36 1934  622 FO
  36   36 1970  629 FO
  36   36 2005  639 FO
  36   36 2041  651 FO
  36   36 2077  657 FO
  36   36 2113  665 FO
  36   36 2148  675 FO
  36   36 2184  702 FO
  36   36 2220  712 FO
  36   36 2255  720 FO
  36   36 2291  725 FO
  36   36 2327  731 FO
  36   36 2362  734 FO
  36   36 2398  750 FO
  36   36 2434  760 FO
  36   36 2470  764 FO
  36   36 2505  769 FO
  36   36 2541  779 FO
  36   36 2577  788 FO
  36   36 2612  787 FO
  36   36 2648  796 FO
  36   36 2684  807 FO
  36   36 2720  808 FO
  36   36 2755  815 FO
  36   36 2791  826 FO
  36   36 2827  830 FO
  36   36 2862  840 FO
  36   36 2898  853 FO
  36   36 2934  858 FO
  36   36 2969  867 FO
  36   36 3005  874 FO
  36   36 3041  887 FO
  36   36 3077  896 FO
  36   36 3112  900 FO
  36   36 3148  907 FO
  36   36 3184  915 FO
  36   36 3219  928 FO
  36   36 3255  931 FO
  36   36 3291  932 FO
  36   36 3327  941 FO
  36   36 3362  952 FO
  36   36 3398  959 FO
  36   36 3434  961 FO
  36   36 3469  963 FO
  36   36 3505  967 FO
  36   36 3541  979 FO
  36   36 3577  991 FO
  36   36 3612 1001 FO
  36   36 3648 1015 FO
  36   36 3684 1029 FO
  36   36 3719 1034 FO
  36   36 3755 1047 FO
  36   36 3791 1053 FO
  36   36 3826 1062 FO
  36   36 3862 1068 FO
  36   36 3898 1077 FO
  36   36 3934 1083 FO
  36   36 3969 1092 FO
  36   36 4005 1095 FO
  36   36 4041 1097 FO
  36   36 4076 1100 FO
  36   36 4112 1111 FO
  36   36 4148 1120 FO
  36   36 4184 1121 FO
  36   36 4219 1128 FO
  36   36 4255 1134 FO
  36   36 4291 1140 FO
  36   36 4326 1147 FO
  36   36 4362 1152 FO
  36   36 4398 1163 FO
  36   36 4433 1178 FO
  36   36 4469 1188 FO
  36   36 4505 1187 FO
  36   36 4541 1197 FO
  36   36 4576 1204 FO
  36   36 4612 1212 FO
  36   36 4648 1224 FO
  36   36 4683 1227 FO
  36   36 4719 1229 FO
  36   36 4755 1238 FO
  36   36 4791 1248 FO
  36   36 4826 1260 FO
  36   36 4862 1272 FO
  36   36 4898 1274 FO
  36   36 4933 1286 FO
  36   36 4969 1301 FO
  36   36 5005 1314 FO
  36   36 5040 1322 FO
  36   36 5076 1339 FO
  36   36 5112 1346 FO
  36   36 5148 1353 FO
  36   36 5183 1359 FO
  36   36 5219 1363 FO
  36   36 5255 1365 FO
  36   36 5290 1366 FO
  36   36 5326 1371 FO
  36   36 5362 1375 FO
  36   36 5398 1390 FO
  36   36 5433 1399 FO
  36   36 5469 1403 FO
  36   36 5505 1405 FO
  36   36 5540 1411 FO
  36   36 5576 1417 FO
  36   36 5612 1429 FO
  36   36 5647 1437 FO
  36   36 5683 1440 FO
  36   36 5719 1449 FO
  36   36 5755 1455 FO
  36   36 5790 1466 FO
  36   36 5826 1472 FO
  36   36 5862 1476 FO
  36   36 5897 1481 FO
  36   36 5933 1486 FO
  36   36 5969 1493 FO
  36   36 6005 1501 FO
  36   36 6040 1503 FO
  36   36 6076 1509 FO
  36   36 6112 1519 FO
  36   36 6147 1521 FO
  36   36 6183 1530 FO
  36   36 6219 1538 FO
  36   36 6255 1547 FO
gs 899 469 5357 4147 rc
gr

0 sg
%%IncludeResource: font Helvetica
/Helvetica /ISOLatin1Encoding 168 FMSR

2435  156 mt 
(Nup49-GFP in Late Anaphase) s
%%IncludeResource: font Helvetica
/Helvetica /ISOLatin1Encoding 144 FMSR

2369  293 mt 
(n) s
%%IncludeResource: font Helvetica
/Helvetica /ISOLatin1Encoding 108 FMSR

2449  377 mt 
(cells) s
%%IncludeResource: font Helvetica
/Helvetica /ISOLatin1Encoding 144 FMSR

2665  293 mt 
( = 34    -    Permeability = 0.0005) s
3314 4921 mt 
(Time \(s\)) s
 577 3058 mt  -90 rotate
(% Fluorescence) s
90 rotate
%%IncludeResource: font Helvetica
/Helvetica /ISOLatin1Encoding 120 FMSR

 882 4658 mt 
( ) s
6239  511 mt 
( ) s
5656  664 mt 
(mother) s
gs 5217 529 980 335 rc
c8
338 0 5284 621 2 MP stroke
gs 5380 548 147 147 rc
  36   36 5453  621 FO
gr

gr

c8
0 sg
5656  813 mt 
(daughter) s
gs 5217 529 980 335 rc
c9
338 0 5284 770 2 MP stroke
gs 5380 697 147 147 rc
  36   36 5453  770 FO
gr

gr

c9

end %%Color Dict

eplot
%%EndObject

epage
end

showpage

%%Trailer
%%EOF
