%!PS-Adobe-3.0 EPSF-3.0
%%Creator: MATLAB, The MathWorks, Inc. Version 8.1.0.604 (R2013a). Operating System: Darwin 11.4.2 Darwin Kernel Version 11.4.2: Thu Aug 23 16:25:48 PDT 2012; root:xnu-1699.32.7~1/RELEASE_X86_64 x86_64.
%%Title: ./LA_Nup49-sphinbarr-ONM-hom_domain.eps
%%CreationDate: 10/16/2013  17:06:14
%%DocumentNeededFonts: Helvetica
%%DocumentProcessColors: Cyan Magenta Yellow Black
%%LanguageLevel: 2
%%Pages: 1
%%BoundingBox:    52   197   551   616
%%EndComments

%%BeginProlog
% MathWorks dictionary
/MathWorks 160 dict begin
% definition operators
/bdef {bind def} bind def
/ldef {load def} bind def
/xdef {exch def} bdef
/xstore {exch store} bdef
% operator abbreviations
/c  /clip ldef
/cc /concat ldef
/cp /closepath ldef
/gr /grestore ldef
/gs /gsave ldef
/mt /moveto ldef
/np /newpath ldef
/cm /currentmatrix ldef
/sm /setmatrix ldef
/rm /rmoveto ldef
/rl /rlineto ldef
/s {show newpath} bdef
/sc {setcmykcolor} bdef
/sr /setrgbcolor ldef
/sg /setgray ldef
/w /setlinewidth ldef
/j /setlinejoin ldef
/cap /setlinecap ldef
/rc {rectclip} bdef
/rf {rectfill} bdef
% page state control
/pgsv () def
/bpage {/pgsv save def} bdef
/epage {pgsv restore} bdef
/bplot /gsave ldef
/eplot {stroke grestore} bdef
% orientation switch
/portraitMode 0 def /landscapeMode 1 def /rotateMode 2 def
% coordinate system mappings
/dpi2point 0 def
% font control
/FontSize 0 def
/FMS {/FontSize xstore findfont [FontSize 0 0 FontSize neg 0 0]
  makefont setfont} bdef
/reencode {exch dup where {pop load} {pop StandardEncoding} ifelse
  exch dup 3 1 roll findfont dup length dict begin
  { 1 index /FID ne {def}{pop pop} ifelse } forall
  /Encoding exch def currentdict end definefont pop} bdef
/isroman {findfont /CharStrings get /Agrave known} bdef
/FMSR {3 1 roll 1 index dup isroman {reencode} {pop pop} ifelse
  exch FMS} bdef
/csm {1 dpi2point div -1 dpi2point div scale neg translate
 dup landscapeMode eq {pop -90 rotate}
  {rotateMode eq {90 rotate} if} ifelse} bdef
% line types: solid, dotted, dashed, dotdash
/SO { [] 0 setdash } bdef
/DO { [.5 dpi2point mul 4 dpi2point mul] 0 setdash } bdef
/DA { [6 dpi2point mul] 0 setdash } bdef
/DD { [.5 dpi2point mul 4 dpi2point mul 6 dpi2point mul 4
  dpi2point mul] 0 setdash } bdef
% macros for lines and objects
/L {lineto stroke} bdef
/MP {3 1 roll moveto 1 sub {rlineto} repeat} bdef
/AP {{rlineto} repeat} bdef
/PDlw -1 def
/W {/PDlw currentlinewidth def setlinewidth} def
/PP {closepath eofill} bdef
/DP {closepath stroke} bdef
/MR {4 -2 roll moveto dup  0 exch rlineto exch 0 rlineto
  neg 0 exch rlineto closepath} bdef
/FR {MR stroke} bdef
/PR {MR fill} bdef
/L1i {{currentfile picstr readhexstring pop} image} bdef
/tMatrix matrix def
/MakeOval {newpath tMatrix currentmatrix pop translate scale
0 0 1 0 360 arc tMatrix setmatrix} bdef
/FO {MakeOval stroke} bdef
/PO {MakeOval fill} bdef
/PD {currentlinewidth 2 div 0 360 arc fill
   PDlw -1 eq not {PDlw w /PDlw -1 def} if} def
/FA {newpath tMatrix currentmatrix pop translate scale
  0 0 1 5 -2 roll arc tMatrix setmatrix stroke} bdef
/PA {newpath tMatrix currentmatrix pop	translate 0 0 moveto scale
  0 0 1 5 -2 roll arc closepath tMatrix setmatrix fill} bdef
/FAn {newpath tMatrix currentmatrix pop translate scale
  0 0 1 5 -2 roll arcn tMatrix setmatrix stroke} bdef
/PAn {newpath tMatrix currentmatrix pop translate 0 0 moveto scale
  0 0 1 5 -2 roll arcn closepath tMatrix setmatrix fill} bdef
/vradius 0 def /hradius 0 def /lry 0 def
/lrx 0 def /uly 0 def /ulx 0 def /rad 0 def
/MRR {/vradius xdef /hradius xdef /lry xdef /lrx xdef /uly xdef
  /ulx xdef newpath tMatrix currentmatrix pop ulx hradius add uly
  vradius add translate hradius vradius scale 0 0 1 180 270 arc 
  tMatrix setmatrix lrx hradius sub uly vradius add translate
  hradius vradius scale 0 0 1 270 360 arc tMatrix setmatrix
  lrx hradius sub lry vradius sub translate hradius vradius scale
  0 0 1 0 90 arc tMatrix setmatrix ulx hradius add lry vradius sub
  translate hradius vradius scale 0 0 1 90 180 arc tMatrix setmatrix
  closepath} bdef
/FRR {MRR stroke } bdef
/PRR {MRR fill } bdef
/MlrRR {/lry xdef /lrx xdef /uly xdef /ulx xdef /rad lry uly sub 2 div def
  newpath tMatrix currentmatrix pop ulx rad add uly rad add translate
  rad rad scale 0 0 1 90 270 arc tMatrix setmatrix lrx rad sub lry rad
  sub translate rad rad scale 0 0 1 270 90 arc tMatrix setmatrix
  closepath} bdef
/FlrRR {MlrRR stroke } bdef
/PlrRR {MlrRR fill } bdef
/MtbRR {/lry xdef /lrx xdef /uly xdef /ulx xdef /rad lrx ulx sub 2 div def
  newpath tMatrix currentmatrix pop ulx rad add uly rad add translate
  rad rad scale 0 0 1 180 360 arc tMatrix setmatrix lrx rad sub lry rad
  sub translate rad rad scale 0 0 1 0 180 arc tMatrix setmatrix
  closepath} bdef
/FtbRR {MtbRR stroke } bdef
/PtbRR {MtbRR fill } bdef
/stri 6 array def /dtri 6 array def
/smat 6 array def /dmat 6 array def
/tmat1 6 array def /tmat2 6 array def /dif 3 array def
/asub {/ind2 exch def /ind1 exch def dup dup
  ind1 get exch ind2 get sub exch } bdef
/tri_to_matrix {
  2 0 asub 3 1 asub 4 0 asub 5 1 asub
  dup 0 get exch 1 get 7 -1 roll astore } bdef
/compute_transform {
  dmat dtri tri_to_matrix tmat1 invertmatrix 
  smat stri tri_to_matrix tmat2 concatmatrix } bdef
/ds {stri astore pop} bdef
/dt {dtri astore pop} bdef
/db {2 copy /cols xdef /rows xdef mul dup 3 mul string
  currentfile 
  3 index 0 eq {/ASCIIHexDecode filter}
  {/ASCII85Decode filter 3 index 2 eq {/RunLengthDecode filter} if }
  ifelse exch readstring pop
  dup 0 3 index getinterval /rbmap xdef
  dup 2 index dup getinterval /gbmap xdef
  1 index dup 2 mul exch getinterval /bbmap xdef pop pop}bdef
/it {gs np dtri aload pop moveto lineto lineto cp c
  cols rows 8 compute_transform 
  rbmap gbmap bbmap true 3 colorimage gr}bdef
/il {newpath moveto lineto stroke}bdef
currentdict end def
%%EndProlog

%%BeginSetup
MathWorks begin

0 cap

end
%%EndSetup

%%Page: 1 1
%%BeginPageSetup
%%PageBoundingBox:    52   197   551   616
MathWorks begin
bpage
%%EndPageSetup

%%BeginObject: obj1
bplot

/dpi2point 12 def
portraitMode 0216 7344 csm

  418   -48  5986  5026 rc
85 dict begin %Colortable dictionary
/c0 { 0.000000 0.000000 0.000000 sr} bdef
/c1 { 1.000000 1.000000 1.000000 sr} bdef
/c2 { 0.900000 0.000000 0.000000 sr} bdef
/c3 { 0.000000 0.820000 0.000000 sr} bdef
/c4 { 0.000000 0.000000 0.800000 sr} bdef
/c5 { 0.910000 0.820000 0.320000 sr} bdef
/c6 { 1.000000 0.260000 0.820000 sr} bdef
/c7 { 0.000000 0.820000 0.820000 sr} bdef
c0
1 j
1 sg
   0    0 6913 5186 rf
6 w
0 4146 5356 0 0 -4146 899 4615 4 MP
PP
-5356 0 0 4146 5356 0 0 -4146 899 4615 5 MP stroke
4 w
DO
SO
6 w
0 sg
 899 4615 mt 6255 4615 L
 899  469 mt 6255  469 L
 899 4615 mt  899  469 L
6255 4615 mt 6255  469 L
 899 4615 mt 6255 4615 L
 899 4615 mt  899  469 L
 899 4615 mt  899 4561 L
 899  469 mt  899  522 L
%%IncludeResource: font Helvetica
/Helvetica /ISOLatin1Encoding 120 FMSR

 866 4760 mt 
(0) s
1791 4615 mt 1791 4561 L
1791  469 mt 1791  522 L
1725 4760 mt 
(50) s
2684 4615 mt 2684 4561 L
2684  469 mt 2684  522 L
2584 4760 mt 
(100) s
3577 4615 mt 3577 4561 L
3577  469 mt 3577  522 L
3477 4760 mt 
(150) s
4469 4615 mt 4469 4561 L
4469  469 mt 4469  522 L
4369 4760 mt 
(200) s
5362 4615 mt 5362 4561 L
5362  469 mt 5362  522 L
5262 4760 mt 
(250) s
6255 4615 mt 6255 4561 L
6255  469 mt 6255  522 L
6155 4760 mt 
(300) s
 899 4615 mt  952 4615 L
6255 4615 mt 6201 4615 L
 798 4659 mt 
(0) s
 899 4200 mt  952 4200 L
6255 4200 mt 6201 4200 L
 731 4244 mt 
(10) s
 899 3785 mt  952 3785 L
6255 3785 mt 6201 3785 L
 731 3829 mt 
(20) s
 899 3371 mt  952 3371 L
6255 3371 mt 6201 3371 L
 731 3415 mt 
(30) s
 899 2956 mt  952 2956 L
6255 2956 mt 6201 2956 L
 731 3000 mt 
(40) s
 899 2542 mt  952 2542 L
6255 2542 mt 6201 2542 L
 731 2586 mt 
(50) s
 899 2127 mt  952 2127 L
6255 2127 mt 6201 2127 L
 731 2171 mt 
(60) s
 899 1712 mt  952 1712 L
6255 1712 mt 6201 1712 L
 731 1756 mt 
(70) s
 899 1298 mt  952 1298 L
6255 1298 mt 6201 1298 L
 731 1342 mt 
(80) s
 899  883 mt  952  883 L
6255  883 mt 6201  883 L
 731  927 mt 
(90) s
 899  469 mt  952  469 L
6255  469 mt 6201  469 L
 664  513 mt 
(100) s
 899 4615 mt 6255 4615 L
 899  469 mt 6255  469 L
 899 4615 mt  899  469 L
6255 4615 mt 6255  469 L
gs 899 469 5357 4147 rc
899 469 PD
64 0 899 469 2 MP stroke
64 0 899 469 2 MP stroke
0 917 968 1681 2 MP stroke
128 0 904 1681 2 MP stroke
128 0 904 2598 2 MP stroke
0 804 1037 2106 2 MP stroke
128 0 973 2106 2 MP stroke
128 0 973 2910 2 MP stroke
0 960 1105 2267 2 MP stroke
128 0 1041 2267 2 MP stroke
128 0 1041 3227 2 MP stroke
0 884 1173 2559 2 MP stroke
129 0 1108 2559 2 MP stroke
129 0 1108 3443 2 MP stroke
0 749 1241 2786 2 MP stroke
129 0 1177 2786 2 MP stroke
129 0 1177 3535 2 MP stroke
0 701 1311 2964 2 MP stroke
129 0 1246 2964 2 MP stroke
129 0 1246 3665 2 MP stroke
0 841 1379 2992 2 MP stroke
129 0 1314 2992 2 MP stroke
129 0 1314 3833 2 MP stroke
0 802 1448 3107 2 MP stroke
129 0 1383 3107 2 MP stroke
129 0 1383 3909 2 MP stroke
0 867 1517 3151 2 MP stroke
128 0 1453 3151 2 MP stroke
128 0 1453 4018 2 MP stroke
0 792 1585 3210 2 MP stroke
129 0 1521 3210 2 MP stroke
129 0 1521 4002 2 MP stroke
0 727 1653 3382 2 MP stroke
129 0 1589 3382 2 MP stroke
129 0 1589 4109 2 MP stroke
0 716 1722 3445 2 MP stroke
128 0 1658 3445 2 MP stroke
128 0 1658 4161 2 MP stroke
0 730 1791 3507 2 MP stroke
129 0 1727 3507 2 MP stroke
129 0 1727 4237 2 MP stroke
0 655 1860 3559 2 MP stroke
129 0 1795 3559 2 MP stroke
129 0 1795 4214 2 MP stroke
0 616 1928 3699 2 MP stroke
128 0 1864 3699 2 MP stroke
128 0 1864 4315 2 MP stroke
0 591 1997 3737 2 MP stroke
129 0 1932 3737 2 MP stroke
129 0 1932 4328 2 MP stroke
0 635 2066 3743 2 MP stroke
129 0 2001 3743 2 MP stroke
129 0 2001 4378 2 MP stroke
0 598 2134 3781 2 MP stroke
128 0 2070 3781 2 MP stroke
128 0 2070 4379 2 MP stroke
0 626 2202 3812 2 MP stroke
129 0 2137 3812 2 MP stroke
129 0 2137 4438 2 MP stroke
0 585 2271 3880 2 MP stroke
129 0 2206 3880 2 MP stroke
129 0 2206 4465 2 MP stroke
0 604 2340 3900 2 MP stroke
129 0 2276 3900 2 MP stroke
129 0 2276 4504 2 MP stroke
0 560 2409 3953 2 MP stroke
129 0 2345 3953 2 MP stroke
129 0 2345 4513 2 MP stroke
0 559 2477 3942 2 MP stroke
129 0 2413 3942 2 MP stroke
129 0 2413 4501 2 MP stroke
0 462 2546 4043 2 MP stroke
129 0 2482 4043 2 MP stroke
129 0 2482 4505 2 MP stroke
0 586 2614 3963 2 MP stroke
129 0 2550 3963 2 MP stroke
129 0 2550 4549 2 MP stroke
0 515 2683 4011 2 MP stroke
128 0 2619 4011 2 MP stroke
128 0 2619 4526 2 MP stroke
0 539 2751 4005 2 MP stroke
129 0 2687 4005 2 MP stroke
129 0 2687 4544 2 MP stroke
0 498 2820 4108 2 MP stroke
128 0 2756 4108 2 MP stroke
128 0 2756 4606 2 MP stroke
0 620 2889 3996 2 MP stroke
129 0 2825 3996 2 MP stroke
0 484 2959 4132 2 MP stroke
129 0 2894 4132 2 MP stroke
0 524 3026 4092 2 MP stroke
128 0 2962 4092 2 MP stroke
0 499 3095 4117 2 MP stroke
129 0 3030 4117 2 MP stroke
0 514 3164 4102 2 MP stroke
128 0 3100 4102 2 MP stroke
0 360 3232 4256 2 MP stroke
129 0 3168 4256 2 MP stroke
0 383 3301 4233 2 MP stroke
129 0 3236 4233 2 MP stroke
0 362 3369 4254 2 MP stroke
129 0 3305 4254 2 MP stroke
0 377 3439 4239 2 MP stroke
129 0 3374 4239 2 MP stroke
0 395 3507 4221 2 MP stroke
128 0 3443 4221 2 MP stroke
0 354 3575 4262 2 MP stroke
128 0 3511 4262 2 MP stroke
0 312 3644 4304 2 MP stroke
129 0 3580 4304 2 MP stroke
0 358 3713 4258 2 MP stroke
128 0 3649 4258 2 MP stroke
0 283 3782 4333 2 MP stroke
128 0 3718 4333 2 MP stroke
0 293 3850 4323 2 MP stroke
128 0 3786 4323 2 MP stroke
0 372 3919 4244 2 MP stroke
129 0 3854 4244 2 MP stroke
0 289 3988 4327 2 MP stroke
129 0 3923 4327 2 MP stroke
0 235 4056 4381 2 MP stroke
129 0 3992 4381 2 MP stroke
0 260 4124 4356 2 MP stroke
129 0 4060 4356 2 MP stroke
0 242 4193 4374 2 MP stroke
129 0 4128 4374 2 MP stroke
0 238 4262 4378 2 MP stroke
128 0 4198 4378 2 MP stroke
0 212 4331 4404 2 MP stroke
129 0 4267 4404 2 MP stroke
0 153 4400 4463 2 MP stroke
129 0 4335 4463 2 MP stroke
0 197 4468 4419 2 MP stroke
128 0 4404 4419 2 MP stroke
0 188 4536 4428 2 MP stroke
129 0 4471 4428 2 MP stroke
0 198 4605 4418 2 MP stroke
129 0 4540 4418 2 MP stroke
0 158 4674 4458 2 MP stroke
128 0 4610 4458 2 MP stroke
0 142 4743 4474 2 MP stroke
129 0 4678 4474 2 MP stroke
0 170 4811 4446 2 MP stroke
129 0 4747 4446 2 MP stroke
0 188 4880 4428 2 MP stroke
128 0 4816 4428 2 MP stroke
0 219 4948 4397 2 MP stroke
128 0 4884 4397 2 MP stroke
0 226 5017 4390 2 MP stroke
129 0 4952 4390 2 MP stroke
0 161 5086 4455 2 MP stroke
129 0 5021 4455 2 MP stroke
0 131 5155 4485 2 MP stroke
128 0 5091 4485 2 MP stroke
0 142 5223 4474 2 MP stroke
129 0 5159 4474 2 MP stroke
0 138 5292 4478 2 MP stroke
129 0 5227 4478 2 MP stroke
0 122 5360 4494 2 MP stroke
129 0 5295 4494 2 MP stroke
0 115 5429 4501 2 MP stroke
129 0 5364 4501 2 MP stroke
0 212 5500 4404 2 MP stroke
129 0 5435 4404 2 MP stroke
0 162 5573 4454 2 MP stroke
129 0 5508 4454 2 MP stroke
0 177 5648 4439 2 MP stroke
128 0 5584 4439 2 MP stroke
0 165 5727 4451 2 MP stroke
129 0 5662 4451 2 MP stroke
0 165 5816 4451 2 MP stroke
128 0 5752 4451 2 MP stroke
0 122 5903 4494 2 MP stroke
128 0 5839 4494 2 MP stroke
0 114 5993 4502 2 MP stroke
129 0 5929 4502 2 MP stroke
0 122 6088 4494 2 MP stroke
129 0 6023 4494 2 MP stroke
0 160 6190 4456 2 MP stroke
129 0 6125 4456 2 MP stroke
2 0 6254 4522 2 MP stroke
48 17 68 -4 69 -4 69 31 69 -28 68 -2 69 16 68 -15 
69 17 69 8 69 18 68 -31 68 -16 69 22 69 12 69 -12 
69 64 68 -36 68 26 69 33 69 -1 68 -25 69 40 69 -24 
69 28 68 13 68 11 70 -7 68 29 69 -20 68 65 69 5 
69 10 67 -8 70 72 69 -45 69 83 68 6 69 12 68 -18 
69 53 68 -12 69 31 69 29 69 48 68 45 68 19 69 28 
69 26 68 121 69 14 69 69 69 57 68 140 68 22 69 76 
69 96 68 97 70 155 68 159 68 254 68 239 69 369 69 1670 
899 469 65 MP stroke
gr

 874  444 mt  924  494 L
 924  444 mt  874  494 L
 943 2114 mt  993 2164 L
 993 2114 mt  943 2164 L
1012 2483 mt 1062 2533 L
1062 2483 mt 1012 2533 L
1080 2722 mt 1130 2772 L
1130 2722 mt 1080 2772 L
1148 2976 mt 1198 3026 L
1198 2976 mt 1148 3026 L
1216 3135 mt 1266 3185 L
1266 3135 mt 1216 3185 L
1286 3290 mt 1336 3340 L
1336 3290 mt 1286 3340 L
1354 3387 mt 1404 3437 L
1404 3387 mt 1354 3437 L
1423 3483 mt 1473 3533 L
1473 3483 mt 1423 3533 L
1492 3559 mt 1542 3609 L
1542 3559 mt 1492 3609 L
1560 3581 mt 1610 3631 L
1610 3581 mt 1560 3631 L
1628 3721 mt 1678 3771 L
1678 3721 mt 1628 3771 L
1697 3778 mt 1747 3828 L
1747 3778 mt 1697 3828 L
1766 3847 mt 1816 3897 L
1816 3847 mt 1766 3897 L
1835 3861 mt 1885 3911 L
1885 3861 mt 1835 3911 L
1903 3982 mt 1953 4032 L
1953 3982 mt 1903 4032 L
1972 4008 mt 2022 4058 L
2022 4008 mt 1972 4058 L
2041 4036 mt 2091 4086 L
2091 4036 mt 2041 4086 L
2109 4055 mt 2159 4105 L
2159 4055 mt 2109 4105 L
2177 4100 mt 2227 4150 L
2227 4100 mt 2177 4150 L
2246 4148 mt 2296 4198 L
2296 4148 mt 2246 4198 L
2315 4177 mt 2365 4227 L
2365 4177 mt 2315 4227 L
2384 4208 mt 2434 4258 L
2434 4208 mt 2384 4258 L
2452 4196 mt 2502 4246 L
2502 4196 mt 2452 4246 L
2521 4249 mt 2571 4299 L
2571 4249 mt 2521 4299 L
2589 4231 mt 2639 4281 L
2639 4231 mt 2589 4281 L
2658 4243 mt 2708 4293 L
2708 4243 mt 2658 4293 L
2726 4249 mt 2776 4299 L
2776 4249 mt 2726 4299 L
2795 4332 mt 2845 4382 L
2845 4332 mt 2795 4382 L
2864 4287 mt 2914 4337 L
2914 4287 mt 2864 4337 L
2934 4359 mt 2984 4409 L
2984 4359 mt 2934 4409 L
3001 4351 mt 3051 4401 L
3051 4351 mt 3001 4401 L
3070 4361 mt 3120 4411 L
3120 4361 mt 3070 4411 L
3139 4366 mt 3189 4416 L
3189 4366 mt 3139 4416 L
3207 4431 mt 3257 4481 L
3257 4431 mt 3207 4481 L
3276 4411 mt 3326 4461 L
3326 4411 mt 3276 4461 L
3344 4440 mt 3394 4490 L
3394 4440 mt 3344 4490 L
3414 4433 mt 3464 4483 L
3464 4433 mt 3414 4483 L
3482 4444 mt 3532 4494 L
3532 4444 mt 3482 4494 L
3550 4457 mt 3600 4507 L
3600 4457 mt 3550 4507 L
3619 4485 mt 3669 4535 L
3669 4485 mt 3619 4535 L
3688 4461 mt 3738 4511 L
3738 4461 mt 3688 4511 L
3757 4501 mt 3807 4551 L
3807 4501 mt 3757 4551 L
3825 4476 mt 3875 4526 L
3875 4476 mt 3825 4526 L
3894 4475 mt 3944 4525 L
3944 4475 mt 3894 4525 L
3963 4508 mt 4013 4558 L
4013 4508 mt 3963 4558 L
4031 4534 mt 4081 4584 L
4081 4534 mt 4031 4584 L
4099 4498 mt 4149 4548 L
4149 4498 mt 4099 4548 L
4168 4562 mt 4218 4612 L
4218 4562 mt 4168 4612 L
4237 4550 mt 4287 4600 L
4287 4550 mt 4237 4600 L
4306 4562 mt 4356 4612 L
4356 4562 mt 4306 4612 L
4375 4584 mt 4425 4634 L
4425 4584 mt 4375 4634 L
4443 4568 mt 4493 4618 L
4493 4568 mt 4443 4618 L
4511 4537 mt 4561 4587 L
4561 4537 mt 4511 4587 L
4580 4555 mt 4630 4605 L
4630 4555 mt 4580 4605 L
4649 4563 mt 4699 4613 L
4699 4563 mt 4649 4613 L
4718 4580 mt 4768 4630 L
4768 4580 mt 4718 4630 L
4786 4565 mt 4836 4615 L
4836 4565 mt 4786 4615 L
4855 4581 mt 4905 4631 L
4905 4581 mt 4855 4631 L
4923 4579 mt 4973 4629 L
4973 4579 mt 4923 4629 L
4992 4551 mt 5042 4601 L
5042 4551 mt 4992 4601 L
5061 4582 mt 5111 4632 L
5111 4582 mt 5061 4632 L
5130 4578 mt 5180 4628 L
5180 4578 mt 5130 4628 L
5198 4574 mt 5248 4624 L
5248 4574 mt 5198 4624 L
gs 899 469 5357 4147 rc
68 22 89 2 79 -19 75 5 73 18 45 -28 5455 4616 7 MP stroke
gr

5475 4563 mt 5525 4613 L
5525 4563 mt 5475 4613 L
5548 4581 mt 5598 4631 L
5598 4581 mt 5548 4631 L
5623 4586 mt 5673 4636 L
5673 4586 mt 5623 4636 L
5702 4567 mt 5752 4617 L
5752 4567 mt 5702 4617 L
5791 4569 mt 5841 4619 L
5841 4569 mt 5791 4619 L
gs 899 469 5357 4147 rc
29 16 64 -16 6126 4616 3 MP stroke
gr

6165 4575 mt 6215 4625 L
6215 4575 mt 6165 4625 L
gs 899 469 5357 4147 rc
899 469 PD
64 0 899 469 2 MP stroke
64 0 899 469 2 MP stroke
0 664 968 469 2 MP stroke
128 0 904 1133 2 MP stroke
0 595 1037 568 2 MP stroke
128 0 973 568 2 MP stroke
128 0 973 1163 2 MP stroke
0 733 1105 469 2 MP stroke
128 0 1041 1202 2 MP stroke
0 631 1173 646 2 MP stroke
129 0 1108 646 2 MP stroke
129 0 1108 1277 2 MP stroke
0 560 1241 666 2 MP stroke
129 0 1177 666 2 MP stroke
129 0 1177 1226 2 MP stroke
0 753 1311 628 2 MP stroke
129 0 1246 628 2 MP stroke
129 0 1246 1381 2 MP stroke
0 784 1379 684 2 MP stroke
129 0 1314 684 2 MP stroke
129 0 1314 1468 2 MP stroke
0 600 1448 666 2 MP stroke
129 0 1383 666 2 MP stroke
129 0 1383 1266 2 MP stroke
0 781 1517 644 2 MP stroke
128 0 1453 644 2 MP stroke
128 0 1453 1425 2 MP stroke
0 621 1585 731 2 MP stroke
129 0 1521 731 2 MP stroke
129 0 1521 1352 2 MP stroke
0 1025 1653 600 2 MP stroke
129 0 1589 600 2 MP stroke
129 0 1589 1625 2 MP stroke
0 1026 1722 542 2 MP stroke
128 0 1658 542 2 MP stroke
128 0 1658 1568 2 MP stroke
0 908 1791 701 2 MP stroke
129 0 1727 701 2 MP stroke
129 0 1727 1609 2 MP stroke
0 955 1860 627 2 MP stroke
129 0 1795 627 2 MP stroke
129 0 1795 1582 2 MP stroke
0 1073 1928 571 2 MP stroke
128 0 1864 571 2 MP stroke
128 0 1864 1644 2 MP stroke
0 1001 1997 605 2 MP stroke
129 0 1932 605 2 MP stroke
129 0 1932 1606 2 MP stroke
0 1121 2066 504 2 MP stroke
129 0 2001 504 2 MP stroke
129 0 2001 1625 2 MP stroke
0 1355 2134 489 2 MP stroke
128 0 2070 489 2 MP stroke
128 0 2070 1844 2 MP stroke
0 1186 2202 632 2 MP stroke
129 0 2137 632 2 MP stroke
129 0 2137 1818 2 MP stroke
0 1430 2271 529 2 MP stroke
129 0 2206 529 2 MP stroke
129 0 2206 1959 2 MP stroke
0 1397 2340 578 2 MP stroke
129 0 2276 578 2 MP stroke
129 0 2276 1975 2 MP stroke
0 1363 2409 608 2 MP stroke
129 0 2345 608 2 MP stroke
129 0 2345 1971 2 MP stroke
0 1024 2477 758 2 MP stroke
129 0 2413 758 2 MP stroke
129 0 2413 1782 2 MP stroke
0 998 2546 710 2 MP stroke
129 0 2482 710 2 MP stroke
129 0 2482 1708 2 MP stroke
0 1137 2614 702 2 MP stroke
129 0 2550 702 2 MP stroke
129 0 2550 1839 2 MP stroke
0 1093 2683 741 2 MP stroke
128 0 2619 741 2 MP stroke
128 0 2619 1834 2 MP stroke
0 1201 2751 688 2 MP stroke
129 0 2687 688 2 MP stroke
129 0 2687 1889 2 MP stroke
0 1261 2820 606 2 MP stroke
128 0 2756 606 2 MP stroke
128 0 2756 1867 2 MP stroke
0 1329 2889 662 2 MP stroke
129 0 2825 662 2 MP stroke
129 0 2825 1991 2 MP stroke
0 1335 2959 545 2 MP stroke
129 0 2894 545 2 MP stroke
129 0 2894 1880 2 MP stroke
0 1195 3026 640 2 MP stroke
128 0 2962 640 2 MP stroke
128 0 2962 1835 2 MP stroke
0 1413 3095 566 2 MP stroke
129 0 3030 566 2 MP stroke
129 0 3030 1979 2 MP stroke
0 1262 3164 669 2 MP stroke
128 0 3100 669 2 MP stroke
128 0 3100 1931 2 MP stroke
0 1075 3232 649 2 MP stroke
129 0 3168 649 2 MP stroke
129 0 3168 1724 2 MP stroke
0 1174 3301 589 2 MP stroke
129 0 3236 589 2 MP stroke
129 0 3236 1763 2 MP stroke
0 1021 3369 868 2 MP stroke
129 0 3305 868 2 MP stroke
129 0 3305 1889 2 MP stroke
0 988 3439 899 2 MP stroke
129 0 3374 899 2 MP stroke
129 0 3374 1887 2 MP stroke
0 1116 3507 712 2 MP stroke
128 0 3443 712 2 MP stroke
128 0 3443 1828 2 MP stroke
0 1021 3575 811 2 MP stroke
128 0 3511 811 2 MP stroke
128 0 3511 1832 2 MP stroke
0 1008 3644 966 2 MP stroke
129 0 3580 966 2 MP stroke
129 0 3580 1974 2 MP stroke
0 900 3713 989 2 MP stroke
128 0 3649 989 2 MP stroke
128 0 3649 1889 2 MP stroke
0 923 3782 936 2 MP stroke
128 0 3718 936 2 MP stroke
128 0 3718 1859 2 MP stroke
0 947 3850 917 2 MP stroke
128 0 3786 917 2 MP stroke
128 0 3786 1864 2 MP stroke
0 991 3919 873 2 MP stroke
129 0 3854 873 2 MP stroke
129 0 3854 1864 2 MP stroke
0 1132 3988 840 2 MP stroke
129 0 3923 840 2 MP stroke
129 0 3923 1972 2 MP stroke
0 943 4056 974 2 MP stroke
129 0 3992 974 2 MP stroke
129 0 3992 1917 2 MP stroke
0 1045 4124 861 2 MP stroke
129 0 4060 861 2 MP stroke
129 0 4060 1906 2 MP stroke
0 1080 4193 878 2 MP stroke
129 0 4128 878 2 MP stroke
129 0 4128 1958 2 MP stroke
0 1005 4262 924 2 MP stroke
128 0 4198 924 2 MP stroke
128 0 4198 1929 2 MP stroke
0 1076 4331 979 2 MP stroke
129 0 4267 979 2 MP stroke
129 0 4267 2055 2 MP stroke
0 822 4400 955 2 MP stroke
129 0 4335 955 2 MP stroke
129 0 4335 1777 2 MP stroke
0 903 4468 1084 2 MP stroke
128 0 4404 1084 2 MP stroke
128 0 4404 1987 2 MP stroke
0 1184 4536 984 2 MP stroke
129 0 4471 984 2 MP stroke
129 0 4471 2168 2 MP stroke
0 1046 4605 981 2 MP stroke
129 0 4540 981 2 MP stroke
129 0 4540 2027 2 MP stroke
0 1021 4674 1035 2 MP stroke
128 0 4610 1035 2 MP stroke
128 0 4610 2056 2 MP stroke
0 1041 4743 876 2 MP stroke
129 0 4678 876 2 MP stroke
129 0 4678 1917 2 MP stroke
0 1105 4811 964 2 MP stroke
129 0 4747 964 2 MP stroke
129 0 4747 2069 2 MP stroke
0 1325 4880 790 2 MP stroke
128 0 4816 790 2 MP stroke
128 0 4816 2115 2 MP stroke
0 1160 4948 932 2 MP stroke
128 0 4884 932 2 MP stroke
128 0 4884 2092 2 MP stroke
0 979 5017 961 2 MP stroke
129 0 4952 961 2 MP stroke
129 0 4952 1940 2 MP stroke
0 1060 5086 939 2 MP stroke
129 0 5021 939 2 MP stroke
129 0 5021 1999 2 MP stroke
0 969 5155 883 2 MP stroke
128 0 5091 883 2 MP stroke
128 0 5091 1852 2 MP stroke
0 1119 5223 922 2 MP stroke
129 0 5159 922 2 MP stroke
129 0 5159 2041 2 MP stroke
0 1144 5292 1068 2 MP stroke
129 0 5227 1068 2 MP stroke
129 0 5227 2212 2 MP stroke
0 1130 5360 930 2 MP stroke
129 0 5295 930 2 MP stroke
129 0 5295 2060 2 MP stroke
0 917 5429 1026 2 MP stroke
129 0 5364 1026 2 MP stroke
129 0 5364 1943 2 MP stroke
0 1043 5500 1082 2 MP stroke
129 0 5435 1082 2 MP stroke
129 0 5435 2125 2 MP stroke
0 923 5573 953 2 MP stroke
129 0 5508 953 2 MP stroke
129 0 5508 1876 2 MP stroke
0 1320 5648 731 2 MP stroke
128 0 5584 731 2 MP stroke
128 0 5584 2051 2 MP stroke
0 1098 5727 1076 2 MP stroke
129 0 5662 1076 2 MP stroke
129 0 5662 2174 2 MP stroke
0 922 5816 978 2 MP stroke
128 0 5752 978 2 MP stroke
128 0 5752 1900 2 MP stroke
0 1002 5903 987 2 MP stroke
128 0 5839 987 2 MP stroke
128 0 5839 1989 2 MP stroke
0 872 5993 1018 2 MP stroke
129 0 5929 1018 2 MP stroke
129 0 5929 1890 2 MP stroke
0 1036 6088 906 2 MP stroke
129 0 6023 906 2 MP stroke
129 0 6023 1942 2 MP stroke
0 1213 6190 1003 2 MP stroke
129 0 6125 1003 2 MP stroke
129 0 6125 2216 2 MP stroke
2 0 6254 958 2 MP stroke
2 0 6254 2252 2 MP stroke
66 -3 102 186 95 -30 90 -34 87 49 89 -186 79 234 75 -24 
73 -188 71 118 69 -10 68 -145 69 159 68 114 69 -102 69 19 
69 -62 68 60 69 -64 68 119 69 -149 69 42 69 -72 68 41 
68 169 69 -151 69 91 69 8 69 34 68 -62 68 40 69 38 
69 -23 68 -6 69 -42 69 -31 69 149 68 51 68 -123 70 14 
68 203 69 -10 68 -114 69 27 69 36 67 25 70 -114 69 89 
69 -51 68 0 69 17 68 62 69 -61 68 -20 69 14 69 32 
69 19 68 59 68 101 69 -41 69 -2 68 4 69 -51 69 100 
69 -57 68 71 68 6 69 69 69 -110 68 72 70 58 68 -16 
68 170 68 -74 69 167 69 230 899 469 77 MP stroke
gr

 874  444 mt  924  494 L
 924  444 mt  874  494 L
 943  674 mt  993  724 L
 993  674 mt  943  724 L
1012  841 mt 1062  891 L
1062  841 mt 1012  891 L
1080  767 mt 1130  817 L
1130  767 mt 1080  817 L
1148  937 mt 1198  987 L
1198  937 mt 1148  987 L
1216  921 mt 1266  971 L
1266  921 mt 1216  971 L
1286  979 mt 1336 1029 L
1336  979 mt 1286 1029 L
1354 1051 mt 1404 1101 L
1404 1051 mt 1354 1101 L
1423  941 mt 1473  991 L
1473  941 mt 1423  991 L
1492 1010 mt 1542 1060 L
1542 1010 mt 1492 1060 L
1560 1016 mt 1610 1066 L
1610 1016 mt 1560 1066 L
1628 1087 mt 1678 1137 L
1678 1087 mt 1628 1137 L
1697 1030 mt 1747 1080 L
1747 1030 mt 1697 1080 L
1766 1130 mt 1816 1180 L
1816 1130 mt 1766 1180 L
1835 1079 mt 1885 1129 L
1885 1079 mt 1835 1129 L
1903 1083 mt 1953 1133 L
1953 1083 mt 1903 1133 L
1972 1081 mt 2022 1131 L
2022 1081 mt 1972 1131 L
2041 1040 mt 2091 1090 L
2091 1040 mt 2041 1090 L
2109 1141 mt 2159 1191 L
2159 1141 mt 2109 1191 L
2177 1200 mt 2227 1250 L
2227 1200 mt 2177 1250 L
2246 1219 mt 2296 1269 L
2296 1219 mt 2246 1269 L
2315 1251 mt 2365 1301 L
2365 1251 mt 2315 1301 L
2384 1265 mt 2434 1315 L
2434 1265 mt 2384 1315 L
2452 1245 mt 2502 1295 L
2502 1245 mt 2452 1295 L
2521 1184 mt 2571 1234 L
2571 1184 mt 2521 1234 L
2589 1246 mt 2639 1296 L
2639 1246 mt 2589 1296 L
2658 1263 mt 2708 1313 L
2708 1263 mt 2658 1313 L
2726 1263 mt 2776 1313 L
2776 1263 mt 2726 1313 L
2795 1212 mt 2845 1262 L
2845 1212 mt 2795 1262 L
2864 1301 mt 2914 1351 L
2914 1301 mt 2864 1351 L
2934 1187 mt 2984 1237 L
2984 1187 mt 2934 1237 L
3001 1212 mt 3051 1262 L
3051 1212 mt 3001 1262 L
3070 1248 mt 3120 1298 L
3120 1248 mt 3070 1298 L
3139 1275 mt 3189 1325 L
3189 1275 mt 3139 1325 L
3207 1161 mt 3257 1211 L
3257 1161 mt 3207 1211 L
3276 1151 mt 3326 1201 L
3326 1151 mt 3276 1201 L
3344 1354 mt 3394 1404 L
3394 1354 mt 3344 1404 L
3414 1368 mt 3464 1418 L
3464 1368 mt 3414 1418 L
3482 1245 mt 3532 1295 L
3532 1245 mt 3482 1295 L
3550 1296 mt 3600 1346 L
3600 1296 mt 3550 1346 L
3619 1445 mt 3669 1495 L
3669 1445 mt 3619 1495 L
3688 1414 mt 3738 1464 L
3738 1414 mt 3688 1464 L
3757 1372 mt 3807 1422 L
3807 1372 mt 3757 1422 L
3825 1366 mt 3875 1416 L
3875 1366 mt 3825 1416 L
3894 1343 mt 3944 1393 L
3944 1343 mt 3894 1393 L
3963 1381 mt 4013 1431 L
4013 1381 mt 3963 1431 L
4031 1421 mt 4081 1471 L
4081 1421 mt 4031 1471 L
4099 1359 mt 4149 1409 L
4149 1359 mt 4099 1409 L
4168 1393 mt 4218 1443 L
4218 1393 mt 4168 1443 L
4237 1401 mt 4287 1451 L
4287 1401 mt 4237 1451 L
4306 1492 mt 4356 1542 L
4356 1492 mt 4306 1542 L
4375 1341 mt 4425 1391 L
4425 1341 mt 4375 1391 L
4443 1510 mt 4493 1560 L
4493 1510 mt 4443 1560 L
4511 1551 mt 4561 1601 L
4561 1551 mt 4511 1601 L
4580 1479 mt 4630 1529 L
4630 1479 mt 4580 1529 L
4649 1521 mt 4699 1571 L
4699 1521 mt 4649 1571 L
4718 1372 mt 4768 1422 L
4768 1372 mt 4718 1422 L
4786 1491 mt 4836 1541 L
4836 1491 mt 4786 1541 L
4855 1427 mt 4905 1477 L
4905 1427 mt 4855 1477 L
4923 1487 mt 4973 1537 L
4973 1487 mt 4923 1537 L
4992 1425 mt 5042 1475 L
5042 1425 mt 4992 1475 L
5061 1444 mt 5111 1494 L
5111 1444 mt 5061 1494 L
5130 1342 mt 5180 1392 L
5180 1342 mt 5130 1392 L
5198 1456 mt 5248 1506 L
5248 1456 mt 5198 1506 L
5267 1615 mt 5317 1665 L
5317 1615 mt 5267 1665 L
5335 1470 mt 5385 1520 L
5385 1470 mt 5335 1520 L
5404 1460 mt 5454 1510 L
5454 1460 mt 5404 1510 L
5475 1578 mt 5525 1628 L
5525 1578 mt 5475 1628 L
5548 1390 mt 5598 1440 L
5598 1390 mt 5548 1440 L
5623 1366 mt 5673 1416 L
5673 1366 mt 5623 1416 L
5702 1600 mt 5752 1650 L
5752 1600 mt 5702 1650 L
5791 1414 mt 5841 1464 L
5841 1414 mt 5791 1464 L
5878 1463 mt 5928 1513 L
5928 1463 mt 5878 1513 L
5968 1429 mt 6018 1479 L
6018 1429 mt 5968 1479 L
6063 1399 mt 6113 1449 L
6113 1399 mt 6063 1449 L
6165 1585 mt 6215 1635 L
6215 1585 mt 6165 1635 L
gs 899 469 5357 4147 rc
/c8 { 1.000000 0.000000 0.000000 sr} bdef
c8
26 0 899 503 2 MP stroke
899 469 PD
62 0 899 469 2 MP stroke
62 0 899 469 2 MP stroke
0 323 934 969 2 MP stroke
98 0 899 969 2 MP stroke
98 0 899 1292 2 MP stroke
0 565 970 1336 2 MP stroke
125 0 907 1336 2 MP stroke
125 0 907 1901 2 MP stroke
0 546 1006 1727 2 MP stroke
125 0 943 1727 2 MP stroke
125 0 943 2273 2 MP stroke
0 626 1041 2043 2 MP stroke
125 0 979 2043 2 MP stroke
125 0 979 2669 2 MP stroke
0 670 1077 2301 2 MP stroke
125 0 1015 2301 2 MP stroke
125 0 1015 2971 2 MP stroke
0 663 1113 2531 2 MP stroke
125 0 1050 2531 2 MP stroke
125 0 1050 3194 2 MP stroke
0 677 1148 2723 2 MP stroke
125 0 1086 2723 2 MP stroke
125 0 1086 3400 2 MP stroke
0 704 1184 2901 2 MP stroke
125 0 1122 2901 2 MP stroke
125 0 1122 3605 2 MP stroke
0 647 1220 3079 2 MP stroke
125 0 1157 3079 2 MP stroke
125 0 1157 3726 2 MP stroke
0 572 1256 3265 2 MP stroke
125 0 1193 3265 2 MP stroke
125 0 1193 3837 2 MP stroke
0 532 1291 3378 2 MP stroke
125 0 1229 3378 2 MP stroke
125 0 1229 3910 2 MP stroke
0 514 1327 3488 2 MP stroke
125 0 1264 3488 2 MP stroke
125 0 1264 4002 2 MP stroke
0 455 1363 3616 2 MP stroke
125 0 1300 3616 2 MP stroke
125 0 1300 4071 2 MP stroke
0 441 1398 3701 2 MP stroke
125 0 1336 3701 2 MP stroke
125 0 1336 4142 2 MP stroke
0 404 1434 3798 2 MP stroke
125 0 1372 3798 2 MP stroke
125 0 1372 4202 2 MP stroke
0 375 1470 3874 2 MP stroke
125 0 1407 3874 2 MP stroke
125 0 1407 4249 2 MP stroke
0 361 1506 3932 2 MP stroke
125 0 1443 3932 2 MP stroke
125 0 1443 4293 2 MP stroke
0 386 1541 3963 2 MP stroke
125 0 1479 3963 2 MP stroke
125 0 1479 4349 2 MP stroke
0 320 1577 4028 2 MP stroke
125 0 1514 4028 2 MP stroke
125 0 1514 4348 2 MP stroke
0 309 1613 4071 2 MP stroke
125 0 1550 4071 2 MP stroke
125 0 1550 4380 2 MP stroke
0 308 1648 4096 2 MP stroke
125 0 1586 4096 2 MP stroke
125 0 1586 4404 2 MP stroke
0 297 1684 4135 2 MP stroke
125 0 1622 4135 2 MP stroke
125 0 1622 4432 2 MP stroke
0 254 1720 4164 2 MP stroke
125 0 1657 4164 2 MP stroke
125 0 1657 4418 2 MP stroke
0 242 1755 4202 2 MP stroke
125 0 1693 4202 2 MP stroke
125 0 1693 4444 2 MP stroke
0 237 1791 4215 2 MP stroke
125 0 1729 4215 2 MP stroke
125 0 1729 4452 2 MP stroke
0 249 1827 4225 2 MP stroke
125 0 1764 4225 2 MP stroke
125 0 1764 4474 2 MP stroke
0 246 1863 4258 2 MP stroke
125 0 1800 4258 2 MP stroke
125 0 1800 4504 2 MP stroke
0 219 1898 4293 2 MP stroke
125 0 1836 4293 2 MP stroke
125 0 1836 4512 2 MP stroke
0 245 1934 4286 2 MP stroke
124 0 1872 4286 2 MP stroke
124 0 1872 4531 2 MP stroke
0 219 1970 4309 2 MP stroke
125 0 1907 4309 2 MP stroke
125 0 1907 4528 2 MP stroke
0 224 2005 4318 2 MP stroke
125 0 1943 4318 2 MP stroke
125 0 1943 4542 2 MP stroke
0 205 2041 4328 2 MP stroke
125 0 1979 4328 2 MP stroke
125 0 1979 4533 2 MP stroke
0 195 2077 4341 2 MP stroke
125 0 2014 4341 2 MP stroke
125 0 2014 4536 2 MP stroke
0 185 2113 4350 2 MP stroke
125 0 2050 4350 2 MP stroke
125 0 2050 4535 2 MP stroke
0 179 2148 4358 2 MP stroke
125 0 2086 4358 2 MP stroke
125 0 2086 4537 2 MP stroke
0 193 2184 4337 2 MP stroke
125 0 2121 4337 2 MP stroke
125 0 2121 4530 2 MP stroke
0 196 2220 4349 2 MP stroke
125 0 2157 4349 2 MP stroke
125 0 2157 4545 2 MP stroke
0 174 2255 4359 2 MP stroke
125 0 2193 4359 2 MP stroke
125 0 2193 4533 2 MP stroke
0 192 2291 4346 2 MP stroke
125 0 2229 4346 2 MP stroke
125 0 2229 4538 2 MP stroke
0 177 2327 4355 2 MP stroke
125 0 2264 4355 2 MP stroke
125 0 2264 4532 2 MP stroke
0 173 2362 4371 2 MP stroke
125 0 2300 4371 2 MP stroke
125 0 2300 4544 2 MP stroke
0 156 2398 4392 2 MP stroke
125 0 2336 4392 2 MP stroke
125 0 2336 4548 2 MP stroke
0 178 2434 4369 2 MP stroke
125 0 2371 4369 2 MP stroke
125 0 2371 4547 2 MP stroke
0 172 2470 4381 2 MP stroke
125 0 2407 4381 2 MP stroke
125 0 2407 4553 2 MP stroke
0 158 2505 4401 2 MP stroke
125 0 2443 4401 2 MP stroke
125 0 2443 4559 2 MP stroke
0 172 2541 4387 2 MP stroke
124 0 2479 4387 2 MP stroke
124 0 2479 4559 2 MP stroke
0 164 2577 4401 2 MP stroke
125 0 2514 4401 2 MP stroke
125 0 2514 4565 2 MP stroke
0 177 2612 4392 2 MP stroke
125 0 2550 4392 2 MP stroke
125 0 2550 4569 2 MP stroke
0 154 2648 4408 2 MP stroke
125 0 2586 4408 2 MP stroke
125 0 2586 4562 2 MP stroke
0 149 2684 4425 2 MP stroke
125 0 2621 4425 2 MP stroke
125 0 2621 4574 2 MP stroke
0 153 2720 4414 2 MP stroke
125 0 2657 4414 2 MP stroke
125 0 2657 4567 2 MP stroke
0 173 2755 4397 2 MP stroke
125 0 2693 4397 2 MP stroke
125 0 2693 4570 2 MP stroke
0 154 2791 4405 2 MP stroke
125 0 2728 4405 2 MP stroke
125 0 2728 4559 2 MP stroke
0 134 2827 4424 2 MP stroke
125 0 2764 4424 2 MP stroke
125 0 2764 4558 2 MP stroke
0 186 2862 4395 2 MP stroke
125 0 2800 4395 2 MP stroke
125 0 2800 4581 2 MP stroke
0 159 2898 4419 2 MP stroke
125 0 2836 4419 2 MP stroke
125 0 2836 4578 2 MP stroke
0 195 2934 4392 2 MP stroke
125 0 2871 4392 2 MP stroke
125 0 2871 4587 2 MP stroke
0 183 2969 4403 2 MP stroke
125 0 2907 4403 2 MP stroke
125 0 2907 4586 2 MP stroke
0 161 3005 4416 2 MP stroke
125 0 2943 4416 2 MP stroke
125 0 2943 4577 2 MP stroke
0 161 3041 4407 2 MP stroke
125 0 2978 4407 2 MP stroke
125 0 2978 4568 2 MP stroke
0 177 3077 4395 2 MP stroke
125 0 3014 4395 2 MP stroke
125 0 3014 4572 2 MP stroke
0 185 3112 4391 2 MP stroke
125 0 3050 4391 2 MP stroke
125 0 3050 4576 2 MP stroke
0 176 3148 4397 2 MP stroke
125 0 3086 4397 2 MP stroke
125 0 3086 4573 2 MP stroke
0 141 3184 4426 2 MP stroke
125 0 3121 4426 2 MP stroke
125 0 3121 4567 2 MP stroke
0 195 3219 4378 2 MP stroke
125 0 3157 4378 2 MP stroke
125 0 3157 4573 2 MP stroke
0 156 3255 4409 2 MP stroke
125 0 3193 4409 2 MP stroke
125 0 3193 4565 2 MP stroke
0 163 3291 4419 2 MP stroke
125 0 3228 4419 2 MP stroke
125 0 3228 4582 2 MP stroke
0 167 3327 4412 2 MP stroke
125 0 3264 4412 2 MP stroke
125 0 3264 4579 2 MP stroke
0 189 3362 4391 2 MP stroke
125 0 3300 4391 2 MP stroke
125 0 3300 4580 2 MP stroke
0 185 3398 4388 2 MP stroke
125 0 3335 4388 2 MP stroke
125 0 3335 4573 2 MP stroke
0 190 3434 4391 2 MP stroke
125 0 3371 4391 2 MP stroke
125 0 3371 4581 2 MP stroke
0 172 3469 4407 2 MP stroke
125 0 3407 4407 2 MP stroke
125 0 3407 4579 2 MP stroke
0 171 3505 4420 2 MP stroke
125 0 3443 4420 2 MP stroke
125 0 3443 4591 2 MP stroke
0 147 3541 4423 2 MP stroke
125 0 3478 4423 2 MP stroke
125 0 3478 4570 2 MP stroke
0 185 3577 4393 2 MP stroke
125 0 3514 4393 2 MP stroke
125 0 3514 4578 2 MP stroke
0 145 3612 4418 2 MP stroke
125 0 3550 4418 2 MP stroke
125 0 3550 4563 2 MP stroke
0 188 3648 4384 2 MP stroke
125 0 3585 4384 2 MP stroke
125 0 3585 4572 2 MP stroke
0 208 3684 4382 2 MP stroke
125 0 3621 4382 2 MP stroke
125 0 3621 4590 2 MP stroke
0 202 3719 4383 2 MP stroke
125 0 3657 4383 2 MP stroke
125 0 3657 4585 2 MP stroke
0 195 3755 4397 2 MP stroke
125 0 3693 4397 2 MP stroke
125 0 3693 4592 2 MP stroke
0 163 3791 4413 2 MP stroke
125 0 3728 4413 2 MP stroke
125 0 3728 4576 2 MP stroke
0 190 3826 4404 2 MP stroke
125 0 3764 4404 2 MP stroke
125 0 3764 4594 2 MP stroke
0 191 3862 4394 2 MP stroke
125 0 3800 4394 2 MP stroke
125 0 3800 4585 2 MP stroke
0 169 3898 4400 2 MP stroke
125 0 3835 4400 2 MP stroke
125 0 3835 4569 2 MP stroke
0 177 3934 4399 2 MP stroke
125 0 3871 4399 2 MP stroke
125 0 3871 4576 2 MP stroke
0 149 3969 4417 2 MP stroke
125 0 3907 4417 2 MP stroke
125 0 3907 4566 2 MP stroke
0 146 4005 4416 2 MP stroke
125 0 3942 4416 2 MP stroke
125 0 3942 4562 2 MP stroke
0 125 4041 4439 2 MP stroke
125 0 3978 4439 2 MP stroke
125 0 3978 4564 2 MP stroke
0 150 4076 4410 2 MP stroke
125 0 4014 4410 2 MP stroke
125 0 4014 4560 2 MP stroke
0 162 4112 4402 2 MP stroke
125 0 4050 4402 2 MP stroke
125 0 4050 4564 2 MP stroke
0 136 4148 4416 2 MP stroke
125 0 4085 4416 2 MP stroke
125 0 4085 4552 2 MP stroke
0 140 4184 4396 2 MP stroke
125 0 4121 4396 2 MP stroke
125 0 4121 4536 2 MP stroke
0 140 4219 4407 2 MP stroke
125 0 4157 4407 2 MP stroke
125 0 4157 4547 2 MP stroke
0 108 4255 4438 2 MP stroke
125 0 4192 4438 2 MP stroke
125 0 4192 4546 2 MP stroke
0 130 4291 4429 2 MP stroke
125 0 4228 4429 2 MP stroke
125 0 4228 4559 2 MP stroke
0 124 4326 4424 2 MP stroke
125 0 4264 4424 2 MP stroke
125 0 4264 4548 2 MP stroke
0 123 4362 4423 2 MP stroke
125 0 4300 4423 2 MP stroke
125 0 4300 4546 2 MP stroke
0 127 4398 4413 2 MP stroke
125 0 4335 4413 2 MP stroke
125 0 4335 4540 2 MP stroke
0 121 4433 4431 2 MP stroke
125 0 4371 4431 2 MP stroke
125 0 4371 4552 2 MP stroke
0 154 4469 4417 2 MP stroke
125 0 4407 4417 2 MP stroke
125 0 4407 4571 2 MP stroke
0 145 4505 4428 2 MP stroke
125 0 4442 4428 2 MP stroke
125 0 4442 4573 2 MP stroke
0 159 4541 4424 2 MP stroke
125 0 4478 4424 2 MP stroke
125 0 4478 4583 2 MP stroke
0 163 4576 4408 2 MP stroke
125 0 4514 4408 2 MP stroke
125 0 4514 4571 2 MP stroke
0 170 4612 4415 2 MP stroke
124 0 4550 4415 2 MP stroke
124 0 4550 4585 2 MP stroke
0 156 4648 4418 2 MP stroke
125 0 4585 4418 2 MP stroke
125 0 4585 4574 2 MP stroke
0 172 4683 4411 2 MP stroke
125 0 4621 4411 2 MP stroke
125 0 4621 4583 2 MP stroke
0 159 4719 4409 2 MP stroke
125 0 4657 4409 2 MP stroke
125 0 4657 4568 2 MP stroke
0 168 4755 4404 2 MP stroke
125 0 4692 4404 2 MP stroke
125 0 4692 4572 2 MP stroke
0 181 4791 4392 2 MP stroke
125 0 4728 4392 2 MP stroke
125 0 4728 4573 2 MP stroke
0 166 4826 4403 2 MP stroke
125 0 4764 4403 2 MP stroke
125 0 4764 4569 2 MP stroke
0 175 4862 4394 2 MP stroke
125 0 4799 4394 2 MP stroke
125 0 4799 4569 2 MP stroke
0 159 4898 4406 2 MP stroke
125 0 4835 4406 2 MP stroke
125 0 4835 4565 2 MP stroke
0 138 4933 4406 2 MP stroke
125 0 4871 4406 2 MP stroke
125 0 4871 4544 2 MP stroke
0 148 4969 4401 2 MP stroke
125 0 4907 4401 2 MP stroke
125 0 4907 4549 2 MP stroke
0 169 5005 4397 2 MP stroke
125 0 4942 4397 2 MP stroke
125 0 4942 4566 2 MP stroke
0 142 5040 4416 2 MP stroke
125 0 4978 4416 2 MP stroke
125 0 4978 4558 2 MP stroke
0 157 5076 4405 2 MP stroke
125 0 5014 4405 2 MP stroke
125 0 5014 4562 2 MP stroke
0 148 5112 4410 2 MP stroke
125 0 5049 4410 2 MP stroke
125 0 5049 4558 2 MP stroke
0 179 5148 4400 2 MP stroke
125 0 5085 4400 2 MP stroke
125 0 5085 4579 2 MP stroke
0 181 5183 4395 2 MP stroke
125 0 5121 4395 2 MP stroke
125 0 5121 4576 2 MP stroke
0 220 5219 4372 2 MP stroke
124 0 5157 4372 2 MP stroke
124 0 5157 4592 2 MP stroke
0 195 5255 4392 2 MP stroke
125 0 5192 4392 2 MP stroke
125 0 5192 4587 2 MP stroke
0 190 5290 4397 2 MP stroke
125 0 5228 4397 2 MP stroke
125 0 5228 4587 2 MP stroke
0 187 5326 4391 2 MP stroke
125 0 5264 4391 2 MP stroke
125 0 5264 4578 2 MP stroke
0 179 5362 4396 2 MP stroke
125 0 5299 4396 2 MP stroke
125 0 5299 4575 2 MP stroke
0 183 5398 4401 2 MP stroke
125 0 5335 4401 2 MP stroke
125 0 5335 4584 2 MP stroke
0 182 5433 4403 2 MP stroke
125 0 5371 4403 2 MP stroke
125 0 5371 4585 2 MP stroke
0 177 5469 4400 2 MP stroke
125 0 5406 4400 2 MP stroke
125 0 5406 4577 2 MP stroke
0 166 5505 4399 2 MP stroke
125 0 5442 4399 2 MP stroke
125 0 5442 4565 2 MP stroke
0 152 5540 4408 2 MP stroke
125 0 5478 4408 2 MP stroke
125 0 5478 4560 2 MP stroke
0 137 5576 4425 2 MP stroke
125 0 5514 4425 2 MP stroke
125 0 5514 4562 2 MP stroke
0 141 5612 4431 2 MP stroke
125 0 5549 4431 2 MP stroke
125 0 5549 4572 2 MP stroke
0 153 5647 4430 2 MP stroke
125 0 5585 4430 2 MP stroke
125 0 5585 4583 2 MP stroke
0 142 5683 4442 2 MP stroke
125 0 5621 4442 2 MP stroke
125 0 5621 4584 2 MP stroke
0 157 5719 4428 2 MP stroke
125 0 5656 4428 2 MP stroke
125 0 5656 4585 2 MP stroke
0 149 5755 4436 2 MP stroke
125 0 5692 4436 2 MP stroke
125 0 5692 4585 2 MP stroke
0 172 5790 4413 2 MP stroke
125 0 5728 4413 2 MP stroke
125 0 5728 4585 2 MP stroke
0 155 5826 4417 2 MP stroke
125 0 5764 4417 2 MP stroke
125 0 5764 4572 2 MP stroke
0 156 5862 4408 2 MP stroke
125 0 5799 4408 2 MP stroke
125 0 5799 4564 2 MP stroke
0 153 5897 4418 2 MP stroke
125 0 5835 4418 2 MP stroke
125 0 5835 4571 2 MP stroke
0 153 5933 4424 2 MP stroke
125 0 5871 4424 2 MP stroke
125 0 5871 4577 2 MP stroke
0 147 5969 4430 2 MP stroke
125 0 5906 4430 2 MP stroke
125 0 5906 4577 2 MP stroke
0 144 6005 4428 2 MP stroke
125 0 5942 4428 2 MP stroke
125 0 5942 4572 2 MP stroke
0 165 6040 4413 2 MP stroke
125 0 5978 4413 2 MP stroke
125 0 5978 4578 2 MP stroke
0 171 6076 4425 2 MP stroke
125 0 6013 4425 2 MP stroke
125 0 6013 4596 2 MP stroke
0 192 6112 4397 2 MP stroke
125 0 6049 4397 2 MP stroke
125 0 6049 4589 2 MP stroke
0 203 6147 4400 2 MP stroke
125 0 6085 4400 2 MP stroke
125 0 6085 4603 2 MP stroke
0 198 6183 4403 2 MP stroke
125 0 6121 4403 2 MP stroke
125 0 6121 4601 2 MP stroke
0 179 6219 4404 2 MP stroke
100 0 6156 4404 2 MP stroke
100 0 6156 4583 2 MP stroke
0 170 6255 4415 2 MP stroke
64 0 6192 4415 2 MP stroke
64 0 6192 4585 2 MP stroke
36 6 36 -8 36 1 35 8 36 -17 36 14 35 -4 36 -3 
36 2 36 6 35 9 36 -8 36 -5 35 -12 36 4 36 -6 
36 6 35 5 36 9 36 9 35 2 36 -7 36 -5 35 2 
36 7 36 0 36 -7 35 2 36 8 36 -4 35 -4 36 6 
36 1 36 -4 35 6 36 6 36 0 35 -10 36 4 36 -5 
35 3 36 -5 36 -1 36 -8 35 1 36 -4 36 10 35 -14 
36 3 36 7 36 2 35 16 36 -9 36 -1 35 -8 36 2 
36 15 35 11 36 -18 36 1 36 -2 35 -16 36 12 36 -3 
35 4 36 3 36 -5 36 -9 35 4 36 1 36 10 35 -2 
36 8 36 -13 35 5 36 -11 36 -8 36 12 35 7 36 5 
36 -5 35 -10 36 -4 36 13 36 12 35 -22 36 12 36 2 
35 -1 36 -4 36 -8 36 1 35 5 36 -8 36 10 35 -3 
36 9 36 -2 35 -6 36 -10 36 15 36 4 35 -2 36 10 
36 -7 35 13 36 9 36 -12 36 13 35 14 36 1 36 -4 
35 -1 36 14 36 -14 35 4 36 5 36 7 36 1 35 11 
36 11 36 6 35 21 36 32 36 15 36 11 35 32 36 8 
36 33 35 25 36 37 36 32 35 44 36 50 36 62 36 79 
35 78 36 98 36 101 35 93 36 149 36 149 36 192 35 198 
36 227 36 280 35 356 36 382 36 487 35 662 899 469 151 MP stroke
gr

c8
  36   36  934 1131 FO
  36   36  970 1618 FO
  36   36 1006 2000 FO
  36   36 1041 2356 FO
  36   36 1077 2636 FO
  36   36 1113 2863 FO
  36   36 1148 3061 FO
  36   36 1184 3253 FO
  36   36 1220 3402 FO
  36   36 1256 3551 FO
  36   36 1291 3644 FO
  36   36 1327 3745 FO
  36   36 1363 3843 FO
  36   36 1398 3921 FO
  36   36 1434 4000 FO
  36   36 1470 4062 FO
  36   36 1506 4112 FO
  36   36 1541 4156 FO
  36   36 1577 4188 FO
  36   36 1613 4225 FO
  36   36 1648 4250 FO
  36   36 1684 4283 FO
  36   36 1720 4291 FO
  36   36 1755 4323 FO
  36   36 1791 4334 FO
  36   36 1827 4349 FO
  36   36 1863 4381 FO
  36   36 1898 4402 FO
  36   36 1934 4408 FO
  36   36 1970 4419 FO
  36   36 2005 4430 FO
  36   36 2041 4431 FO
  36   36 2077 4438 FO
  36   36 2113 4443 FO
  36   36 2148 4447 FO
  36   36 2184 4433 FO
  36   36 2220 4447 FO
  36   36 2255 4446 FO
  36   36 2291 4442 FO
  36   36 2327 4443 FO
  36   36 2362 4457 FO
  36   36 2398 4470 FO
  36   36 2434 4458 FO
  36   36 2470 4467 FO
  36   36 2505 4480 FO
  36   36 2541 4473 FO
  36   36 2577 4483 FO
  36   36 2612 4481 FO
  36   36 2648 4485 FO
  36   36 2684 4500 FO
  36   36 2720 4490 FO
  36   36 2755 4484 FO
  36   36 2791 4482 FO
  36   36 2827 4491 FO
  36   36 2862 4488 FO
  36   36 2898 4498 FO
  36   36 2934 4490 FO
  36   36 2969 4495 FO
  36   36 3005 4496 FO
  36   36 3041 4488 FO
  36   36 3077 4484 FO
  36   36 3112 4483 FO
  36   36 3148 4485 FO
  36   36 3184 4497 FO
  36   36 3219 4475 FO
  36   36 3255 4487 FO
  36   36 3291 4500 FO
  36   36 3327 4496 FO
  36   36 3362 4486 FO
  36   36 3398 4481 FO
  36   36 3434 4486 FO
  36   36 3469 4493 FO
  36   36 3505 4505 FO
  36   36 3541 4497 FO
  36   36 3577 4486 FO
  36   36 3612 4491 FO
  36   36 3648 4478 FO
  36   36 3684 4486 FO
  36   36 3719 4484 FO
  36   36 3755 4494 FO
  36   36 3791 4495 FO
  36   36 3826 4499 FO
  36   36 3862 4490 FO
  36   36 3898 4485 FO
  36   36 3934 4488 FO
  36   36 3969 4492 FO
  36   36 4005 4489 FO
  36   36 4041 4501 FO
  36   36 4076 4485 FO
  36   36 4112 4483 FO
  36   36 4148 4484 FO
  36   36 4184 4466 FO
  36   36 4219 4477 FO
  36   36 4255 4492 FO
  36   36 4291 4494 FO
  36   36 4326 4486 FO
  36   36 4362 4485 FO
  36   36 4398 4476 FO
  36   36 4433 4492 FO
  36   36 4469 4494 FO
  36   36 4505 4501 FO
  36   36 4541 4504 FO
  36   36 4576 4490 FO
  36   36 4612 4500 FO
  36   36 4648 4496 FO
  36   36 4683 4497 FO
  36   36 4719 4489 FO
  36   36 4755 4488 FO
  36   36 4791 4483 FO
  36   36 4826 4486 FO
  36   36 4862 4481 FO
  36   36 4898 4485 FO
  36   36 4933 4475 FO
  36   36 4969 4475 FO
  36   36 5005 4481 FO
  36   36 5040 4487 FO
  36   36 5076 4483 FO
  36   36 5112 4484 FO
  36   36 5148 4490 FO
  36   36 5183 4486 FO
  36   36 5219 4482 FO
  36   36 5255 4490 FO
  36   36 5290 4492 FO
  36   36 5326 4485 FO
  36   36 5362 4485 FO
  36   36 5398 4492 FO
  36   36 5433 4494 FO
  36   36 5469 4489 FO
  36   36 5505 4482 FO
  36   36 5540 4484 FO
  36   36 5576 4493 FO
  36   36 5612 4502 FO
  36   36 5647 4507 FO
  36   36 5683 4513 FO
  36   36 5719 4507 FO
  36   36 5755 4511 FO
  36   36 5790 4499 FO
  36   36 5826 4494 FO
  36   36 5862 4486 FO
  36   36 5897 4495 FO
  36   36 5933 4501 FO
  36   36 5969 4503 FO
  36   36 6005 4500 FO
  36   36 6040 4496 FO
  36   36 6076 4510 FO
  36   36 6112 4493 FO
  36   36 6147 4501 FO
  36   36 6183 4502 FO
  36   36 6219 4494 FO
  36   36 6255 4500 FO
gs 899 469 5357 4147 rc
/c9 { 0.000000 0.500000 0.000000 sr} bdef
c9
26 0 899 550 2 MP stroke
899 469 PD
62 0 899 469 2 MP stroke
62 0 899 469 2 MP stroke
0 69 934 469 2 MP stroke
98 0 899 538 2 MP stroke
0 84 970 469 2 MP stroke
125 0 907 553 2 MP stroke
0 116 1006 469 2 MP stroke
125 0 943 585 2 MP stroke
0 153 1041 469 2 MP stroke
125 0 979 622 2 MP stroke
0 174 1077 469 2 MP stroke
125 0 1015 643 2 MP stroke
0 163 1113 469 2 MP stroke
125 0 1050 632 2 MP stroke
0 174 1148 469 2 MP stroke
125 0 1086 643 2 MP stroke
0 211 1184 469 2 MP stroke
125 0 1122 680 2 MP stroke
0 204 1220 469 2 MP stroke
125 0 1157 673 2 MP stroke
0 197 1256 469 2 MP stroke
125 0 1193 666 2 MP stroke
0 233 1291 469 2 MP stroke
125 0 1229 702 2 MP stroke
0 232 1327 469 2 MP stroke
125 0 1264 701 2 MP stroke
0 232 1363 469 2 MP stroke
125 0 1300 701 2 MP stroke
0 251 1398 469 2 MP stroke
125 0 1336 720 2 MP stroke
0 231 1434 469 2 MP stroke
125 0 1372 700 2 MP stroke
0 265 1470 469 2 MP stroke
125 0 1407 734 2 MP stroke
0 276 1506 469 2 MP stroke
125 0 1443 745 2 MP stroke
0 279 1541 469 2 MP stroke
125 0 1479 748 2 MP stroke
0 305 1577 469 2 MP stroke
125 0 1514 774 2 MP stroke
0 309 1613 469 2 MP stroke
125 0 1550 778 2 MP stroke
0 332 1648 469 2 MP stroke
125 0 1586 801 2 MP stroke
0 330 1684 469 2 MP stroke
125 0 1622 799 2 MP stroke
0 357 1720 469 2 MP stroke
125 0 1657 826 2 MP stroke
0 372 1755 469 2 MP stroke
125 0 1693 841 2 MP stroke
0 366 1791 469 2 MP stroke
125 0 1729 835 2 MP stroke
0 389 1827 469 2 MP stroke
125 0 1764 858 2 MP stroke
0 394 1863 469 2 MP stroke
125 0 1800 863 2 MP stroke
0 389 1898 469 2 MP stroke
125 0 1836 858 2 MP stroke
0 408 1934 469 2 MP stroke
124 0 1872 877 2 MP stroke
0 409 1970 469 2 MP stroke
125 0 1907 878 2 MP stroke
0 428 2005 469 2 MP stroke
125 0 1943 897 2 MP stroke
0 456 2041 469 2 MP stroke
125 0 1979 925 2 MP stroke
0 460 2077 469 2 MP stroke
125 0 2014 929 2 MP stroke
0 480 2113 469 2 MP stroke
125 0 2050 949 2 MP stroke
0 479 2148 469 2 MP stroke
125 0 2086 948 2 MP stroke
0 500 2184 469 2 MP stroke
125 0 2121 969 2 MP stroke
0 502 2220 469 2 MP stroke
125 0 2157 971 2 MP stroke
0 515 2255 469 2 MP stroke
125 0 2193 984 2 MP stroke
0 527 2291 481 2 MP stroke
125 0 2229 481 2 MP stroke
125 0 2229 1008 2 MP stroke
0 539 2327 487 2 MP stroke
125 0 2264 487 2 MP stroke
125 0 2264 1026 2 MP stroke
0 548 2362 479 2 MP stroke
125 0 2300 479 2 MP stroke
125 0 2300 1027 2 MP stroke
0 545 2398 492 2 MP stroke
125 0 2336 492 2 MP stroke
125 0 2336 1037 2 MP stroke
0 556 2434 513 2 MP stroke
125 0 2371 513 2 MP stroke
125 0 2371 1069 2 MP stroke
0 558 2470 508 2 MP stroke
125 0 2407 508 2 MP stroke
125 0 2407 1066 2 MP stroke
0 573 2505 499 2 MP stroke
125 0 2443 499 2 MP stroke
125 0 2443 1072 2 MP stroke
0 572 2541 524 2 MP stroke
124 0 2479 524 2 MP stroke
124 0 2479 1096 2 MP stroke
0 574 2577 520 2 MP stroke
125 0 2514 520 2 MP stroke
125 0 2514 1094 2 MP stroke
0 575 2612 528 2 MP stroke
125 0 2550 528 2 MP stroke
125 0 2550 1103 2 MP stroke
0 599 2648 527 2 MP stroke
125 0 2586 527 2 MP stroke
125 0 2586 1126 2 MP stroke
0 599 2684 521 2 MP stroke
125 0 2621 521 2 MP stroke
125 0 2621 1120 2 MP stroke
0 579 2720 545 2 MP stroke
125 0 2657 545 2 MP stroke
125 0 2657 1124 2 MP stroke
0 616 2755 544 2 MP stroke
125 0 2693 544 2 MP stroke
125 0 2693 1160 2 MP stroke
0 619 2791 555 2 MP stroke
125 0 2728 555 2 MP stroke
125 0 2728 1174 2 MP stroke
0 614 2827 559 2 MP stroke
125 0 2764 559 2 MP stroke
125 0 2764 1173 2 MP stroke
0 606 2862 576 2 MP stroke
125 0 2800 576 2 MP stroke
125 0 2800 1182 2 MP stroke
0 601 2898 572 2 MP stroke
125 0 2836 572 2 MP stroke
125 0 2836 1173 2 MP stroke
0 652 2934 569 2 MP stroke
125 0 2871 569 2 MP stroke
125 0 2871 1221 2 MP stroke
0 623 2969 583 2 MP stroke
125 0 2907 583 2 MP stroke
125 0 2907 1206 2 MP stroke
0 637 3005 582 2 MP stroke
125 0 2943 582 2 MP stroke
125 0 2943 1219 2 MP stroke
0 653 3041 596 2 MP stroke
125 0 2978 596 2 MP stroke
125 0 2978 1249 2 MP stroke
0 618 3077 630 2 MP stroke
125 0 3014 630 2 MP stroke
125 0 3014 1248 2 MP stroke
0 622 3112 636 2 MP stroke
125 0 3050 636 2 MP stroke
125 0 3050 1258 2 MP stroke
0 624 3148 638 2 MP stroke
125 0 3086 638 2 MP stroke
125 0 3086 1262 2 MP stroke
0 614 3184 636 2 MP stroke
125 0 3121 636 2 MP stroke
125 0 3121 1250 2 MP stroke
0 631 3219 660 2 MP stroke
125 0 3157 660 2 MP stroke
125 0 3157 1291 2 MP stroke
0 652 3255 649 2 MP stroke
125 0 3193 649 2 MP stroke
125 0 3193 1301 2 MP stroke
0 652 3291 650 2 MP stroke
125 0 3228 650 2 MP stroke
125 0 3228 1302 2 MP stroke
0 657 3327 649 2 MP stroke
125 0 3264 649 2 MP stroke
125 0 3264 1306 2 MP stroke
0 660 3362 676 2 MP stroke
125 0 3300 676 2 MP stroke
125 0 3300 1336 2 MP stroke
0 699 3398 677 2 MP stroke
125 0 3335 677 2 MP stroke
125 0 3335 1376 2 MP stroke
0 669 3434 699 2 MP stroke
125 0 3371 699 2 MP stroke
125 0 3371 1368 2 MP stroke
0 713 3469 680 2 MP stroke
125 0 3407 680 2 MP stroke
125 0 3407 1393 2 MP stroke
0 705 3505 676 2 MP stroke
125 0 3443 676 2 MP stroke
125 0 3443 1381 2 MP stroke
0 729 3541 683 2 MP stroke
125 0 3478 683 2 MP stroke
125 0 3478 1412 2 MP stroke
0 739 3577 698 2 MP stroke
125 0 3514 698 2 MP stroke
125 0 3514 1437 2 MP stroke
0 724 3612 706 2 MP stroke
125 0 3550 706 2 MP stroke
125 0 3550 1430 2 MP stroke
0 721 3648 727 2 MP stroke
125 0 3585 727 2 MP stroke
125 0 3585 1448 2 MP stroke
0 702 3684 735 2 MP stroke
125 0 3621 735 2 MP stroke
125 0 3621 1437 2 MP stroke
0 704 3719 746 2 MP stroke
125 0 3657 746 2 MP stroke
125 0 3657 1450 2 MP stroke
0 724 3755 730 2 MP stroke
125 0 3693 730 2 MP stroke
125 0 3693 1454 2 MP stroke
0 732 3791 742 2 MP stroke
125 0 3728 742 2 MP stroke
125 0 3728 1474 2 MP stroke
0 740 3826 732 2 MP stroke
125 0 3764 732 2 MP stroke
125 0 3764 1472 2 MP stroke
0 741 3862 749 2 MP stroke
125 0 3800 749 2 MP stroke
125 0 3800 1490 2 MP stroke
0 719 3898 781 2 MP stroke
125 0 3835 781 2 MP stroke
125 0 3835 1500 2 MP stroke
0 728 3934 780 2 MP stroke
125 0 3871 780 2 MP stroke
125 0 3871 1508 2 MP stroke
0 778 3969 764 2 MP stroke
125 0 3907 764 2 MP stroke
125 0 3907 1542 2 MP stroke
0 796 4005 770 2 MP stroke
125 0 3942 770 2 MP stroke
125 0 3942 1566 2 MP stroke
0 781 4041 770 2 MP stroke
125 0 3978 770 2 MP stroke
125 0 3978 1551 2 MP stroke
0 767 4076 799 2 MP stroke
125 0 4014 799 2 MP stroke
125 0 4014 1566 2 MP stroke
0 817 4112 788 2 MP stroke
125 0 4050 788 2 MP stroke
125 0 4050 1605 2 MP stroke
0 778 4148 814 2 MP stroke
125 0 4085 814 2 MP stroke
125 0 4085 1592 2 MP stroke
0 805 4184 830 2 MP stroke
125 0 4121 830 2 MP stroke
125 0 4121 1635 2 MP stroke
0 844 4219 807 2 MP stroke
125 0 4157 807 2 MP stroke
125 0 4157 1651 2 MP stroke
0 835 4255 809 2 MP stroke
125 0 4192 809 2 MP stroke
125 0 4192 1644 2 MP stroke
0 862 4291 808 2 MP stroke
125 0 4228 808 2 MP stroke
125 0 4228 1670 2 MP stroke
0 860 4326 830 2 MP stroke
125 0 4264 830 2 MP stroke
125 0 4264 1690 2 MP stroke
0 857 4362 838 2 MP stroke
125 0 4300 838 2 MP stroke
125 0 4300 1695 2 MP stroke
0 877 4398 846 2 MP stroke
125 0 4335 846 2 MP stroke
125 0 4335 1723 2 MP stroke
0 893 4433 833 2 MP stroke
125 0 4371 833 2 MP stroke
125 0 4371 1726 2 MP stroke
0 893 4469 836 2 MP stroke
125 0 4407 836 2 MP stroke
125 0 4407 1729 2 MP stroke
0 888 4505 843 2 MP stroke
125 0 4442 843 2 MP stroke
125 0 4442 1731 2 MP stroke
0 892 4541 835 2 MP stroke
125 0 4478 835 2 MP stroke
125 0 4478 1727 2 MP stroke
0 881 4576 873 2 MP stroke
125 0 4514 873 2 MP stroke
125 0 4514 1754 2 MP stroke
0 907 4612 854 2 MP stroke
124 0 4550 854 2 MP stroke
124 0 4550 1761 2 MP stroke
0 908 4648 867 2 MP stroke
125 0 4585 867 2 MP stroke
125 0 4585 1775 2 MP stroke
0 909 4683 870 2 MP stroke
125 0 4621 870 2 MP stroke
125 0 4621 1779 2 MP stroke
0 920 4719 881 2 MP stroke
125 0 4657 881 2 MP stroke
125 0 4657 1801 2 MP stroke
0 929 4755 881 2 MP stroke
125 0 4692 881 2 MP stroke
125 0 4692 1810 2 MP stroke
0 925 4791 893 2 MP stroke
125 0 4728 893 2 MP stroke
125 0 4728 1818 2 MP stroke
0 944 4826 885 2 MP stroke
125 0 4764 885 2 MP stroke
125 0 4764 1829 2 MP stroke
0 951 4862 891 2 MP stroke
125 0 4799 891 2 MP stroke
125 0 4799 1842 2 MP stroke
0 950 4898 900 2 MP stroke
125 0 4835 900 2 MP stroke
125 0 4835 1850 2 MP stroke
0 953 4933 915 2 MP stroke
125 0 4871 915 2 MP stroke
125 0 4871 1868 2 MP stroke
0 974 4969 914 2 MP stroke
125 0 4907 914 2 MP stroke
125 0 4907 1888 2 MP stroke
0 967 5005 923 2 MP stroke
125 0 4942 923 2 MP stroke
125 0 4942 1890 2 MP stroke
0 976 5040 928 2 MP stroke
125 0 4978 928 2 MP stroke
125 0 4978 1904 2 MP stroke
0 995 5076 931 2 MP stroke
125 0 5014 931 2 MP stroke
125 0 5014 1926 2 MP stroke
0 989 5112 937 2 MP stroke
125 0 5049 937 2 MP stroke
125 0 5049 1926 2 MP stroke
0 989 5148 943 2 MP stroke
125 0 5085 943 2 MP stroke
125 0 5085 1932 2 MP stroke
0 959 5183 972 2 MP stroke
125 0 5121 972 2 MP stroke
125 0 5121 1931 2 MP stroke
0 975 5219 981 2 MP stroke
124 0 5157 981 2 MP stroke
124 0 5157 1956 2 MP stroke
0 994 5255 972 2 MP stroke
125 0 5192 972 2 MP stroke
125 0 5192 1966 2 MP stroke
0 981 5290 985 2 MP stroke
125 0 5228 985 2 MP stroke
125 0 5228 1966 2 MP stroke
0 987 5326 997 2 MP stroke
125 0 5264 997 2 MP stroke
125 0 5264 1984 2 MP stroke
0 974 5362 1014 2 MP stroke
125 0 5299 1014 2 MP stroke
125 0 5299 1988 2 MP stroke
0 1001 5398 1004 2 MP stroke
125 0 5335 1004 2 MP stroke
125 0 5335 2005 2 MP stroke
0 996 5433 1020 2 MP stroke
125 0 5371 1020 2 MP stroke
125 0 5371 2016 2 MP stroke
0 978 5469 1041 2 MP stroke
125 0 5406 1041 2 MP stroke
125 0 5406 2019 2 MP stroke
0 1010 5505 1040 2 MP stroke
125 0 5442 1040 2 MP stroke
125 0 5442 2050 2 MP stroke
0 1010 5540 1039 2 MP stroke
125 0 5478 1039 2 MP stroke
125 0 5478 2049 2 MP stroke
0 992 5576 1052 2 MP stroke
125 0 5514 1052 2 MP stroke
125 0 5514 2044 2 MP stroke
0 986 5612 1059 2 MP stroke
125 0 5549 1059 2 MP stroke
125 0 5549 2045 2 MP stroke
0 1007 5647 1052 2 MP stroke
125 0 5585 1052 2 MP stroke
125 0 5585 2059 2 MP stroke
0 1000 5683 1058 2 MP stroke
125 0 5621 1058 2 MP stroke
125 0 5621 2058 2 MP stroke
0 1007 5719 1072 2 MP stroke
125 0 5656 1072 2 MP stroke
125 0 5656 2079 2 MP stroke
0 988 5755 1083 2 MP stroke
125 0 5692 1083 2 MP stroke
125 0 5692 2071 2 MP stroke
0 1004 5790 1091 2 MP stroke
125 0 5728 1091 2 MP stroke
125 0 5728 2095 2 MP stroke
0 1013 5826 1103 2 MP stroke
125 0 5764 1103 2 MP stroke
125 0 5764 2116 2 MP stroke
0 1021 5862 1113 2 MP stroke
125 0 5799 1113 2 MP stroke
125 0 5799 2134 2 MP stroke
0 1014 5897 1113 2 MP stroke
125 0 5835 1113 2 MP stroke
125 0 5835 2127 2 MP stroke
0 1018 5933 1111 2 MP stroke
125 0 5871 1111 2 MP stroke
125 0 5871 2129 2 MP stroke
0 1029 5969 1105 2 MP stroke
125 0 5906 1105 2 MP stroke
125 0 5906 2134 2 MP stroke
0 1041 6005 1105 2 MP stroke
125 0 5942 1105 2 MP stroke
125 0 5942 2146 2 MP stroke
0 1051 6040 1105 2 MP stroke
125 0 5978 1105 2 MP stroke
125 0 5978 2156 2 MP stroke
0 1066 6076 1093 2 MP stroke
125 0 6013 1093 2 MP stroke
125 0 6013 2159 2 MP stroke
0 1064 6112 1123 2 MP stroke
125 0 6049 1123 2 MP stroke
125 0 6049 2187 2 MP stroke
0 1045 6147 1138 2 MP stroke
125 0 6085 1138 2 MP stroke
125 0 6085 2183 2 MP stroke
0 1036 6183 1155 2 MP stroke
125 0 6121 1155 2 MP stroke
125 0 6121 2191 2 MP stroke
0 1047 6219 1164 2 MP stroke
100 0 6156 1164 2 MP stroke
100 0 6156 2211 2 MP stroke
0 1055 6255 1157 2 MP stroke
64 0 6192 1157 2 MP stroke
64 0 6192 2212 2 MP stroke
899 469 PD
gr

c9
gs 899 469 5357 4147 rc
27 -15 36 5 35 -4 19 14 987 469 5 MP stroke
gr

  36   36 1006  483 FO
  36   36 1041  479 FO
  36   36 1077  484 FO
gs 899 469 5357 4147 rc
36 -3 36 14 36 12 35 6 36 29 36 -5 35 6 36 5 
36 0 36 0 35 -4 36 15 36 16 35 16 36 2 36 17 
36 2 35 4 36 4 36 4 35 -1 36 15 36 12 35 14 
36 3 36 10 36 15 35 7 36 1 36 16 35 14 36 6 
36 4 36 12 35 9 36 6 36 10 35 16 36 9 36 9 
35 2 36 9 36 5 36 17 35 3 36 14 36 -7 35 33 
36 -6 36 4 36 3 35 -5 36 18 36 7 35 21 36 13 
36 -3 35 -4 36 30 36 7 36 13 35 22 36 -7 36 15 
35 9 36 3 36 21 36 18 35 -6 36 16 36 -6 35 12 
36 -1 36 19 35 1 36 19 36 19 36 -7 35 3 36 7 
36 20 35 28 36 2 36 1 36 -1 35 33 36 -7 36 3 
35 8 36 16 36 22 36 6 35 0 36 23 36 -7 35 13 
36 1 36 13 35 18 36 13 36 -6 36 11 35 9 36 -3 
36 25 35 -2 36 -4 36 26 36 12 35 -4 36 13 36 18 
35 18 36 -6 36 24 35 9 36 12 36 7 36 10 35 9 
36 9 36 14 35 -3 36 0 36 12 36 12 35 6 36 26 
36 -4 35 11 36 -11 36 26 35 10 36 8 36 4 36 -10 
35 25 36 -8 36 -10 35 22 36 1 36 14 36 11 23 9 
1125 469 145 MP stroke
gr

  36   36 1148  478 FO
  36   36 1184  489 FO
  36   36 1220  503 FO
  36   36 1256  504 FO
  36   36 1291  526 FO
  36   36 1327  516 FO
  36   36 1363  508 FO
  36   36 1398  533 FO
  36   36 1434  523 FO
  36   36 1470  527 FO
  36   36 1506  535 FO
  36   36 1541  545 FO
  36   36 1577  571 FO
  36   36 1613  560 FO
  36   36 1648  571 FO
  36   36 1684  567 FO
  36   36 1720  593 FO
  36   36 1755  599 FO
  36   36 1791  611 FO
  36   36 1827  623 FO
  36   36 1863  623 FO
  36   36 1898  620 FO
  36   36 1934  634 FO
  36   36 1970  643 FO
  36   36 2005  652 FO
  36   36 2041  662 FO
  36   36 2077  669 FO
  36   36 2113  681 FO
  36   36 2148  690 FO
  36   36 2184  714 FO
  36   36 2220  708 FO
  36   36 2255  726 FO
  36   36 2291  744 FO
  36   36 2327  757 FO
  36   36 2362  753 FO
  36   36 2398  765 FO
  36   36 2434  791 FO
  36   36 2470  787 FO
  36   36 2505  785 FO
  36   36 2541  810 FO
  36   36 2577  807 FO
  36   36 2612  816 FO
  36   36 2648  827 FO
  36   36 2684  821 FO
  36   36 2720  834 FO
  36   36 2755  852 FO
  36   36 2791  865 FO
  36   36 2827  866 FO
  36   36 2862  879 FO
  36   36 2898  872 FO
  36   36 2934  895 FO
  36   36 2969  895 FO
  36   36 3005  901 FO
  36   36 3041  923 FO
  36   36 3077  939 FO
  36   36 3112  947 FO
  36   36 3148  950 FO
  36   36 3184  943 FO
  36   36 3219  976 FO
  36   36 3255  975 FO
  36   36 3291  976 FO
  36   36 3327  978 FO
  36   36 3362 1006 FO
  36   36 3398 1026 FO
  36   36 3434 1033 FO
  36   36 3469 1036 FO
  36   36 3505 1029 FO
  36   36 3541 1048 FO
  36   36 3577 1067 FO
  36   36 3612 1068 FO
  36   36 3648 1087 FO
  36   36 3684 1086 FO
  36   36 3719 1098 FO
  36   36 3755 1092 FO
  36   36 3791 1108 FO
  36   36 3826 1102 FO
  36   36 3862 1120 FO
  36   36 3898 1141 FO
  36   36 3934 1144 FO
  36   36 3969 1153 FO
  36   36 4005 1168 FO
  36   36 4041 1161 FO
  36   36 4076 1183 FO
  36   36 4112 1196 FO
  36   36 4148 1203 FO
  36   36 4184 1233 FO
  36   36 4219 1229 FO
  36   36 4255 1226 FO
  36   36 4291 1239 FO
  36   36 4326 1260 FO
  36   36 4362 1267 FO
  36   36 4398 1285 FO
  36   36 4433 1280 FO
  36   36 4469 1283 FO
  36   36 4505 1287 FO
  36   36 4541 1281 FO
  36   36 4576 1314 FO
  36   36 4612 1307 FO
  36   36 4648 1321 FO
  36   36 4683 1324 FO
  36   36 4719 1341 FO
  36   36 4755 1346 FO
  36   36 4791 1355 FO
  36   36 4826 1357 FO
  36   36 4862 1366 FO
  36   36 4898 1375 FO
  36   36 4933 1391 FO
  36   36 4969 1401 FO
  36   36 5005 1407 FO
  36   36 5040 1416 FO
  36   36 5076 1428 FO
  36   36 5112 1432 FO
  36   36 5148 1438 FO
  36   36 5183 1452 FO
  36   36 5219 1468 FO
  36   36 5255 1469 FO
  36   36 5290 1476 FO
  36   36 5326 1491 FO
  36   36 5362 1501 FO
  36   36 5398 1504 FO
  36   36 5433 1518 FO
  36   36 5469 1530 FO
  36   36 5505 1545 FO
  36   36 5540 1544 FO
  36   36 5576 1548 FO
  36   36 5612 1552 FO
  36   36 5647 1556 FO
  36   36 5683 1558 FO
  36   36 5719 1575 FO
  36   36 5755 1577 FO
  36   36 5790 1593 FO
  36   36 5826 1609 FO
  36   36 5862 1624 FO
  36   36 5897 1620 FO
  36   36 5933 1620 FO
  36   36 5969 1620 FO
  36   36 6005 1625 FO
  36   36 6040 1631 FO
  36   36 6076 1626 FO
  36   36 6112 1655 FO
  36   36 6147 1661 FO
  36   36 6183 1673 FO
  36   36 6219 1687 FO
  36   36 6255 1684 FO
gs 899 469 5357 4147 rc
gr

0 sg
%%IncludeResource: font Helvetica
/Helvetica /ISOLatin1Encoding 168 FMSR

2435  156 mt 
(Nup49-GFP in Late Anaphase) s
%%IncludeResource: font Helvetica
/Helvetica /ISOLatin1Encoding 144 FMSR

1375  293 mt 
(n) s
%%IncludeResource: font Helvetica
/Helvetica /ISOLatin1Encoding 108 FMSR

1455  377 mt 
(cells) s
%%IncludeResource: font Helvetica
/Helvetica /ISOLatin1Encoding 144 FMSR

1671  293 mt 
( = 34    -    d) s
%%IncludeResource: font Helvetica
/Helvetica /ISOLatin1Encoding 108 FMSR

2479  377 mt 
(b) s
%%IncludeResource: font Helvetica
/Helvetica /ISOLatin1Encoding 144 FMSR

2539  293 mt 
( = 0.0566   -   Homogeneous domain   -   P) s
%%IncludeResource: font Helvetica
/Helvetica /ISOLatin1Encoding 108 FMSR

5336  377 mt 
(in) s
%%IncludeResource: font Helvetica
/Helvetica /ISOLatin1Encoding 144 FMSR

5420  293 mt 
( = 0.3) s
3314 4921 mt 
(Time \(s\)) s
 577 3058 mt  -90 rotate
(% Fluorescence) s
90 rotate
%%IncludeResource: font Helvetica
/Helvetica /ISOLatin1Encoding 120 FMSR

 882 4658 mt 
( ) s
6239  511 mt 
( ) s
5656  664 mt 
(mother) s
gs 5217 529 980 335 rc
c8
338 0 5284 621 2 MP stroke
gs 5380 548 147 147 rc
  36   36 5453  621 FO
gr

gr

c8
0 sg
5656  813 mt 
(daughter) s
gs 5217 529 980 335 rc
c9
338 0 5284 770 2 MP stroke
gs 5380 697 147 147 rc
  36   36 5453  770 FO
gr

gr

c9

end %%Color Dict

eplot
%%EndObject

epage
end

showpage

%%Trailer
%%EOF
