%!PS-Adobe-3.0 EPSF-3.0
%%Creator: MATLAB, The MathWorks, Inc. Version 8.1.0.604 (R2013a). Operating System: Darwin 11.4.2 Darwin Kernel Version 11.4.2: Thu Aug 23 16:25:48 PDT 2012; root:xnu-1699.32.7~1/RELEASE_X86_64 x86_64.
%%Title: ./LA_Src1-sphinbarr-hom_domain.eps
%%CreationDate: 10/16/2013  16:58:03
%%DocumentNeededFonts: Helvetica
%%DocumentProcessColors: Cyan Magenta Yellow Black
%%LanguageLevel: 2
%%Pages: 1
%%BoundingBox:    52   197   551   616
%%EndComments

%%BeginProlog
% MathWorks dictionary
/MathWorks 160 dict begin
% definition operators
/bdef {bind def} bind def
/ldef {load def} bind def
/xdef {exch def} bdef
/xstore {exch store} bdef
% operator abbreviations
/c  /clip ldef
/cc /concat ldef
/cp /closepath ldef
/gr /grestore ldef
/gs /gsave ldef
/mt /moveto ldef
/np /newpath ldef
/cm /currentmatrix ldef
/sm /setmatrix ldef
/rm /rmoveto ldef
/rl /rlineto ldef
/s {show newpath} bdef
/sc {setcmykcolor} bdef
/sr /setrgbcolor ldef
/sg /setgray ldef
/w /setlinewidth ldef
/j /setlinejoin ldef
/cap /setlinecap ldef
/rc {rectclip} bdef
/rf {rectfill} bdef
% page state control
/pgsv () def
/bpage {/pgsv save def} bdef
/epage {pgsv restore} bdef
/bplot /gsave ldef
/eplot {stroke grestore} bdef
% orientation switch
/portraitMode 0 def /landscapeMode 1 def /rotateMode 2 def
% coordinate system mappings
/dpi2point 0 def
% font control
/FontSize 0 def
/FMS {/FontSize xstore findfont [FontSize 0 0 FontSize neg 0 0]
  makefont setfont} bdef
/reencode {exch dup where {pop load} {pop StandardEncoding} ifelse
  exch dup 3 1 roll findfont dup length dict begin
  { 1 index /FID ne {def}{pop pop} ifelse } forall
  /Encoding exch def currentdict end definefont pop} bdef
/isroman {findfont /CharStrings get /Agrave known} bdef
/FMSR {3 1 roll 1 index dup isroman {reencode} {pop pop} ifelse
  exch FMS} bdef
/csm {1 dpi2point div -1 dpi2point div scale neg translate
 dup landscapeMode eq {pop -90 rotate}
  {rotateMode eq {90 rotate} if} ifelse} bdef
% line types: solid, dotted, dashed, dotdash
/SO { [] 0 setdash } bdef
/DO { [.5 dpi2point mul 4 dpi2point mul] 0 setdash } bdef
/DA { [6 dpi2point mul] 0 setdash } bdef
/DD { [.5 dpi2point mul 4 dpi2point mul 6 dpi2point mul 4
  dpi2point mul] 0 setdash } bdef
% macros for lines and objects
/L {lineto stroke} bdef
/MP {3 1 roll moveto 1 sub {rlineto} repeat} bdef
/AP {{rlineto} repeat} bdef
/PDlw -1 def
/W {/PDlw currentlinewidth def setlinewidth} def
/PP {closepath eofill} bdef
/DP {closepath stroke} bdef
/MR {4 -2 roll moveto dup  0 exch rlineto exch 0 rlineto
  neg 0 exch rlineto closepath} bdef
/FR {MR stroke} bdef
/PR {MR fill} bdef
/L1i {{currentfile picstr readhexstring pop} image} bdef
/tMatrix matrix def
/MakeOval {newpath tMatrix currentmatrix pop translate scale
0 0 1 0 360 arc tMatrix setmatrix} bdef
/FO {MakeOval stroke} bdef
/PO {MakeOval fill} bdef
/PD {currentlinewidth 2 div 0 360 arc fill
   PDlw -1 eq not {PDlw w /PDlw -1 def} if} def
/FA {newpath tMatrix currentmatrix pop translate scale
  0 0 1 5 -2 roll arc tMatrix setmatrix stroke} bdef
/PA {newpath tMatrix currentmatrix pop	translate 0 0 moveto scale
  0 0 1 5 -2 roll arc closepath tMatrix setmatrix fill} bdef
/FAn {newpath tMatrix currentmatrix pop translate scale
  0 0 1 5 -2 roll arcn tMatrix setmatrix stroke} bdef
/PAn {newpath tMatrix currentmatrix pop translate 0 0 moveto scale
  0 0 1 5 -2 roll arcn closepath tMatrix setmatrix fill} bdef
/vradius 0 def /hradius 0 def /lry 0 def
/lrx 0 def /uly 0 def /ulx 0 def /rad 0 def
/MRR {/vradius xdef /hradius xdef /lry xdef /lrx xdef /uly xdef
  /ulx xdef newpath tMatrix currentmatrix pop ulx hradius add uly
  vradius add translate hradius vradius scale 0 0 1 180 270 arc 
  tMatrix setmatrix lrx hradius sub uly vradius add translate
  hradius vradius scale 0 0 1 270 360 arc tMatrix setmatrix
  lrx hradius sub lry vradius sub translate hradius vradius scale
  0 0 1 0 90 arc tMatrix setmatrix ulx hradius add lry vradius sub
  translate hradius vradius scale 0 0 1 90 180 arc tMatrix setmatrix
  closepath} bdef
/FRR {MRR stroke } bdef
/PRR {MRR fill } bdef
/MlrRR {/lry xdef /lrx xdef /uly xdef /ulx xdef /rad lry uly sub 2 div def
  newpath tMatrix currentmatrix pop ulx rad add uly rad add translate
  rad rad scale 0 0 1 90 270 arc tMatrix setmatrix lrx rad sub lry rad
  sub translate rad rad scale 0 0 1 270 90 arc tMatrix setmatrix
  closepath} bdef
/FlrRR {MlrRR stroke } bdef
/PlrRR {MlrRR fill } bdef
/MtbRR {/lry xdef /lrx xdef /uly xdef /ulx xdef /rad lrx ulx sub 2 div def
  newpath tMatrix currentmatrix pop ulx rad add uly rad add translate
  rad rad scale 0 0 1 180 360 arc tMatrix setmatrix lrx rad sub lry rad
  sub translate rad rad scale 0 0 1 0 180 arc tMatrix setmatrix
  closepath} bdef
/FtbRR {MtbRR stroke } bdef
/PtbRR {MtbRR fill } bdef
/stri 6 array def /dtri 6 array def
/smat 6 array def /dmat 6 array def
/tmat1 6 array def /tmat2 6 array def /dif 3 array def
/asub {/ind2 exch def /ind1 exch def dup dup
  ind1 get exch ind2 get sub exch } bdef
/tri_to_matrix {
  2 0 asub 3 1 asub 4 0 asub 5 1 asub
  dup 0 get exch 1 get 7 -1 roll astore } bdef
/compute_transform {
  dmat dtri tri_to_matrix tmat1 invertmatrix 
  smat stri tri_to_matrix tmat2 concatmatrix } bdef
/ds {stri astore pop} bdef
/dt {dtri astore pop} bdef
/db {2 copy /cols xdef /rows xdef mul dup 3 mul string
  currentfile 
  3 index 0 eq {/ASCIIHexDecode filter}
  {/ASCII85Decode filter 3 index 2 eq {/RunLengthDecode filter} if }
  ifelse exch readstring pop
  dup 0 3 index getinterval /rbmap xdef
  dup 2 index dup getinterval /gbmap xdef
  1 index dup 2 mul exch getinterval /bbmap xdef pop pop}bdef
/it {gs np dtri aload pop moveto lineto lineto cp c
  cols rows 8 compute_transform 
  rbmap gbmap bbmap true 3 colorimage gr}bdef
/il {newpath moveto lineto stroke}bdef
currentdict end def
%%EndProlog

%%BeginSetup
MathWorks begin

0 cap

end
%%EndSetup

%%Page: 1 1
%%BeginPageSetup
%%PageBoundingBox:    52   197   551   616
MathWorks begin
bpage
%%EndPageSetup

%%BeginObject: obj1
bplot

/dpi2point 12 def
portraitMode 0216 7344 csm

  418   -48  5986  5026 rc
85 dict begin %Colortable dictionary
/c0 { 0.000000 0.000000 0.000000 sr} bdef
/c1 { 1.000000 1.000000 1.000000 sr} bdef
/c2 { 0.900000 0.000000 0.000000 sr} bdef
/c3 { 0.000000 0.820000 0.000000 sr} bdef
/c4 { 0.000000 0.000000 0.800000 sr} bdef
/c5 { 0.910000 0.820000 0.320000 sr} bdef
/c6 { 1.000000 0.260000 0.820000 sr} bdef
/c7 { 0.000000 0.820000 0.820000 sr} bdef
c0
1 j
1 sg
   0    0 6913 5186 rf
6 w
0 4146 5356 0 0 -4146 899 4615 4 MP
PP
-5356 0 0 4146 5356 0 0 -4146 899 4615 5 MP stroke
4 w
DO
SO
6 w
0 sg
 899 4615 mt 6255 4615 L
 899  469 mt 6255  469 L
 899 4615 mt  899  469 L
6255 4615 mt 6255  469 L
 899 4615 mt 6255 4615 L
 899 4615 mt  899  469 L
 899 4615 mt  899 4561 L
 899  469 mt  899  522 L
%%IncludeResource: font Helvetica
/Helvetica /ISOLatin1Encoding 120 FMSR

 866 4760 mt 
(0) s
2684 4615 mt 2684 4561 L
2684  469 mt 2684  522 L
2618 4760 mt 
(50) s
4469 4615 mt 4469 4561 L
4469  469 mt 4469  522 L
4369 4760 mt 
(100) s
6255 4615 mt 6255 4561 L
6255  469 mt 6255  522 L
6155 4760 mt 
(150) s
 899 4615 mt  952 4615 L
6255 4615 mt 6201 4615 L
 798 4659 mt 
(0) s
 899 4200 mt  952 4200 L
6255 4200 mt 6201 4200 L
 731 4244 mt 
(10) s
 899 3785 mt  952 3785 L
6255 3785 mt 6201 3785 L
 731 3829 mt 
(20) s
 899 3371 mt  952 3371 L
6255 3371 mt 6201 3371 L
 731 3415 mt 
(30) s
 899 2956 mt  952 2956 L
6255 2956 mt 6201 2956 L
 731 3000 mt 
(40) s
 899 2542 mt  952 2542 L
6255 2542 mt 6201 2542 L
 731 2586 mt 
(50) s
 899 2127 mt  952 2127 L
6255 2127 mt 6201 2127 L
 731 2171 mt 
(60) s
 899 1712 mt  952 1712 L
6255 1712 mt 6201 1712 L
 731 1756 mt 
(70) s
 899 1298 mt  952 1298 L
6255 1298 mt 6201 1298 L
 731 1342 mt 
(80) s
 899  883 mt  952  883 L
6255  883 mt 6201  883 L
 731  927 mt 
(90) s
 899  469 mt  952  469 L
6255  469 mt 6201  469 L
 664  513 mt 
(100) s
 899 4615 mt 6255 4615 L
 899  469 mt 6255  469 L
 899 4615 mt  899  469 L
6255 4615 mt 6255  469 L
gs 899 469 5357 4147 rc
899 469 PD
102 0 899 469 2 MP stroke
102 0 899 469 2 MP stroke
0 606 1043 2135 2 MP stroke
204 0 941 2135 2 MP stroke
204 0 941 2741 2 MP stroke
0 657 1178 2722 2 MP stroke
204 0 1076 2722 2 MP stroke
204 0 1076 3379 2 MP stroke
0 688 1313 2971 2 MP stroke
204 0 1211 2971 2 MP stroke
204 0 1211 3659 2 MP stroke
0 696 1449 3239 2 MP stroke
204 0 1347 3239 2 MP stroke
204 0 1347 3935 2 MP stroke
0 627 1586 3306 2 MP stroke
204 0 1484 3306 2 MP stroke
204 0 1484 3933 2 MP stroke
0 645 1725 3414 2 MP stroke
205 0 1622 3414 2 MP stroke
205 0 1622 4059 2 MP stroke
0 563 1863 3569 2 MP stroke
204 0 1761 3569 2 MP stroke
204 0 1761 4132 2 MP stroke
0 483 2000 3694 2 MP stroke
204 0 1898 3694 2 MP stroke
204 0 1898 4177 2 MP stroke
0 529 2137 3724 2 MP stroke
204 0 2035 3724 2 MP stroke
204 0 2035 4253 2 MP stroke
0 533 2274 3768 2 MP stroke
204 0 2172 3768 2 MP stroke
204 0 2172 4301 2 MP stroke
0 483 2410 3812 2 MP stroke
204 0 2308 3812 2 MP stroke
204 0 2308 4295 2 MP stroke
0 498 2546 3816 2 MP stroke
204 0 2444 3816 2 MP stroke
204 0 2444 4314 2 MP stroke
0 445 2682 3920 2 MP stroke
204 0 2580 3920 2 MP stroke
204 0 2580 4365 2 MP stroke
0 396 2819 3963 2 MP stroke
204 0 2717 3963 2 MP stroke
204 0 2717 4359 2 MP stroke
0 481 2955 3909 2 MP stroke
205 0 2853 3909 2 MP stroke
205 0 2853 4390 2 MP stroke
0 389 3094 3999 2 MP stroke
204 0 2992 3999 2 MP stroke
204 0 2992 4388 2 MP stroke
0 392 3230 4039 2 MP stroke
204 0 3128 4039 2 MP stroke
204 0 3128 4431 2 MP stroke
0 377 3367 4069 2 MP stroke
204 0 3265 4069 2 MP stroke
204 0 3265 4446 2 MP stroke
0 355 3506 4104 2 MP stroke
205 0 3403 4104 2 MP stroke
205 0 3403 4459 2 MP stroke
0 386 3642 4072 2 MP stroke
204 0 3540 4072 2 MP stroke
204 0 3540 4458 2 MP stroke
0 366 3779 4079 2 MP stroke
205 0 3676 4079 2 MP stroke
205 0 3676 4445 2 MP stroke
0 363 3917 4135 2 MP stroke
204 0 3815 4135 2 MP stroke
204 0 3815 4498 2 MP stroke
0 372 4055 4112 2 MP stroke
204 0 3953 4112 2 MP stroke
204 0 3953 4484 2 MP stroke
0 345 4190 4143 2 MP stroke
205 0 4087 4143 2 MP stroke
205 0 4087 4488 2 MP stroke
0 319 4326 4203 2 MP stroke
204 0 4224 4203 2 MP stroke
204 0 4224 4522 2 MP stroke
0 330 4467 4191 2 MP stroke
204 0 4365 4191 2 MP stroke
204 0 4365 4521 2 MP stroke
0 368 4605 4141 2 MP stroke
205 0 4502 4141 2 MP stroke
205 0 4502 4509 2 MP stroke
0 319 4740 4221 2 MP stroke
204 0 4638 4221 2 MP stroke
204 0 4638 4540 2 MP stroke
0 353 4878 4193 2 MP stroke
204 0 4776 4193 2 MP stroke
204 0 4776 4546 2 MP stroke
0 292 5015 4250 2 MP stroke
204 0 4913 4250 2 MP stroke
204 0 4913 4542 2 MP stroke
0 338 5153 4222 2 MP stroke
205 0 5050 4222 2 MP stroke
205 0 5050 4560 2 MP stroke
0 306 5289 4242 2 MP stroke
204 0 5187 4242 2 MP stroke
204 0 5187 4548 2 MP stroke
0 281 5425 4265 2 MP stroke
205 0 5323 4265 2 MP stroke
205 0 5323 4546 2 MP stroke
0 316 5564 4255 2 MP stroke
204 0 5462 4255 2 MP stroke
204 0 5462 4571 2 MP stroke
0 269 5702 4305 2 MP stroke
204 0 5600 4305 2 MP stroke
204 0 5600 4574 2 MP stroke
0 277 5839 4289 2 MP stroke
205 0 5737 4289 2 MP stroke
205 0 5737 4566 2 MP stroke
0 295 5978 4282 2 MP stroke
204 0 5876 4282 2 MP stroke
204 0 5876 4577 2 MP stroke
0 316 6124 4275 2 MP stroke
204 0 6022 4275 2 MP stroke
204 0 6022 4591 2 MP stroke
88 0 6168 4309 2 MP stroke
88 0 6168 4599 2 MP stroke
132 19 146 4 139 2 137 -13 138 27 139 7 136 11 136 4 
138 -5 137 27 138 -11 135 55 138 -31 141 -6 136 46 135 18 
138 -18 138 54 137 -3 136 -17 139 24 137 23 136 42 139 44 
136 -12 137 19 136 77 136 11 136 19 137 46 137 54 137 85 
138 114 139 116 137 33 136 272 135 264 135 613 144 1969 899 469 40 MP stroke
gr

 874  444 mt  924  494 L
 924  444 mt  874  494 L
1018 2413 mt 1068 2463 L
1068 2413 mt 1018 2463 L
1153 3026 mt 1203 3076 L
1203 3026 mt 1153 3076 L
1288 3290 mt 1338 3340 L
1338 3290 mt 1288 3340 L
1424 3562 mt 1474 3612 L
1474 3562 mt 1424 3612 L
1561 3595 mt 1611 3645 L
1611 3595 mt 1561 3645 L
1700 3711 mt 1750 3761 L
1750 3711 mt 1700 3761 L
1838 3825 mt 1888 3875 L
1888 3825 mt 1838 3875 L
1975 3910 mt 2025 3960 L
2025 3910 mt 1975 3960 L
2112 3964 mt 2162 4014 L
2162 3964 mt 2112 4014 L
2249 4010 mt 2299 4060 L
2299 4010 mt 2249 4060 L
2385 4029 mt 2435 4079 L
2435 4029 mt 2385 4079 L
2521 4040 mt 2571 4090 L
2571 4040 mt 2521 4090 L
2657 4117 mt 2707 4167 L
2707 4117 mt 2657 4167 L
2794 4136 mt 2844 4186 L
2844 4136 mt 2794 4186 L
2930 4124 mt 2980 4174 L
2980 4124 mt 2930 4174 L
3069 4168 mt 3119 4218 L
3119 4168 mt 3069 4218 L
3205 4210 mt 3255 4260 L
3255 4210 mt 3205 4260 L
3342 4233 mt 3392 4283 L
3392 4233 mt 3342 4283 L
3481 4257 mt 3531 4307 L
3531 4257 mt 3481 4307 L
3617 4240 mt 3667 4290 L
3667 4240 mt 3617 4290 L
3754 4237 mt 3804 4287 L
3804 4237 mt 3754 4287 L
3892 4291 mt 3942 4341 L
3942 4291 mt 3892 4341 L
4030 4273 mt 4080 4323 L
4080 4273 mt 4030 4323 L
4165 4291 mt 4215 4341 L
4215 4291 mt 4165 4341 L
4301 4337 mt 4351 4387 L
4351 4337 mt 4301 4387 L
4442 4331 mt 4492 4381 L
4492 4331 mt 4442 4381 L
4580 4300 mt 4630 4350 L
4630 4300 mt 4580 4350 L
4715 4355 mt 4765 4405 L
4765 4355 mt 4715 4405 L
4853 4344 mt 4903 4394 L
4903 4344 mt 4853 4394 L
4990 4371 mt 5040 4421 L
5040 4371 mt 4990 4421 L
5128 4366 mt 5178 4416 L
5178 4366 mt 5128 4416 L
5264 4370 mt 5314 4420 L
5314 4370 mt 5264 4420 L
5400 4381 mt 5450 4431 L
5450 4381 mt 5400 4431 L
5539 4388 mt 5589 4438 L
5589 4388 mt 5539 4438 L
5677 4415 mt 5727 4465 L
5727 4415 mt 5677 4465 L
5814 4402 mt 5864 4452 L
5864 4402 mt 5814 4452 L
5953 4404 mt 6003 4454 L
6003 4404 mt 5953 4454 L
6099 4408 mt 6149 4458 L
6149 4408 mt 6099 4458 L
gs 899 469 5357 4147 rc
899 469 PD
102 0 899 469 2 MP stroke
102 0 899 469 2 MP stroke
0 302 1043 477 2 MP stroke
204 0 941 477 2 MP stroke
204 0 941 779 2 MP stroke
0 404 1178 519 2 MP stroke
204 0 1076 519 2 MP stroke
204 0 1076 923 2 MP stroke
0 594 1313 503 2 MP stroke
204 0 1211 503 2 MP stroke
204 0 1211 1097 2 MP stroke
0 743 1449 531 2 MP stroke
204 0 1347 531 2 MP stroke
204 0 1347 1274 2 MP stroke
0 837 1586 469 2 MP stroke
204 0 1484 1306 2 MP stroke
0 801 1725 573 2 MP stroke
205 0 1622 573 2 MP stroke
205 0 1622 1374 2 MP stroke
0 809 1863 638 2 MP stroke
204 0 1761 638 2 MP stroke
204 0 1761 1447 2 MP stroke
0 863 2000 620 2 MP stroke
204 0 1898 620 2 MP stroke
204 0 1898 1483 2 MP stroke
0 538 2137 932 2 MP stroke
204 0 2035 932 2 MP stroke
204 0 2035 1470 2 MP stroke
0 1036 2274 665 2 MP stroke
204 0 2172 665 2 MP stroke
204 0 2172 1701 2 MP stroke
0 949 2410 768 2 MP stroke
204 0 2308 768 2 MP stroke
204 0 2308 1717 2 MP stroke
0 1131 2546 685 2 MP stroke
204 0 2444 685 2 MP stroke
204 0 2444 1816 2 MP stroke
0 1040 2682 794 2 MP stroke
204 0 2580 794 2 MP stroke
204 0 2580 1834 2 MP stroke
0 735 2819 1056 2 MP stroke
204 0 2717 1056 2 MP stroke
204 0 2717 1791 2 MP stroke
0 1083 2955 807 2 MP stroke
205 0 2853 807 2 MP stroke
205 0 2853 1890 2 MP stroke
0 1074 3094 911 2 MP stroke
204 0 2992 911 2 MP stroke
204 0 2992 1985 2 MP stroke
0 1083 3230 964 2 MP stroke
204 0 3128 964 2 MP stroke
204 0 3128 2047 2 MP stroke
0 1174 3367 887 2 MP stroke
204 0 3265 887 2 MP stroke
204 0 3265 2061 2 MP stroke
0 1181 3506 939 2 MP stroke
205 0 3403 939 2 MP stroke
205 0 3403 2120 2 MP stroke
0 1106 3642 965 2 MP stroke
204 0 3540 965 2 MP stroke
204 0 3540 2071 2 MP stroke
0 870 3779 1220 2 MP stroke
205 0 3676 1220 2 MP stroke
205 0 3676 2090 2 MP stroke
0 1109 3917 1156 2 MP stroke
204 0 3815 1156 2 MP stroke
204 0 3815 2265 2 MP stroke
0 1137 4055 1115 2 MP stroke
204 0 3953 1115 2 MP stroke
204 0 3953 2252 2 MP stroke
0 1321 4190 982 2 MP stroke
205 0 4087 982 2 MP stroke
205 0 4087 2303 2 MP stroke
0 1133 4326 1124 2 MP stroke
204 0 4224 1124 2 MP stroke
204 0 4224 2257 2 MP stroke
0 1011 4467 1302 2 MP stroke
204 0 4365 1302 2 MP stroke
204 0 4365 2313 2 MP stroke
0 1142 4605 1256 2 MP stroke
205 0 4502 1256 2 MP stroke
205 0 4502 2398 2 MP stroke
0 1208 4740 1247 2 MP stroke
204 0 4638 1247 2 MP stroke
204 0 4638 2455 2 MP stroke
0 1069 4878 1308 2 MP stroke
204 0 4776 1308 2 MP stroke
204 0 4776 2377 2 MP stroke
0 1265 5015 1235 2 MP stroke
204 0 4913 1235 2 MP stroke
204 0 4913 2500 2 MP stroke
0 1202 5153 1340 2 MP stroke
205 0 5050 1340 2 MP stroke
205 0 5050 2542 2 MP stroke
0 1272 5289 1275 2 MP stroke
204 0 5187 1275 2 MP stroke
204 0 5187 2547 2 MP stroke
0 1077 5425 1457 2 MP stroke
205 0 5323 1457 2 MP stroke
205 0 5323 2534 2 MP stroke
0 1232 5564 1386 2 MP stroke
204 0 5462 1386 2 MP stroke
204 0 5462 2618 2 MP stroke
0 1227 5702 1361 2 MP stroke
204 0 5600 1361 2 MP stroke
204 0 5600 2588 2 MP stroke
0 1100 5839 1524 2 MP stroke
205 0 5737 1524 2 MP stroke
205 0 5737 2624 2 MP stroke
0 1300 5978 1381 2 MP stroke
204 0 5876 1381 2 MP stroke
204 0 5876 2681 2 MP stroke
0 1462 6124 1302 2 MP stroke
204 0 6022 1302 2 MP stroke
204 0 6022 2764 2 MP stroke
88 0 6168 1532 2 MP stroke
88 0 6168 2834 2 MP stroke
132 135 146 2 139 -43 137 100 138 -28 139 7 136 84 136 -30 
138 73 137 25 138 -8 135 24 138 20 141 117 136 47 135 -40 
138 -28 138 56 137 137 136 -11 139 55 137 -31 136 57 139 100 
136 -75 137 109 136 64 136 7 136 60 137 -18 137 149 137 9 
138 70 139 99 137 -29 136 103 135 79 135 93 144 159 899 469 40 MP stroke
gr

 874  444 mt  924  494 L
 924  444 mt  874  494 L
1018  603 mt 1068  653 L
1068  603 mt 1018  653 L
1153  696 mt 1203  746 L
1203  696 mt 1153  746 L
1288  775 mt 1338  825 L
1338  775 mt 1288  825 L
1424  878 mt 1474  928 L
1474  878 mt 1424  928 L
1561  849 mt 1611  899 L
1611  849 mt 1561  899 L
1700  948 mt 1750  998 L
1750  948 mt 1700  998 L
1838 1018 mt 1888 1068 L
1888 1018 mt 1838 1068 L
1975 1027 mt 2025 1077 L
2025 1027 mt 1975 1077 L
2112 1176 mt 2162 1226 L
2162 1176 mt 2112 1226 L
2249 1158 mt 2299 1208 L
2299 1158 mt 2249 1208 L
2385 1218 mt 2435 1268 L
2435 1218 mt 2385 1268 L
2521 1225 mt 2571 1275 L
2571 1225 mt 2521 1275 L
2657 1289 mt 2707 1339 L
2707 1289 mt 2657 1339 L
2794 1398 mt 2844 1448 L
2844 1398 mt 2794 1448 L
2930 1323 mt 2980 1373 L
2980 1323 mt 2930 1373 L
3069 1423 mt 3119 1473 L
3119 1423 mt 3069 1473 L
3205 1480 mt 3255 1530 L
3255 1480 mt 3205 1530 L
3342 1449 mt 3392 1499 L
3392 1449 mt 3342 1499 L
3481 1504 mt 3531 1554 L
3531 1504 mt 3481 1554 L
3617 1493 mt 3667 1543 L
3667 1493 mt 3617 1543 L
3754 1630 mt 3804 1680 L
3804 1630 mt 3754 1680 L
3892 1686 mt 3942 1736 L
3942 1686 mt 3892 1736 L
4030 1658 mt 4080 1708 L
4080 1658 mt 4030 1708 L
4165 1618 mt 4215 1668 L
4215 1618 mt 4165 1668 L
4301 1665 mt 4351 1715 L
4351 1665 mt 4301 1715 L
4442 1782 mt 4492 1832 L
4492 1782 mt 4442 1832 L
4580 1802 mt 4630 1852 L
4630 1802 mt 4580 1852 L
4715 1826 mt 4765 1876 L
4765 1826 mt 4715 1876 L
4853 1818 mt 4903 1868 L
4903 1818 mt 4853 1868 L
4990 1843 mt 5040 1893 L
5040 1843 mt 4990 1893 L
5128 1916 mt 5178 1966 L
5178 1916 mt 5128 1966 L
5264 1886 mt 5314 1936 L
5314 1886 mt 5264 1936 L
5400 1970 mt 5450 2020 L
5450 1970 mt 5400 2020 L
5539 1977 mt 5589 2027 L
5589 1977 mt 5539 2027 L
5677 1949 mt 5727 1999 L
5727 1949 mt 5677 1999 L
5814 2049 mt 5864 2099 L
5864 2049 mt 5814 2099 L
5953 2006 mt 6003 2056 L
6003 2006 mt 5953 2056 L
6099 2008 mt 6149 2058 L
6149 2008 mt 6099 2058 L
gs 899 469 5357 4147 rc
/c8 { 1.000000 0.000000 0.000000 sr} bdef
c8
899 487 PD
899 469 PD
71 0 899 469 2 MP stroke
71 0 899 469 2 MP stroke
0 204 970 938 2 MP stroke
142 0 899 938 2 MP stroke
142 0 899 1142 2 MP stroke
0 283 1041 1309 2 MP stroke
143 0 970 1309 2 MP stroke
143 0 970 1592 2 MP stroke
0 349 1113 1660 2 MP stroke
143 0 1041 1660 2 MP stroke
143 0 1041 2009 2 MP stroke
0 371 1184 1966 2 MP stroke
143 0 1113 1966 2 MP stroke
143 0 1113 2337 2 MP stroke
0 417 1256 2207 2 MP stroke
143 0 1184 2207 2 MP stroke
143 0 1184 2624 2 MP stroke
0 433 1327 2418 2 MP stroke
142 0 1256 2418 2 MP stroke
142 0 1256 2851 2 MP stroke
0 441 1398 2613 2 MP stroke
143 0 1327 2613 2 MP stroke
143 0 1327 3054 2 MP stroke
0 421 1470 2793 2 MP stroke
143 0 1398 2793 2 MP stroke
143 0 1398 3214 2 MP stroke
0 385 1541 2957 2 MP stroke
143 0 1470 2957 2 MP stroke
143 0 1470 3342 2 MP stroke
0 381 1613 3088 2 MP stroke
143 0 1541 3088 2 MP stroke
143 0 1541 3469 2 MP stroke
0 349 1684 3214 2 MP stroke
142 0 1613 3214 2 MP stroke
142 0 1613 3563 2 MP stroke
0 324 1755 3323 2 MP stroke
143 0 1684 3323 2 MP stroke
143 0 1684 3647 2 MP stroke
0 306 1827 3413 2 MP stroke
143 0 1755 3413 2 MP stroke
143 0 1755 3719 2 MP stroke
0 300 1898 3492 2 MP stroke
143 0 1827 3492 2 MP stroke
143 0 1827 3792 2 MP stroke
0 276 1970 3566 2 MP stroke
143 0 1898 3566 2 MP stroke
143 0 1898 3842 2 MP stroke
0 258 2041 3642 2 MP stroke
143 0 1970 3642 2 MP stroke
143 0 1970 3900 2 MP stroke
0 250 2113 3685 2 MP stroke
143 0 2041 3685 2 MP stroke
143 0 2041 3935 2 MP stroke
0 218 2184 3747 2 MP stroke
142 0 2113 3747 2 MP stroke
142 0 2113 3965 2 MP stroke
0 218 2255 3794 2 MP stroke
143 0 2184 3794 2 MP stroke
143 0 2184 4012 2 MP stroke
0 214 2327 3832 2 MP stroke
143 0 2255 3832 2 MP stroke
143 0 2255 4046 2 MP stroke
0 201 2398 3866 2 MP stroke
143 0 2327 3866 2 MP stroke
143 0 2327 4067 2 MP stroke
0 189 2470 3903 2 MP stroke
143 0 2398 3903 2 MP stroke
143 0 2398 4092 2 MP stroke
0 179 2541 3936 2 MP stroke
142 0 2470 3936 2 MP stroke
142 0 2470 4115 2 MP stroke
0 184 2612 3952 2 MP stroke
143 0 2541 3952 2 MP stroke
143 0 2541 4136 2 MP stroke
0 164 2684 3984 2 MP stroke
143 0 2612 3984 2 MP stroke
143 0 2612 4148 2 MP stroke
0 159 2755 4008 2 MP stroke
143 0 2684 4008 2 MP stroke
143 0 2684 4167 2 MP stroke
0 160 2827 4027 2 MP stroke
143 0 2755 4027 2 MP stroke
143 0 2755 4187 2 MP stroke
0 154 2898 4040 2 MP stroke
142 0 2827 4040 2 MP stroke
142 0 2827 4194 2 MP stroke
0 148 2969 4059 2 MP stroke
143 0 2898 4059 2 MP stroke
143 0 2898 4207 2 MP stroke
0 147 3041 4074 2 MP stroke
143 0 2969 4074 2 MP stroke
143 0 2969 4221 2 MP stroke
0 141 3112 4089 2 MP stroke
143 0 3041 4089 2 MP stroke
143 0 3041 4230 2 MP stroke
0 137 3184 4101 2 MP stroke
143 0 3112 4101 2 MP stroke
143 0 3112 4238 2 MP stroke
0 140 3255 4106 2 MP stroke
143 0 3184 4106 2 MP stroke
143 0 3184 4246 2 MP stroke
0 134 3327 4119 2 MP stroke
143 0 3255 4119 2 MP stroke
143 0 3255 4253 2 MP stroke
0 127 3398 4131 2 MP stroke
142 0 3327 4131 2 MP stroke
142 0 3327 4258 2 MP stroke
0 140 3469 4135 2 MP stroke
143 0 3398 4135 2 MP stroke
143 0 3398 4275 2 MP stroke
0 130 3541 4155 2 MP stroke
143 0 3469 4155 2 MP stroke
143 0 3469 4285 2 MP stroke
0 123 3612 4159 2 MP stroke
143 0 3541 4159 2 MP stroke
143 0 3541 4282 2 MP stroke
0 124 3684 4162 2 MP stroke
143 0 3612 4162 2 MP stroke
143 0 3612 4286 2 MP stroke
0 129 3755 4164 2 MP stroke
142 0 3684 4164 2 MP stroke
142 0 3684 4293 2 MP stroke
0 132 3826 4171 2 MP stroke
143 0 3755 4171 2 MP stroke
143 0 3755 4303 2 MP stroke
0 132 3898 4177 2 MP stroke
143 0 3826 4177 2 MP stroke
143 0 3826 4309 2 MP stroke
0 128 3969 4182 2 MP stroke
143 0 3898 4182 2 MP stroke
143 0 3898 4310 2 MP stroke
0 131 4041 4181 2 MP stroke
143 0 3969 4181 2 MP stroke
143 0 3969 4312 2 MP stroke
0 128 4112 4185 2 MP stroke
143 0 4041 4185 2 MP stroke
143 0 4041 4313 2 MP stroke
0 124 4184 4191 2 MP stroke
143 0 4112 4191 2 MP stroke
143 0 4112 4315 2 MP stroke
0 127 4255 4190 2 MP stroke
142 0 4184 4190 2 MP stroke
142 0 4184 4317 2 MP stroke
0 121 4326 4199 2 MP stroke
143 0 4255 4199 2 MP stroke
143 0 4255 4320 2 MP stroke
0 130 4398 4199 2 MP stroke
143 0 4326 4199 2 MP stroke
143 0 4326 4329 2 MP stroke
0 131 4469 4204 2 MP stroke
143 0 4398 4204 2 MP stroke
143 0 4398 4335 2 MP stroke
0 131 4541 4209 2 MP stroke
143 0 4469 4209 2 MP stroke
143 0 4469 4340 2 MP stroke
0 134 4612 4208 2 MP stroke
142 0 4541 4208 2 MP stroke
142 0 4541 4342 2 MP stroke
0 135 4683 4205 2 MP stroke
143 0 4612 4205 2 MP stroke
143 0 4612 4340 2 MP stroke
0 120 4755 4224 2 MP stroke
143 0 4683 4224 2 MP stroke
143 0 4683 4344 2 MP stroke
0 115 4826 4225 2 MP stroke
143 0 4755 4225 2 MP stroke
143 0 4755 4340 2 MP stroke
0 111 4898 4230 2 MP stroke
143 0 4826 4230 2 MP stroke
143 0 4826 4341 2 MP stroke
0 117 4969 4223 2 MP stroke
142 0 4898 4223 2 MP stroke
142 0 4898 4340 2 MP stroke
0 104 5040 4235 2 MP stroke
143 0 4969 4235 2 MP stroke
143 0 4969 4339 2 MP stroke
0 109 5112 4236 2 MP stroke
143 0 5040 4236 2 MP stroke
143 0 5040 4345 2 MP stroke
0 116 5183 4236 2 MP stroke
143 0 5112 4236 2 MP stroke
143 0 5112 4352 2 MP stroke
0 122 5255 4233 2 MP stroke
143 0 5183 4233 2 MP stroke
143 0 5183 4355 2 MP stroke
0 119 5326 4240 2 MP stroke
143 0 5255 4240 2 MP stroke
143 0 5255 4359 2 MP stroke
0 123 5398 4234 2 MP stroke
143 0 5326 4234 2 MP stroke
143 0 5326 4357 2 MP stroke
0 125 5469 4237 2 MP stroke
142 0 5398 4237 2 MP stroke
142 0 5398 4362 2 MP stroke
0 125 5540 4239 2 MP stroke
143 0 5469 4239 2 MP stroke
143 0 5469 4364 2 MP stroke
0 134 5612 4240 2 MP stroke
143 0 5540 4240 2 MP stroke
143 0 5540 4374 2 MP stroke
0 136 5683 4242 2 MP stroke
143 0 5612 4242 2 MP stroke
143 0 5612 4378 2 MP stroke
0 132 5755 4250 2 MP stroke
143 0 5683 4250 2 MP stroke
143 0 5683 4382 2 MP stroke
0 122 5826 4256 2 MP stroke
142 0 5755 4256 2 MP stroke
142 0 5755 4378 2 MP stroke
0 123 5897 4254 2 MP stroke
143 0 5826 4254 2 MP stroke
143 0 5826 4377 2 MP stroke
0 115 5969 4260 2 MP stroke
143 0 5897 4260 2 MP stroke
143 0 5897 4375 2 MP stroke
0 115 6040 4268 2 MP stroke
143 0 5969 4268 2 MP stroke
143 0 5969 4383 2 MP stroke
0 110 6112 4272 2 MP stroke
143 0 6040 4272 2 MP stroke
143 0 6040 4382 2 MP stroke
0 130 6183 4267 2 MP stroke
143 0 6112 4267 2 MP stroke
143 0 6112 4397 2 MP stroke
0 133 6255 4264 2 MP stroke
73 0 6183 4264 2 MP stroke
73 0 6183 4397 2 MP stroke
72 -1 71 5 72 1 71 8 72 2 71 -1 71 1 72 6 
71 3 72 6 71 2 71 4 72 -4 71 5 72 0 71 4 
72 3 71 5 71 -4 72 4 71 -2 72 12 71 -3 71 1 
72 4 71 6 72 4 71 7 71 0 72 4 71 3 72 0 
71 3 72 6 71 8 71 5 72 4 71 0 72 15 71 11 
71 8 72 10 71 6 72 11 71 11 72 15 71 16 71 10 
72 20 71 21 72 22 71 19 71 27 72 32 71 27 72 36 
71 47 71 46 72 39 71 67 72 62 71 76 72 81 71 97 
71 110 72 129 71 146 72 170 71 199 71 219 72 263 71 317 
72 385 71 410 71 571 899 469 76 MP stroke
gr

c8
  36   36  970 1040 FO
  36   36 1041 1450 FO
  36   36 1113 1835 FO
  36   36 1184 2152 FO
  36   36 1256 2415 FO
  36   36 1327 2634 FO
  36   36 1398 2833 FO
  36   36 1470 3003 FO
  36   36 1541 3149 FO
  36   36 1613 3278 FO
  36   36 1684 3388 FO
  36   36 1755 3485 FO
  36   36 1827 3566 FO
  36   36 1898 3642 FO
  36   36 1970 3704 FO
  36   36 2041 3771 FO
  36   36 2113 3810 FO
  36   36 2184 3856 FO
  36   36 2255 3903 FO
  36   36 2327 3939 FO
  36   36 2398 3966 FO
  36   36 2470 3998 FO
  36   36 2541 4025 FO
  36   36 2612 4044 FO
  36   36 2684 4066 FO
  36   36 2755 4087 FO
  36   36 2827 4107 FO
  36   36 2898 4117 FO
  36   36 2969 4133 FO
  36   36 3041 4148 FO
  36   36 3112 4159 FO
  36   36 3184 4170 FO
  36   36 3255 4176 FO
  36   36 3327 4186 FO
  36   36 3398 4194 FO
  36   36 3469 4205 FO
  36   36 3541 4220 FO
  36   36 3612 4220 FO
  36   36 3684 4224 FO
  36   36 3755 4229 FO
  36   36 3826 4237 FO
  36   36 3898 4243 FO
  36   36 3969 4246 FO
  36   36 4041 4246 FO
  36   36 4112 4249 FO
  36   36 4184 4253 FO
  36   36 4255 4253 FO
  36   36 4326 4260 FO
  36   36 4398 4264 FO
  36   36 4469 4270 FO
  36   36 4541 4274 FO
  36   36 4612 4275 FO
  36   36 4683 4272 FO
  36   36 4755 4284 FO
  36   36 4826 4282 FO
  36   36 4898 4286 FO
  36   36 4969 4282 FO
  36   36 5040 4287 FO
  36   36 5112 4290 FO
  36   36 5183 4294 FO
  36   36 5255 4294 FO
  36   36 5326 4299 FO
  36   36 5398 4295 FO
  36   36 5469 4299 FO
  36   36 5540 4301 FO
  36   36 5612 4307 FO
  36   36 5683 4310 FO
  36   36 5755 4316 FO
  36   36 5826 4317 FO
  36   36 5897 4316 FO
  36   36 5969 4318 FO
  36   36 6040 4326 FO
  36   36 6112 4327 FO
  36   36 6183 4332 FO
  36   36 6255 4331 FO
gs 899 469 5357 4147 rc
/c9 { 0.000000 0.500000 0.000000 sr} bdef
c9
899 502 PD
899 469 PD
71 0 899 469 2 MP stroke
71 0 899 469 2 MP stroke
0 40 970 469 2 MP stroke
142 0 899 509 2 MP stroke
0 61 1041 469 2 MP stroke
143 0 970 530 2 MP stroke
0 49 1113 469 2 MP stroke
143 0 1041 518 2 MP stroke
0 66 1184 469 2 MP stroke
143 0 1113 535 2 MP stroke
0 75 1256 469 2 MP stroke
143 0 1184 544 2 MP stroke
0 97 1327 469 2 MP stroke
142 0 1256 566 2 MP stroke
0 112 1398 469 2 MP stroke
143 0 1327 581 2 MP stroke
0 143 1470 469 2 MP stroke
143 0 1398 612 2 MP stroke
0 141 1541 484 2 MP stroke
143 0 1470 484 2 MP stroke
143 0 1470 625 2 MP stroke
0 171 1613 485 2 MP stroke
143 0 1541 485 2 MP stroke
143 0 1541 656 2 MP stroke
0 198 1684 492 2 MP stroke
142 0 1613 492 2 MP stroke
142 0 1613 690 2 MP stroke
0 228 1755 499 2 MP stroke
143 0 1684 499 2 MP stroke
143 0 1684 727 2 MP stroke
0 226 1827 526 2 MP stroke
143 0 1755 526 2 MP stroke
143 0 1755 752 2 MP stroke
0 244 1898 541 2 MP stroke
143 0 1827 541 2 MP stroke
143 0 1827 785 2 MP stroke
0 263 1970 559 2 MP stroke
143 0 1898 559 2 MP stroke
143 0 1898 822 2 MP stroke
0 283 2041 563 2 MP stroke
143 0 1970 563 2 MP stroke
143 0 1970 846 2 MP stroke
0 288 2113 597 2 MP stroke
143 0 2041 597 2 MP stroke
143 0 2041 885 2 MP stroke
0 336 2184 596 2 MP stroke
142 0 2113 596 2 MP stroke
142 0 2113 932 2 MP stroke
0 337 2255 615 2 MP stroke
143 0 2184 615 2 MP stroke
143 0 2184 952 2 MP stroke
0 354 2327 630 2 MP stroke
143 0 2255 630 2 MP stroke
143 0 2255 984 2 MP stroke
0 378 2398 650 2 MP stroke
143 0 2327 650 2 MP stroke
143 0 2327 1028 2 MP stroke
0 391 2470 670 2 MP stroke
143 0 2398 670 2 MP stroke
143 0 2398 1061 2 MP stroke
0 411 2541 687 2 MP stroke
142 0 2470 687 2 MP stroke
142 0 2470 1098 2 MP stroke
0 419 2612 715 2 MP stroke
143 0 2541 715 2 MP stroke
143 0 2541 1134 2 MP stroke
0 436 2684 737 2 MP stroke
143 0 2612 737 2 MP stroke
143 0 2612 1173 2 MP stroke
0 459 2755 749 2 MP stroke
143 0 2684 749 2 MP stroke
143 0 2684 1208 2 MP stroke
0 463 2827 770 2 MP stroke
143 0 2755 770 2 MP stroke
143 0 2755 1233 2 MP stroke
0 482 2898 788 2 MP stroke
142 0 2827 788 2 MP stroke
142 0 2827 1270 2 MP stroke
0 480 2969 815 2 MP stroke
143 0 2898 815 2 MP stroke
143 0 2898 1295 2 MP stroke
0 504 3041 826 2 MP stroke
143 0 2969 826 2 MP stroke
143 0 2969 1330 2 MP stroke
0 510 3112 852 2 MP stroke
143 0 3041 852 2 MP stroke
143 0 3041 1362 2 MP stroke
0 530 3184 867 2 MP stroke
143 0 3112 867 2 MP stroke
143 0 3112 1397 2 MP stroke
0 539 3255 892 2 MP stroke
143 0 3184 892 2 MP stroke
143 0 3184 1431 2 MP stroke
0 572 3327 900 2 MP stroke
143 0 3255 900 2 MP stroke
143 0 3255 1472 2 MP stroke
0 592 3398 917 2 MP stroke
142 0 3327 917 2 MP stroke
142 0 3327 1509 2 MP stroke
0 610 3469 931 2 MP stroke
143 0 3398 931 2 MP stroke
143 0 3398 1541 2 MP stroke
0 629 3541 940 2 MP stroke
143 0 3469 940 2 MP stroke
143 0 3469 1569 2 MP stroke
0 640 3612 966 2 MP stroke
143 0 3541 966 2 MP stroke
143 0 3541 1606 2 MP stroke
0 667 3684 980 2 MP stroke
143 0 3612 980 2 MP stroke
143 0 3612 1647 2 MP stroke
0 679 3755 997 2 MP stroke
142 0 3684 997 2 MP stroke
142 0 3684 1676 2 MP stroke
0 677 3826 1020 2 MP stroke
143 0 3755 1020 2 MP stroke
143 0 3755 1697 2 MP stroke
0 697 3898 1035 2 MP stroke
143 0 3826 1035 2 MP stroke
143 0 3826 1732 2 MP stroke
0 717 3969 1049 2 MP stroke
143 0 3898 1049 2 MP stroke
143 0 3898 1766 2 MP stroke
0 728 4041 1070 2 MP stroke
143 0 3969 1070 2 MP stroke
143 0 3969 1798 2 MP stroke
0 750 4112 1084 2 MP stroke
143 0 4041 1084 2 MP stroke
143 0 4041 1834 2 MP stroke
0 758 4184 1107 2 MP stroke
143 0 4112 1107 2 MP stroke
143 0 4112 1865 2 MP stroke
0 779 4255 1122 2 MP stroke
142 0 4184 1122 2 MP stroke
142 0 4184 1901 2 MP stroke
0 795 4326 1136 2 MP stroke
143 0 4255 1136 2 MP stroke
143 0 4255 1931 2 MP stroke
0 800 4398 1157 2 MP stroke
143 0 4326 1157 2 MP stroke
143 0 4326 1957 2 MP stroke
0 798 4469 1179 2 MP stroke
143 0 4398 1179 2 MP stroke
143 0 4398 1977 2 MP stroke
0 819 4541 1190 2 MP stroke
143 0 4469 1190 2 MP stroke
143 0 4469 2009 2 MP stroke
0 808 4612 1221 2 MP stroke
142 0 4541 1221 2 MP stroke
142 0 4541 2029 2 MP stroke
0 828 4683 1241 2 MP stroke
143 0 4612 1241 2 MP stroke
143 0 4612 2069 2 MP stroke
0 834 4755 1254 2 MP stroke
143 0 4683 1254 2 MP stroke
143 0 4683 2088 2 MP stroke
0 840 4826 1276 2 MP stroke
143 0 4755 1276 2 MP stroke
143 0 4755 2116 2 MP stroke
0 855 4898 1291 2 MP stroke
143 0 4826 1291 2 MP stroke
143 0 4826 2146 2 MP stroke
0 868 4969 1312 2 MP stroke
142 0 4898 1312 2 MP stroke
142 0 4898 2180 2 MP stroke
0 883 5040 1328 2 MP stroke
143 0 4969 1328 2 MP stroke
143 0 4969 2211 2 MP stroke
0 892 5112 1342 2 MP stroke
143 0 5040 1342 2 MP stroke
143 0 5040 2234 2 MP stroke
0 903 5183 1356 2 MP stroke
143 0 5112 1356 2 MP stroke
143 0 5112 2259 2 MP stroke
0 912 5255 1375 2 MP stroke
143 0 5183 1375 2 MP stroke
143 0 5183 2287 2 MP stroke
0 917 5326 1391 2 MP stroke
143 0 5255 1391 2 MP stroke
143 0 5255 2308 2 MP stroke
0 936 5398 1408 2 MP stroke
143 0 5326 1408 2 MP stroke
143 0 5326 2344 2 MP stroke
0 938 5469 1425 2 MP stroke
142 0 5398 1425 2 MP stroke
142 0 5398 2363 2 MP stroke
0 938 5540 1445 2 MP stroke
143 0 5469 1445 2 MP stroke
143 0 5469 2383 2 MP stroke
0 932 5612 1465 2 MP stroke
143 0 5540 1465 2 MP stroke
143 0 5540 2397 2 MP stroke
0 948 5683 1478 2 MP stroke
143 0 5612 1478 2 MP stroke
143 0 5612 2426 2 MP stroke
0 952 5755 1493 2 MP stroke
143 0 5683 1493 2 MP stroke
143 0 5683 2445 2 MP stroke
0 955 5826 1511 2 MP stroke
142 0 5755 1511 2 MP stroke
142 0 5755 2466 2 MP stroke
0 967 5897 1528 2 MP stroke
143 0 5826 1528 2 MP stroke
143 0 5826 2495 2 MP stroke
0 972 5969 1545 2 MP stroke
143 0 5897 1545 2 MP stroke
143 0 5897 2517 2 MP stroke
0 979 6040 1554 2 MP stroke
143 0 5969 1554 2 MP stroke
143 0 5969 2533 2 MP stroke
0 992 6112 1567 2 MP stroke
143 0 6040 1567 2 MP stroke
143 0 6040 2559 2 MP stroke
0 989 6183 1586 2 MP stroke
143 0 6112 1586 2 MP stroke
143 0 6112 2575 2 MP stroke
0 995 6255 1603 2 MP stroke
73 0 6183 1603 2 MP stroke
73 0 6183 2598 2 MP stroke
72 19 71 18 72 20 71 12 72 19 71 24 71 19 72 17 
71 21 72 17 71 20 71 18 72 27 71 18 72 23 71 20 
72 18 71 24 71 28 72 22 71 25 72 16 71 30 71 25 
72 22 71 21 72 23 71 22 71 26 72 27 71 25 72 26 
71 25 72 24 71 22 71 24 72 27 71 31 72 19 71 23 
71 27 72 25 71 29 72 25 71 29 72 23 71 26 71 28 
72 23 71 23 72 30 71 33 71 27 72 26 71 32 72 24 
71 19 71 23 72 36 71 15 72 27 71 24 72 26 71 22 
71 21 72 16 71 16 72 16 71 20 71 16 72 8 71 4 
72 -15 71 14 71 6 899 469 76 MP stroke
gr

c9
  36   36  970  475 FO
  36   36 1041  489 FO
  36   36 1113  474 FO
  36   36 1184  478 FO
  36   36 1256  486 FO
  36   36 1327  502 FO
  36   36 1398  522 FO
  36   36 1470  538 FO
  36   36 1541  554 FO
  36   36 1613  570 FO
  36   36 1684  591 FO
  36   36 1755  613 FO
  36   36 1827  639 FO
  36   36 1898  663 FO
  36   36 1970  690 FO
  36   36 2041  705 FO
  36   36 2113  741 FO
  36   36 2184  764 FO
  36   36 2255  783 FO
  36   36 2327  807 FO
  36   36 2398  839 FO
  36   36 2470  865 FO
  36   36 2541  892 FO
  36   36 2612  925 FO
  36   36 2684  955 FO
  36   36 2755  978 FO
  36   36 2827 1001 FO
  36   36 2898 1029 FO
  36   36 2969 1055 FO
  36   36 3041 1078 FO
  36   36 3112 1107 FO
  36   36 3184 1132 FO
  36   36 3255 1161 FO
  36   36 3327 1186 FO
  36   36 3398 1213 FO
  36   36 3469 1236 FO
  36   36 3541 1255 FO
  36   36 3612 1286 FO
  36   36 3684 1313 FO
  36   36 3755 1337 FO
  36   36 3826 1359 FO
  36   36 3898 1383 FO
  36   36 3969 1408 FO
  36   36 4041 1434 FO
  36   36 4112 1459 FO
  36   36 4184 1486 FO
  36   36 4255 1512 FO
  36   36 4326 1534 FO
  36   36 4398 1557 FO
  36   36 4469 1578 FO
  36   36 4541 1600 FO
  36   36 4612 1625 FO
  36   36 4683 1655 FO
  36   36 4755 1671 FO
  36   36 4826 1696 FO
  36   36 4898 1718 FO
  36   36 4969 1746 FO
  36   36 5040 1770 FO
  36   36 5112 1788 FO
  36   36 5183 1808 FO
  36   36 5255 1831 FO
  36   36 5326 1849 FO
  36   36 5398 1876 FO
  36   36 5469 1894 FO
  36   36 5540 1914 FO
  36   36 5612 1931 FO
  36   36 5683 1952 FO
  36   36 5755 1969 FO
  36   36 5826 1988 FO
  36   36 5897 2012 FO
  36   36 5969 2031 FO
  36   36 6040 2043 FO
  36   36 6112 2063 FO
  36   36 6183 2081 FO
  36   36 6255 2100 FO
gs 899 469 5357 4147 rc
gr

0 sg
%%IncludeResource: font Helvetica
/Helvetica /ISOLatin1Encoding 168 FMSR

2509  156 mt 
(Src1-GFP in Late Anaphase) s
%%IncludeResource: font Helvetica
/Helvetica /ISOLatin1Encoding 144 FMSR

1869  293 mt 
(n) s
%%IncludeResource: font Helvetica
/Helvetica /ISOLatin1Encoding 108 FMSR

1949  377 mt 
(cells) s
%%IncludeResource: font Helvetica
/Helvetica /ISOLatin1Encoding 144 FMSR

2165  293 mt 
( = 34    -    Homogeneous domain   -   P) s
%%IncludeResource: font Helvetica
/Helvetica /ISOLatin1Encoding 108 FMSR

4762  377 mt 
(in) s
%%IncludeResource: font Helvetica
/Helvetica /ISOLatin1Encoding 144 FMSR

4846  293 mt 
( = 0.35) s
3314 4921 mt 
(Time \(s\)) s
 577 3058 mt  -90 rotate
(% Fluorescence) s
90 rotate
%%IncludeResource: font Helvetica
/Helvetica /ISOLatin1Encoding 120 FMSR

 882 4658 mt 
( ) s
6239  511 mt 
( ) s
5656  664 mt 
(mother) s
gs 5217 529 980 335 rc
c8
338 0 5284 621 2 MP stroke
gs 5380 548 147 147 rc
  36   36 5453  621 FO
gr

gr

c8
0 sg
5656  813 mt 
(daughter) s
gs 5217 529 980 335 rc
c9
338 0 5284 770 2 MP stroke
gs 5380 697 147 147 rc
  36   36 5453  770 FO
gr

gr

c9

end %%Color Dict

eplot
%%EndObject

epage
end

showpage

%%Trailer
%%EOF
