%!PS-Adobe-3.0 EPSF-3.0
%%Creator: MATLAB, The MathWorks, Inc. Version 8.1.0.604 (R2013a). Operating System: Darwin 11.4.2 Darwin Kernel Version 11.4.2: Thu Aug 23 16:25:48 PDT 2012; root:xnu-1699.32.7~1/RELEASE_X86_64 x86_64.
%%Title: ./LA_Src1-sphinbarr-MRs_300nm.eps
%%CreationDate: 10/03/2013  11:21:28
%%DocumentNeededFonts: Helvetica
%%DocumentProcessColors: Cyan Magenta Yellow Black
%%LanguageLevel: 2
%%Pages: 1
%%BoundingBox:    52   197   551   616
%%EndComments

%%BeginProlog
% MathWorks dictionary
/MathWorks 160 dict begin
% definition operators
/bdef {bind def} bind def
/ldef {load def} bind def
/xdef {exch def} bdef
/xstore {exch store} bdef
% operator abbreviations
/c  /clip ldef
/cc /concat ldef
/cp /closepath ldef
/gr /grestore ldef
/gs /gsave ldef
/mt /moveto ldef
/np /newpath ldef
/cm /currentmatrix ldef
/sm /setmatrix ldef
/rm /rmoveto ldef
/rl /rlineto ldef
/s {show newpath} bdef
/sc {setcmykcolor} bdef
/sr /setrgbcolor ldef
/sg /setgray ldef
/w /setlinewidth ldef
/j /setlinejoin ldef
/cap /setlinecap ldef
/rc {rectclip} bdef
/rf {rectfill} bdef
% page state control
/pgsv () def
/bpage {/pgsv save def} bdef
/epage {pgsv restore} bdef
/bplot /gsave ldef
/eplot {stroke grestore} bdef
% orientation switch
/portraitMode 0 def /landscapeMode 1 def /rotateMode 2 def
% coordinate system mappings
/dpi2point 0 def
% font control
/FontSize 0 def
/FMS {/FontSize xstore findfont [FontSize 0 0 FontSize neg 0 0]
  makefont setfont} bdef
/reencode {exch dup where {pop load} {pop StandardEncoding} ifelse
  exch dup 3 1 roll findfont dup length dict begin
  { 1 index /FID ne {def}{pop pop} ifelse } forall
  /Encoding exch def currentdict end definefont pop} bdef
/isroman {findfont /CharStrings get /Agrave known} bdef
/FMSR {3 1 roll 1 index dup isroman {reencode} {pop pop} ifelse
  exch FMS} bdef
/csm {1 dpi2point div -1 dpi2point div scale neg translate
 dup landscapeMode eq {pop -90 rotate}
  {rotateMode eq {90 rotate} if} ifelse} bdef
% line types: solid, dotted, dashed, dotdash
/SO { [] 0 setdash } bdef
/DO { [.5 dpi2point mul 4 dpi2point mul] 0 setdash } bdef
/DA { [6 dpi2point mul] 0 setdash } bdef
/DD { [.5 dpi2point mul 4 dpi2point mul 6 dpi2point mul 4
  dpi2point mul] 0 setdash } bdef
% macros for lines and objects
/L {lineto stroke} bdef
/MP {3 1 roll moveto 1 sub {rlineto} repeat} bdef
/AP {{rlineto} repeat} bdef
/PDlw -1 def
/W {/PDlw currentlinewidth def setlinewidth} def
/PP {closepath eofill} bdef
/DP {closepath stroke} bdef
/MR {4 -2 roll moveto dup  0 exch rlineto exch 0 rlineto
  neg 0 exch rlineto closepath} bdef
/FR {MR stroke} bdef
/PR {MR fill} bdef
/L1i {{currentfile picstr readhexstring pop} image} bdef
/tMatrix matrix def
/MakeOval {newpath tMatrix currentmatrix pop translate scale
0 0 1 0 360 arc tMatrix setmatrix} bdef
/FO {MakeOval stroke} bdef
/PO {MakeOval fill} bdef
/PD {currentlinewidth 2 div 0 360 arc fill
   PDlw -1 eq not {PDlw w /PDlw -1 def} if} def
/FA {newpath tMatrix currentmatrix pop translate scale
  0 0 1 5 -2 roll arc tMatrix setmatrix stroke} bdef
/PA {newpath tMatrix currentmatrix pop	translate 0 0 moveto scale
  0 0 1 5 -2 roll arc closepath tMatrix setmatrix fill} bdef
/FAn {newpath tMatrix currentmatrix pop translate scale
  0 0 1 5 -2 roll arcn tMatrix setmatrix stroke} bdef
/PAn {newpath tMatrix currentmatrix pop translate 0 0 moveto scale
  0 0 1 5 -2 roll arcn closepath tMatrix setmatrix fill} bdef
/vradius 0 def /hradius 0 def /lry 0 def
/lrx 0 def /uly 0 def /ulx 0 def /rad 0 def
/MRR {/vradius xdef /hradius xdef /lry xdef /lrx xdef /uly xdef
  /ulx xdef newpath tMatrix currentmatrix pop ulx hradius add uly
  vradius add translate hradius vradius scale 0 0 1 180 270 arc 
  tMatrix setmatrix lrx hradius sub uly vradius add translate
  hradius vradius scale 0 0 1 270 360 arc tMatrix setmatrix
  lrx hradius sub lry vradius sub translate hradius vradius scale
  0 0 1 0 90 arc tMatrix setmatrix ulx hradius add lry vradius sub
  translate hradius vradius scale 0 0 1 90 180 arc tMatrix setmatrix
  closepath} bdef
/FRR {MRR stroke } bdef
/PRR {MRR fill } bdef
/MlrRR {/lry xdef /lrx xdef /uly xdef /ulx xdef /rad lry uly sub 2 div def
  newpath tMatrix currentmatrix pop ulx rad add uly rad add translate
  rad rad scale 0 0 1 90 270 arc tMatrix setmatrix lrx rad sub lry rad
  sub translate rad rad scale 0 0 1 270 90 arc tMatrix setmatrix
  closepath} bdef
/FlrRR {MlrRR stroke } bdef
/PlrRR {MlrRR fill } bdef
/MtbRR {/lry xdef /lrx xdef /uly xdef /ulx xdef /rad lrx ulx sub 2 div def
  newpath tMatrix currentmatrix pop ulx rad add uly rad add translate
  rad rad scale 0 0 1 180 360 arc tMatrix setmatrix lrx rad sub lry rad
  sub translate rad rad scale 0 0 1 0 180 arc tMatrix setmatrix
  closepath} bdef
/FtbRR {MtbRR stroke } bdef
/PtbRR {MtbRR fill } bdef
/stri 6 array def /dtri 6 array def
/smat 6 array def /dmat 6 array def
/tmat1 6 array def /tmat2 6 array def /dif 3 array def
/asub {/ind2 exch def /ind1 exch def dup dup
  ind1 get exch ind2 get sub exch } bdef
/tri_to_matrix {
  2 0 asub 3 1 asub 4 0 asub 5 1 asub
  dup 0 get exch 1 get 7 -1 roll astore } bdef
/compute_transform {
  dmat dtri tri_to_matrix tmat1 invertmatrix 
  smat stri tri_to_matrix tmat2 concatmatrix } bdef
/ds {stri astore pop} bdef
/dt {dtri astore pop} bdef
/db {2 copy /cols xdef /rows xdef mul dup 3 mul string
  currentfile 
  3 index 0 eq {/ASCIIHexDecode filter}
  {/ASCII85Decode filter 3 index 2 eq {/RunLengthDecode filter} if }
  ifelse exch readstring pop
  dup 0 3 index getinterval /rbmap xdef
  dup 2 index dup getinterval /gbmap xdef
  1 index dup 2 mul exch getinterval /bbmap xdef pop pop}bdef
/it {gs np dtri aload pop moveto lineto lineto cp c
  cols rows 8 compute_transform 
  rbmap gbmap bbmap true 3 colorimage gr}bdef
/il {newpath moveto lineto stroke}bdef
currentdict end def
%%EndProlog

%%BeginSetup
MathWorks begin

0 cap

end
%%EndSetup

%%Page: 1 1
%%BeginPageSetup
%%PageBoundingBox:    52   197   551   616
MathWorks begin
bpage
%%EndPageSetup

%%BeginObject: obj1
bplot

/dpi2point 12 def
portraitMode 0216 7344 csm

  418   -48  5986  5026 rc
85 dict begin %Colortable dictionary
/c0 { 0.000000 0.000000 0.000000 sr} bdef
/c1 { 1.000000 1.000000 1.000000 sr} bdef
/c2 { 0.900000 0.000000 0.000000 sr} bdef
/c3 { 0.000000 0.820000 0.000000 sr} bdef
/c4 { 0.000000 0.000000 0.800000 sr} bdef
/c5 { 0.910000 0.820000 0.320000 sr} bdef
/c6 { 1.000000 0.260000 0.820000 sr} bdef
/c7 { 0.000000 0.820000 0.820000 sr} bdef
c0
1 j
1 sg
   0    0 6913 5186 rf
6 w
0 4146 5356 0 0 -4146 899 4615 4 MP
PP
-5356 0 0 4146 5356 0 0 -4146 899 4615 5 MP stroke
4 w
DO
SO
6 w
0 sg
 899 4615 mt 6255 4615 L
 899  469 mt 6255  469 L
 899 4615 mt  899  469 L
6255 4615 mt 6255  469 L
 899 4615 mt 6255 4615 L
 899 4615 mt  899  469 L
 899 4615 mt  899 4561 L
 899  469 mt  899  522 L
%%IncludeResource: font Helvetica
/Helvetica /ISOLatin1Encoding 120 FMSR

 866 4760 mt 
(0) s
2684 4615 mt 2684 4561 L
2684  469 mt 2684  522 L
2618 4760 mt 
(50) s
4469 4615 mt 4469 4561 L
4469  469 mt 4469  522 L
4369 4760 mt 
(100) s
6255 4615 mt 6255 4561 L
6255  469 mt 6255  522 L
6155 4760 mt 
(150) s
 899 4615 mt  952 4615 L
6255 4615 mt 6201 4615 L
 798 4659 mt 
(0) s
 899 4200 mt  952 4200 L
6255 4200 mt 6201 4200 L
 731 4244 mt 
(10) s
 899 3785 mt  952 3785 L
6255 3785 mt 6201 3785 L
 731 3829 mt 
(20) s
 899 3371 mt  952 3371 L
6255 3371 mt 6201 3371 L
 731 3415 mt 
(30) s
 899 2956 mt  952 2956 L
6255 2956 mt 6201 2956 L
 731 3000 mt 
(40) s
 899 2542 mt  952 2542 L
6255 2542 mt 6201 2542 L
 731 2586 mt 
(50) s
 899 2127 mt  952 2127 L
6255 2127 mt 6201 2127 L
 731 2171 mt 
(60) s
 899 1712 mt  952 1712 L
6255 1712 mt 6201 1712 L
 731 1756 mt 
(70) s
 899 1298 mt  952 1298 L
6255 1298 mt 6201 1298 L
 731 1342 mt 
(80) s
 899  883 mt  952  883 L
6255  883 mt 6201  883 L
 731  927 mt 
(90) s
 899  469 mt  952  469 L
6255  469 mt 6201  469 L
 664  513 mt 
(100) s
 899 4615 mt 6255 4615 L
 899  469 mt 6255  469 L
 899 4615 mt  899  469 L
6255 4615 mt 6255  469 L
gs 899 469 5357 4147 rc
899 469 PD
102 0 899 469 2 MP stroke
102 0 899 469 2 MP stroke
0 606 1043 2135 2 MP stroke
204 0 941 2135 2 MP stroke
204 0 941 2741 2 MP stroke
0 657 1178 2722 2 MP stroke
204 0 1076 2722 2 MP stroke
204 0 1076 3379 2 MP stroke
0 688 1313 2971 2 MP stroke
204 0 1211 2971 2 MP stroke
204 0 1211 3659 2 MP stroke
0 696 1449 3239 2 MP stroke
204 0 1347 3239 2 MP stroke
204 0 1347 3935 2 MP stroke
0 627 1586 3306 2 MP stroke
204 0 1484 3306 2 MP stroke
204 0 1484 3933 2 MP stroke
0 645 1725 3414 2 MP stroke
205 0 1622 3414 2 MP stroke
205 0 1622 4059 2 MP stroke
0 563 1863 3569 2 MP stroke
204 0 1761 3569 2 MP stroke
204 0 1761 4132 2 MP stroke
0 483 2000 3694 2 MP stroke
204 0 1898 3694 2 MP stroke
204 0 1898 4177 2 MP stroke
0 529 2137 3724 2 MP stroke
204 0 2035 3724 2 MP stroke
204 0 2035 4253 2 MP stroke
0 533 2274 3768 2 MP stroke
204 0 2172 3768 2 MP stroke
204 0 2172 4301 2 MP stroke
0 483 2410 3812 2 MP stroke
204 0 2308 3812 2 MP stroke
204 0 2308 4295 2 MP stroke
0 498 2546 3816 2 MP stroke
204 0 2444 3816 2 MP stroke
204 0 2444 4314 2 MP stroke
0 445 2682 3920 2 MP stroke
204 0 2580 3920 2 MP stroke
204 0 2580 4365 2 MP stroke
0 396 2819 3963 2 MP stroke
204 0 2717 3963 2 MP stroke
204 0 2717 4359 2 MP stroke
0 481 2955 3909 2 MP stroke
205 0 2853 3909 2 MP stroke
205 0 2853 4390 2 MP stroke
0 389 3094 3999 2 MP stroke
204 0 2992 3999 2 MP stroke
204 0 2992 4388 2 MP stroke
0 392 3230 4039 2 MP stroke
204 0 3128 4039 2 MP stroke
204 0 3128 4431 2 MP stroke
0 377 3367 4069 2 MP stroke
204 0 3265 4069 2 MP stroke
204 0 3265 4446 2 MP stroke
0 355 3506 4104 2 MP stroke
205 0 3403 4104 2 MP stroke
205 0 3403 4459 2 MP stroke
0 386 3642 4072 2 MP stroke
204 0 3540 4072 2 MP stroke
204 0 3540 4458 2 MP stroke
0 366 3779 4079 2 MP stroke
205 0 3676 4079 2 MP stroke
205 0 3676 4445 2 MP stroke
0 363 3917 4135 2 MP stroke
204 0 3815 4135 2 MP stroke
204 0 3815 4498 2 MP stroke
0 372 4055 4112 2 MP stroke
204 0 3953 4112 2 MP stroke
204 0 3953 4484 2 MP stroke
0 345 4190 4143 2 MP stroke
205 0 4087 4143 2 MP stroke
205 0 4087 4488 2 MP stroke
0 319 4326 4203 2 MP stroke
204 0 4224 4203 2 MP stroke
204 0 4224 4522 2 MP stroke
0 330 4467 4191 2 MP stroke
204 0 4365 4191 2 MP stroke
204 0 4365 4521 2 MP stroke
0 368 4605 4141 2 MP stroke
205 0 4502 4141 2 MP stroke
205 0 4502 4509 2 MP stroke
0 319 4740 4221 2 MP stroke
204 0 4638 4221 2 MP stroke
204 0 4638 4540 2 MP stroke
0 353 4878 4193 2 MP stroke
204 0 4776 4193 2 MP stroke
204 0 4776 4546 2 MP stroke
0 292 5015 4250 2 MP stroke
204 0 4913 4250 2 MP stroke
204 0 4913 4542 2 MP stroke
0 338 5153 4222 2 MP stroke
205 0 5050 4222 2 MP stroke
205 0 5050 4560 2 MP stroke
0 306 5289 4242 2 MP stroke
204 0 5187 4242 2 MP stroke
204 0 5187 4548 2 MP stroke
0 281 5425 4265 2 MP stroke
205 0 5323 4265 2 MP stroke
205 0 5323 4546 2 MP stroke
0 316 5564 4255 2 MP stroke
204 0 5462 4255 2 MP stroke
204 0 5462 4571 2 MP stroke
0 269 5702 4305 2 MP stroke
204 0 5600 4305 2 MP stroke
204 0 5600 4574 2 MP stroke
0 277 5839 4289 2 MP stroke
205 0 5737 4289 2 MP stroke
205 0 5737 4566 2 MP stroke
0 295 5978 4282 2 MP stroke
204 0 5876 4282 2 MP stroke
204 0 5876 4577 2 MP stroke
0 316 6124 4275 2 MP stroke
204 0 6022 4275 2 MP stroke
204 0 6022 4591 2 MP stroke
88 0 6168 4309 2 MP stroke
88 0 6168 4599 2 MP stroke
132 19 146 4 139 2 137 -13 138 27 139 7 136 11 136 4 
138 -5 137 27 138 -11 135 55 138 -31 141 -6 136 46 135 18 
138 -18 138 54 137 -3 136 -17 139 24 137 23 136 42 139 44 
136 -12 137 19 136 77 136 11 136 19 137 46 137 54 137 85 
138 114 139 116 137 33 136 272 135 264 135 613 144 1969 899 469 40 MP stroke
gr

 874  444 mt  924  494 L
 924  444 mt  874  494 L
1018 2413 mt 1068 2463 L
1068 2413 mt 1018 2463 L
1153 3026 mt 1203 3076 L
1203 3026 mt 1153 3076 L
1288 3290 mt 1338 3340 L
1338 3290 mt 1288 3340 L
1424 3562 mt 1474 3612 L
1474 3562 mt 1424 3612 L
1561 3595 mt 1611 3645 L
1611 3595 mt 1561 3645 L
1700 3711 mt 1750 3761 L
1750 3711 mt 1700 3761 L
1838 3825 mt 1888 3875 L
1888 3825 mt 1838 3875 L
1975 3910 mt 2025 3960 L
2025 3910 mt 1975 3960 L
2112 3964 mt 2162 4014 L
2162 3964 mt 2112 4014 L
2249 4010 mt 2299 4060 L
2299 4010 mt 2249 4060 L
2385 4029 mt 2435 4079 L
2435 4029 mt 2385 4079 L
2521 4040 mt 2571 4090 L
2571 4040 mt 2521 4090 L
2657 4117 mt 2707 4167 L
2707 4117 mt 2657 4167 L
2794 4136 mt 2844 4186 L
2844 4136 mt 2794 4186 L
2930 4124 mt 2980 4174 L
2980 4124 mt 2930 4174 L
3069 4168 mt 3119 4218 L
3119 4168 mt 3069 4218 L
3205 4210 mt 3255 4260 L
3255 4210 mt 3205 4260 L
3342 4233 mt 3392 4283 L
3392 4233 mt 3342 4283 L
3481 4257 mt 3531 4307 L
3531 4257 mt 3481 4307 L
3617 4240 mt 3667 4290 L
3667 4240 mt 3617 4290 L
3754 4237 mt 3804 4287 L
3804 4237 mt 3754 4287 L
3892 4291 mt 3942 4341 L
3942 4291 mt 3892 4341 L
4030 4273 mt 4080 4323 L
4080 4273 mt 4030 4323 L
4165 4291 mt 4215 4341 L
4215 4291 mt 4165 4341 L
4301 4337 mt 4351 4387 L
4351 4337 mt 4301 4387 L
4442 4331 mt 4492 4381 L
4492 4331 mt 4442 4381 L
4580 4300 mt 4630 4350 L
4630 4300 mt 4580 4350 L
4715 4355 mt 4765 4405 L
4765 4355 mt 4715 4405 L
4853 4344 mt 4903 4394 L
4903 4344 mt 4853 4394 L
4990 4371 mt 5040 4421 L
5040 4371 mt 4990 4421 L
5128 4366 mt 5178 4416 L
5178 4366 mt 5128 4416 L
5264 4370 mt 5314 4420 L
5314 4370 mt 5264 4420 L
5400 4381 mt 5450 4431 L
5450 4381 mt 5400 4431 L
5539 4388 mt 5589 4438 L
5589 4388 mt 5539 4438 L
5677 4415 mt 5727 4465 L
5727 4415 mt 5677 4465 L
5814 4402 mt 5864 4452 L
5864 4402 mt 5814 4452 L
5953 4404 mt 6003 4454 L
6003 4404 mt 5953 4454 L
6099 4408 mt 6149 4458 L
6149 4408 mt 6099 4458 L
gs 899 469 5357 4147 rc
899 469 PD
102 0 899 469 2 MP stroke
102 0 899 469 2 MP stroke
0 302 1043 477 2 MP stroke
204 0 941 477 2 MP stroke
204 0 941 779 2 MP stroke
0 404 1178 519 2 MP stroke
204 0 1076 519 2 MP stroke
204 0 1076 923 2 MP stroke
0 594 1313 503 2 MP stroke
204 0 1211 503 2 MP stroke
204 0 1211 1097 2 MP stroke
0 743 1449 531 2 MP stroke
204 0 1347 531 2 MP stroke
204 0 1347 1274 2 MP stroke
0 837 1586 469 2 MP stroke
204 0 1484 1306 2 MP stroke
0 801 1725 573 2 MP stroke
205 0 1622 573 2 MP stroke
205 0 1622 1374 2 MP stroke
0 809 1863 638 2 MP stroke
204 0 1761 638 2 MP stroke
204 0 1761 1447 2 MP stroke
0 863 2000 620 2 MP stroke
204 0 1898 620 2 MP stroke
204 0 1898 1483 2 MP stroke
0 538 2137 932 2 MP stroke
204 0 2035 932 2 MP stroke
204 0 2035 1470 2 MP stroke
0 1036 2274 665 2 MP stroke
204 0 2172 665 2 MP stroke
204 0 2172 1701 2 MP stroke
0 949 2410 768 2 MP stroke
204 0 2308 768 2 MP stroke
204 0 2308 1717 2 MP stroke
0 1131 2546 685 2 MP stroke
204 0 2444 685 2 MP stroke
204 0 2444 1816 2 MP stroke
0 1040 2682 794 2 MP stroke
204 0 2580 794 2 MP stroke
204 0 2580 1834 2 MP stroke
0 735 2819 1056 2 MP stroke
204 0 2717 1056 2 MP stroke
204 0 2717 1791 2 MP stroke
0 1083 2955 807 2 MP stroke
205 0 2853 807 2 MP stroke
205 0 2853 1890 2 MP stroke
0 1074 3094 911 2 MP stroke
204 0 2992 911 2 MP stroke
204 0 2992 1985 2 MP stroke
0 1083 3230 964 2 MP stroke
204 0 3128 964 2 MP stroke
204 0 3128 2047 2 MP stroke
0 1174 3367 887 2 MP stroke
204 0 3265 887 2 MP stroke
204 0 3265 2061 2 MP stroke
0 1181 3506 939 2 MP stroke
205 0 3403 939 2 MP stroke
205 0 3403 2120 2 MP stroke
0 1106 3642 965 2 MP stroke
204 0 3540 965 2 MP stroke
204 0 3540 2071 2 MP stroke
0 870 3779 1220 2 MP stroke
205 0 3676 1220 2 MP stroke
205 0 3676 2090 2 MP stroke
0 1109 3917 1156 2 MP stroke
204 0 3815 1156 2 MP stroke
204 0 3815 2265 2 MP stroke
0 1137 4055 1115 2 MP stroke
204 0 3953 1115 2 MP stroke
204 0 3953 2252 2 MP stroke
0 1321 4190 982 2 MP stroke
205 0 4087 982 2 MP stroke
205 0 4087 2303 2 MP stroke
0 1133 4326 1124 2 MP stroke
204 0 4224 1124 2 MP stroke
204 0 4224 2257 2 MP stroke
0 1011 4467 1302 2 MP stroke
204 0 4365 1302 2 MP stroke
204 0 4365 2313 2 MP stroke
0 1142 4605 1256 2 MP stroke
205 0 4502 1256 2 MP stroke
205 0 4502 2398 2 MP stroke
0 1208 4740 1247 2 MP stroke
204 0 4638 1247 2 MP stroke
204 0 4638 2455 2 MP stroke
0 1069 4878 1308 2 MP stroke
204 0 4776 1308 2 MP stroke
204 0 4776 2377 2 MP stroke
0 1265 5015 1235 2 MP stroke
204 0 4913 1235 2 MP stroke
204 0 4913 2500 2 MP stroke
0 1202 5153 1340 2 MP stroke
205 0 5050 1340 2 MP stroke
205 0 5050 2542 2 MP stroke
0 1272 5289 1275 2 MP stroke
204 0 5187 1275 2 MP stroke
204 0 5187 2547 2 MP stroke
0 1077 5425 1457 2 MP stroke
205 0 5323 1457 2 MP stroke
205 0 5323 2534 2 MP stroke
0 1232 5564 1386 2 MP stroke
204 0 5462 1386 2 MP stroke
204 0 5462 2618 2 MP stroke
0 1227 5702 1361 2 MP stroke
204 0 5600 1361 2 MP stroke
204 0 5600 2588 2 MP stroke
0 1100 5839 1524 2 MP stroke
205 0 5737 1524 2 MP stroke
205 0 5737 2624 2 MP stroke
0 1300 5978 1381 2 MP stroke
204 0 5876 1381 2 MP stroke
204 0 5876 2681 2 MP stroke
0 1462 6124 1302 2 MP stroke
204 0 6022 1302 2 MP stroke
204 0 6022 2764 2 MP stroke
88 0 6168 1532 2 MP stroke
88 0 6168 2834 2 MP stroke
132 135 146 2 139 -43 137 100 138 -28 139 7 136 84 136 -30 
138 73 137 25 138 -8 135 24 138 20 141 117 136 47 135 -40 
138 -28 138 56 137 137 136 -11 139 55 137 -31 136 57 139 100 
136 -75 137 109 136 64 136 7 136 60 137 -18 137 149 137 9 
138 70 139 99 137 -29 136 103 135 79 135 93 144 159 899 469 40 MP stroke
gr

 874  444 mt  924  494 L
 924  444 mt  874  494 L
1018  603 mt 1068  653 L
1068  603 mt 1018  653 L
1153  696 mt 1203  746 L
1203  696 mt 1153  746 L
1288  775 mt 1338  825 L
1338  775 mt 1288  825 L
1424  878 mt 1474  928 L
1474  878 mt 1424  928 L
1561  849 mt 1611  899 L
1611  849 mt 1561  899 L
1700  948 mt 1750  998 L
1750  948 mt 1700  998 L
1838 1018 mt 1888 1068 L
1888 1018 mt 1838 1068 L
1975 1027 mt 2025 1077 L
2025 1027 mt 1975 1077 L
2112 1176 mt 2162 1226 L
2162 1176 mt 2112 1226 L
2249 1158 mt 2299 1208 L
2299 1158 mt 2249 1208 L
2385 1218 mt 2435 1268 L
2435 1218 mt 2385 1268 L
2521 1225 mt 2571 1275 L
2571 1225 mt 2521 1275 L
2657 1289 mt 2707 1339 L
2707 1289 mt 2657 1339 L
2794 1398 mt 2844 1448 L
2844 1398 mt 2794 1448 L
2930 1323 mt 2980 1373 L
2980 1323 mt 2930 1373 L
3069 1423 mt 3119 1473 L
3119 1423 mt 3069 1473 L
3205 1480 mt 3255 1530 L
3255 1480 mt 3205 1530 L
3342 1449 mt 3392 1499 L
3392 1449 mt 3342 1499 L
3481 1504 mt 3531 1554 L
3531 1504 mt 3481 1554 L
3617 1493 mt 3667 1543 L
3667 1493 mt 3617 1543 L
3754 1630 mt 3804 1680 L
3804 1630 mt 3754 1680 L
3892 1686 mt 3942 1736 L
3942 1686 mt 3892 1736 L
4030 1658 mt 4080 1708 L
4080 1658 mt 4030 1708 L
4165 1618 mt 4215 1668 L
4215 1618 mt 4165 1668 L
4301 1665 mt 4351 1715 L
4351 1665 mt 4301 1715 L
4442 1782 mt 4492 1832 L
4492 1782 mt 4442 1832 L
4580 1802 mt 4630 1852 L
4630 1802 mt 4580 1852 L
4715 1826 mt 4765 1876 L
4765 1826 mt 4715 1876 L
4853 1818 mt 4903 1868 L
4903 1818 mt 4853 1868 L
4990 1843 mt 5040 1893 L
5040 1843 mt 4990 1893 L
5128 1916 mt 5178 1966 L
5178 1916 mt 5128 1966 L
5264 1886 mt 5314 1936 L
5314 1886 mt 5264 1936 L
5400 1970 mt 5450 2020 L
5450 1970 mt 5400 2020 L
5539 1977 mt 5589 2027 L
5589 1977 mt 5539 2027 L
5677 1949 mt 5727 1999 L
5727 1949 mt 5677 1999 L
5814 2049 mt 5864 2099 L
5864 2049 mt 5814 2099 L
5953 2006 mt 6003 2056 L
6003 2006 mt 5953 2056 L
6099 2008 mt 6149 2058 L
6149 2008 mt 6099 2058 L
gs 899 469 5357 4147 rc
/c8 { 1.000000 0.000000 0.000000 sr} bdef
c8
899 501 PD
899 469 PD
71 0 899 469 2 MP stroke
71 0 899 469 2 MP stroke
0 171 970 959 2 MP stroke
142 0 899 959 2 MP stroke
142 0 899 1130 2 MP stroke
0 267 1041 1341 2 MP stroke
143 0 970 1341 2 MP stroke
143 0 970 1608 2 MP stroke
0 346 1113 1643 2 MP stroke
143 0 1041 1643 2 MP stroke
143 0 1041 1989 2 MP stroke
0 391 1184 1929 2 MP stroke
143 0 1113 1929 2 MP stroke
143 0 1113 2320 2 MP stroke
0 412 1256 2178 2 MP stroke
143 0 1184 2178 2 MP stroke
143 0 1184 2590 2 MP stroke
0 415 1327 2408 2 MP stroke
142 0 1256 2408 2 MP stroke
142 0 1256 2823 2 MP stroke
0 400 1398 2609 2 MP stroke
143 0 1327 2609 2 MP stroke
143 0 1327 3009 2 MP stroke
0 407 1470 2769 2 MP stroke
143 0 1398 2769 2 MP stroke
143 0 1398 3176 2 MP stroke
0 390 1541 2920 2 MP stroke
143 0 1470 2920 2 MP stroke
143 0 1470 3310 2 MP stroke
0 380 1613 3053 2 MP stroke
143 0 1541 3053 2 MP stroke
143 0 1541 3433 2 MP stroke
0 361 1684 3174 2 MP stroke
142 0 1613 3174 2 MP stroke
142 0 1613 3535 2 MP stroke
0 337 1755 3282 2 MP stroke
143 0 1684 3282 2 MP stroke
143 0 1684 3619 2 MP stroke
0 323 1827 3374 2 MP stroke
143 0 1755 3374 2 MP stroke
143 0 1755 3697 2 MP stroke
0 319 1898 3444 2 MP stroke
143 0 1827 3444 2 MP stroke
143 0 1827 3763 2 MP stroke
0 316 1970 3512 2 MP stroke
143 0 1898 3512 2 MP stroke
143 0 1898 3828 2 MP stroke
0 301 2041 3576 2 MP stroke
143 0 1970 3576 2 MP stroke
143 0 1970 3877 2 MP stroke
0 283 2113 3631 2 MP stroke
143 0 2041 3631 2 MP stroke
143 0 2041 3914 2 MP stroke
0 260 2184 3696 2 MP stroke
142 0 2113 3696 2 MP stroke
142 0 2113 3956 2 MP stroke
0 252 2255 3738 2 MP stroke
143 0 2184 3738 2 MP stroke
143 0 2184 3990 2 MP stroke
0 226 2327 3785 2 MP stroke
143 0 2255 3785 2 MP stroke
143 0 2255 4011 2 MP stroke
0 231 2398 3814 2 MP stroke
143 0 2327 3814 2 MP stroke
143 0 2327 4045 2 MP stroke
0 234 2470 3843 2 MP stroke
143 0 2398 3843 2 MP stroke
143 0 2398 4077 2 MP stroke
0 226 2541 3875 2 MP stroke
142 0 2470 3875 2 MP stroke
142 0 2470 4101 2 MP stroke
0 219 2612 3909 2 MP stroke
143 0 2541 3909 2 MP stroke
143 0 2541 4128 2 MP stroke
0 201 2684 3933 2 MP stroke
143 0 2612 3933 2 MP stroke
143 0 2612 4134 2 MP stroke
0 206 2755 3947 2 MP stroke
143 0 2684 3947 2 MP stroke
143 0 2684 4153 2 MP stroke
0 199 2827 3971 2 MP stroke
143 0 2755 3971 2 MP stroke
143 0 2755 4170 2 MP stroke
0 198 2898 3988 2 MP stroke
142 0 2827 3988 2 MP stroke
142 0 2827 4186 2 MP stroke
0 187 2969 4011 2 MP stroke
143 0 2898 4011 2 MP stroke
143 0 2898 4198 2 MP stroke
0 188 3041 4021 2 MP stroke
143 0 2969 4021 2 MP stroke
143 0 2969 4209 2 MP stroke
0 199 3112 4025 2 MP stroke
143 0 3041 4025 2 MP stroke
143 0 3041 4224 2 MP stroke
0 184 3184 4049 2 MP stroke
143 0 3112 4049 2 MP stroke
143 0 3112 4233 2 MP stroke
0 176 3255 4057 2 MP stroke
143 0 3184 4057 2 MP stroke
143 0 3184 4233 2 MP stroke
0 167 3327 4069 2 MP stroke
143 0 3255 4069 2 MP stroke
143 0 3255 4236 2 MP stroke
0 160 3398 4080 2 MP stroke
142 0 3327 4080 2 MP stroke
142 0 3327 4240 2 MP stroke
0 158 3469 4089 2 MP stroke
143 0 3398 4089 2 MP stroke
143 0 3398 4247 2 MP stroke
0 152 3541 4103 2 MP stroke
143 0 3469 4103 2 MP stroke
143 0 3469 4255 2 MP stroke
0 151 3612 4110 2 MP stroke
143 0 3541 4110 2 MP stroke
143 0 3541 4261 2 MP stroke
0 147 3684 4117 2 MP stroke
143 0 3612 4117 2 MP stroke
143 0 3612 4264 2 MP stroke
0 142 3755 4120 2 MP stroke
142 0 3684 4120 2 MP stroke
142 0 3684 4262 2 MP stroke
0 140 3826 4128 2 MP stroke
143 0 3755 4128 2 MP stroke
143 0 3755 4268 2 MP stroke
0 132 3898 4136 2 MP stroke
143 0 3826 4136 2 MP stroke
143 0 3826 4268 2 MP stroke
0 128 3969 4143 2 MP stroke
143 0 3898 4143 2 MP stroke
143 0 3898 4271 2 MP stroke
0 128 4041 4149 2 MP stroke
143 0 3969 4149 2 MP stroke
143 0 3969 4277 2 MP stroke
0 129 4112 4158 2 MP stroke
143 0 4041 4158 2 MP stroke
143 0 4041 4287 2 MP stroke
0 124 4184 4170 2 MP stroke
143 0 4112 4170 2 MP stroke
143 0 4112 4294 2 MP stroke
0 133 4255 4175 2 MP stroke
142 0 4184 4175 2 MP stroke
142 0 4184 4308 2 MP stroke
0 134 4326 4177 2 MP stroke
143 0 4255 4177 2 MP stroke
143 0 4255 4311 2 MP stroke
0 132 4398 4180 2 MP stroke
143 0 4326 4180 2 MP stroke
143 0 4326 4312 2 MP stroke
0 148 4469 4176 2 MP stroke
143 0 4398 4176 2 MP stroke
143 0 4398 4324 2 MP stroke
0 134 4541 4191 2 MP stroke
143 0 4469 4191 2 MP stroke
143 0 4469 4325 2 MP stroke
0 119 4612 4206 2 MP stroke
142 0 4541 4206 2 MP stroke
142 0 4541 4325 2 MP stroke
0 125 4683 4207 2 MP stroke
143 0 4612 4207 2 MP stroke
143 0 4612 4332 2 MP stroke
0 124 4755 4211 2 MP stroke
143 0 4683 4211 2 MP stroke
143 0 4683 4335 2 MP stroke
0 129 4826 4216 2 MP stroke
143 0 4755 4216 2 MP stroke
143 0 4755 4345 2 MP stroke
0 145 4898 4201 2 MP stroke
143 0 4826 4201 2 MP stroke
143 0 4826 4346 2 MP stroke
0 139 4969 4205 2 MP stroke
142 0 4898 4205 2 MP stroke
142 0 4898 4344 2 MP stroke
0 137 5040 4211 2 MP stroke
143 0 4969 4211 2 MP stroke
143 0 4969 4348 2 MP stroke
0 147 5112 4208 2 MP stroke
143 0 5040 4208 2 MP stroke
143 0 5040 4355 2 MP stroke
0 134 5183 4218 2 MP stroke
143 0 5112 4218 2 MP stroke
143 0 5112 4352 2 MP stroke
0 125 5255 4227 2 MP stroke
143 0 5183 4227 2 MP stroke
143 0 5183 4352 2 MP stroke
0 120 5326 4234 2 MP stroke
143 0 5255 4234 2 MP stroke
143 0 5255 4354 2 MP stroke
0 127 5398 4230 2 MP stroke
143 0 5326 4230 2 MP stroke
143 0 5326 4357 2 MP stroke
0 124 5469 4232 2 MP stroke
142 0 5398 4232 2 MP stroke
142 0 5398 4356 2 MP stroke
0 135 5540 4224 2 MP stroke
143 0 5469 4224 2 MP stroke
143 0 5469 4359 2 MP stroke
0 146 5612 4225 2 MP stroke
143 0 5540 4225 2 MP stroke
143 0 5540 4371 2 MP stroke
0 143 5683 4230 2 MP stroke
143 0 5612 4230 2 MP stroke
143 0 5612 4373 2 MP stroke
0 134 5755 4237 2 MP stroke
143 0 5683 4237 2 MP stroke
143 0 5683 4371 2 MP stroke
0 138 5826 4239 2 MP stroke
142 0 5755 4239 2 MP stroke
142 0 5755 4377 2 MP stroke
0 133 5897 4248 2 MP stroke
143 0 5826 4248 2 MP stroke
143 0 5826 4381 2 MP stroke
0 136 5969 4241 2 MP stroke
143 0 5897 4241 2 MP stroke
143 0 5897 4377 2 MP stroke
0 133 6040 4246 2 MP stroke
143 0 5969 4246 2 MP stroke
143 0 5969 4379 2 MP stroke
0 135 6112 4251 2 MP stroke
143 0 6040 4251 2 MP stroke
143 0 6040 4386 2 MP stroke
0 151 6183 4246 2 MP stroke
143 0 6112 4246 2 MP stroke
143 0 6112 4397 2 MP stroke
0 147 6255 4249 2 MP stroke
73 0 6183 4249 2 MP stroke
73 0 6183 4396 2 MP stroke
72 0 71 4 72 5 71 4 72 -6 71 7 71 4 72 3 
71 3 72 6 71 -2 71 0 72 0 71 5 72 4 71 3 
72 2 71 6 71 0 72 -6 71 7 72 3 71 5 71 7 
72 8 71 4 72 2 71 2 71 10 72 10 71 9 72 6 
71 5 72 4 71 7 71 1 72 5 71 6 72 11 71 8 
71 7 72 8 71 4 72 16 71 10 72 11 71 17 71 17 
72 20 71 16 72 15 71 31 71 28 72 30 71 32 72 34 
71 38 71 53 72 46 71 57 72 66 71 69 72 84 71 96 
71 112 72 128 71 142 72 164 71 194 71 231 72 259 71 309 
72 342 71 429 71 576 899 469 76 MP stroke
gr

c8
  36   36  970 1045 FO
  36   36 1041 1474 FO
  36   36 1113 1816 FO
  36   36 1184 2125 FO
  36   36 1256 2384 FO
  36   36 1327 2615 FO
  36   36 1398 2809 FO
  36   36 1470 2973 FO
  36   36 1541 3115 FO
  36   36 1613 3243 FO
  36   36 1684 3355 FO
  36   36 1755 3451 FO
  36   36 1827 3535 FO
  36   36 1898 3604 FO
  36   36 1970 3670 FO
  36   36 2041 3727 FO
  36   36 2113 3773 FO
  36   36 2184 3826 FO
  36   36 2255 3864 FO
  36   36 2327 3898 FO
  36   36 2398 3930 FO
  36   36 2470 3960 FO
  36   36 2541 3988 FO
  36   36 2612 4019 FO
  36   36 2684 4034 FO
  36   36 2755 4050 FO
  36   36 2827 4070 FO
  36   36 2898 4087 FO
  36   36 2969 4104 FO
  36   36 3041 4115 FO
  36   36 3112 4125 FO
  36   36 3184 4141 FO
  36   36 3255 4145 FO
  36   36 3327 4153 FO
  36   36 3398 4160 FO
  36   36 3469 4168 FO
  36   36 3541 4179 FO
  36   36 3612 4185 FO
  36   36 3684 4190 FO
  36   36 3755 4191 FO
  36   36 3826 4198 FO
  36   36 3898 4202 FO
  36   36 3969 4207 FO
  36   36 4041 4213 FO
  36   36 4112 4222 FO
  36   36 4184 4232 FO
  36   36 4255 4242 FO
  36   36 4326 4244 FO
  36   36 4398 4246 FO
  36   36 4469 4250 FO
  36   36 4541 4258 FO
  36   36 4612 4265 FO
  36   36 4683 4270 FO
  36   36 4755 4273 FO
  36   36 4826 4280 FO
  36   36 4898 4274 FO
  36   36 4969 4274 FO
  36   36 5040 4280 FO
  36   36 5112 4282 FO
  36   36 5183 4285 FO
  36   36 5255 4289 FO
  36   36 5326 4294 FO
  36   36 5398 4294 FO
  36   36 5469 4294 FO
  36   36 5540 4292 FO
  36   36 5612 4298 FO
  36   36 5683 4301 FO
  36   36 5755 4304 FO
  36   36 5826 4308 FO
  36   36 5897 4315 FO
  36   36 5969 4309 FO
  36   36 6040 4313 FO
  36   36 6112 4318 FO
  36   36 6183 4322 FO
  36   36 6255 4322 FO
gs 899 469 5357 4147 rc
/c9 { 0.000000 0.500000 0.000000 sr} bdef
c9
899 515 PD
899 469 PD
71 0 899 469 2 MP stroke
71 0 899 469 2 MP stroke
0 47 970 469 2 MP stroke
142 0 899 516 2 MP stroke
0 42 1041 469 2 MP stroke
143 0 970 511 2 MP stroke
0 57 1113 469 2 MP stroke
143 0 1041 526 2 MP stroke
0 68 1184 469 2 MP stroke
143 0 1113 537 2 MP stroke
0 85 1256 469 2 MP stroke
143 0 1184 554 2 MP stroke
0 112 1327 469 2 MP stroke
142 0 1256 581 2 MP stroke
0 139 1398 469 2 MP stroke
143 0 1327 608 2 MP stroke
0 169 1470 469 2 MP stroke
143 0 1398 638 2 MP stroke
0 196 1541 483 2 MP stroke
143 0 1470 483 2 MP stroke
143 0 1470 679 2 MP stroke
0 206 1613 498 2 MP stroke
143 0 1541 498 2 MP stroke
143 0 1541 704 2 MP stroke
0 239 1684 508 2 MP stroke
142 0 1613 508 2 MP stroke
142 0 1613 747 2 MP stroke
0 261 1755 527 2 MP stroke
143 0 1684 527 2 MP stroke
143 0 1684 788 2 MP stroke
0 271 1827 554 2 MP stroke
143 0 1755 554 2 MP stroke
143 0 1755 825 2 MP stroke
0 305 1898 574 2 MP stroke
143 0 1827 574 2 MP stroke
143 0 1827 879 2 MP stroke
0 326 1970 596 2 MP stroke
143 0 1898 596 2 MP stroke
143 0 1898 922 2 MP stroke
0 348 2041 616 2 MP stroke
143 0 1970 616 2 MP stroke
143 0 1970 964 2 MP stroke
0 364 2113 644 2 MP stroke
143 0 2041 644 2 MP stroke
143 0 2041 1008 2 MP stroke
0 371 2184 668 2 MP stroke
142 0 2113 668 2 MP stroke
142 0 2113 1039 2 MP stroke
0 385 2255 696 2 MP stroke
143 0 2184 696 2 MP stroke
143 0 2184 1081 2 MP stroke
0 424 2327 710 2 MP stroke
143 0 2255 710 2 MP stroke
143 0 2255 1134 2 MP stroke
0 434 2398 743 2 MP stroke
143 0 2327 743 2 MP stroke
143 0 2327 1177 2 MP stroke
0 452 2470 767 2 MP stroke
143 0 2398 767 2 MP stroke
143 0 2398 1219 2 MP stroke
0 480 2541 784 2 MP stroke
142 0 2470 784 2 MP stroke
142 0 2470 1264 2 MP stroke
0 498 2612 802 2 MP stroke
143 0 2541 802 2 MP stroke
143 0 2541 1300 2 MP stroke
0 521 2684 828 2 MP stroke
143 0 2612 828 2 MP stroke
143 0 2612 1349 2 MP stroke
0 553 2755 847 2 MP stroke
143 0 2684 847 2 MP stroke
143 0 2684 1400 2 MP stroke
0 571 2827 866 2 MP stroke
143 0 2755 866 2 MP stroke
143 0 2755 1437 2 MP stroke
0 590 2898 885 2 MP stroke
142 0 2827 885 2 MP stroke
142 0 2827 1475 2 MP stroke
0 615 2969 902 2 MP stroke
143 0 2898 902 2 MP stroke
143 0 2898 1517 2 MP stroke
0 627 3041 930 2 MP stroke
143 0 2969 930 2 MP stroke
143 0 2969 1557 2 MP stroke
0 620 3112 967 2 MP stroke
143 0 3041 967 2 MP stroke
143 0 3041 1587 2 MP stroke
0 634 3184 984 2 MP stroke
143 0 3112 984 2 MP stroke
143 0 3112 1618 2 MP stroke
0 662 3255 1008 2 MP stroke
143 0 3184 1008 2 MP stroke
143 0 3184 1670 2 MP stroke
0 674 3327 1035 2 MP stroke
143 0 3255 1035 2 MP stroke
143 0 3255 1709 2 MP stroke
0 694 3398 1058 2 MP stroke
142 0 3327 1058 2 MP stroke
142 0 3327 1752 2 MP stroke
0 700 3469 1086 2 MP stroke
143 0 3398 1086 2 MP stroke
143 0 3398 1786 2 MP stroke
0 705 3541 1109 2 MP stroke
143 0 3469 1109 2 MP stroke
143 0 3469 1814 2 MP stroke
0 714 3612 1135 2 MP stroke
143 0 3541 1135 2 MP stroke
143 0 3541 1849 2 MP stroke
0 727 3684 1159 2 MP stroke
143 0 3612 1159 2 MP stroke
143 0 3612 1886 2 MP stroke
0 750 3755 1184 2 MP stroke
142 0 3684 1184 2 MP stroke
142 0 3684 1934 2 MP stroke
0 762 3826 1206 2 MP stroke
143 0 3755 1206 2 MP stroke
143 0 3755 1968 2 MP stroke
0 782 3898 1224 2 MP stroke
143 0 3826 1224 2 MP stroke
143 0 3826 2006 2 MP stroke
0 813 3969 1236 2 MP stroke
143 0 3898 1236 2 MP stroke
143 0 3898 2049 2 MP stroke
0 804 4041 1270 2 MP stroke
143 0 3969 1270 2 MP stroke
143 0 3969 2074 2 MP stroke
0 810 4112 1292 2 MP stroke
143 0 4041 1292 2 MP stroke
143 0 4041 2102 2 MP stroke
0 814 4184 1316 2 MP stroke
143 0 4112 1316 2 MP stroke
143 0 4112 2130 2 MP stroke
0 817 4255 1341 2 MP stroke
142 0 4184 1341 2 MP stroke
142 0 4184 2158 2 MP stroke
0 824 4326 1370 2 MP stroke
143 0 4255 1370 2 MP stroke
143 0 4255 2194 2 MP stroke
0 829 4398 1396 2 MP stroke
143 0 4326 1396 2 MP stroke
143 0 4326 2225 2 MP stroke
0 824 4469 1425 2 MP stroke
143 0 4398 1425 2 MP stroke
143 0 4398 2249 2 MP stroke
0 843 4541 1437 2 MP stroke
143 0 4469 1437 2 MP stroke
143 0 4469 2280 2 MP stroke
0 854 4612 1454 2 MP stroke
142 0 4541 1454 2 MP stroke
142 0 4541 2308 2 MP stroke
0 857 4683 1478 2 MP stroke
143 0 4612 1478 2 MP stroke
143 0 4612 2335 2 MP stroke
0 866 4755 1503 2 MP stroke
143 0 4683 1503 2 MP stroke
143 0 4683 2369 2 MP stroke
0 874 4826 1520 2 MP stroke
143 0 4755 1520 2 MP stroke
143 0 4755 2394 2 MP stroke
0 877 4898 1554 2 MP stroke
143 0 4826 1554 2 MP stroke
143 0 4826 2431 2 MP stroke
0 879 4969 1578 2 MP stroke
142 0 4898 1578 2 MP stroke
142 0 4898 2457 2 MP stroke
0 891 5040 1594 2 MP stroke
143 0 4969 1594 2 MP stroke
143 0 4969 2485 2 MP stroke
0 883 5112 1624 2 MP stroke
143 0 5040 1624 2 MP stroke
143 0 5040 2507 2 MP stroke
0 911 5183 1634 2 MP stroke
143 0 5112 1634 2 MP stroke
143 0 5112 2545 2 MP stroke
0 917 5255 1655 2 MP stroke
143 0 5183 1655 2 MP stroke
143 0 5183 2572 2 MP stroke
0 921 5326 1675 2 MP stroke
143 0 5255 1675 2 MP stroke
143 0 5255 2596 2 MP stroke
0 919 5398 1700 2 MP stroke
143 0 5326 1700 2 MP stroke
143 0 5326 2619 2 MP stroke
0 934 5469 1719 2 MP stroke
142 0 5398 1719 2 MP stroke
142 0 5398 2653 2 MP stroke
0 939 5540 1745 2 MP stroke
143 0 5469 1745 2 MP stroke
143 0 5469 2684 2 MP stroke
0 934 5612 1765 2 MP stroke
143 0 5540 1765 2 MP stroke
143 0 5540 2699 2 MP stroke
0 940 5683 1783 2 MP stroke
143 0 5612 1783 2 MP stroke
143 0 5612 2723 2 MP stroke
0 949 5755 1803 2 MP stroke
143 0 5683 1803 2 MP stroke
143 0 5683 2752 2 MP stroke
0 945 5826 1828 2 MP stroke
142 0 5755 1828 2 MP stroke
142 0 5755 2773 2 MP stroke
0 950 5897 1844 2 MP stroke
143 0 5826 1844 2 MP stroke
143 0 5826 2794 2 MP stroke
0 959 5969 1872 2 MP stroke
143 0 5897 1872 2 MP stroke
143 0 5897 2831 2 MP stroke
0 965 6040 1892 2 MP stroke
143 0 5969 1892 2 MP stroke
143 0 5969 2857 2 MP stroke
0 977 6112 1905 2 MP stroke
143 0 6040 1905 2 MP stroke
143 0 6040 2882 2 MP stroke
0 965 6183 1931 2 MP stroke
143 0 6112 1931 2 MP stroke
143 0 6112 2896 2 MP stroke
0 963 6255 1955 2 MP stroke
73 0 6183 1955 2 MP stroke
73 0 6183 2918 2 MP stroke
72 23 71 20 72 20 71 22 72 33 71 19 71 22 72 25 
71 21 72 18 71 28 71 27 72 24 71 22 72 23 71 24 
72 26 71 22 71 25 72 36 71 21 72 30 71 25 71 22 
72 22 71 26 72 29 71 33 71 26 72 26 71 25 72 29 
71 28 72 28 71 28 71 37 72 30 71 31 72 25 71 31 
71 33 72 33 71 38 72 24 71 33 72 35 71 29 71 28 
72 28 71 35 72 38 71 27 71 31 72 33 71 38 72 34 
71 35 71 27 72 36 71 31 72 33 71 36 72 32 71 30 
71 27 72 20 71 31 72 20 71 22 71 13 72 15 71 4 
72 7 71 -10 71 10 899 469 76 MP stroke
gr

c9
  36   36  970  479 FO
  36   36 1041  469 FO
  36   36 1113  476 FO
  36   36 1184  480 FO
  36   36 1256  495 FO
  36   36 1327  508 FO
  36   36 1398  530 FO
  36   36 1470  550 FO
  36   36 1541  581 FO
  36   36 1613  601 FO
  36   36 1684  628 FO
  36   36 1755  658 FO
  36   36 1827  690 FO
  36   36 1898  726 FO
  36   36 1970  759 FO
  36   36 2041  790 FO
  36   36 2113  826 FO
  36   36 2184  853 FO
  36   36 2255  888 FO
  36   36 2327  922 FO
  36   36 2398  960 FO
  36   36 2470  993 FO
  36   36 2541 1024 FO
  36   36 2612 1051 FO
  36   36 2684 1089 FO
  36   36 2755 1124 FO
  36   36 2827 1152 FO
  36   36 2898 1180 FO
  36   36 2969 1209 FO
  36   36 3041 1244 FO
  36   36 3112 1277 FO
  36   36 3184 1301 FO
  36   36 3255 1339 FO
  36   36 3327 1372 FO
  36   36 3398 1405 FO
  36   36 3469 1436 FO
  36   36 3541 1461 FO
  36   36 3612 1492 FO
  36   36 3684 1522 FO
  36   36 3755 1559 FO
  36   36 3826 1587 FO
  36   36 3898 1615 FO
  36   36 3969 1643 FO
  36   36 4041 1672 FO
  36   36 4112 1697 FO
  36   36 4184 1723 FO
  36   36 4255 1749 FO
  36   36 4326 1782 FO
  36   36 4398 1811 FO
  36   36 4469 1837 FO
  36   36 4541 1859 FO
  36   36 4612 1881 FO
  36   36 4683 1906 FO
  36   36 4755 1936 FO
  36   36 4826 1957 FO
  36   36 4898 1993 FO
  36   36 4969 2018 FO
  36   36 5040 2040 FO
  36   36 5112 2066 FO
  36   36 5183 2090 FO
  36   36 5255 2113 FO
  36   36 5326 2135 FO
  36   36 5398 2159 FO
  36   36 5469 2186 FO
  36   36 5540 2214 FO
  36   36 5612 2232 FO
  36   36 5683 2253 FO
  36   36 5755 2278 FO
  36   36 5826 2300 FO
  36   36 5897 2319 FO
  36   36 5969 2352 FO
  36   36 6040 2374 FO
  36   36 6112 2394 FO
  36   36 6183 2414 FO
  36   36 6255 2437 FO
gs 899 469 5357 4147 rc
gr

0 sg
%%IncludeResource: font Helvetica
/Helvetica /ISOLatin1Encoding 168 FMSR

2509  156 mt 
(Src1-GFP in Late Anaphase) s
%%IncludeResource: font Helvetica
/Helvetica /ISOLatin1Encoding 144 FMSR

1784  293 mt 
(n) s
%%IncludeResource: font Helvetica
/Helvetica /ISOLatin1Encoding 108 FMSR

1864  377 mt 
(cells) s
%%IncludeResource: font Helvetica
/Helvetica /ISOLatin1Encoding 144 FMSR

2080  293 mt 
( = 34    -    Multiple rings 300nm width   -   P) s
%%IncludeResource: font Helvetica
/Helvetica /ISOLatin1Encoding 108 FMSR

4935  377 mt 
(in) s
%%IncludeResource: font Helvetica
/Helvetica /ISOLatin1Encoding 144 FMSR

5019  293 mt 
( = 0.3) s
3314 4921 mt 
(Time \(s\)) s
 577 3058 mt  -90 rotate
(% Fluorescence) s
90 rotate
%%IncludeResource: font Helvetica
/Helvetica /ISOLatin1Encoding 120 FMSR

 882 4658 mt 
( ) s
6239  511 mt 
( ) s
5656  664 mt 
(mother) s
gs 5217 529 980 335 rc
c8
338 0 5284 621 2 MP stroke
gs 5380 548 147 147 rc
  36   36 5453  621 FO
gr

gr

c8
0 sg
5656  813 mt 
(daughter) s
gs 5217 529 980 335 rc
c9
338 0 5284 770 2 MP stroke
gs 5380 697 147 147 rc
  36   36 5453  770 FO
gr

gr

c9

end %%Color Dict

eplot
%%EndObject

epage
end

showpage

%%Trailer
%%EOF
