%!PS-Adobe-3.0 EPSF-3.0
%%Creator: MATLAB, The MathWorks, Inc. Version 8.1.0.604 (R2013a). Operating System: Darwin 11.4.2 Darwin Kernel Version 11.4.2: Thu Aug 23 16:25:48 PDT 2012; root:xnu-1699.32.7~1/RELEASE_X86_64 x86_64.
%%Title: ./LA_TetR-volexc_no.eps
%%CreationDate: 07/08/2013  10:25:51
%%DocumentNeededFonts: Helvetica
%%DocumentProcessColors: Cyan Magenta Yellow Black
%%LanguageLevel: 2
%%Pages: 1
%%BoundingBox:    52   197   551   616
%%EndComments

%%BeginProlog
% MathWorks dictionary
/MathWorks 160 dict begin
% definition operators
/bdef {bind def} bind def
/ldef {load def} bind def
/xdef {exch def} bdef
/xstore {exch store} bdef
% operator abbreviations
/c  /clip ldef
/cc /concat ldef
/cp /closepath ldef
/gr /grestore ldef
/gs /gsave ldef
/mt /moveto ldef
/np /newpath ldef
/cm /currentmatrix ldef
/sm /setmatrix ldef
/rm /rmoveto ldef
/rl /rlineto ldef
/s {show newpath} bdef
/sc {setcmykcolor} bdef
/sr /setrgbcolor ldef
/sg /setgray ldef
/w /setlinewidth ldef
/j /setlinejoin ldef
/cap /setlinecap ldef
/rc {rectclip} bdef
/rf {rectfill} bdef
% page state control
/pgsv () def
/bpage {/pgsv save def} bdef
/epage {pgsv restore} bdef
/bplot /gsave ldef
/eplot {stroke grestore} bdef
% orientation switch
/portraitMode 0 def /landscapeMode 1 def /rotateMode 2 def
% coordinate system mappings
/dpi2point 0 def
% font control
/FontSize 0 def
/FMS {/FontSize xstore findfont [FontSize 0 0 FontSize neg 0 0]
  makefont setfont} bdef
/reencode {exch dup where {pop load} {pop StandardEncoding} ifelse
  exch dup 3 1 roll findfont dup length dict begin
  { 1 index /FID ne {def}{pop pop} ifelse } forall
  /Encoding exch def currentdict end definefont pop} bdef
/isroman {findfont /CharStrings get /Agrave known} bdef
/FMSR {3 1 roll 1 index dup isroman {reencode} {pop pop} ifelse
  exch FMS} bdef
/csm {1 dpi2point div -1 dpi2point div scale neg translate
 dup landscapeMode eq {pop -90 rotate}
  {rotateMode eq {90 rotate} if} ifelse} bdef
% line types: solid, dotted, dashed, dotdash
/SO { [] 0 setdash } bdef
/DO { [.5 dpi2point mul 4 dpi2point mul] 0 setdash } bdef
/DA { [6 dpi2point mul] 0 setdash } bdef
/DD { [.5 dpi2point mul 4 dpi2point mul 6 dpi2point mul 4
  dpi2point mul] 0 setdash } bdef
% macros for lines and objects
/L {lineto stroke} bdef
/MP {3 1 roll moveto 1 sub {rlineto} repeat} bdef
/AP {{rlineto} repeat} bdef
/PDlw -1 def
/W {/PDlw currentlinewidth def setlinewidth} def
/PP {closepath eofill} bdef
/DP {closepath stroke} bdef
/MR {4 -2 roll moveto dup  0 exch rlineto exch 0 rlineto
  neg 0 exch rlineto closepath} bdef
/FR {MR stroke} bdef
/PR {MR fill} bdef
/L1i {{currentfile picstr readhexstring pop} image} bdef
/tMatrix matrix def
/MakeOval {newpath tMatrix currentmatrix pop translate scale
0 0 1 0 360 arc tMatrix setmatrix} bdef
/FO {MakeOval stroke} bdef
/PO {MakeOval fill} bdef
/PD {currentlinewidth 2 div 0 360 arc fill
   PDlw -1 eq not {PDlw w /PDlw -1 def} if} def
/FA {newpath tMatrix currentmatrix pop translate scale
  0 0 1 5 -2 roll arc tMatrix setmatrix stroke} bdef
/PA {newpath tMatrix currentmatrix pop	translate 0 0 moveto scale
  0 0 1 5 -2 roll arc closepath tMatrix setmatrix fill} bdef
/FAn {newpath tMatrix currentmatrix pop translate scale
  0 0 1 5 -2 roll arcn tMatrix setmatrix stroke} bdef
/PAn {newpath tMatrix currentmatrix pop translate 0 0 moveto scale
  0 0 1 5 -2 roll arcn closepath tMatrix setmatrix fill} bdef
/vradius 0 def /hradius 0 def /lry 0 def
/lrx 0 def /uly 0 def /ulx 0 def /rad 0 def
/MRR {/vradius xdef /hradius xdef /lry xdef /lrx xdef /uly xdef
  /ulx xdef newpath tMatrix currentmatrix pop ulx hradius add uly
  vradius add translate hradius vradius scale 0 0 1 180 270 arc 
  tMatrix setmatrix lrx hradius sub uly vradius add translate
  hradius vradius scale 0 0 1 270 360 arc tMatrix setmatrix
  lrx hradius sub lry vradius sub translate hradius vradius scale
  0 0 1 0 90 arc tMatrix setmatrix ulx hradius add lry vradius sub
  translate hradius vradius scale 0 0 1 90 180 arc tMatrix setmatrix
  closepath} bdef
/FRR {MRR stroke } bdef
/PRR {MRR fill } bdef
/MlrRR {/lry xdef /lrx xdef /uly xdef /ulx xdef /rad lry uly sub 2 div def
  newpath tMatrix currentmatrix pop ulx rad add uly rad add translate
  rad rad scale 0 0 1 90 270 arc tMatrix setmatrix lrx rad sub lry rad
  sub translate rad rad scale 0 0 1 270 90 arc tMatrix setmatrix
  closepath} bdef
/FlrRR {MlrRR stroke } bdef
/PlrRR {MlrRR fill } bdef
/MtbRR {/lry xdef /lrx xdef /uly xdef /ulx xdef /rad lrx ulx sub 2 div def
  newpath tMatrix currentmatrix pop ulx rad add uly rad add translate
  rad rad scale 0 0 1 180 360 arc tMatrix setmatrix lrx rad sub lry rad
  sub translate rad rad scale 0 0 1 0 180 arc tMatrix setmatrix
  closepath} bdef
/FtbRR {MtbRR stroke } bdef
/PtbRR {MtbRR fill } bdef
/stri 6 array def /dtri 6 array def
/smat 6 array def /dmat 6 array def
/tmat1 6 array def /tmat2 6 array def /dif 3 array def
/asub {/ind2 exch def /ind1 exch def dup dup
  ind1 get exch ind2 get sub exch } bdef
/tri_to_matrix {
  2 0 asub 3 1 asub 4 0 asub 5 1 asub
  dup 0 get exch 1 get 7 -1 roll astore } bdef
/compute_transform {
  dmat dtri tri_to_matrix tmat1 invertmatrix 
  smat stri tri_to_matrix tmat2 concatmatrix } bdef
/ds {stri astore pop} bdef
/dt {dtri astore pop} bdef
/db {2 copy /cols xdef /rows xdef mul dup 3 mul string
  currentfile 
  3 index 0 eq {/ASCIIHexDecode filter}
  {/ASCII85Decode filter 3 index 2 eq {/RunLengthDecode filter} if }
  ifelse exch readstring pop
  dup 0 3 index getinterval /rbmap xdef
  dup 2 index dup getinterval /gbmap xdef
  1 index dup 2 mul exch getinterval /bbmap xdef pop pop}bdef
/it {gs np dtri aload pop moveto lineto lineto cp c
  cols rows 8 compute_transform 
  rbmap gbmap bbmap true 3 colorimage gr}bdef
/il {newpath moveto lineto stroke}bdef
currentdict end def
%%EndProlog

%%BeginSetup
MathWorks begin

0 cap

end
%%EndSetup

%%Page: 1 1
%%BeginPageSetup
%%PageBoundingBox:    52   197   551   616
MathWorks begin
bpage
%%EndPageSetup

%%BeginObject: obj1
bplot

/dpi2point 12 def
portraitMode 0216 7344 csm

  418   -48  5986  5026 rc
85 dict begin %Colortable dictionary
/c0 { 0.000000 0.000000 0.000000 sr} bdef
/c1 { 1.000000 1.000000 1.000000 sr} bdef
/c2 { 0.900000 0.000000 0.000000 sr} bdef
/c3 { 0.000000 0.820000 0.000000 sr} bdef
/c4 { 0.000000 0.000000 0.800000 sr} bdef
/c5 { 0.910000 0.820000 0.320000 sr} bdef
/c6 { 1.000000 0.260000 0.820000 sr} bdef
/c7 { 0.000000 0.820000 0.820000 sr} bdef
c0
1 j
1 sg
   0    0 6913 5186 rf
6 w
0 4146 5356 0 0 -4146 899 4615 4 MP
PP
-5356 0 0 4146 5356 0 0 -4146 899 4615 5 MP stroke
4 w
DO
SO
6 w
0 sg
 899 4615 mt 6255 4615 L
 899  469 mt 6255  469 L
 899 4615 mt  899  469 L
6255 4615 mt 6255  469 L
 899 4615 mt 6255 4615 L
 899 4615 mt  899  469 L
 899 4615 mt  899 4561 L
 899  469 mt  899  522 L
%%IncludeResource: font Helvetica
/Helvetica /ISOLatin1Encoding 120 FMSR

 866 4760 mt 
(0) s
1434 4615 mt 1434 4561 L
1434  469 mt 1434  522 L
1368 4760 mt 
(10) s
1970 4615 mt 1970 4561 L
1970  469 mt 1970  522 L
1904 4760 mt 
(20) s
2505 4615 mt 2505 4561 L
2505  469 mt 2505  522 L
2439 4760 mt 
(30) s
3041 4615 mt 3041 4561 L
3041  469 mt 3041  522 L
2975 4760 mt 
(40) s
3577 4615 mt 3577 4561 L
3577  469 mt 3577  522 L
3511 4760 mt 
(50) s
4112 4615 mt 4112 4561 L
4112  469 mt 4112  522 L
4046 4760 mt 
(60) s
4648 4615 mt 4648 4561 L
4648  469 mt 4648  522 L
4582 4760 mt 
(70) s
5183 4615 mt 5183 4561 L
5183  469 mt 5183  522 L
5117 4760 mt 
(80) s
5719 4615 mt 5719 4561 L
5719  469 mt 5719  522 L
5653 4760 mt 
(90) s
6255 4615 mt 6255 4561 L
6255  469 mt 6255  522 L
6155 4760 mt 
(100) s
 899 4615 mt  952 4615 L
6255 4615 mt 6201 4615 L
 798 4659 mt 
(0) s
 899 4200 mt  952 4200 L
6255 4200 mt 6201 4200 L
 731 4244 mt 
(10) s
 899 3785 mt  952 3785 L
6255 3785 mt 6201 3785 L
 731 3829 mt 
(20) s
 899 3371 mt  952 3371 L
6255 3371 mt 6201 3371 L
 731 3415 mt 
(30) s
 899 2956 mt  952 2956 L
6255 2956 mt 6201 2956 L
 731 3000 mt 
(40) s
 899 2542 mt  952 2542 L
6255 2542 mt 6201 2542 L
 731 2586 mt 
(50) s
 899 2127 mt  952 2127 L
6255 2127 mt 6201 2127 L
 731 2171 mt 
(60) s
 899 1712 mt  952 1712 L
6255 1712 mt 6201 1712 L
 731 1756 mt 
(70) s
 899 1298 mt  952 1298 L
6255 1298 mt 6201 1298 L
 731 1342 mt 
(80) s
 899  883 mt  952  883 L
6255  883 mt 6201  883 L
 731  927 mt 
(90) s
 899  469 mt  952  469 L
6255  469 mt 6201  469 L
 664  513 mt 
(100) s
 899 4615 mt 6255 4615 L
 899  469 mt 6255  469 L
 899 4615 mt  899  469 L
6255 4615 mt 6255  469 L
gs 899 469 5357 4147 rc
899 469 PD
84 0 899 469 2 MP stroke
84 0 899 469 2 MP stroke
0 751 1000 2975 2 MP stroke
169 0 916 2975 2 MP stroke
169 0 916 3726 2 MP stroke
0 497 1096 3644 2 MP stroke
169 0 1011 3644 2 MP stroke
169 0 1011 4141 2 MP stroke
0 344 1193 3947 2 MP stroke
169 0 1109 3947 2 MP stroke
169 0 1109 4291 2 MP stroke
0 276 1292 4109 2 MP stroke
169 0 1208 4109 2 MP stroke
169 0 1208 4385 2 MP stroke
0 244 1388 4193 2 MP stroke
169 0 1304 4193 2 MP stroke
169 0 1304 4437 2 MP stroke
0 244 1488 4234 2 MP stroke
169 0 1404 4234 2 MP stroke
169 0 1404 4478 2 MP stroke
0 187 1586 4307 2 MP stroke
169 0 1501 4307 2 MP stroke
169 0 1501 4494 2 MP stroke
0 156 1684 4350 2 MP stroke
169 0 1599 4350 2 MP stroke
169 0 1599 4506 2 MP stroke
0 157 1782 4374 2 MP stroke
169 0 1698 4374 2 MP stroke
169 0 1698 4531 2 MP stroke
0 168 1881 4359 2 MP stroke
170 0 1796 4359 2 MP stroke
170 0 1796 4527 2 MP stroke
0 123 1980 4409 2 MP stroke
169 0 1895 4409 2 MP stroke
169 0 1895 4532 2 MP stroke
0 120 2078 4438 2 MP stroke
169 0 1993 4438 2 MP stroke
169 0 1993 4558 2 MP stroke
0 121 2174 4441 2 MP stroke
169 0 2090 4441 2 MP stroke
169 0 2090 4562 2 MP stroke
0 141 2274 4435 2 MP stroke
169 0 2189 4435 2 MP stroke
169 0 2189 4576 2 MP stroke
0 135 2373 4440 2 MP stroke
169 0 2289 4440 2 MP stroke
169 0 2289 4575 2 MP stroke
0 81 2470 4493 2 MP stroke
169 0 2386 4493 2 MP stroke
169 0 2386 4574 2 MP stroke
0 111 2568 4474 2 MP stroke
169 0 2483 4474 2 MP stroke
169 0 2483 4585 2 MP stroke
0 96 2668 4478 2 MP stroke
169 0 2583 4478 2 MP stroke
169 0 2583 4574 2 MP stroke
0 112 2763 4476 2 MP stroke
169 0 2679 4476 2 MP stroke
169 0 2679 4588 2 MP stroke
0 90 2862 4496 2 MP stroke
169 0 2778 4496 2 MP stroke
169 0 2778 4586 2 MP stroke
0 74 2963 4515 2 MP stroke
169 0 2879 4515 2 MP stroke
169 0 2879 4589 2 MP stroke
0 82 3060 4508 2 MP stroke
169 0 2975 4508 2 MP stroke
169 0 2975 4590 2 MP stroke
0 88 3158 4513 2 MP stroke
169 0 3073 4513 2 MP stroke
169 0 3073 4601 2 MP stroke
0 78 3258 4525 2 MP stroke
169 0 3173 4525 2 MP stroke
169 0 3173 4603 2 MP stroke
0 79 3353 4515 2 MP stroke
169 0 3269 4515 2 MP stroke
169 0 3269 4594 2 MP stroke
0 86 3453 4521 2 MP stroke
169 0 3368 4521 2 MP stroke
169 0 3368 4607 2 MP stroke
0 69 3551 4541 2 MP stroke
169 0 3467 4541 2 MP stroke
169 0 3467 4610 2 MP stroke
0 62 3649 4543 2 MP stroke
169 0 3564 4543 2 MP stroke
169 0 3564 4605 2 MP stroke
0 79 3748 4533 2 MP stroke
170 0 3663 4533 2 MP stroke
170 0 3663 4612 2 MP stroke
0 71 3844 4543 2 MP stroke
169 0 3760 4543 2 MP stroke
169 0 3760 4614 2 MP stroke
0 69 3943 4543 2 MP stroke
169 0 3858 4543 2 MP stroke
169 0 3858 4612 2 MP stroke
0 55 4042 4552 2 MP stroke
169 0 3958 4552 2 MP stroke
169 0 3958 4607 2 MP stroke
0 62 4140 4554 2 MP stroke
169 0 4055 4554 2 MP stroke
0 61 4238 4555 2 MP stroke
169 0 4154 4555 2 MP stroke
0 61 4337 4555 2 MP stroke
169 0 4253 4555 2 MP stroke
0 49 4434 4567 2 MP stroke
169 0 4350 4567 2 MP stroke
0 55 4533 4561 2 MP stroke
169 0 4449 4561 2 MP stroke
0 48 4632 4568 2 MP stroke
169 0 4547 4568 2 MP stroke
0 50 4730 4566 2 MP stroke
169 0 4646 4566 2 MP stroke
0 57 4827 4559 2 MP stroke
169 0 4742 4559 2 MP stroke
0 48 4926 4568 2 MP stroke
169 0 4842 4568 2 MP stroke
0 50 5025 4566 2 MP stroke
169 0 4941 4566 2 MP stroke
0 43 5121 4573 2 MP stroke
170 0 5036 4573 2 MP stroke
0 37 5221 4579 2 MP stroke
169 0 5137 4579 2 MP stroke
0 45 5319 4571 2 MP stroke
169 0 5234 4571 2 MP stroke
0 47 5417 4569 2 MP stroke
170 0 5332 4569 2 MP stroke
0 48 5516 4568 2 MP stroke
169 0 5431 4568 2 MP stroke
0 40 5613 4576 2 MP stroke
169 0 5528 4576 2 MP stroke
0 33 5712 4583 2 MP stroke
169 0 5628 4583 2 MP stroke
0 37 5816 4579 2 MP stroke
169 0 5731 4579 2 MP stroke
0 37 5920 4579 2 MP stroke
169 0 5836 4579 2 MP stroke
0 35 6034 4581 2 MP stroke
169 0 5950 4581 2 MP stroke
0 37 6167 4579 2 MP stroke
169 0 6083 4579 2 MP stroke
3 0 6253 4573 2 MP stroke
89 -4 133 -3 114 4 104 -1 104 -4 99 10 97 -3 99 -1 
98 2 98 1 100 -3 96 6 99 -1 99 3 97 2 98 0 
99 1 99 -4 97 8 99 -1 98 2 98 7 99 2 99 0 
96 5 99 -1 98 -1 98 11 100 9 95 -9 100 7 98 8 
97 -3 101 11 99 9 95 6 100 -4 98 -4 97 26 99 3 
100 4 96 3 98 28 99 27 99 -10 98 25 98 27 98 45 
100 41 96 68 99 128 97 227 96 542 101 2881 899 469 55 MP stroke
gr

 874  444 mt  924  494 L
 924  444 mt  874  494 L
 975 3325 mt 1025 3375 L
1025 3325 mt  975 3375 L
1071 3867 mt 1121 3917 L
1121 3867 mt 1071 3917 L
1168 4094 mt 1218 4144 L
1218 4094 mt 1168 4144 L
1267 4222 mt 1317 4272 L
1317 4222 mt 1267 4272 L
1363 4290 mt 1413 4340 L
1413 4290 mt 1363 4340 L
1463 4331 mt 1513 4381 L
1513 4331 mt 1463 4381 L
1561 4376 mt 1611 4426 L
1611 4376 mt 1561 4426 L
1659 4403 mt 1709 4453 L
1709 4403 mt 1659 4453 L
1757 4428 mt 1807 4478 L
1807 4428 mt 1757 4478 L
1856 4418 mt 1906 4468 L
1906 4418 mt 1856 4468 L
1955 4445 mt 2005 4495 L
2005 4445 mt 1955 4495 L
2053 4473 mt 2103 4523 L
2103 4473 mt 2053 4523 L
2149 4476 mt 2199 4526 L
2199 4476 mt 2149 4526 L
2249 4480 mt 2299 4530 L
2299 4480 mt 2249 4530 L
2348 4483 mt 2398 4533 L
2398 4483 mt 2348 4533 L
2445 4509 mt 2495 4559 L
2495 4509 mt 2445 4559 L
2543 4505 mt 2593 4555 L
2593 4505 mt 2543 4555 L
2643 4501 mt 2693 4551 L
2693 4501 mt 2643 4551 L
2738 4507 mt 2788 4557 L
2788 4507 mt 2738 4557 L
2837 4516 mt 2887 4566 L
2887 4516 mt 2837 4566 L
2938 4527 mt 2988 4577 L
2988 4527 mt 2938 4577 L
3035 4524 mt 3085 4574 L
3085 4524 mt 3035 4574 L
3133 4532 mt 3183 4582 L
3183 4532 mt 3133 4582 L
3233 4539 mt 3283 4589 L
3283 4539 mt 3233 4589 L
3328 4530 mt 3378 4580 L
3378 4530 mt 3328 4580 L
3428 4539 mt 3478 4589 L
3478 4539 mt 3428 4589 L
3526 4550 mt 3576 4600 L
3576 4550 mt 3526 4600 L
3624 4549 mt 3674 4599 L
3674 4549 mt 3624 4599 L
3723 4548 mt 3773 4598 L
3773 4548 mt 3723 4598 L
3819 4553 mt 3869 4603 L
3869 4553 mt 3819 4603 L
3918 4553 mt 3968 4603 L
3968 4553 mt 3918 4603 L
4017 4555 mt 4067 4605 L
4067 4555 mt 4017 4605 L
4115 4562 mt 4165 4612 L
4165 4562 mt 4115 4612 L
4213 4564 mt 4263 4614 L
4263 4564 mt 4213 4614 L
4312 4563 mt 4362 4613 L
4362 4563 mt 4312 4613 L
4409 4571 mt 4459 4621 L
4459 4571 mt 4409 4621 L
4508 4567 mt 4558 4617 L
4558 4567 mt 4508 4617 L
4607 4568 mt 4657 4618 L
4657 4568 mt 4607 4618 L
4705 4568 mt 4755 4618 L
4755 4568 mt 4705 4618 L
4802 4570 mt 4852 4620 L
4852 4570 mt 4802 4620 L
4901 4573 mt 4951 4623 L
4951 4573 mt 4901 4623 L
5000 4572 mt 5050 4622 L
5050 4572 mt 5000 4622 L
5096 4578 mt 5146 4628 L
5146 4578 mt 5096 4628 L
5196 4575 mt 5246 4625 L
5246 4575 mt 5196 4625 L
5294 4576 mt 5344 4626 L
5344 4576 mt 5294 4626 L
5392 4578 mt 5442 4628 L
5442 4578 mt 5392 4628 L
5491 4577 mt 5541 4627 L
5541 4577 mt 5491 4627 L
5588 4574 mt 5638 4624 L
5638 4574 mt 5588 4624 L
5687 4584 mt 5737 4634 L
5737 4584 mt 5687 4634 L
5791 4580 mt 5841 4630 L
5841 4580 mt 5791 4630 L
5895 4579 mt 5945 4629 L
5945 4579 mt 5895 4629 L
6009 4583 mt 6059 4633 L
6059 4583 mt 6009 4633 L
6142 4580 mt 6192 4630 L
6192 4580 mt 6142 4630 L
gs 899 469 5357 4147 rc
899 469 PD
84 0 899 469 2 MP stroke
84 0 899 469 2 MP stroke
0 187 1000 469 2 MP stroke
169 0 916 656 2 MP stroke
0 251 1096 469 2 MP stroke
169 0 1011 720 2 MP stroke
0 482 1193 469 2 MP stroke
169 0 1109 951 2 MP stroke
0 478 1292 469 2 MP stroke
169 0 1208 947 2 MP stroke
0 511 1388 503 2 MP stroke
169 0 1304 503 2 MP stroke
169 0 1304 1014 2 MP stroke
0 609 1488 545 2 MP stroke
169 0 1404 545 2 MP stroke
169 0 1404 1154 2 MP stroke
0 712 1586 616 2 MP stroke
169 0 1501 616 2 MP stroke
169 0 1501 1328 2 MP stroke
0 718 1684 697 2 MP stroke
169 0 1599 697 2 MP stroke
169 0 1599 1415 2 MP stroke
0 699 1782 707 2 MP stroke
169 0 1698 707 2 MP stroke
169 0 1698 1406 2 MP stroke
0 806 1881 778 2 MP stroke
170 0 1796 778 2 MP stroke
170 0 1796 1584 2 MP stroke
0 793 1980 833 2 MP stroke
169 0 1895 833 2 MP stroke
169 0 1895 1626 2 MP stroke
0 943 2078 812 2 MP stroke
169 0 1993 812 2 MP stroke
169 0 1993 1755 2 MP stroke
0 946 2174 900 2 MP stroke
169 0 2090 900 2 MP stroke
169 0 2090 1846 2 MP stroke
0 932 2274 946 2 MP stroke
169 0 2189 946 2 MP stroke
169 0 2189 1878 2 MP stroke
0 777 2373 1000 2 MP stroke
169 0 2289 1000 2 MP stroke
169 0 2289 1777 2 MP stroke
0 992 2470 1048 2 MP stroke
169 0 2386 1048 2 MP stroke
169 0 2386 2040 2 MP stroke
0 927 2568 1085 2 MP stroke
169 0 2483 1085 2 MP stroke
169 0 2483 2012 2 MP stroke
0 1102 2668 1066 2 MP stroke
169 0 2583 1066 2 MP stroke
169 0 2583 2168 2 MP stroke
0 960 2763 1112 2 MP stroke
169 0 2679 1112 2 MP stroke
169 0 2679 2072 2 MP stroke
0 1020 2862 1272 2 MP stroke
169 0 2778 1272 2 MP stroke
169 0 2778 2292 2 MP stroke
0 1079 2963 1269 2 MP stroke
169 0 2879 1269 2 MP stroke
169 0 2879 2348 2 MP stroke
0 887 3060 1323 2 MP stroke
169 0 2975 1323 2 MP stroke
169 0 2975 2210 2 MP stroke
0 1076 3158 1307 2 MP stroke
169 0 3073 1307 2 MP stroke
169 0 3073 2383 2 MP stroke
0 959 3258 1404 2 MP stroke
169 0 3173 1404 2 MP stroke
169 0 3173 2363 2 MP stroke
0 1067 3353 1422 2 MP stroke
169 0 3269 1422 2 MP stroke
169 0 3269 2489 2 MP stroke
0 814 3453 1513 2 MP stroke
169 0 3368 1513 2 MP stroke
169 0 3368 2327 2 MP stroke
0 1055 3551 1471 2 MP stroke
169 0 3467 1471 2 MP stroke
169 0 3467 2526 2 MP stroke
0 1203 3649 1433 2 MP stroke
169 0 3564 1433 2 MP stroke
169 0 3564 2636 2 MP stroke
0 1157 3748 1526 2 MP stroke
170 0 3663 1526 2 MP stroke
170 0 3663 2683 2 MP stroke
0 1034 3844 1529 2 MP stroke
169 0 3760 1529 2 MP stroke
169 0 3760 2563 2 MP stroke
0 1112 3943 1656 2 MP stroke
169 0 3858 1656 2 MP stroke
169 0 3858 2768 2 MP stroke
0 1038 4042 1662 2 MP stroke
169 0 3958 1662 2 MP stroke
169 0 3958 2700 2 MP stroke
0 1114 4140 1701 2 MP stroke
169 0 4055 1701 2 MP stroke
169 0 4055 2815 2 MP stroke
0 1096 4238 1779 2 MP stroke
169 0 4154 1779 2 MP stroke
169 0 4154 2875 2 MP stroke
0 1024 4337 1795 2 MP stroke
169 0 4253 1795 2 MP stroke
169 0 4253 2819 2 MP stroke
0 1119 4434 1760 2 MP stroke
169 0 4350 1760 2 MP stroke
169 0 4350 2879 2 MP stroke
0 760 4533 1935 2 MP stroke
169 0 4449 1935 2 MP stroke
169 0 4449 2695 2 MP stroke
0 1116 4632 1826 2 MP stroke
169 0 4547 1826 2 MP stroke
169 0 4547 2942 2 MP stroke
0 1083 4730 1888 2 MP stroke
169 0 4646 1888 2 MP stroke
169 0 4646 2971 2 MP stroke
0 1032 4827 1953 2 MP stroke
169 0 4742 1953 2 MP stroke
169 0 4742 2985 2 MP stroke
0 1131 4926 1993 2 MP stroke
169 0 4842 1993 2 MP stroke
169 0 4842 3124 2 MP stroke
0 991 5025 2009 2 MP stroke
169 0 4941 2009 2 MP stroke
169 0 4941 3000 2 MP stroke
0 1063 5121 2085 2 MP stroke
170 0 5036 2085 2 MP stroke
170 0 5036 3148 2 MP stroke
0 1075 5221 2097 2 MP stroke
169 0 5137 2097 2 MP stroke
169 0 5137 3172 2 MP stroke
0 952 5319 2136 2 MP stroke
169 0 5234 2136 2 MP stroke
169 0 5234 3088 2 MP stroke
0 878 5417 2221 2 MP stroke
170 0 5332 2221 2 MP stroke
170 0 5332 3099 2 MP stroke
0 1035 5516 2211 2 MP stroke
169 0 5431 2211 2 MP stroke
169 0 5431 3246 2 MP stroke
0 964 5613 2242 2 MP stroke
169 0 5528 2242 2 MP stroke
169 0 5528 3206 2 MP stroke
0 1048 5712 2220 2 MP stroke
169 0 5628 2220 2 MP stroke
169 0 5628 3268 2 MP stroke
0 992 5816 2273 2 MP stroke
169 0 5731 2273 2 MP stroke
169 0 5731 3265 2 MP stroke
0 1010 5920 2346 2 MP stroke
169 0 5836 2346 2 MP stroke
169 0 5836 3356 2 MP stroke
0 1034 6034 2310 2 MP stroke
169 0 5950 2310 2 MP stroke
169 0 5950 3344 2 MP stroke
0 1054 6167 2483 2 MP stroke
169 0 6083 2483 2 MP stroke
169 0 6083 3537 2 MP stroke
3 0 6253 2529 2 MP stroke
3 0 6253 3602 2 MP stroke
89 29 133 183 114 -24 104 82 104 25 99 20 97 -4 99 68 
98 48 98 -23 100 19 96 111 99 -53 99 89 97 40 98 45 
99 69 99 -5 97 13 99 -20 98 69 98 77 99 -31 99 166 
96 -58 99 70 98 36 98 78 100 -35 95 72 100 38 98 79 
97 -42 101 26 99 190 95 -25 100 68 98 5 97 156 99 -24 
100 39 96 90 98 54 99 48 99 125 98 0 98 84 98 122 
100 91 96 55 99 -1 97 168 96 34 101 34 899 469 55 MP stroke
gr

 874  444 mt  924  494 L
 924  444 mt  874  494 L
 975  478 mt 1025  528 L
1025  478 mt  975  528 L
1071  512 mt 1121  562 L
1121  512 mt 1071  562 L
1168  680 mt 1218  730 L
1218  680 mt 1168  730 L
1267  679 mt 1317  729 L
1317  679 mt 1267  729 L
1363  734 mt 1413  784 L
1413  734 mt 1363  784 L
1463  825 mt 1513  875 L
1513  825 mt 1463  875 L
1561  947 mt 1611  997 L
1611  947 mt 1561  997 L
1659 1031 mt 1709 1081 L
1709 1031 mt 1659 1081 L
1757 1031 mt 1807 1081 L
1807 1031 mt 1757 1081 L
1856 1156 mt 1906 1206 L
1906 1156 mt 1856 1206 L
1955 1204 mt 2005 1254 L
2005 1204 mt 1955 1254 L
2053 1258 mt 2103 1308 L
2103 1258 mt 2053 1308 L
2149 1348 mt 2199 1398 L
2199 1348 mt 2149 1398 L
2249 1387 mt 2299 1437 L
2299 1387 mt 2249 1437 L
2348 1363 mt 2398 1413 L
2398 1363 mt 2348 1413 L
2445 1519 mt 2495 1569 L
2495 1519 mt 2445 1569 L
2543 1524 mt 2593 1574 L
2593 1524 mt 2543 1574 L
2643 1592 mt 2693 1642 L
2693 1592 mt 2643 1642 L
2738 1567 mt 2788 1617 L
2788 1567 mt 2738 1617 L
2837 1757 mt 2887 1807 L
2887 1757 mt 2837 1807 L
2938 1783 mt 2988 1833 L
2988 1783 mt 2938 1833 L
3035 1741 mt 3085 1791 L
3085 1741 mt 3035 1791 L
3133 1820 mt 3183 1870 L
3183 1820 mt 3133 1870 L
3233 1858 mt 3283 1908 L
3283 1858 mt 3233 1908 L
3328 1930 mt 3378 1980 L
3378 1930 mt 3328 1980 L
3428 1895 mt 3478 1945 L
3478 1895 mt 3428 1945 L
3526 1973 mt 3576 2023 L
3576 1973 mt 3526 2023 L
3624 2009 mt 3674 2059 L
3674 2009 mt 3624 2059 L
3723 2079 mt 3773 2129 L
3773 2079 mt 3723 2129 L
3819 2021 mt 3869 2071 L
3869 2021 mt 3819 2071 L
3918 2187 mt 3968 2237 L
3968 2187 mt 3918 2237 L
4017 2156 mt 4067 2206 L
4067 2156 mt 4017 2206 L
4115 2233 mt 4165 2283 L
4165 2233 mt 4115 2283 L
4213 2302 mt 4263 2352 L
4263 2302 mt 4213 2352 L
4312 2282 mt 4362 2332 L
4362 2282 mt 4312 2332 L
4409 2295 mt 4459 2345 L
4459 2295 mt 4409 2345 L
4508 2290 mt 4558 2340 L
4558 2290 mt 4508 2340 L
4607 2359 mt 4657 2409 L
4657 2359 mt 4607 2409 L
4705 2404 mt 4755 2454 L
4755 2404 mt 4705 2454 L
4802 2444 mt 4852 2494 L
4852 2444 mt 4802 2494 L
4901 2533 mt 4951 2583 L
4951 2533 mt 4901 2583 L
5000 2480 mt 5050 2530 L
5050 2480 mt 5000 2530 L
5096 2591 mt 5146 2641 L
5146 2591 mt 5096 2641 L
5196 2610 mt 5246 2660 L
5246 2610 mt 5196 2660 L
5294 2587 mt 5344 2637 L
5344 2587 mt 5294 2637 L
5392 2635 mt 5442 2685 L
5442 2635 mt 5392 2685 L
5491 2703 mt 5541 2753 L
5541 2703 mt 5491 2753 L
5588 2699 mt 5638 2749 L
5638 2699 mt 5588 2749 L
5687 2719 mt 5737 2769 L
5737 2719 mt 5687 2769 L
5791 2744 mt 5841 2794 L
5841 2744 mt 5791 2794 L
5895 2826 mt 5945 2876 L
5945 2826 mt 5895 2876 L
6009 2802 mt 6059 2852 L
6059 2802 mt 6009 2852 L
6142 2985 mt 6192 3035 L
6192 2985 mt 6142 3035 L
gs 899 469 5357 4147 rc
/c8 { 1.000000 0.000000 0.000000 sr} bdef
c8
899 469 PD
53 0 899 469 2 MP stroke
53 0 899 469 2 MP stroke
0 696 1006 2554 2 MP stroke
107 0 952 2554 2 MP stroke
107 0 952 3250 2 MP stroke
0 582 1113 3556 2 MP stroke
107 0 1059 3556 2 MP stroke
107 0 1059 4138 2 MP stroke
0 394 1220 4037 2 MP stroke
107 0 1166 4037 2 MP stroke
107 0 1166 4431 2 MP stroke
0 244 1327 4278 2 MP stroke
108 0 1273 4278 2 MP stroke
108 0 1273 4522 2 MP stroke
0 153 1434 4396 2 MP stroke
107 0 1381 4396 2 MP stroke
107 0 1381 4549 2 MP stroke
0 99 1541 4458 2 MP stroke
107 0 1488 4458 2 MP stroke
107 0 1488 4557 2 MP stroke
0 65 1648 4491 2 MP stroke
107 0 1595 4491 2 MP stroke
107 0 1595 4556 2 MP stroke
0 49 1755 4509 2 MP stroke
107 0 1702 4509 2 MP stroke
107 0 1702 4558 2 MP stroke
0 39 1863 4519 2 MP stroke
107 0 1809 4519 2 MP stroke
107 0 1809 4558 2 MP stroke
0 32 1970 4526 2 MP stroke
107 0 1916 4526 2 MP stroke
107 0 1916 4558 2 MP stroke
0 29 2077 4530 2 MP stroke
107 0 2023 4530 2 MP stroke
107 0 2023 4559 2 MP stroke
0 28 2184 4532 2 MP stroke
108 0 2130 4532 2 MP stroke
108 0 2130 4560 2 MP stroke
0 29 2291 4532 2 MP stroke
107 0 2238 4532 2 MP stroke
107 0 2238 4561 2 MP stroke
0 30 2398 4536 2 MP stroke
107 0 2345 4536 2 MP stroke
107 0 2345 4566 2 MP stroke
0 26 2505 4539 2 MP stroke
107 0 2452 4539 2 MP stroke
107 0 2452 4565 2 MP stroke
0 26 2612 4540 2 MP stroke
107 0 2559 4540 2 MP stroke
107 0 2559 4566 2 MP stroke
0 25 2720 4541 2 MP stroke
107 0 2666 4541 2 MP stroke
107 0 2666 4566 2 MP stroke
0 27 2827 4540 2 MP stroke
107 0 2773 4540 2 MP stroke
107 0 2773 4567 2 MP stroke
0 24 2934 4542 2 MP stroke
107 0 2880 4542 2 MP stroke
107 0 2880 4566 2 MP stroke
0 23 3041 4545 2 MP stroke
107 0 2987 4545 2 MP stroke
107 0 2987 4568 2 MP stroke
0 23 3148 4546 2 MP stroke
108 0 3094 4546 2 MP stroke
108 0 3094 4569 2 MP stroke
0 23 3255 4548 2 MP stroke
107 0 3202 4548 2 MP stroke
107 0 3202 4571 2 MP stroke
0 22 3362 4550 2 MP stroke
107 0 3309 4550 2 MP stroke
107 0 3309 4572 2 MP stroke
0 22 3469 4550 2 MP stroke
107 0 3416 4550 2 MP stroke
107 0 3416 4572 2 MP stroke
0 23 3577 4551 2 MP stroke
107 0 3523 4551 2 MP stroke
107 0 3523 4574 2 MP stroke
0 22 3684 4552 2 MP stroke
107 0 3630 4552 2 MP stroke
107 0 3630 4574 2 MP stroke
0 23 3791 4552 2 MP stroke
107 0 3737 4552 2 MP stroke
107 0 3737 4575 2 MP stroke
0 22 3898 4553 2 MP stroke
107 0 3844 4553 2 MP stroke
107 0 3844 4575 2 MP stroke
0 22 4005 4554 2 MP stroke
108 0 3951 4554 2 MP stroke
108 0 3951 4576 2 MP stroke
0 21 4112 4556 2 MP stroke
107 0 4059 4556 2 MP stroke
107 0 4059 4577 2 MP stroke
0 20 4219 4558 2 MP stroke
107 0 4166 4558 2 MP stroke
107 0 4166 4578 2 MP stroke
0 22 4326 4557 2 MP stroke
107 0 4273 4557 2 MP stroke
107 0 4273 4579 2 MP stroke
0 23 4433 4557 2 MP stroke
107 0 4380 4557 2 MP stroke
107 0 4380 4580 2 MP stroke
0 22 4541 4558 2 MP stroke
107 0 4487 4558 2 MP stroke
107 0 4487 4580 2 MP stroke
0 22 4648 4560 2 MP stroke
107 0 4594 4560 2 MP stroke
107 0 4594 4582 2 MP stroke
0 23 4755 4561 2 MP stroke
107 0 4701 4561 2 MP stroke
107 0 4701 4584 2 MP stroke
0 22 4862 4562 2 MP stroke
108 0 4808 4562 2 MP stroke
108 0 4808 4584 2 MP stroke
0 23 4969 4561 2 MP stroke
107 0 4916 4561 2 MP stroke
107 0 4916 4584 2 MP stroke
0 24 5076 4561 2 MP stroke
107 0 5023 4561 2 MP stroke
107 0 5023 4585 2 MP stroke
0 22 5183 4562 2 MP stroke
107 0 5130 4562 2 MP stroke
107 0 5130 4584 2 MP stroke
0 23 5290 4563 2 MP stroke
107 0 5237 4563 2 MP stroke
107 0 5237 4586 2 MP stroke
0 24 5398 4563 2 MP stroke
107 0 5344 4563 2 MP stroke
107 0 5344 4587 2 MP stroke
0 24 5505 4564 2 MP stroke
107 0 5451 4564 2 MP stroke
107 0 5451 4588 2 MP stroke
0 22 5612 4566 2 MP stroke
107 0 5558 4566 2 MP stroke
107 0 5558 4588 2 MP stroke
0 22 5719 4566 2 MP stroke
107 0 5665 4566 2 MP stroke
107 0 5665 4588 2 MP stroke
0 24 5826 4566 2 MP stroke
108 0 5772 4566 2 MP stroke
108 0 5772 4590 2 MP stroke
0 23 5933 4568 2 MP stroke
107 0 5880 4568 2 MP stroke
107 0 5880 4591 2 MP stroke
0 24 6040 4567 2 MP stroke
107 0 5987 4567 2 MP stroke
107 0 5987 4591 2 MP stroke
0 21 6147 4570 2 MP stroke
107 0 6094 4570 2 MP stroke
107 0 6094 4591 2 MP stroke
0 22 6255 4569 2 MP stroke
55 0 6201 4569 2 MP stroke
55 0 6201 4591 2 MP stroke
108 0 107 1 107 0 107 1 107 1 107 0 107 1 107 1 
108 0 107 2 107 0 107 0 107 0 107 0 107 2 107 2 
108 1 107 0 107 0 107 2 107 1 107 1 107 0 107 1 
107 0 108 2 107 0 107 2 107 2 107 0 107 3 107 0 
107 1 108 0 107 1 107 1 107 5 107 0 107 2 107 2 
107 4 108 5 107 10 107 15 107 36 107 72 107 166 107 387 
107 945 107 2433 899 469 51 MP stroke
gr

c8
  36   36  899  469 FO
  36   36 1006 2902 FO
  36   36 1113 3847 FO
  36   36 1220 4234 FO
  36   36 1327 4400 FO
  36   36 1434 4472 FO
  36   36 1541 4508 FO
  36   36 1648 4523 FO
  36   36 1755 4533 FO
  36   36 1863 4538 FO
  36   36 1970 4542 FO
  36   36 2077 4544 FO
  36   36 2184 4546 FO
  36   36 2291 4546 FO
  36   36 2398 4551 FO
  36   36 2505 4552 FO
  36   36 2612 4553 FO
  36   36 2720 4553 FO
  36   36 2827 4554 FO
  36   36 2934 4554 FO
  36   36 3041 4557 FO
  36   36 3148 4557 FO
  36   36 3255 4559 FO
  36   36 3362 4561 FO
  36   36 3469 4561 FO
  36   36 3577 4563 FO
  36   36 3684 4563 FO
  36   36 3791 4564 FO
  36   36 3898 4564 FO
  36   36 4005 4565 FO
  36   36 4112 4566 FO
  36   36 4219 4568 FO
  36   36 4326 4568 FO
  36   36 4433 4568 FO
  36   36 4541 4569 FO
  36   36 4648 4571 FO
  36   36 4755 4573 FO
  36   36 4862 4573 FO
  36   36 4969 4573 FO
  36   36 5076 4573 FO
  36   36 5183 4573 FO
  36   36 5290 4575 FO
  36   36 5398 4575 FO
  36   36 5505 4576 FO
  36   36 5612 4577 FO
  36   36 5719 4577 FO
  36   36 5826 4578 FO
  36   36 5933 4579 FO
  36   36 6040 4579 FO
  36   36 6147 4580 FO
  36   36 6255 4580 FO
gs 899 469 5357 4147 rc
/c9 { 0.000000 0.500000 0.000000 sr} bdef
c9
899 469 PD
53 0 899 469 2 MP stroke
53 0 899 469 2 MP stroke
0 41 1006 469 2 MP stroke
107 0 952 510 2 MP stroke
0 96 1113 492 2 MP stroke
107 0 1059 492 2 MP stroke
107 0 1059 588 2 MP stroke
0 156 1220 528 2 MP stroke
107 0 1166 528 2 MP stroke
107 0 1166 684 2 MP stroke
0 221 1327 566 2 MP stroke
108 0 1273 566 2 MP stroke
108 0 1273 787 2 MP stroke
0 284 1434 607 2 MP stroke
107 0 1381 607 2 MP stroke
107 0 1381 891 2 MP stroke
0 343 1541 645 2 MP stroke
107 0 1488 645 2 MP stroke
107 0 1488 988 2 MP stroke
0 400 1648 688 2 MP stroke
107 0 1595 688 2 MP stroke
107 0 1595 1088 2 MP stroke
0 460 1755 726 2 MP stroke
107 0 1702 726 2 MP stroke
107 0 1702 1186 2 MP stroke
0 510 1863 767 2 MP stroke
107 0 1809 767 2 MP stroke
107 0 1809 1277 2 MP stroke
0 557 1970 808 2 MP stroke
107 0 1916 808 2 MP stroke
107 0 1916 1365 2 MP stroke
0 598 2077 850 2 MP stroke
107 0 2023 850 2 MP stroke
107 0 2023 1448 2 MP stroke
0 638 2184 891 2 MP stroke
108 0 2130 891 2 MP stroke
108 0 2130 1529 2 MP stroke
0 680 2291 931 2 MP stroke
107 0 2238 931 2 MP stroke
107 0 2238 1611 2 MP stroke
0 717 2398 970 2 MP stroke
107 0 2345 970 2 MP stroke
107 0 2345 1687 2 MP stroke
0 753 2505 1009 2 MP stroke
107 0 2452 1009 2 MP stroke
107 0 2452 1762 2 MP stroke
0 787 2612 1047 2 MP stroke
107 0 2559 1047 2 MP stroke
107 0 2559 1834 2 MP stroke
0 818 2720 1088 2 MP stroke
107 0 2666 1088 2 MP stroke
107 0 2666 1906 2 MP stroke
0 853 2827 1126 2 MP stroke
107 0 2773 1126 2 MP stroke
107 0 2773 1979 2 MP stroke
0 880 2934 1167 2 MP stroke
107 0 2880 1167 2 MP stroke
107 0 2880 2047 2 MP stroke
0 909 3041 1204 2 MP stroke
107 0 2987 1204 2 MP stroke
107 0 2987 2113 2 MP stroke
0 933 3148 1243 2 MP stroke
108 0 3094 1243 2 MP stroke
108 0 3094 2176 2 MP stroke
0 957 3255 1280 2 MP stroke
107 0 3202 1280 2 MP stroke
107 0 3202 2237 2 MP stroke
0 978 3362 1318 2 MP stroke
107 0 3309 1318 2 MP stroke
107 0 3309 2296 2 MP stroke
0 996 3469 1357 2 MP stroke
107 0 3416 1357 2 MP stroke
107 0 3416 2353 2 MP stroke
0 1014 3577 1394 2 MP stroke
107 0 3523 1394 2 MP stroke
107 0 3523 2408 2 MP stroke
0 1033 3684 1431 2 MP stroke
107 0 3630 1431 2 MP stroke
107 0 3630 2464 2 MP stroke
0 1048 3791 1468 2 MP stroke
107 0 3737 1468 2 MP stroke
107 0 3737 2516 2 MP stroke
0 1064 3898 1506 2 MP stroke
107 0 3844 1506 2 MP stroke
107 0 3844 2570 2 MP stroke
0 1078 4005 1542 2 MP stroke
108 0 3951 1542 2 MP stroke
108 0 3951 2620 2 MP stroke
0 1093 4112 1576 2 MP stroke
107 0 4059 1576 2 MP stroke
107 0 4059 2669 2 MP stroke
0 1105 4219 1611 2 MP stroke
107 0 4166 1611 2 MP stroke
107 0 4166 2716 2 MP stroke
0 1118 4326 1646 2 MP stroke
107 0 4273 1646 2 MP stroke
107 0 4273 2764 2 MP stroke
0 1127 4433 1682 2 MP stroke
107 0 4380 1682 2 MP stroke
107 0 4380 2809 2 MP stroke
0 1134 4541 1717 2 MP stroke
107 0 4487 1717 2 MP stroke
107 0 4487 2851 2 MP stroke
0 1145 4648 1750 2 MP stroke
107 0 4594 1750 2 MP stroke
107 0 4594 2895 2 MP stroke
0 1154 4755 1781 2 MP stroke
107 0 4701 1781 2 MP stroke
107 0 4701 2935 2 MP stroke
0 1161 4862 1814 2 MP stroke
108 0 4808 1814 2 MP stroke
108 0 4808 2975 2 MP stroke
0 1168 4969 1847 2 MP stroke
107 0 4916 1847 2 MP stroke
107 0 4916 3015 2 MP stroke
0 1174 5076 1879 2 MP stroke
107 0 5023 1879 2 MP stroke
107 0 5023 3053 2 MP stroke
0 1179 5183 1912 2 MP stroke
107 0 5130 1912 2 MP stroke
107 0 5130 3091 2 MP stroke
0 1185 5290 1942 2 MP stroke
107 0 5237 1942 2 MP stroke
107 0 5237 3127 2 MP stroke
0 1187 5398 1975 2 MP stroke
107 0 5344 1975 2 MP stroke
107 0 5344 3162 2 MP stroke
0 1188 5505 2007 2 MP stroke
107 0 5451 2007 2 MP stroke
107 0 5451 3195 2 MP stroke
0 1194 5612 2035 2 MP stroke
107 0 5558 2035 2 MP stroke
107 0 5558 3229 2 MP stroke
0 1197 5719 2066 2 MP stroke
107 0 5665 2066 2 MP stroke
107 0 5665 3263 2 MP stroke
0 1198 5826 2096 2 MP stroke
108 0 5772 2096 2 MP stroke
108 0 5772 3294 2 MP stroke
0 1199 5933 2126 2 MP stroke
107 0 5880 2126 2 MP stroke
107 0 5880 3325 2 MP stroke
0 1200 6040 2156 2 MP stroke
107 0 5987 2156 2 MP stroke
107 0 5987 3356 2 MP stroke
0 1203 6147 2182 2 MP stroke
107 0 6094 2182 2 MP stroke
107 0 6094 3385 2 MP stroke
0 1205 6255 2211 2 MP stroke
55 0 6201 2211 2 MP stroke
55 0 6201 3416 2 MP stroke
108 29 107 28 107 30 107 31 107 31 107 32 107 31 107 33 
108 33 107 33 107 36 107 35 107 37 107 36 107 36 107 38 
108 39 107 40 107 41 107 41 107 42 107 43 107 46 107 44 
107 47 108 46 107 48 107 48 107 50 107 50 107 52 107 54 
107 56 108 56 107 56 107 57 107 57 107 61 107 61 107 63 
107 64 108 66 107 68 107 71 107 68 107 72 107 71 107 66 
107 53 107 18 899 469 51 MP stroke
gr

c9
  36   36  899  469 FO
  36   36 1006  487 FO
  36   36 1113  540 FO
  36   36 1220  606 FO
  36   36 1327  677 FO
  36   36 1434  749 FO
  36   36 1541  817 FO
  36   36 1648  888 FO
  36   36 1755  956 FO
  36   36 1863 1022 FO
  36   36 1970 1086 FO
  36   36 2077 1149 FO
  36   36 2184 1210 FO
  36   36 2291 1271 FO
  36   36 2398 1328 FO
  36   36 2505 1385 FO
  36   36 2612 1441 FO
  36   36 2720 1497 FO
  36   36 2827 1553 FO
  36   36 2934 1607 FO
  36   36 3041 1659 FO
  36   36 3148 1709 FO
  36   36 3255 1759 FO
  36   36 3362 1807 FO
  36   36 3469 1855 FO
  36   36 3577 1901 FO
  36   36 3684 1948 FO
  36   36 3791 1992 FO
  36   36 3898 2038 FO
  36   36 4005 2081 FO
  36   36 4112 2123 FO
  36   36 4219 2164 FO
  36   36 4326 2205 FO
  36   36 4433 2245 FO
  36   36 4541 2284 FO
  36   36 4648 2322 FO
  36   36 4755 2358 FO
  36   36 4862 2394 FO
  36   36 4969 2431 FO
  36   36 5076 2466 FO
  36   36 5183 2502 FO
  36   36 5290 2535 FO
  36   36 5398 2568 FO
  36   36 5505 2601 FO
  36   36 5612 2632 FO
  36   36 5719 2664 FO
  36   36 5826 2695 FO
  36   36 5933 2726 FO
  36   36 6040 2756 FO
  36   36 6147 2784 FO
  36   36 6255 2813 FO
gs 899 469 5357 4147 rc
gr

0 sg
%%IncludeResource: font Helvetica
/Helvetica /ISOLatin1Encoding 168 FMSR

2500  156 mt 
(TetR-GFP in Late Anaphase) s
%%IncludeResource: font Helvetica
/Helvetica /ISOLatin1Encoding 144 FMSR

2549  293 mt 
(n) s
%%IncludeResource: font Helvetica
/Helvetica /ISOLatin1Encoding 108 FMSR

2629  377 mt 
(cells) s
%%IncludeResource: font Helvetica
/Helvetica /ISOLatin1Encoding 144 FMSR

2845  293 mt 
( = 34    -    Permeability = 1) s
3314 4921 mt 
(Time \(s\)) s
 577 3058 mt  -90 rotate
(% Fluorescence) s
90 rotate
%%IncludeResource: font Helvetica
/Helvetica /ISOLatin1Encoding 120 FMSR

 882 4658 mt 
( ) s
6239  511 mt 
( ) s
5656  664 mt 
(mother) s
gs 5217 529 980 335 rc
c8
338 0 5284 621 2 MP stroke
gs 5380 548 147 147 rc
  36   36 5453  621 FO
gr

gr

c8
0 sg
5656  813 mt 
(daughter) s
gs 5217 529 980 335 rc
c9
338 0 5284 770 2 MP stroke
gs 5380 697 147 147 rc
  36   36 5453  770 FO
gr

gr

c9

end %%Color Dict

eplot
%%EndObject

epage
end

showpage

%%Trailer
%%EOF
