%!PS-Adobe-3.0 EPSF-3.0
%%Creator: MATLAB, The MathWorks, Inc. Version 8.1.0.604 (R2013a). Operating System: Darwin 13.1.0 Darwin Kernel Version 13.1.0: Wed Apr  2 23:52:02 PDT 2014; root:xnu-2422.92.1~2/RELEASE_X86_64 x86_64.
%%Title: ./transmission.eps
%%CreationDate: 04/24/2014  16:21:36
%%DocumentNeededFonts: Helvetica
%%DocumentProcessColors: Cyan Magenta Yellow Black
%%LanguageLevel: 2
%%Pages: 1
%%BoundingBox:    31   189   578   581
%%EndComments

%%BeginProlog
% MathWorks dictionary
/MathWorks 160 dict begin
% definition operators
/bdef {bind def} bind def
/ldef {load def} bind def
/xdef {exch def} bdef
/xstore {exch store} bdef
% operator abbreviations
/c  /clip ldef
/cc /concat ldef
/cp /closepath ldef
/gr /grestore ldef
/gs /gsave ldef
/mt /moveto ldef
/np /newpath ldef
/cm /currentmatrix ldef
/sm /setmatrix ldef
/rm /rmoveto ldef
/rl /rlineto ldef
/s {show newpath} bdef
/sc {setcmykcolor} bdef
/sr /setrgbcolor ldef
/sg /setgray ldef
/w /setlinewidth ldef
/j /setlinejoin ldef
/cap /setlinecap ldef
/rc {rectclip} bdef
/rf {rectfill} bdef
% page state control
/pgsv () def
/bpage {/pgsv save def} bdef
/epage {pgsv restore} bdef
/bplot /gsave ldef
/eplot {stroke grestore} bdef
% orientation switch
/portraitMode 0 def /landscapeMode 1 def /rotateMode 2 def
% coordinate system mappings
/dpi2point 0 def
% font control
/FontSize 0 def
/FMS {/FontSize xstore findfont [FontSize 0 0 FontSize neg 0 0]
  makefont setfont} bdef
/reencode {exch dup where {pop load} {pop StandardEncoding} ifelse
  exch dup 3 1 roll findfont dup length dict begin
  { 1 index /FID ne {def}{pop pop} ifelse } forall
  /Encoding exch def currentdict end definefont pop} bdef
/isroman {findfont /CharStrings get /Agrave known} bdef
/FMSR {3 1 roll 1 index dup isroman {reencode} {pop pop} ifelse
  exch FMS} bdef
/csm {1 dpi2point div -1 dpi2point div scale neg translate
 dup landscapeMode eq {pop -90 rotate}
  {rotateMode eq {90 rotate} if} ifelse} bdef
% line types: solid, dotted, dashed, dotdash
/SO { [] 0 setdash } bdef
/DO { [.5 dpi2point mul 4 dpi2point mul] 0 setdash } bdef
/DA { [6 dpi2point mul] 0 setdash } bdef
/DD { [.5 dpi2point mul 4 dpi2point mul 6 dpi2point mul 4
  dpi2point mul] 0 setdash } bdef
% macros for lines and objects
/L {lineto stroke} bdef
/MP {3 1 roll moveto 1 sub {rlineto} repeat} bdef
/AP {{rlineto} repeat} bdef
/PDlw -1 def
/W {/PDlw currentlinewidth def setlinewidth} def
/PP {closepath eofill} bdef
/DP {closepath stroke} bdef
/MR {4 -2 roll moveto dup  0 exch rlineto exch 0 rlineto
  neg 0 exch rlineto closepath} bdef
/FR {MR stroke} bdef
/PR {MR fill} bdef
/L1i {{currentfile picstr readhexstring pop} image} bdef
/tMatrix matrix def
/MakeOval {newpath tMatrix currentmatrix pop translate scale
0 0 1 0 360 arc tMatrix setmatrix} bdef
/FO {MakeOval stroke} bdef
/PO {MakeOval fill} bdef
/PD {currentlinewidth 2 div 0 360 arc fill
   PDlw -1 eq not {PDlw w /PDlw -1 def} if} def
/FA {newpath tMatrix currentmatrix pop translate scale
  0 0 1 5 -2 roll arc tMatrix setmatrix stroke} bdef
/PA {newpath tMatrix currentmatrix pop	translate 0 0 moveto scale
  0 0 1 5 -2 roll arc closepath tMatrix setmatrix fill} bdef
/FAn {newpath tMatrix currentmatrix pop translate scale
  0 0 1 5 -2 roll arcn tMatrix setmatrix stroke} bdef
/PAn {newpath tMatrix currentmatrix pop translate 0 0 moveto scale
  0 0 1 5 -2 roll arcn closepath tMatrix setmatrix fill} bdef
/vradius 0 def /hradius 0 def /lry 0 def
/lrx 0 def /uly 0 def /ulx 0 def /rad 0 def
/MRR {/vradius xdef /hradius xdef /lry xdef /lrx xdef /uly xdef
  /ulx xdef newpath tMatrix currentmatrix pop ulx hradius add uly
  vradius add translate hradius vradius scale 0 0 1 180 270 arc 
  tMatrix setmatrix lrx hradius sub uly vradius add translate
  hradius vradius scale 0 0 1 270 360 arc tMatrix setmatrix
  lrx hradius sub lry vradius sub translate hradius vradius scale
  0 0 1 0 90 arc tMatrix setmatrix ulx hradius add lry vradius sub
  translate hradius vradius scale 0 0 1 90 180 arc tMatrix setmatrix
  closepath} bdef
/FRR {MRR stroke } bdef
/PRR {MRR fill } bdef
/MlrRR {/lry xdef /lrx xdef /uly xdef /ulx xdef /rad lry uly sub 2 div def
  newpath tMatrix currentmatrix pop ulx rad add uly rad add translate
  rad rad scale 0 0 1 90 270 arc tMatrix setmatrix lrx rad sub lry rad
  sub translate rad rad scale 0 0 1 270 90 arc tMatrix setmatrix
  closepath} bdef
/FlrRR {MlrRR stroke } bdef
/PlrRR {MlrRR fill } bdef
/MtbRR {/lry xdef /lrx xdef /uly xdef /ulx xdef /rad lrx ulx sub 2 div def
  newpath tMatrix currentmatrix pop ulx rad add uly rad add translate
  rad rad scale 0 0 1 180 360 arc tMatrix setmatrix lrx rad sub lry rad
  sub translate rad rad scale 0 0 1 0 180 arc tMatrix setmatrix
  closepath} bdef
/FtbRR {MtbRR stroke } bdef
/PtbRR {MtbRR fill } bdef
/stri 6 array def /dtri 6 array def
/smat 6 array def /dmat 6 array def
/tmat1 6 array def /tmat2 6 array def /dif 3 array def
/asub {/ind2 exch def /ind1 exch def dup dup
  ind1 get exch ind2 get sub exch } bdef
/tri_to_matrix {
  2 0 asub 3 1 asub 4 0 asub 5 1 asub
  dup 0 get exch 1 get 7 -1 roll astore } bdef
/compute_transform {
  dmat dtri tri_to_matrix tmat1 invertmatrix 
  smat stri tri_to_matrix tmat2 concatmatrix } bdef
/ds {stri astore pop} bdef
/dt {dtri astore pop} bdef
/db {2 copy /cols xdef /rows xdef mul dup 3 mul string
  currentfile 
  3 index 0 eq {/ASCIIHexDecode filter}
  {/ASCII85Decode filter 3 index 2 eq {/RunLengthDecode filter} if }
  ifelse exch readstring pop
  dup 0 3 index getinterval /rbmap xdef
  dup 2 index dup getinterval /gbmap xdef
  1 index dup 2 mul exch getinterval /bbmap xdef pop pop}bdef
/it {gs np dtri aload pop moveto lineto lineto cp c
  cols rows 8 compute_transform 
  rbmap gbmap bbmap true 3 colorimage gr}bdef
/il {newpath moveto lineto stroke}bdef
currentdict end def
%%EndProlog

%%BeginSetup
MathWorks begin

0 cap

end
%%EndSetup

%%Page: 1 1
%%BeginPageSetup
%%PageBoundingBox:    31   189   578   581
MathWorks begin
bpage
%%EndPageSetup

%%BeginObject: obj1
bplot

/dpi2point 12 def
portraitMode 0216 7344 csm

  164   366  6559  4700 rc
85 dict begin %Colortable dictionary
/c0 { 0.000000 0.000000 0.000000 sr} bdef
/c1 { 1.000000 1.000000 1.000000 sr} bdef
/c2 { 0.900000 0.000000 0.000000 sr} bdef
/c3 { 0.000000 0.820000 0.000000 sr} bdef
/c4 { 0.000000 0.000000 0.800000 sr} bdef
/c5 { 0.910000 0.820000 0.320000 sr} bdef
/c6 { 1.000000 0.260000 0.820000 sr} bdef
/c7 { 0.000000 0.820000 0.820000 sr} bdef
c0
1 j
1 sg
   0    0 6913 5186 rf
6 w
0 3750 5356 0 0 -3750 899 4615 4 MP
PP
-5356 0 0 3750 5356 0 0 -3750 899 4615 5 MP stroke
4 w
DO
SO
6 w
0 sg
 899 4615 mt 6255 4615 L
 899  865 mt 6255  865 L
 899 4615 mt  899  865 L
6255 4615 mt 6255  865 L
 899 4615 mt 6255 4615 L
 899 4615 mt  899  865 L
1568 4615 mt 1568 4561 L
1568  865 mt 1568  919 L
%%IncludeResource: font Helvetica
/Helvetica /ISOLatin1Encoding 360 FMSR

1518 4984 mt 
( ) s
2907 4615 mt 2907 4561 L
2907  865 mt 2907  919 L
2857 4984 mt 
( ) s
4246 4615 mt 4246 4561 L
4246  865 mt 4246  919 L
4196 4984 mt 
( ) s
5585 4615 mt 5585 4561 L
5585  865 mt 5585  919 L
5535 4984 mt 
( ) s
 899 4615 mt  952 4615 L
6255 4615 mt 6201 4615 L
 664 4749 mt 
(0) s
 899 3718 mt  952 3718 L
6255 3718 mt 6201 3718 L
 164 3852 mt 
(0.05) s
 899 2822 mt  952 2822 L
6255 2822 mt 6201 2822 L
 364 2956 mt 
(0.1) s
 899 1925 mt  952 1925 L
6255 1925 mt 6201 1925 L
 164 2059 mt 
(0.15) s
 899 1029 mt  952 1029 L
6255 1029 mt 6201 1029 L
 364 1163 mt 
(0.2) s
 899 4615 mt 6255 4615 L
 899  865 mt 6255  865 L
 899 4615 mt  899  865 L
6255 4615 mt 6255  865 L
gs 899 866 5357 3750 rc
/c8 { 0.000000 0.500000 0.400000 sr} bdef
c8
0 922 195 0 0 -922 1105 4615 4 MP
PP
0 sg
-195 0 0 922 195 0 0 -922 1105 4615 5 MP stroke
c8
0 685 195 0 0 -685 2444 4615 4 MP
PP
0 sg
-195 0 0 685 195 0 0 -685 2444 4615 5 MP stroke
c8
0 453 195 0 0 -453 3783 4615 4 MP
PP
0 sg
-195 0 0 453 195 0 0 -453 3783 4615 5 MP stroke
c8
0 356 195 0 0 -356 5122 4615 4 MP
PP
0 sg
-195 0 0 356 195 0 0 -356 5122 4615 5 MP stroke
5356 0 899 4615 2 MP stroke
/c9 { 0.333333 0.666667 0.400000 sr} bdef
c9
0 1830 195 0 0 -1830 1349 4615 4 MP
PP
0 sg
-195 0 0 1830 195 0 0 -1830 1349 4615 5 MP stroke
c9
0 2500 195 0 0 -2500 2688 4615 4 MP
PP
0 sg
-195 0 0 2500 195 0 0 -2500 2688 4615 5 MP stroke
c9
0 2340 195 0 0 -2340 4027 4615 4 MP
PP
0 sg
-195 0 0 2340 195 0 0 -2340 4027 4615 5 MP stroke
c9
0 1497 195 0 0 -1497 5366 4615 4 MP
PP
0 sg
-195 0 0 1497 195 0 0 -1497 5366 4615 5 MP stroke
/c10 { 0.666667 0.833333 0.400000 sr} bdef
c10
0 173 195 0 0 -173 1592 4615 4 MP
PP
0 sg
-195 0 0 173 195 0 0 -173 1592 4615 5 MP stroke
c10
0 56 195 0 0 -56 2931 4615 4 MP
PP
0 sg
-195 0 0 56 195 0 0 -56 2931 4615 5 MP stroke
c10
0 245 195 0 0 -245 4270 4615 4 MP
PP
0 sg
-195 0 0 245 195 0 0 -245 4270 4615 5 MP stroke
c10
0 187 195 0 0 -187 5609 4615 4 MP
PP
0 sg
-195 0 0 187 195 0 0 -187 5609 4615 5 MP stroke
/c11 { 1.000000 1.000000 0.400000 sr} bdef
c11
0 145 195 0 0 -145 1836 4615 4 MP
PP
0 sg
-195 0 0 145 195 0 0 -145 1836 4615 5 MP stroke
c11
0 86 195 0 0 -86 3175 4615 4 MP
PP
0 sg
-195 0 0 86 195 0 0 -86 3175 4615 5 MP stroke
c11
0 237 195 0 0 -237 4514 4615 4 MP
PP
0 sg
-195 0 0 237 195 0 0 -237 4514 4615 5 MP stroke
c11
0 183 195 0 0 -183 5853 4615 4 MP
PP
0 sg
-195 0 0 183 195 0 0 -183 5853 4615 5 MP stroke
0 656 1203 3365 2 MP stroke
80 0 1163 3365 2 MP stroke
80 0 1163 4021 2 MP stroke
0 843 2542 3508 2 MP stroke
80 0 2502 3508 2 MP stroke
80 0 2502 4351 2 MP stroke
0 248 3881 4038 2 MP stroke
80 0 3841 4038 2 MP stroke
80 0 3841 4286 2 MP stroke
0 272 5220 4123 2 MP stroke
80 0 5180 4123 2 MP stroke
80 0 5180 4395 2 MP stroke
0 1040 1446 2265 2 MP stroke
80 0 1406 2265 2 MP stroke
80 0 1406 3305 2 MP stroke
0 2104 2785 1063 2 MP stroke
80 0 2745 1063 2 MP stroke
80 0 2745 3167 2 MP stroke
0 1189 4124 1681 2 MP stroke
80 0 4084 1681 2 MP stroke
80 0 4084 2870 2 MP stroke
0 1132 5463 2552 2 MP stroke
80 0 5423 2552 2 MP stroke
80 0 5423 3684 2 MP stroke
0 506 1690 4110 2 MP stroke
80 0 1650 4110 2 MP stroke
0 356 3029 4260 2 MP stroke
80 0 2989 4260 2 MP stroke
0 263 4368 4238 2 MP stroke
80 0 4328 4238 2 MP stroke
80 0 4328 4501 2 MP stroke
0 172 5707 4342 2 MP stroke
80 0 5667 4342 2 MP stroke
80 0 5667 4514 2 MP stroke
0 391 1933 4225 2 MP stroke
80 0 1893 4225 2 MP stroke
0 486 3272 4130 2 MP stroke
80 0 3232 4130 2 MP stroke
0 250 4611 4253 2 MP stroke
80 0 4571 4253 2 MP stroke
80 0 4571 4503 2 MP stroke
0 223 5950 4320 2 MP stroke
80 0 5910 4320 2 MP stroke
80 0 5910 4543 2 MP stroke
gr

%%IncludeResource: font Helvetica
/Helvetica /ISOLatin1Encoding 120 FMSR

 882 4658 mt 
( ) s
6239  908 mt 
( ) s
%%IncludeResource: font Helvetica
/Helvetica /ISOLatin1Encoding 240 FMSR

 918  662 mt 
(Nsg1) s
gs 461 413 6233 334 rc
c8
-351 0 0 222 351 0 0 -222 531 687 5 MP
PP
0 sg
0 0 -351 0 0 222 351 0 0 -222 531 687 6 MP stroke
gr

1937  662 mt 
(Src1) s
gs 461 413 6233 334 rc
c9
-351 0 0 222 351 0 0 -222 1550 687 5 MP
PP
0 sg
0 0 -351 0 0 222 351 0 0 -222 1550 687 6 MP stroke
gr

2898  662 mt 
(NPC \(ONM\)) s
gs 461 413 6233 334 rc
c10
-351 0 0 222 351 0 0 -222 2511 687 5 MP
PP
0 sg
0 0 -351 0 0 222 351 0 0 -222 2511 687 6 MP stroke
gr

4644  662 mt 
(NPC \(ONM + INM\)) s
gs 461 413 6233 334 rc
c11
-351 0 0 222 351 0 0 -222 4256 687 5 MP
PP
0 sg
0 0 -351 0 0 222 351 0 0 -222 4256 687 6 MP stroke
gr


end %%Color Dict

eplot
%%EndObject

epage
end

showpage

%%Trailer
%%EOF
