0 1412 0 0
2 1402 0 7
4.00004 1398 0 12
6 1399 0 15
8 1408 0 6
10 1410 0 6
12 1409 0 6
14 1410 0 8
16 1409 0 7
18 1412 0 13
20 1410 0 7
22 1415 0 5
24 1419 0 7
26 1425 0 6
28 1415 0 13
30 1416 0 6
32 1421 0 5
34 1410 0 12
36 1408 0 8
38 1405 0 7
40 1403 0 8
42 1410 0 5
44 1397 0 10
46 1397 0 12
48 1399 0 10
50 1402 0 5
52 1236 178 0
54 1082 333 0
56 970 445 0
58 853 569 0
60 765 660 0
62 679 749 0
64 618 809 0
66 552 875 0
68 485 937 0
70 441 981 0
72 382 1035 0
74 334 1077 0
76 290 1118 0
78 266 1143 0
80 240 1172 0
82 212 1198 0
84 203 1211 0
86 190 1232 0
88 177 1241 0
90 172 1253 0
92 148 1273 0
94 138 1282 0
96 133 1283 0
98 122 1294 0
100 114 1305 0
102 104 1314 0
104 92 1322 0
106 81 1328 0
108 82 1328 0
110 76 1327 0
112 73 1339 0
114 64 1344 0
116 61 1345 0
118 59 1343 0
120 56 1340 0
122 53 1351 0
124 49 1351 0
126 50 1353 0
128 48 1353 0
130 48 1354 0
132 49 1353 0
134 51 1347 0
136 50 1344 0
138 45 1350 0
140 44 1357 0
142 41 1354 0
144 39 1356 0
146 36 1355 0
148 32 1358 0
150 32 1359 0
152 35 1361 0
154 36 1362 0
156 35 1366 0
158 36 1369 0
160 35 1374 0
162 33 1379 0
164 37 1376 0
166 39 1381 0
168 35 1385 0
170 32 1392 0
172 29 1390 0
174 27 1396 0
176 30 1393 0
178 31 1390 0
180 30 1394 0
182 29 1394 0
184 27 1402 0
186 28 1398 0
188 23 1403 0
190 22 1404 0
192 24 1398 0
194 28 1401 0
196 27 1396 0
198 26 1389 0
200 27 1382 0
