0 673 0 0
2 667 0 0
4.00004 666 0 0
6 658 0 0
8 658 0 0
10 661 0 0
12 655 0 0
14 664 0 0
16 666 0 0
18 666 0 0
20 652 0 0
22 647 0 0
24 640 0 0
26 642 0 0
28 641 0 0
30 637 0 0
32 633 0 0
34 634 0 0
36 620 0 0
38 613 0 0
40 610 0 0
42 599 0 0
44 609 0 0
46 615 0 0
48 615 0 0
50 603 0 0
52 604 0 0
54 601 3 0
56 594 3 0
58 583 5 0
60 582 8 0
62 578 11 0
64 570 17 0
66 561 28 0
68 550 34 0
70 544 37 0
72 534 41 0
74 528 49 0
76 520 53 0
78 517 59 0
80 506 66 0
82 504 70 0
84 495 77 0
86 483 80 0
88 483 89 0
90 482 98 0
92 472 100 0
94 468 115 0
96 458 117 0
98 445 126 0
100 443 138 0
102 432 145 0
104 423 151 0
106 420 156 0
108 412 160 0
110 402 165 0
112 389 173 0
114 384 178 0
116 374 181 0
118 368 185 0
120 362 189 0
122 354 194 0
124 344 199 0
126 338 201 0
128 334 206 0
130 330 207 0
132 327 213 0
134 319 218 0
136 311 221 0
138 305 225 0
140 299 229 0
142 294 237 0
144 285 243 0
146 278 246 0
148 271 253 0
150 267 264 0
152 261 270 0
154 259 274 0
156 252 283 0
158 250 286 0
160 244 290 0
162 237 294 0
164 235 301 0
166 230 307 0
168 225 316 0
170 221 319 0
172 216 324 0
174 213 328 0
176 209 332 0
178 207 340 0
180 205 341 0
182 203 342 0
184 201 351 0
186 198 357 0
188 193 353 0
190 191 359 0
192 185 363 0
194 182 366 0
196 179 370 0
198 179 375 0
200 176 374 0
