0 480 0 0
2 482 0 0
4.00004 481 0 0
6 486 0 0
8 481 0 0
10 486 0 0
12 482 0 0
14 483 0 0
16 478 0 0
18 476 0 0
20 477 0 0
22 473 0 0
24 474 0 0
26 477 0 0
28 476 0 0
30 469 0 0
32 468 0 0
34 473 0 0
36 474 0 0
38 470 0 0
40 464 0 0
42 466 0 0
44 469 0 0
46 471 0 0
48 480 0 0
50 479 0 0
52 486 1 0
54 482 1 0
56 482 1 0
58 476 2 0
60 473 2 0
62 465 7 0
64 464 10 0
66 464 13 0
68 469 15 0
70 467 18 0
72 461 21 0
74 462 23 0
76 455 28 0
78 451 34 0
80 448 34 0
82 448 40 0
84 444 50 0
86 442 56 0
88 436 59 0
90 427 68 0
92 426 71 0
94 421 75 0
96 417 83 0
98 413 88 0
100 410 98 0
102 403 101 0
104 396 107 0
106 390 113 0
108 388 119 0
110 384 123 0
112 380 131 0
114 376 134 0
116 370 143 0
118 365 145 0
120 363 147 0
122 362 149 0
124 358 156 0
126 356 155 0
128 349 152 0
130 340 152 0
132 333 157 0
134 331 161 0
136 325 170 0
138 319 175 0
140 311 179 0
142 309 189 0
144 300 192 0
146 298 201 0
148 293 203 0
150 291 211 0
152 288 209 0
154 286 219 0
156 285 222 0
158 281 222 0
160 275 224 0
162 271 229 0
164 266 229 0
166 263 231 0
168 259 231 0
170 258 229 0
172 251 229 0
174 247 229 0
176 247 233 0
178 244 237 0
180 242 243 0
182 237 246 0
184 233 244 0
186 231 246 0
188 228 249 0
190 222 254 0
192 217 262 0
194 215 264 0
196 207 271 0
198 202 275 0
200 202 282 0
