0 557 0 0
2 530 0 0
4.00004 518 0 0
6 489 0 0
8 474 0 0
10 461 0 0
12 435 0 0
14 420 0 0
16 421 0 0
18 423 0 0
20 415 0 0
22 399 0 0
24 393 0 0
26 387 0 0
28 393 0 0
30 386 0 0
32 400 0 0
34 402 0 0
36 401 0 0
38 400 0 0
40 383 0 0
42 386 0 0
44 372 0 0
46 367 0 0
48 380 0 0
50 382 0 0
52 390 4 0
54 374 8 0
56 365 13 0
58 343 20 0
60 328 31 0
62 324 41 0
64 307 48 0
66 290 65 0
68 264 85 0
70 253 92 0
72 246 101 0
74 239 118 0
76 227 128 0
78 218 137 0
80 205 153 0
82 201 159 0
84 189 182 0
86 177 205 0
88 160 209 0
90 149 220 0
92 136 216 0
94 123 217 0
96 117 223 0
98 111 231 0
100 100 238 0
102 99 251 0
104 89 254 0
106 82 265 0
108 71 273 0
110 68 291 0
112 66 289 0
114 62 287 0
116 60 286 0
118 57 295 0
120 51 309 0
122 48 305 0
124 47 301 0
126 47 307 0
128 45 318 0
130 42 318 0
132 42 323 0
134 37 334 0
136 34 333 0
138 31 343 0
140 30 340 0
142 26 345 0
144 23 344 0
146 21 343 0
148 21 342 0
150 21 347 0
152 20 348 0
154 16 341 0
156 15 343 0
158 15 336 0
160 16 350 0
162 16 336 0
164 16 344 0
166 15 365 0
168 13 371 0
170 12 372 0
172 10 378 0
174 11 369 0
176 9 367 0
178 8 363 0
180 8 366 0
182 8 360 0
184 7 364 0
186 6 370 0
188 5 372 0
190 5 371 0
192 6 374 0
194 5 367 0
196 5 367 0
198 5 351 0
200 5 369 0
