0 1233 0 0 0 0 992
2 1208 6 0 11 0 992
4.00004 1186 8 0 21 0 992
6 1180 6 0 13 0 992
8 1169 6 0 19 0 992
10 1157 6 0 19 0 992
12 1139 7 0 18 0 992
14 1132 8 0 23 0 992
16 1121 4 0 22 0 992
18 1125 4 0 16 0 992
20 1140 7 0 9 0 992
22 1121 3 0 17 0 992
24 1118 5 0 13 0 992
26 1118 10 0 12 0 992
28 1121 8 0 17 0 992
30 1104 9 0 16 0 992
32 1093 7 0 17 0 992
34 1084 7 0 12 0 992
36 1083 9 0 14 0 992
38 1073 11 0 17 0 992
40 1072 5 0 17 0 992
42 1071 6 0 18 0 992
44 1072 6 0 22 0 992
46 1068 5 0 14 0 992
48 1052 10 0 21 0 992
50 1058 7 0 26 0 992
52 926 1 124 13 2 992
54 828 0 220 18 1 992
56 749 0 301 18 3 992
58 690 0 365 18 1 992
60 638 0 439 12 0 992
62 569 0 503 9 8 992
64 528 0 550 8 4 992
66 477 0 597 14 4 992
68 434 1 621 12 9 992
70 420 0 663 10 3 992
72 373 2 692 12 11 992
74 360 0 730 9 5 992
76 339 0 743 11 10 992
78 313 0 772 9 4 992
80 303 2 786 14 5 992
82 303 0 798 3 9 992
84 274 0 819 5 4 992
86 263 0 831 9 6 992
88 250 0 836 5 9 992
90 242 0 856 1 11 992
92 218 0 875 5 12 992
94 202 0 894 3 9 992
96 194 0 898 2 7 992
98 183 0 904 4 13 992
100 175 0 920 3 14 992
102 177 0 916 5 18 992
104 177 0 911 2 24 992
106 174 0 926 4 11 992
108 161 0 932 7 8 992
110 159 0 931 7 11 992
112 148 0 940 3 10 992
114 142 1 932 0 11 992
116 128 0 927 3 12 992
118 126 0 931 2 16 992
120 118 0 946 4 9 992
122 111 0 942 5 24 992
124 105 1 959 2 10 992
126 108 0 954 2 11 992
128 105 0 943 5 12 992
130 111 0 941 4 13 992
132 104 0 953 3 13 992
134 103 0 948 4 17 992
136 106 0 954 2 10 992
138 101 0 945 2 18 992
140 99 0 943 1 10 992
142 89 0 957 0 10 992
144 84 0 960 4 12 992
146 86 0 956 4 9 992
148 93 0 942 5 13 992
150 87 0 946 2 9 992
152 82 0 943 2 12 992
154 77 0 940 3 13 992
156 71 0 945 2 20 992
158 64 0 947 3 15 992
160 64 0 957 6 18 992
162 67 0 959 3 16 992
164 59 0 955 2 11 992
166 55 0 965 1 18 992
168 55 0 964 2 9 992
170 56 0 959 1 11 992
172 60 0 958 1 12 992
174 60 0 960 3 17 992
176 63 0 958 1 23 992
178 58 0 955 3 14 992
180 53 0 965 2 16 992
182 50 0 959 2 18 992
184 46 0 958 1 15 992
186 49 0 965 0 19 992
188 43 0 965 3 17 992
190 49 0 969 2 20 992
192 46 0 969 2 21 992
194 40 0 970 5 17 992
196 41 0 986 0 7 992
198 44 0 978 1 17 992
200 47 0 993 1 11 992
