0 1555 0 0 0 0 992
2 1524 10 0 23 0 992
4.00004 1540 7 0 27 0 992
6 1548 12 0 23 0 992
8 1560 8 0 24 0 992
10 1577 9 0 22 0 992
12 1600 10 0 26 0 992
14 1620 3 0 19 0 992
16 1608 7 0 16 0 992
18 1600 11 0 25 0 992
20 1592 12 0 29 0 992
22 1606 9 0 21 0 992
24 1623 12 0 19 0 992
26 1612 9 0 17 0 992
28 1623 7 0 24 0 992
30 1618 13 0 21 0 992
32 1621 14 0 23 0 992
34 1607 17 0 32 0 992
36 1622 11 0 19 0 992
38 1613 11 0 28 0 992
40 1606 11 0 29 0 992
42 1609 11 0 14 0 992
44 1614 7 0 19 0 992
46 1604 16 0 15 0 992
48 1601 8 0 24 0 992
50 1594 14 0 18 0 992
52 1401 0 223 14 0 992
54 1258 0 363 17 4 992
56 1131 1 487 21 6 992
58 1034 1 592 14 4 992
60 952 0 666 18 6 992
62 888 1 731 14 20 992
64 801 1 822 18 5 992
66 720 0 892 19 10 992
68 671 0 949 14 8 992
70 594 0 1034 8 10 992
72 526 1 1099 11 9 992
74 464 0 1155 7 12 992
76 417 0 1195 10 16 992
78 398 0 1227 13 8 992
80 360 0 1280 4 13 992
82 326 0 1304 7 14 992
84 291 0 1353 6 13 992
86 271 0 1351 6 20 992
88 259 1 1385 5 16 992
90 238 0 1418 6 13 992
92 216 0 1439 5 21 992
94 194 0 1452 3 23 992
96 170 0 1478 4 20 992
98 158 0 1489 5 25 992
100 145 0 1503 3 14 992
102 138 0 1504 1 21 992
104 124 0 1514 1 14 992
106 114 0 1516 1 25 992
108 104 0 1514 2 22 992
110 96 0 1529 3 24 992
112 91 0 1508 1 37 992
114 81 0 1536 0 24 992
116 77 0 1542 2 24 992
118 71 0 1539 0 13 992
120 68 0 1552 1 16 992
122 62 0 1544 0 23 992
124 56 0 1557 3 13 992
126 54 0 1558 0 26 992
128 47 0 1560 1 19 992
130 48 0 1571 0 22 992
132 36 0 1588 1 27 992
134 34 0 1596 1 27 992
136 28 1 1609 1 16 992
138 23 0 1617 1 15 992
140 22 0 1619 1 17 992
142 19 0 1610 0 19 992
144 18 0 1613 0 20 992
146 16 0 1621 0 17 992
148 14 0 1624 2 14 992
150 14 0 1620 0 25 992
152 13 0 1604 0 22 992
154 11 0 1590 1 24 992
156 13 0 1590 1 20 992
158 10 0 1599 0 18 992
160 12 0 1589 1 21 992
162 10 0 1576 1 30 992
164 9 0 1585 0 19 992
166 10 0 1595 0 26 992
168 12 0 1594 0 16 992
170 10 0 1592 0 19 992
172 8 0 1596 0 24 992
174 8 0 1604 0 21 992
176 8 0 1603 0 24 992
178 7 0 1619 0 27 992
180 6 0 1605 0 24 992
182 7 0 1617 0 20 992
184 6 0 1633 0 11 992
186 6 0 1618 0 25 992
188 5 0 1629 0 20 992
190 5 0 1640 0 22 992
192 3 0 1628 0 27 992
194 2 0 1617 0 26 992
196 2 0 1614 0 20 992
198 2 0 1629 0 20 992
200 2 0 1624 0 19 992
