0 1271 0 0 0 0 996
2 1230 11 0 21 0 996
4.00004 1219 10 0 17 0 996
6 1202 8 0 18 0 996
8 1207 7 0 16 0 996
10 1186 6 0 16 0 996
12 1195 7 0 17 0 996
14 1183 10 0 18 0 996
16 1179 11 0 15 0 996
18 1167 7 0 22 0 996
20 1175 6 0 16 0 996
22 1160 7 0 18 0 996
24 1149 15 0 14 0 996
26 1147 4 0 20 0 996
28 1155 5 0 13 0 996
30 1150 4 0 12 0 996
32 1131 6 0 14 0 996
34 1117 12 0 18 0 996
36 1126 11 0 19 0 996
38 1137 3 0 14 0 996
40 1128 6 0 16 0 996
42 1125 9 0 17 0 996
44 1136 5 0 19 0 996
46 1137 4 0 13 0 996
48 1137 7 0 12 0 996
50 1114 11 0 13 0 996
52 952 0 186 10 2 996
54 868 0 282 10 3 996
56 778 0 380 7 0 996
58 700 0 464 13 2 996
60 634 2 530 10 7 996
62 575 0 584 16 8 996
64 526 1 626 7 3 996
66 473 1 677 8 4 996
68 433 0 708 6 9 996
70 402 0 749 10 4 996
72 354 0 789 8 11 996
74 321 0 825 11 7 996
76 316 0 837 5 4 996
78 290 0 856 6 7 996
80 276 0 868 8 7 996
82 256 0 874 4 9 996
84 234 0 899 3 11 996
86 218 1 911 3 15 996
88 199 0 931 10 10 996
90 202 0 945 4 11 996
92 184 0 949 3 6 996
94 169 0 959 4 14 996
96 167 0 965 6 19 996
98 164 0 986 5 13 996
100 156 0 982 5 12 996
102 155 0 978 2 10 996
104 147 0 971 4 13 996
106 150 0 973 1 8 996
108 143 0 971 3 13 996
110 137 0 984 6 8 996
112 129 0 996 3 11 996
114 122 0 1000 2 15 996
116 112 0 1015 4 10 996
118 107 0 1007 4 8 996
120 100 0 1014 3 15 996
122 102 0 1026 0 12 996
124 93 0 1031 3 12 996
126 91 0 1027 5 14 996
128 93 0 1027 0 8 996
130 88 0 1030 3 10 996
132 71 0 1045 1 13 996
134 77 0 1036 4 16 996
136 80 0 1038 2 18 996
138 78 0 1036 3 16 996
140 81 0 1044 4 18 996
142 80 1 1055 1 13 996
144 69 0 1059 3 9 996
146 70 0 1063 3 14 996
148 59 0 1069 0 13 996
150 61 0 1068 4 13 996
152 61 0 1054 2 19 996
154 62 0 1056 2 10 996
156 63 0 1046 1 23 996
158 63 0 1043 1 25 996
160 65 0 1053 1 15 996
162 66 0 1070 2 10 996
164 67 0 1075 1 11 996
166 58 0 1074 1 18 996
168 58 0 1073 0 14 996
170 54 0 1071 1 10 996
172 51 0 1068 1 20 996
174 46 0 1065 1 15 996
176 42 0 1077 0 18 996
178 39 0 1074 0 11 996
180 35 0 1065 0 9 996
182 29 0 1071 2 11 996
184 28 0 1065 0 12 996
186 26 0 1053 0 21 996
188 24 0 1053 2 5 996
190 25 0 1025 1 16 996
192 26 0 1025 1 21 996
194 29 0 1036 1 14 996
196 26 0 1050 0 21 996
198 25 0 1064 1 13 996
200 22 0 1075 1 11 996
