0 524 0 0 0 0 966
2 518 0 0 19 0 966
4.00004 510 0 0 21 0 966
6 519 0 0 18 0 966
8 516 0 0 17 0 966
10 520 0 0 23 0 966
12 508 0 0 21 0 966
14 509 0 0 16 0 966
16 511 0 0 22 0 966
18 520 0 0 19 0 966
20 521 0 0 20 0 966
22 538 0 0 18 0 966
24 550 0 0 23 0 966
26 549 0 0 22 0 966
28 550 0 0 24 0 966
30 544 0 0 21 0 966
32 539 0 0 19 0 966
34 546 0 0 24 0 966
36 548 0 0 20 0 966
38 523 0 0 32 0 966
40 535 0 0 17 0 966
42 529 0 0 20 0 966
44 532 0 0 16 0 966
46 533 0 0 15 0 966
48 536 0 0 22 0 966
50 527 0 0 22 0 966
52 529 0 1 16 0 966
54 514 0 8 23 1 966
56 503 0 8 21 3 966
58 509 0 20 21 0 966
60 490 0 27 12 3 966
62 473 0 42 12 4 966
64 458 0 52 17 1 966
66 438 0 68 22 4 966
68 427 0 81 11 5 966
70 414 0 104 15 6 966
72 401 0 126 14 6 966
74 397 0 142 12 7 966
76 387 0 149 20 12 966
78 386 0 175 9 5 966
80 368 0 191 11 7 966
82 347 0 210 17 5 966
84 335 0 211 9 15 966
86 324 0 219 11 15 966
88 311 0 237 11 9 966
90 304 0 241 12 7 966
92 286 0 247 13 10 966
94 276 0 253 5 15 966
96 270 0 253 3 10 966
98 255 0 258 6 13 966
100 237 0 267 9 12 966
102 230 0 280 7 14 966
104 227 0 285 6 14 966
106 216 0 293 12 11 966
108 211 0 308 7 15 966
110 206 0 328 1 15 966
112 193 0 337 7 8 966
114 184 0 349 4 13 966
116 175 0 356 7 13 966
118 163 0 360 7 20 966
120 157 0 366 4 18 966
122 153 0 372 2 13 966
124 143 0 375 4 20 966
126 135 0 392 4 17 966
128 129 0 402 8 24 966
130 127 0 409 3 13 966
132 126 0 411 4 19 966
134 120 0 413 5 21 966
136 116 0 410 3 17 966
138 106 0 420 5 23 966
140 100 0 429 4 13 966
142 97 0 424 1 17 966
144 93 0 431 0 20 966
146 88 0 427 4 19 966
148 90 0 435 1 14 966
150 83 0 441 5 20 966
152 77 0 448 5 14 966
154 78 0 444 1 25 966
156 78 0 444 0 13 966
158 77 0 448 4 15 966
160 75 0 445 1 20 966
162 69 0 464 0 15 966
164 65 0 464 2 19 966
166 63 0 462 1 24 966
168 57 0 463 3 21 966
170 54 0 464 1 16 966
172 50 0 457 1 17 966
174 46 0 452 1 23 966
176 44 0 460 1 18 966
178 46 0 474 1 16 966
180 46 0 468 0 9 966
182 42 0 460 2 26 966
184 40 0 474 2 14 966
186 38 0 475 2 18 966
188 41 0 480 1 13 966
190 38 0 488 0 20 966
192 34 0 489 3 18 966
194 32 0 499 1 20 966
196 29 0 518 3 8 966
198 31 0 518 0 16 966
200 28 0 523 0 13 966
