0 567 0 0 0 0
2 553 0 0 13 0
4.00004 558 0 0 9 0
6 566 0 0 7 0
8 563 0 0 6 0
10 561 0 0 14 0
12 566 0 0 13 0
14 578 0 0 9 0
16 580 0 0 10 0
18 581 0 0 9 0
20 583 0 0 11 0
22 583 0 0 15 0
24 593 0 0 12 0
26 596 0 0 5 0
28 583 0 0 14 0
30 573 0 0 15 0
32 571 0 0 11 0
34 563 0 0 12 0
36 572 0 0 5 0
38 560 0 0 15 0
40 556 0 0 14 0
42 555 0 0 12 0
44 560 0 0 10 0
46 553 0 0 5 0
48 559 0 0 6 0
50 549 0 0 6 0
52 548 0 1 12 2
54 556 0 5 8 0
56 547 0 14 15 1
58 545 0 23 8 3
60 536 0 35 9 1
62 520 0 44 9 4
64 511 0 63 2 1
66 496 0 78 6 2
68 486 0 89 5 4
70 471 0 110 4 3
72 460 0 117 4 3
74 443 0 133 6 1
76 433 0 155 8 2
78 414 0 167 10 3
80 404 0 184 6 6
82 391 0 208 5 4
84 386 0 218 4 7
86 374 0 217 3 3
88 365 0 222 4 8
90 354 0 232 5 3
92 342 0 246 2 1
94 329 0 271 2 4
96 321 0 277 4 8
98 312 0 285 2 3
100 297 0 308 4 3
102 282 0 310 6 4
104 280 0 308 2 7
106 262 0 312 3 9
108 255 0 334 1 6
110 247 0 339 3 6
112 236 0 353 5 4
114 233 0 356 2 3
116 226 0 364 3 6
118 220 0 349 3 12
120 216 0 366 1 5
122 211 0 377 0 12
124 201 0 387 4 13
126 191 0 403 2 7
128 181 0 394 2 12
130 179 0 398 1 7
132 177 0 395 0 5
134 167 0 392 2 9
136 158 0 399 6 10
138 157 0 414 2 8
140 154 0 424 0 7
142 144 0 427 5 7
144 138 0 435 5 7
146 129 0 444 5 9
148 133 0 448 2 9
150 124 0 448 1 12
152 117 0 472 2 8
154 111 0 464 2 12
156 111 0 472 0 9
158 105 0 472 3 6
160 102 0 480 1 7
162 97 0 481 0 8
164 87 0 493 4 8
166 87 0 489 2 10
168 85 0 494 3 11
170 85 0 483 0 9
172 81 0 485 1 13
174 80 0 503 0 7
176 77 0 510 1 5
178 72 0 509 3 8
180 70 0 517 1 4
182 69 0 517 1 13
184 65 0 520 3 9
186 64 0 525 0 10
188 63 0 519 0 13
190 60 0 506 0 13
192 56 0 505 2 16
194 55 0 525 0 13
196 49 0 521 1 7
198 48 0 507 0 17
200 44 0 512 0 13
