0 1612 0 0 0 0
2 1600 12 0 7 0
4.00004 1598 3 0 14 0
6 1596 9 0 13 0
8 1609 7 0 8 0
10 1623 13 0 5 0
12 1622 6 0 8 0
14 1618 9 0 10 0
16 1637 3 0 9 0
18 1635 9 0 11 0
20 1643 11 0 7 0
22 1655 5 0 10 0
24 1658 5 0 8 0
26 1648 8 0 9 0
28 1658 7 0 10 0
30 1644 9 0 10 0
32 1643 14 0 8 0
34 1641 16 0 8 0
36 1649 11 0 17 0
38 1659 4 0 10 0
40 1645 10 0 17 0
42 1657 10 0 5 0
44 1664 4 0 16 0
46 1652 7 0 10 0
48 1652 6 0 10 0
50 1652 11 0 10 0
52 1482 0 201 8 0
54 1300 0 373 8 3
56 1166 0 508 10 0
58 1081 0 593 10 3
60 966 0 711 5 2
62 848 0 808 4 3
64 782 0 892 6 0
66 730 1 948 6 2
68 675 1 1006 6 6
70 633 1 1059 5 4
72 575 0 1110 6 7
74 532 1 1147 4 7
76 486 0 1205 6 3
78 448 0 1229 2 2
80 409 0 1276 1 3
82 383 0 1303 1 4
84 344 0 1327 9 8
86 331 0 1360 2 3
88 312 0 1381 2 5
90 296 0 1413 3 5
92 264 0 1440 3 7
94 253 0 1457 2 9
96 230 0 1473 7 11
98 212 1 1505 2 2
100 204 0 1519 5 5
102 191 0 1536 2 5
104 170 1 1542 3 7
106 157 0 1541 1 8
108 149 0 1553 0 7
110 139 0 1553 1 9
112 131 0 1564 2 10
114 130 0 1564 1 4
116 115 0 1572 0 7
118 118 0 1569 0 11
120 114 0 1578 1 5
122 106 0 1591 0 10
124 102 0 1591 0 9
126 92 0 1584 0 13
128 92 0 1596 1 2
130 91 0 1592 0 10
132 81 0 1605 3 5
134 82 0 1606 1 10
136 78 0 1616 1 11
138 70 0 1625 0 8
140 69 0 1622 2 7
142 74 0 1622 1 9
144 71 0 1614 0 14
146 67 0 1619 0 8
148 68 0 1619 0 9
150 64 0 1615 0 8
152 60 0 1621 2 11
154 55 0 1631 1 12
156 51 0 1636 0 9
158 51 0 1633 0 14
160 50 0 1649 0 6
162 44 0 1646 1 11
164 42 0 1647 1 9
166 42 0 1643 0 5
168 39 0 1653 0 9
170 39 0 1647 1 13
172 41 0 1644 0 15
174 40 0 1649 1 9
176 38 0 1649 0 10
178 35 0 1650 0 14
180 40 0 1655 0 10
182 34 0 1656 0 8
184 33 0 1653 1 9
186 30 0 1658 1 9
188 31 0 1663 0 15
190 30 0 1665 0 8
192 28 0 1665 0 8
194 27 0 1651 0 10
196 24 0 1651 0 11
198 22 0 1653 1 8
200 21 0 1655 0 7
