0 1784 0 0 0 0
2 1752 10 0 17 0
4.00004 1764 8 0 17 0
6 1787 6 0 10 0
8 1797 13 0 9 0
10 1796 10 0 11 0
12 1811 4 0 11 0
14 1818 8 0 9 0
16 1821 5 0 10 0
18 1821 13 0 12 0
20 1825 5 0 15 0
22 1819 11 0 12 0
24 1825 5 0 16 0
26 1831 4 0 12 0
28 1845 6 0 5 0
30 1821 11 0 13 0
32 1829 13 0 5 0
34 1830 10 0 13 0
36 1843 10 0 8 0
38 1850 7 0 18 0
40 1854 15 0 9 0
42 1845 12 0 17 0
44 1865 4 0 12 0
46 1870 7 0 9 0
48 1866 6 0 12 0
50 1860 7 0 11 0
52 1622 0 252 9 0
54 1454 0 419 10 1
56 1319 0 573 8 2
58 1188 0 702 7 2
60 1060 0 824 5 5
62 944 0 937 4 0
64 860 0 1014 5 6
66 776 0 1109 5 6
68 712 1 1171 7 3
70 664 0 1230 4 4
72 605 0 1283 3 4
74 558 0 1317 4 6
76 517 0 1352 5 8
78 466 0 1395 6 11
80 422 0 1450 1 7
82 378 0 1483 6 5
84 341 1 1523 1 4
86 296 0 1555 5 5
88 281 0 1566 4 8
90 267 0 1590 2 8
92 234 0 1611 1 9
94 213 0 1636 1 7
96 196 0 1664 0 11
98 178 0 1684 0 11
100 167 0 1697 0 11
102 159 0 1713 1 7
104 149 0 1725 1 23
106 135 0 1749 2 6
108 123 0 1769 0 13
110 114 0 1775 1 10
112 111 0 1771 1 11
114 105 0 1780 0 13
116 97 0 1773 1 11
118 92 0 1787 0 7
120 85 0 1787 2 9
122 80 0 1795 2 11
124 78 0 1783 1 14
126 79 0 1782 2 7
128 70 0 1786 0 15
130 61 0 1794 1 7
132 61 0 1790 1 11
134 56 0 1806 3 14
136 48 0 1804 1 13
138 39 0 1818 2 8
140 36 0 1811 0 9
142 39 0 1796 0 16
144 35 0 1818 0 13
146 31 0 1815 0 10
148 27 0 1828 0 8
150 28 0 1826 0 12
152 27 0 1830 0 8
154 23 0 1831 2 14
156 25 0 1829 0 10
158 26 0 1827 0 11
160 26 0 1823 0 13
162 24 0 1835 0 11
164 23 0 1831 0 18
166 22 0 1846 0 10
168 20 0 1847 0 10
170 18 0 1854 0 11
172 17 0 1850 0 7
174 14 0 1848 1 10
176 14 0 1853 0 9
178 12 0 1853 0 9
180 11 0 1863 0 11
182 8 0 1874 0 9
184 8 0 1874 0 9
186 8 0 1874 0 6
188 9 0 1875 0 10
190 9 0 1856 0 18
192 9 0 1864 0 9
194 9 0 1863 0 9
196 9 0 1852 0 9
198 8 0 1855 0 7
200 8 0 1858 0 4
