0 1438 0 0 0 0
2 1430 9 0 2 0
4.00004 1430 7 0 3 0
6 1428 9 0 2 0
8 1425 14 0 0 0
10 1428 5 0 3 0
12 1424 10 0 0 0
14 1432 3 0 0 0
16 1421 15 0 0 0
18 1423 9 0 2 0
20 1431 4 0 1 0
22 1427 11 0 0 0
24 1427 13 0 0 0
26 1429 9 0 1 0
28 1427 10 0 1 0
30 1427 9 0 0 0
32 1431 7 0 1 0
34 1428 10 0 1 0
36 1434 7 0 1 0
38 1429 7 0 1 0
40 1426 11 0 2 0
42 1430 5 0 0 0
44 1422 13 0 1 0
46 1422 7 0 2 0
48 1419 10 0 0 0
50 1422 8 0 2 0
52 1233 1 195 2 0
54 1110 2 318 0 1
56 984 2 442 1 0
58 881 0 546 1 0
60 787 0 637 0 1
62 709 0 719 1 0
64 630 0 798 0 0
66 552 0 875 0 0
68 502 0 922 0 0
70 451 0 972 1 0
72 408 0 1016 0 0
74 364 0 1063 0 0
76 331 0 1095 1 0
78 292 0 1136 0 0
80 261 0 1170 1 1
82 231 0 1202 0 0
84 217 0 1217 1 1
86 194 0 1237 1 1
88 167 0 1266 0 0
90 153 0 1277 1 0
92 140 0 1294 0 0
94 130 0 1307 1 1
96 121 0 1321 0 0
98 109 0 1330 0 0
100 95 0 1345 0 2
102 85 0 1355 0 3
104 74 0 1368 1 0
106 66 0 1375 0 1
108 64 0 1379 0 1
110 58 0 1382 0 0
112 50 0 1388 0 0
114 43 0 1394 0 0
116 39 0 1398 1 0
118 39 0 1397 0 1
120 35 0 1399 0 1
122 31 0 1401 2 0
124 30 0 1402 0 3
126 29 0 1410 0 0
128 28 0 1410 1 0
130 26 0 1411 1 0
132 30 0 1411 0 0
134 29 0 1407 0 0
136 28 0 1409 0 0
138 25 0 1406 1 2
140 27 0 1407 0 2
142 29 0 1409 0 1
144 28 0 1411 0 0
146 22 0 1415 0 1
148 20 0 1416 1 2
150 18 0 1419 1 0
152 18 0 1417 0 2
154 17 0 1417 0 1
156 15 0 1417 0 2
158 16 0 1418 0 1
160 16 0 1417 0 1
162 15 0 1419 0 1
164 17 0 1420 0 0
166 16 1 1420 1 1
168 18 0 1421 0 2
170 15 0 1425 1 0
172 15 0 1424 0 1
174 17 0 1424 0 2
176 17 0 1425 0 1
178 18 0 1426 0 1
180 16 0 1426 0 3
182 13 0 1429 0 0
184 12 0 1431 0 0
186 12 0 1428 0 0
188 12 0 1425 0 1
190 9 0 1425 0 2
192 8 0 1421 0 2
194 9 0 1421 0 1
196 11 0 1421 0 0
198 11 0 1417 0 1
200 12 0 1415 0 1
