0 308 0 0 0 0
2 310 0 0 1 0
4.00004 312 0 0 3 0
6 313 0 0 0 0
8 311 0 0 1 0
10 309 0 0 0 0
12 302 0 0 2 0
14 309 0 0 0 0
16 309 0 0 1 0
18 307 0 0 1 0
20 303 0 0 2 0
22 304 0 0 2 0
24 305 0 0 1 0
26 303 0 0 2 0
28 306 0 0 0 0
30 307 0 0 2 0
32 308 0 0 1 0
34 308 0 0 0 0
36 307 0 0 2 0
38 305 0 0 1 0
40 303 0 0 2 0
42 307 0 0 0 0
44 310 0 0 1 0
46 304 0 0 2 0
48 306 0 0 0 0
50 302 0 0 1 0
52 301 0 0 1 0
54 303 0 0 1 0
56 295 0 0 4 0
58 298 0 0 3 0
60 299 0 0 2 0
62 296 0 3 2 1
64 298 0 6 1 0
66 297 0 8 0 0
68 291 0 11 2 1
70 289 0 17 2 1
72 287 0 20 1 0
74 284 0 26 2 0
76 284 0 29 1 0
78 284 0 29 1 0
80 282 0 28 1 0
82 280 0 32 3 0
84 277 0 35 1 1
86 274 0 38 3 0
88 269 0 41 4 1
90 266 0 45 2 0
92 265 0 46 0 2
94 263 0 47 1 1
96 261 0 50 2 0
98 257 0 50 0 0
100 254 0 48 2 0
102 250 0 51 1 0
104 247 0 53 1 1
106 242 0 54 2 1
108 238 0 62 1 0
110 237 0 65 0 0
112 234 0 70 1 1
114 230 0 74 0 0
116 226 0 74 1 0
118 223 0 74 1 1
120 216 0 77 2 0
122 218 0 79 0 1
124 214 0 82 3 0
126 215 0 84 0 0
128 210 0 89 1 0
130 209 0 89 2 1
132 206 0 86 3 1
134 205 0 89 1 1
136 203 0 89 1 0
138 200 0 89 1 0
140 198 0 93 0 2
142 193 0 97 2 0
144 192 0 102 0 0
146 191 0 103 0 0
148 189 0 106 0 1
150 184 0 110 2 2
152 183 0 110 0 0
154 182 0 110 0 0
156 176 0 113 1 1
158 175 0 111 0 1
160 173 0 116 1 1
162 168 0 120 2 2
164 168 0 124 0 1
166 165 0 124 0 1
168 163 0 127 1 0
170 163 0 127 1 3
172 162 0 132 1 0
174 161 0 131 0 0
176 159 0 133 2 0
178 158 0 135 1 1
180 155 0 132 1 3
182 153 0 132 0 0
184 153 0 131 0 2
186 150 0 131 1 2
188 149 0 131 0 2
190 145 0 132 0 1
192 143 0 133 0 0
194 140 0 137 1 2
196 139 0 143 0 1
198 138 0 149 0 0
200 133 0 154 2 0
