0 4086 0 914 0
2.0001 2934 1140 784 142
4 2188 1855 622 335
6.0001 1613 2452 489 446
8.0001 1264 2826 326 584
10.0001 934 3109 277 680
12.0001 706 3312 211 771
14.0001 551 3455 165 829
16.0001 434 3591 111 864
18.0001 326 3721 93 860
20.0001 253 3776 69 902
22.0001 184 3818 56 942
24.0001 140 3890 47 922
26.0001 124 3941 26 909
28.0001 81 3969 28 922
30.0001 50 4003 23 924
32.0001 43 3920 12 1025
34 40 3950 7 1003
36 31 4016 6 947
38 19 4047 9 925
40 19 4037 5 939
42 15 4060 8 917
44 12 4070 6 912
46 11 4028 5 956
48 8 4047 3 942
50 7 4061 3 929
52 7 4041 2 950
54 3 4049 2 946
56 2 3995 1 1002
58 3 4050 0 947
60 2 3993 1 1004
62 1 4081 1 917
64 1 4055 1 943
66 1 4066 0 933
68 1 4016 0 983
70 0 4004 0 995
72 0 4020 0 980
74 0 4005 0 995
76 0 4014 0 986
78 0 4068 0 932
80 0 4061 0 939
82 0 4000 0 1000
84 0 4055 0 945
86 0 4001 0 999
88 0 4017 0 983
90 0 4011 0 989
92 0 4078 0 922
94 0 4092 0 908
96 0 4029 0 971
98 0 4011 0 989
100 0 4017 0 983
