0 4045 0 955 0
2.0001 2903 1157 794 146
4 2243 1850 572 335
6.0001 1658 2420 446 475
8.0001 1248 2822 332 598
10.0001 894 3172 268 666
12.0001 683 3342 200 775
14.0001 527 3506 150 817
16.0001 411 3664 113 812
18.0001 323 3719 86 872
20.0001 240 3801 58 901
22.0001 167 3871 55 907
24.0001 129 3896 43 932
26.0001 100 3913 30 956
28.0001 79 3971 20 930
30.0001 63 3979 14 944
32.0001 41 4026 18 914
34 35 3940 15 1010
36 34 4007 8 951
38 26 4039 7 928
40 18 4008 6 968
42 15 4082 4 899
44 13 4045 1 941
46 6 3989 3 1002
48 5 4028 1 966
50 3 3985 1 1011
52 1 4036 1 962
54 2 4058 0 940
56 2 4043 0 955
58 0 4024 2 974
60 2 4065 0 933
62 2 4045 0 953
64 1 4040 1 958
66 0 4053 1 946
68 0 3996 0 1004
70 0 4070 0 930
72 0 4063 0 937
74 0 4025 0 975
76 0 4013 0 987
78 0 4031 0 969
80 0 4018 0 982
82 0 3985 0 1015
84 0 4074 0 926
86 0 4027 0 973
88 0 4026 0 974
90 0 4054 0 946
92 0 4080 0 920
94 0 4060 0 939
96 0 4049 0 951
98 0 4102 0 898
100 0 4038 0 962
