0 4068 0 932 0
2.0001 2931 1102 831 136
4 2212 1855 621 312
6.0001 1646 2378 487 489
8.0001 1265 2745 374 616
10.0001 981 3075 269 675
12.0001 735 3316 196 753
14.0001 582 3483 137 798
16.0001 434 3586 115 865
18.0001 303 3728 100 869
20.0001 240 3860 71 829
22.0001 178 3860 61 901
24.0001 128 3922 48 902
26.0001 103 3951 32 914
28.0001 69 3946 26 959
30.0001 58 3968 14 960
32.0001 42 4021 12 925
34 34 3987 7 972
36 21 4003 9 967
38 18 3967 6 1009
40 14 4025 6 955
42 12 4071 3 914
44 13 4015 1 971
46 7 4033 3 957
48 3 4066 2 929
50 5 4020 0 975
52 5 4088 0 907
54 2 4123 2 873
56 3 4061 1 935
58 3 4064 0 933
60 2 4026 1 971
62 2 4012 0 986
64 2 4063 0 935
66 2 4069 0 929
68 1 4069 1 929
70 1 4047 0 952
72 1 4043 0 956
74 0 4024 0 976
76 0 4025 0 975
78 0 4092 0 908
80 0 4068 0 932
82 0 4024 0 976
84 0 4031 0 969
86 0 4002 0 998
88 0 4087 0 913
90 0 4050 0 950
92 0 4022 0 978
94 0 4076 0 924
96 0 3983 0 1017
98 0 4121 0 879
100 0 4068 0 932
