0 4058 0 942 0
2.0001 2938 1141 794 127
4 2154 1889 650 307
6.0001 1593 2436 514 457
8.0001 1221 2808 350 621
10.0001 917 3157 264 662
12.0001 676 3371 214 739
14.0001 532 3497 160 811
16.0001 413 3642 119 825
18.0001 305 3736 95 864
20.0001 231 3802 64 903
22.0001 164 3915 53 867
24.0001 126 3968 38 868
26.0001 96 3907 28 969
28.0001 82 3978 17 923
30.0001 64 3968 16 952
32.0001 44 3953 13 990
34 32 4013 12 943
36 22 4020 8 950
38 17 4080 6 897
40 14 4056 3 927
42 7 4038 2 953
44 5 4013 2 980
46 5 4028 0 967
48 4 4084 1 911
50 4 4019 0 977
52 2 4025 0 973
54 0 3990 0 1010
56 0 4009 0 991
58 0 3989 0 1011
60 0 4001 0 999
62 0 4058 0 942
64 0 4068 0 932
66 0 3973 0 1027
68 0 4059 0 941
70 0 4030 0 970
72 0 4069 0 931
74 0 4086 0 914
76 0 4066 0 934
78 0 4031 0 969
80 0 4025 0 975
82 0 4053 0 947
84 0 4011 0 989
86 0 4047 0 953
88 0 4091 0 909
90 0 4005 0 995
92 0 4031 0 969
94 0 4012 0 988
96 0 4083 0 917
98 0 4077 0 923
100 0 4015 0 985
