0 4087 0 913 0
2.0001 2914 1126 817 143
4 2110 1887 657 346
6.0001 1665 2394 454 487
8.0001 1248 2811 357 584
10.0001 913 3091 286 710
12.0001 680 3300 211 809
14.0001 534 3518 145 803
16.0001 369 3629 122 880
18.0001 289 3710 81 920
20.0001 232 3826 58 884
22.0001 164 3889 43 904
24.0001 127 3900 38 935
26.0001 101 3933 27 939
28.0001 73 3957 23 947
30.0001 57 4015 19 909
32.0001 48 4007 8 937
34 38 4025 9 928
36 32 4018 1 949
38 18 4026 3 953
40 12 4067 2 919
42 10 4030 4 956
44 11 4036 1 952
46 8 4017 1 974
48 4 4020 0 976
50 3 4046 0 951
52 3 4039 0 958
54 3 4046 0 951
56 3 4028 0 969
58 1 4047 2 950
60 2 4042 1 954
62 2 4055 1 942
64 3 4008 0 989
66 1 4063 0 936
68 0 4046 0 954
70 0 4049 0 949
72 0 4041 0 958
74 0 4045 0 955
76 0 4044 0 956
78 0 4039 0 961
80 0 4055 0 945
82 0 3994 0 1006
84 0 4028 0 971
86 0 4058 0 942
88 0 4071 0 929
90 0 4036 0 964
92 0 4024 0 976
94 0 4082 0 918
96 0 4067 0 933
98 0 4055 0 945
100 0 4028 0 972
