0 4041 0 959 0
2.0001 2881 1155 830 134
4 2175 1830 639 356
6.0001 1644 2380 486 489
8.0001 1230 2804 370 596
10.0001 937 3114 266 683
12.0001 694 3383 198 725
14.0001 518 3523 156 802
16.0001 407 3626 108 859
18.0001 280 3731 101 888
20.0001 222 3773 75 930
22.0001 175 3893 46 886
24.0001 134 3906 41 919
26.0001 107 3980 29 884
28.0001 79 3951 25 945
30.0001 58 3945 21 976
32.0001 45 3978 13 964
34 34 3977 12 977
36 27 4033 8 932
38 17 4021 9 953
40 15 4027 6 952
42 10 4049 2 939
44 6 4054 2 938
46 5 4072 0 923
48 3 3989 0 1008
50 2 4027 1 970
52 1 3998 2 999
54 2 4056 1 941
56 2 4041 0 957
58 0 4035 1 964
60 0 4041 1 958
62 0 4050 1 949
64 1 4018 0 981
66 1 4049 0 950
68 1 4007 0 992
70 0 4055 1 944
72 1 4048 0 951
74 1 4080 0 919
76 1 4005 0 994
78 0 4036 1 963
80 1 4038 0 961
82 1 4009 0 990
84 1 4064 0 935
86 1 4055 0 944
88 1 3992 0 1007
90 1 4076 0 923
92 1 4019 0 980
94 1 4052 0 947
96 0 4101 0 898
98 0 4061 0 939
100 0 4025 0 975
