0 4033 0 967 0
2.0001 2916 1146 813 125
4 2140 1833 696 330
6.0001 1643 2383 492 482
8.0001 1287 2798 350 565
10.0001 957 3080 285 678
12.0001 735 3323 208 734
14.0001 557 3514 153 776
16.0001 429 3619 112 840
18.0001 289 3755 98 858
20.0001 216 3848 62 874
22.0001 173 3901 47 879
24.0001 134 3929 28 909
26.0001 95 3963 26 916
28.0001 66 3995 20 919
30.0001 51 4035 16 898
32.0001 41 3977 11 971
34 30 4016 12 942
36 18 3987 12 983
38 23 4014 2 961
40 16 4022 4 958
42 13 3994 3 990
44 5 3990 5 1000
46 8 4082 1 909
48 5 4052 2 941
50 4 4063 2 931
52 3 4049 0 948
54 1 4029 0 969
56 0 4049 1 950
58 1 3999 0 1000
60 0 3999 1 1000
62 1 3962 0 1037
64 0 4031 1 968
66 1 4021 0 978
68 0 4040 0 960
70 0 4002 0 998
72 0 4043 0 957
74 0 4040 0 960
76 0 4045 0 955
78 0 4119 0 881
80 0 4025 0 975
82 0 4001 0 999
84 0 4024 0 976
86 0 4023 0 976
88 0 4052 0 948
90 0 3999 0 1001
92 0 4053 0 947
94 0 4025 0 975
96 0 4053 0 947
98 0 4037 0 963
100 0 4033 0 967
