0 4065 0 935 0
2.0001 2964 1080 818 138
4 2236 1846 628 290
6.0001 1655 2392 474 479
8.0001 1270 2830 327 573
10.0001 944 3115 274 667
12.0001 735 3272 217 776
14.0001 564 3530 161 745
16.0001 439 3635 121 805
18.0001 344 3729 83 844
20.0001 249 3782 64 905
22.0001 170 3868 63 899
24.0001 146 3873 39 941
26.0001 114 3932 35 919
28.0001 82 3985 29 904
30.0001 63 4006 18 913
32.0001 47 3986 14 953
34 37 3998 14 951
36 29 4014 10 947
38 24 4041 3 932
40 13 4014 6 967
42 14 4024 3 959
44 10 4025 5 960
46 12 3962 3 1023
48 9 4017 3 971
50 5 4053 3 939
52 6 4042 1 951
54 4 4077 2 917
56 3 4093 0 904
58 2 4061 0 936
60 0 4069 1 930
62 1 3991 0 1008
64 0 4099 0 901
66 0 4062 0 938
68 0 4071 0 929
70 0 4057 0 943
72 0 4062 0 938
74 0 4015 0 985
76 0 4053 0 947
78 0 4071 0 929
80 0 4068 0 932
82 0 4011 0 989
84 0 4077 0 923
86 0 4076 0 924
88 0 4071 0 929
90 0 4069 0 931
92 0 4072 0 928
94 0 4053 0 947
96 0 4051 0 949
98 0 4038 0 962
100 0 4068 0 932
