0 4066 0 934 0
2.0001 2949 1135 785 131
4 2170 1871 644 315
6.0001 1632 2414 486 468
8.0001 1241 2846 357 556
10.0001 956 3070 280 694
12.0001 734 3325 203 738
14.0001 540 3526 159 775
16.0001 420 3625 120 835
18.0001 311 3734 94 861
20.0001 235 3825 77 863
22.0001 180 3869 53 898
24.0001 142 3955 43 860
26.0001 111 3884 32 973
28.0001 85 3973 25 917
30.0001 63 4002 22 913
32.0001 44 4038 10 908
34 37 4004 8 951
36 23 4014 12 951
38 21 4045 7 927
40 15 4049 7 929
42 10 4020 5 965
44 8 4079 4 909
46 8 4013 3 976
48 8 4056 1 935
50 3 4038 4 955
52 3 4002 2 993
54 1 3997 2 1000
56 2 4052 1 945
58 2 4009 0 989
60 1 4032 1 966
62 1 4020 1 978
64 2 4038 0 960
66 2 4015 0 983
68 2 4013 0 985
70 0 3997 1 1001
72 1 3987 0 1012
74 1 4069 0 930
76 1 4026 0 973
78 0 4076 1 923
80 0 4055 1 944
82 1 4071 0 928
84 0 4065 1 934
86 0 4015 1 984
88 1 4032 0 967
90 0 4044 0 956
92 0 4038 0 962
94 0 4042 0 958
96 0 4048 0 952
98 0 4008 0 992
100 0 4032 0 968
