0 67 0 0 0
2 61 0 7 0
4.00004 63 0 4 0
6 62 0 5 0
8 60 0 7 0
10 59 0 6 0
12 60 0 7 0
14 62 0 6 0
16 64 0 5 0
18 60 0 8 0
20 63 0 6 0
22 63 0 6 0
24 62 0 7 0
26 65 0 4 0
28 61 0 8 0
30 68 0 2 0
32 65 0 6 0
34 68 0 3 0
36 67 0 3 0
38 65 0 7 0
40 65 0 7 0
42 65 0 6 0
44 64 0 7 0
46 67 0 3 0
48 65 0 6 0
50 66 0 5 0
52 67 0 3 0
54 67 0 1 0
56 68 0 2 0
58 61 0 10 0
60 61 0 10 0
62 61 0 11 0
64 63 0 9 0
66 63 0 10 0
68 65 0 10 0
70 68 0 6 0
72 67 0 7 0
74 66 0 7 0
76 67 0 6 0
78 67 0 6 0
80 69 0 4 0
82 67 0 4 0
84 68 0 2 0
86 69 0 1 0
88 66 0 4 0
90 65 0 7 1
92 64 0 7 3
94 66 0 5 1
96 66 0 4 2
98 66 0 4 1
100 65 0 4 2
102 67 0 3 2
104 67 0 4 1
106 68 0 3 2
108 64 0 6 2
110 65 0 5 1
112 68 0 1 1
114 65 0 6 0
116 67 0 3 1
118 66 0 3 1
120 64 1 4 0
122 65 0 3 1
124 65 1 2 1
126 65 1 3 2
128 64 2 4 1
130 64 2 4 1
132 62 2 6 0
134 62 2 7 1
136 61 2 7 1
138 64 2 3 0
140 63 2 3 0
142 63 2 2 0
144 64 2 1 0
146 65 1 0 1
148 64 1 2 1
150 62 1 5 0
152 63 1 4 1
154 64 1 2 1
156 64 1 2 1
158 63 2 4 0
160 65 2 0 0
162 62 2 3 1
164 59 2 5 1
166 60 3 4 1
168 59 1 5 5
170 58 4 5 1
172 59 3 4 2
174 60 3 1 2
176 59 5 2 1
178 57 4 4 3
180 59 5 2 2
182 60 5 2 3
184 58 5 4 3
186 53 6 9 1
188 54 6 6 1
190 52 6 6 1
192 52 7 6 1
194 51 7 7 0
196 50 7 7 1
198 53 6 4 1
200 53 6 4 2
202 53 6 4 3
204 51 5 6 4
206 48 4 9 4
208 50 6 6 3
210 50 6 7 3
212 52 6 5 3
214 52 6 4 4
216 51 7 4 4
218 52 7 3 4
220 48 8 7 2
222 52 9 2 2
224 53 9 2 2
226 51 9 4 2
228 52 8 3 4
230 49 8 6 3
232 49 7 6 4
234 49 9 5 0
236 50 9 3 3
238 49 9 3 5
240 51 10 1 4
242 51 10 0 4
244 49 9 4 4
246 47 10 4 3
248 48 10 3 3
250 43 12 8 4
252 47 12 4 3
254 47 12 4 3
256 43 13 7 2
258 46 13 4 2
260 46 13 5 3
262 48 12 4 4
264 47 12 6 2
266 48 12 4 4
268 50 12 2 2
270 50 12 0 2
272 50 12 2 3
274 50 13 2 3
276 50 13 2 3
278 47 13 4 2
280 48 13 3 2
282 45 13 5 2
284 45 13 3 3
286 44 12 4 4
288 40 13 8 3
290 43 13 5 3
292 43 13 5 4
294 44 13 4 5
296 46 14 4 3
298 46 14 4 3
300 44 13 6 4
302 48 13 1 6
304 47 13 2 4
306 48 13 1 2
308 48 15 1 3
310 46 13 3 5
312 47 12 2 8
314 44 13 5 7
316 46 13 3 6
318 47 14 1 4
320 47 15 1 4
322 46 14 2 3
324 46 15 2 4
326 46 15 2 2
328 47 16 1 3
330 46 16 2 3
332 45 17 3 1
334 45 18 3 1
336 45 18 3 1
338 46 18 2 0
340 45 17 3 1
342 43 16 5 2
344 42 16 6 1
346 44 16 3 1
348 44 16 3 1
350 42 17 5 1
