0 84 0 0 0
2 82 0 3 0
4.00004 82 0 3 0
6 83 0 2 0
8 83 0 2 0
10 79 0 4 0
12 79 0 7 0
14 82 0 4 0
16 80 0 3 0
18 77 0 7 0
20 76 0 7 0
22 76 0 9 0
24 77 0 8 0
26 77 0 8 0
28 73 0 10 0
30 77 0 6 0
32 76 0 6 0
34 75 0 7 0
36 76 0 6 0
38 75 0 9 0
40 75 0 7 0
42 76 0 8 0
44 72 0 11 0
46 74 0 8 0
48 72 0 11 0
50 70 0 13 0
52 64 8 10 0
54 59 14 8 0
56 52 20 9 0
58 47 24 9 0
60 46 29 4 0
62 40 35 4 0
64 34 39 7 0
66 31 41 8 0
68 29 43 8 0
70 29 44 5 0
72 23 47 8 1
74 22 51 3 2
76 19 51 5 4
78 17 53 6 4
80 12 58 6 4
82 11 59 4 5
84 11 59 2 6
86 9 62 1 6
88 8 61 1 8
90 8 64 2 5
92 8 64 3 5
94 7 64 2 6
96 6 67 2 4
98 4 68 0 5
100 4 69 2 4
102 4 69 0 4
104 4 68 0 5
106 4 71 1 1
108 4 69 2 4
110 4 69 2 4
112 3 71 2 3
114 3 69 2 5
116 3 71 3 3
118 4 70 1 3
120 3 68 4 5
122 2 71 4 3
124 2 70 4 3
126 2 70 4 3
128 2 67 3 8
130 2 69 1 5
132 2 68 3 6
134 2 68 1 6
136 1 68 3 7
138 1 70 2 4
140 1 68 1 8
142 0 71 1 6
144 0 71 3 6
146 0 73 2 4
148 0 74 3 3
150 0 72 5 5
152 0 73 4 3
154 0 73 2 4
156 0 72 4 5
158 1 73 3 4
160 1 73 2 4
162 1 73 2 4
164 1 73 2 4
166 1 73 2 4
168 1 72 1 5
170 0 74 3 4
172 1 71 1 6
174 1 73 1 5
176 1 74 2 2
178 1 73 3 2
180 0 73 3 4
182 0 75 4 2
184 0 75 4 2
186 0 73 3 4
188 0 72 3 5
190 0 74 2 3
192 0 74 2 3
194 0 74 3 3
196 0 74 3 3
198 0 74 4 2
200 0 76 3 1
202 1 74 2 3
204 1 74 2 3
206 2 74 1 3
208 2 75 1 2
210 1 76 1 2
212 1 75 1 2
214 1 75 1 2
216 1 74 1 3
218 1 71 2 5
220 0 71 4 5
222 0 69 4 8
224 0 71 4 7
226 0 69 3 9
228 0 69 4 9
230 0 71 4 5
232 0 72 3 6
234 0 72 4 4
236 0 73 3 3
238 0 71 5 5
240 0 73 4 3
242 0 73 6 3
244 0 74 5 1
246 0 74 5 3
248 2 74 4 2
250 2 71 4 4
252 2 72 3 3
254 3 73 3 2
256 2 72 4 4
258 2 69 4 8
260 1 75 5 2
262 0 75 5 3
264 0 76 5 2
266 0 73 4 5
268 0 73 5 5
270 1 70 4 8
272 1 71 4 7
274 1 71 4 7
276 1 70 4 8
278 1 71 3 7
280 2 72 2 5
282 2 71 3 6
284 3 70 3 7
286 3 68 3 9
288 3 70 3 7
290 1 72 4 7
292 2 73 2 4
294 1 75 3 3
296 1 75 3 3
298 1 76 2 3
300 1 76 3 3
302 1 76 2 4
304 1 75 2 5
306 1 77 3 3
308 1 76 3 4
310 1 77 2 3
312 1 76 1 4
314 0 77 3 3
316 0 77 1 3
318 0 78 1 2
320 0 77 2 4
322 0 76 3 4
324 0 75 2 5
326 1 75 1 6
328 1 77 1 3
330 1 76 1 4
332 1 74 1 6
334 0 75 1 6
336 1 77 0 3
338 1 75 1 4
340 1 75 1 4
342 1 76 1 3
344 1 76 2 4
346 1 76 1 4
348 1 76 3 4
350 1 76 3 4
