0 72 0 0 0
2 72 0 0 0
4.00004 73 0 0 0
6 73 0 0 0
8 71 0 1 0
10 69 0 4 0
12 66 0 7 0
14 67 0 6 0
16 69 0 4 0
18 69 0 4 0
20 64 0 8 0
22 64 0 9 0
24 66 0 8 0
26 68 0 6 0
28 69 0 5 0
30 68 0 5 0
32 66 0 7 0
34 67 0 6 0
36 65 0 9 0
38 66 0 9 0
40 65 0 9 0
42 66 0 8 0
44 66 0 8 0
46 66 0 9 0
48 66 0 9 0
50 65 0 8 0
52 66 0 6 0
54 66 0 8 0
56 67 0 7 0
58 67 0 7 0
60 65 0 7 0
62 66 0 4 0
64 65 0 5 0
66 67 0 5 0
68 66 0 7 0
70 65 0 6 0
72 64 0 6 0
74 63 0 8 0
76 61 0 10 0
78 60 0 11 0
80 58 0 13 0
82 59 0 11 0
84 57 0 13 0
86 58 0 15 0
88 57 0 14 0
90 58 0 13 1
92 58 0 15 1
94 59 0 14 2
96 57 0 17 2
98 55 0 14 2
100 56 0 14 2
102 59 1 9 1
104 59 1 9 1
106 61 1 6 1
108 61 1 6 1
110 59 1 11 1
112 59 2 9 0
114 58 2 11 0
116 58 1 10 1
118 58 1 11 1
120 59 1 9 1
122 61 2 8 0
124 62 2 8 0
126 62 2 7 0
128 63 2 7 0
130 64 1 6 2
132 64 2 5 1
134 64 2 4 1
136 62 2 7 1
138 62 2 5 1
140 64 2 4 2
142 61 2 7 0
144 64 2 6 0
146 63 2 6 0
148 62 2 7 0
150 65 2 4 0
152 64 2 5 1
154 64 2 4 2
156 64 2 4 2
158 63 2 5 2
160 64 2 4 2
162 63 3 5 2
164 61 3 7 1
166 62 3 5 2
168 64 2 3 2
170 64 2 3 2
172 60 3 7 1
174 60 3 7 1
176 63 3 4 1
178 62 3 6 2
180 60 3 8 1
182 60 3 7 0
184 59 3 9 2
186 57 3 11 1
188 59 3 8 2
190 60 3 6 3
192 60 3 5 2
194 60 3 6 2
196 61 3 4 0
198 60 3 5 0
200 60 3 5 1
202 60 3 4 1
204 61 3 4 1
206 59 3 6 2
208 59 3 7 1
210 61 2 5 3
212 60 2 6 3
214 59 3 7 2
216 60 3 6 3
218 58 3 7 5
220 59 3 6 5
222 60 3 4 5
224 60 5 4 2
226 61 5 3 2
228 57 4 8 3
230 56 4 11 4
232 58 5 8 1
234 55 5 11 2
236 56 5 10 2
238 56 6 10 1
240 54 6 11 1
242 55 6 10 0
244 57 5 8 2
246 56 6 7 1
248 55 6 9 1
250 57 6 8 1
252 57 6 7 1
254 56 6 8 1
256 54 6 10 1
258 55 6 8 1
260 56 6 7 1
262 57 6 7 1
264 58 6 4 1
266 56 6 6 2
268 57 6 5 3
270 56 6 7 1
272 57 5 5 3
274 57 6 5 1
276 56 6 6 1
278 58 6 3 1
280 58 6 3 2
282 57 5 5 3
284 57 6 4 1
286 55 6 5 2
288 57 6 3 2
290 57 6 3 2
292 55 6 5 3
294 53 6 7 2
296 56 6 5 1
298 57 6 4 1
300 57 6 4 3
302 57 6 4 2
304 57 7 5 1
306 55 7 6 2
308 56 7 4 2
310 54 7 6 1
312 54 7 6 1
314 52 7 8 1
316 54 7 7 1
318 55 7 6 0
320 54 7 7 0
322 55 7 6 1
324 54 7 6 1
326 56 7 5 2
328 55 6 6 3
330 55 7 5 2
332 56 7 4 2
334 54 6 7 3
336 54 7 5 4
338 53 6 5 6
340 54 6 5 7
342 52 6 7 5
344 54 7 3 4
346 55 7 2 4
348 55 7 2 3
350 52 7 5 3
