0 62 0 0 0
2 61 0 2 0
4.00004 58 0 4 0
6 59 0 3 0
8 57 0 5 0
10 57 0 5 0
12 59 0 3 0
14 60 0 3 0
16 59 0 4 0
18 58 0 4 0
20 57 0 5 0
22 57 0 5 0
24 57 0 4 0
26 56 0 5 0
28 57 0 3 0
30 57 0 3 0
32 57 0 4 0
34 57 0 2 0
36 57 0 2 0
38 56 0 3 0
40 57 0 2 0
42 56 0 3 0
44 54 0 6 0
46 56 0 4 0
48 56 0 5 0
50 57 0 4 0
52 59 0 3 0
54 59 0 4 0
56 58 0 3 0
58 57 0 4 0
60 58 0 3 0
62 60 0 0 0
64 59 0 3 0
66 59 0 2 1
68 57 0 4 0
70 55 0 6 1
72 54 0 7 1
74 57 0 3 2
76 55 0 6 2
78 55 0 7 2
80 56 0 7 2
82 57 0 6 2
84 59 0 4 0
86 59 0 4 0
88 55 0 7 0
90 57 0 5 1
92 55 0 7 1
94 58 0 4 1
96 57 0 5 0
98 58 0 4 2
100 56 0 5 2
102 57 0 5 3
104 58 0 4 3
106 59 1 4 2
108 59 2 4 2
110 61 2 2 1
112 61 2 2 0
114 61 2 2 0
116 61 2 0 0
118 59 2 4 1
120 60 2 3 1
122 58 2 5 0
124 57 2 6 1
126 58 2 5 3
128 59 2 4 2
130 59 2 4 3
132 60 3 3 4
134 60 3 3 4
136 61 3 2 4
138 58 4 5 2
140 59 4 3 2
142 60 4 2 2
144 61 5 2 1
146 61 5 2 2
148 60 5 3 2
150 62 5 1 2
152 59 5 4 3
154 61 6 2 1
156 61 6 2 0
158 60 6 3 1
160 61 6 2 0
162 61 6 2 0
164 59 6 4 0
166 59 6 3 0
168 58 6 4 0
170 58 6 3 0
172 57 6 4 0
174 60 6 1 0
176 59 6 2 1
178 57 6 4 1
180 57 6 4 2
182 57 6 5 2
184 57 5 5 3
186 59 4 3 3
188 58 3 4 4
190 59 4 4 5
192 59 5 2 4
194 58 5 4 3
196 56 4 5 3
198 57 5 5 3
200 57 5 4 3
202 57 6 2 4
204 56 6 6 1
206 57 6 3 1
208 56 6 4 3
210 56 6 5 2
212 57 7 3 1
214 53 7 7 2
216 55 7 5 3
218 57 7 3 1
220 58 7 2 4
222 57 6 2 4
224 57 7 3 3
226 56 6 4 4
228 55 7 5 3
230 53 9 8 0
232 57 9 4 0
234 56 9 4 0
236 58 9 3 0
238 55 9 6 0
240 56 9 5 2
242 56 8 5 3
244 57 8 3 2
246 56 7 5 3
248 55 8 7 2
250 55 8 7 2
252 57 9 5 1
254 58 10 3 0
256 56 10 5 0
258 59 10 2 1
260 59 10 3 2
262 59 10 3 3
264 58 10 4 2
266 58 11 4 0
268 57 10 4 1
270 57 9 5 2
272 56 9 4 2
274 55 9 6 2
276 56 9 5 2
278 55 9 5 3
280 54 9 7 3
282 56 9 3 3
284 54 9 5 2
286 55 10 4 1
288 55 10 3 2
290 56 10 3 1
292 54 10 4 0
294 52 10 6 1
296 55 10 3 1
298 53 9 5 2
300 53 9 5 1
302 54 10 3 0
304 56 10 2 0
306 54 10 3 0
308 56 9 1 1
310 55 9 2 1
312 54 9 3 1
314 54 9 3 1
316 51 9 6 1
318 52 9 4 1
320 52 9 4 1
322 53 8 2 2
324 52 8 2 2
326 53 9 4 2
328 52 10 6 1
330 51 10 5 1
332 52 9 4 3
334 53 10 2 1
336 54 11 1 1
338 54 11 0 1
340 54 11 1 2
342 54 10 1 3
344 51 10 4 4
346 52 10 2 3
348 53 11 0 4
350 52 12 1 2
