0 64 0 0 0
2 60 0 3 0
4.00004 62 0 4 0
6 60 0 3 0
8 59 0 4 0
10 59 0 4 0
12 59 0 4 0
14 57 0 5 0
16 57 0 4 0
18 59 0 2 0
20 58 0 6 0
22 58 0 5 0
24 57 0 7 0
26 57 0 7 0
28 57 0 6 0
30 56 0 8 0
32 56 0 6 0
34 54 0 8 0
36 54 0 13 0
38 55 0 9 0
40 55 0 9 0
42 52 0 12 0
44 51 0 12 0
46 54 0 10 0
48 56 0 7 0
50 55 0 8 0
52 54 0 9 0
54 54 0 9 0
56 53 0 9 0
58 51 0 10 0
60 51 0 10 0
62 53 0 8 0
64 52 0 10 0
66 52 0 9 0
68 53 0 7 0
70 54 0 6 0
72 54 0 5 0
74 53 0 6 0
76 52 0 6 0
78 52 0 8 0
80 53 0 7 0
82 52 0 8 0
84 55 0 6 0
86 55 0 6 0
88 54 0 7 0
90 54 0 7 0
92 52 0 9 0
94 53 0 8 1
96 53 0 9 1
98 53 0 8 0
100 53 0 10 1
102 50 0 14 1
104 50 0 14 1
106 51 0 12 1
108 50 0 13 1
110 53 0 10 2
112 53 0 10 3
114 53 0 10 3
116 51 0 12 4
118 51 0 10 4
120 53 0 8 3
122 54 0 8 4
124 53 0 8 3
126 52 0 9 3
128 51 0 10 4
130 52 0 9 4
132 52 0 9 3
134 54 0 6 3
136 55 0 6 4
138 55 0 4 3
140 52 0 8 4
142 54 0 6 4
144 52 0 8 4
146 54 0 7 4
148 52 0 7 3
150 52 1 7 2
152 54 0 5 3
154 53 0 6 3
156 54 0 6 3
158 53 1 7 2
160 55 1 5 2
162 52 1 7 2
164 52 1 6 2
166 53 2 6 1
168 51 2 9 1
170 53 2 6 1
172 53 2 6 1
174 53 2 6 2
176 53 2 6 1
178 52 2 6 0
180 53 2 5 1
182 51 2 7 0
184 52 2 6 1
186 53 2 5 2
188 53 2 5 2
190 52 2 6 0
192 53 2 4 2
194 50 2 7 3
196 52 2 5 2
198 52 2 4 4
200 52 2 4 2
202 51 2 4 2
204 52 2 4 3
206 51 2 5 4
208 53 2 2 4
210 52 2 4 4
212 51 2 5 4
214 50 2 6 4
216 48 2 7 4
218 47 2 10 3
220 51 3 5 2
222 52 3 4 2
224 52 3 5 3
226 52 3 4 2
228 51 3 5 1
230 51 3 5 1
232 49 3 7 2
234 47 3 9 2
236 49 3 7 1
238 50 3 6 1
240 48 3 8 1
242 51 3 5 2
244 50 3 6 2
246 49 3 7 2
248 50 3 6 2
250 52 3 4 3
252 51 3 5 3
254 50 3 6 1
256 51 3 3 3
258 52 3 2 0
260 50 2 4 3
262 51 3 3 0
264 51 3 4 0
266 49 3 7 1
268 50 3 6 1
270 50 3 7 2
272 51 3 4 1
274 51 3 4 1
276 50 3 6 1
278 50 3 6 2
280 50 3 4 2
282 50 3 5 3
284 49 3 4 3
286 48 3 7 2
288 49 3 5 2
290 47 3 6 4
292 48 4 7 0
294 48 4 7 1
296 46 4 9 1
298 47 4 8 2
300 46 4 8 2
302 48 4 6 2
304 51 3 4 3
306 49 4 5 3
308 50 4 4 1
310 48 4 6 2
312 46 4 8 2
314 47 4 6 2
316 46 3 7 3
318 49 3 4 3
320 49 4 3 2
322 49 4 3 1
324 50 4 3 2
326 50 3 2 3
328 48 4 5 2
330 48 4 4 1
332 46 4 6 2
334 47 4 6 1
336 46 4 6 1
338 45 4 6 1
340 46 4 6 2
342 46 4 7 2
344 46 4 6 2
346 46 4 5 2
348 45 4 7 2
350 46 4 6 2
