0 72 0 0 0
2 70 0 3 0
4.00004 68 0 4 0
6 68 0 4 0
8 68 0 4 0
10 69 0 3 0
12 68 0 4 0
14 68 0 4 0
16 67 0 5 0
18 69 0 6 0
20 68 0 5 0
22 65 0 9 0
24 68 0 7 0
26 68 0 6 0
28 68 0 4 0
30 66 0 5 0
32 66 0 6 0
34 66 0 7 0
36 63 0 10 0
38 67 0 6 0
40 67 0 7 0
42 64 0 10 0
44 64 0 11 0
46 64 0 12 0
48 65 0 12 0
50 62 0 13 0
52 62 0 12 0
54 64 0 11 0
56 66 0 9 0
58 67 0 8 0
60 66 0 8 0
62 66 0 8 0
64 66 0 8 0
66 65 0 10 0
68 66 0 9 0
70 63 0 14 0
72 65 0 11 0
74 66 0 9 0
76 66 0 9 0
78 65 0 10 0
80 63 0 12 0
82 65 0 8 0
84 64 0 7 1
86 63 0 9 1
88 65 0 7 1
90 64 0 8 1
92 65 0 9 1
94 65 0 7 1
96 66 0 6 1
98 65 0 7 1
100 65 0 7 1
102 63 0 10 1
104 63 0 9 1
106 65 0 8 1
108 64 0 9 1
110 64 0 10 1
112 63 0 10 1
114 64 0 8 1
116 65 1 6 0
118 63 1 9 2
120 65 1 8 1
122 67 1 6 1
124 67 1 6 1
126 67 1 7 1
128 67 1 7 2
130 70 1 3 2
132 68 1 6 2
134 67 1 7 2
136 66 1 8 3
138 69 1 4 3
140 67 1 6 2
142 67 1 7 2
144 69 2 3 1
146 68 2 6 3
148 67 2 6 3
150 66 2 6 3
152 65 2 7 4
154 66 4 6 2
156 65 4 8 2
158 65 4 8 2
160 65 4 7 2
162 67 4 6 2
164 66 4 6 2
166 67 4 6 3
168 66 5 6 2
170 66 4 7 3
172 64 4 8 3
174 65 4 8 3
176 65 4 7 4
178 65 4 7 3
180 63 4 10 3
182 64 4 8 3
184 65 4 8 3
186 66 4 7 4
188 67 4 6 4
190 67 5 3 2
192 65 5 6 2
194 65 5 5 2
196 63 5 7 1
198 59 5 12 2
200 60 5 11 4
202 60 5 10 4
204 58 5 13 4
206 62 6 6 2
208 62 7 7 1
210 61 6 9 3
212 61 8 7 1
214 61 8 7 2
216 64 7 3 4
218 63 7 4 5
220 60 5 7 7
222 60 7 7 5
224 57 7 12 4
226 58 7 10 5
228 60 7 8 6
230 60 8 6 4
232 59 8 9 4
234 59 8 9 3
236 57 9 11 3
238 57 9 11 5
240 57 9 12 5
242 55 9 14 3
244 55 10 14 1
246 56 10 11 2
248 59 10 9 1
250 56 10 10 1
252 57 9 8 3
254 58 10 8 1
256 57 10 8 1
258 58 9 6 2
260 55 10 8 1
262 56 10 8 1
264 55 10 7 4
266 56 10 7 4
268 58 10 6 5
270 59 9 7 3
272 56 9 9 6
274 58 9 8 3
276 57 9 9 2
278 60 9 6 2
280 58 10 6 2
282 58 10 5 2
284 58 10 6 3
286 57 10 7 4
288 58 11 7 1
290 55 11 9 1
292 54 11 11 1
294 54 11 10 2
296 54 11 9 3
298 54 11 9 2
300 55 11 9 2
302 56 11 7 3
304 56 11 8 2
306 55 11 9 2
308 58 11 6 2
310 56 11 7 1
312 58 11 5 2
314 55 12 8 2
316 55 12 8 3
318 57 12 6 2
320 55 11 7 3
322 57 10 6 6
324 57 10 4 6
326 57 11 5 4
328 55 11 6 4
330 54 11 6 4
332 55 12 6 3
334 56 12 5 3
336 55 12 6 3
338 54 12 5 4
340 54 12 7 4
342 53 12 7 2
344 51 12 8 1
346 52 11 7 2
348 51 11 9 2
350 50 10 10 5
