0 90 0 0 0
2 88 0 5 0
4.00004 87 0 3 0
6 86 0 6 0
8 84 0 7 0
10 83 0 7 0
12 84 0 6 0
14 84 0 6 0
16 82 0 9 0
18 83 0 7 0
20 82 0 7 0
22 84 0 4 0
24 83 0 3 0
26 84 0 5 0
28 82 0 8 0
30 83 0 6 0
32 84 0 7 0
34 83 0 6 0
36 80 0 9 0
38 82 0 7 0
40 82 0 7 0
42 85 0 4 0
44 84 0 4 0
46 82 0 7 0
48 82 0 5 0
50 82 0 7 0
52 60 21 6 1
54 48 34 5 0
56 41 42 5 1
58 32 52 4 0
60 22 58 8 2
62 18 64 6 1
64 14 63 7 4
66 15 64 6 4
68 15 65 2 5
70 13 67 2 5
72 13 69 3 3
74 12 67 2 6
76 10 69 3 5
78 9 70 3 4
80 8 71 4 5
82 9 71 2 4
84 8 73 2 4
86 8 72 1 4
88 7 72 2 4
90 5 71 4 7
92 6 73 3 4
94 5 74 3 4
96 4 75 4 4
98 4 76 4 3
100 3 77 4 5
102 3 74 3 7
104 2 73 4 10
106 2 73 3 11
108 3 73 2 11
110 2 76 2 9
112 2 77 1 6
114 2 78 2 5
116 2 79 2 5
118 2 76 3 9
120 2 78 2 6
122 2 74 1 12
124 3 74 1 12
126 3 76 2 8
128 3 78 1 7
130 3 75 3 10
132 3 75 2 9
134 3 76 3 8
136 3 77 4 6
138 3 77 4 5
140 4 74 3 9
142 4 74 3 11
144 4 72 3 11
146 4 73 2 10
148 3 73 1 11
150 2 74 4 11
152 0 75 3 12
154 0 76 4 10
156 0 77 3 9
158 1 79 2 7
160 1 75 3 11
162 1 78 4 8
164 1 78 3 8
166 2 79 2 7
168 2 77 3 9
170 2 78 1 8
172 2 79 0 6
174 2 80 0 5
176 2 80 0 4
178 1 78 0 7
180 1 78 0 5
182 0 79 0 7
184 0 76 2 8
186 0 77 2 6
188 0 77 1 7
190 0 77 1 7
192 0 76 1 8
194 0 76 1 8
196 1 77 1 6
198 0 77 1 7
200 1 77 2 6
202 1 80 2 3
204 1 78 2 6
206 1 76 2 9
208 1 74 2 10
210 1 74 2 10
212 1 76 1 8
214 0 77 1 8
216 0 78 2 6
218 0 79 2 5
220 0 79 2 6
222 0 78 2 6
224 0 76 3 9
226 0 72 3 13
228 0 74 3 11
230 0 75 3 9
232 0 74 4 10
234 0 72 3 12
236 0 71 3 13
238 0 71 4 12
240 1 72 4 12
242 0 75 3 8
244 0 74 3 7
246 1 77 1 5
248 1 77 2 6
250 1 75 2 7
252 2 74 0 7
254 1 78 1 5
256 2 76 0 7
258 2 75 1 8
260 0 75 3 9
262 0 74 1 11
264 0 74 1 12
266 0 75 2 9
268 0 75 2 5
270 1 74 2 8
272 1 72 2 10
274 1 71 2 9
276 1 71 4 10
278 1 72 4 9
280 1 72 3 9
282 1 73 2 7
284 1 73 3 5
286 2 72 1 8
288 2 70 1 11
290 3 72 0 9
292 3 70 1 10
294 3 71 1 8
296 3 71 0 9
298 3 72 0 9
300 2 72 1 10
302 2 73 1 10
304 1 73 2 12
306 1 73 0 11
308 0 75 0 10
310 0 74 0 10
312 0 75 1 10
314 0 74 1 12
316 0 74 2 12
318 0 76 3 9
320 0 74 3 11
322 0 76 1 9
324 0 76 2 8
326 0 79 1 5
328 0 78 1 5
330 0 76 2 9
332 0 74 1 10
334 0 72 2 12
336 0 72 2 11
338 0 75 1 8
340 0 74 1 7
342 0 73 2 7
344 0 73 2 8
346 0 71 2 9
348 0 70 2 10
350 0 70 4 10
