0 62 0 0 0
2 60 0 2 0
4.00004 63 0 0 0
6 61 0 3 0
8 60 0 4 0
10 61 0 4 0
12 60 0 6 0
14 58 0 8 0
16 55 0 7 0
18 58 0 6 0
20 58 0 7 0
22 57 0 7 0
24 58 0 6 0
26 56 0 9 0
28 56 0 10 0
30 56 0 10 0
32 57 0 9 0
34 58 0 9 0
36 59 0 9 0
38 59 0 8 0
40 60 0 6 0
42 61 0 3 0
44 58 0 4 0
46 56 0 6 0
48 56 0 9 0
50 58 0 9 0
52 57 0 11 0
54 56 0 13 0
56 60 0 6 0
58 60 0 6 1
60 64 0 7 1
62 62 0 10 1
64 62 1 11 0
66 60 0 11 1
68 64 0 5 1
70 63 0 7 1
72 66 0 5 2
74 67 1 4 1
76 69 1 2 1
78 66 0 4 2
80 67 0 3 2
82 68 1 2 1
84 64 1 5 1
86 66 1 1 1
88 64 0 4 3
90 61 0 6 3
92 58 2 7 1
94 60 1 7 3
96 59 2 7 2
98 59 2 10 2
100 58 2 10 2
102 62 2 6 0
104 60 2 7 2
106 62 2 5 1
108 62 3 5 1
110 61 2 6 2
112 60 2 5 3
114 59 2 8 2
116 63 2 4 2
118 63 3 3 2
120 61 4 4 2
122 58 4 7 1
124 61 4 2 2
126 60 4 4 2
128 58 4 5 1
130 57 4 5 3
132 56 4 4 2
134 54 4 7 2
136 53 4 8 4
138 50 3 10 4
140 52 5 9 5
142 49 6 10 3
144 51 5 8 5
146 51 3 7 6
148 52 3 6 5
150 52 5 6 3
152 50 5 9 2
154 50 5 7 3
156 49 5 8 4
158 51 5 7 4
160 50 5 7 4
162 53 5 2 4
164 53 6 1 1
166 50 6 6 2
168 50 6 5 2
170 52 6 2 2
172 51 6 4 3
174 53 6 2 3
176 53 6 2 4
178 52 7 3 3
180 51 8 4 2
182 50 8 4 3
184 52 9 2 3
186 50 10 5 2
188 48 9 4 2
190 49 10 3 2
192 50 11 3 1
194 52 11 1 1
196 51 11 2 1
198 47 11 6 1
200 47 8 6 4
202 45 10 7 2
204 46 9 6 3
206 45 10 5 2
208 44 9 5 5
210 46 9 2 3
212 45 10 3 2
214 44 10 4 3
216 45 10 3 3
218 44 10 3 3
220 43 11 4 0
222 43 10 4 2
224 42 11 6 1
226 44 11 2 0
228 44 11 1 1
230 43 10 2 5
232 41 11 5 2
234 43 12 3 1
236 42 10 5 3
238 41 10 6 3
240 41 10 6 3
242 39 10 7 2
244 41 10 4 3
246 42 12 4 2
248 39 12 7 2
250 40 11 5 3
252 40 12 2 1
254 39 12 3 1
256 39 12 5 1
258 41 12 2 3
260 39 14 4 1
262 39 13 5 1
264 39 13 3 1
266 39 14 4 1
268 41 13 2 1
270 40 13 2 1
272 38 12 4 2
274 39 12 3 2
276 36 13 6 3
278 38 13 4 2
280 39 14 3 2
282 38 13 4 2
284 34 14 7 2
286 35 14 6 2
288 35 13 4 3
290 35 13 4 4
292 34 12 5 4
294 32 12 7 5
296 34 11 4 5
298 33 13 5 3
300 34 12 4 6
302 34 11 5 6
304 37 11 2 8
306 37 12 2 6
308 38 13 1 5
310 38 14 1 4
312 37 14 2 4
314 37 13 2 4
316 38 14 1 3
318 36 13 3 3
320 37 12 1 6
322 36 15 2 6
324 36 15 2 5
326 33 15 5 5
328 35 15 3 5
330 35 14 2 9
332 31 16 6 6
334 34 17 3 5
336 33 17 4 5
338 33 16 3 4
340 34 15 2 5
342 33 15 3 5
344 34 16 2 4
346 34 17 2 4
348 34 15 2 6
350 34 16 2 5
