0 1059 0 0 0 0 0
2 1008 17 0 37 0 5
4.00004 1000 34 0 32 0 4
6 1017 27 0 36 0 5
8 1012 34 0 33 0 5
10 1017 25 0 34 0 3
12 1002 33 0 34 0 7
14 1005 33 0 28 0 8
16 1002 34 0 22 0 10
18 1012 23 0 31 0 8
20 1008 28 0 39 0 7
22 1016 28 0 29 0 4
24 1013 24 0 27 0 6
26 1014 25 0 30 0 3
28 1000 32 0 34 0 5
30 1010 26 0 20 0 9
32 998 27 0 26 0 9
34 1002 24 0 22 0 7
36 994 25 0 32 0 3
38 1000 23 0 23 0 8
40 1004 31 0 27 0 8
42 998 35 0 27 0 13
44 1011 23 0 26 0 7
46 988 30 0 34 0 12
48 979 33 0 39 0 8
50 1006 25 0 25 0 6
52 933 0 100 6 14 0
54 888 0 132 12 24 0
56 834 0 176 12 27 0
58 798 0 230 11 20 1
60 768 0 256 6 36 0
62 745 0 286 11 23 0
64 726 0 303 14 28 0
66 704 0 322 6 35 0
68 666 0 354 7 37 0
70 635 0 384 9 33 0
72 610 0 419 8 27 0
74 573 0 443 4 41 2
76 553 0 490 8 21 0
78 535 0 504 8 26 0
80 514 0 519 5 26 0
82 488 0 549 5 26 0
84 474 0 562 7 30 0
86 455 0 577 2 26 1
88 437 0 583 7 30 0
90 421 0 602 7 35 0
92 405 0 604 4 43 0
94 387 0 627 6 31 0
96 363 0 653 5 27 0
98 346 0 662 5 27 0
100 344 0 666 5 33 0
102 329 0 688 3 27 0
104 318 0 693 5 32 0
106 305 0 713 3 25 0
108 298 0 715 4 31 0
110 291 0 725 4 27 0
112 271 0 740 5 29 0
114 257 0 747 2 38 0
116 245 0 761 2 21 0
118 235 0 763 1 30 0
120 231 1 773 4 29 0
122 224 0 777 3 36 0
124 209 0 801 5 26 0
126 202 0 815 4 25 0
128 197 0 830 4 19 0
130 192 0 831 2 33 0
132 179 0 835 5 33 0
134 170 0 839 1 35 0
136 159 0 845 7 37 0
138 154 0 854 3 35 0
140 149 0 856 4 32 0
142 148 0 866 5 30 0
144 144 0 868 6 31 0
146 135 0 877 3 31 0
148 126 0 883 4 33 0
150 119 0 883 6 33 0
152 116 0 884 5 32 0
154 106 0 905 5 22 0
156 103 0 904 3 32 0
158 103 0 896 1 35 0
160 99 0 897 2 38 0
162 95 0 900 1 41 1
164 96 0 911 1 28 0
166 91 0 910 5 32 0
168 93 0 912 1 37 0
170 84 0 917 5 37 0
172 85 0 920 5 33 0
174 81 0 927 2 32 0
176 80 0 923 3 33 0
178 78 0 935 3 30 0
180 73 0 934 2 32 0
182 67 0 941 2 33 0
184 68 0 931 3 37 0
186 64 0 935 4 36 1
188 65 0 944 4 36 0
190 63 0 961 1 24 0
192 59 0 950 2 35 0
194 53 0 955 5 27 0
196 57 0 948 3 32 0
198 51 0 940 1 28 0
200 51 0 953 3 32 0
