0 932 0 0 0 0 0
2 901 0 0 32 0 0
4.00004 898 0 0 30 0 0
6 890 0 0 33 0 0
8 895 0 0 25 0 0
10 876 0 0 28 0 0
12 877 0 0 32 0 0
14 867 0 0 37 0 0
16 876 0 0 31 0 0
18 875 0 0 38 0 0
20 878 0 0 39 0 0
22 897 0 0 35 0 0
24 889 0 0 32 0 0
26 890 0 0 30 0 0
28 885 0 0 34 0 0
30 876 0 0 36 0 0
32 879 0 0 34 0 0
34 878 0 0 35 0 0
36 873 0 0 44 0 0
38 877 0 0 37 0 0
40 874 0 0 38 0 0
42 885 0 0 28 0 0
44 873 0 0 29 0 0
46 878 0 0 29 0 0
48 878 0 0 30 0 0
50 880 0 0 25 0 0
52 864 0 0 34 0 0
54 865 0 5 28 0 0
56 864 0 16 24 3 0
58 851 0 23 25 6 0
60 847 0 26 22 7 0
62 838 0 33 28 8 0
64 843 0 42 21 7 0
66 841 0 53 22 15 0
68 816 0 61 28 8 0
70 811 0 60 26 11 0
72 817 0 64 12 14 0
74 811 0 73 17 16 0
76 795 0 81 22 23 0
78 791 0 95 17 16 0
80 782 0 94 24 14 0
82 784 0 104 16 5 0
84 774 0 109 17 11 0
86 762 0 120 25 15 0
88 771 0 121 16 18 0
90 762 0 120 20 20 0
92 753 0 141 24 10 0
94 759 0 147 16 14 0
96 757 0 144 16 11 0
98 746 0 155 22 13 0
100 747 0 154 18 19 0
102 746 0 161 13 15 0
104 744 0 164 7 14 0
106 729 0 168 22 16 0
108 736 0 172 14 15 0
110 729 0 177 12 26 0
112 719 0 188 16 21 0
114 713 0 201 21 12 0
116 710 0 194 17 25 0
118 715 0 205 10 23 0
120 707 0 213 15 13 0
122 698 0 213 20 18 0
124 701 0 227 17 16 0
126 695 0 226 16 16 0
128 689 0 236 13 8 0
130 676 0 228 21 18 0
132 687 0 240 11 5 0
134 675 0 243 17 18 0
136 677 0 250 12 14 0
138 665 0 251 14 13 0
140 657 0 248 16 11 0
142 651 0 254 18 14 0
144 645 0 264 24 11 0
146 642 0 271 15 10 0
148 643 0 268 8 9 0
150 635 0 275 18 12 0
152 637 0 274 11 15 0
154 627 0 280 13 19 0
156 617 0 282 18 23 0
158 621 0 280 9 25 0
160 603 0 285 19 16 0
162 606 0 310 17 19 0
164 605 0 309 14 20 0
166 603 0 319 15 20 0
168 602 0 321 12 19 0
170 595 0 318 19 18 0
172 600 0 324 10 14 0
174 593 0 321 15 14 0
176 581 0 328 24 17 0
178 585 0 338 12 16 0
180 573 0 339 19 20 0
182 564 0 335 21 27 0
184 569 0 359 14 11 0
186 566 0 362 15 22 0
188 566 0 364 15 18 0
190 557 0 363 20 22 0
192 562 0 368 11 14 0
194 555 0 368 13 18 0
196 558 0 372 10 16 0
198 553 0 379 11 21 0
200 551 0 385 12 16 0
