0 934 0 0 0 0 0
2 862 33 0 37 0 0
4.00004 849 39 0 40 0 0
6 860 32 0 41 0 0
8 863 31 0 37 0 0
10 862 38 0 38 0 0
12 847 32 0 54 0 0
14 848 53 0 30 0 0
16 854 40 0 29 0 0
18 834 43 0 47 0 0
20 859 35 0 29 0 0
22 851 30 0 47 0 0
24 862 32 0 27 0 0
26 854 31 0 37 0 0
28 866 35 0 27 0 0
30 844 36 0 35 0 0
32 830 41 0 47 0 0
34 832 43 0 45 0 0
36 845 33 0 39 0 0
38 857 24 0 34 0 0
40 850 30 0 37 0 0
42 845 33 0 41 0 0
44 848 32 0 43 0 0
46 864 32 0 27 0 0
48 854 28 0 39 0 0
50 857 27 0 34 0 0
52 824 0 57 31 16 0
54 801 1 92 23 12 0
56 776 0 116 24 14 0
58 748 0 146 24 10 0
60 733 0 162 27 11 0
62 718 0 175 20 16 0
64 706 0 201 19 11 0
66 688 0 220 17 17 0
68 662 0 235 19 20 0
70 649 1 253 17 25 0
72 627 1 268 18 27 0
74 615 0 294 10 23 0
76 591 1 307 8 23 0
78 582 0 317 7 27 0
80 560 0 335 13 19 0
82 558 0 343 6 22 0
84 530 0 353 11 27 0
86 506 0 369 13 28 0
88 500 0 392 12 25 0
90 490 0 403 11 30 0
92 479 0 411 8 32 0
94 484 0 412 7 30 0
96 468 0 429 6 28 0
98 466 0 422 8 30 0
100 453 0 437 12 31 0
102 446 0 460 6 19 0
104 433 0 465 9 28 0
106 432 0 470 13 28 0
108 430 0 478 9 26 0
110 428 1 493 6 21 0
112 418 0 491 10 30 0
114 418 0 503 8 21 0
116 398 0 507 11 36 0
118 394 0 524 11 21 0
120 378 0 537 10 21 0
122 369 0 537 9 29 0
124 362 0 540 8 40 0
126 351 0 564 10 23 0
128 347 0 553 4 32 0
130 333 0 557 13 33 0
132 332 0 574 8 19 0
134 332 0 574 6 22 0
136 326 0 586 7 21 0
138 318 0 581 11 34 0
140 310 0 580 8 42 0
142 301 0 599 15 28 0
144 296 0 613 13 24 0
146 283 0 613 12 23 0
148 281 0 610 9 36 0
150 278 0 629 10 27 0
152 270 0 635 10 27 0
154 273 0 651 2 29 0
156 261 0 652 10 25 0
158 252 0 655 8 30 0
160 250 0 667 8 31 0
162 244 0 688 6 23 0
164 236 0 681 7 36 0
166 235 0 687 9 29 0
168 228 0 695 9 25 0
170 228 0 693 9 29 0
172 230 0 690 4 35 0
174 221 0 692 6 28 0
176 215 0 704 6 35 0
178 204 0 708 7 25 0
180 199 0 719 6 24 0
182 200 0 708 4 33 0
184 189 0 723 10 30 0
186 198 0 725 12 32 0
188 191 0 721 10 43 0
190 192 0 731 3 38 0
192 179 0 738 7 31 0
194 184 0 735 2 31 0
196 183 0 741 1 27 0
198 173 0 741 10 29 0
200 159 0 735 7 36 0
