0 864 0 0 0 0 0
2 825 0 0 31 0 0
4.00004 830 0 0 27 0 0
6 832 0 0 28 0 0
8 824 0 0 37 0 0
10 822 0 0 37 0 0
12 830 0 0 36 0 0
14 835 0 0 30 0 0
16 825 0 0 36 0 0
18 831 0 0 33 0 0
20 833 0 0 35 0 0
22 837 0 0 35 0 0
24 834 0 0 41 0 0
26 835 0 0 38 0 0
28 849 0 0 34 0 0
30 840 0 0 36 0 0
32 849 0 0 28 0 0
34 854 0 0 31 0 0
36 845 0 0 41 0 0
38 852 0 0 32 0 0
40 843 0 0 44 0 0
42 845 0 0 39 0 0
44 862 0 0 22 0 0
46 849 0 0 40 0 0
48 848 0 0 38 0 0
50 846 0 0 32 0 0
52 833 0 1 43 0 0
54 843 0 3 32 3 0
56 839 0 9 24 5 0
58 827 0 14 27 6 0
60 824 0 25 29 5 0
62 821 0 36 25 5 0
64 806 0 41 32 11 0
66 809 0 46 22 11 0
68 794 0 63 31 12 0
70 780 0 57 25 11 0
72 766 0 71 32 8 0
74 761 0 72 28 12 0
76 759 0 82 19 14 0
78 742 0 92 28 10 0
80 746 0 95 21 13 0
82 737 0 103 26 20 0
84 724 0 113 30 22 0
86 726 0 124 25 14 0
88 723 0 124 29 17 0
90 722 0 137 21 14 0
92 718 0 146 18 12 0
94 708 0 146 22 16 0
96 705 0 149 21 19 0
98 697 0 152 21 17 0
100 696 0 154 23 15 0
102 691 0 155 23 16 0
104 692 0 164 18 13 0
106 684 0 172 22 16 0
108 678 0 173 22 28 0
110 679 0 190 15 15 0
112 661 0 196 26 14 0
114 666 0 191 20 13 0
116 661 0 193 20 11 0
118 659 0 208 15 14 0
120 651 0 212 21 14 0
122 640 0 213 22 17 0
124 639 0 225 19 17 0
126 627 0 227 22 19 0
128 631 0 240 20 18 0
130 617 0 251 24 19 0
132 610 0 261 22 21 0
134 611 0 255 19 20 0
136 600 0 251 29 19 0
138 610 0 272 18 14 0
140 611 0 275 10 20 0
142 595 0 276 20 25 0
144 593 0 290 20 18 0
146 588 0 296 21 23 0
148 583 0 306 16 17 0
150 585 0 302 15 18 0
152 581 0 300 15 21 0
154 569 0 316 24 18 0
156 571 0 314 13 22 0
158 564 0 319 19 20 0
160 561 0 331 12 22 0
162 556 0 332 12 25 0
164 551 0 334 14 22 0
166 546 0 331 18 28 0
168 540 0 346 18 17 0
170 533 0 347 19 22 0
172 534 0 357 12 16 0
174 528 0 351 15 25 0
176 527 0 360 12 22 0
178 521 0 352 15 25 0
180 515 0 367 14 21 0
182 515 0 375 14 22 0
184 514 0 378 14 24 0
186 504 0 373 18 20 0
188 508 0 372 11 29 0
190 503 0 384 12 21 0
192 497 0 386 12 22 0
194 491 0 384 17 19 0
196 494 0 389 9 17 0
198 490 0 392 11 23 0
200 487 0 393 11 20 0
