0 876 0 0 0 0 0
2 849 12 0 17 0 0
4.00004 837 22 0 20 0 3
6 832 24 0 23 0 2
8 848 18 0 15 0 1
10 844 32 0 10 0 1
12 838 26 0 24 0 0
14 832 38 0 17 0 1
16 837 24 0 27 0 1
18 837 34 0 20 0 2
20 834 30 0 29 0 0
22 838 26 0 25 0 2
24 836 35 0 18 0 1
26 828 38 0 21 0 3
28 835 33 0 19 0 0
30 839 24 0 22 0 0
32 835 28 0 25 0 1
34 844 31 0 17 0 2
36 823 33 0 33 0 1
38 836 35 0 20 0 0
40 848 18 0 21 0 0
42 834 34 0 16 0 2
44 829 34 0 28 0 0
46 835 33 0 21 0 2
48 843 38 0 10 0 0
50 843 32 0 15 0 1
52 782 0 97 10 6 0
54 754 0 113 8 12 0
56 721 0 143 11 11 0
58 705 0 157 5 15 0
60 688 0 183 6 11 0
62 659 0 207 12 16 0
64 636 0 241 14 7 0
66 628 0 249 5 12 0
68 615 0 258 5 17 0
70 600 0 275 7 13 0
72 583 0 280 11 21 1
74 581 0 301 9 13 0
76 577 0 309 2 15 0
78 562 0 316 3 13 0
80 549 0 326 6 15 0
82 538 0 339 4 18 0
84 528 0 351 4 12 0
86 508 0 363 9 10 0
88 506 0 375 1 10 0
90 494 0 379 1 12 0
92 482 0 399 5 11 0
94 478 0 401 2 12 0
96 459 0 422 4 13 0
98 447 0 431 3 16 0
100 440 0 437 5 17 0
102 429 0 450 6 16 0
104 418 0 458 4 11 0
106 411 0 461 5 15 0
108 401 0 461 7 20 0
110 389 0 484 1 15 0
112 381 0 499 2 11 0
114 382 0 512 1 8 0
116 373 0 510 0 18 0
118 368 0 515 2 16 0
120 366 0 510 3 23 0
122 358 0 523 3 17 0
124 348 0 536 5 8 0
126 343 0 530 4 18 0
128 344 0 541 3 13 0
130 336 0 540 5 15 0
132 326 0 555 5 14 0
134 315 0 555 2 21 0
136 305 0 570 6 23 0
138 293 0 590 7 15 0
140 288 1 593 3 17 0
142 282 0 602 5 18 0
144 271 0 603 10 17 0
146 266 0 608 3 22 0
148 266 0 610 4 19 0
150 255 0 623 5 15 0
152 249 0 626 8 23 0
154 241 0 634 5 20 0
156 243 0 632 6 20 0
158 245 0 635 4 19 0
160 241 0 636 9 16 0
162 240 0 646 0 19 0
164 227 0 653 7 13 0
166 219 0 669 2 14 0
168 210 0 663 3 23 0
170 203 0 672 4 22 0
172 197 0 678 4 17 0
174 195 0 691 4 15 0
176 190 0 691 4 19 0
178 192 0 699 1 13 0
180 187 0 702 5 16 0
182 186 0 696 2 22 0
184 183 0 702 6 17 0
186 177 0 709 2 18 0
188 174 0 710 2 22 0
190 171 0 719 3 17 0
192 175 0 726 4 16 0
194 168 0 733 7 12 0
196 172 0 744 0 11 0
198 168 0 741 1 19 0
200 163 0 753 4 15 1
