0 380 0 0
2 382 0 0
4.00004 380 0 0
6 375 0 0
8 379 0 0
10 377 0 0
12 377 0 0
14 382 0 0
16 386 0 0
18 374 0 0
20 371 0 0
22 378 0 0
24 370 0 0
26 357 0 0
28 363 0 0
30 357 0 0
32 366 0 0
34 361 0 0
36 374 0 0
38 376 0 0
40 375 0 0
42 367 0 0
44 370 0 0
46 373 0 0
48 386 0 0
50 384 0 0
52 391 0 0
54 388 2 0
56 381 7 0
58 378 13 0
60 370 20 0
62 362 24 0
64 357 30 0
66 349 37 0
68 339 53 0
70 329 64 0
72 318 73 0
74 307 83 0
76 294 95 0
78 286 97 0
80 275 107 0
82 261 114 0
84 257 126 0
86 244 134 0
88 240 142 0
90 230 148 0
92 217 159 0
94 204 169 0
96 196 176 0
98 190 188 0
100 185 188 0
102 180 206 0
104 170 203 0
106 164 199 0
108 157 217 0
110 149 227 0
112 142 243 0
114 138 232 0
116 127 225 0
118 118 235 0
120 116 235 0
122 113 248 0
124 107 246 0
126 99 243 0
128 96 241 0
130 91 245 0
132 86 249 0
134 83 267 0
136 79 265 0
138 73 275 0
140 69 269 0
142 67 277 0
144 66 279 0
146 59 278 0
148 59 274 0
150 57 270 0
152 57 274 0
154 51 279 0
156 51 283 0
158 48 297 0
160 43 295 0
162 39 302 0
164 40 305 0
166 38 302 0
168 36 311 0
170 30 315 0
172 29 317 0
174 28 322 0
176 29 318 0
178 26 319 0
180 25 316 0
182 22 317 0
184 22 318 0
186 21 321 0
188 18 316 0
190 16 312 0
192 14 314 0
194 15 307 0
196 15 308 0
198 15 309 0
200 16 310 0
