0 536 0 0
2 534 0 0
4.00004 540 0 0
6 536 0 0
8 538 0 0
10 537 0 0
12 545 0 0
14 552 0 0
16 560 0 0
18 568 0 0
20 559 0 0
22 561 0 0
24 561 0 0
26 548 0 0
28 540 0 0
30 537 0 0
32 536 0 0
34 528 0 0
36 525 0 0
38 529 0 0
40 523 0 0
42 529 0 0
44 534 0 0
46 528 0 0
48 528 0 0
50 532 0 0
52 521 1 0
54 511 1 0
56 510 8 0
58 506 14 0
60 510 16 0
62 507 22 0
64 512 27 0
66 497 31 0
68 494 38 0
70 476 50 0
72 462 58 0
74 449 70 0
76 444 76 0
78 439 90 0
80 433 95 0
82 428 105 0
84 423 111 0
86 401 124 0
88 395 137 0
90 383 141 0
92 375 144 0
94 361 160 0
96 352 168 0
98 337 183 0
100 325 187 0
102 312 203 0
104 304 209 0
106 302 223 0
108 295 225 0
110 287 236 0
112 277 242 0
114 267 258 0
116 254 267 0
118 252 268 0
120 244 270 0
122 236 287 0
124 224 303 0
126 216 317 0
128 205 329 0
130 203 335 0
132 203 343 0
134 194 349 0
136 188 356 0
138 183 346 0
140 181 356 0
142 173 364 0
144 169 374 0
146 162 375 0
148 157 376 0
150 151 380 0
152 150 381 0
154 147 379 0
156 143 381 0
158 136 387 0
160 127 384 0
162 126 389 0
164 122 391 0
166 120 403 0
168 114 418 0
170 106 412 0
172 105 415 0
174 100 417 0
176 99 416 0
178 94 417 0
180 95 421 0
182 92 427 0
184 92 441 0
186 89 444 0
188 87 447 0
190 84 447 0
192 80 456 0
194 73 478 0
196 70 487 0
198 69 491 0
200 69 497 0
