0 578 0 0 0 0
2 580 0 0 1 0
4.00004 578 0 0 2 0
6 580 0 0 0 0
8 579 0 0 2 0
10 579 0 0 0 0
12 579 0 0 0 0
14 579 0 0 1 0
16 577 0 0 2 0
18 579 0 0 0 0
20 578 0 0 0 0
22 580 0 0 0 0
24 579 0 0 1 0
26 581 0 0 0 0
28 583 0 0 0 0
30 584 0 0 0 0
32 582 0 0 4 0
34 582 0 0 2 0
36 587 0 0 0 0
38 585 0 0 0 0
40 586 0 0 0 0
42 583 0 0 0 0
44 584 0 0 0 0
46 581 0 0 2 0
48 583 0 0 2 0
50 584 0 0 0 0
52 582 0 0 1 0
54 586 0 1 0 0
56 585 0 1 1 0
58 585 0 1 0 0
60 580 0 1 1 1
62 577 0 2 1 1
64 575 0 6 0 0
66 576 0 7 0 0
68 572 0 10 0 0
70 571 0 13 0 1
72 565 0 16 3 0
74 566 0 17 1 0
76 567 0 19 0 0
78 564 0 21 0 0
80 562 0 22 1 0
82 563 0 23 1 0
84 562 0 23 0 0
86 560 0 24 1 0
88 558 0 28 0 0
90 558 0 30 0 0
92 557 0 31 1 0
94 556 0 31 2 0
96 554 0 36 0 0
98 552 0 38 0 0
100 549 0 41 1 0
102 546 0 43 2 0
104 543 0 44 0 0
106 544 0 46 0 0
108 542 0 47 1 0
110 542 0 51 0 0
112 540 0 52 1 1
114 540 0 51 0 0
116 540 0 54 0 0
118 538 0 54 0 0
120 533 0 60 3 0
122 533 0 62 0 1
124 532 0 66 0 0
126 528 0 67 1 0
128 526 0 67 2 1
130 525 0 68 1 0
132 522 0 71 1 0
134 520 0 71 1 1
136 520 0 72 0 0
138 519 0 73 0 0
140 518 0 75 0 1
142 518 0 76 0 1
144 518 0 80 0 0
146 517 0 80 0 0
148 514 0 84 1 0
150 514 0 85 0 0
152 507 0 86 3 1
154 509 0 90 0 0
156 506 0 90 1 1
158 505 0 93 0 1
160 501 0 95 1 1
162 502 0 99 0 0
164 502 0 100 0 0
166 498 0 101 2 0
168 499 0 103 0 0
170 498 0 102 2 0
172 498 0 105 0 0
174 498 0 104 0 1
176 494 0 108 2 0
178 494 0 110 0 1
180 489 0 110 3 0
182 489 0 112 0 1
184 487 0 116 1 0
186 488 0 118 0 1
188 488 0 119 0 0
190 484 0 121 0 0
192 484 0 125 0 0
194 483 0 125 0 1
196 480 0 126 0 0
198 477 0 128 1 1
200 475 0 130 0 0
