0 545 0 0 0 0
2 541 0 0 1 0
4.00004 541 0 0 1 0
6 540 0 0 0 0
8 539 0 0 1 0
10 544 0 0 0 0
12 542 0 0 0 0
14 542 0 0 0 0
16 543 0 0 0 0
18 543 0 0 1 0
20 542 0 0 1 0
22 544 0 0 0 0
24 543 0 0 0 0
26 544 0 0 0 0
28 543 0 0 0 0
30 540 0 0 0 0
32 537 0 0 1 0
34 535 0 0 1 0
36 533 0 0 1 0
38 533 0 0 0 0
40 535 0 0 0 0
42 535 0 0 1 0
44 532 0 0 2 0
46 532 0 0 0 0
48 532 0 0 0 0
50 531 0 0 1 0
52 530 0 0 0 0
54 530 0 0 1 0
56 533 0 1 0 0
58 532 0 2 0 0
60 531 0 3 0 0
62 529 0 3 1 0
64 527 0 4 0 0
66 524 0 7 1 0
68 521 0 8 3 0
70 520 0 11 1 0
72 517 0 14 1 0
74 515 0 14 0 0
76 512 0 14 0 0
78 510 0 15 2 0
80 512 0 18 0 0
82 510 0 19 1 0
84 505 0 21 2 0
86 506 0 24 0 0
88 503 0 25 0 0
90 500 0 25 0 0
92 500 0 24 0 0
94 497 0 25 1 0
96 497 0 27 0 0
98 493 0 30 3 0
100 494 0 32 0 0
102 492 0 33 0 0
104 490 0 35 1 0
106 489 0 35 0 1
108 487 0 36 0 0
110 485 0 40 0 0
112 482 0 44 0 0
114 477 0 46 1 0
116 476 0 47 1 0
118 473 0 47 1 1
120 469 0 52 1 0
122 470 0 53 0 0
124 467 0 57 0 1
126 467 0 59 0 1
128 461 0 61 2 0
130 462 0 62 0 1
132 461 0 64 0 0
134 460 0 65 1 0
136 459 0 67 0 0
138 458 0 69 0 0
140 457 0 71 1 0
142 456 0 72 0 1
144 452 0 72 0 0
146 451 0 72 0 1
148 446 0 75 1 0
150 445 0 75 1 0
152 445 0 77 1 0
154 443 0 78 1 0
156 441 0 79 0 0
158 439 0 80 1 0
160 437 0 83 1 0
162 437 0 86 0 0
164 437 0 86 0 0
166 435 0 88 0 0
168 434 0 88 0 1
170 433 0 90 0 0
172 432 0 91 0 3
174 429 0 95 1 1
176 428 0 99 2 0
178 428 0 100 1 1
180 426 0 103 0 1
182 424 0 104 1 0
184 422 0 106 1 0
186 423 0 108 0 0
188 422 0 109 1 0
190 422 0 108 0 0
192 421 0 109 0 1
194 419 0 111 1 0
196 417 0 111 0 0
198 414 0 112 1 0
200 413 0 113 0 0
