0 1437 0 0 0 0
2 1426 8 0 1 0
4.00004 1431 4 0 0 0
6 1427 9 0 0 0
8 1426 11 0 0 0
10 1425 12 0 0 0
12 1427 9 0 1 0
14 1434 2 0 1 0
16 1429 9 0 0 0
18 1427 11 0 0 0
20 1432 6 0 3 0
22 1427 11 0 2 0
24 1428 12 0 0 0
26 1427 10 0 0 0
28 1427 11 0 0 0
30 1431 7 0 1 0
32 1430 8 0 0 0
34 1430 9 0 0 0
36 1426 10 0 0 0
38 1430 3 0 2 0
40 1427 5 0 2 0
42 1425 10 0 1 0
44 1429 6 0 0 0
46 1425 9 0 0 0
48 1427 4 0 3 0
50 1421 11 0 1 0
52 1226 0 204 1 0
54 1084 0 345 2 0
56 962 1 467 0 0
58 856 0 576 0 0
60 767 1 664 0 0
62 678 1 754 0 0
64 611 0 822 0 1
66 554 1 880 1 0
68 496 0 940 0 0
70 435 1 999 0 0
72 382 0 1051 0 0
74 349 0 1083 0 1
76 313 1 1117 0 0
78 282 0 1150 0 0
80 255 0 1176 0 1
82 233 0 1197 0 0
84 207 0 1222 0 0
86 188 0 1241 0 0
88 166 0 1262 0 0
90 152 0 1273 0 0
92 135 0 1290 0 0
94 120 0 1305 0 1
96 108 1 1317 0 0
98 102 0 1322 0 2
100 92 0 1332 0 0
102 89 0 1337 1 1
104 77 0 1346 2 0
106 70 0 1352 0 0
108 62 0 1361 0 0
110 56 0 1367 0 0
112 55 0 1368 0 1
114 49 0 1376 0 0
116 45 0 1375 0 0
118 39 0 1375 0 1
120 39 0 1376 0 0
122 33 0 1378 1 2
124 30 0 1382 0 1
126 27 0 1381 0 1
128 27 0 1381 0 1
130 27 0 1388 0 0
132 23 0 1391 1 0
134 24 0 1390 0 0
136 24 0 1395 0 0
138 24 0 1395 0 0
140 22 0 1395 0 3
142 22 0 1398 2 0
144 20 0 1402 0 0
146 18 0 1406 0 1
148 17 0 1405 0 0
150 18 0 1404 0 0
152 17 0 1406 0 0
154 14 0 1408 0 0
156 12 0 1407 0 1
158 12 0 1409 0 0
160 12 0 1408 0 0
162 11 1 1407 0 1
164 11 0 1409 0 0
166 11 0 1406 0 1
168 12 0 1406 0 0
170 10 0 1408 0 1
172 9 0 1410 0 0
174 12 0 1411 1 0
176 14 0 1410 0 1
178 13 0 1412 0 0
180 13 0 1411 0 0
182 11 0 1412 0 0
184 10 0 1410 0 1
186 10 0 1408 0 1
188 10 0 1408 0 0
190 8 0 1408 0 1
192 10 0 1408 1 0
194 10 0 1407 2 1
196 12 0 1408 0 0
198 13 0 1409 0 0
200 13 0 1405 0 1
