0 503 0 0 0 0
2 499 0 0 1 0
4.00004 496 0 0 0 0
6 497 0 0 1 0
8 497 0 0 1 0
10 498 0 0 0 0
12 500 0 0 0 0
14 501 0 0 1 0
16 503 0 0 2 0
18 506 0 0 1 0
20 505 0 0 2 0
22 507 0 0 1 0
24 510 0 0 1 0
26 507 0 0 1 0
28 506 0 0 1 0
30 509 0 0 0 0
32 507 0 0 0 0
34 505 0 0 0 0
36 505 0 0 0 0
38 505 0 0 0 0
40 504 0 0 2 0
42 504 0 0 1 0
44 501 0 0 1 0
46 501 0 0 0 0
48 505 0 0 0 0
50 506 0 0 0 0
52 507 0 0 1 0
54 506 0 1 1 0
56 508 0 1 0 0
58 509 0 1 1 0
60 511 0 2 0 0
62 509 0 2 1 0
64 509 0 3 2 0
66 510 0 3 0 0
68 511 0 4 0 0
70 515 0 4 0 0
72 515 0 5 0 0
74 515 0 5 0 0
76 511 0 6 1 0
78 512 0 9 0 0
80 512 0 10 0 0
82 511 0 12 0 0
84 510 0 13 0 1
86 507 0 14 1 0
88 507 0 16 0 0
90 504 0 18 0 1
92 503 0 20 1 0
94 503 0 21 0 1
96 502 0 22 0 0
98 502 0 25 0 1
100 499 0 28 1 0
102 499 0 28 0 0
104 495 0 28 1 0
106 492 0 30 2 1
108 491 0 34 2 0
110 492 0 36 0 1
112 490 0 38 0 0
114 488 0 39 0 0
116 486 0 39 1 0
118 483 0 41 2 0
120 482 0 42 0 0
122 482 0 42 1 0
124 478 0 42 3 1
126 480 0 42 1 0
128 479 0 42 1 0
130 479 0 44 0 0
132 478 0 45 1 1
134 477 0 45 0 1
136 475 0 48 1 0
138 470 0 48 2 0
140 471 0 49 0 0
142 468 0 49 2 0
144 469 0 50 1 0
146 468 0 50 0 0
148 468 0 51 0 1
150 466 0 53 1 0
152 467 0 53 0 1
154 464 0 56 1 0
156 461 0 56 1 0
158 462 0 59 0 0
160 461 0 58 0 1
162 460 0 59 1 1
164 459 0 61 0 0
166 459 0 63 0 2
168 459 0 67 0 0
170 457 0 71 0 0
172 456 0 72 0 1
174 451 0 73 2 0
176 450 0 74 2 0
178 452 0 74 0 0
180 446 0 77 1 1
182 447 0 78 1 0
184 444 0 80 1 0
186 442 0 82 2 0
188 443 0 81 0 0
190 443 0 81 0 1
192 441 0 81 2 1
194 441 0 81 0 0
196 440 0 85 0 0
198 438 0 86 0 0
200 436 0 87 0 0
