0 1397 0 0 0 0
2 1390 9 0 1 0
4.00004 1393 8 0 3 0
6 1391 11 0 0 0
8 1395 7 0 0 0
10 1388 14 0 0 0
12 1388 12 0 0 0
14 1386 12 0 0 0
16 1384 10 0 1 0
18 1385 8 0 0 0
20 1384 9 0 0 0
22 1385 7 0 0 0
24 1380 9 0 0 0
26 1380 10 0 2 0
28 1383 10 0 0 0
30 1383 7 0 1 0
32 1381 10 0 2 0
34 1386 8 0 1 0
36 1382 12 0 1 0
38 1385 8 0 2 0
40 1380 13 0 1 0
42 1384 10 0 1 0
44 1388 10 0 0 0
46 1390 8 0 1 0
48 1389 6 0 0 0
50 1387 7 0 0 0
52 1186 0 206 0 0
54 1035 0 355 2 0
56 915 1 475 0 0
58 815 0 574 0 0
60 717 0 669 1 0
62 636 0 750 2 0
64 558 0 828 0 0
66 486 0 897 2 2
68 425 0 960 0 0
70 366 1 1013 0 1
72 323 0 1057 0 0
74 281 0 1099 0 0
76 246 0 1135 1 0
78 229 0 1150 0 0
80 201 0 1177 0 0
82 181 0 1196 0 0
84 163 0 1212 1 0
86 137 1 1240 0 0
88 122 0 1254 0 1
90 107 0 1270 0 0
92 93 0 1283 0 0
94 80 0 1295 0 0
96 70 0 1306 0 0
98 65 0 1307 0 0
100 57 0 1313 2 0
102 56 0 1316 0 1
104 54 0 1322 0 0
106 50 0 1325 0 0
108 45 0 1328 0 0
110 35 0 1336 0 0
112 31 0 1340 1 0
114 33 0 1340 0 0
116 29 0 1345 0 0
118 27 0 1347 0 0
120 28 0 1347 1 0
122 25 0 1350 0 0
124 25 0 1351 0 0
126 24 0 1353 0 0
128 20 0 1357 0 1
130 20 0 1356 0 1
132 20 0 1354 0 1
134 21 0 1356 0 0
136 20 0 1356 0 0
138 20 0 1358 1 1
140 19 0 1359 0 2
142 18 0 1363 0 0
144 18 0 1362 0 0
146 19 0 1363 0 0
148 15 0 1364 0 1
150 14 0 1364 0 2
152 13 0 1365 0 1
154 9 0 1367 2 1
156 13 0 1367 0 2
158 12 0 1366 1 0
160 10 0 1368 2 0
162 11 0 1368 0 0
164 12 0 1367 0 1
166 11 0 1364 0 1
168 10 0 1364 0 0
170 9 0 1363 0 0
172 8 0 1363 0 0
174 9 0 1364 0 1
176 9 0 1364 0 1
178 6 0 1368 0 0
180 10 0 1363 1 1
182 9 0 1364 0 1
184 11 0 1361 1 2
186 11 0 1363 0 0
188 11 0 1364 0 1
190 11 0 1364 0 0
192 9 0 1366 0 0
194 10 0 1368 0 0
196 10 0 1364 0 1
198 8 0 1367 1 0
200 11 0 1365 0 1
