0 493 0 0 0 0
2 484 0 0 0 0
4.00004 485 0 0 0 0
6 485 0 0 0 0
8 484 0 0 1 0
10 485 0 0 1 0
12 486 0 0 1 0
14 485 0 0 1 0
16 483 0 0 3 0
18 485 0 0 1 0
20 488 0 0 0 0
22 489 0 0 0 0
24 491 0 0 0 0
26 488 0 0 1 0
28 484 0 0 0 0
30 487 0 0 1 0
32 482 0 0 1 0
34 483 0 0 0 0
36 482 0 0 2 0
38 488 0 0 0 0
40 486 0 0 1 0
42 485 0 0 1 0
44 487 0 0 0 0
46 485 0 0 1 0
48 486 0 0 0 0
50 487 0 0 0 0
52 488 0 0 0 0
54 487 0 0 0 0
56 484 0 0 2 0
58 482 0 0 2 0
60 479 0 0 0 0
62 480 0 1 0 0
64 479 0 1 1 0
66 476 0 2 2 0
68 477 0 3 0 0
70 476 0 5 0 0
72 474 0 7 2 0
74 474 0 9 0 0
76 472 0 10 2 0
78 468 0 10 0 0
80 466 0 11 0 0
82 465 0 12 0 0
84 465 0 14 0 0
86 464 0 15 1 0
88 466 0 15 0 0
90 463 0 15 1 0
92 461 0 15 1 0
94 460 0 15 1 0
96 460 0 16 0 1
98 456 0 20 1 0
100 451 0 21 1 0
102 451 0 24 0 0
104 451 0 24 0 1
106 448 0 25 1 0
108 446 0 25 1 0
110 444 0 25 1 0
112 443 0 25 1 0
114 440 0 25 0 0
116 438 0 26 0 0
118 437 0 28 1 1
120 434 0 31 0 0
122 430 0 31 1 0
124 427 0 32 1 0
126 427 0 32 0 1
128 424 0 34 1 0
130 425 0 34 0 0
132 424 0 35 0 0
134 423 0 36 0 0
136 421 0 35 0 1
138 414 0 36 3 1
140 415 0 40 0 0
142 414 0 42 0 0
144 414 0 42 0 1
146 412 0 44 1 0
148 411 0 45 1 0
150 407 0 45 2 1
152 405 0 48 0 0
154 405 0 49 0 0
156 404 0 49 1 1
158 403 0 53 0 0
160 402 0 55 1 0
162 401 0 55 1 1
164 399 0 55 2 2
166 401 0 56 0 1
168 399 0 58 0 0
170 398 0 59 0 0
172 398 0 59 0 0
174 398 0 61 0 0
176 397 0 63 1 0
178 398 0 64 0 2
180 393 0 67 1 0
182 391 0 67 1 0
184 391 0 68 0 0
186 390 0 68 0 0
188 387 0 69 1 0
190 387 0 71 0 0
192 386 0 71 0 0
194 386 0 72 0 0
196 383 0 72 1 0
198 383 0 73 1 0
200 381 0 74 0 0
