0 91 0 0 0
2 91 0 0 0
4.00004 91 0 0 0
6 91 0 0 0
8 91 0 0 0
10 91 0 0 0
12 77 14 0 0
14 69 22 0 0
16 57 33 1 0
18 54 36 0 0
20 48 42 0 0
22 42 48 0 0
24 38 52 0 0
26 34 56 0 0
28 27 63 0 0
30 25 65 0 0
32 24 66 0 0
34 22 68 0 0
36 18 72 0 0
38 12 78 0 0
40 11 78 0 0
42 8 81 0 0
44 6 83 0 0
46 6 83 0 0
48 6 84 0 0
50 5 85 0 0
52 5 84 0 0
54 5 84 0 0
56 4 85 0 0
58 3 86 0 0
60 3 86 0 0
62 3 86 0 0
64 3 86 0 0
66 2 86 0 0
68 1 88 0 0
70 1 88 0 0
72 1 88 0 0
74 1 88 0 0
76 1 88 0 0
78 1 87 0 0
80 1 87 0 0
82 2 87 0 0
84 2 87 0 0
86 2 87 0 0
88 3 87 0 0
90 3 88 0 0
92 2 88 0 0
94 2 88 0 0
96 2 88 0 0
98 0 90 0 0
100 0 90 0 0
102 0 90 0 0
104 0 90 0 0
106 0 90 0 0
108 1 90 0 0
110 0 91 0 0
112 0 91 0 0
114 0 91 0 0
116 0 91 0 0
118 1 91 0 0
120 1 91 0 0
122 1 91 0 0
124 1 91 0 0
126 1 91 0 0
128 1 90 0 0
130 2 90 0 0
132 1 91 0 0
134 1 91 0 0
136 1 91 0 0
138 1 91 0 0
140 0 92 0 0
142 0 92 0 0
144 0 92 0 0
146 0 92 0 0
148 0 92 0 0
150 1 92 0 0
152 1 92 0 0
154 1 92 0 0
156 2 92 0 0
158 3 92 0 0
160 2 93 0 0
162 2 93 0 0
164 2 93 0 0
166 2 93 0 0
168 2 93 0 0
170 2 93 0 0
172 2 93 0 0
174 2 93 0 0
176 3 93 0 0
178 2 94 0 0
180 2 94 0 0
182 2 94 0 0
184 2 94 0 0
186 2 94 0 0
188 2 94 0 0
190 2 94 0 0
192 1 95 0 0
194 1 95 0 0
196 1 95 0 0
198 1 93 0 0
200 1 93 0 0
202 1 93 0 0
204 0 94 0 0
206 0 93 0 0
208 0 93 0 0
210 1 93 0 0
