0 69 0 0 0
2 69 0 0 0
4.00004 69 0 0 0
6 69 0 0 0
8 69 0 0 0
10 69 0 0 0
12 69 0 0 0
14 69 0 0 0
16 69 0 0 0
18 69 0 0 0
20 69 0 0 0
22 69 0 0 0
24 69 0 0 0
26 69 0 0 0
28 69 0 0 0
30 69 0 0 0
32 69 0 0 0
34 69 1 0 0
36 69 1 0 0
38 69 1 0 0
40 69 1 0 0
42 69 1 0 0
44 69 1 0 0
46 69 1 0 0
48 69 1 0 0
50 69 1 0 0
52 69 1 0 0
54 69 1 0 0
56 69 1 0 0
58 69 1 0 0
60 69 1 0 0
62 69 1 0 0
64 69 1 0 0
66 69 1 0 0
68 69 1 0 0
70 69 1 0 0
72 69 1 0 0
74 69 1 0 0
76 68 1 0 0
78 69 1 0 0
80 69 1 0 0
82 69 2 0 0
84 69 2 0 0
86 69 2 0 0
88 69 3 0 0
90 69 3 0 0
92 69 3 0 0
94 69 3 0 0
96 69 3 0 0
98 69 3 0 0
100 69 3 0 0
102 69 3 0 0
104 69 4 0 0
106 69 4 0 0
108 69 4 0 0
110 69 4 0 0
112 69 4 0 0
114 69 4 0 0
116 69 4 0 0
118 69 4 0 0
120 69 4 0 0
122 69 4 0 0
124 69 5 0 0
126 69 5 0 0
128 68 5 0 0
130 68 5 0 0
132 67 5 0 0
134 67 5 0 0
136 67 5 0 0
138 67 5 0 0
140 67 5 0 0
142 67 5 0 0
144 67 5 0 0
146 67 5 0 0
148 67 5 0 0
150 67 6 0 0
152 67 5 0 0
154 67 5 0 0
156 67 5 0 0
158 67 5 0 0
160 67 6 0 0
162 67 6 0 0
164 67 6 0 0
166 67 6 0 0
168 67 6 0 0
170 67 6 0 0
172 67 6 0 0
174 67 6 0 0
176 67 7 0 0
178 67 7 0 0
180 67 7 0 0
182 67 7 0 0
184 67 7 0 0
186 67 7 0 0
188 67 7 0 0
190 67 8 0 0
192 67 8 0 0
194 67 8 0 0
196 66 8 0 0
198 66 8 0 0
200 66 8 0 0
202 66 8 0 0
204 66 8 0 0
206 66 8 0 0
208 66 8 0 0
210 65 8 0 0
