0 82 0 0 0
2 83 0 0 0
4.00004 83 0 0 0
6 83 0 0 0
8 83 0 0 0
10 83 0 0 0
12 69 14 0 0
14 58 25 0 0
16 51 32 0 0
18 47 36 0 0
20 35 48 0 0
22 30 53 0 0
24 27 56 0 0
26 22 61 0 0
28 20 63 0 0
30 17 65 0 0
32 16 66 0 0
34 8 74 0 0
36 6 75 0 0
38 6 75 0 0
40 5 76 0 0
42 5 75 0 0
44 5 75 0 0
46 5 76 0 0
48 5 76 0 0
50 2 79 0 0
52 1 80 0 0
54 1 80 0 0
56 0 81 0 0
58 0 81 0 0
60 0 81 0 0
62 0 81 0 0
64 0 81 1 0
66 1 81 0 0
68 1 81 0 0
70 1 80 0 0
72 1 79 0 0
74 1 79 0 0
76 1 79 0 0
78 1 79 0 0
80 1 79 0 0
82 1 79 0 0
84 1 79 0 0
86 2 79 0 0
88 2 79 0 0
90 1 80 0 0
92 1 80 0 0
94 1 80 0 0
96 1 80 0 0
98 1 80 0 0
100 1 80 0 0
102 1 80 1 0
104 2 80 0 0
106 2 80 0 0
108 2 80 0 0
110 2 80 0 0
112 2 80 0 0
114 2 80 0 0
116 2 80 0 0
118 2 80 0 0
120 1 81 0 0
122 1 81 0 0
124 1 81 0 0
126 1 81 0 0
128 1 81 0 0
130 1 81 0 0
132 1 81 0 0
134 1 81 0 0
136 1 81 0 0
138 1 81 0 0
140 0 82 0 0
142 0 82 0 0
144 1 82 0 0
146 1 82 0 0
148 1 82 0 0
150 1 82 0 0
152 0 83 0 0
154 0 83 0 0
156 0 83 0 0
158 0 83 0 0
160 0 83 0 0
162 0 83 0 0
164 0 83 0 0
166 0 83 0 0
168 0 83 0 0
170 0 83 0 0
172 0 83 0 0
174 0 83 0 0
176 0 83 0 0
178 0 83 0 0
180 0 83 0 0
182 0 83 0 0
184 0 84 0 0
186 0 84 0 0
188 0 84 0 0
190 0 84 0 0
192 0 84 0 0
194 0 84 0 0
196 0 84 0 0
198 0 84 0 0
200 0 84 0 0
202 0 84 0 0
204 0 84 0 0
206 0 84 0 0
208 0 84 0 0
210 0 84 0 0
