0 1399 0 0 0 0
2 1278 6 0 107 0
4.00004 1252 9 0 127 0
6 1237 5 0 137 0
8 1225 6 0 138 0
10 1190 5 0 161 0
12 1167 4 0 152 0
14 1160 7 0 153 0
16 1161 8 0 149 0
18 1146 7 0 142 0
20 1138 7 0 154 0
22 1147 5 0 150 0
24 1160 7 0 132 0
26 1152 8 0 144 0
28 1151 8 0 154 0
30 1156 7 0 143 0
32 1149 9 0 125 0
34 1131 7 0 140 0
36 1111 14 0 151 0
38 1143 7 0 131 0
40 1128 10 0 152 0
42 1118 6 0 176 0
44 1115 9 0 179 0
46 1133 7 0 129 0
48 1100 10 0 163 0
50 1096 10 0 161 0
52 926 0 183 149 6
54 834 0 292 138 13
56 713 0 397 149 15
58 648 1 469 138 20
60 617 0 514 106 46
62 546 1 590 113 40
64 505 0 638 98 63
66 461 0 684 103 56
68 438 0 713 88 59
70 423 1 743 76 76
72 365 0 784 85 62
74 348 0 819 75 60
76 332 0 812 73 86
78 314 0 832 67 86
80 302 0 853 52 85
82 296 0 872 53 87
84 260 0 893 50 81
86 247 1 908 41 75
88 227 0 943 50 80
90 222 0 930 40 121
92 194 0 943 44 116
94 195 0 966 33 93
96 187 1 990 36 97
98 187 0 973 25 120
100 173 0 979 26 108
102 177 0 985 31 106
104 170 0 1005 24 132
106 154 0 1007 28 111
108 139 0 1017 26 128
110 130 0 1017 20 138
112 117 0 1036 13 106
114 111 0 1048 20 104
116 108 0 1046 18 135
118 95 0 1035 21 130
120 92 0 1021 19 140
122 87 0 1029 16 150
124 83 0 1061 17 138
126 73 0 1082 18 124
128 69 0 1059 20 138
130 65 0 1110 9 146
132 61 0 1096 9 154
134 55 1 1104 9 145
136 49 0 1081 13 148
138 48 0 1079 15 161
140 42 0 1102 9 157
142 40 0 1093 11 167
144 40 0 1099 12 123
146 32 0 1106 15 136
148 28 0 1115 6 128
150 28 0 1087 11 136
152 33 0 1082 4 142
154 34 0 1067 8 160
156 29 0 1065 9 145
158 26 0 1083 9 133
160 22 0 1089 7 130
162 25 0 1088 1 142
164 21 0 1087 8 147
166 24 0 1078 6 151
168 25 0 1101 6 167
170 21 0 1115 4 133
172 24 0 1106 5 152
174 21 0 1107 4 152
176 20 0 1121 5 126
178 20 0 1141 0 133
180 17 0 1132 1 142
182 13 0 1132 4 151
184 12 0 1121 3 152
186 14 0 1143 2 135
188 14 0 1108 2 161
190 12 0 1132 4 143
192 12 0 1144 1 134
194 8 0 1137 0 160
196 9 0 1143 2 152
198 6 0 1163 2 147
200 8 0 1151 3 167
