0 513 0 0 0 0
2 390 0 0 109 0
4.00004 367 0 0 135 0
6 367 0 0 142 0
8 394 0 0 112 0
10 389 0 0 133 0
12 409 0 0 128 0
14 402 0 0 162 0
16 393 0 0 154 0
18 389 0 0 112 0
20 394 0 0 134 0
22 404 0 0 131 0
24 402 0 0 140 0
26 422 0 0 135 0
28 420 0 0 156 0
30 439 0 0 137 0
32 431 0 0 140 0
34 415 0 0 159 0
36 433 0 0 139 0
38 412 0 0 155 0
40 442 0 0 127 0
42 422 0 0 136 0
44 428 0 0 145 0
46 419 0 0 142 0
48 423 0 0 158 0
50 408 0 0 143 0
52 424 0 0 134 1
54 410 0 0 157 4
56 400 0 5 140 2
58 390 0 11 140 9
60 397 0 21 130 18
62 365 0 28 136 22
64 384 0 46 112 30
66 376 0 53 97 37
68 350 0 66 98 35
70 344 0 90 90 35
72 320 0 94 110 54
74 301 0 117 94 51
76 294 0 120 91 61
78 288 0 126 81 51
80 262 0 135 83 66
82 253 0 154 77 58
84 227 0 176 71 70
86 209 0 195 77 69
88 212 0 207 66 67
90 214 0 200 54 73
92 184 0 205 61 82
94 177 0 221 51 92
96 169 0 237 56 83
98 167 0 249 45 84
100 156 0 255 46 84
102 147 0 252 49 88
104 160 0 271 41 104
106 153 0 278 42 105
108 141 0 281 54 107
110 137 0 299 32 104
112 130 0 322 36 96
114 116 0 336 40 107
116 117 0 332 31 114
118 110 0 327 26 113
120 112 0 323 24 114
122 111 0 322 28 117
124 104 0 321 27 119
126 90 0 336 30 115
128 85 0 352 31 129
130 89 0 340 31 105
132 91 0 345 24 110
134 75 0 340 29 113
136 79 0 337 13 132
138 71 0 346 22 134
140 72 0 336 17 125
142 67 0 352 17 130
144 63 0 377 23 123
146 67 0 369 16 151
148 60 0 389 9 122
150 47 0 358 15 157
152 39 0 346 15 147
154 46 0 368 11 142
156 47 0 377 11 134
158 45 0 372 12 144
160 40 0 381 12 160
162 34 0 396 16 136
164 36 0 401 7 140
166 31 0 389 10 142
168 32 0 383 5 144
170 30 0 405 8 146
172 29 0 400 8 130
174 33 0 399 8 123
176 28 0 385 9 135
178 29 0 387 7 131
180 27 0 401 7 127
182 23 0 408 11 122
184 22 0 375 4 143
186 22 0 375 9 132
188 24 0 400 9 136
190 27 0 395 6 127
192 20 0 389 8 123
194 25 0 384 4 147
196 24 0 384 6 154
198 18 0 397 3 154
200 17 0 394 5 143
