0 1160 0 0 0 0 0
2 1130 0 0 27 0 0
4.00004 1125 0 0 33 0 0
6 1119 0 0 37 0 0
8 1111 0 0 40 0 0
10 1095 0 0 56 0 0
12 1107 0 0 40 0 0
14 1101 0 0 46 0 0
16 1090 0 0 54 0 0
18 1086 0 0 58 0 0
20 1082 0 0 63 0 0
22 1094 0 0 47 0 0
24 1091 0 0 43 0 0
26 1083 0 0 46 0 0
28 1066 0 0 60 0 0
30 1074 0 0 52 0 0
32 1065 0 0 56 0 0
34 1068 0 0 54 0 0
36 1064 0 0 51 0 0
38 1062 0 0 47 0 0
40 1062 0 0 46 0 0
42 1053 0 0 54 0 0
44 1056 0 0 44 0 0
46 1059 0 0 42 0 0
48 1057 0 0 42 0 0
50 1059 0 0 38 0 0
52 1050 0 2 34 7 0
54 1030 0 6 43 13 0
56 1028 0 12 36 17 0
58 1018 0 18 40 18 0
60 1021 0 26 26 23 0
62 1010 0 31 29 24 0
64 1006 0 40 28 19 0
66 1004 0 49 28 15 0
68 989 0 58 35 8 0
70 984 0 58 34 17 0
72 973 0 64 36 18 0
74 968 0 69 31 21 0
76 965 0 72 27 22 0
78 957 0 84 28 17 0
80 955 0 88 27 18 0
82 944 0 94 30 20 0
84 931 0 98 36 13 0
86 929 0 104 27 17 0
88 929 0 113 19 18 0
90 912 0 119 32 20 0
92 913 0 121 25 16 0
94 913 0 123 24 12 0
96 905 0 125 25 16 0
98 899 0 124 24 16 0
100 887 0 132 33 21 0
102 880 0 143 31 14 0
104 873 0 146 30 24 0
106 866 0 153 32 15 0
108 864 0 157 24 19 0
110 854 0 162 30 15 0
112 854 0 155 24 32 0
114 836 0 166 35 29 0
116 839 0 171 23 29 0
118 831 0 179 24 25 0
120 828 0 193 20 20 0
122 819 0 200 24 19 0
124 814 0 201 23 24 0
126 799 0 208 34 19 0
128 798 0 214 24 16 0
130 799 0 218 17 22 0
132 793 0 219 15 24 0
134 789 0 226 17 24 0
136 783 0 232 20 30 0
138 765 0 243 27 20 0
140 756 0 245 29 24 0
142 746 0 255 32 22 0
144 735 0 259 27 31 0
146 725 0 264 31 30 0
148 716 0 274 32 30 0
150 717 0 287 25 25 0
152 708 0 290 25 20 0
154 707 0 294 22 20 0
156 698 0 299 25 20 0
158 688 0 300 29 27 0
160 687 0 305 26 26 0
162 685 0 312 21 29 0
164 673 0 322 23 30 0
166 665 0 327 24 22 0
168 664 0 329 20 26 0
170 662 0 333 17 26 0
172 652 0 339 23 19 0
174 650 0 346 24 14 0
176 652 0 345 19 23 0
178 658 0 345 9 31 0
180 652 0 357 12 21 0
182 637 0 355 24 30 0
184 631 0 363 18 28 0
186 622 0 370 19 22 0
188 619 0 373 19 29 0
190 617 0 379 13 30 0
192 603 0 379 24 34 0
194 611 0 384 11 35 0
196 608 0 388 12 31 0
198 600 0 387 16 31 0
200 595 0 392 20 27 0
