0 937 0 0 0 0 0
2 900 0 0 35 0 0
4.00004 903 0 0 30 0 0
6 898 0 0 36 0 0
8 883 0 0 59 0 0
10 876 0 0 61 0 0
12 877 0 0 62 0 0
14 870 0 0 73 0 0
16 871 0 0 76 0 0
18 872 0 0 77 0 0
20 871 0 0 75 0 0
22 859 0 0 80 0 0
24 866 0 0 77 0 0
26 855 0 0 88 0 0
28 859 0 0 90 0 0
30 862 0 0 91 0 0
32 850 0 0 103 0 0
34 850 0 0 95 0 0
36 844 0 0 97 0 0
38 846 0 0 91 0 0
40 843 0 0 94 0 0
42 851 0 0 88 0 0
44 841 0 0 98 0 0
46 834 0 0 111 0 0
48 828 0 0 116 0 0
50 825 0 0 111 0 0
52 843 0 0 95 2 0
54 827 0 0 102 5 0
56 830 0 0 94 9 0
58 825 0 0 89 18 0
60 833 0 2 67 13 0
62 821 0 5 76 16 0
64 812 0 7 77 27 0
66 821 0 8 71 29 0
68 815 0 11 69 29 0
70 829 0 16 52 32 0
72 821 0 19 57 31 0
74 811 0 26 67 25 0
76 820 0 26 52 35 0
78 809 0 29 57 36 0
80 808 0 33 53 35 0
82 805 0 34 57 34 0
84 791 0 36 65 31 0
86 789 0 42 66 33 0
88 791 0 51 59 26 0
90 784 0 55 60 27 0
92 784 0 61 57 36 0
94 782 0 68 57 29 0
96 777 0 65 57 37 0
98 772 0 68 57 34 0
100 774 0 79 51 29 0
102 773 0 81 49 29 0
104 767 0 85 50 34 0
106 759 0 91 53 31 0
108 760 0 92 49 34 0
110 745 0 90 63 35 0
112 756 0 100 47 29 0
114 748 0 100 53 36 0
116 742 0 103 53 28 0
118 745 0 105 46 27 0
120 738 0 109 47 29 0
122 724 0 113 56 22 0
124 724 0 114 52 27 0
126 718 0 117 55 26 0
128 716 0 114 53 34 0
130 715 0 114 54 36 0
132 721 0 118 49 44 0
134 709 0 118 58 49 0
136 701 0 129 58 43 0
138 695 0 132 63 41 0
140 693 0 137 62 35 0
142 689 0 140 58 29 0
144 690 0 140 53 42 0
146 686 0 143 55 43 0
148 690 0 142 52 51 0
150 687 0 142 46 45 0
152 680 0 147 57 47 0
154 682 0 145 54 50 0
156 676 0 148 59 53 0
158 678 0 153 53 49 0
160 679 0 153 46 44 0
162 671 0 157 49 49 0
164 660 0 152 57 56 0
166 665 0 153 49 60 0
168 663 0 165 53 48 0
170 660 0 168 54 56 0
172 655 0 170 57 46 0
174 649 0 176 57 52 0
176 655 0 178 44 52 0
178 644 0 190 49 46 0
180 644 0 188 48 56 0
182 638 0 195 52 55 0
184 650 0 196 38 50 0
186 638 0 195 47 50 0
188 635 0 201 44 47 0
190 632 0 206 49 41 0
192 638 0 208 41 46 0
194 639 0 209 38 48 0
196 639 0 213 35 50 0
198 634 0 219 38 40 0
200 626 0 220 44 44 0
