0 1075 0 0 0 0 0
2 1061 0 0 19 0 0
4.00004 1043 0 0 39 0 0
6 1050 0 0 33 0 0
8 1035 0 0 42 0 0
10 1033 0 0 45 0 0
12 1023 0 0 54 0 0
14 1022 0 0 53 0 0
16 1024 0 0 44 0 0
18 1021 0 0 51 0 0
20 1022 0 0 50 0 0
22 1017 0 0 58 0 0
24 1016 0 0 62 0 0
26 1018 0 0 61 0 0
28 1024 0 0 52 0 0
30 1021 0 0 57 0 0
32 1022 0 0 55 0 0
34 1029 0 0 48 0 0
36 1014 0 0 58 0 0
38 1017 0 0 58 0 0
40 1017 0 0 57 0 0
42 1017 0 0 67 0 0
44 1023 0 0 54 0 0
46 1024 0 0 65 0 0
48 1025 0 0 55 0 0
50 1033 0 0 48 0 0
52 1028 0 0 47 3 0
54 1022 0 0 46 10 0
56 1016 0 0 47 13 0
58 1024 0 1 35 15 0
60 1027 0 4 30 21 0
62 1026 0 8 26 18 0
64 1026 0 14 26 20 0
66 1022 0 17 26 16 0
68 1014 0 21 29 18 0
70 1003 0 23 38 18 0
72 1003 0 26 37 20 0
74 991 0 30 42 16 0
76 996 0 36 33 17 0
78 987 0 35 38 20 0
80 986 0 40 34 18 0
82 980 0 45 39 16 0
84 981 0 49 31 17 0
86 972 0 50 37 19 0
88 966 0 51 39 24 0
90 971 0 56 31 19 0
92 964 0 59 34 25 0
94 963 0 63 30 27 0
96 960 0 66 29 31 0
98 960 0 71 26 24 0
100 951 0 78 29 13 0
102 946 0 74 31 27 0
104 952 0 82 21 19 0
106 944 0 85 24 26 0
108 936 0 88 31 25 0
110 937 0 91 26 28 0
112 934 0 96 24 23 0
114 934 0 97 24 27 0
116 931 0 94 21 31 0
118 923 0 99 27 33 0
120 925 0 103 24 28 0
122 921 0 103 26 31 0
124 912 0 112 32 23 0
126 906 0 112 33 27 0
128 903 0 111 32 30 0
130 904 0 118 29 27 0
132 893 0 122 32 24 0
134 900 0 125 23 14 0
136 891 0 129 29 22 0
138 895 0 133 23 23 0
140 892 0 140 24 20 0
142 885 0 145 31 16 0
144 876 0 147 38 15 0
146 879 0 145 32 18 0
148 879 0 149 29 23 0
150 881 0 151 20 22 0
152 877 0 156 20 20 0
154 874 0 154 21 28 0
156 866 0 157 27 30 0
158 858 0 163 29 24 0
160 861 0 164 25 29 0
162 856 0 167 31 20 0
164 855 0 167 27 28 0
166 858 0 168 21 28 0
168 860 0 170 18 35 0
170 854 0 175 23 34 0
172 857 0 184 20 26 0
174 852 0 187 23 24 0
176 848 0 192 25 19 0
178 844 0 193 25 23 0
180 848 0 192 23 31 0
182 844 0 204 23 16 0
184 832 0 201 35 21 0
186 822 0 204 37 20 0
188 824 0 209 34 18 0
190 814 0 210 40 19 0
192 818 0 213 32 20 0
194 821 0 213 25 21 0
196 817 0 213 27 25 0
198 820 0 213 24 36 0
200 815 0 217 23 33 0
