0 822 0 0 0 0 0
2 815 2 0 23 0 7
4.00004 797 1 0 28 0 14
6 809 0 0 19 0 5
8 806 0 0 25 0 10
10 807 0 0 19 0 12
12 815 0 0 17 0 11
14 807 0 0 25 0 9
16 807 0 0 23 0 15
18 804 0 0 21 0 17
20 807 0 0 19 0 14
22 804 0 0 28 0 19
24 820 0 0 20 0 12
26 819 0 0 22 0 11
28 818 0 0 21 0 6
30 820 0 0 17 0 13
32 819 0 0 22 0 9
34 815 0 0 15 0 18
36 814 0 0 24 0 10
38 813 0 0 22 0 9
40 817 0 0 20 0 9
42 813 0 0 22 0 10
44 808 0 0 25 0 15
46 815 0 0 21 0 3
48 813 0 0 14 0 15
50 816 0 0 20 0 4
52 794 0 20 9 15 0
54 768 0 35 6 29 1
56 746 0 59 1 30 0
58 717 0 85 9 29 0
60 694 0 108 7 30 0
62 675 0 130 3 30 0
64 652 0 157 4 27 0
66 637 0 168 3 26 0
68 614 0 188 1 32 0
70 593 0 203 4 32 0
72 572 0 226 5 20 0
74 540 0 242 2 42 0
76 518 0 268 4 37 0
78 499 0 284 9 36 1
80 475 0 317 8 30 1
82 459 0 324 4 35 0
84 445 0 343 5 39 0
86 430 0 364 8 35 0
88 413 0 383 6 35 0
90 397 0 402 6 37 0
92 385 0 414 2 39 1
94 371 0 435 2 32 0
96 362 0 444 2 33 0
98 351 0 452 3 30 0
100 340 0 458 2 37 0
102 329 0 472 6 30 0
104 316 0 484 3 25 0
106 311 0 485 3 28 0
108 299 0 494 3 28 0
110 295 0 511 4 19 0
112 285 0 513 7 23 0
114 282 0 523 1 24 0
116 275 0 530 3 22 0
118 269 0 539 4 22 0
120 254 0 546 2 31 0
122 247 0 552 3 33 0
124 243 0 560 6 36 0
126 236 0 572 2 33 0
128 230 0 582 2 23 0
130 222 0 579 2 35 0
132 217 0 591 2 29 0
134 207 0 596 4 32 0
136 201 0 607 2 30 0
138 194 0 619 5 23 0
140 185 0 621 3 27 0
142 179 0 623 3 32 0
144 170 0 628 3 33 0
146 166 0 644 0 22 0
148 159 0 647 2 31 0
150 152 0 660 1 27 0
152 150 0 664 2 26 0
154 145 0 664 1 30 0
156 139 0 665 5 33 0
158 135 0 666 1 34 0
160 129 0 663 4 33 0
162 127 0 668 4 37 0
164 123 0 673 4 25 0
166 119 0 668 2 34 0
168 117 0 669 5 35 0
170 117 0 666 4 40 0
172 113 0 678 2 35 0
174 110 0 684 2 30 0
176 106 0 690 1 25 0
178 98 0 685 1 34 0
180 95 0 692 5 25 1
182 94 0 688 1 39 0
184 90 0 686 1 35 0
186 84 0 694 3 35 0
188 81 0 704 5 25 0
190 81 0 708 2 28 0
192 79 0 711 1 30 0
194 78 0 710 1 29 0
196 74 0 709 2 33 0
198 73 0 716 3 31 0
200 70 0 716 2 32 0
