0 975 0 0 0 0 0
2 954 0 0 32 0 0
4.00004 938 0 0 53 0 0
6 926 0 0 58 0 0
8 931 0 0 55 0 0
10 920 0 0 69 0 0
12 931 0 0 62 0 0
14 917 0 0 74 0 0
16 917 0 0 69 0 0
18 910 0 0 73 0 0
20 900 0 0 89 0 0
22 899 0 0 94 0 0
24 888 0 0 100 0 0
26 888 0 0 94 0 0
28 890 0 0 95 0 0
30 882 0 0 96 0 0
32 892 0 0 83 0 0
34 897 0 0 81 0 0
36 890 0 0 89 0 0
38 876 0 0 109 0 0
40 883 0 0 94 0 0
42 875 0 0 101 0 0
44 875 0 0 104 0 0
46 879 0 0 99 0 0
48 880 0 0 95 0 0
50 881 0 0 93 0 0
52 884 0 0 91 2 0
54 872 0 1 88 1 0
56 868 0 1 91 3 0
58 859 0 1 94 10 0
60 864 0 1 85 12 0
62 877 0 0 64 16 0
64 874 0 1 61 18 0
66 869 0 2 69 24 0
68 864 0 3 74 22 0
70 864 0 5 71 23 0
72 859 0 5 70 29 0
74 852 0 6 75 36 0
76 849 0 6 74 36 0
78 843 0 10 79 35 0
80 846 0 10 72 35 0
82 830 0 13 83 33 0
84 824 0 18 86 34 0
86 820 0 20 79 36 0
88 825 0 25 76 30 0
90 821 0 29 77 33 0
92 828 0 34 68 33 0
94 825 0 36 69 31 0
96 816 0 40 72 24 0
98 823 0 38 65 33 0
100 811 0 48 74 27 0
102 808 0 48 71 30 0
104 806 0 50 74 23 0
106 806 0 49 65 30 0
108 797 0 50 72 29 0
110 805 0 55 62 27 0
112 802 0 54 61 30 0
114 806 0 54 55 37 0
116 801 0 56 50 32 0
118 792 0 61 58 35 0
120 794 0 59 53 41 0
122 797 0 61 46 41 0
124 790 0 67 48 42 0
126 791 0 72 49 44 0
128 777 0 72 62 46 0
130 784 0 74 52 42 0
132 778 0 81 59 40 0
134 771 0 80 64 47 0
136 769 0 80 63 49 0
138 773 0 87 51 50 0
140 758 0 94 64 40 0
142 751 0 94 67 48 0
144 753 0 98 62 46 0
146 748 0 102 67 40 0
148 744 0 103 69 50 0
150 731 0 105 79 56 0
152 733 0 108 73 48 0
154 741 0 118 59 42 0
156 740 0 115 55 40 0
158 732 0 117 61 46 0
160 733 0 121 56 45 0
162 737 0 118 52 54 0
164 732 0 126 52 49 0
166 727 0 126 54 58 0
168 721 0 131 58 55 0
170 716 0 136 60 49 0
172 718 0 136 58 55 0
174 706 0 137 62 57 0
176 708 0 137 59 55 0
178 720 0 144 46 52 0
180 715 0 148 53 55 0
182 703 0 156 63 54 0
184 702 0 161 58 43 0
186 707 0 163 52 47 0
188 695 0 167 66 43 0
190 693 0 169 59 42 0
192 683 0 166 62 46 0
194 691 0 172 51 39 0
196 682 0 171 58 51 0
198 680 0 168 58 59 0
200 675 0 176 60 52 0
