0 953 0 0 0 0 0
2 924 3 0 20 0 6
4.00004 920 2 0 24 0 11
6 911 0 0 35 0 12
8 919 0 0 28 0 13
10 921 0 0 37 0 8
12 932 0 0 24 0 9
14 922 0 0 31 0 16
16 925 0 0 32 0 19
18 933 0 0 25 0 14
20 937 0 0 27 0 7
22 931 0 0 30 0 13
24 924 0 0 32 0 14
26 925 0 0 27 0 16
28 924 0 0 30 0 13
30 928 0 0 18 0 17
32 923 0 0 23 0 15
34 910 0 0 32 0 18
36 911 0 0 29 0 16
38 914 0 0 26 0 22
40 910 0 0 27 0 19
42 904 0 0 39 0 13
44 912 0 0 33 0 13
46 897 0 0 30 0 24
48 905 0 0 35 0 24
50 914 0 0 43 0 13
52 886 0 34 10 36 0
54 860 0 66 9 37 0
56 832 0 96 12 34 0
58 804 0 119 7 45 0
60 778 0 156 4 31 0
62 750 0 180 5 41 0
64 724 0 210 7 38 0
66 703 0 229 6 36 0
68 683 0 249 9 25 0
70 667 0 265 5 27 0
72 645 0 280 8 32 0
74 621 0 311 7 25 0
76 604 0 325 7 31 0
78 595 0 339 8 29 0
80 576 0 350 7 31 0
82 552 0 369 8 38 0
84 543 0 392 6 31 0
86 534 0 404 7 29 0
88 516 0 426 8 33 0
90 505 0 441 5 30 0
92 487 0 452 8 42 0
94 472 0 461 10 45 0
96 457 0 475 5 43 0
98 441 0 484 6 51 0
100 428 0 506 7 38 0
102 422 0 514 5 48 0
104 414 0 534 2 38 0
106 402 0 547 7 36 0
108 393 0 549 2 46 0
110 376 0 556 5 48 0
112 369 0 572 3 40 0
114 356 0 581 5 44 0
116 351 0 588 4 40 0
118 346 0 585 1 44 0
120 337 0 603 6 33 0
122 330 0 616 3 25 0
124 328 0 618 3 30 0
126 320 0 617 4 34 0
128 308 0 635 3 30 0
130 303 0 640 3 32 0
132 293 0 650 6 31 0
134 286 0 652 0 40 0
136 277 0 655 1 41 0
138 268 0 663 0 39 0
140 261 0 672 2 42 0
142 254 0 680 1 45 0
144 247 0 695 7 33 0
146 239 0 688 4 48 0
148 231 0 697 2 47 0
150 227 0 702 3 43 0
152 222 0 704 3 48 0
154 214 0 717 3 52 0
156 203 0 719 3 55 0
158 194 0 729 5 48 0
160 189 0 729 2 58 0
162 184 0 746 1 44 0
164 179 0 761 4 38 0
166 174 0 771 2 32 0
168 170 0 769 2 38 0
170 168 0 766 3 46 0
172 164 0 769 2 46 0
174 154 0 780 4 39 0
176 150 0 782 4 44 0
178 144 0 790 6 42 0
180 137 0 801 3 47 0
182 133 0 801 1 45 0
184 128 0 807 4 35 0
186 123 0 805 1 49 0
188 122 0 805 1 50 0
190 120 0 809 1 44 0
192 114 0 813 3 44 0
194 110 0 819 4 44 0
196 106 0 835 3 32 0
198 104 0 835 1 35 0
200 101 0 838 3 42 0
