0 826 0 0 0 0 0
2 782 8 0 26 0 9
4.00004 779 3 0 37 0 11
6 781 0 0 27 0 20
8 782 0 0 34 0 13
10 770 0 0 44 0 14
12 759 0 0 55 0 21
14 768 0 0 48 0 12
16 772 0 0 39 0 19
18 776 0 0 42 0 16
20 781 0 0 38 0 19
22 780 0 0 32 0 17
24 768 0 0 50 0 17
26 783 0 0 37 0 17
28 772 0 0 39 0 15
30 773 0 0 46 0 9
32 781 0 0 29 0 18
34 779 0 0 35 0 11
36 778 0 0 44 0 11
38 769 0 0 36 0 19
40 764 0 0 47 0 15
42 761 0 0 38 0 20
44 772 0 0 37 0 10
46 763 0 0 44 0 18
48 779 0 0 38 0 9
50 763 0 0 57 0 13
52 746 0 23 20 45 0
54 720 0 50 20 45 0
56 690 0 80 16 47 0
58 669 0 95 11 56 0
60 649 0 119 12 54 0
62 633 0 139 12 59 0
64 603 0 170 9 58 0
66 589 0 191 10 45 0
68 571 0 204 12 46 0
70 551 0 232 8 49 0
72 529 0 250 13 39 0
74 517 0 262 12 40 0
76 499 0 287 13 42 0
78 484 0 302 14 48 0
80 476 0 313 5 54 0
82 459 0 328 7 52 0
84 448 0 343 7 55 0
86 435 0 363 9 51 0
88 429 0 370 10 46 0
90 416 0 379 7 43 0
92 398 0 394 9 47 0
94 380 0 410 8 58 0
96 363 0 440 7 43 0
98 351 0 445 7 49 0
100 337 0 451 8 59 0
102 326 0 466 11 49 0
104 320 0 474 5 47 0
106 307 0 481 9 49 0
108 297 0 494 7 42 0
110 285 0 499 7 48 1
112 278 0 509 9 52 0
114 269 0 515 5 59 1
116 256 0 521 6 60 0
118 247 0 533 10 59 0
120 244 0 546 3 56 0
122 235 0 546 9 64 0
124 225 0 564 5 55 0
126 218 0 567 3 55 0
128 209 0 579 6 51 0
130 204 0 582 2 55 0
132 196 0 589 5 55 0
134 192 0 579 6 67 0
136 189 0 591 3 61 0
138 182 0 592 3 54 0
140 180 0 601 4 47 0
142 177 0 604 6 42 0
144 173 0 604 7 45 0
146 161 0 612 6 58 0
148 150 0 623 5 49 0
150 145 0 632 2 45 0
152 136 0 642 10 45 0
154 133 0 644 10 55 0
156 125 0 653 5 60 0
158 123 0 662 7 49 0
160 120 0 667 4 50 0
162 112 0 672 5 46 0
164 110 0 675 4 47 0
166 108 0 679 3 45 0
168 105 0 683 4 48 0
170 99 0 681 10 65 0
172 97 0 687 5 60 0
174 90 0 690 10 64 0
176 88 0 702 5 57 0
178 85 0 709 5 51 0
180 84 0 705 3 57 0
182 79 0 711 1 63 0
184 76 0 715 2 60 0
186 77 0 708 1 69 0
188 76 0 708 5 69 0
190 70 0 722 9 55 0
192 74 0 726 3 54 0
194 69 0 725 2 53 0
196 66 0 732 5 46 0
198 64 0 726 4 48 0
200 60 0 743 4 41 0
