0 97 0 2102
2 95 2 2083
4 91 8 2038
6.00001 93 11 2034
8.00001 94 16 2061
10 84 22 2073
12 74 29 2052
14 74 29 2080
16 71 29 2110
18 71 29 2063
20 65 29 2056
22 67 30 2052
24 71 31 2117
26 72 29 2083
28 67 29 2059
30 67 31 2087
32 69 32 2088
34 71 31 2112
36 71 32 2091
38 66 34 2091
40 61 40 2102
42 64 43 2093
44 62 43 2088
46 59 45 2087
48 63 42 2083
50 63 42 2115
52 59 43 2099
54 61 41 2098
56 56 41 2115
58 58 43 2112
60 59 44 2090
62 58 45 2087
64 57 48 2066
66 58 49 2048
68 55 50 2070
70 58 50 2052
72 54 46 2066
74 52 49 2038
76 50 48 2047
78 49 49 2043
80 51 51 2033
82 49 50 2051
84 49 51 2041
86 51 50 2048
88 54 52 2031
90 54 51 2033
92 58 48 2057
94 58 45 2072
96 58 50 2073
98 54 50 2068
100 52 50 2074
102 53 55 2075
104 52 59 2081
106 54 58 2090
108 53 55 2068
110 49 53 2099
112 50 53 2112
114 51 60 2100
116 51 62 2114
118 47 59 2120
120 48 56 2118
122 46 57 2122
124 41 57 2107
126 41 59 2118
128 39 62 2126
130 36 67 2128
132 35 68 2148
134 33 75 2178
136 31 71 2164
138 32 71 2149
140 30 70 2147
142 30 66 2163
144 29 65 2177
146 28 65 2139
148 29 63 2158
150 24 59 2160
152 24 59 2141
154 23 57 2112
156 20 55 2105
158 19 56 2110
160 19 55 2099
162 18 59 2128
164 22 56 2154
166 22 58 2140
168 23 59 2161
170 19 61 2151
172 21 56 2086
174 19 57 2110
176 21 56 2110
178 21 60 2131
180 21 58 2115
182 22 57 2095
184 17 62 2109
186 21 56 2104
188 17 55 2123
190 18 61 2141
192 21 63 2147
194 22 64 2161
196 23 64 2152
198 23 58 2146
200 22 61 2143
