0 122 0 2447
2 113 9 2405
4 106 15 2415
6.00001 108 16 2424
8.00001 110 16 2407
10 109 16 2428
12 111 16 2425
14 109 17 2435
16 101 22 2418
18 88 26 2390
20 81 28 2404
22 81 29 2406
24 86 31 2427
26 83 33 2434
28 81 34 2460
30 84 36 2466
32 75 36 2454
34 79 36 2470
36 74 34 2474
38 72 34 2462
40 71 31 2461
42 71 33 2471
44 65 42 2455
46 66 47 2479
48 64 48 2473
50 56 51 2502
52 62 49 2495
54 63 47 2484
56 54 49 2487
58 56 49 2469
60 58 46 2483
62 57 47 2503
64 51 46 2535
66 51 44 2539
68 46 46 2517
70 47 44 2516
72 45 46 2510
74 45 51 2512
76 43 49 2515
78 47 51 2504
80 46 49 2538
82 46 50 2529
84 43 51 2547
86 46 50 2549
88 45 50 2535
90 43 52 2523
92 37 55 2537
94 37 59 2559
96 40 60 2528
98 36 57 2538
100 36 59 2511
102 34 58 2525
104 34 61 2527
106 40 63 2503
108 41 63 2502
110 43 62 2480
112 39 62 2486
114 43 62 2500
116 43 68 2519
118 47 69 2477
120 46 68 2468
122 42 68 2441
124 43 70 2452
126 47 65 2452
128 43 70 2463
130 45 70 2450
132 48 76 2465
134 52 74 2491
136 52 76 2473
138 56 79 2489
140 53 79 2453
142 53 80 2399
144 51 81 2383
146 50 78 2389
148 45 77 2402
150 47 78 2407
152 48 78 2441
154 45 81 2411
156 48 80 2383
158 45 81 2405
160 43 79 2411
162 43 81 2410
164 44 79 2435
166 40 76 2437
168 43 78 2410
170 43 76 2417
172 41 77 2441
174 38 76 2437
176 39 77 2421
178 36 79 2423
180 37 83 2462
182 35 84 2435
184 36 84 2433
186 36 87 2416
188 36 87 2403
190 35 84 2415
192 36 85 2401
194 36 84 2370
196 36 87 2399
198 35 90 2455
200 35 91 2453
