0 111 0 2235
2 109 3 2247
4 108 3 2241
6.00001 105 3 2192
8.00001 101 8 2187
10 101 10 2197
12 101 11 2223
14 98 12 2258
16 93 12 2266
18 94 13 2240
20 95 15 2246
22 90 18 2245
24 87 19 2219
26 82 22 2228
28 83 21 2247
30 81 21 2236
32 78 24 2236
34 74 29 2217
36 76 29 2214
38 79 31 2220
40 72 31 2210
42 73 34 2221
44 70 38 2185
46 71 38 2185
48 72 37 2238
50 74 39 2255
52 73 38 2232
54 70 37 2210
56 70 34 2231
58 68 33 2236
60 68 33 2251
62 69 33 2251
64 63 33 2233
66 58 34 2232
68 58 35 2245
70 58 38 2228
72 62 39 2260
74 62 42 2256
76 61 41 2249
78 58 42 2245
80 63 40 2241
82 64 46 2243
84 63 44 2254
86 66 44 2211
88 67 50 2228
90 65 52 2215
92 66 53 2244
94 63 51 2251
96 61 52 2235
98 63 51 2238
100 62 52 2241
102 60 52 2243
104 60 54 2235
106 56 59 2231
108 55 55 2273
110 54 57 2261
112 56 58 2275
114 50 59 2247
116 51 62 2250
118 50 64 2227
120 48 63 2199
122 48 63 2214
124 50 63 2214
126 49 68 2232
128 46 69 2232
130 48 72 2254
132 47 73 2196
134 46 70 2205
136 45 68 2206
138 45 69 2206
140 43 70 2235
142 41 67 2218
144 39 67 2203
146 36 69 2198
148 32 74 2223
150 32 75 2209
152 31 75 2223
154 30 76 2206
156 29 76 2190
158 29 77 2160
160 30 76 2180
162 34 76 2183
164 34 80 2225
166 37 81 2245
168 35 80 2261
170 37 78 2226
172 38 79 2246
174 33 82 2233
176 32 84 2244
178 35 86 2211
180 35 86 2184
182 36 86 2179
184 38 89 2186
186 37 87 2235
188 33 88 2208
190 32 88 2196
192 31 90 2207
194 31 89 2187
196 29 87 2193
198 29 84 2203
200 30 78 2172
