0 107 0 2178
2 88 17 2142
4 86 19 2181
6.00001 86 22 2177
8.00001 86 22 2148
10 85 23 2103
12 86 23 2083
14 82 27 2072
16 76 32 2079
18 77 33 2061
20 84 33 2055
22 80 34 2059
24 82 34 2042
26 80 37 2059
28 78 41 2062
30 76 42 2063
32 76 43 2072
34 76 43 2078
36 77 41 2098
38 72 43 2079
40 63 49 2065
42 69 54 2061
44 67 53 2064
46 74 48 2058
48 71 48 2056
50 69 48 2032
52 63 48 2062
54 59 49 2066
56 62 46 2057
58 63 45 2055
60 66 46 2048
62 70 45 2049
64 72 50 2049
66 72 52 2064
68 69 50 2073
70 65 51 2057
72 68 51 2051
74 68 51 2046
76 68 53 2035
78 67 56 2067
80 66 56 2089
82 66 58 2074
84 61 55 2062
86 60 51 2069
88 60 52 2068
90 62 52 2117
92 64 58 2136
94 66 59 2136
96 60 60 2119
98 55 58 2126
100 54 58 2120
102 59 61 2111
104 55 62 2106
106 56 66 2128
108 55 64 2125
110 56 63 2109
112 57 60 2130
114 61 61 2100
116 60 62 2102
118 59 62 2113
120 60 62 2088
122 58 64 2133
124 52 66 2116
126 48 66 2117
128 50 63 2123
130 46 68 2110
132 50 67 2093
134 52 69 2081
136 50 69 2088
138 50 69 2070
140 50 68 2085
142 49 67 2095
144 52 67 2097
146 52 68 2088
148 52 72 2111
150 52 74 2124
152 55 71 2127
154 54 72 2136
156 55 74 2158
158 54 78 2139
160 52 81 2122
162 51 80 2146
164 49 76 2154
166 51 76 2156
168 48 74 2144
170 41 71 2145
172 40 68 2147
174 45 69 2148
176 43 69 2143
178 44 68 2139
180 42 64 2124
182 43 67 2130
184 44 64 2135
186 46 62 2138
188 44 63 2107
190 39 68 2107
192 38 71 2096
194 37 74 2105
196 36 69 2098
198 42 70 2093
200 37 75 2104
