0 46 0 909
2 47 0 911
4 51 0 947
6.00001 52 0 920
8.00001 48 0 928
10 46 0 877
12 43 0 885
14 49 2 893
16 49 3 904
18 47 4 911
20 50 4 896
22 47 4 882
24 48 6 926
26 42 7 935
28 41 8 932
30 34 8 959
32 36 7 960
34 38 9 953
36 35 8 942
38 32 8 968
40 29 10 984
42 31 12 974
44 24 14 958
46 21 14 980
48 25 12 971
50 29 12 947
52 32 14 932
54 28 16 909
56 29 13 928
58 23 13 911
60 25 15 926
62 26 16 906
64 26 14 920
66 23 14 937
68 25 12 904
70 31 11 901
72 32 15 924
74 27 15 949
76 24 16 947
78 23 19 937
80 21 21 945
82 23 20 929
84 24 21 903
86 24 22 885
88 26 23 904
90 36 27 907
92 35 27 903
94 35 25 906
96 35 24 894
98 33 23 907
100 28 22 885
102 33 20 886
104 31 21 887
106 25 23 919
108 24 22 936
110 24 21 916
112 25 19 922
114 25 18 895
116 25 16 863
118 26 21 869
120 26 20 899
122 24 21 896
124 29 21 928
126 26 23 917
128 25 22 906
130 24 26 910
132 18 23 922
134 19 25 931
136 24 24 955
138 22 23 953
140 21 23 962
142 22 29 926
144 24 33 923
146 23 33 922
148 21 31 925
150 24 32 932
152 21 31 932
154 19 31 919
156 22 27 924
158 23 24 956
160 23 26 951
162 23 24 933
164 21 27 924
166 18 28 937
168 19 33 942
170 22 29 977
172 22 29 959
174 18 28 957
176 14 23 996
178 16 20 980
180 16 22 977
182 15 23 982
184 15 20 963
186 15 19 950
188 14 18 977
190 14 18 946
192 11 20 943
194 11 19 963
196 11 20 986
198 13 27 963
200 13 26 916
