0 876 0 0 0 0
2 871 0 0 2 0
4.00004 867 0 0 4 0
6 867 0 0 1 0
8 873 0 0 1 0
10 875 0 0 4 0
12 877 0 0 0 0
14 878 0 0 2 0
16 884 0 0 0 0
18 882 0 0 1 0
20 889 0 0 0 0
22 897 0 0 1 0
24 903 0 0 1 0
26 911 0 0 2 0
28 911 0 0 1 0
30 911 0 0 3 0
32 909 0 0 2 0
34 906 0 0 1 0
36 911 0 0 0 0
38 915 0 0 0 0
40 926 0 0 1 0
42 921 0 0 3 0
44 925 0 0 2 0
46 917 0 0 1 0
48 922 0 0 1 0
50 924 0 0 3 0
52 923 0 0 5 0
54 916 0 0 0 0
56 913 0 0 1 0
58 914 0 4 1 1
60 903 0 7 1 0
62 900 0 11 2 0
64 894 0 18 0 0
66 886 0 20 4 0
68 887 0 26 0 0
70 877 0 30 2 1
72 869 0 41 1 1
74 868 0 47 1 0
76 863 0 52 2 0
78 853 0 56 6 0
80 849 0 65 3 0
82 842 0 74 6 0
84 842 0 81 1 1
86 836 0 87 0 0
88 830 0 92 0 0
90 821 0 98 1 1
92 821 0 104 1 0
94 819 0 114 1 0
96 807 0 118 2 1
98 794 0 122 1 0
100 789 0 134 0 1
102 774 0 143 1 0
104 769 0 155 2 0
106 750 0 163 0 1
108 746 0 168 0 1
110 745 0 172 0 1
112 735 0 180 0 0
114 726 0 192 1 1
116 717 0 199 0 0
118 711 0 213 0 1
120 707 0 221 3 0
122 705 0 223 2 2
124 701 0 229 0 0
126 697 0 233 2 0
128 695 0 236 0 0
130 690 0 244 2 2
132 679 0 259 2 1
134 679 0 265 0 2
136 674 0 272 0 1
138 665 0 273 3 0
140 662 0 281 0 3
142 655 0 291 1 1
144 646 0 294 1 0
146 643 0 304 1 0
148 638 0 310 2 0
150 631 0 312 1 0
152 624 0 321 1 0
154 612 0 327 1 0
156 603 0 336 1 0
158 597 0 339 1 0
160 589 0 341 1 0
162 584 0 353 0 0
164 586 0 349 1 0
166 577 0 351 0 1
168 571 0 351 1 3
170 563 0 359 0 0
172 563 0 368 0 1
174 556 0 370 1 1
176 542 0 377 0 0
178 537 0 375 0 0
180 533 0 384 0 0
182 525 0 386 2 1
184 525 0 399 0 1
186 523 0 400 1 4
188 516 0 400 0 2
190 507 0 408 0 0
192 501 0 411 1 2
194 498 0 424 0 1
196 489 0 430 0 1
198 482 0 432 0 1
200 475 0 440 0 1
