0 981 0 0 0 0
2 971 4 0 2 0
4.00004 964 10 0 4 0
6 973 3 0 2 0
8 972 4 0 1 0
10 970 3 0 0 0
12 968 6 0 0 0
14 968 5 0 1 0
16 966 6 0 0 0
18 975 5 0 1 0
20 976 8 0 2 0
22 977 4 0 1 0
24 974 5 0 1 0
26 979 3 0 0 0
28 973 5 0 2 0
30 981 1 0 0 0
32 978 7 0 0 0
34 987 2 0 1 0
36 977 7 0 1 0
38 985 3 0 0 0
40 964 11 0 2 0
42 972 8 0 0 0
44 963 4 0 2 0
46 965 3 0 0 0
48 956 7 0 1 0
50 958 10 0 1 0
52 806 0 163 0 0
54 723 0 244 2 0
56 645 1 327 1 0
58 570 0 404 1 0
60 516 0 452 0 0
62 473 0 498 1 0
64 414 0 554 1 1
66 386 0 586 0 0
68 345 0 627 0 0
70 318 1 654 1 0
72 297 0 675 3 2
74 270 0 705 0 0
76 234 1 734 0 0
78 205 0 764 1 0
80 188 0 782 0 0
82 166 0 803 1 0
84 148 0 817 0 1
86 137 0 834 0 0
88 126 0 843 1 1
90 129 0 848 0 1
92 123 0 855 0 1
94 109 0 866 0 0
96 103 0 875 3 0
98 96 0 882 0 0
100 93 0 887 0 0
102 90 0 890 0 1
104 88 0 896 0 0
106 80 0 904 1 1
108 81 0 904 0 0
110 76 0 905 0 2
112 73 0 905 2 0
114 75 0 905 1 1
116 76 0 905 0 0
118 73 0 907 0 0
120 70 0 907 0 0
122 62 0 908 0 1
124 64 0 905 0 0
126 67 0 897 0 1
128 65 0 900 0 0
130 69 0 903 0 0
132 68 0 896 0 2
134 65 0 893 2 1
136 65 0 892 1 0
138 65 0 899 0 1
140 56 0 909 0 1
142 63 0 904 1 2
144 61 0 908 2 1
146 64 0 906 0 0
148 63 0 908 0 1
150 61 0 909 0 0
152 67 0 906 0 2
154 73 0 906 1 0
156 67 0 912 1 1
158 65 0 914 0 0
160 64 0 916 0 1
162 55 0 916 1 0
164 57 0 916 1 0
166 50 1 923 0 0
168 48 0 920 0 0
170 46 0 923 1 0
172 49 0 923 0 0
174 48 0 918 1 0
176 49 0 919 0 2
178 51 0 924 0 1
180 51 0 923 0 1
182 50 0 926 0 1
184 46 0 921 0 0
186 46 0 917 0 1
188 44 0 916 0 0
190 43 0 916 1 4
192 42 0 926 0 0
194 41 0 925 0 1
196 47 0 928 0 0
198 45 0 925 0 1
200 45 0 920 0 0
