0 960 0 0 0 0
2 954 0 0 2 0
4.00004 965 0 0 0 0
6 959 0 0 5 0
8 960 0 0 1 0
10 964 0 0 2 0
12 960 0 0 1 0
14 952 0 0 3 0
16 954 0 0 0 0
18 958 0 0 0 0
20 963 0 0 1 0
22 960 0 0 4 0
24 961 0 0 2 0
26 958 0 0 2 0
28 952 0 0 2 0
30 957 0 0 1 0
32 955 0 0 1 0
34 956 0 0 1 0
36 954 0 0 1 0
38 964 0 0 1 0
40 967 0 0 0 0
42 967 0 0 1 0
44 970 0 0 1 0
46 971 0 0 0 0
48 965 0 0 3 0
50 959 0 0 0 0
52 961 0 0 1 0
54 963 0 0 2 0
56 965 0 0 2 0
58 959 0 1 0 0
60 948 0 3 0 0
62 953 0 5 1 0
64 951 0 6 0 0
66 952 0 9 0 0
68 953 0 12 2 0
70 948 0 14 2 0
72 948 0 17 1 1
74 942 0 21 1 0
76 934 0 26 1 0
78 934 0 27 1 0
80 929 0 36 1 0
82 923 0 41 1 1
84 923 0 48 1 0
86 916 0 49 3 0
88 912 0 54 2 0
90 912 0 58 1 1
92 906 0 64 1 0
94 899 0 66 1 0
96 890 0 70 2 0
98 884 0 72 1 0
100 883 0 77 1 0
102 877 0 84 4 0
104 874 0 85 0 0
106 864 0 84 1 1
108 857 0 91 3 0
110 858 0 94 0 2
112 850 0 91 2 0
114 845 0 99 1 1
116 841 0 105 2 0
118 830 0 110 0 0
120 826 0 114 0 1
122 820 0 117 0 2
124 817 0 121 1 0
126 811 0 127 0 0
128 806 0 133 1 0
130 799 0 137 1 1
132 792 0 139 1 1
134 792 0 143 1 0
136 788 0 143 1 1
138 780 0 153 0 0
140 775 0 150 2 1
142 765 0 157 3 0
144 765 0 168 0 0
146 755 0 175 1 2
148 744 0 177 4 2
150 744 0 177 1 1
152 747 0 179 0 0
154 732 0 182 2 1
156 730 0 190 0 2
158 723 0 192 0 1
160 715 0 196 1 0
162 710 0 199 1 0
164 705 0 202 1 0
166 701 0 206 1 0
168 700 0 209 0 2
170 693 0 221 2 0
172 691 0 226 0 0
174 684 0 229 3 1
176 683 0 228 0 0
178 679 0 231 0 1
180 678 0 238 1 2
182 672 0 240 1 4
184 670 0 245 0 3
186 661 0 258 2 0
188 660 0 259 2 0
190 659 0 269 0 1
192 654 0 277 0 0
194 645 0 277 1 0
196 636 0 280 3 0
198 631 0 282 0 3
200 627 0 285 0 2
