0 832 0 0 0 0
2 830 0 0 3 0
4.00004 827 0 0 1 0
6 830 0 0 2 0
8 835 0 0 1 0
10 836 0 0 1 0
12 840 0 0 0 0
14 846 0 0 0 0
16 848 0 0 1 0
18 853 0 0 4 0
20 853 0 0 3 0
22 854 0 0 2 0
24 861 0 0 1 0
26 869 0 0 1 0
28 865 0 0 0 0
30 864 0 0 0 0
32 857 0 0 2 0
34 857 0 0 1 0
36 852 0 0 1 0
38 849 0 0 2 0
40 858 0 0 1 0
42 858 0 0 1 0
44 855 0 0 1 0
46 853 0 0 0 0
48 852 0 0 2 0
50 851 0 0 1 0
52 850 0 0 1 0
54 851 0 0 1 0
56 855 0 0 0 0
58 855 0 1 2 0
60 852 0 5 1 0
62 852 0 8 0 0
64 851 0 11 0 0
66 852 0 15 0 0
68 845 0 16 0 0
70 843 0 18 2 0
72 835 0 21 1 0
74 829 0 24 0 0
76 829 0 34 1 1
78 829 0 41 0 1
80 821 0 47 0 0
82 813 0 56 0 0
84 803 0 65 1 2
86 800 0 70 0 0
88 789 0 76 0 0
90 784 0 84 0 0
92 772 0 88 2 0
94 771 0 90 1 0
96 762 0 100 1 0
98 755 0 100 2 0
100 744 0 106 0 0
102 735 0 109 1 1
104 732 0 115 0 1
106 726 0 118 1 0
108 726 0 123 0 2
110 717 0 130 3 1
112 715 0 137 1 0
114 711 0 145 0 1
116 708 0 154 1 0
118 707 0 162 0 0
120 706 0 169 1 1
122 699 0 173 1 1
124 695 0 182 0 0
126 692 0 187 0 0
128 685 0 190 0 0
130 678 0 195 2 1
132 672 0 203 0 1
134 663 0 212 1 1
136 659 0 219 0 0
138 650 0 224 0 0
140 646 0 232 1 0
142 644 0 232 0 1
144 641 0 237 0 0
146 633 0 245 1 0
148 632 0 247 0 0
150 629 0 256 0 0
152 623 0 263 1 2
154 619 0 274 0 1
156 613 0 281 0 0
158 609 0 280 0 0
160 598 0 295 1 0
162 593 0 294 0 1
164 586 0 301 0 2
166 585 0 308 0 1
168 576 0 309 0 0
170 574 0 316 1 0
172 567 0 319 0 0
174 562 0 321 0 0
176 560 0 326 0 0
178 553 0 329 0 0
180 548 0 335 1 1
182 545 0 346 0 1
184 539 0 352 0 0
186 534 0 354 0 1
188 529 0 355 1 1
190 521 0 358 0 0
192 519 0 362 0 0
194 512 0 370 1 0
196 509 0 373 1 1
198 503 0 374 1 0
200 500 0 372 0 1
