0 38 0 0 0 45
2 38 0 1 0 42
4.00004 33 0 6 0 39
6 33 0 5 0 39
8 36 0 1 0 38
10 35 0 2 0 45
12 36 0 1 0 34
14 34 0 3 0 39
16 36 0 2 0 42
18 36 0 2 0 45
20 36 0 2 0 34
22 35 0 3 0 37
24 35 0 3 0 38
26 36 0 3 0 51
28 36 0 3 0 39
30 36 0 3 0 40
32 35 0 4 0 39
34 38 0 1 1 36
36 38 0 1 1 45
38 35 2 4 0 44
40 37 2 2 0 50
42 35 1 4 1 35
44 34 2 4 0 41
46 34 2 4 0 39
48 33 2 4 0 38
50 35 1 2 1 47
52 35 2 2 0 47
54 35 2 2 0 44
56 33 2 4 1 42
58 37 2 0 0 36
60 32 2 5 0 42
62 36 2 1 0 54
64 33 2 4 0 43
66 36 2 1 0 50
68 31 2 6 0 39
70 36 1 1 1 48
72 33 2 4 0 45
74 33 2 4 0 39
76 35 2 2 0 41
78 33 2 4 0 42
80 33 2 4 0 38
82 35 2 2 0 33
84 35 2 2 0 44
86 33 2 4 0 36
88 35 2 2 0 40
90 35 1 2 1 45
92 33 2 3 0 42
94 34 2 2 0 38
96 36 2 0 0 46
98 28 2 8 0 34
100 34 2 2 0 34
102 32 2 4 0 41
104 34 2 2 0 40
106 31 1 4 1 50
108 33 2 2 0 42
110 34 2 1 0 41
112 33 2 2 0 36
114 34 2 0 0 37
116 33 2 1 0 45
118 29 1 5 1 40
120 30 2 4 0 48
122 31 2 3 0 38
124 32 3 2 0 42
126 34 3 0 0 37
128 30 3 4 0 39
130 32 2 2 1 43
132 34 3 0 1 44
134 33 3 1 1 40
136 30 3 4 1 32
138 31 3 3 1 42
140 28 3 6 1 46
142 34 2 0 1 47
144 31 3 3 0 40
146 33 3 0 0 33
148 32 3 1 0 41
150 30 3 3 0 47
152 31 3 2 0 43
154 29 3 4 0 36
156 30 4 3 0 30
158 28 5 5 0 38
160 32 5 1 0 36
162 31 4 2 1 32
164 31 5 2 0 43
166 30 5 3 0 36
168 31 5 2 0 40
170 30 4 3 1 31
172 30 3 3 2 39
174 31 4 2 1 40
176 31 5 2 0 41
178 27 5 6 0 36
180 31 5 2 0 36
182 31 5 2 0 43
184 32 5 0 0 42
186 30 5 2 0 28
188 29 5 3 0 38
190 32 4 0 1 46
192 30 5 2 0 44
194 30 4 1 1 35
196 30 4 1 1 26
198 30 5 1 0 41
200 29 5 2 0 42
202 26 5 5 0 40
204 28 5 2 0 45
206 27 5 3 0 44
208 30 5 0 0 42
210 26 3 4 2 40
