0 120 0 0 0 42
2 116 0 3 0 38
4.00004 118 0 1 0 40
6 113 0 6 0 36
8 115 0 4 0 36
10 118 0 1 0 45
12 102 14 3 0 33
14 92 24 3 0 44
16 84 31 4 0 44
18 76 40 3 0 46
20 71 46 2 0 38
22 66 51 1 1 39
24 66 53 0 0 38
26 61 56 1 1 35
28 52 63 3 1 42
30 47 68 2 1 44
32 48 70 0 0 36
34 44 73 0 2 40
36 40 77 1 1 41
38 38 78 1 2 42
40 35 82 1 1 34
42 34 81 1 2 38
44 32 82 2 1 39
46 31 84 1 1 43
48 28 86 0 2 39
50 26 83 1 6 39
52 23 90 0 2 41
54 20 91 1 4 36
56 20 95 0 1 46
58 17 92 0 6 35
60 15 97 0 3 34
62 12 101 0 2 36
64 11 100 1 3 41
66 13 100 0 2 37
68 11 101 1 1 37
70 11 100 1 2 35
72 12 99 1 3 43
74 11 102 3 0 43
76 10 101 1 4 38
78 9 104 1 2 34
80 9 105 0 2 43
82 7 107 0 2 35
84 6 108 0 2 37
86 4 110 0 3 41
88 4 112 0 1 36
90 4 111 0 1 36
92 4 110 0 2 38
94 4 111 0 0 43
96 3 110 0 2 35
98 2 111 0 2 35
100 2 107 0 5 32
102 1 111 0 2 36
104 1 110 0 3 45
106 1 112 0 1 35
108 1 110 0 3 33
110 1 111 0 2 41
112 0 111 0 1 44
114 0 111 0 1 36
116 0 111 0 1 36
118 0 109 0 3 39
120 0 107 1 5 41
122 0 112 1 1 37
124 1 111 0 2 37
126 2 109 0 4 40
128 2 109 0 4 37
130 2 112 0 1 41
132 1 108 0 5 45
134 1 112 0 1 46
136 1 111 0 2 43
138 2 107 0 6 41
140 2 108 0 5 30
142 2 110 0 3 28
144 1 112 0 2 33
146 1 112 0 2 38
148 1 111 0 3 45
150 1 109 0 5 36
152 0 113 1 1 34
154 1 113 0 1 33
156 1 112 0 2 38
158 1 111 0 3 37
160 2 112 0 2 40
162 2 113 0 1 39
164 2 109 0 2 41
166 2 109 0 2 44
168 1 111 0 1 39
170 1 107 0 4 35
172 1 111 0 0 40
174 1 106 0 5 31
176 1 110 0 1 41
178 1 110 0 1 35
180 1 107 0 4 36
182 1 109 0 2 39
184 1 109 0 2 47
186 0 110 1 1 49
188 1 112 0 0 33
190 1 111 0 1 42
192 1 108 0 4 41
194 1 107 0 5 37
196 1 111 0 1 34
198 1 108 0 3 39
200 1 109 0 3 35
202 1 105 0 8 42
204 1 112 0 1 34
206 1 111 0 2 39
208 1 110 0 3 45
210 1 111 0 2 45
