0 127 0 0 0 40
2 126 0 3 0 42
4.00004 126 0 3 0 43
6 125 0 3 0 42
8 128 0 0 0 47
10 127 0 1 0 43
12 110 15 3 0 37
14 106 21 1 0 32
16 100 28 0 0 45
18 94 31 1 2 29
20 87 41 1 0 52
22 81 45 2 0 44
24 78 48 0 2 41
26 70 57 1 0 36
28 66 61 1 0 40
30 63 67 0 0 37
32 56 66 1 5 47
34 50 76 1 1 46
36 43 80 4 1 43
38 38 87 3 0 33
40 38 89 1 0 38
42 34 91 4 0 40
44 34 93 1 1 39
46 29 97 1 2 36
48 26 100 2 1 34
50 24 101 2 2 42
52 25 101 1 2 37
54 26 102 0 1 38
56 25 101 0 3 46
58 25 103 0 2 43
60 22 106 1 0 43
62 21 108 0 0 41
64 18 109 0 2 40
66 16 112 0 1 32
68 14 111 1 3 37
70 13 115 1 0 42
72 13 113 1 2 45
74 13 115 0 1 41
76 13 113 0 3 40
78 13 114 0 2 41
80 10 117 0 2 48
82 5 119 2 3 38
84 6 116 0 7 50
86 6 119 0 3 38
88 6 122 0 0 41
90 5 120 0 3 40
92 5 122 0 1 43
94 6 120 0 3 38
96 6 123 0 0 48
98 6 121 0 1 48
100 6 122 0 0 35
102 4 119 1 4 45
104 4 121 1 2 39
106 5 121 0 2 44
108 5 123 0 0 41
110 5 122 0 2 38
112 4 121 0 4 42
114 4 123 0 2 40
116 5 123 0 2 38
118 3 123 0 3 40
120 3 125 0 1 51
122 3 126 0 0 41
124 3 123 0 2 32
126 3 124 0 1 41
128 3 123 0 2 42
130 3 124 0 1 49
132 4 122 0 3 40
134 3 124 0 2 40
136 1 128 0 0 41
138 1 126 0 2 38
140 1 125 0 3 40
142 1 123 0 4 46
144 0 125 0 3 35
146 0 122 0 6 38
148 0 126 0 2 45
150 0 126 0 2 44
152 0 124 0 4 33
154 0 127 0 1 41
156 0 124 0 4 48
158 0 127 0 2 42
160 0 127 0 1 39
162 0 126 0 2 41
164 0 126 0 2 42
166 1 124 0 3 41
168 1 126 0 1 44
170 1 126 0 1 40
172 1 125 0 2 45
174 1 124 0 2 43
176 0 123 0 4 40
178 0 125 0 2 39
180 0 123 0 4 46
182 0 125 0 2 42
184 0 124 0 3 35
186 0 124 0 2 39
188 0 124 0 2 36
190 0 124 0 1 48
192 0 122 0 4 40
194 0 121 0 3 36
196 0 124 0 0 37
198 1 120 0 4 41
200 1 123 0 0 42
202 1 122 0 1 43
204 1 120 0 3 41
206 1 120 0 3 35
208 1 121 0 2 46
210 1 120 0 2 35
