0 42 0 0 0 45
2 41 0 2 0 38
4.00004 43 0 0 0 42
6 40 0 3 0 43
8 42 0 1 0 40
10 44 0 0 0 38
12 40 0 4 1 34
14 41 0 3 1 46
16 41 2 3 0 36
18 40 1 4 1 41
20 43 1 1 1 44
22 40 2 4 0 38
24 44 2 0 0 33
26 41 2 3 0 40
28 41 2 3 1 33
30 41 3 3 0 41
32 41 2 3 1 43
34 41 3 2 0 43
36 40 3 3 0 39
38 41 3 2 0 40
40 37 2 6 1 42
42 41 3 2 0 38
44 41 3 2 0 45
46 40 2 3 1 39
48 39 3 4 0 42
50 42 4 1 0 42
52 41 4 2 0 36
54 39 4 4 0 43
56 40 4 3 0 48
58 38 4 5 0 46
60 41 3 2 1 36
62 42 4 1 0 34
64 40 5 3 0 44
66 41 5 2 0 40
68 39 5 3 0 47
70 38 6 4 0 38
72 39 6 3 0 45
74 40 6 2 0 40
76 39 5 3 1 42
78 38 5 4 1 36
80 40 6 2 0 42
82 39 5 3 1 42
84 39 5 3 1 42
86 41 6 1 0 40
88 41 6 1 0 41
90 41 5 1 1 36
92 40 6 2 0 40
94 39 6 3 0 45
96 41 6 1 1 45
98 36 7 6 0 37
100 39 6 3 1 36
102 39 7 3 0 39
104 38 7 4 0 45
106 41 6 1 1 38
108 39 7 3 0 41
110 39 7 3 0 41
112 39 6 3 1 35
114 38 7 3 0 37
116 40 7 1 0 40
118 39 7 2 0 42
120 37 6 4 0 42
122 35 7 6 0 47
124 38 7 3 0 40
126 37 7 4 0 39
128 41 6 0 1 35
130 37 7 4 0 37
132 38 7 3 0 33
134 37 6 4 1 41
136 36 7 5 0 38
138 38 7 3 0 41
140 39 7 2 0 42
142 40 6 0 1 41
144 38 6 2 1 35
146 40 7 0 0 35
148 37 7 3 0 39
150 37 7 3 0 34
152 36 7 4 0 38
154 40 7 0 0 44
156 39 7 1 0 37
158 38 7 2 0 42
160 36 7 4 1 45
162 38 8 2 0 41
164 38 7 2 1 39
166 39 8 1 0 32
168 37 7 3 1 39
170 39 8 1 0 48
172 38 7 2 1 45
174 40 7 0 1 38
176 36 7 4 1 44
178 39 7 1 1 45
180 38 8 2 0 44
182 38 7 2 1 43
184 36 8 4 0 45
186 39 7 1 1 35
188 39 8 1 0 40
190 34 9 5 0 43
192 37 6 2 3 47
194 37 7 1 4 41
196 36 11 2 1 40
198 36 12 2 1 37
200 36 11 2 2 36
202 37 11 1 2 31
204 38 11 0 2 43
206 37 13 1 0 47
208 34 13 4 0 40
210 38 13 0 0 41
