0 1007 0 0 0 0 0
2 1010 0 0 1 0 0
4.00004 1016 0 0 1 0 0
6 1014 0 0 3 0 0
8 1017 0 0 0 0 0
10 1014 0 0 0 0 0
12 1019 0 0 2 0 0
14 1021 0 0 4 0 0
16 1026 0 0 2 0 0
18 1023 0 0 2 0 0
20 1019 0 0 3 0 0
22 1017 0 0 2 0 0
24 1018 0 0 2 0 0
26 1019 0 0 3 0 0
28 1020 0 0 2 0 0
30 1017 0 0 1 0 0
32 1020 0 0 0 0 0
34 1015 0 0 8 0 0
36 1014 0 0 4 0 0
38 1014 0 0 2 0 0
40 1011 0 0 1 0 0
42 1015 0 0 1 0 0
44 1017 0 0 3 0 0
46 1013 0 0 6 0 0
48 1008 0 0 1 0 0
50 1008 0 0 2 0 0
52 1005 0 2 0 0 0
54 1001 0 13 2 2 0
56 994 0 17 3 0 0
58 991 0 22 0 0 0
60 979 0 31 3 0 0
62 972 0 34 1 2 0
64 969 0 43 1 1 0
66 961 0 50 4 0 0
68 957 0 60 1 1 0
70 952 0 65 2 0 0
72 944 0 72 2 0 0
74 939 0 81 0 1 0
76 935 0 87 0 0 0
78 931 0 91 2 1 0
80 925 0 97 4 0 0
82 922 0 101 1 0 0
84 910 0 104 3 2 0
86 904 0 113 3 1 0
88 894 0 124 1 0 0
90 891 0 129 0 0 0
92 885 0 138 0 2 0
94 876 0 145 3 1 0
96 874 0 149 1 1 0
98 870 0 153 0 0 0
100 867 0 158 1 0 0
102 863 0 163 0 0 0
104 861 0 164 1 2 0
106 854 0 172 4 2 0
108 849 0 174 1 0 0
110 845 0 173 2 1 0
112 839 0 178 2 0 0
114 835 0 183 0 0 0
116 831 0 184 1 2 0
118 824 0 192 3 3 0
120 818 0 202 4 0 0
122 811 0 204 2 0 0
124 802 0 206 2 1 0
126 794 0 213 3 2 0
128 793 0 223 0 3 0
130 788 0 229 2 0 0
132 781 0 235 2 3 0
134 773 0 242 1 1 0
136 765 0 254 1 0 0
138 757 0 259 4 1 0
140 752 0 269 1 2 0
142 745 0 273 1 1 0
144 740 0 277 2 2 0
146 736 0 284 1 2 0
148 726 0 286 3 0 0
150 721 0 286 1 1 0
152 720 0 293 2 2 0
154 713 0 298 1 0 0
156 707 0 304 0 0 0
158 704 0 308 1 1 0
160 702 0 312 0 0 0
162 701 0 315 0 2 0
164 693 0 317 0 2 0
166 689 0 323 2 0 0
168 688 0 326 0 0 0
170 684 0 327 1 2 0
172 677 0 333 0 3 0
174 674 0 333 1 0 0
176 672 0 333 1 2 0
178 667 0 337 0 1 0
180 663 0 338 0 2 0
182 654 0 335 3 2 0
184 653 0 342 0 0 0
186 648 0 347 1 0 0
188 646 0 355 0 0 0
190 641 0 357 0 0 0
192 639 0 355 1 1 0
194 631 0 363 4 1 0
196 632 0 373 1 1 0
198 625 0 378 0 1 0
200 617 0 381 2 0 0
