0 939 0 0 0 0 0
2 900 44 0 1 0 0
4.00004 900 38 0 1 0 0
6 893 41 0 1 0 0
8 896 39 0 0 0 0
10 888 46 0 2 0 0
12 888 49 0 0 0 0
14 888 43 0 1 0 0
16 888 39 0 1 0 0
18 890 38 0 1 0 0
20 898 32 0 2 0 0
22 885 53 0 0 0 0
24 906 36 0 1 0 0
26 904 35 0 2 0 0
28 896 45 0 2 0 0
30 898 42 0 2 0 0
32 901 39 0 1 0 0
34 907 32 0 1 0 0
36 899 36 0 1 0 0
38 892 45 0 1 0 0
40 884 47 0 1 0 0
42 874 54 0 5 0 0
44 880 39 0 6 0 0
46 883 41 0 1 0 0
48 872 51 0 1 0 0
50 887 41 0 2 0 0
52 660 0 270 0 1 0
54 570 1 361 1 0 0
56 500 0 428 1 1 0
58 444 0 484 2 0 0
60 402 0 526 2 0 0
62 351 0 580 1 1 0
64 321 0 616 0 0 0
66 275 1 664 1 1 0
68 231 0 710 0 1 0
70 204 0 734 0 4 0
72 183 0 765 2 1 0
74 151 1 790 0 4 0
76 129 1 816 0 1 0
78 115 0 826 0 2 0
80 100 0 843 1 0 0
82 90 0 847 0 2 0
84 85 0 850 0 5 0
86 77 0 863 0 0 0
88 69 0 866 0 1 0
90 60 0 876 0 1 0
92 57 0 879 1 1 0
94 53 0 881 1 0 0
96 45 0 883 1 1 0
98 39 0 890 0 3 0
100 36 0 889 0 3 0
102 29 0 896 0 2 0
104 35 0 896 0 2 0
106 27 0 901 1 4 0
108 28 0 904 0 0 0
110 23 0 909 1 1 0
112 20 0 907 0 0 0
114 15 0 907 0 3 0
116 11 0 907 1 0 0
118 13 0 905 1 3 0
120 13 0 916 2 1 0
122 12 0 916 3 1 0
124 13 0 912 0 2 0
126 10 0 916 2 1 0
128 11 0 921 1 1 0
130 7 0 929 0 3 0
132 8 0 924 0 1 0
134 5 0 924 0 0 0
136 7 0 920 0 0 0
138 6 0 920 0 2 0
140 5 0 927 0 3 0
142 8 0 930 1 2 0
144 4 0 936 1 1 0
146 5 0 939 1 0 0
148 7 0 931 0 2 0
150 3 0 935 1 0 0
152 3 0 935 0 0 0
154 3 0 928 1 4 0
156 2 0 930 0 1 0
158 5 0 929 1 2 0
160 3 0 928 1 2 0
162 2 0 932 0 4 0
164 5 0 926 0 2 0
166 3 0 939 0 1 0
168 5 0 939 0 4 0
170 5 0 944 1 1 0
172 2 0 948 4 1 0
174 2 0 953 0 2 0
176 2 0 950 1 2 0
178 3 0 948 0 0 0
180 4 0 948 1 4 0
182 4 0 951 0 2 0
184 1 0 943 0 2 0
186 2 0 944 0 3 0
188 1 0 941 0 1 0
190 2 0 937 0 0 0
192 2 0 933 0 2 0
194 0 0 931 0 1 0
196 1 0 925 0 2 0
198 1 0 926 0 2 0
200 5 0 930 0 1 0
