0 1514 0 0 0 0 112
2 1473 8 0 15 0 100
4.00004 1448 9 0 12 0 105
6 1425 11 0 21 0 99
8 1422 8 0 13 0 86
10 1406 6 0 19 0 102
12 1395 9 0 16 0 107
14 1389 6 0 26 0 100
16 1385 9 0 14 0 102
18 1358 6 0 14 0 95
20 1334 11 0 17 0 99
22 1331 4 0 15 0 98
24 1335 7 0 17 0 106
26 1352 4 0 14 0 95
28 1341 7 0 17 0 112
30 1333 14 0 16 0 101
32 1333 7 0 14 0 87
34 1324 4 0 16 0 114
36 1319 7 0 15 0 108
38 1322 8 0 14 0 112
40 1297 6 0 22 0 110
42 1295 7 0 21 0 100
44 1294 11 0 21 0 115
46 1301 8 0 19 0 107
48 1302 6 0 14 0 96
50 1311 8 0 12 0 119
52 1162 0 148 14 0 101
54 1043 0 266 15 3 105
56 930 1 385 12 5 97
58 825 1 483 15 5 97
60 756 0 553 14 4 92
62 689 1 625 4 1 99
64 634 0 673 12 9 100
66 575 0 722 12 7 99
68 542 0 759 7 12 108
70 488 0 811 14 10 95
72 455 0 854 6 11 108
74 428 0 886 11 11 110
76 379 0 918 9 14 111
78 340 0 950 8 9 111
80 321 0 973 7 11 93
82 290 0 1004 6 8 106
84 283 0 1011 7 8 98
86 262 1 1031 3 12 103
88 237 0 1058 12 13 110
90 236 0 1060 10 10 102
92 230 0 1074 4 11 105
94 216 0 1077 6 14 103
96 204 0 1085 5 17 105
98 204 0 1098 2 8 98
100 187 0 1099 4 18 97
102 187 0 1117 4 12 99
104 182 0 1117 2 16 97
106 168 0 1114 3 14 86
108 162 1 1117 5 10 91
110 162 0 1141 5 16 109
112 152 0 1145 1 15 100
114 147 0 1167 2 9 98
116 144 0 1177 1 10 108
118 145 0 1198 5 13 105
120 135 0 1198 6 14 99
122 141 0 1191 3 14 95
124 139 1 1189 0 18 100
126 125 0 1201 1 19 94
128 113 0 1204 6 14 94
130 112 0 1208 3 8 103
132 109 0 1207 2 21 102
134 104 0 1212 1 12 102
136 98 0 1197 3 22 100
138 89 0 1200 0 13 106
140 79 0 1202 2 19 106
142 76 0 1222 1 15 96
144 74 0 1221 2 13 100
146 71 0 1237 1 14 104
148 72 0 1230 2 12 96
150 60 0 1246 2 17 105
152 61 0 1256 1 9 88
154 56 0 1254 2 15 105
156 50 0 1272 0 18 91
158 42 0 1270 1 17 112
160 40 0 1279 0 20 107
162 44 0 1294 0 16 111
164 39 0 1298 0 12 103
166 37 0 1295 2 14 106
168 40 0 1286 1 16 95
170 41 0 1282 2 16 84
172 40 0 1270 1 17 95
174 36 0 1264 1 10 105
176 38 0 1259 2 15 98
178 36 0 1262 2 24 102
180 31 0 1269 1 14 107
182 34 0 1280 0 14 108
184 31 0 1274 2 23 110
186 33 0 1278 0 16 96
188 32 0 1273 0 20 108
190 29 0 1274 0 20 103
192 27 0 1270 2 22 103
194 26 0 1274 2 21 103
196 27 0 1275 0 21 97
198 29 0 1268 0 16 108
200 26 0 1273 0 10 100
