0 1407 0 0 0 0 91
2 1408 16 0 15 0 107
4.00004 1428 10 0 14 0 106
6 1441 8 0 30 0 90
8 1471 6 0 19 0 100
10 1461 11 0 29 0 100
12 1469 15 0 21 0 93
14 1492 9 0 17 0 93
16 1496 12 0 30 0 100
18 1507 15 0 23 0 106
20 1526 12 0 22 0 104
22 1533 7 0 19 0 96
24 1532 12 0 22 0 109
26 1531 11 0 18 0 98
28 1537 13 0 15 0 108
30 1542 10 0 21 0 96
32 1550 17 0 14 0 83
34 1533 8 0 32 0 101
36 1520 20 0 19 0 101
38 1536 11 0 27 0 111
40 1550 9 0 22 0 109
42 1546 14 0 19 0 99
44 1546 14 0 17 0 93
46 1564 9 0 12 0 88
48 1555 10 0 16 0 102
50 1549 10 0 28 0 102
52 1334 0 242 22 0 94
54 1166 1 418 14 6 84
56 1013 0 575 14 3 92
58 883 0 710 9 7 97
60 776 3 818 11 11 101
62 687 1 918 10 12 102
64 596 1 1017 9 9 103
66 515 0 1103 8 6 111
68 467 1 1157 9 11 102
70 415 0 1209 9 12 108
72 363 0 1251 11 16 100
74 321 0 1292 5 18 95
76 287 0 1326 6 16 98
78 252 0 1355 3 18 102
80 224 0 1388 3 14 103
82 209 1 1405 1 12 97
84 176 0 1426 8 17 91
86 162 0 1437 9 16 101
88 150 0 1460 4 20 95
90 139 0 1461 5 22 105
92 123 0 1484 1 16 99
94 112 0 1489 2 21 90
96 103 0 1518 2 17 103
98 101 0 1503 2 31 112
100 93 0 1518 3 17 92
102 82 0 1530 2 20 97
104 78 0 1531 2 24 106
106 74 0 1544 1 18 96
108 64 0 1556 2 21 107
110 65 0 1548 1 24 92
112 63 0 1546 0 27 100
114 56 0 1562 2 22 90
116 49 0 1572 1 21 106
118 47 0 1574 0 24 107
120 39 0 1585 3 23 102
122 30 0 1592 0 19 101
124 26 0 1585 1 23 106
126 25 0 1603 0 19 96
128 19 0 1604 1 29 102
130 13 0 1610 0 21 106
132 14 0 1618 0 18 99
134 12 0 1609 1 27 97
136 13 0 1611 0 15 98
138 14 0 1607 0 18 109
140 14 0 1597 0 23 97
142 14 0 1603 0 12 98
144 12 0 1604 1 21 94
146 11 0 1599 1 28 94
148 13 0 1588 0 20 97
150 10 0 1582 1 20 94
152 9 0 1589 0 28 85
154 9 0 1594 0 21 91
156 6 0 1591 0 20 89
158 7 0 1592 0 30 103
160 6 0 1606 0 17 105
162 3 0 1631 0 22 98
164 3 0 1622 0 23 89
166 3 0 1608 0 22 109
168 3 0 1599 0 20 95
170 4 0 1598 0 15 107
172 5 0 1598 0 22 90
174 5 0 1606 0 18 98
176 3 0 1590 0 17 112
178 3 0 1591 0 20 112
180 2 0 1587 1 31 110
182 3 0 1596 0 28 94
184 3 0 1604 0 17 109
186 2 0 1600 0 23 105
188 1 0 1605 0 14 116
190 1 0 1578 0 39 102
192 1 0 1596 0 24 113
194 1 0 1594 1 29 103
196 2 0 1596 0 17 88
198 2 0 1593 0 23 106
200 2 0 1585 0 25 97
