0 1037 0 0 0 0 0
2 959 0 0 78 0 0
4.00004 967 0 0 77 0 0
6 961 0 0 83 0 0
8 951 0 0 76 0 0
10 939 0 0 88 0 0
12 953 0 0 88 0 0
14 945 0 0 88 0 0
16 949 0 0 95 0 0
18 934 0 0 98 0 0
20 955 0 0 88 0 0
22 969 0 0 80 0 0
24 958 0 0 90 0 0
26 953 0 0 108 0 0
28 961 0 0 90 0 0
30 959 0 0 92 0 0
32 956 0 0 86 0 0
34 963 0 0 85 0 0
36 970 0 0 88 0 0
38 964 0 0 90 0 0
40 951 0 0 112 0 0
42 971 0 0 88 0 0
44 985 0 0 74 0 0
46 971 0 0 98 0 0
48 972 0 0 104 0 0
50 971 0 0 97 0 0
52 988 0 0 99 3 0
54 983 0 9 84 6 0
56 982 0 18 80 7 0
58 957 0 21 85 16 0
60 948 0 38 80 15 0
62 952 0 48 68 21 0
64 934 0 59 74 20 0
66 926 0 68 71 31 0
68 929 0 90 58 21 0
70 914 0 104 66 18 0
72 895 0 104 69 27 0
74 905 0 106 53 29 0
76 888 0 115 60 34 0
78 879 0 128 64 31 0
80 881 0 134 54 25 0
82 866 0 142 65 31 0
84 855 0 148 55 37 0
86 833 0 171 69 30 0
88 816 0 169 68 31 0
90 800 0 190 65 37 0
92 804 0 196 51 32 0
94 791 0 204 49 37 0
96 775 0 214 54 42 0
98 778 0 232 48 33 0
100 769 0 238 49 35 0
102 766 0 251 40 31 0
104 762 0 248 41 37 0
106 745 0 261 44 37 0
108 737 0 262 46 38 0
110 714 0 279 56 38 0
112 724 0 275 44 40 0
114 703 0 292 54 42 0
116 695 0 303 59 43 0
118 690 0 310 52 39 0
120 681 0 313 55 40 0
122 686 0 316 43 48 0
124 678 0 326 41 45 0
126 668 0 324 36 53 0
128 663 0 330 39 61 0
130 646 0 351 41 37 0
132 644 0 343 40 40 0
134 635 0 343 42 46 0
136 632 0 347 33 44 0
138 623 0 369 39 41 0
140 619 0 365 42 52 0
142 599 0 374 53 52 0
144 604 0 386 37 49 0
146 596 0 393 39 44 0
148 586 0 383 43 62 0
150 591 0 391 32 48 0
152 575 0 404 42 49 0
154 564 0 416 44 51 0
156 564 0 417 33 54 0
158 551 0 425 39 51 0
160 560 0 433 28 46 0
162 548 0 429 33 55 0
164 545 0 436 31 68 0
166 536 0 453 36 59 0
168 525 0 468 34 55 0
170 523 0 459 26 72 0
172 506 0 475 41 61 0
174 508 0 487 34 61 0
176 493 0 495 42 57 0
178 501 0 506 30 52 0
180 497 0 516 28 52 0
182 495 0 527 24 54 0
184 485 0 530 35 60 0
186 486 0 530 28 69 0
188 480 0 562 32 47 0
190 477 0 567 32 62 0
192 471 0 559 29 66 0
194 473 0 570 24 70 0
196 465 0 596 29 46 0
198 458 0 582 25 66 0
200 460 0 578 25 67 0
