0 1205 0 0 0 0 0
2 1145 0 0 71 0 0
4.00004 1155 0 0 64 0 0
6 1161 0 0 63 0 0
8 1144 0 0 73 0 0
10 1147 0 0 64 0 0
12 1156 0 0 67 0 0
14 1158 0 0 69 0 0
16 1153 0 0 66 0 0
18 1163 0 0 62 0 0
20 1137 0 0 76 0 0
22 1147 0 0 69 0 0
24 1166 0 0 61 0 0
26 1125 0 0 78 0 0
28 1136 0 0 81 0 0
30 1142 0 0 85 0 0
32 1160 0 0 73 0 0
34 1134 0 0 80 0 0
36 1149 0 0 64 0 0
38 1157 0 0 78 0 0
40 1159 0 0 71 0 0
42 1172 0 0 71 0 0
44 1165 0 0 79 0 0
46 1175 0 0 70 0 0
48 1168 0 0 68 0 0
50 1167 0 0 62 0 0
52 1170 0 0 70 0 0
54 1168 0 5 52 3 0
56 1152 0 12 54 8 0
58 1156 0 22 50 9 0
60 1141 0 29 50 8 0
62 1128 0 34 46 11 0
64 1113 0 38 48 15 0
66 1109 0 48 49 17 0
68 1099 0 60 45 17 0
70 1088 0 71 48 18 0
72 1087 0 73 44 26 0
74 1067 0 81 55 19 0
76 1071 0 92 35 27 0
78 1056 0 90 43 27 0
80 1055 0 98 39 21 0
82 1044 0 114 40 20 0
84 1033 0 119 44 26 0
86 1038 0 125 40 24 0
88 1038 0 125 30 21 0
90 1022 0 146 43 22 0
92 1022 0 147 35 26 0
94 1001 0 147 37 32 0
96 1005 0 164 34 24 0
98 1003 0 168 30 25 0
100 985 0 157 34 35 0
102 983 0 176 40 29 0
104 977 0 179 27 30 0
106 966 0 198 36 31 0
108 951 0 207 35 25 0
110 945 0 207 44 35 0
112 943 0 226 30 25 0
114 934 0 234 39 30 0
116 937 0 230 32 34 0
118 917 0 238 39 27 0
120 926 0 240 28 27 0
122 907 0 236 35 28 0
124 907 0 242 33 34 0
126 905 0 247 28 31 0
128 898 0 257 35 28 0
130 890 0 270 32 33 0
132 873 0 269 37 32 0
134 875 0 288 37 25 0
136 882 0 295 25 37 0
138 866 0 295 27 39 0
140 867 0 303 24 41 0
142 860 0 301 26 32 0
144 845 0 306 32 30 0
146 849 0 310 26 36 0
148 833 0 319 37 28 0
150 835 0 316 25 33 0
152 823 0 330 39 35 0
154 816 0 337 41 29 0
156 821 0 337 28 38 0
158 814 0 341 31 40 0
160 801 0 350 36 34 0
162 800 0 353 30 31 0
164 794 0 362 30 30 0
166 783 0 367 33 35 0
168 787 0 369 30 36 0
170 784 0 380 22 36 0
172 779 0 397 26 36 0
174 779 0 402 24 31 0
176 766 0 424 32 33 0
178 763 0 423 34 42 0
180 757 0 426 33 31 0
182 751 0 427 28 43 0
184 751 0 441 31 37 0
186 737 0 442 37 42 0
188 741 0 447 29 35 0
190 734 0 443 25 38 0
192 734 0 456 22 25 0
194 732 0 465 19 31 0
196 711 0 470 26 40 0
198 712 0 482 25 29 0
200 709 0 480 25 44 0
