0 1045 0 0 0 0 0
2 983 12 0 22 0 20
4.00004 962 18 0 37 0 22
6 989 15 0 30 0 13
8 963 21 0 26 0 20
10 980 5 0 36 0 11
12 958 20 0 39 0 20
14 954 19 0 34 0 18
16 963 18 0 27 0 13
18 965 13 0 41 0 13
20 955 16 0 35 0 16
22 948 12 0 38 0 17
24 948 11 0 46 0 20
26 942 9 0 50 0 14
28 935 21 0 35 0 22
30 951 19 0 30 0 13
32 940 19 0 35 0 17
34 951 13 0 42 0 20
36 935 18 0 35 0 20
38 968 9 0 29 0 12
40 939 21 0 40 0 16
42 935 16 0 41 0 26
44 946 24 0 36 0 18
46 948 22 0 39 0 17
48 944 14 0 37 0 23
50 931 22 0 52 0 18
52 738 0 232 16 38 0
54 616 1 347 19 43 0
56 545 0 429 12 46 0
58 470 0 494 10 49 0
60 415 0 557 9 52 0
62 354 0 612 10 65 0
64 292 1 685 6 59 0
66 254 0 720 7 62 0
68 219 0 765 4 56 0
70 196 0 796 11 52 0
72 170 0 825 10 48 0
74 141 0 850 4 39 0
76 129 0 852 5 49 0
78 111 1 866 3 46 0
80 110 0 898 7 39 0
82 86 0 911 3 50 0
84 80 0 925 6 49 0
86 74 0 938 4 50 0
88 66 0 960 6 34 0
90 62 0 957 4 55 0
92 59 0 983 5 40 0
94 48 0 983 5 54 0
96 49 0 980 5 58 0
98 43 0 984 4 46 0
100 36 0 985 4 53 1
102 32 0 998 4 52 0
104 25 0 986 7 63 0
106 24 0 994 4 47 0
108 20 0 1008 4 45 0
110 18 0 1000 8 41 0
112 15 0 1009 3 48 0
114 19 0 1000 3 50 0
116 12 0 993 5 59 0
118 14 0 997 9 61 0
120 14 0 1010 4 48 0
122 10 0 1009 5 59 0
124 12 0 1014 2 62 0
126 12 0 1020 2 55 0
128 11 0 1021 2 60 1
130 8 0 1023 5 62 0
132 9 0 1039 4 64 1
134 8 0 1027 2 63 0
136 7 0 1042 5 50 0
138 8 0 1035 2 60 0
140 6 0 1057 5 55 0
142 11 0 1047 0 59 0
144 9 0 1046 3 66 0
146 2 0 1043 2 60 0
148 2 0 1044 3 61 0
150 5 0 1047 6 49 0
152 2 0 1043 2 45 0
154 7 0 1026 4 61 0
156 7 0 1025 4 60 0
158 6 0 1019 2 63 0
160 3 0 1011 5 59 0
162 8 0 1021 2 47 0
164 7 0 1008 5 50 0
166 6 0 1006 1 55 0
168 4 0 1002 2 51 0
170 6 0 1000 2 62 0
172 10 0 1013 4 46 0
174 5 0 1011 5 50 0
176 2 0 1004 4 43 0
178 7 0 1013 1 56 0
180 5 0 1002 3 66 0
182 4 0 1011 0 66 0
184 2 0 1012 5 68 0
186 5 0 1031 1 60 0
188 8 0 1033 2 67 0
190 6 0 1048 2 48 0
192 4 0 1042 1 61 0
194 4 0 1037 2 58 0
196 3 0 1027 4 49 0
198 2 0 1025 0 49 1
200 7 0 1015 2 52 0
