0 1201 0 0 0 0 0
2 1103 0 0 109 0 0
4.00004 1110 0 0 105 0 0
6 1096 0 0 111 0 0
8 1099 0 0 112 0 0
10 1102 0 0 98 0 0
12 1094 0 0 107 0 0
14 1096 0 0 102 0 0
16 1088 0 0 118 0 0
18 1094 0 0 109 0 0
20 1098 0 0 106 0 0
22 1082 0 0 117 0 0
24 1066 0 0 133 0 0
26 1071 0 0 126 0 0
28 1076 0 0 124 0 0
30 1063 0 0 124 0 0
32 1095 0 0 94 0 0
34 1083 0 0 105 0 0
36 1070 0 0 108 0 0
38 1057 0 0 128 0 0
40 1069 0 0 123 0 0
42 1084 0 0 108 0 0
44 1076 0 0 116 0 0
46 1082 0 0 110 0 0
48 1087 0 0 100 0 0
50 1102 0 0 98 0 0
52 1082 0 5 92 5 0
54 1070 0 7 103 16 0
56 1054 0 23 104 17 0
58 1054 0 26 81 25 0
60 1047 0 47 88 22 0
62 1037 0 54 84 27 0
64 1032 0 59 71 30 0
66 1011 0 66 77 27 0
68 991 0 78 79 22 0
70 977 0 87 75 39 0
72 946 0 100 86 36 0
74 937 0 132 74 28 0
76 918 0 130 83 50 0
78 905 0 151 73 32 0
80 899 0 151 69 41 0
82 887 0 167 71 39 0
84 868 0 176 70 39 0
86 863 0 181 74 45 0
88 846 0 195 68 41 0
90 843 0 214 65 46 0
92 836 0 216 58 42 0
94 818 0 224 66 45 0
96 808 0 231 68 52 0
98 803 0 238 60 61 0
100 787 0 254 56 47 0
102 782 0 261 51 54 0
104 774 0 271 51 50 0
106 758 0 275 52 56 0
108 751 0 281 47 58 0
110 744 0 307 40 43 0
112 722 0 308 60 50 0
114 730 0 309 45 53 0
116 716 0 317 49 49 0
118 705 0 342 50 44 0
120 688 0 341 55 49 0
122 689 0 353 42 58 0
124 680 0 354 40 69 0
126 676 0 377 36 60 0
128 651 0 380 50 69 0
130 644 0 398 46 63 0
132 631 0 411 51 52 0
134 622 0 424 44 68 0
136 611 0 429 47 65 0
138 604 0 424 41 80 0
140 594 0 455 48 66 0
142 588 0 462 41 61 0
144 567 0 467 61 73 0
146 578 0 467 43 86 0
148 564 0 485 52 55 0
150 547 0 488 55 75 0
152 535 0 506 57 61 0
154 526 0 524 48 61 0
156 516 0 512 56 71 0
158 511 0 536 45 65 0
160 499 0 539 48 73 0
162 487 0 521 53 87 0
164 492 0 525 44 89 0
166 471 0 556 55 80 0
168 478 0 553 44 75 0
170 468 0 555 48 85 0
172 464 0 577 39 71 0
174 456 0 582 32 81 0
176 447 0 584 41 83 0
178 435 0 588 41 80 0
180 437 0 596 30 94 0
182 418 0 610 42 74 0
184 413 0 608 35 92 0
186 407 0 644 29 72 0
188 406 0 634 31 78 0
190 405 0 629 27 94 0
192 398 0 650 27 82 0
194 385 0 656 37 85 0
196 383 0 667 34 70 0
198 382 0 677 30 76 0
200 366 0 678 32 82 0
