0 1106 0 0 0 0 0
2 1052 0 0 53 0 0
4.00004 1048 0 0 51 0 0
6 1041 0 0 57 0 0
8 1029 0 0 71 0 0
10 1040 0 0 59 0 0
12 1031 0 0 65 0 0
14 1040 0 0 54 0 0
16 1026 0 0 56 0 0
18 1018 0 0 61 0 0
20 1014 0 0 61 0 0
22 1017 0 0 61 0 0
24 1013 0 0 74 0 0
26 1008 0 0 77 0 0
28 1050 0 0 51 0 0
30 1014 0 0 79 0 0
32 1014 0 0 77 0 0
34 1017 0 0 76 0 0
36 1032 0 0 70 0 0
38 1016 0 0 67 0 0
40 1008 0 0 76 0 0
42 1008 0 0 75 0 0
44 1013 0 0 68 0 0
46 1014 0 0 78 0 0
48 1009 0 0 85 0 0
50 1011 0 0 70 0 0
52 1005 0 0 73 2 0
54 986 0 4 85 4 0
56 1005 0 6 63 6 0
58 981 0 18 77 12 0
60 982 0 31 54 5 0
62 968 0 37 54 11 0
64 963 0 37 51 20 0
66 954 0 50 47 16 0
68 952 0 62 52 20 0
70 944 0 68 49 23 0
72 922 0 83 51 18 0
74 912 0 86 55 28 0
76 903 0 95 48 21 0
78 883 0 94 59 20 0
80 882 0 114 52 16 0
82 856 0 111 57 28 0
84 851 0 125 54 24 0
86 832 0 134 59 26 0
88 826 0 141 48 31 0
90 838 0 147 36 29 0
92 810 0 169 35 23 0
94 801 0 167 48 37 0
96 810 0 175 37 29 0
98 800 0 183 35 29 0
100 793 0 195 39 34 0
102 776 0 203 36 34 0
104 771 0 205 37 36 0
106 769 0 217 32 38 0
108 754 0 231 36 41 0
110 746 0 229 40 36 0
112 738 0 243 42 25 0
114 746 0 245 30 32 0
116 731 0 236 34 41 0
118 730 0 243 32 43 0
120 710 0 264 42 29 0
122 703 0 265 37 34 0
124 698 0 267 39 36 0
126 692 0 266 40 42 0
128 690 0 288 33 33 0
130 686 0 288 26 34 0
132 676 0 299 30 36 0
134 655 0 299 38 37 0
136 655 0 323 34 31 0
138 641 0 326 38 31 0
140 634 0 326 44 37 0
142 636 0 349 30 26 0
144 612 0 347 42 25 0
146 612 0 341 35 40 0
148 614 0 351 26 35 0
150 600 0 354 37 38 0
152 585 0 366 41 36 0
154 585 0 365 31 42 0
156 583 0 378 30 37 0
158 577 0 391 31 38 0
160 568 0 397 33 33 0
162 574 0 395 28 48 0
164 571 0 409 25 41 0
166 559 0 420 30 47 0
168 562 0 433 24 37 0
170 562 0 432 21 39 0
172 552 0 447 28 36 0
174 548 0 444 25 40 0
176 547 0 449 26 41 0
178 537 0 453 26 37 0
180 532 0 467 24 32 0
182 526 0 470 20 39 0
184 527 0 470 16 52 0
186 512 0 485 30 36 0
188 511 0 481 31 45 0
190 516 0 505 21 40 0
192 501 0 519 28 40 0
194 505 0 506 19 51 0
196 502 0 528 16 40 0
198 484 0 547 24 31 0
200 485 0 537 26 42 0
