0 113 0 0 0
2 112 0 1 0
4.00004 113 0 0 0
6 113 0 0 0
8 112 0 0 0
10 112 0 0 0
12 0 112 0 0
14 0 112 0 0
16 0 112 0 0
18 0 112 0 0
20 0 112 0 0
22 0 112 0 0
24 0 110 0 0
26 0 110 0 0
28 0 111 0 0
30 0 111 0 1
32 0 112 0 0
34 0 111 0 0
36 0 111 0 0
38 0 112 0 0
40 0 112 0 0
42 0 111 0 0
44 0 112 0 0
46 0 112 0 0
48 0 112 0 1
50 0 112 0 0
52 0 112 0 0
54 0 112 0 0
56 0 112 0 0
58 0 112 0 0
60 0 112 0 0
62 0 112 0 0
64 0 112 0 0
66 0 111 0 0
68 0 111 0 0
70 0 110 0 0
72 0 110 0 0
74 0 111 0 0
76 0 111 0 0
78 0 111 0 0
80 0 112 0 0
82 0 112 0 0
84 0 112 0 0
86 0 112 0 0
88 0 112 0 0
90 0 112 0 0
92 0 113 0 0
94 0 114 0 0
96 0 114 0 0
98 0 115 0 0
100 0 115 0 0
102 0 114 0 1
104 0 114 0 0
106 0 115 0 0
108 0 115 0 0
110 0 115 0 0
112 0 115 0 0
114 0 114 0 0
116 0 114 0 0
118 0 114 0 0
120 0 114 0 0
122 0 113 0 1
124 0 114 0 0
126 0 114 0 0
128 0 114 0 0
130 0 114 0 0
132 0 114 0 0
134 0 114 0 1
136 0 114 0 0
138 0 113 0 0
140 0 113 0 0
142 0 114 0 0
144 0 115 0 0
146 0 114 0 1
148 0 114 0 0
150 0 113 0 1
152 0 113 0 0
154 0 113 0 0
156 0 113 0 0
158 0 112 0 0
160 0 112 0 0
162 0 112 0 0
164 0 112 0 0
166 0 112 0 0
168 0 111 0 0
170 0 111 0 0
172 0 112 0 0
174 0 112 0 0
176 0 112 0 0
178 0 112 0 0
180 0 112 0 0
182 0 112 0 0
184 0 112 0 0
186 0 112 0 0
188 0 112 0 0
190 0 112 0 0
192 0 112 0 0
194 0 112 0 0
196 0 112 0 0
198 0 113 0 0
200 0 113 0 0
202 0 113 0 0
204 0 113 0 0
206 0 113 0 0
208 0 113 0 0
210 0 112 0 1
