0 126 0 0 0
2 124 0 1 0
4.00004 125 0 0 0
6 124 0 1 0
8 123 0 1 0
10 125 0 1 0
12 109 16 1 0
14 100 26 0 0
16 90 37 0 0
18 79 47 0 0
20 72 54 0 0
22 65 61 0 0
24 58 68 0 0
26 52 75 0 0
28 47 80 0 0
30 45 83 0 0
32 42 86 0 0
34 40 88 0 0
36 38 89 0 1
38 33 95 0 0
40 30 97 0 0
42 27 100 0 0
44 25 101 0 1
46 23 104 0 0
48 24 104 0 0
50 21 107 0 0
52 19 110 0 0
54 18 111 0 0
56 18 111 0 0
58 14 115 0 0
60 11 117 0 1
62 11 117 0 0
64 8 120 0 0
66 7 122 0 0
68 8 122 0 0
70 8 121 0 0
72 7 120 0 0
74 5 122 0 0
76 5 121 0 1
78 5 122 0 0
80 5 122 0 0
82 5 124 0 0
84 5 124 0 0
86 3 126 0 0
88 3 126 0 0
90 3 126 0 0
92 3 126 0 0
94 2 127 0 0
96 3 127 0 0
98 3 126 0 0
100 3 126 0 0
102 2 127 0 0
104 2 127 0 0
106 1 128 0 0
108 1 128 0 0
110 1 128 0 0
112 1 129 0 0
114 1 129 0 0
116 1 129 0 0
118 1 128 0 0
120 1 128 0 1
122 1 129 0 0
124 2 129 0 0
126 1 129 0 1
128 1 129 0 0
130 2 128 0 0
132 1 129 0 0
134 1 130 0 0
136 1 130 0 0
138 1 130 0 0
140 1 130 0 0
142 1 130 0 0
144 1 130 0 0
146 1 130 0 0
148 1 128 0 1
150 1 129 0 0
152 1 130 0 0
154 1 129 0 0
156 1 130 0 0
158 1 130 0 0
160 2 130 0 0
162 2 130 0 0
164 2 130 0 0
166 1 131 0 0
168 0 131 0 1
170 0 132 0 0
172 0 132 0 0
174 0 132 0 0
176 0 132 0 0
178 0 132 0 0
180 0 131 0 0
182 0 131 0 0
184 0 131 0 0
186 0 131 0 0
188 0 131 0 0
190 0 131 0 0
192 0 131 0 0
194 0 132 0 0
196 0 132 0 0
198 0 132 0 0
200 0 132 0 0
202 0 132 0 0
204 1 132 0 0
206 1 132 0 0
208 2 132 0 0
210 2 131 0 0
