0 41 0 0 0
2 41 0 0 0
4.00004 42 0 0 0
6 44 0 0 0
8 44 0 0 0
10 44 0 0 0
12 43 0 1 0
14 44 0 0 0
16 44 0 0 0
18 45 0 0 0
20 45 0 0 0
22 45 0 0 0
24 45 0 0 0
26 45 0 0 0
28 43 0 1 0
30 42 0 0 0
32 41 1 0 0
34 41 2 0 0
36 41 2 0 0
38 41 2 0 0
40 41 2 0 0
42 41 2 0 0
44 40 2 1 1
46 39 3 1 0
48 40 3 0 0
50 40 3 0 0
52 40 2 0 1
54 40 3 0 0
56 40 3 0 0
58 40 3 0 0
60 40 3 0 0
62 40 3 0 0
64 40 4 0 0
66 40 4 0 0
68 40 4 0 0
70 40 4 0 0
72 40 4 0 0
74 40 4 0 0
76 40 4 0 0
78 40 4 0 0
80 40 4 0 0
82 40 4 0 0
84 40 4 0 0
86 40 5 0 0
88 40 5 0 0
90 40 5 0 0
92 39 6 1 0
94 39 6 1 0
96 40 7 0 0
98 40 7 0 0
100 40 7 0 0
102 40 7 0 0
104 40 7 0 0
106 40 7 0 0
108 40 7 0 0
110 40 7 0 0
112 39 7 0 0
114 39 7 0 0
116 39 7 0 0
118 38 7 1 0
120 39 7 0 0
122 39 7 0 0
124 39 7 0 0
126 39 7 0 0
128 39 7 0 0
130 39 7 0 0
132 39 7 0 0
134 39 7 0 0
136 39 7 0 0
138 39 7 0 0
140 38 7 0 1
142 38 7 0 0
144 38 7 0 0
146 37 7 0 0
148 37 8 0 0
150 36 8 0 0
152 36 8 0 0
154 35 8 1 0
156 36 8 0 0
158 36 8 0 0
160 35 9 1 0
162 36 9 0 0
164 35 9 0 0
166 35 9 0 0
168 35 9 0 0
170 35 9 0 0
172 35 9 0 0
174 35 11 0 0
176 35 11 0 0
178 35 10 0 0
180 35 11 0 0
182 35 11 0 0
184 35 11 0 0
186 35 12 0 0
188 35 11 0 1
190 35 12 0 0
192 35 12 0 0
194 35 12 0 0
196 35 12 0 0
198 35 12 0 0
200 35 12 0 0
202 35 12 0 0
204 35 12 0 0
206 34 13 0 0
208 34 13 0 0
210 34 13 0 0
