0 38 0 0 0
2 39 0 0 0
4.00004 39 0 0 0
6 39 0 0 0
8 40 0 0 0
10 40 0 0 0
12 39 0 0 0
14 38 0 2 0
16 38 0 1 0
18 39 0 0 0
20 38 0 1 0
22 38 0 0 0
24 38 0 0 0
26 37 0 0 0
28 37 0 0 0
30 36 0 0 0
32 34 0 1 0
34 35 0 0 0
36 35 0 0 0
38 35 0 0 0
40 35 0 0 0
42 35 0 0 0
44 35 1 0 0
46 36 1 0 0
48 37 1 0 0
50 37 1 0 0
52 37 1 0 0
54 37 1 0 0
56 37 1 0 0
58 37 1 0 0
60 37 1 0 0
62 37 2 0 0
64 37 2 0 0
66 37 2 0 0
68 37 2 0 0
70 37 2 0 0
72 37 2 0 0
74 36 2 0 0
76 36 2 0 0
78 36 2 0 0
80 36 2 0 0
82 36 2 0 0
84 36 2 0 0
86 36 2 0 0
88 35 2 1 0
90 34 2 0 0
92 35 2 0 0
94 35 2 0 0
96 35 2 0 0
98 35 2 0 0
100 35 2 0 0
102 35 2 0 0
104 35 2 0 0
106 34 2 1 0
108 34 2 0 0
110 33 2 0 0
112 33 2 0 0
114 33 2 0 0
116 33 2 0 0
118 33 2 0 0
120 32 2 0 0
122 32 2 0 0
124 32 2 0 0
126 32 2 0 0
128 32 2 0 0
130 32 2 0 0
132 32 2 0 0
134 32 2 0 0
136 32 2 0 0
138 32 2 0 0
140 31 3 1 0
142 32 3 0 0
144 32 3 0 0
146 32 5 0 0
148 32 5 0 0
150 32 5 0 0
152 32 5 0 0
154 32 5 0 0
156 32 5 0 0
158 32 5 0 0
160 32 5 0 0
162 32 6 0 0
164 32 6 0 0
166 32 6 0 0
168 32 6 0 0
170 31 6 1 0
172 31 6 1 0
174 32 6 0 0
176 32 6 0 0
178 31 6 0 0
180 30 6 1 0
182 31 6 0 0
184 31 6 0 0
186 31 6 0 0
188 31 6 0 0
190 31 6 0 0
192 31 7 0 0
194 31 7 0 0
196 31 7 0 0
198 31 7 0 0
200 31 7 0 0
202 30 7 1 0
204 31 7 0 0
206 31 7 0 0
208 30 7 0 0
210 30 7 0 0
