0 1027 0 0 0 0 0
2 988 0 0 42 0 0
4.00004 982 0 0 40 0 0
6 984 0 0 32 0 0
8 998 0 0 25 0 0
10 985 0 0 32 0 0
12 971 0 0 46 0 0
14 992 0 0 26 0 0
16 981 0 0 30 0 0
18 965 0 0 39 0 0
20 969 0 0 33 0 0
22 967 0 0 30 0 0
24 954 0 0 42 0 0
26 951 0 0 43 0 0
28 961 0 0 25 0 0
30 942 0 0 41 0 0
32 954 0 0 27 0 0
34 955 0 0 27 0 0
36 947 0 0 31 0 0
38 949 0 0 35 0 0
40 941 0 0 42 0 0
42 946 0 0 35 0 0
44 947 0 0 36 0 0
46 954 0 0 33 0 0
48 947 0 0 34 0 0
50 950 0 0 33 0 0
52 950 0 0 27 0 0
54 934 0 4 37 0 0
56 933 0 8 39 4 0
58 930 0 13 28 2 0
60 926 0 16 31 3 0
62 918 0 23 28 2 0
64 901 0 22 38 11 0
66 904 0 26 31 14 0
68 884 0 34 43 7 0
70 897 0 43 23 11 0
72 886 0 40 28 13 0
74 883 0 54 24 7 0
76 878 0 56 27 14 0
78 880 0 66 21 9 0
80 864 0 71 30 10 0
82 863 0 75 20 9 0
84 864 0 85 15 6 0
86 858 0 88 15 9 0
88 841 0 91 28 9 0
90 838 0 97 27 7 0
92 835 0 103 28 13 0
94 825 0 114 22 7 0
96 824 0 124 23 6 0
98 821 0 129 18 10 0
100 806 0 132 23 8 0
102 807 0 121 18 11 0
104 800 0 130 22 9 0
106 800 0 137 18 10 0
108 784 0 138 27 11 0
110 787 0 149 20 14 0
112 774 0 155 32 13 0
114 778 0 163 19 14 0
116 766 0 170 19 14 0
118 751 0 182 21 4 0
120 744 0 179 22 14 0
122 736 0 183 22 16 0
124 735 0 193 24 9 0
126 735 0 194 18 9 0
128 721 0 196 27 13 0
130 720 0 198 28 15 0
132 723 0 196 21 18 0
134 710 0 209 32 11 0
136 707 0 207 29 16 0
138 705 0 212 22 13 0
140 707 0 219 14 11 0
142 698 0 224 17 13 0
144 688 0 227 18 15 0
146 679 0 227 28 19 0
148 684 0 235 16 9 0
150 676 0 231 18 17 0
152 675 0 237 15 11 0
154 669 0 241 16 15 0
156 647 0 235 27 18 0
158 648 0 241 30 11 0
160 645 0 247 27 11 0
162 650 0 249 19 14 0
164 645 0 258 20 7 0
166 635 0 265 25 11 0
168 632 0 264 19 15 0
170 625 0 267 17 15 0
172 621 0 272 18 22 0
174 614 0 272 25 19 0
176 613 0 278 17 17 0
178 600 0 279 30 22 0
180 598 0 290 25 15 0
182 603 0 289 13 17 0
184 590 0 287 17 19 0
186 583 0 300 18 17 0
188 582 0 308 17 18 0
190 569 0 322 22 22 0
192 564 0 324 24 19 0
194 563 0 330 15 25 0
196 557 0 326 20 30 0
198 547 0 341 21 24 0
200 548 0 353 18 22 0
