0 958 0 0 0 0 0
2 896 21 0 22 0 8
4.00004 899 18 0 26 0 3
6 887 20 0 33 0 5
8 895 12 0 28 0 7
10 894 17 0 33 0 3
12 886 26 0 34 0 9
14 889 14 0 41 0 2
16 880 28 0 38 0 5
18 897 19 0 26 0 5
20 897 15 0 35 0 5
22 904 11 0 36 0 9
24 884 19 0 41 0 12
26 896 18 0 40 0 3
28 903 13 0 31 0 3
30 905 15 0 29 0 7
32 900 18 0 31 0 7
34 895 13 0 40 0 11
36 899 15 0 43 0 8
38 906 13 0 34 0 4
40 893 20 0 40 0 6
42 905 18 0 31 0 5
44 899 18 0 38 0 8
46 906 11 0 30 0 9
48 908 16 0 37 0 3
50 906 19 0 28 0 8
52 715 0 199 34 14 0
54 625 0 292 24 18 0
56 517 1 390 28 14 0
58 452 2 452 30 18 0
60 384 0 528 28 18 0
62 340 1 571 21 28 0
64 272 0 637 24 17 0
66 244 1 653 22 24 0
68 210 0 702 22 16 0
70 196 0 717 19 16 0
72 173 0 722 24 31 0
74 160 0 745 21 28 0
76 141 0 769 19 23 0
78 133 0 768 21 35 0
80 121 0 780 19 27 0
82 114 0 786 11 27 0
84 108 0 790 14 29 0
86 93 0 800 22 23 0
88 103 0 793 10 25 0
90 92 0 801 16 25 0
92 102 0 805 12 24 0
94 89 0 809 25 24 0
96 101 0 801 12 31 0
98 90 0 815 11 31 0
100 94 0 814 8 34 0
102 85 0 827 13 25 0
104 69 0 836 16 31 0
106 67 0 836 13 25 0
108 63 0 829 17 36 0
110 64 0 831 12 36 0
112 58 0 832 13 30 0
114 62 0 836 10 28 0
116 57 0 841 12 34 0
118 62 0 845 11 24 0
120 60 0 838 10 35 0
122 56 0 850 7 24 0
124 51 0 855 9 27 0
126 47 0 838 12 36 0
128 50 0 839 7 39 0
130 49 0 852 5 28 0
132 46 0 856 8 30 0
134 48 0 851 10 29 0
136 44 0 867 12 18 0
138 44 0 854 8 32 0
140 48 0 851 8 33 0
142 44 0 845 12 33 0
144 54 0 840 8 36 0
146 60 0 851 7 22 0
148 59 0 836 7 31 0
150 55 0 832 12 41 0
152 57 0 847 9 35 0
154 58 0 843 7 37 0
156 53 0 852 6 31 0
158 54 0 866 10 25 0
160 52 0 840 5 48 0
162 48 0 839 10 35 0
164 44 0 846 14 27 0
166 48 0 848 11 27 0
168 48 0 851 7 24 0
170 47 0 846 10 29 0
172 50 0 845 6 31 0
174 55 0 847 9 30 0
176 57 0 842 8 29 0
178 54 0 842 12 24 0
180 50 0 832 6 42 0
182 41 0 851 11 28 0
184 54 0 838 4 41 0
186 54 0 835 7 46 0
188 50 0 860 6 17 0
190 42 0 858 9 26 0
192 55 0 854 5 31 0
194 42 0 846 14 34 0
196 39 0 858 9 23 0
198 38 0 853 7 28 0
200 37 0 851 4 33 0
