0 1060 0 0 0 0 0
2 1028 0 0 35 0 0
4.00004 1023 0 0 35 0 0
6 1027 0 0 38 0 0
8 1050 0 0 33 0 0
10 1043 0 0 42 0 0
12 1034 0 0 34 0 0
14 1028 0 0 40 0 0
16 1022 0 0 42 0 0
18 1020 0 0 33 0 0
20 1011 0 0 39 0 0
22 1004 0 0 43 0 0
24 1014 0 0 36 0 0
26 1004 0 0 43 0 0
28 1008 0 0 36 0 0
30 1010 0 0 41 0 0
32 1014 0 0 36 0 0
34 1017 0 0 38 0 0
36 1013 0 0 36 0 0
38 1006 0 0 45 0 0
40 1021 0 0 33 0 0
42 1014 0 0 26 0 0
44 999 0 0 40 0 0
46 997 0 0 38 0 0
48 992 0 0 45 0 0
50 991 0 0 42 0 0
52 991 0 0 42 0 0
54 998 0 5 24 3 0
56 983 0 8 27 3 0
58 966 0 13 39 9 0
60 964 0 29 38 12 0
62 964 0 38 24 10 0
64 948 0 39 35 12 0
66 948 0 46 34 10 0
68 941 0 61 32 6 0
70 944 0 59 22 9 0
72 929 0 56 27 10 0
74 914 0 60 38 11 0
76 924 0 68 26 5 0
78 908 0 68 33 10 0
80 905 0 74 32 9 0
82 891 0 76 33 7 0
84 886 0 78 29 12 0
86 871 0 86 34 12 0
88 856 0 93 36 11 0
90 868 0 98 20 5 0
92 850 0 105 28 8 0
94 845 0 110 27 8 0
96 840 0 112 31 13 0
98 840 0 124 20 10 0
100 831 0 115 27 15 0
102 828 0 126 22 12 0
104 811 0 131 34 12 0
106 815 0 131 28 17 0
108 816 0 138 22 14 0
110 804 0 137 35 17 0
112 808 0 149 26 9 0
114 801 0 145 22 13 0
116 793 0 143 25 20 0
118 789 0 151 20 13 0
120 770 0 153 30 16 0
122 776 0 158 20 14 0
124 767 0 156 21 19 0
126 764 0 162 19 16 0
128 750 0 170 27 11 0
130 762 0 177 13 12 0
132 745 0 172 25 16 0
134 735 0 183 28 8 0
136 736 0 190 27 13 0
138 738 0 185 22 16 0
140 724 0 196 25 11 0
142 715 0 199 27 15 0
144 721 0 201 20 13 0
146 716 0 199 22 16 0
148 719 0 207 19 19 0
150 712 0 220 24 15 0
152 713 0 227 20 14 0
154 703 0 227 23 17 0
156 699 0 234 23 18 0
158 702 0 225 18 25 0
160 699 0 237 17 14 0
162 693 0 244 21 15 0
164 689 0 242 20 22 0
166 687 0 243 15 24 0
168 680 0 252 16 23 0
170 671 0 273 19 11 0
172 668 0 266 18 16 0
174 659 0 273 20 23 0
176 664 0 276 15 20 0
178 654 0 286 26 11 0
180 651 0 295 19 12 0
182 648 0 295 19 15 0
184 636 0 301 23 19 0
186 632 0 309 23 14 0
188 624 0 317 25 12 0
190 631 0 313 15 18 0
192 617 0 316 19 16 0
194 614 0 315 19 18 0
196 604 0 320 27 14 0
198 610 0 321 20 19 0
200 602 0 335 19 4 0
