0 1103 0 0 0 0 0
2 1083 0 0 16 0 0
4.00004 1077 0 0 19 0 0
6 1076 0 0 25 0 0
8 1070 0 0 22 0 0
10 1073 0 0 25 0 0
12 1076 0 0 20 0 0
14 1074 0 0 26 0 0
16 1066 0 0 24 0 0
18 1080 0 0 13 0 0
20 1075 0 0 18 0 0
22 1074 0 0 23 0 0
24 1074 0 0 23 0 0
26 1070 0 0 26 0 0
28 1067 0 0 24 0 0
30 1078 0 0 14 0 0
32 1071 0 0 26 0 0
34 1056 0 0 30 0 0
36 1060 0 0 24 0 0
38 1058 0 0 17 0 0
40 1057 0 0 24 0 0
42 1064 0 0 19 0 0
44 1062 0 0 18 0 0
46 1053 0 0 21 0 0
48 1057 0 0 18 0 0
50 1064 0 0 8 0 0
52 1054 0 0 22 1 0
54 1053 0 0 20 1 0
56 1060 0 4 16 0 0
58 1046 0 6 24 2 0
60 1041 0 14 14 1 0
62 1040 0 13 13 3 0
64 1027 0 16 19 2 0
66 1025 0 14 25 5 0
68 1032 0 22 15 0 0
70 1031 0 20 15 2 0
72 1028 0 28 14 3 0
74 1019 0 32 16 3 0
76 1018 0 30 14 2 0
78 1009 0 38 21 2 0
80 1010 0 44 17 2 0
82 1006 0 43 21 6 0
84 1002 0 52 17 2 0
86 997 0 57 19 4 0
88 1000 0 60 15 6 0
90 1001 0 62 10 8 0
92 991 0 70 18 5 0
94 1000 0 71 7 8 0
96 986 0 74 21 6 0
98 996 0 78 9 6 0
100 987 0 85 13 4 0
102 982 0 97 14 1 0
104 981 0 98 11 6 0
106 979 0 103 14 6 0
108 972 0 98 12 7 0
110 978 0 106 4 5 0
112 964 0 110 12 3 0
114 962 0 102 13 7 0
116 963 0 107 15 5 0
118 968 0 112 4 4 0
120 957 0 111 11 7 0
122 947 0 118 17 8 0
124 948 0 116 10 8 0
126 946 0 120 12 6 0
128 944 0 128 12 4 0
130 946 0 127 7 5 0
132 939 0 133 17 8 0
134 935 0 138 16 9 0
136 938 0 143 13 7 0
138 935 0 143 15 6 0
140 931 0 141 10 7 0
142 927 0 151 12 5 0
144 920 0 156 7 5 0
146 911 0 159 14 6 0
148 918 0 158 5 10 0
150 908 0 165 13 11 0
152 902 0 166 17 7 0
154 906 0 168 11 8 0
156 902 0 171 13 8 0
158 899 0 175 12 8 0
160 889 0 179 15 4 0
162 870 0 186 22 7 0
164 879 0 181 11 10 0
166 875 0 187 12 8 0
168 879 0 190 8 6 0
170 870 0 189 13 8 0
172 865 0 191 14 7 0
174 868 0 204 14 7 0
176 864 0 202 14 12 0
178 860 0 205 11 9 0
180 860 0 214 9 2 0
182 855 0 211 12 7 0
184 855 0 222 8 3 0
186 851 0 212 15 10 0
188 845 0 215 15 8 0
190 839 0 223 17 8 0
192 843 0 226 7 7 0
194 844 0 224 10 12 0
196 839 0 229 16 8 0
198 844 0 228 7 11 0
200 836 0 230 10 11 0
