0 1009 0 0 0 0 0
2 980 0 0 27 0 0
4.00004 977 0 0 28 0 0
6 969 0 0 35 0 0
8 967 0 0 34 0 0
10 973 0 0 28 0 0
12 970 0 0 26 0 0
14 973 0 0 23 0 0
16 966 0 0 30 0 0
18 968 0 0 31 0 0
20 960 0 0 41 0 0
22 970 0 0 35 0 0
24 964 0 0 33 0 0
26 957 0 0 35 0 0
28 950 0 0 41 0 0
30 968 0 0 30 0 0
32 964 0 0 30 0 0
34 950 0 0 43 0 0
36 956 0 0 31 0 0
38 953 0 0 30 0 0
40 966 0 0 31 0 0
42 953 0 0 33 0 0
44 961 0 0 35 0 0
46 968 0 0 36 0 0
48 968 0 0 30 0 0
50 965 0 0 37 0 0
52 976 0 0 34 0 0
54 976 0 2 31 0 0
56 975 0 7 29 1 0
58 967 0 11 34 2 0
60 970 0 15 32 2 0
62 962 0 20 28 3 0
64 942 0 28 36 3 0
66 946 0 33 26 8 0
68 950 0 40 28 6 0
70 934 0 48 36 5 0
72 918 0 51 39 4 0
74 917 0 47 35 6 0
76 918 0 55 30 4 0
78 914 0 62 23 8 0
80 910 0 70 27 5 0
82 893 0 75 32 10 0
84 894 0 84 28 3 0
86 892 0 85 27 10 0
88 895 0 92 25 11 0
90 886 0 106 28 6 0
92 881 0 101 32 16 0
94 878 0 106 24 9 0
96 866 0 121 25 5 0
98 872 0 123 15 8 0
100 855 0 122 29 5 0
102 857 0 125 24 12 0
104 859 0 127 19 14 0
106 843 0 134 29 8 0
108 844 0 140 24 10 0
110 845 0 146 14 8 0
112 841 0 154 20 7 0
114 841 0 160 22 8 0
116 841 0 158 13 10 0
118 819 0 152 24 17 0
120 808 0 154 28 17 0
122 821 0 158 19 14 0
124 818 0 162 22 13 0
126 806 0 174 21 13 0
128 788 0 189 27 13 0
130 794 0 189 21 15 0
132 781 0 194 27 16 0
134 788 0 209 18 16 0
136 787 0 214 21 15 0
138 785 0 225 18 13 0
140 772 0 229 24 12 0
142 769 0 240 16 9 0
144 767 0 248 13 15 0
146 757 0 247 26 16 0
148 757 0 256 23 17 0
150 744 0 259 23 11 0
152 735 0 266 20 12 0
154 733 0 264 18 13 0
156 727 0 273 18 18 0
158 726 0 272 15 16 0
160 713 0 279 23 16 0
162 701 0 278 24 19 0
164 705 0 288 18 15 0
166 696 0 290 21 13 0
168 693 0 302 19 15 0
170 689 0 297 17 9 0
172 689 0 292 15 17 0
174 691 0 296 17 19 0
176 680 0 304 22 13 0
178 680 0 311 20 12 0
180 683 0 302 17 14 0
182 682 0 318 20 10 0
184 681 0 322 17 16 0
186 674 0 318 19 22 0
188 673 0 324 17 16 0
190 672 0 324 17 13 0
192 664 0 327 21 13 0
194 663 0 328 14 15 0
196 656 0 336 18 11 0
198 654 0 346 14 15 0
200 640 0 348 19 15 0
