0 959 0 0 0 0 0
2 926 0 0 26 0 0
4.00004 929 0 0 25 0 0
6 918 0 0 25 0 0
8 916 0 0 23 0 0
10 921 0 0 16 0 0
12 927 0 0 17 0 0
14 930 0 0 18 0 0
16 921 0 0 18 0 0
18 929 0 0 14 0 0
20 927 0 0 18 0 0
22 926 0 0 28 0 0
24 921 0 0 23 0 0
26 921 0 0 23 0 0
28 917 0 0 22 0 0
30 920 0 0 25 0 0
32 927 0 0 20 0 0
34 914 0 0 19 0 0
36 907 0 0 28 0 0
38 930 0 0 15 0 0
40 921 0 0 23 0 0
42 921 0 0 20 0 0
44 901 0 0 33 0 0
46 908 0 0 23 0 0
48 904 0 0 23 0 0
50 901 0 0 25 0 0
52 902 0 0 29 0 0
54 908 0 0 23 0 0
56 896 0 1 25 0 0
58 894 0 5 20 0 0
60 882 0 5 20 0 0
62 884 0 13 21 0 0
64 895 0 14 11 2 0
66 875 0 15 23 4 0
68 878 0 17 19 3 0
70 876 0 17 16 6 0
72 858 0 25 26 3 0
74 866 0 34 18 4 0
76 860 0 27 16 6 0
78 847 0 35 20 2 0
80 842 0 44 23 7 0
82 832 0 45 25 5 0
84 842 0 47 15 4 0
86 835 0 46 18 4 0
88 833 0 44 17 4 0
90 829 0 54 13 3 0
92 832 0 61 7 2 0
94 817 0 61 19 5 0
96 819 0 65 16 6 0
98 817 0 71 16 3 0
100 813 0 70 17 7 0
102 809 0 80 17 6 0
104 811 0 83 14 3 0
106 811 0 80 11 7 0
108 797 0 90 20 5 0
110 803 0 90 10 10 0
112 792 0 94 16 6 0
114 798 0 102 9 3 0
116 792 0 96 8 5 0
118 785 0 95 13 4 0
120 785 0 96 13 8 0
122 786 0 107 13 3 0
124 776 0 105 14 9 0
126 781 0 105 10 11 0
128 776 0 112 13 4 0
130 769 0 112 14 6 0
132 751 0 117 20 3 0
134 750 0 115 21 9 0
136 751 0 117 15 8 0
138 759 0 129 8 4 0
140 754 0 131 14 1 0
142 756 0 127 14 6 0
144 753 0 134 11 5 0
146 756 0 135 7 4 0
148 743 0 132 15 9 0
150 732 0 136 20 7 0
152 739 0 138 13 4 0
154 738 0 144 10 7 0
156 735 0 147 11 5 0
158 727 0 137 17 11 0
160 726 0 145 13 11 0
162 719 0 148 18 10 0
164 720 0 152 15 14 0
166 714 0 161 18 6 0
168 717 0 159 19 6 0
170 720 0 163 14 12 0
172 714 0 165 12 15 0
174 711 0 177 13 11 0
176 711 0 179 12 9 0
178 709 0 177 12 10 0
180 700 0 184 17 7 0
182 695 0 185 13 7 0
184 703 0 193 9 9 0
186 695 0 190 13 11 0
188 692 0 190 15 9 0
190 694 0 196 10 9 0
192 685 0 195 13 7 0
194 688 0 199 8 5 0
196 686 0 193 11 8 0
198 676 0 198 16 9 0
200 677 0 200 12 10 0
