0 1023 0 0 0 0 0
2 1014 0 0 21 0 0
4.00004 1016 0 0 15 0 0
6 1008 0 0 24 0 0
8 1006 0 0 27 0 0
10 1007 0 0 22 0 0
12 1007 0 0 27 0 0
14 1021 0 0 16 0 0
16 1001 0 0 32 0 0
18 1007 0 0 17 0 0
20 1003 0 0 14 0 0
22 1002 0 0 13 0 0
24 991 0 0 21 0 0
26 997 0 0 22 0 0
28 997 0 0 23 0 0
30 1009 0 0 14 0 0
32 998 0 0 19 0 0
34 1003 0 0 19 0 0
36 1007 0 0 18 0 0
38 1012 0 0 21 0 0
40 1005 0 0 20 0 0
42 1002 0 0 21 0 0
44 1012 0 0 9 0 0
46 996 0 0 25 0 0
48 1013 0 0 18 0 0
50 1017 0 0 15 0 0
52 1020 0 1 14 0 0
54 1019 0 1 9 0 0
56 1008 0 3 21 0 0
58 1006 0 7 17 0 0
60 1002 0 8 20 1 0
62 1004 0 12 14 1 0
64 996 0 14 21 3 0
66 986 0 18 25 2 0
68 990 0 21 18 2 0
70 985 0 21 20 1 0
72 983 0 19 14 4 0
74 979 0 27 9 3 0
76 972 0 34 19 3 0
78 973 0 34 15 2 0
80 973 0 34 14 3 0
82 964 0 41 20 2 0
84 961 0 41 16 5 0
86 953 0 42 21 5 0
88 953 0 48 14 5 0
90 948 0 53 17 6 0
92 956 0 56 9 3 0
94 955 0 66 8 3 0
96 946 0 66 10 3 0
98 936 0 66 18 7 0
100 937 0 68 16 3 0
102 944 0 69 13 4 0
104 939 0 72 15 6 0
106 932 0 81 17 3 0
108 925 0 85 17 2 0
110 926 0 86 16 4 0
112 931 0 91 9 5 0
114 922 0 94 12 7 0
116 922 0 102 9 10 0
118 909 0 109 20 15 0
120 914 0 109 10 11 0
122 908 0 116 15 7 0
124 905 0 116 12 7 0
126 898 0 114 16 10 0
128 903 0 115 13 15 0
130 898 0 119 14 10 0
132 905 0 127 5 9 0
134 896 0 130 14 4 0
136 887 0 134 16 3 0
138 892 0 129 8 7 0
140 882 0 137 10 4 0
142 881 0 133 8 7 0
144 868 0 140 18 6 0
146 871 0 137 10 4 0
148 863 0 149 17 1 0
150 857 0 142 16 9 0
152 859 0 145 14 6 0
154 853 0 148 14 9 0
156 852 0 153 14 8 0
158 848 0 157 16 5 0
160 845 0 163 9 9 0
162 836 0 162 16 9 0
164 831 0 166 13 9 0
166 822 0 171 19 8 0
168 830 0 173 12 6 0
170 827 0 176 11 10 0
172 825 0 180 9 10 0
174 816 0 183 15 8 0
176 809 0 178 14 7 0
178 816 0 181 10 3 0
180 810 0 180 12 2 0
182 806 0 181 9 8 0
184 807 0 190 7 7 0
186 792 0 189 15 10 0
188 781 0 200 22 9 0
190 789 0 206 16 8 0
192 783 0 204 16 13 0
194 787 0 210 10 11 0
196 788 0 212 7 6 0
198 781 0 211 12 8 0
200 771 0 216 15 4 0
