0 840 0 0 0 0 0
2 787 4 0 30 0 16
4.00004 793 13 0 21 0 15
6 786 8 0 26 0 15
8 786 6 0 16 0 9
10 784 5 0 10 0 16
12 784 9 0 27 0 12
14 801 10 0 14 0 7
16 799 6 0 22 0 9
18 813 6 0 21 0 7
20 813 7 0 15 0 15
22 814 10 0 23 0 6
24 806 7 0 30 0 7
26 811 6 0 23 0 13
28 809 7 0 29 0 11
30 814 2 0 24 0 9
32 818 4 0 22 0 6
34 813 5 0 17 0 10
36 805 8 0 25 0 13
38 811 5 0 22 0 11
40 798 12 0 22 0 14
42 812 11 0 26 0 11
44 815 7 0 27 0 12
46 826 9 0 20 0 10
48 809 8 0 34 0 12
50 824 11 0 22 0 10
52 618 0 219 12 18 0
54 508 0 319 16 27 0
56 424 0 405 18 32 0
58 378 1 457 8 29 0
60 302 0 524 4 27 0
62 263 0 568 8 25 0
64 233 0 603 6 24 0
66 189 0 647 3 23 0
68 165 0 668 9 18 0
70 143 0 682 5 36 0
72 128 0 720 5 25 0
74 115 0 727 9 26 0
76 95 0 750 6 26 0
78 83 0 764 5 29 0
80 77 0 776 3 24 0
82 74 0 783 8 28 0
84 72 0 787 6 30 0
86 65 0 801 6 25 0
88 56 0 810 10 28 0
90 49 0 824 7 29 0
92 45 0 828 4 32 0
94 37 0 837 5 31 0
96 29 0 840 5 30 0
98 29 0 834 9 34 0
100 25 0 856 3 28 0
102 23 0 850 5 34 0
104 22 0 862 3 25 0
106 19 0 860 3 27 0
108 17 0 853 5 35 0
110 14 0 867 3 23 0
112 10 0 866 5 27 0
114 11 0 874 9 25 0
116 14 0 867 5 33 0
118 18 0 884 7 18 0
120 17 0 886 4 24 0
122 17 0 888 1 26 0
124 19 0 874 4 39 1
126 15 0 887 5 32 0
128 18 0 887 5 32 0
130 14 0 885 8 29 0
132 18 0 884 6 34 0
134 16 0 891 9 30 0
136 14 0 889 2 29 0
138 12 0 899 3 25 0
140 17 0 893 4 30 0
142 16 0 886 6 36 0
144 17 0 889 5 34 0
146 17 0 889 5 36 0
148 12 0 876 3 45 0
150 10 0 891 4 24 0
152 12 0 878 3 33 0
154 11 0 892 5 22 0
156 16 0 877 2 31 0
158 13 0 886 3 28 0
160 14 0 890 3 26 0
162 10 0 876 5 36 0
164 13 0 868 4 42 0
166 13 0 873 3 42 0
168 11 0 879 6 33 0
170 18 0 874 3 31 0
172 16 0 885 3 28 0
174 16 0 872 4 33 0
176 13 0 879 4 29 0
178 11 0 884 3 25 0
180 8 0 881 7 27 0
182 9 0 881 2 31 0
184 12 0 870 4 35 0
186 11 0 876 5 30 0
188 19 0 874 1 28 0
190 12 0 882 1 28 0
192 16 0 883 2 31 0
194 15 0 883 5 31 0
196 10 0 894 5 26 0
198 7 0 887 4 32 0
200 13 0 902 4 21 0
