0 991 0 0 0 0 0
2 968 0 0 21 0 0
4.00004 965 0 0 21 0 0
6 968 0 0 25 0 0
8 956 0 0 28 0 0
10 966 0 0 23 0 0
12 956 0 0 27 0 0
14 960 0 0 26 0 0
16 968 0 0 24 0 0
18 952 0 0 35 0 0
20 953 0 0 29 0 0
22 959 0 0 26 0 0
24 965 0 0 22 0 0
26 958 0 0 24 0 0
28 964 0 0 24 0 0
30 963 0 0 24 0 0
32 967 0 0 23 0 0
34 944 0 0 37 0 0
36 961 0 0 25 0 0
38 963 0 0 24 0 0
40 969 0 0 16 0 0
42 970 0 0 25 0 0
44 957 0 0 33 0 0
46 965 0 0 27 0 0
48 961 0 0 23 0 0
50 976 0 0 24 0 0
52 963 0 0 28 0 0
54 963 0 5 19 1 0
56 973 0 4 20 3 0
58 968 0 5 22 3 0
60 968 0 10 21 6 0
62 960 0 15 20 1 0
64 965 0 23 20 2 0
66 966 0 27 18 1 0
68 958 0 24 18 2 0
70 953 0 32 21 3 0
72 940 0 38 17 4 0
74 939 0 42 16 5 0
76 932 0 46 19 6 0
78 932 0 54 18 2 0
80 931 0 50 13 3 0
82 936 0 51 11 4 0
84 928 0 58 22 4 0
86 927 0 62 19 6 0
88 928 0 63 11 7 0
90 916 0 68 17 4 0
92 899 0 69 26 7 0
94 901 0 72 21 7 0
96 906 0 80 14 5 0
98 904 0 80 12 5 0
100 905 0 81 13 7 0
102 899 0 86 16 7 0
104 899 0 88 15 7 0
106 886 0 95 22 3 0
108 874 0 99 23 9 0
110 879 0 99 17 13 0
112 874 0 108 22 5 0
114 876 0 105 17 7 0
116 864 0 110 21 10 0
118 872 0 119 11 3 0
120 866 0 117 11 7 0
122 859 0 113 18 9 0
124 859 0 119 14 5 0
126 855 0 120 12 6 0
128 845 0 127 24 2 0
130 840 0 132 20 7 0
132 847 0 136 17 6 0
134 847 0 141 14 6 0
136 842 0 142 13 6 0
138 837 0 141 13 13 0
140 837 0 144 18 8 0
142 826 0 148 24 7 0
144 830 0 154 13 7 0
146 819 0 165 21 4 0
148 827 0 170 14 12 0
150 818 0 167 12 9 0
152 812 0 171 13 9 0
154 808 0 175 18 9 0
156 799 0 177 17 4 0
158 800 0 174 18 10 0
160 806 0 179 13 9 0
162 800 0 180 19 13 0
164 800 0 182 11 7 0
166 789 0 188 19 12 0
168 789 0 196 12 9 0
170 786 0 200 11 6 0
172 775 0 192 16 8 0
174 775 0 206 12 10 0
176 776 0 208 13 10 0
178 775 0 206 13 17 0
180 763 0 211 21 10 0
182 760 0 222 20 8 0
184 769 0 224 9 5 0
186 762 0 225 13 10 0
188 762 0 229 14 10 0
190 761 0 231 13 7 0
192 759 0 231 14 8 0
194 752 0 237 21 10 0
196 751 0 239 18 11 0
198 754 0 242 9 13 0
200 742 0 248 16 11 0
