0 45 0 0 0
2 45 0 0 0
4.00004 44 0 1 0
6 44 0 0 0
8 44 0 0 0
10 44 0 0 0
12 44 0 0 0
14 44 0 0 0
16 44 1 0 0
18 44 2 0 0
20 43 2 0 0
22 42 2 0 0
24 42 2 0 0
26 42 2 0 0
28 42 3 0 0
30 42 3 0 0
32 42 3 0 0
34 41 3 0 0
36 40 3 1 0
38 41 4 0 0
40 39 4 1 0
42 39 4 0 0
44 39 4 0 0
46 38 4 0 0
48 38 3 0 1
50 38 4 0 0
52 37 4 0 1
54 36 5 0 0
56 36 5 0 0
58 36 5 0 0
60 36 5 0 1
62 36 5 0 0
64 36 5 0 0
66 35 5 0 0
68 34 5 0 0
70 34 5 0 0
72 33 5 0 0
74 32 5 0 0
76 32 5 0 0
78 31 5 0 0
80 31 5 0 0
82 30 5 1 0
84 28 6 1 0
86 29 6 0 0
88 28 7 0 0
90 27 7 0 0
92 27 7 0 0
94 27 7 0 0
96 27 7 0 0
98 27 7 0 0
100 27 7 0 0
102 27 7 0 0
104 26 7 0 0
106 26 7 0 0
108 26 7 0 0
110 26 8 0 0
112 26 8 0 1
114 25 10 0 0
116 25 11 0 0
118 25 11 0 0
120 25 11 0 0
122 25 11 0 0
124 24 11 0 0
126 24 11 0 0
128 24 11 0 0
130 22 11 1 0
132 23 12 0 1
134 23 12 0 1
136 23 13 0 0
138 23 13 0 0
140 22 13 0 0
142 22 13 0 0
144 22 13 0 0
146 22 13 0 0
148 22 13 0 0
150 22 12 0 1
152 22 13 0 0
154 22 13 0 0
156 22 13 0 0
158 21 13 1 0
160 22 13 0 0
162 22 13 0 0
164 22 13 0 0
166 21 12 0 0
168 20 12 0 0
170 20 12 0 0
172 19 12 1 0
174 20 13 0 0
176 19 13 0 0
178 19 14 0 0
180 19 15 0 0
182 19 15 0 0
184 19 15 0 0
186 18 15 0 0
188 18 15 0 0
190 17 15 1 0
192 18 15 0 0
194 18 15 0 0
196 18 15 0 0
198 18 15 0 1
200 18 14 0 1
202 18 15 0 0
204 18 15 0 0
206 18 15 0 0
208 18 15 0 0
210 18 15 0 0
