0 98 0 0 0
2 99 0 0 0
4.00004 99 0 0 0
6 99 0 0 0
8 99 0 0 0
10 99 0 0 0
12 84 14 0 0
14 73 25 0 0
16 67 33 0 0
18 60 39 1 0
20 58 43 0 0
22 52 49 0 0
24 45 55 0 0
26 41 58 1 0
28 38 62 1 0
30 34 67 1 0
32 29 71 0 0
34 24 75 0 0
36 21 78 0 0
38 17 82 0 0
40 15 84 0 0
42 10 89 0 0
44 10 89 0 0
46 10 89 0 0
48 8 90 0 1
50 7 91 1 0
52 6 92 0 0
54 5 93 0 0
56 5 93 0 0
58 5 92 0 0
60 6 92 0 0
62 5 91 0 1
64 5 91 0 0
66 5 91 0 0
68 5 91 0 0
70 4 92 0 0
72 4 91 0 0
74 4 91 0 0
76 4 91 0 0
78 4 91 0 0
80 4 90 0 1
82 5 90 0 0
84 5 89 0 0
86 3 90 0 0
88 1 92 0 0
90 1 92 0 0
92 1 92 0 0
94 1 92 0 0
96 1 92 0 0
98 2 91 0 0
100 2 89 0 0
102 3 89 0 0
104 3 89 0 0
106 2 89 0 0
108 2 88 0 0
110 1 89 0 0
112 1 89 0 0
114 2 88 0 0
116 2 88 0 0
118 2 88 0 0
120 2 88 0 0
122 2 88 0 0
124 3 87 0 0
126 3 87 0 0
128 4 87 0 0
130 3 87 0 0
132 3 86 1 0
134 5 84 0 0
136 4 86 0 0
138 4 86 0 0
140 4 86 0 0
142 3 87 0 0
144 4 87 0 0
146 5 87 0 0
148 4 88 0 0
150 2 90 0 0
152 2 90 0 0
154 2 90 0 0
156 2 90 0 0
158 2 91 0 1
160 2 93 0 0
162 3 92 0 1
164 2 94 0 0
166 2 93 0 1
168 2 93 0 0
170 3 94 0 0
172 5 94 0 0
174 5 93 0 1
176 4 96 0 0
178 4 95 0 0
180 3 97 1 0
182 3 97 0 0
184 3 97 0 0
186 3 97 0 0
188 1 100 0 0
190 0 101 0 0
192 1 100 1 0
194 1 99 0 1
196 1 99 0 0
198 1 98 0 0
200 1 97 0 1
202 1 98 0 0
204 1 98 0 1
206 1 99 0 0
208 1 98 0 0
210 0 99 0 0
