0 106 0 0 0
2 107 0 0 0
4.00004 106 0 0 0
6 105 0 0 0
8 105 0 1 0
10 105 0 0 0
12 92 13 0 0
14 79 27 0 0
16 74 33 0 0
18 66 40 0 0
20 56 50 0 0
22 53 54 0 0
24 50 58 0 0
26 47 63 0 0
28 43 67 0 0
30 42 67 0 0
32 39 71 0 1
34 35 75 0 0
36 30 80 0 0
38 26 84 0 0
40 23 87 0 0
42 21 89 0 0
44 17 93 0 0
46 12 99 0 0
48 10 100 0 1
50 9 102 0 0
52 8 103 0 0
54 8 101 0 1
56 8 102 0 0
58 9 102 0 0
60 7 104 0 0
62 6 103 0 0
64 6 102 0 0
66 5 103 0 0
68 3 105 0 0
70 4 104 0 0
72 4 104 0 0
74 5 104 0 0
76 6 103 0 1
78 3 106 0 0
80 3 104 0 0
82 4 104 0 0
84 5 104 0 0
86 3 105 0 0
88 4 102 0 0
90 4 102 0 0
92 4 102 0 0
94 4 103 0 0
96 4 103 0 0
98 2 105 0 0
100 1 105 0 0
102 2 105 0 0
104 4 105 0 0
106 4 104 0 0
108 4 104 0 1
110 4 105 1 0
112 4 106 0 0
114 3 107 0 0
116 2 108 0 0
118 2 109 0 0
120 2 109 0 0
122 2 109 0 0
124 2 108 0 1
126 3 109 0 0
128 3 109 0 0
130 2 109 0 0
132 2 109 0 0
134 2 108 0 1
136 2 110 0 0
138 2 110 0 0
140 2 109 0 0
142 2 110 0 0
144 2 110 0 0
146 2 110 0 0
148 2 109 0 1
150 2 109 0 0
152 2 110 0 0
154 3 109 0 1
156 2 111 0 0
158 1 113 0 0
160 1 112 0 1
162 1 113 0 0
164 2 113 0 0
166 1 114 0 0
168 1 114 0 0
170 1 114 0 0
172 1 111 0 0
174 1 110 0 1
176 1 111 0 1
178 1 111 0 0
180 1 111 0 0
182 2 111 0 0
184 2 111 0 0
186 2 111 0 0
188 2 111 0 0
190 4 110 0 1
192 4 110 0 0
194 4 109 0 1
196 4 109 0 0
198 4 109 0 0
200 4 109 0 0
202 4 108 0 0
204 4 108 0 0
206 4 107 0 0
208 3 108 0 0
210 3 108 0 0
