0 105 0 0 0
2 105 0 0 0
4.00004 105 0 0 0
6 106 0 0 0
8 106 0 0 0
10 106 0 0 0
12 3 103 0 0
14 1 104 0 1
16 0 105 0 0
18 0 104 0 0
20 1 104 0 0
22 0 106 0 0
24 0 105 0 1
26 0 105 0 1
28 0 105 0 0
30 0 104 0 1
32 0 105 0 0
34 0 106 0 0
36 0 105 0 1
38 0 105 0 0
40 1 105 0 0
42 1 105 0 1
44 0 107 0 0
46 0 108 0 0
48 0 107 0 1
50 0 108 0 0
52 0 108 0 0
54 0 108 1 0
56 0 109 0 0
58 0 109 0 0
60 0 108 0 0
62 0 109 0 0
64 0 109 0 0
66 1 109 0 0
68 1 110 0 0
70 1 110 0 0
72 0 112 0 0
74 0 113 0 0
76 0 112 0 1
78 0 114 0 0
80 0 114 0 0
82 0 113 0 1
84 0 115 0 0
86 0 115 0 0
88 0 115 0 0
90 1 115 0 0
92 0 116 0 0
94 0 116 0 0
96 0 116 0 0
98 0 116 0 0
100 0 114 0 2
102 0 116 0 0
104 0 116 0 1
106 0 117 0 0
108 0 117 0 0
110 0 116 0 0
112 0 114 0 1
114 0 115 0 0
116 0 114 0 0
118 0 114 0 0
120 0 114 0 0
122 0 114 0 0
124 0 115 0 0
126 0 115 0 0
128 0 115 0 0
130 0 116 0 0
132 0 114 0 0
134 0 113 0 1
136 0 113 0 1
138 0 114 0 0
140 0 115 0 0
142 0 115 0 0
144 0 115 0 0
146 0 115 0 0
148 0 115 0 0
150 0 115 0 0
152 0 115 0 0
154 0 113 0 2
156 0 115 0 0
158 0 115 0 0
160 0 115 0 0
162 0 115 0 0
164 0 115 0 0
166 1 116 0 0
168 1 117 0 0
170 0 118 0 0
172 0 117 0 1
174 0 117 0 0
176 0 118 0 0
178 0 117 0 0
180 0 116 0 0
182 0 116 0 0
184 0 116 0 0
186 1 116 0 0
188 0 117 0 0
190 0 117 0 0
192 0 117 0 0
194 0 117 0 0
196 0 117 0 0
198 0 116 0 0
200 0 117 0 0
202 0 117 0 0
204 0 117 0 0
206 0 116 0 1
208 0 117 0 0
210 0 117 0 0
