0 44 0 0 0
2 41 0 2 0
4.00004 44 0 0 0
6 44 0 1 0
8 44 0 0 0
10 45 0 0 0
12 45 0 0 0
14 43 0 1 0
16 42 0 1 0
18 43 0 1 0
20 44 0 0 0
22 42 0 1 0
24 42 0 0 0
26 40 0 0 0
28 40 0 0 0
30 40 0 0 1
32 39 0 0 0
34 39 1 0 0
36 39 1 0 0
38 39 1 0 0
40 39 1 0 0
42 39 1 0 0
44 39 1 0 0
46 38 1 0 0
48 38 1 0 0
50 38 1 0 0
52 38 1 0 0
54 38 2 0 0
56 38 2 0 0
58 37 2 0 0
60 36 2 1 0
62 37 4 0 0
64 37 4 0 1
66 37 5 0 0
68 37 5 0 0
70 36 6 0 0
72 35 6 1 0
74 35 6 0 0
76 33 6 1 0
78 35 6 0 0
80 35 8 0 0
82 34 8 0 0
84 33 8 0 0
86 33 9 0 0
88 32 12 0 0
90 32 12 0 0
92 32 11 0 1
94 32 11 0 0
96 32 11 0 0
98 32 11 0 0
100 32 12 0 0
102 31 12 0 0
104 29 12 0 0
106 29 13 0 0
108 27 13 1 0
110 27 13 0 0
112 27 13 0 0
114 27 13 0 0
116 26 13 1 0
118 27 12 0 0
120 26 13 0 0
122 26 13 0 0
124 24 13 2 0
126 25 13 0 0
128 25 13 0 0
130 25 14 0 0
132 25 14 0 0
134 25 14 0 0
136 24 14 0 0
138 24 14 0 0
140 24 14 0 1
142 24 14 0 0
144 24 14 0 0
146 24 14 0 0
148 24 14 0 0
150 24 15 0 0
152 23 15 0 0
154 22 15 0 0
156 22 15 0 0
158 22 14 0 0
160 22 14 0 0
162 22 14 0 0
164 21 14 0 0
166 21 14 0 0
168 21 14 0 0
170 21 14 0 0
172 21 17 0 0
174 21 16 0 1
176 21 16 0 0
178 21 17 0 0
180 21 17 0 0
182 20 16 0 1
184 20 17 0 0
186 19 17 1 0
188 20 17 0 0
190 18 17 0 0
192 18 18 0 0
194 18 18 0 0
196 18 18 0 1
198 18 19 0 0
200 18 19 0 0
202 18 20 0 0
204 18 20 0 0
206 18 21 0 0
208 18 20 0 1
210 18 21 0 0
