0 44 0 0 0
2 44 0 0 0
4.00004 44 0 0 0
6 44 0 0 0
8 43 0 1 0
10 44 0 0 0
12 44 0 0 0
14 43 0 0 0
16 43 0 0 0
18 41 0 1 0
20 42 0 0 0
22 42 0 0 0
24 42 0 0 1
26 42 1 0 0
28 41 1 1 0
30 40 1 1 0
32 42 1 0 0
34 42 1 0 0
36 41 2 0 0
38 40 2 0 0
40 41 3 0 0
42 42 4 0 0
44 42 4 0 0
46 42 4 0 0
48 42 4 0 0
50 40 4 0 0
52 40 5 0 0
54 40 5 0 1
56 40 7 0 0
58 39 7 0 0
60 38 7 0 1
62 38 8 0 0
64 38 9 0 0
66 37 9 1 1
68 38 9 0 0
70 36 9 0 0
72 35 10 1 0
74 34 10 0 0
76 34 11 0 0
78 34 11 0 0
80 34 10 0 0
82 34 11 0 0
84 34 11 0 0
86 32 11 0 0
88 31 11 1 0
90 33 12 0 0
92 32 12 0 0
94 32 12 0 0
96 32 12 0 0
98 31 12 1 1
100 30 13 1 0
102 31 13 0 0
104 32 13 0 0
106 30 13 1 0
108 30 13 0 0
110 30 15 0 0
112 28 15 2 0
114 30 16 0 0
116 30 16 0 0
118 29 17 0 0
120 29 17 0 0
122 28 17 1 0
124 28 17 0 0
126 28 17 0 0
128 27 17 1 0
130 27 18 0 0
132 27 18 0 0
134 27 19 0 0
136 27 18 0 0
138 26 18 0 1
140 25 20 0 0
142 25 22 0 0
144 25 22 0 0
146 25 22 0 0
148 25 22 0 0
150 25 23 0 0
152 25 24 0 0
154 25 26 0 0
156 25 25 0 1
158 25 25 0 0
160 25 25 0 0
162 25 25 0 0
164 25 25 0 0
166 25 25 0 0
168 25 25 0 1
170 25 26 0 1
172 25 27 0 0
174 23 27 1 0
176 23 27 0 0
178 23 26 0 0
180 23 26 0 0
182 23 26 0 0
184 23 26 0 0
186 22 26 0 0
188 21 26 0 0
190 21 27 0 0
192 21 27 0 0
194 21 26 0 0
196 21 26 0 0
198 21 25 0 0
200 21 25 0 0
202 21 25 0 0
204 20 25 1 0
206 21 24 0 0
208 20 24 0 1
210 19 25 1 0
