0 108 0 0 0
2 108 0 0 0
4.00004 108 0 0 0
6 109 0 0 0
8 109 0 0 0
10 109 0 0 0
12 96 13 0 0
14 87 23 2 0
16 78 33 0 0
18 73 38 0 0
20 64 47 0 0
22 59 51 0 0
24 47 63 0 0
26 41 69 0 0
28 40 68 0 1
30 36 73 0 0
32 29 80 0 0
34 25 85 0 0
36 22 88 0 0
38 20 91 0 0
40 15 96 0 0
42 14 97 0 0
44 12 97 1 0
46 12 97 0 0
48 11 99 0 0
50 12 100 0 0
52 10 101 0 0
54 9 101 0 1
56 9 102 0 0
58 9 101 0 1
60 8 105 0 0
62 6 107 0 0
64 5 107 0 0
66 4 107 0 0
68 4 106 0 0
70 3 105 0 1
72 3 105 0 0
74 3 105 0 1
76 4 105 0 0
78 4 106 0 0
80 4 107 0 1
82 4 108 1 0
84 4 108 0 0
86 4 108 0 0
88 4 108 0 0
90 4 108 0 0
92 3 108 0 1
94 5 108 0 0
96 5 108 0 0
98 6 108 0 0
100 5 108 0 1
102 5 109 0 0
104 4 110 0 0
106 3 111 0 0
108 2 112 0 0
110 2 111 0 0
112 2 111 0 0
114 1 111 0 0
116 1 111 0 0
118 2 111 0 1
120 2 111 0 0
122 2 111 0 0
124 1 111 0 0
126 2 112 0 0
128 2 112 0 0
130 2 110 0 1
132 2 111 0 0
134 2 112 0 0
136 2 112 0 0
138 2 112 0 0
140 2 111 0 1
142 2 112 0 0
144 2 113 0 0
146 1 114 0 0
148 1 114 0 0
150 0 112 0 1
152 0 112 0 0
154 0 111 0 0
156 0 111 0 0
158 0 111 0 0
160 0 110 0 0
162 0 110 0 0
164 0 110 0 0
166 1 111 0 0
168 1 111 0 0
170 2 111 0 0
172 1 113 0 0
174 1 113 0 0
176 1 112 0 0
178 0 113 0 0
180 0 113 0 0
182 0 114 0 0
184 0 113 0 1
186 2 114 0 0
188 2 113 0 0
190 3 111 0 1
192 3 110 0 0
194 1 111 0 1
196 1 112 0 0
198 1 113 0 0
200 1 113 0 0
202 1 114 0 0
204 1 114 0 0
206 0 115 0 0
208 0 115 0 0
210 0 115 1 0
