0 1425 0 0 0 0 517
2 1391 6 0 15 0 517
4.00004 1359 11 0 24 0 517
6 1361 10 0 15 0 517
8 1342 6 0 36 0 517
10 1345 15 0 22 0 517
12 1327 10 0 28 0 517
14 1315 5 0 24 0 517
16 1306 8 0 23 0 517
18 1305 5 0 22 0 517
20 1312 9 0 22 0 517
22 1299 5 0 37 0 517
24 1312 2 0 24 0 517
26 1319 4 0 23 0 517
28 1313 10 0 23 0 517
30 1314 6 0 23 0 517
32 1311 8 0 29 0 517
34 1313 7 0 13 0 517
36 1304 4 0 20 0 517
38 1328 3 0 16 0 517
40 1318 6 0 24 0 517
42 1324 10 0 23 0 517
44 1328 4 0 29 0 517
46 1320 11 0 26 0 517
48 1342 4 0 28 0 517
50 1349 9 0 18 0 517
52 1200 0 165 22 1 517
54 1082 0 278 21 3 517
56 980 1 375 16 4 517
58 887 0 464 14 6 517
60 803 0 534 17 6 517
62 746 0 578 14 10 517
64 668 1 651 24 7 517
66 624 0 699 11 9 517
68 581 0 737 9 10 517
70 537 0 767 9 15 517
72 493 0 816 7 10 517
74 451 0 849 8 10 517
76 418 0 889 10 10 517
78 377 0 917 14 17 517
80 354 0 947 13 10 517
82 327 0 977 9 7 517
84 308 0 995 8 10 517
86 281 0 1019 7 15 517
88 277 2 1022 6 17 517
90 257 0 1045 3 13 517
92 238 0 1052 12 21 517
94 228 0 1082 5 18 517
96 223 0 1097 5 22 517
98 205 0 1099 5 26 517
100 200 0 1107 8 18 517
102 189 2 1115 4 16 517
104 180 0 1131 4 16 517
106 164 0 1137 4 20 517
108 157 0 1147 7 15 517
110 144 0 1159 5 15 517
112 144 0 1151 3 22 517
114 145 0 1167 3 21 517
116 142 0 1165 4 24 517
118 129 0 1176 4 20 517
120 124 0 1176 6 22 517
122 121 0 1167 8 33 517
124 113 0 1180 5 21 517
126 107 0 1191 4 25 517
128 112 0 1187 4 18 517
130 112 0 1178 2 19 517
132 102 0 1195 6 19 517
134 104 0 1191 3 15 517
136 95 0 1191 3 24 517
138 87 0 1201 1 26 517
140 88 0 1207 3 18 517
142 89 0 1207 1 16 517
144 88 0 1202 1 16 517
146 85 0 1201 2 18 517
148 75 0 1219 4 17 517
150 70 0 1215 1 19 517
152 69 0 1194 2 23 517
154 68 0 1187 4 28 517
156 59 0 1215 3 15 517
158 60 0 1220 1 27 517
160 57 0 1237 4 23 517
162 56 0 1243 1 16 517
164 55 0 1241 0 21 517
166 59 0 1232 1 22 517
168 59 0 1226 1 34 517
170 54 0 1233 2 28 517
172 48 0 1227 2 26 517
174 55 0 1228 1 24 517
176 44 0 1246 1 19 517
178 44 0 1250 2 19 517
180 44 0 1258 1 15 517
182 39 0 1255 2 34 517
184 40 0 1286 0 14 517
186 38 0 1269 3 18 517
188 39 0 1268 0 25 517
190 39 0 1279 0 27 517
192 41 0 1250 1 29 517
194 35 0 1255 1 27 517
196 33 0 1275 0 14 517
198 31 0 1256 0 24 517
200 30 0 1272 0 24 517
