0 1366 0 0 0 0 533
2 1351 12 0 15 0 533
4.00004 1369 5 0 16 0 533
6 1377 3 0 11 0 533
8 1370 9 0 15 0 533
10 1378 6 0 21 0 533
12 1376 12 0 11 0 533
14 1387 9 0 12 0 533
16 1379 12 0 18 0 533
18 1360 16 0 20 0 533
20 1362 9 0 20 0 533
22 1384 8 0 13 0 533
24 1383 9 0 14 0 533
26 1389 8 0 12 0 533
28 1388 6 0 13 0 533
30 1376 14 0 24 0 533
32 1380 11 0 17 0 533
34 1373 6 0 13 0 533
36 1374 10 0 20 0 533
38 1366 13 0 15 0 533
40 1379 13 0 11 0 533
42 1373 11 0 25 0 533
44 1406 6 0 13 0 533
46 1379 8 0 18 0 533
48 1387 12 0 10 0 533
50 1378 6 0 13 0 533
52 1180 0 193 26 0 533
54 1048 0 335 15 3 533
56 922 1 463 10 3 533
58 820 0 573 9 4 533
60 745 1 649 10 7 533
62 674 3 727 5 3 533
64 608 0 792 10 5 533
66 553 0 849 5 11 533
68 498 0 895 5 8 533
70 446 0 953 12 8 533
72 407 0 984 7 5 533
74 379 0 1007 10 9 533
76 337 0 1056 9 2 533
78 294 0 1078 4 13 533
80 276 0 1113 2 10 533
82 253 0 1138 5 7 533
84 236 0 1151 6 5 533
86 221 1 1164 3 20 533
88 213 0 1173 4 19 533
90 203 0 1192 4 18 533
92 186 0 1215 5 9 533
94 162 0 1222 4 11 533
96 150 0 1237 3 13 533
98 141 1 1252 3 16 533
100 136 0 1255 3 12 533
102 126 0 1261 2 12 533
104 115 0 1267 2 21 533
106 111 0 1277 3 8 533
108 106 0 1265 2 13 533
110 104 0 1253 1 19 533
112 91 0 1266 3 20 533
114 93 0 1266 5 18 533
116 91 0 1283 3 8 533
118 85 0 1285 1 12 533
120 84 0 1285 4 23 533
122 77 0 1319 6 9 533
124 71 0 1316 0 11 533
126 68 0 1321 2 13 533
128 68 0 1332 1 13 533
130 71 0 1326 1 24 533
132 71 0 1333 0 13 533
134 67 0 1338 1 17 533
136 63 0 1354 4 14 533
138 53 0 1354 3 16 533
140 49 0 1335 1 12 533
142 51 0 1342 3 15 533
144 39 0 1353 2 11 533
146 46 0 1359 2 15 533
148 45 0 1357 2 17 533
150 44 0 1339 1 15 533
152 45 0 1350 0 13 533
154 46 0 1368 0 13 533
156 44 0 1358 2 23 533
158 44 0 1364 0 13 533
160 40 0 1361 0 13 533
162 38 0 1359 2 12 533
164 35 0 1362 0 18 533
166 27 0 1386 1 15 533
168 27 0 1357 0 16 533
170 24 0 1373 0 18 533
172 21 0 1376 2 18 533
174 18 0 1378 1 17 533
176 16 0 1384 0 18 533
178 17 0 1377 2 22 533
180 19 0 1384 0 19 533
182 16 0 1376 0 11 533
184 16 0 1364 0 9 533
186 13 0 1370 0 12 533
188 9 0 1377 1 11 533
190 12 0 1363 0 21 533
192 12 0 1377 1 14 533
194 12 0 1369 0 19 533
196 12 0 1357 0 20 533
198 9 0 1360 0 18 533
200 8 0 1354 0 23 533
