0 1558 0 0 0 0 532
2 1524 9 0 27 0 532
4.00004 1529 15 0 19 0 532
6 1536 10 0 18 0 532
8 1547 12 0 17 0 532
10 1557 8 0 28 0 532
12 1568 15 0 24 0 532
14 1580 10 0 26 0 532
16 1591 5 0 21 0 532
18 1603 4 0 26 0 532
20 1600 7 0 27 0 532
22 1612 12 0 20 0 532
24 1618 9 0 22 0 532
26 1593 16 0 23 0 532
28 1604 5 0 25 0 532
30 1608 6 0 26 0 532
32 1609 10 0 20 0 532
34 1596 10 0 27 0 532
36 1615 11 0 21 0 532
38 1615 5 0 27 0 532
40 1620 15 0 25 0 532
42 1615 11 0 17 0 532
44 1611 9 0 23 0 532
46 1610 6 0 26 0 532
48 1614 9 0 28 0 532
50 1607 8 0 21 0 532
52 1402 0 224 19 1 532
54 1247 0 375 21 2 532
56 1126 0 504 12 7 532
58 1050 0 575 19 11 532
60 939 0 687 18 7 532
62 828 0 794 22 8 532
64 755 1 863 8 14 532
66 691 0 940 8 9 532
68 626 2 1003 15 10 532
70 607 0 1034 7 17 532
72 541 0 1099 7 7 532
74 489 0 1136 16 8 532
76 449 0 1176 8 10 532
78 408 0 1201 11 14 532
80 378 0 1231 9 20 532
82 340 0 1277 4 18 532
84 303 0 1306 3 20 532
86 273 0 1342 8 9 532
88 251 0 1362 3 18 532
90 227 0 1374 5 23 532
92 212 0 1389 2 30 532
94 189 0 1423 1 28 532
96 172 0 1432 4 28 532
98 154 0 1462 1 22 532
100 139 0 1479 5 26 532
102 137 0 1501 4 19 532
104 126 0 1505 1 23 532
106 122 0 1492 3 22 532
108 111 0 1497 1 25 532
110 100 0 1505 3 19 532
112 94 0 1518 0 21 532
114 86 0 1526 1 25 532
116 76 0 1548 2 21 532
118 68 0 1567 1 17 532
120 55 0 1561 0 23 532
122 52 0 1571 1 12 532
124 48 0 1570 1 22 532
126 47 0 1561 3 21 532
128 40 0 1572 2 14 532
130 37 0 1584 1 18 532
132 36 0 1562 1 26 532
134 32 0 1579 1 15 532
136 30 0 1568 1 26 532
138 34 0 1565 0 31 532
140 32 0 1577 1 27 532
142 29 0 1580 2 25 532
144 29 0 1574 0 33 532
146 25 0 1586 0 32 532
148 18 0 1596 1 27 532
150 19 1 1606 0 21 532
152 19 0 1623 0 17 532
154 18 0 1618 0 24 532
156 18 0 1634 0 24 532
158 15 0 1629 1 23 532
160 15 0 1636 0 19 532
162 13 0 1640 0 23 532
164 11 0 1636 0 21 532
166 8 0 1632 0 28 532
168 6 0 1638 0 18 532
170 5 0 1606 0 35 532
172 4 0 1621 0 22 532
174 4 0 1633 0 21 532
176 2 0 1643 0 18 532
178 1 0 1639 0 21 532
180 1 0 1630 0 23 532
182 1 0 1621 0 19 532
184 1 0 1622 0 16 532
186 1 0 1635 0 21 532
188 2 0 1624 0 24 532
190 2 0 1624 0 18 532
192 2 0 1628 0 15 532
194 2 0 1614 0 27 532
196 2 0 1620 0 22 532
198 0 0 1621 0 18 532
200 0 0 1623 0 27 532
