0 1002 0 0
2 1001 0 3
4.00004 998 0 4
6 997 0 4
8 994 0 8
10 995 0 4
12 996 0 6
14 987 0 13
16 988 0 6
18 993 0 9
20 995 0 4
22 987 0 8
24 989 0 7
26 987 0 4
28 977 0 10
30 982 0 5
32 978 0 7
34 988 0 5
36 982 0 10
38 985 0 5
40 977 0 11
42 974 0 5
44 969 0 10
46 973 0 5
48 964 0 13
50 970 0 7
52 815 158 0
54 704 269 2
56 615 362 0
58 538 436 0
60 463 512 0
62 401 573 0
64 353 624 0
66 309 664 1
68 268 705 0
70 238 735 0
72 218 759 0
74 192 791 0
76 175 811 0
78 170 820 0
80 151 842 0
82 127 864 0
84 124 869 1
86 112 878 0
88 105 886 0
90 89 898 0
92 77 900 0
94 71 906 0
96 65 909 0
98 62 913 0
100 62 915 0
102 63 913 0
104 63 916 0
106 54 916 0
108 54 921 0
110 57 925 0
112 49 929 0
114 47 924 0
116 43 929 0
118 43 925 0
120 40 927 0
122 42 925 0
124 36 929 0
126 36 929 0
128 34 924 0
130 37 921 0
132 31 927 0
134 37 924 0
136 40 920 0
138 37 920 0
140 40 918 0
142 41 918 0
144 39 915 0
146 39 921 0
148 38 920 0
150 37 919 0
152 40 920 0
154 41 917 0
156 38 916 0
158 37 919 0
160 33 919 0
162 36 915 0
164 35 915 0
166 33 918 0
168 31 917 0
170 32 915 0
172 34 910 0
174 37 908 0
176 44 905 0
178 44 902 0
180 49 903 0
182 43 911 0
184 43 914 0
186 37 916 0
188 31 918 0
190 23 918 0
192 24 919 0
194 18 928 0
196 18 923 0
198 19 919 0
200 23 917 0
