0 927 0 0
2 931 0 0
4.00004 929 0 0
6 936 0 0
8 938 0 0
10 939 0 0
12 938 0 0
14 937 0 0
16 934 0 0
18 935 0 0
20 937 0 0
22 938 0 0
24 937 0 0
26 937 0 0
28 936 0 0
30 935 0 0
32 934 0 0
34 936 0 0
36 934 0 0
38 935 0 0
40 931 0 0
42 932 0 0
44 934 0 0
46 936 0 0
48 943 0 0
50 950 0 0
52 950 0 0
54 947 0 0
56 949 0 0
58 948 0 0
60 947 0 0
62 944 0 0
64 943 2 0
66 945 3 0
68 948 4 0
70 949 7 0
72 944 10 0
74 944 15 0
76 943 17 0
78 937 21 0
80 936 24 0
82 929 31 0
84 926 31 0
86 925 32 0
88 924 33 0
90 920 43 0
92 920 45 0
94 917 47 0
96 916 52 0
98 909 54 0
100 908 55 0
102 907 56 0
104 906 62 0
106 903 64 0
108 903 67 0
110 899 70 0
112 893 69 0
114 888 73 0
116 884 74 0
118 878 79 0
120 874 83 0
122 867 87 0
124 864 91 0
126 858 100 0
128 857 103 0
130 853 107 0
132 850 108 0
134 846 112 0
136 844 111 0
138 841 115 0
140 838 121 0
142 831 128 0
144 829 132 0
146 828 132 0
148 827 135 0
150 827 144 0
152 828 145 0
154 824 148 0
156 823 157 0
158 819 161 0
160 819 162 0
162 819 170 0
164 815 174 0
166 814 178 0
168 812 183 0
170 808 190 0
172 804 193 0
174 802 192 0
176 797 194 0
178 792 194 0
180 787 200 0
182 783 204 0
184 782 205 0
186 779 212 0
188 774 214 0
190 774 217 0
192 769 221 0
194 769 223 0
196 765 230 0
198 762 229 0
200 761 233 0
