0 745 0 0
2 747 0 0
4.00004 750 0 0
6 752 0 0
8 755 0 0
10 757 0 0
12 755 0 0
14 747 0 0
16 753 0 0
18 756 0 0
20 758 0 0
22 760 0 0
24 761 0 0
26 764 0 0
28 761 0 0
30 757 0 0
32 757 0 0
34 758 0 0
36 767 0 0
38 766 0 0
40 772 0 0
42 769 0 0
44 770 0 0
46 768 0 0
48 769 0 0
50 773 0 0
52 778 1 0
54 776 1 0
56 775 1 0
58 776 7 0
60 772 11 0
62 772 14 0
64 772 22 0
66 769 24 0
68 768 24 0
70 760 29 0
72 758 37 0
74 752 40 0
76 742 45 0
78 736 53 0
80 734 56 0
82 733 58 0
84 731 66 0
86 726 75 0
88 720 79 0
90 715 88 0
92 708 91 0
94 703 94 0
96 693 101 0
98 686 105 0
100 683 111 0
102 682 115 0
104 676 122 0
106 671 126 0
108 669 134 0
110 661 136 0
112 653 141 0
114 645 141 0
116 640 145 0
118 637 150 0
120 634 155 0
122 625 163 0
124 619 171 0
126 611 177 0
128 606 182 0
130 604 188 0
132 601 187 0
134 600 194 0
136 590 191 0
138 589 199 0
140 584 204 0
142 578 211 0
144 570 214 0
146 565 222 0
148 560 231 0
150 557 235 0
152 551 236 0
154 547 241 0
156 542 249 0
158 535 258 0
160 525 261 0
162 516 274 0
164 513 277 0
166 505 278 0
168 502 283 0
170 499 285 0
172 495 291 0
174 489 292 0
176 486 291 0
178 487 298 0
180 486 303 0
182 480 311 0
184 478 317 0
186 473 318 0
188 473 319 0
190 470 322 0
192 469 324 0
194 465 328 0
196 462 335 0
198 458 334 0
200 452 341 0
