0 1105 0 0
2 1095 0 9
4.00004 1093 0 7
6 1089 0 8
8 1091 0 4
10 1097 0 2
12 1098 0 1
14 1092 0 4
16 1088 0 5
18 1092 0 5
20 1094 0 5
22 1086 0 9
24 1093 0 7
26 1093 0 6
28 1088 0 7
30 1089 0 2
32 1086 0 6
34 1086 0 7
36 1088 0 4
38 1085 0 6
40 1073 0 9
42 1075 0 3
44 1070 0 5
46 1068 0 8
48 1063 0 6
50 1055 0 9
52 926 136 1
54 821 233 1
56 758 296 0
58 682 368 1
60 610 439 1
62 539 509 0
64 487 560 0
66 452 601 0
68 411 645 0
70 374 677 0
72 343 708 0
74 307 750 0
76 276 775 0
78 260 791 0
80 230 820 0
82 203 845 0
84 188 859 0
86 170 872 0
88 165 884 0
90 160 894 0
92 147 907 0
94 128 926 1
96 113 936 0
98 112 940 0
100 109 947 0
102 102 960 0
104 91 969 0
106 85 974 0
108 80 976 0
110 72 985 0
112 67 991 0
114 68 988 0
116 65 995 0
118 66 995 0
120 63 1000 0
122 64 1001 0
124 62 1008 0
126 60 1011 0
128 64 1011 0
130 61 1013 0
132 61 1015 0
134 58 1010 0
136 57 1013 0
138 51 1020 0
140 52 1022 0
142 48 1020 0
144 51 1022 0
146 47 1018 0
148 45 1015 0
150 43 1015 0
152 39 1018 0
154 39 1013 0
156 38 1011 0
158 42 1011 0
160 39 1012 0
162 45 1008 0
164 39 1012 0
166 41 1015 0
168 40 1016 0
170 43 1015 0
172 45 1013 0
174 44 1017 0
176 43 1017 0
178 48 1020 0
180 48 1020 0
182 46 1021 0
184 45 1017 0
186 43 1023 0
188 43 1024 0
190 42 1026 0
192 43 1021 0
194 45 1022 0
196 45 1026 0
198 46 1022 0
200 45 1021 0
