0 1089 0 0
2 1080 0 9
4.00004 1084 0 5
6 1085 0 3
8 1079 0 8
10 1083 0 6
12 1088 0 5
14 1081 0 8
16 1079 0 7
18 1082 0 2
20 1073 0 10
22 1077 0 9
24 1077 0 7
26 1079 0 4
28 1076 0 7
30 1083 0 4
32 1076 0 7
34 1073 0 9
36 1085 0 3
38 1083 0 3
40 1082 0 3
42 1080 0 4
44 1077 0 11
46 1078 0 6
48 1085 0 2
50 1081 0 3
52 939 143 0
54 855 231 0
56 769 313 0
58 698 378 1
60 625 451 0
62 558 509 0
64 508 564 0
66 465 609 0
68 431 643 0
70 376 699 0
72 338 737 0
74 316 761 0
76 291 783 0
78 265 812 0
80 247 829 0
82 218 852 0
84 204 860 0
86 189 871 0
88 171 887 0
90 158 896 0
92 143 912 0
94 135 921 0
96 128 924 0
98 111 937 0
100 109 936 0
102 108 934 0
104 105 941 0
106 97 945 0
108 90 952 0
110 87 955 0
112 83 959 0
114 80 962 0
116 78 966 0
118 81 964 0
120 78 966 0
122 75 967 0
124 74 974 0
126 71 980 0
128 72 977 0
130 69 978 0
132 63 979 0
134 62 980 0
136 68 976 0
138 70 974 0
140 72 975 0
142 72 975 0
144 70 975 0
146 72 974 0
148 65 981 0
150 64 984 0
152 68 984 0
154 59 988 0
156 63 989 0
158 63 993 0
160 65 996 0
162 59 999 0
164 58 997 0
166 55 999 0
168 51 997 0
170 50 1003 0
172 46 1003 0
174 43 1008 0
176 46 1006 0
178 50 1001 0
180 50 1001 0
182 46 1007 0
184 43 1008 0
186 38 1011 0
188 39 1013 0
190 38 1013 0
192 33 1020 0
194 30 1016 0
196 34 1011 0
198 36 1015 0
200 35 1017 0
