0 879 0 0
2 879 0 0
4.00004 879 0 0
6 878 0 0
8 875 0 0
10 878 0 0
12 876 0 0
14 876 0 0
16 876 0 0
18 881 0 0
20 882 0 0
22 886 0 0
24 885 0 0
26 886 0 0
28 885 0 0
30 888 0 0
32 885 0 0
34 885 0 0
36 884 0 0
38 878 0 0
40 879 0 0
42 881 0 0
44 879 0 0
46 883 0 0
48 884 0 0
50 881 0 0
52 877 0 0
54 875 0 0
56 878 1 0
58 879 2 0
60 876 2 0
62 875 2 0
64 879 7 0
66 880 9 0
68 880 10 0
70 882 16 0
72 877 20 0
74 875 22 0
76 866 23 0
78 866 24 0
80 862 28 0
82 856 32 0
84 852 39 0
86 849 42 0
88 847 45 0
90 843 48 0
92 838 51 0
94 835 58 0
96 831 59 0
98 831 67 0
100 831 68 0
102 827 68 0
104 825 70 0
106 822 75 0
108 819 83 0
110 810 83 0
112 806 87 0
114 804 89 0
116 795 91 0
118 794 98 0
120 790 101 0
122 783 104 0
124 781 107 0
126 780 112 0
128 780 117 0
130 776 118 0
132 775 122 0
134 773 123 0
136 766 130 0
138 766 131 0
140 762 133 0
142 760 139 0
144 759 143 0
146 753 145 0
148 750 148 0
150 745 153 0
152 740 158 0
154 737 156 0
156 736 162 0
158 730 164 0
160 725 169 0
162 724 171 0
164 724 178 0
166 723 182 0
168 720 183 0
170 717 186 0
172 715 188 0
174 709 189 0
176 704 195 0
178 702 201 0
180 695 205 0
182 690 206 0
184 690 209 0
186 685 214 0
188 680 217 0
190 678 223 0
192 674 229 0
194 672 232 0
196 670 235 0
198 669 239 0
200 667 241 0
