0 795 0 0
2 796 0 0
4.00004 800 0 0
6 803 0 0
8 805 0 0
10 801 0 0
12 801 0 0
14 804 0 0
16 807 0 0
18 803 0 0
20 801 0 0
22 805 0 0
24 800 0 0
26 801 0 0
28 805 0 0
30 809 0 0
32 808 0 0
34 807 0 0
36 808 0 0
38 809 0 0
40 818 0 0
42 822 0 0
44 825 0 0
46 824 0 0
48 831 0 0
50 836 0 0
52 837 0 0
54 844 1 0
56 843 3 0
58 845 4 0
60 846 4 0
62 845 7 0
64 844 9 0
66 835 12 0
68 831 13 0
70 831 18 0
72 827 22 0
74 818 25 0
76 817 32 0
78 812 37 0
80 807 43 0
82 806 46 0
84 801 52 0
86 800 58 0
88 788 63 0
90 780 66 0
92 776 70 0
94 770 75 0
96 770 81 0
98 763 85 0
100 756 88 0
102 749 89 0
104 747 93 0
106 745 96 0
108 745 99 0
110 742 101 0
112 740 102 0
114 734 110 0
116 730 110 0
118 724 115 0
120 721 116 0
122 716 119 0
124 711 119 0
126 707 122 0
128 699 126 0
130 696 130 0
132 693 131 0
134 691 141 0
136 686 144 0
138 685 144 0
140 679 147 0
142 680 152 0
144 674 153 0
146 671 164 0
148 669 171 0
150 668 174 0
152 666 177 0
154 663 185 0
156 662 189 0
158 654 193 0
160 653 196 0
162 646 201 0
164 647 202 0
166 641 203 0
168 638 206 0
170 632 210 0
172 628 214 0
174 625 214 0
176 623 217 0
178 615 217 0
180 610 222 0
182 607 226 0
184 607 231 0
186 604 230 0
188 599 234 0
190 595 237 0
192 593 243 0
194 587 246 0
196 582 247 0
198 579 253 0
200 577 257 0
