0 836 0 0 0 0
2 831 0 0 1 0
4.00004 830 0 0 3 0
6 832 0 0 7 0
8 830 0 0 9 0
10 822 0 0 9 0
12 833 0 0 3 0
14 826 0 0 9 0
16 823 0 0 4 0
18 830 0 0 6 0
20 832 0 0 7 0
22 838 0 0 3 0
24 823 0 0 10 0
26 826 0 0 9 0
28 823 0 0 7 0
30 816 0 0 3 0
32 817 0 0 11 0
34 827 0 0 7 0
36 834 0 0 2 0
38 832 0 0 4 0
40 830 0 0 2 0
42 835 0 0 5 0
44 832 0 0 4 0
46 831 0 0 7 0
48 836 0 0 7 0
50 837 0 0 2 0
52 833 0 0 4 0
54 829 0 1 5 0
56 822 0 7 6 0
58 811 0 8 7 0
60 810 0 15 5 0
62 803 0 25 8 1
64 800 0 29 6 0
66 791 0 38 6 2
68 780 0 47 3 0
70 768 0 59 4 2
72 755 0 66 4 0
74 752 0 73 2 1
76 743 0 82 2 1
78 732 0 92 2 3
80 723 0 105 2 1
82 708 0 107 1 3
84 695 0 116 4 2
86 689 0 138 1 2
88 671 0 145 4 1
90 668 0 158 3 1
92 661 0 169 2 2
94 654 0 172 4 1
96 643 0 182 2 3
98 640 0 198 2 3
100 623 0 205 5 4
102 609 0 215 1 2
104 602 0 231 3 2
106 589 0 233 0 3
108 582 0 248 2 0
110 576 0 258 1 3
112 567 0 267 0 2
114 549 0 278 2 3
116 547 0 285 1 2
118 541 0 292 2 1
120 539 0 295 3 3
122 532 0 299 6 6
124 517 0 306 6 2
126 514 0 313 2 3
128 508 0 320 2 3
130 499 0 329 1 7
132 493 0 351 0 2
134 483 0 361 2 2
136 476 0 367 3 6
138 471 0 374 0 2
140 459 0 390 2 3
142 449 0 400 2 3
144 440 0 407 4 5
146 435 0 411 3 3
148 432 0 417 0 4
150 423 0 418 1 6
152 412 0 428 0 5
154 408 0 427 0 6
156 397 0 429 2 7
158 398 0 447 1 6
160 388 0 458 4 2
162 385 0 462 2 7
164 382 0 485 1 2
166 369 0 478 2 5
168 369 0 485 1 2
170 366 0 503 0 2
172 357 0 509 2 3
174 351 0 511 4 2
176 345 0 511 1 5
178 340 0 517 2 6
180 339 0 523 0 2
182 334 0 532 5 1
184 332 0 534 1 2
186 326 0 539 1 4
188 320 0 545 1 2
190 315 0 545 1 2
192 311 0 554 1 6
194 310 0 560 0 1
196 302 0 567 3 0
198 300 0 575 1 3
200 297 0 564 0 5
