0 1210 0 0 0 0
2 1189 13 0 1 0
4.00004 1196 4 0 4 0
6 1195 8 0 2 0
8 1188 11 0 3 0
10 1196 8 0 6 0
12 1194 6 0 3 0
14 1193 4 0 2 0
16 1188 7 0 3 0
18 1182 10 0 2 0
20 1191 4 0 2 0
22 1191 7 0 2 0
24 1176 9 0 10 0
26 1187 3 0 2 0
28 1187 4 0 3 0
30 1177 6 0 2 0
32 1181 8 0 3 0
34 1191 6 0 4 0
36 1180 12 0 6 0
38 1198 6 0 3 0
40 1196 7 0 5 0
42 1192 12 0 1 0
44 1181 15 0 3 0
46 1190 4 0 4 0
48 1185 7 0 3 0
50 1177 15 0 3 0
52 992 2 197 5 0
54 862 2 328 3 0
56 752 1 446 4 0
58 668 0 535 5 0
60 591 0 609 2 1
62 516 0 691 1 0
64 458 0 752 3 1
66 418 0 803 3 1
68 375 0 843 4 1
70 329 0 891 1 0
72 296 0 928 2 3
74 259 0 960 0 2
76 232 0 981 4 0
78 212 0 1003 0 3
80 186 0 1032 2 3
82 166 0 1048 3 0
84 151 1 1055 1 2
86 134 0 1070 0 1
88 126 0 1079 0 3
90 125 0 1084 0 2
92 111 0 1092 2 2
94 101 0 1103 1 4
96 101 0 1115 3 0
98 94 0 1124 0 2
100 86 0 1123 2 3
102 89 0 1125 2 3
104 90 0 1121 1 2
106 82 0 1128 0 2
108 90 0 1128 0 0
110 90 0 1136 4 1
112 84 0 1133 2 1
114 87 0 1127 1 2
116 82 0 1136 0 1
118 82 0 1134 3 3
120 79 0 1136 1 2
122 78 0 1143 1 1
124 78 0 1133 1 2
126 78 0 1141 0 4
128 72 0 1145 0 1
130 64 0 1148 1 3
132 61 0 1152 0 5
134 57 1 1164 1 2
136 49 0 1173 0 2
138 46 0 1177 0 3
140 43 0 1174 0 7
142 38 0 1176 1 3
144 43 0 1167 0 3
146 47 0 1171 1 1
148 50 0 1161 0 2
150 48 0 1159 4 6
152 48 0 1163 0 3
154 49 0 1161 2 1
156 49 0 1166 2 2
158 53 0 1158 0 5
160 51 0 1159 0 5
162 53 0 1157 2 1
164 51 0 1158 0 2
166 52 0 1155 0 3
168 51 0 1161 0 0
170 49 0 1154 1 2
172 44 0 1152 0 7
174 42 0 1147 1 2
176 35 0 1152 1 2
178 37 0 1146 3 3
180 41 0 1142 0 0
182 37 0 1146 1 4
184 34 0 1148 0 2
186 39 0 1146 0 1
188 43 0 1144 0 0
190 39 0 1139 1 5
192 39 0 1144 0 5
194 40 0 1147 0 1
196 42 0 1139 0 3
198 44 0 1132 0 5
200 43 0 1134 0 3
