0 1077 0 0 0 0
2 1072 4 0 3 0
4.00004 1071 4 0 2 0
6 1065 8 0 4 0
8 1068 5 0 1 0
10 1069 4 0 6 0
12 1065 6 0 6 0
14 1071 5 0 1 0
16 1073 3 0 3 0
18 1075 2 0 4 0
20 1084 2 0 0 0
22 1071 5 0 7 0
24 1068 5 0 5 0
26 1074 7 0 4 0
28 1068 4 0 2 0
30 1059 6 0 3 0
32 1055 4 0 4 0
34 1055 5 0 3 0
36 1058 9 0 6 0
38 1065 6 0 2 0
40 1070 5 0 5 0
42 1066 6 0 8 0
44 1057 11 0 6 0
46 1062 8 0 5 0
48 1065 6 0 2 0
50 1071 5 0 4 0
52 951 0 128 6 0
54 836 0 237 4 0
56 756 0 324 1 0
58 665 0 405 1 0
60 612 0 466 4 0
62 568 0 513 4 0
64 508 0 572 1 0
66 468 0 617 4 2
68 425 0 650 5 2
70 375 0 697 2 1
72 349 0 720 3 3
74 315 0 752 0 1
76 293 0 774 5 0
78 273 0 799 2 0
80 262 0 814 2 1
82 238 0 827 4 4
84 224 0 845 3 0
86 198 0 867 1 2
88 190 0 881 0 4
90 180 0 896 1 3
92 175 0 902 2 4
94 172 1 912 5 3
96 171 0 927 2 0
98 170 0 929 1 2
100 154 0 938 4 2
102 150 0 935 1 2
104 147 0 941 1 1
106 144 0 945 1 3
108 131 0 956 2 0
110 124 0 960 2 1
112 120 0 963 1 2
114 116 0 974 1 1
116 107 0 980 2 1
118 106 0 985 0 2
120 104 0 989 0 4
122 100 0 983 3 1
124 91 0 990 3 3
126 80 0 997 1 3
128 77 0 1000 1 1
130 78 0 1004 0 2
132 81 0 995 0 4
134 80 0 998 0 4
136 79 0 1003 0 4
138 76 0 1012 1 1
140 80 0 1016 1 1
142 80 0 1011 3 2
144 76 0 1012 0 1
146 76 0 1012 2 3
148 74 0 1014 3 3
150 75 0 1012 3 3
152 81 0 1017 1 2
154 75 0 1015 1 3
156 76 0 1011 1 4
158 70 0 1016 1 2
160 69 0 1019 1 4
162 69 1 1017 0 5
164 71 0 1021 1 3
166 69 0 1017 1 5
168 75 0 1023 1 1
170 80 0 1020 0 1
172 74 0 1028 0 1
174 75 0 1026 0 3
176 80 0 1025 2 2
178 74 0 1020 1 4
180 69 0 1032 1 0
182 71 0 1030 2 3
184 76 0 1036 1 1
186 80 0 1032 2 3
188 78 0 1036 0 1
190 76 0 1039 1 2
192 74 0 1045 1 4
194 74 0 1045 3 5
196 72 0 1052 1 4
198 74 0 1052 2 6
200 72 0 1061 0 2
