0 1080 0 0 0 0
2 1077 3 0 3 0
4.00004 1070 5 0 4 0
6 1075 4 0 2 0
8 1072 5 0 2 0
10 1077 6 0 2 0
12 1078 4 0 2 0
14 1075 4 0 3 0
16 1068 7 0 4 0
18 1060 4 0 12 0
20 1072 3 0 3 0
22 1060 7 0 8 0
24 1060 11 0 5 0
26 1062 3 0 2 0
28 1054 8 0 6 0
30 1053 2 0 3 0
32 1054 3 0 2 0
34 1048 4 0 4 0
36 1038 6 0 2 0
38 1038 3 0 3 0
40 1031 5 0 2 0
42 1035 3 0 4 0
44 1032 3 0 6 0
46 1042 2 0 6 0
48 1045 1 0 3 0
50 1044 4 0 4 0
52 940 1 106 4 0
54 845 0 198 4 1
56 766 0 279 5 0
58 692 0 352 3 0
60 638 0 409 4 0
62 589 0 468 0 1
64 552 0 504 2 1
66 506 0 541 7 1
68 462 1 581 6 1
70 425 0 616 5 2
72 383 0 659 5 3
74 352 0 689 3 0
76 339 0 707 4 1
78 304 0 741 4 1
80 284 0 757 3 3
82 264 0 778 2 1
84 240 0 804 1 3
86 228 0 829 1 2
88 219 0 851 2 2
90 207 0 857 0 1
92 208 0 858 1 1
94 190 0 872 1 2
96 180 0 879 1 2
98 181 1 883 2 1
100 171 0 884 2 2
102 159 0 893 1 1
104 156 0 898 5 2
106 140 0 904 2 2
108 135 0 903 0 3
110 126 0 901 1 5
112 128 0 907 1 3
114 115 0 908 0 2
116 121 0 911 1 1
118 114 1 916 2 2
120 111 0 914 0 2
122 110 0 917 1 2
124 110 0 921 0 2
126 113 0 928 1 0
128 111 0 929 2 2
130 107 0 931 1 2
132 95 0 938 4 1
134 93 0 940 3 1
136 92 0 936 1 2
138 87 0 942 2 2
140 85 0 948 1 1
142 86 0 940 0 2
144 87 0 940 2 1
146 86 0 942 1 3
148 86 0 941 1 3
150 72 0 952 3 2
152 71 0 951 2 1
154 74 0 955 5 1
156 75 0 958 0 1
158 76 1 959 1 4
160 77 0 956 0 3
162 73 0 960 3 3
164 72 0 957 2 1
166 73 0 954 2 2
168 73 0 951 1 4
170 67 0 955 1 1
172 71 0 958 1 2
174 67 0 951 0 4
176 69 0 956 0 2
178 63 0 951 1 4
180 62 0 952 1 1
182 62 0 951 1 4
184 64 0 950 1 1
186 64 0 944 0 8
188 62 0 953 0 2
190 62 0 950 1 3
192 63 0 950 0 2
194 62 0 952 3 3
196 59 0 958 1 3
198 60 0 960 0 0
200 62 0 960 1 4
