0 1073 0 0 0 0
2 1070 0 0 3 0
4.00004 1071 0 0 3 0
6 1071 0 0 3 0
8 1071 0 0 3 0
10 1082 0 0 1 0
12 1071 0 0 4 0
14 1068 0 0 9 0
16 1073 0 0 3 0
18 1070 0 0 3 0
20 1059 0 0 6 0
22 1061 0 0 5 0
24 1060 0 0 4 0
26 1055 0 0 0 0
28 1046 0 0 4 0
30 1049 0 0 4 0
32 1052 0 0 4 0
34 1049 0 0 8 0
36 1045 0 0 6 0
38 1038 0 0 4 0
40 1039 0 0 3 0
42 1039 0 0 5 0
44 1030 0 0 3 0
46 1038 0 0 4 0
48 1042 0 0 4 0
50 1034 0 0 6 0
52 1033 0 0 9 0
54 1041 0 0 4 0
56 1041 0 0 4 0
58 1042 0 0 4 0
60 1038 0 2 5 1
62 1023 0 5 6 0
64 1028 0 8 3 0
66 1022 0 9 2 0
68 1013 0 12 7 0
70 1009 0 14 6 0
72 1012 0 22 7 2
74 1014 0 26 2 1
76 1011 0 33 3 1
78 1006 0 39 4 1
80 993 0 49 4 1
82 985 0 53 2 1
84 977 0 58 4 2
86 968 0 67 2 0
88 964 0 72 2 0
90 955 0 80 7 0
92 951 0 81 2 1
94 940 0 87 4 0
96 933 0 93 1 3
98 929 0 101 4 4
100 917 0 113 5 1
102 916 0 125 0 1
104 909 0 137 2 0
106 904 0 137 2 2
108 895 0 146 2 2
110 888 0 151 2 1
112 880 0 151 1 4
114 872 0 164 1 0
116 864 0 173 3 2
118 854 0 182 3 4
120 850 0 191 2 2
122 849 0 197 2 6
124 842 0 208 2 2
126 828 0 213 5 2
128 827 0 218 1 4
130 821 0 225 0 3
132 810 0 231 3 0
134 798 0 237 5 0
136 798 0 250 2 3
138 796 0 252 1 2
140 786 0 261 3 0
142 778 0 261 2 4
144 770 0 265 1 2
146 763 0 272 2 2
148 766 0 281 0 1
150 758 0 278 1 2
152 756 0 282 2 3
154 749 0 286 3 4
156 744 0 298 2 2
158 734 0 300 2 0
160 726 0 299 3 3
162 721 0 303 2 1
164 717 0 313 2 2
166 707 0 321 3 1
168 703 0 326 1 2
170 694 0 336 4 2
172 690 0 338 1 2
174 684 0 350 3 4
176 679 0 349 1 3
178 670 0 356 1 2
180 666 0 363 1 0
182 670 0 364 0 1
184 655 0 366 1 2
186 649 0 375 3 2
188 647 0 384 0 7
190 640 0 391 0 1
192 635 0 399 2 4
194 632 0 403 2 2
196 631 0 415 0 1
198 627 0 419 3 1
200 616 0 422 3 3
