0 1106 0 0 0 0
2 1069 2 0 24 0
4.00004 1065 7 0 23 0
6 1071 5 0 18 0
8 1061 8 0 20 0
10 1055 8 0 24 0
12 1058 10 0 17 0
14 1059 6 0 15 0
16 1052 9 0 14 0
18 1057 6 0 18 0
20 1059 7 0 17 0
22 1059 13 0 16 0
24 1071 4 0 20 0
26 1069 3 0 24 0
28 1043 5 0 29 0
30 1068 1 0 13 0
32 1054 4 0 20 0
34 1066 6 0 17 0
36 1061 7 0 14 0
38 1043 8 0 22 0
40 1057 4 0 16 0
42 1052 2 0 15 0
44 1048 8 0 18 0
46 1052 3 0 17 0
48 1047 11 0 20 0
50 1044 10 0 17 0
52 896 0 164 13 1
54 772 1 284 15 0
56 656 0 396 13 2
58 557 0 490 11 7
60 485 0 566 12 6
62 415 0 641 17 4
64 358 0 702 7 6
66 316 0 746 9 5
68 279 0 786 7 5
70 241 0 815 11 9
72 222 0 834 12 14
74 197 0 873 10 5
76 181 0 884 7 12
78 159 0 899 8 9
80 145 0 911 10 8
82 131 0 929 4 6
84 116 0 939 14 5
86 113 0 947 5 9
88 99 0 954 7 12
90 87 0 975 4 6
92 79 0 979 7 16
94 74 0 994 5 9
96 71 0 999 6 7
98 65 0 999 5 10
100 58 0 995 6 15
102 59 0 1004 5 6
104 49 0 997 10 12
106 54 0 1002 1 10
108 49 0 1006 2 14
110 39 0 1013 5 13
112 35 0 1015 6 13
114 39 0 1012 6 16
116 37 0 1012 5 16
118 39 0 1016 5 13
120 42 0 1008 7 16
122 44 0 1012 4 12
124 42 0 1017 8 8
126 44 0 1013 5 9
128 47 0 1006 1 17
130 41 0 1016 6 11
132 41 0 1019 4 13
134 40 0 1019 2 12
136 35 0 1021 5 11
138 33 0 1022 5 10
140 42 0 1016 3 13
142 39 0 1029 6 6
144 42 0 1017 5 13
146 42 0 1018 5 10
148 41 0 1015 5 15
150 44 0 1018 1 11
152 43 0 1011 5 20
154 37 0 1022 4 14
156 32 0 1024 3 10
158 33 0 1024 4 12
160 36 0 1027 1 15
162 29 0 1028 8 12
164 35 0 1030 5 12
166 34 0 1024 3 15
168 34 0 1036 2 7
170 30 0 1031 5 8
172 32 0 1022 4 17
174 33 0 1026 6 14
176 36 0 1024 5 16
178 30 0 1024 3 13
180 31 0 1027 5 14
182 26 0 1029 7 14
184 32 0 1020 5 16
186 34 0 1019 5 17
188 37 0 1020 5 13
190 45 0 1021 2 11
192 38 0 1029 2 10
194 33 0 1027 4 13
196 35 0 1026 3 14
198 33 0 1031 5 13
200 33 0 1028 2 17
