0 943 0 0 0 0
2 917 4 0 11 0
4.00004 916 9 0 11 0
6 923 3 0 13 0
8 924 4 0 15 0
10 927 4 0 11 0
12 925 5 0 13 0
14 928 5 0 9 0
16 929 4 0 8 0
18 928 5 0 12 0
20 932 6 0 11 0
22 924 5 0 11 0
24 932 6 0 11 0
26 926 8 0 13 0
28 935 4 0 8 0
30 929 4 0 10 0
32 934 5 0 7 0
34 931 3 0 10 0
36 930 3 0 12 0
38 928 6 0 12 0
40 931 6 0 10 0
42 932 7 0 10 0
44 937 0 0 13 0
46 939 6 0 9 0
48 934 8 0 12 0
50 934 8 0 11 0
52 782 0 160 12 0
54 696 0 248 8 0
56 607 0 331 12 1
58 556 0 384 13 1
60 507 0 440 8 1
62 447 0 500 11 0
64 396 0 548 11 0
66 357 0 584 8 2
68 325 0 618 5 4
70 290 0 646 6 3
72 255 0 675 9 1
74 234 0 693 7 5
76 214 0 719 6 2
78 195 0 735 4 5
80 181 1 746 10 2
82 171 0 761 10 2
84 164 0 774 4 5
86 152 0 788 3 2
88 150 0 793 2 6
90 134 0 801 4 4
92 125 0 808 9 4
94 123 0 813 3 6
96 113 0 820 9 4
98 107 0 826 10 7
100 106 0 833 9 4
102 100 0 838 6 5
104 96 0 841 4 9
106 96 0 852 3 1
108 86 1 848 3 5
110 80 0 850 4 9
112 79 0 862 2 3
114 73 0 862 3 5
116 71 0 860 2 9
118 70 0 863 2 5
120 68 0 868 2 6
122 57 0 870 5 12
124 59 0 871 4 9
126 62 0 873 1 7
128 54 0 874 5 6
130 54 0 872 4 10
132 53 0 873 5 9
134 54 0 872 6 10
136 58 0 878 3 6
138 54 0 883 4 3
140 55 0 878 1 10
142 51 0 882 1 7
144 55 0 885 0 7
146 50 0 888 1 10
148 43 0 895 3 4
150 43 0 896 0 6
152 44 0 893 2 10
154 41 0 899 3 7
156 44 0 898 3 7
158 41 0 898 1 7
160 40 0 899 4 4
162 39 0 896 1 6
164 43 0 889 1 11
166 43 0 890 3 10
168 44 0 893 1 8
170 38 0 895 4 7
172 42 0 892 1 9
174 41 0 891 1 4
176 42 0 892 1 4
178 41 0 893 0 6
180 38 0 891 2 8
182 38 0 889 5 11
184 41 0 889 3 13
186 36 0 893 2 12
188 42 0 892 1 11
190 38 0 899 3 4
192 31 0 897 5 5
194 33 0 901 3 6
196 33 0 902 4 11
198 33 0 902 1 8
200 37 0 905 1 6
