0 872 0 0 0 0
2 855 0 0 16 0
4.00004 849 0 0 20 0
6 848 0 0 17 0
8 856 0 0 12 0
10 853 0 0 16 0
12 853 0 0 21 0
14 858 0 0 21 0
16 859 0 0 20 0
18 875 0 0 9 0
20 864 0 0 21 0
22 869 0 0 15 0
24 871 0 0 10 0
26 865 0 0 19 0
28 866 0 0 10 0
30 859 0 0 18 0
32 868 0 0 17 0
34 870 0 0 13 0
36 855 0 0 14 0
38 851 0 0 24 0
40 850 0 0 13 0
42 853 0 0 15 0
44 837 0 0 21 0
46 847 0 0 22 0
48 854 0 0 14 0
50 856 0 0 19 0
52 851 0 0 20 0
54 846 0 0 20 0
56 854 0 0 11 0
58 852 0 0 13 0
60 853 0 0 14 0
62 862 0 0 11 0
64 854 0 0 23 1
66 865 0 2 15 0
68 861 0 3 16 0
70 864 0 4 12 1
72 864 0 3 11 0
74 857 0 5 17 0
76 854 0 10 18 0
78 852 0 11 15 1
80 845 0 14 17 0
82 842 0 12 19 1
84 841 0 13 16 2
86 838 0 15 21 1
88 840 0 17 17 1
90 840 0 21 14 0
92 836 0 24 22 0
94 851 0 27 12 1
96 845 0 28 10 2
98 833 0 25 12 4
100 829 0 28 14 2
102 835 0 32 16 6
104 832 0 36 15 1
106 829 0 35 12 5
108 826 0 42 12 3
110 819 0 42 14 5
112 825 0 48 9 2
114 811 0 49 15 3
116 811 0 54 14 2
118 794 0 55 22 6
120 797 0 63 20 1
122 811 0 56 9 3
124 807 0 64 9 4
126 807 0 66 13 7
128 792 0 60 15 6
130 805 0 68 12 3
132 805 0 67 11 4
134 805 0 65 8 8
136 801 0 68 17 3
138 803 0 70 10 2
140 799 0 71 11 2
142 799 0 67 13 4
144 791 0 70 19 5
146 791 0 78 17 4
148 799 0 78 10 6
150 791 0 86 13 2
152 785 0 84 16 6
154 787 0 90 10 5
156 793 0 86 8 6
158 784 0 91 16 3
160 783 0 92 13 7
162 785 0 98 11 2
164 778 0 95 16 3
166 772 0 94 14 6
168 773 0 98 15 6
170 772 0 104 10 6
172 768 0 106 9 3
174 765 0 106 10 4
176 761 0 114 10 0
178 758 0 115 10 5
180 750 0 125 16 5
182 744 0 124 15 4
184 745 0 130 15 3
186 747 0 129 8 9
188 733 0 136 18 7
190 730 0 139 15 6
192 728 0 139 12 4
194 726 0 138 12 5
196 732 0 138 10 5
198 726 0 143 8 5
200 720 0 149 12 7
