0 942 0 0 0 0
2 916 0 0 19 0
4.00004 922 0 0 16 0
6 926 0 0 10 0
8 921 0 0 21 0
10 927 0 0 16 0
12 925 0 0 18 0
14 919 0 0 18 0
16 924 0 0 18 0
18 932 0 0 11 0
20 926 0 0 8 0
22 921 0 0 15 0
24 913 0 0 20 0
26 916 0 0 13 0
28 916 0 0 13 0
30 914 0 0 13 0
32 919 0 0 14 0
34 917 0 0 17 0
36 925 0 0 16 0
38 922 0 0 11 0
40 919 0 0 12 0
42 925 0 0 14 0
44 913 0 0 17 0
46 925 0 0 9 0
48 927 0 0 13 0
50 925 0 0 16 0
52 923 0 0 13 0
54 917 0 0 19 0
56 924 0 0 12 0
58 923 0 0 15 0
60 921 0 0 15 0
62 920 0 1 12 0
64 915 0 1 14 0
66 910 0 1 22 0
68 915 0 3 15 1
70 915 0 5 14 0
72 917 0 8 11 0
74 918 0 8 12 0
76 910 0 6 16 3
78 902 0 11 14 0
80 913 0 11 7 0
82 913 0 11 12 1
84 919 0 14 9 0
86 914 0 12 13 1
88 911 0 16 12 0
90 917 0 15 10 1
92 909 0 17 14 3
94 909 0 21 10 2
96 904 0 23 13 0
98 904 0 25 15 0
100 909 0 25 7 3
102 898 0 24 15 3
104 895 0 30 15 1
106 902 0 27 11 4
108 903 0 27 11 3
110 899 0 29 11 2
112 889 0 32 17 1
114 891 0 30 13 3
116 886 0 33 12 0
118 885 0 31 7 3
120 877 0 30 15 4
122 879 0 35 11 1
124 881 0 36 11 2
126 882 0 39 9 2
128 879 0 40 11 4
130 873 0 46 12 2
132 875 0 44 10 4
134 867 0 49 16 2
136 865 0 47 14 3
138 871 0 55 8 2
140 864 0 52 10 3
142 858 0 52 10 3
144 855 0 53 10 2
146 849 0 55 10 1
148 845 0 55 13 3
150 852 0 56 11 3
152 857 0 58 8 3
154 847 0 60 14 5
156 857 0 62 4 3
158 846 0 67 11 1
160 846 0 64 15 5
162 845 0 72 14 2
164 835 0 71 20 3
166 843 0 76 12 2
168 840 0 72 14 4
170 842 0 74 11 3
172 836 0 75 14 4
174 839 0 76 14 3
176 840 0 78 12 2
178 840 0 80 9 4
180 835 0 84 9 2
182 819 0 84 17 1
184 821 0 84 10 4
186 816 0 83 15 3
188 812 0 81 13 4
190 815 0 85 13 4
192 811 0 85 14 4
194 809 0 86 11 5
196 805 0 90 10 2
198 802 0 91 10 7
200 800 0 98 10 3
