0 1069 0 0 0 0
2 1020 4 0 49 0
4.00004 1017 3 0 60 0
6 988 6 0 87 0
8 973 5 0 102 0
10 972 3 0 104 0
12 962 4 0 112 0
14 947 8 0 116 0
16 949 9 0 121 0
18 952 5 0 122 0
20 945 5 0 132 0
22 922 4 0 163 0
24 918 4 0 160 0
26 911 8 0 153 0
28 908 4 0 164 0
30 890 8 0 182 0
32 885 4 0 190 0
34 877 9 0 186 0
36 883 5 0 176 0
38 872 4 0 188 0
40 880 5 0 182 0
42 869 4 0 202 0
44 878 5 0 188 0
46 872 5 0 192 0
48 874 4 0 195 0
50 862 3 0 204 0
52 751 0 119 188 1
54 646 0 212 202 4
56 573 0 289 183 10
58 504 0 361 176 20
60 461 1 421 155 22
62 414 0 468 138 36
64 357 0 521 147 32
66 332 0 555 139 35
68 298 0 592 121 43
70 267 0 609 121 57
72 233 0 633 115 62
74 214 0 661 114 59
76 192 0 668 104 82
78 181 0 696 96 72
80 171 0 716 105 71
82 158 0 723 98 77
84 140 0 737 107 85
86 129 0 755 96 82
88 120 0 771 85 86
90 116 0 781 78 85
92 108 0 779 92 96
94 99 0 793 81 95
96 89 0 786 84 109
98 94 0 789 74 109
100 83 0 798 79 109
102 80 0 809 74 102
104 69 0 818 75 100
106 65 0 813 74 113
108 67 0 801 64 124
110 73 0 818 53 109
112 62 0 819 60 114
114 58 0 817 56 128
116 47 1 816 64 129
118 48 0 805 66 134
120 49 0 807 60 137
122 49 0 810 55 140
124 44 0 823 51 127
126 42 0 827 51 111
128 45 0 825 45 114
130 41 0 829 43 117
132 36 0 830 46 121
134 35 0 838 44 113
136 29 0 828 52 121
138 23 0 838 47 123
140 28 0 837 46 119
142 29 0 832 43 120
144 29 0 833 44 120
146 25 0 838 50 114
148 20 0 833 54 129
150 18 0 839 48 124
152 16 0 845 54 114
154 25 0 843 55 117
156 25 0 839 41 114
158 26 0 842 42 119
160 24 0 837 46 127
162 19 0 833 42 125
164 20 0 831 38 135
166 22 0 839 37 124
168 22 0 837 37 123
170 21 0 832 38 123
172 22 0 828 38 129
174 15 0 810 41 146
176 15 0 820 41 133
178 15 0 819 48 138
180 18 0 822 49 124
182 20 0 812 55 138
184 24 0 816 48 138
186 28 0 804 52 139
188 30 0 809 57 132
190 29 0 810 46 135
192 24 0 830 57 107
194 35 0 821 42 119
196 33 0 808 40 134
198 31 0 819 44 123
200 27 0 809 49 144
