%!PS-Adobe-3.0 EPSF-3.0
%%Creator: MATLAB, The MathWorks, Inc. Version 7.14.0.739 (R2012a). Operating System: Darwin 11.4.2 Darwin Kernel Version 11.4.2: Thu Aug 23 16:25:48 PDT 2012; root:xnu-1699.32.7~1/RELEASE_X86_64 x86_64.
%%Title: /Users/zavalaeder/Dropbox/Yeast/bleaching_rate/figures/brate_mother_k150.eps
%%CreationDate: 11/27/2012  09:31:07
%%DocumentNeededFonts: Helvetica
%%DocumentProcessColors: Cyan Magenta Yellow Black
%%LanguageLevel: 2
%%Pages: 1
%%BoundingBox:    26   186   586   606
%%EndComments

%%BeginProlog
% MathWorks dictionary
/MathWorks 160 dict begin
% definition operators
/bdef {bind def} bind def
/ldef {load def} bind def
/xdef {exch def} bdef
/xstore {exch store} bdef
% operator abbreviations
/c  /clip ldef
/cc /concat ldef
/cp /closepath ldef
/gr /grestore ldef
/gs /gsave ldef
/mt /moveto ldef
/np /newpath ldef
/cm /currentmatrix ldef
/sm /setmatrix ldef
/rm /rmoveto ldef
/rl /rlineto ldef
/s {show newpath} bdef
/sc {setcmykcolor} bdef
/sr /setrgbcolor ldef
/sg /setgray ldef
/w /setlinewidth ldef
/j /setlinejoin ldef
/cap /setlinecap ldef
/rc {rectclip} bdef
/rf {rectfill} bdef
% page state control
/pgsv () def
/bpage {/pgsv save def} bdef
/epage {pgsv restore} bdef
/bplot /gsave ldef
/eplot {stroke grestore} bdef
% orientation switch
/portraitMode 0 def /landscapeMode 1 def /rotateMode 2 def
% coordinate system mappings
/dpi2point 0 def
% font control
/FontSize 0 def
/FMS {/FontSize xstore findfont [FontSize 0 0 FontSize neg 0 0]
  makefont setfont} bdef
/reencode {exch dup where {pop load} {pop StandardEncoding} ifelse
  exch dup 3 1 roll findfont dup length dict begin
  { 1 index /FID ne {def}{pop pop} ifelse } forall
  /Encoding exch def currentdict end definefont pop} bdef
/isroman {findfont /CharStrings get /Agrave known} bdef
/FMSR {3 1 roll 1 index dup isroman {reencode} {pop pop} ifelse
  exch FMS} bdef
/csm {1 dpi2point div -1 dpi2point div scale neg translate
 dup landscapeMode eq {pop -90 rotate}
  {rotateMode eq {90 rotate} if} ifelse} bdef
% line types: solid, dotted, dashed, dotdash
/SO { [] 0 setdash } bdef
/DO { [.5 dpi2point mul 4 dpi2point mul] 0 setdash } bdef
/DA { [6 dpi2point mul] 0 setdash } bdef
/DD { [.5 dpi2point mul 4 dpi2point mul 6 dpi2point mul 4
  dpi2point mul] 0 setdash } bdef
% macros for lines and objects
/L {lineto stroke} bdef
/MP {3 1 roll moveto 1 sub {rlineto} repeat} bdef
/AP {{rlineto} repeat} bdef
/PDlw -1 def
/W {/PDlw currentlinewidth def setlinewidth} def
/PP {closepath eofill} bdef
/DP {closepath stroke} bdef
/MR {4 -2 roll moveto dup  0 exch rlineto exch 0 rlineto
  neg 0 exch rlineto closepath} bdef
/FR {MR stroke} bdef
/PR {MR fill} bdef
/L1i {{currentfile picstr readhexstring pop} image} bdef
/tMatrix matrix def
/MakeOval {newpath tMatrix currentmatrix pop translate scale
0 0 1 0 360 arc tMatrix setmatrix} bdef
/FO {MakeOval stroke} bdef
/PO {MakeOval fill} bdef
/PD {currentlinewidth 2 div 0 360 arc fill
   PDlw -1 eq not {PDlw w /PDlw -1 def} if} def
/FA {newpath tMatrix currentmatrix pop translate scale
  0 0 1 5 -2 roll arc tMatrix setmatrix stroke} bdef
/PA {newpath tMatrix currentmatrix pop	translate 0 0 moveto scale
  0 0 1 5 -2 roll arc closepath tMatrix setmatrix fill} bdef
/FAn {newpath tMatrix currentmatrix pop translate scale
  0 0 1 5 -2 roll arcn tMatrix setmatrix stroke} bdef
/PAn {newpath tMatrix currentmatrix pop translate 0 0 moveto scale
  0 0 1 5 -2 roll arcn closepath tMatrix setmatrix fill} bdef
/vradius 0 def /hradius 0 def /lry 0 def
/lrx 0 def /uly 0 def /ulx 0 def /rad 0 def
/MRR {/vradius xdef /hradius xdef /lry xdef /lrx xdef /uly xdef
  /ulx xdef newpath tMatrix currentmatrix pop ulx hradius add uly
  vradius add translate hradius vradius scale 0 0 1 180 270 arc 
  tMatrix setmatrix lrx hradius sub uly vradius add translate
  hradius vradius scale 0 0 1 270 360 arc tMatrix setmatrix
  lrx hradius sub lry vradius sub translate hradius vradius scale
  0 0 1 0 90 arc tMatrix setmatrix ulx hradius add lry vradius sub
  translate hradius vradius scale 0 0 1 90 180 arc tMatrix setmatrix
  closepath} bdef
/FRR {MRR stroke } bdef
/PRR {MRR fill } bdef
/MlrRR {/lry xdef /lrx xdef /uly xdef /ulx xdef /rad lry uly sub 2 div def
  newpath tMatrix currentmatrix pop ulx rad add uly rad add translate
  rad rad scale 0 0 1 90 270 arc tMatrix setmatrix lrx rad sub lry rad
  sub translate rad rad scale 0 0 1 270 90 arc tMatrix setmatrix
  closepath} bdef
/FlrRR {MlrRR stroke } bdef
/PlrRR {MlrRR fill } bdef
/MtbRR {/lry xdef /lrx xdef /uly xdef /ulx xdef /rad lrx ulx sub 2 div def
  newpath tMatrix currentmatrix pop ulx rad add uly rad add translate
  rad rad scale 0 0 1 180 360 arc tMatrix setmatrix lrx rad sub lry rad
  sub translate rad rad scale 0 0 1 0 180 arc tMatrix setmatrix
  closepath} bdef
/FtbRR {MtbRR stroke } bdef
/PtbRR {MtbRR fill } bdef
/stri 6 array def /dtri 6 array def
/smat 6 array def /dmat 6 array def
/tmat1 6 array def /tmat2 6 array def /dif 3 array def
/asub {/ind2 exch def /ind1 exch def dup dup
  ind1 get exch ind2 get sub exch } bdef
/tri_to_matrix {
  2 0 asub 3 1 asub 4 0 asub 5 1 asub
  dup 0 get exch 1 get 7 -1 roll astore } bdef
/compute_transform {
  dmat dtri tri_to_matrix tmat1 invertmatrix 
  smat stri tri_to_matrix tmat2 concatmatrix } bdef
/ds {stri astore pop} bdef
/dt {dtri astore pop} bdef
/db {2 copy /cols xdef /rows xdef mul dup 3 mul string
  currentfile 
  3 index 0 eq {/ASCIIHexDecode filter}
  {/ASCII85Decode filter 3 index 2 eq {/RunLengthDecode filter} if }
  ifelse exch readstring pop
  dup 0 3 index getinterval /rbmap xdef
  dup 2 index dup getinterval /gbmap xdef
  1 index dup 2 mul exch getinterval /bbmap xdef pop pop}bdef
/it {gs np dtri aload pop moveto lineto lineto cp c
  cols rows 8 compute_transform 
  rbmap gbmap bbmap true 3 colorimage gr}bdef
/il {newpath moveto lineto stroke}bdef
currentdict end def
%%EndProlog

%%BeginSetup
MathWorks begin

0 cap

end
%%EndSetup

%%Page: 1 1
%%BeginPageSetup
%%PageBoundingBox:    26   186   586   606
MathWorks begin
bpage
%%EndPageSetup

%%BeginObject: obj1
bplot

/dpi2point 12 def
portraitMode 0312 7272 csm

    0     0  6720  5040 rc
85 dict begin %Colortable dictionary
/c0 { 0.000000 0.000000 0.000000 sr} bdef
/c1 { 1.000000 1.000000 1.000000 sr} bdef
/c2 { 0.900000 0.000000 0.000000 sr} bdef
/c3 { 0.000000 0.820000 0.000000 sr} bdef
/c4 { 0.000000 0.000000 0.800000 sr} bdef
/c5 { 0.910000 0.820000 0.320000 sr} bdef
/c6 { 1.000000 0.260000 0.820000 sr} bdef
/c7 { 0.000000 0.820000 0.820000 sr} bdef
c0
1 j
1 sg
   0    0 6721 5041 rf
6 w
0 4017 5208 0 0 -4017 874 4486 4 MP
PP
-5208 0 0 4017 5208 0 0 -4017 874 4486 5 MP stroke
4 w
DO
SO
6 w
0 sg
 874 4486 mt 6082 4486 L
 874  469 mt 6082  469 L
 874 4486 mt  874  469 L
6082 4486 mt 6082  469 L
 874 4486 mt 6082 4486 L
 874 4486 mt  874  469 L
 874 4486 mt  874 4433 L
 874  469 mt  874  521 L
%%IncludeResource: font Helvetica
/Helvetica /ISOLatin1Encoding 120 FMSR

 841 4631 mt 
(0) s
1394 4486 mt 1394 4433 L
1394  469 mt 1394  521 L
1328 4631 mt 
(10) s
1915 4486 mt 1915 4433 L
1915  469 mt 1915  521 L
1849 4631 mt 
(20) s
2436 4486 mt 2436 4433 L
2436  469 mt 2436  521 L
2370 4631 mt 
(30) s
2957 4486 mt 2957 4433 L
2957  469 mt 2957  521 L
2891 4631 mt 
(40) s
3478 4486 mt 3478 4433 L
3478  469 mt 3478  521 L
3412 4631 mt 
(50) s
3998 4486 mt 3998 4433 L
3998  469 mt 3998  521 L
3932 4631 mt 
(60) s
4519 4486 mt 4519 4433 L
4519  469 mt 4519  521 L
4453 4631 mt 
(70) s
5040 4486 mt 5040 4433 L
5040  469 mt 5040  521 L
4974 4631 mt 
(80) s
5561 4486 mt 5561 4433 L
5561  469 mt 5561  521 L
5495 4631 mt 
(90) s
6082 4486 mt 6082 4433 L
6082  469 mt 6082  521 L
5982 4631 mt 
(100) s
 874 4486 mt  926 4486 L
6082 4486 mt 6029 4486 L
 773 4530 mt 
(0) s
 874 4084 mt  926 4084 L
6082 4084 mt 6029 4084 L
 706 4128 mt 
(10) s
 874 3682 mt  926 3682 L
6082 3682 mt 6029 3682 L
 706 3726 mt 
(20) s
 874 3280 mt  926 3280 L
6082 3280 mt 6029 3280 L
 706 3324 mt 
(30) s
 874 2879 mt  926 2879 L
6082 2879 mt 6029 2879 L
 706 2923 mt 
(40) s
 874 2477 mt  926 2477 L
6082 2477 mt 6029 2477 L
 706 2521 mt 
(50) s
 874 2075 mt  926 2075 L
6082 2075 mt 6029 2075 L
 706 2119 mt 
(60) s
 874 1674 mt  926 1674 L
6082 1674 mt 6029 1674 L
 706 1718 mt 
(70) s
 874 1272 mt  926 1272 L
6082 1272 mt 6029 1272 L
 706 1316 mt 
(80) s
 874  870 mt  926  870 L
6082  870 mt 6029  870 L
 706  914 mt 
(90) s
 874  469 mt  926  469 L
6082  469 mt 6029  469 L
 639  513 mt 
(100) s
 874 4486 mt 6082 4486 L
 874  469 mt 6082  469 L
 874 4486 mt  874  469 L
6082 4486 mt 6082  469 L
gs 874 469 5209 4018 rc
874 469 PD
49 0 874 469 2 MP stroke
0 1533 1021 1739 2 MP stroke
99 0 971 1739 2 MP stroke
99 0 971 3272 2 MP stroke
0 1453 1168 2473 2 MP stroke
99 0 1119 2473 2 MP stroke
99 0 1119 3926 2 MP stroke
0 1203 1315 2978 2 MP stroke
99 0 1266 2978 2 MP stroke
99 0 1266 4181 2 MP stroke
0 773 1460 3461 2 MP stroke
99 0 1411 3461 2 MP stroke
99 0 1411 4234 2 MP stroke
0 742 1606 3579 2 MP stroke
99 0 1556 3579 2 MP stroke
99 0 1556 4321 2 MP stroke
0 692 1753 3693 2 MP stroke
98 0 1704 3693 2 MP stroke
98 0 1704 4385 2 MP stroke
0 662 1898 3721 2 MP stroke
99 0 1849 3721 2 MP stroke
99 0 1849 4383 2 MP stroke
0 444 2043 3968 2 MP stroke
99 0 1994 3968 2 MP stroke
99 0 1994 4412 2 MP stroke
0 389 2191 4036 2 MP stroke
99 0 2141 4036 2 MP stroke
99 0 2141 4425 2 MP stroke
0 280 2335 4185 2 MP stroke
99 0 2286 4185 2 MP stroke
99 0 2286 4465 2 MP stroke
0 344 2481 4114 2 MP stroke
99 0 2432 4114 2 MP stroke
99 0 2432 4458 2 MP stroke
0 150 2629 4299 2 MP stroke
99 0 2579 4299 2 MP stroke
99 0 2579 4449 2 MP stroke
0 186 2776 4279 2 MP stroke
99 0 2727 4279 2 MP stroke
99 0 2727 4465 2 MP stroke
0 319 2923 4168 2 MP stroke
99 0 2874 4168 2 MP stroke
0 120 3070 4349 2 MP stroke
98 0 3021 4349 2 MP stroke
98 0 3021 4469 2 MP stroke
0 162 3216 4295 2 MP stroke
98 0 3167 4295 2 MP stroke
98 0 3167 4457 2 MP stroke
0 149 3360 4327 2 MP stroke
99 0 3310 4327 2 MP stroke
99 0 3310 4476 2 MP stroke
0 143 3507 4344 2 MP stroke
99 0 3457 4344 2 MP stroke
0 135 3654 4352 2 MP stroke
98 0 3605 4352 2 MP stroke
0 282 3801 4205 2 MP stroke
99 0 3752 4205 2 MP stroke
0 139 3947 4325 2 MP stroke
98 0 3898 4325 2 MP stroke
98 0 3898 4464 2 MP stroke
0 69 4094 4414 2 MP stroke
98 0 4045 4414 2 MP stroke
98 0 4045 4483 2 MP stroke
0 78 4240 4409 2 MP stroke
99 0 4190 4409 2 MP stroke
0 90 4386 4397 2 MP stroke
99 0 4337 4397 2 MP stroke
0 118 4532 4369 2 MP stroke
98 0 4483 4369 2 MP stroke
0 86 4679 4401 2 MP stroke
99 0 4629 4401 2 MP stroke
0 100 4829 4385 2 MP stroke
99 0 4780 4385 2 MP stroke
99 0 4780 4485 2 MP stroke
0 73 5025 4408 2 MP stroke
99 0 4975 4408 2 MP stroke
99 0 4975 4481 2 MP stroke
0 106 5284 4381 2 MP stroke
99 0 5235 4381 2 MP stroke
0 69 5809 4418 2 MP stroke
98 0 5760 4418 2 MP stroke
525 19 259 -3 196 9 150 -13 147 17 146 -11 146 -8 146 1 
147 54 146 41 147 -68 147 -3 147 23 144 26 146 -33 147 74 
147 -37 147 -2 148 88 146 -39 144 95 148 40 145 138 145 13 
147 89 146 102 145 268 147 381 147 693 147 2037 874 469 31 MP stroke
gr

 849  444 mt  899  494 L
 899  444 mt  849  494 L
 996 2481 mt 1046 2531 L
1046 2481 mt  996 2531 L
1143 3174 mt 1193 3224 L
1193 3174 mt 1143 3224 L
1290 3555 mt 1340 3605 L
1340 3555 mt 1290 3605 L
1435 3823 mt 1485 3873 L
1485 3823 mt 1435 3873 L
1581 3925 mt 1631 3975 L
1631 3925 mt 1581 3975 L
1728 4014 mt 1778 4064 L
1778 4014 mt 1728 4064 L
1873 4027 mt 1923 4077 L
1923 4027 mt 1873 4077 L
2018 4165 mt 2068 4215 L
2068 4165 mt 2018 4215 L
2166 4205 mt 2216 4255 L
2216 4205 mt 2166 4255 L
2310 4300 mt 2360 4350 L
2360 4300 mt 2310 4350 L
2456 4261 mt 2506 4311 L
2506 4261 mt 2456 4311 L
2604 4349 mt 2654 4399 L
2654 4349 mt 2604 4399 L
2751 4347 mt 2801 4397 L
2801 4347 mt 2751 4397 L
2898 4310 mt 2948 4360 L
2948 4310 mt 2898 4360 L
3045 4384 mt 3095 4434 L
3095 4384 mt 3045 4434 L
3191 4351 mt 3241 4401 L
3241 4351 mt 3191 4401 L
3335 4377 mt 3385 4427 L
3385 4377 mt 3335 4427 L
3482 4400 mt 3532 4450 L
3532 4400 mt 3482 4450 L
3629 4397 mt 3679 4447 L
3679 4397 mt 3629 4447 L
3776 4329 mt 3826 4379 L
3826 4329 mt 3776 4379 L
3922 4370 mt 3972 4420 L
3972 4370 mt 3922 4420 L
4069 4424 mt 4119 4474 L
4119 4424 mt 4069 4474 L
4215 4425 mt 4265 4475 L
4265 4425 mt 4215 4475 L
4361 4417 mt 4411 4467 L
4411 4417 mt 4361 4467 L
4507 4406 mt 4557 4456 L
4557 4406 mt 4507 4456 L
4654 4423 mt 4704 4473 L
4704 4423 mt 4654 4473 L
4804 4410 mt 4854 4460 L
4854 4410 mt 4804 4460 L
5000 4419 mt 5050 4469 L
5050 4419 mt 5000 4469 L
5259 4416 mt 5309 4466 L
5309 4416 mt 5259 4466 L
5784 4435 mt 5834 4485 L
5834 4435 mt 5784 4485 L
gs 874 469 5209 4018 rc
/c8 { 1.000000 0.000000 0.000000 sr} bdef
c8
874 469 PD
52 0 874 469 2 MP stroke
52 0 874 469 2 MP stroke
0 83 978 1384 2 MP stroke
104 0 926 1384 2 MP stroke
104 0 926 1467 2 MP stroke
0 79 1082 2046 2 MP stroke
104 0 1030 2046 2 MP stroke
104 0 1030 2125 2 MP stroke
0 73 1186 2556 2 MP stroke
104 0 1134 2556 2 MP stroke
104 0 1134 2629 2 MP stroke
0 62 1290 2956 2 MP stroke
104 0 1238 2956 2 MP stroke
104 0 1238 3018 2 MP stroke
0 61 1394 3272 2 MP stroke
104 0 1342 3272 2 MP stroke
104 0 1342 3333 2 MP stroke
0 57 1498 3526 2 MP stroke
105 0 1446 3526 2 MP stroke
105 0 1446 3583 2 MP stroke
0 54 1603 3724 2 MP stroke
104 0 1551 3724 2 MP stroke
104 0 1551 3778 2 MP stroke
0 45 1707 3884 2 MP stroke
104 0 1655 3884 2 MP stroke
104 0 1655 3929 2 MP stroke
0 38 1811 4008 2 MP stroke
104 0 1759 4008 2 MP stroke
104 0 1759 4046 2 MP stroke
0 34 1915 4107 2 MP stroke
104 0 1863 4107 2 MP stroke
104 0 1863 4141 2 MP stroke
0 28 2019 4186 2 MP stroke
104 0 1967 4186 2 MP stroke
104 0 1967 4214 2 MP stroke
0 27 2123 4247 2 MP stroke
105 0 2071 4247 2 MP stroke
105 0 2071 4274 2 MP stroke
0 24 2228 4295 2 MP stroke
104 0 2176 4295 2 MP stroke
104 0 2176 4319 2 MP stroke
0 21 2332 4333 2 MP stroke
104 0 2280 4333 2 MP stroke
104 0 2280 4354 2 MP stroke
0 20 2436 4362 2 MP stroke
104 0 2384 4362 2 MP stroke
104 0 2384 4382 2 MP stroke
0 16 2540 4389 2 MP stroke
104 0 2488 4389 2 MP stroke
104 0 2488 4405 2 MP stroke
0 15 2644 4409 2 MP stroke
104 0 2592 4409 2 MP stroke
104 0 2592 4424 2 MP stroke
0 15 2748 4424 2 MP stroke
104 0 2696 4424 2 MP stroke
104 0 2696 4439 2 MP stroke
0 12 2853 4435 2 MP stroke
105 0 2800 4435 2 MP stroke
105 0 2800 4447 2 MP stroke
0 12 2957 4445 2 MP stroke
104 0 2905 4445 2 MP stroke
104 0 2905 4457 2 MP stroke
0 11 3061 4453 2 MP stroke
104 0 3009 4453 2 MP stroke
104 0 3009 4464 2 MP stroke
0 10 3165 4459 2 MP stroke
104 0 3113 4459 2 MP stroke
104 0 3113 4469 2 MP stroke
0 9 3269 4464 2 MP stroke
104 0 3217 4464 2 MP stroke
104 0 3217 4473 2 MP stroke
0 8 3373 4468 2 MP stroke
104 0 3321 4468 2 MP stroke
104 0 3321 4476 2 MP stroke
0 6 3478 4472 2 MP stroke
105 0 3425 4472 2 MP stroke
105 0 3425 4478 2 MP stroke
0 6 3582 4474 2 MP stroke
104 0 3530 4474 2 MP stroke
104 0 3530 4480 2 MP stroke
0 4 3686 4477 2 MP stroke
104 0 3634 4477 2 MP stroke
104 0 3634 4481 2 MP stroke
0 5 3790 4478 2 MP stroke
104 0 3738 4478 2 MP stroke
104 0 3738 4483 2 MP stroke
0 4 3894 4479 2 MP stroke
104 0 3842 4479 2 MP stroke
104 0 3842 4483 2 MP stroke
0 3 3998 4481 2 MP stroke
104 0 3946 4481 2 MP stroke
104 0 3946 4484 2 MP stroke
0 2 4102 4482 2 MP stroke
105 0 4050 4482 2 MP stroke
105 0 4050 4484 2 MP stroke
0 3 4207 4482 2 MP stroke
104 0 4155 4482 2 MP stroke
104 0 4155 4485 2 MP stroke
0 2 4311 4483 2 MP stroke
104 0 4259 4483 2 MP stroke
104 0 4259 4485 2 MP stroke
0 2 4415 4483 2 MP stroke
104 0 4363 4483 2 MP stroke
104 0 4363 4485 2 MP stroke
0 2 4519 4484 2 MP stroke
104 0 4467 4484 2 MP stroke
104 0 4467 4486 2 MP stroke
0 2 4623 4484 2 MP stroke
104 0 4571 4484 2 MP stroke
104 0 4571 4486 2 MP stroke
0 2 4727 4484 2 MP stroke
105 0 4675 4484 2 MP stroke
105 0 4675 4486 2 MP stroke
0 2 4832 4484 2 MP stroke
104 0 4780 4484 2 MP stroke
104 0 4780 4486 2 MP stroke
0 1 4936 4485 2 MP stroke
104 0 4884 4485 2 MP stroke
104 0 4884 4486 2 MP stroke
0 1 5040 4485 2 MP stroke
104 0 4988 4485 2 MP stroke
104 0 4988 4486 2 MP stroke
0 1 5144 4485 2 MP stroke
104 0 5092 4485 2 MP stroke
104 0 5092 4486 2 MP stroke
0 1 5248 4485 2 MP stroke
104 0 5196 4485 2 MP stroke
104 0 5196 4486 2 MP stroke
0 1 5352 4485 2 MP stroke
104 0 5300 4485 2 MP stroke
104 0 5300 4486 2 MP stroke
0 1 5457 4485 2 MP stroke
105 0 5404 4485 2 MP stroke
105 0 5404 4486 2 MP stroke
0 1 5561 4485 2 MP stroke
104 0 5509 4485 2 MP stroke
104 0 5509 4486 2 MP stroke
0 1 5665 4485 2 MP stroke
104 0 5613 4485 2 MP stroke
104 0 5613 4486 2 MP stroke
0 1 5769 4485 2 MP stroke
104 0 5717 4485 2 MP stroke
104 0 5717 4486 2 MP stroke
0 1 5873 4485 2 MP stroke
104 0 5821 4485 2 MP stroke
104 0 5821 4486 2 MP stroke
0 1 5977 4485 2 MP stroke
104 0 5925 4485 2 MP stroke
104 0 5925 4486 2 MP stroke
0 1 6082 4485 2 MP stroke
54 0 6029 4485 2 MP stroke
54 0 6029 4486 2 MP stroke
105 0 104 0 104 0 104 0 104 0 104 0 105 0 104 0 
104 0 104 0 104 0 104 0 105 0 104 0 104 0 104 1 
104 0 104 0 105 1 104 1 104 1 104 1 104 1 104 2 
104 2 105 3 104 4 104 4 104 6 104 7 104 10 105 10 
104 15 104 19 104 25 104 28 104 37 105 47 104 60 104 76 
104 97 104 120 104 156 105 197 104 252 104 315 104 394 104 507 
104 661 104 956 874 469 51 MP stroke
gr

c8
  36   36  874  469 FO
  36   36  978 1425 FO
  36   36 1082 2086 FO
  36   36 1186 2593 FO
  36   36 1290 2987 FO
  36   36 1394 3302 FO
  36   36 1498 3554 FO
  36   36 1603 3751 FO
  36   36 1707 3907 FO
  36   36 1811 4027 FO
  36   36 1915 4124 FO
  36   36 2019 4200 FO
  36   36 2123 4260 FO
  36   36 2228 4307 FO
  36   36 2332 4344 FO
  36   36 2436 4372 FO
  36   36 2540 4397 FO
  36   36 2644 4416 FO
  36   36 2748 4431 FO
  36   36 2853 4441 FO
  36   36 2957 4451 FO
  36   36 3061 4458 FO
  36   36 3165 4464 FO
  36   36 3269 4468 FO
  36   36 3373 4472 FO
  36   36 3478 4475 FO
  36   36 3582 4477 FO
  36   36 3686 4479 FO
  36   36 3790 4480 FO
  36   36 3894 4481 FO
  36   36 3998 4482 FO
  36   36 4102 4483 FO
  36   36 4207 4484 FO
  36   36 4311 4484 FO
  36   36 4415 4484 FO
  36   36 4519 4485 FO
  36   36 4623 4485 FO
  36   36 4727 4485 FO
  36   36 4832 4485 FO
  36   36 4936 4485 FO
  36   36 5040 4485 FO
  36   36 5144 4485 FO
  36   36 5248 4485 FO
  36   36 5352 4485 FO
  36   36 5457 4485 FO
  36   36 5561 4485 FO
  36   36 5665 4485 FO
  36   36 5769 4485 FO
  36   36 5873 4485 FO
  36   36 5977 4485 FO
  36   36 6082 4485 FO
gs 874 469 5209 4018 rc
gr

0 sg
%%IncludeResource: font Helvetica
/Helvetica /ISOLatin1Encoding 168 FMSR

2373  156 mt 
(TetR-GFP in Early Anaphase) s
%%IncludeResource: font Helvetica
/Helvetica /ISOLatin1Encoding 144 FMSR

2528  293 mt 
(Mother lobe / n) s
%%IncludeResource: font Helvetica
/Helvetica /ISOLatin1Encoding 108 FMSR

3488  377 mt 
(simulations) s
%%IncludeResource: font Helvetica
/Helvetica /ISOLatin1Encoding 144 FMSR

4027  293 mt 
( = 100) s
3239 4792 mt 
(time \(s\)) s
 552 2993 mt  -90 rotate
(% Fluorescence) s
90 rotate
%%IncludeResource: font Helvetica
/Helvetica /ISOLatin1Encoding 120 FMSR

 857 4529 mt 
( ) s
6066  511 mt 
( ) s
1 sg
0 426 1261 0 0 -426 4762 955 4 MP
PP
-1261 0 0 426 1261 0 0 -426 4762 955 5 MP stroke
4 w
DO
SO
6 w
0 sg
4762  955 mt 6023  955 L
4762  529 mt 6023  529 L
4762  955 mt 4762  529 L
6023  955 mt 6023  529 L
4762  955 mt 6023  955 L
4762  955 mt 4762  529 L
4762  955 mt 6023  955 L
4762  529 mt 6023  529 L
4762  955 mt 4762  529 L
6023  955 mt 6023  529 L
5172  668 mt 
(FLIP exp) s
gs 4762 529 1262 427 rc
315 0 4825 626 2 MP stroke
gs 4909 553 147 147 rc
4957  601 mt 5007  651 L
5007  601 mt 4957  651 L
gr

gr

5172  795 mt 
(k) s
%%IncludeResource: font Helvetica
/Helvetica /ISOLatin1Encoding 96 FMSR

5232  855 mt 
(deg) s
%%IncludeResource: font Helvetica
/Helvetica /ISOLatin1Encoding 120 FMSR

5392  795 mt 
( = 150 s) s
%%IncludeResource: font Helvetica
/Helvetica /ISOLatin1Encoding 96 FMSR

5822  735 mt 
(-1) s
gs 4762 529 1262 427 rc
c8
315 0 4825 820 2 MP stroke
gs 4909 747 147 147 rc
  36   36 4982  820 FO
gr

gr

c8

end %%Color Dict

eplot
%%EndObject

epage
end

showpage

%%Trailer
%%EOF
