%!PS-Adobe-3.0 EPSF-3.0
%%Creator: MATLAB, The MathWorks, Inc. Version 7.14.0.739 (R2012a). Operating System: Darwin 11.4.2 Darwin Kernel Version 11.4.2: Thu Aug 23 16:25:48 PDT 2012; root:xnu-1699.32.7~1/RELEASE_X86_64 x86_64.
%%Title: /Users/zavalaeder/Dropbox/Yeast/bleaching_rate/figures/brate_daughter_JCB.eps
%%CreationDate: 11/26/2012  16:43:41
%%DocumentNeededFonts: Helvetica
%%DocumentProcessColors: Cyan Magenta Yellow Black
%%LanguageLevel: 2
%%Pages: 1
%%BoundingBox:    26   186   586   606
%%EndComments

%%BeginProlog
% MathWorks dictionary
/MathWorks 160 dict begin
% definition operators
/bdef {bind def} bind def
/ldef {load def} bind def
/xdef {exch def} bdef
/xstore {exch store} bdef
% operator abbreviations
/c  /clip ldef
/cc /concat ldef
/cp /closepath ldef
/gr /grestore ldef
/gs /gsave ldef
/mt /moveto ldef
/np /newpath ldef
/cm /currentmatrix ldef
/sm /setmatrix ldef
/rm /rmoveto ldef
/rl /rlineto ldef
/s {show newpath} bdef
/sc {setcmykcolor} bdef
/sr /setrgbcolor ldef
/sg /setgray ldef
/w /setlinewidth ldef
/j /setlinejoin ldef
/cap /setlinecap ldef
/rc {rectclip} bdef
/rf {rectfill} bdef
% page state control
/pgsv () def
/bpage {/pgsv save def} bdef
/epage {pgsv restore} bdef
/bplot /gsave ldef
/eplot {stroke grestore} bdef
% orientation switch
/portraitMode 0 def /landscapeMode 1 def /rotateMode 2 def
% coordinate system mappings
/dpi2point 0 def
% font control
/FontSize 0 def
/FMS {/FontSize xstore findfont [FontSize 0 0 FontSize neg 0 0]
  makefont setfont} bdef
/reencode {exch dup where {pop load} {pop StandardEncoding} ifelse
  exch dup 3 1 roll findfont dup length dict begin
  { 1 index /FID ne {def}{pop pop} ifelse } forall
  /Encoding exch def currentdict end definefont pop} bdef
/isroman {findfont /CharStrings get /Agrave known} bdef
/FMSR {3 1 roll 1 index dup isroman {reencode} {pop pop} ifelse
  exch FMS} bdef
/csm {1 dpi2point div -1 dpi2point div scale neg translate
 dup landscapeMode eq {pop -90 rotate}
  {rotateMode eq {90 rotate} if} ifelse} bdef
% line types: solid, dotted, dashed, dotdash
/SO { [] 0 setdash } bdef
/DO { [.5 dpi2point mul 4 dpi2point mul] 0 setdash } bdef
/DA { [6 dpi2point mul] 0 setdash } bdef
/DD { [.5 dpi2point mul 4 dpi2point mul 6 dpi2point mul 4
  dpi2point mul] 0 setdash } bdef
% macros for lines and objects
/L {lineto stroke} bdef
/MP {3 1 roll moveto 1 sub {rlineto} repeat} bdef
/AP {{rlineto} repeat} bdef
/PDlw -1 def
/W {/PDlw currentlinewidth def setlinewidth} def
/PP {closepath eofill} bdef
/DP {closepath stroke} bdef
/MR {4 -2 roll moveto dup  0 exch rlineto exch 0 rlineto
  neg 0 exch rlineto closepath} bdef
/FR {MR stroke} bdef
/PR {MR fill} bdef
/L1i {{currentfile picstr readhexstring pop} image} bdef
/tMatrix matrix def
/MakeOval {newpath tMatrix currentmatrix pop translate scale
0 0 1 0 360 arc tMatrix setmatrix} bdef
/FO {MakeOval stroke} bdef
/PO {MakeOval fill} bdef
/PD {currentlinewidth 2 div 0 360 arc fill
   PDlw -1 eq not {PDlw w /PDlw -1 def} if} def
/FA {newpath tMatrix currentmatrix pop translate scale
  0 0 1 5 -2 roll arc tMatrix setmatrix stroke} bdef
/PA {newpath tMatrix currentmatrix pop	translate 0 0 moveto scale
  0 0 1 5 -2 roll arc closepath tMatrix setmatrix fill} bdef
/FAn {newpath tMatrix currentmatrix pop translate scale
  0 0 1 5 -2 roll arcn tMatrix setmatrix stroke} bdef
/PAn {newpath tMatrix currentmatrix pop translate 0 0 moveto scale
  0 0 1 5 -2 roll arcn closepath tMatrix setmatrix fill} bdef
/vradius 0 def /hradius 0 def /lry 0 def
/lrx 0 def /uly 0 def /ulx 0 def /rad 0 def
/MRR {/vradius xdef /hradius xdef /lry xdef /lrx xdef /uly xdef
  /ulx xdef newpath tMatrix currentmatrix pop ulx hradius add uly
  vradius add translate hradius vradius scale 0 0 1 180 270 arc 
  tMatrix setmatrix lrx hradius sub uly vradius add translate
  hradius vradius scale 0 0 1 270 360 arc tMatrix setmatrix
  lrx hradius sub lry vradius sub translate hradius vradius scale
  0 0 1 0 90 arc tMatrix setmatrix ulx hradius add lry vradius sub
  translate hradius vradius scale 0 0 1 90 180 arc tMatrix setmatrix
  closepath} bdef
/FRR {MRR stroke } bdef
/PRR {MRR fill } bdef
/MlrRR {/lry xdef /lrx xdef /uly xdef /ulx xdef /rad lry uly sub 2 div def
  newpath tMatrix currentmatrix pop ulx rad add uly rad add translate
  rad rad scale 0 0 1 90 270 arc tMatrix setmatrix lrx rad sub lry rad
  sub translate rad rad scale 0 0 1 270 90 arc tMatrix setmatrix
  closepath} bdef
/FlrRR {MlrRR stroke } bdef
/PlrRR {MlrRR fill } bdef
/MtbRR {/lry xdef /lrx xdef /uly xdef /ulx xdef /rad lrx ulx sub 2 div def
  newpath tMatrix currentmatrix pop ulx rad add uly rad add translate
  rad rad scale 0 0 1 180 360 arc tMatrix setmatrix lrx rad sub lry rad
  sub translate rad rad scale 0 0 1 0 180 arc tMatrix setmatrix
  closepath} bdef
/FtbRR {MtbRR stroke } bdef
/PtbRR {MtbRR fill } bdef
/stri 6 array def /dtri 6 array def
/smat 6 array def /dmat 6 array def
/tmat1 6 array def /tmat2 6 array def /dif 3 array def
/asub {/ind2 exch def /ind1 exch def dup dup
  ind1 get exch ind2 get sub exch } bdef
/tri_to_matrix {
  2 0 asub 3 1 asub 4 0 asub 5 1 asub
  dup 0 get exch 1 get 7 -1 roll astore } bdef
/compute_transform {
  dmat dtri tri_to_matrix tmat1 invertmatrix 
  smat stri tri_to_matrix tmat2 concatmatrix } bdef
/ds {stri astore pop} bdef
/dt {dtri astore pop} bdef
/db {2 copy /cols xdef /rows xdef mul dup 3 mul string
  currentfile 
  3 index 0 eq {/ASCIIHexDecode filter}
  {/ASCII85Decode filter 3 index 2 eq {/RunLengthDecode filter} if }
  ifelse exch readstring pop
  dup 0 3 index getinterval /rbmap xdef
  dup 2 index dup getinterval /gbmap xdef
  1 index dup 2 mul exch getinterval /bbmap xdef pop pop}bdef
/it {gs np dtri aload pop moveto lineto lineto cp c
  cols rows 8 compute_transform 
  rbmap gbmap bbmap true 3 colorimage gr}bdef
/il {newpath moveto lineto stroke}bdef
currentdict end def
%%EndProlog

%%BeginSetup
MathWorks begin

0 cap

end
%%EndSetup

%%Page: 1 1
%%BeginPageSetup
%%PageBoundingBox:    26   186   586   606
MathWorks begin
bpage
%%EndPageSetup

%%BeginObject: obj1
bplot

/dpi2point 12 def
portraitMode 0312 7272 csm

    0     0  6720  5040 rc
85 dict begin %Colortable dictionary
/c0 { 0.000000 0.000000 0.000000 sr} bdef
/c1 { 1.000000 1.000000 1.000000 sr} bdef
/c2 { 0.900000 0.000000 0.000000 sr} bdef
/c3 { 0.000000 0.820000 0.000000 sr} bdef
/c4 { 0.000000 0.000000 0.800000 sr} bdef
/c5 { 0.910000 0.820000 0.320000 sr} bdef
/c6 { 1.000000 0.260000 0.820000 sr} bdef
/c7 { 0.000000 0.820000 0.820000 sr} bdef
c0
1 j
1 sg
   0    0 6721 5041 rf
6 w
0 4017 5208 0 0 -4017 874 4486 4 MP
PP
-5208 0 0 4017 5208 0 0 -4017 874 4486 5 MP stroke
4 w
DO
SO
6 w
0 sg
 874 4486 mt 6082 4486 L
 874  469 mt 6082  469 L
 874 4486 mt  874  469 L
6082 4486 mt 6082  469 L
 874 4486 mt 6082 4486 L
 874 4486 mt  874  469 L
 874 4486 mt  874 4433 L
 874  469 mt  874  521 L
%%IncludeResource: font Helvetica
/Helvetica /ISOLatin1Encoding 120 FMSR

 841 4631 mt 
(0) s
1394 4486 mt 1394 4433 L
1394  469 mt 1394  521 L
1328 4631 mt 
(10) s
1915 4486 mt 1915 4433 L
1915  469 mt 1915  521 L
1849 4631 mt 
(20) s
2436 4486 mt 2436 4433 L
2436  469 mt 2436  521 L
2370 4631 mt 
(30) s
2957 4486 mt 2957 4433 L
2957  469 mt 2957  521 L
2891 4631 mt 
(40) s
3478 4486 mt 3478 4433 L
3478  469 mt 3478  521 L
3412 4631 mt 
(50) s
3998 4486 mt 3998 4433 L
3998  469 mt 3998  521 L
3932 4631 mt 
(60) s
4519 4486 mt 4519 4433 L
4519  469 mt 4519  521 L
4453 4631 mt 
(70) s
5040 4486 mt 5040 4433 L
5040  469 mt 5040  521 L
4974 4631 mt 
(80) s
5561 4486 mt 5561 4433 L
5561  469 mt 5561  521 L
5495 4631 mt 
(90) s
6082 4486 mt 6082 4433 L
6082  469 mt 6082  521 L
5982 4631 mt 
(100) s
 874 4486 mt  926 4486 L
6082 4486 mt 6029 4486 L
 773 4530 mt 
(0) s
 874 4084 mt  926 4084 L
6082 4084 mt 6029 4084 L
 706 4128 mt 
(10) s
 874 3682 mt  926 3682 L
6082 3682 mt 6029 3682 L
 706 3726 mt 
(20) s
 874 3280 mt  926 3280 L
6082 3280 mt 6029 3280 L
 706 3324 mt 
(30) s
 874 2879 mt  926 2879 L
6082 2879 mt 6029 2879 L
 706 2923 mt 
(40) s
 874 2477 mt  926 2477 L
6082 2477 mt 6029 2477 L
 706 2521 mt 
(50) s
 874 2075 mt  926 2075 L
6082 2075 mt 6029 2075 L
 706 2119 mt 
(60) s
 874 1674 mt  926 1674 L
6082 1674 mt 6029 1674 L
 706 1718 mt 
(70) s
 874 1272 mt  926 1272 L
6082 1272 mt 6029 1272 L
 706 1316 mt 
(80) s
 874  870 mt  926  870 L
6082  870 mt 6029  870 L
 706  914 mt 
(90) s
 874  469 mt  926  469 L
6082  469 mt 6029  469 L
 639  513 mt 
(100) s
 874 4486 mt 6082 4486 L
 874  469 mt 6082  469 L
 874 4486 mt  874  469 L
6082 4486 mt 6082  469 L
gs 874 469 5209 4018 rc
874 469 PD
49 0 874 469 2 MP stroke
49 0 874 469 2 MP stroke
0 1433 1021 1155 2 MP stroke
99 0 971 1155 2 MP stroke
99 0 971 2588 2 MP stroke
0 670 1168 1835 2 MP stroke
99 0 1119 1835 2 MP stroke
99 0 1119 2505 2 MP stroke
0 1134 1315 2254 2 MP stroke
99 0 1266 2254 2 MP stroke
99 0 1266 3388 2 MP stroke
0 626 1460 2630 2 MP stroke
99 0 1411 2630 2 MP stroke
99 0 1411 3256 2 MP stroke
0 909 1606 2832 2 MP stroke
99 0 1556 2832 2 MP stroke
99 0 1556 3741 2 MP stroke
0 908 1753 3142 2 MP stroke
98 0 1704 3142 2 MP stroke
98 0 1704 4050 2 MP stroke
0 644 1898 3533 2 MP stroke
99 0 1849 3533 2 MP stroke
99 0 1849 4177 2 MP stroke
0 604 2043 3563 2 MP stroke
99 0 1994 3563 2 MP stroke
99 0 1994 4167 2 MP stroke
0 641 2191 3678 2 MP stroke
99 0 2141 3678 2 MP stroke
99 0 2141 4319 2 MP stroke
0 533 2335 3806 2 MP stroke
99 0 2286 3806 2 MP stroke
99 0 2286 4339 2 MP stroke
0 360 2481 4000 2 MP stroke
99 0 2432 4000 2 MP stroke
99 0 2432 4360 2 MP stroke
0 453 2629 3942 2 MP stroke
99 0 2579 3942 2 MP stroke
99 0 2579 4395 2 MP stroke
0 340 2776 4060 2 MP stroke
99 0 2727 4060 2 MP stroke
99 0 2727 4400 2 MP stroke
0 242 2923 4171 2 MP stroke
99 0 2874 4171 2 MP stroke
99 0 2874 4413 2 MP stroke
0 372 3070 4066 2 MP stroke
98 0 3021 4066 2 MP stroke
98 0 3021 4438 2 MP stroke
0 320 3216 4162 2 MP stroke
98 0 3167 4162 2 MP stroke
98 0 3167 4482 2 MP stroke
0 118 3360 4351 2 MP stroke
99 0 3310 4351 2 MP stroke
99 0 3310 4469 2 MP stroke
0 227 3507 4260 2 MP stroke
99 0 3457 4260 2 MP stroke
0 224 3654 4246 2 MP stroke
98 0 3605 4246 2 MP stroke
98 0 3605 4470 2 MP stroke
0 211 3801 4276 2 MP stroke
99 0 3752 4276 2 MP stroke
0 226 3947 4239 2 MP stroke
98 0 3898 4239 2 MP stroke
98 0 3898 4465 2 MP stroke
0 213 4094 4224 2 MP stroke
98 0 4045 4224 2 MP stroke
98 0 4045 4437 2 MP stroke
0 97 4240 4388 2 MP stroke
99 0 4190 4388 2 MP stroke
99 0 4190 4485 2 MP stroke
0 222 4386 4265 2 MP stroke
99 0 4337 4265 2 MP stroke
0 133 4532 4324 2 MP stroke
98 0 4483 4324 2 MP stroke
98 0 4483 4457 2 MP stroke
0 199 4679 4273 2 MP stroke
99 0 4629 4273 2 MP stroke
99 0 4629 4472 2 MP stroke
0 177 4829 4310 2 MP stroke
99 0 4780 4310 2 MP stroke
0 157 5025 4320 2 MP stroke
99 0 4975 4320 2 MP stroke
99 0 4975 4477 2 MP stroke
0 184 5284 4303 2 MP stroke
99 0 5235 4303 2 MP stroke
0 108 5809 4325 2 MP stroke
98 0 5760 4325 2 MP stroke
98 0 5760 4433 2 MP stroke
525 -23 259 4 196 -3 150 29 147 -18 146 -4 146 -42 146 105 
147 -21 146 -38 147 32 147 -36 147 -16 144 88 146 70 147 -40 
147 62 147 61 148 -11 146 108 144 74 148 133 145 10 145 259 
147 309 146 344 145 122 147 651 147 299 147 1402 874 469 31 MP stroke
gr

 849  444 mt  899  494 L
 899  444 mt  849  494 L
 996 1846 mt 1046 1896 L
1046 1846 mt  996 1896 L
1143 2145 mt 1193 2195 L
1193 2145 mt 1143 2195 L
1290 2796 mt 1340 2846 L
1340 2796 mt 1290 2846 L
1435 2918 mt 1485 2968 L
1485 2918 mt 1435 2968 L
1581 3262 mt 1631 3312 L
1631 3262 mt 1581 3312 L
1728 3571 mt 1778 3621 L
1778 3571 mt 1728 3621 L
1873 3830 mt 1923 3880 L
1923 3830 mt 1873 3880 L
2018 3840 mt 2068 3890 L
2068 3840 mt 2018 3890 L
2166 3973 mt 2216 4023 L
2216 3973 mt 2166 4023 L
2310 4047 mt 2360 4097 L
2360 4047 mt 2310 4097 L
2456 4155 mt 2506 4205 L
2506 4155 mt 2456 4205 L
2604 4144 mt 2654 4194 L
2654 4144 mt 2604 4194 L
2751 4205 mt 2801 4255 L
2801 4205 mt 2751 4255 L
2898 4267 mt 2948 4317 L
2948 4267 mt 2898 4317 L
3045 4227 mt 3095 4277 L
3095 4227 mt 3045 4277 L
3191 4297 mt 3241 4347 L
3241 4297 mt 3191 4347 L
3335 4385 mt 3385 4435 L
3385 4385 mt 3335 4435 L
3482 4369 mt 3532 4419 L
3532 4369 mt 3482 4419 L
3629 4333 mt 3679 4383 L
3679 4333 mt 3629 4383 L
3776 4365 mt 3826 4415 L
3826 4365 mt 3776 4415 L
3922 4327 mt 3972 4377 L
3972 4327 mt 3922 4377 L
4069 4306 mt 4119 4356 L
4119 4306 mt 4069 4356 L
4215 4411 mt 4265 4461 L
4265 4411 mt 4215 4461 L
4361 4369 mt 4411 4419 L
4411 4369 mt 4361 4419 L
4507 4365 mt 4557 4415 L
4557 4365 mt 4507 4415 L
4654 4347 mt 4704 4397 L
4704 4347 mt 4654 4397 L
4804 4376 mt 4854 4426 L
4854 4376 mt 4804 4426 L
5000 4373 mt 5050 4423 L
5050 4373 mt 5000 4423 L
5259 4377 mt 5309 4427 L
5309 4377 mt 5259 4427 L
5784 4354 mt 5834 4404 L
5834 4354 mt 5784 4404 L
gs 874 469 5209 4018 rc
/c8 { 0.000000 0.500000 0.000000 sr} bdef
c8
874 469 PD
52 0 874 469 2 MP stroke
52 0 874 469 2 MP stroke
0 151 900 469 2 MP stroke
78 0 874 620 2 MP stroke
0 256 926 469 2 MP stroke
104 0 874 725 2 MP stroke
0 249 952 605 2 MP stroke
104 0 900 605 2 MP stroke
104 0 900 854 2 MP stroke
0 236 978 775 2 MP stroke
104 0 926 775 2 MP stroke
104 0 926 1011 2 MP stroke
0 213 1004 970 2 MP stroke
104 0 952 970 2 MP stroke
104 0 952 1183 2 MP stroke
0 229 1030 1125 2 MP stroke
104 0 978 1125 2 MP stroke
104 0 978 1354 2 MP stroke
0 230 1056 1301 2 MP stroke
104 0 1004 1301 2 MP stroke
104 0 1004 1531 2 MP stroke
0 237 1082 1452 2 MP stroke
104 0 1030 1452 2 MP stroke
104 0 1030 1689 2 MP stroke
0 224 1108 1606 2 MP stroke
104 0 1056 1606 2 MP stroke
104 0 1056 1830 2 MP stroke
0 249 1134 1730 2 MP stroke
104 0 1082 1730 2 MP stroke
104 0 1082 1979 2 MP stroke
0 220 1160 1887 2 MP stroke
104 0 1108 1887 2 MP stroke
104 0 1108 2107 2 MP stroke
0 198 1186 2024 2 MP stroke
104 0 1134 2024 2 MP stroke
104 0 1134 2222 2 MP stroke
0 191 1212 2140 2 MP stroke
104 0 1160 2140 2 MP stroke
104 0 1160 2331 2 MP stroke
0 192 1238 2270 2 MP stroke
104 0 1186 2270 2 MP stroke
104 0 1186 2462 2 MP stroke
0 188 1264 2383 2 MP stroke
104 0 1212 2383 2 MP stroke
104 0 1212 2571 2 MP stroke
0 179 1290 2490 2 MP stroke
104 0 1238 2490 2 MP stroke
104 0 1238 2669 2 MP stroke
0 160 1316 2616 2 MP stroke
104 0 1264 2616 2 MP stroke
104 0 1264 2776 2 MP stroke
0 163 1342 2708 2 MP stroke
104 0 1290 2708 2 MP stroke
104 0 1290 2871 2 MP stroke
0 162 1368 2797 2 MP stroke
104 0 1316 2797 2 MP stroke
104 0 1316 2959 2 MP stroke
0 172 1394 2873 2 MP stroke
104 0 1342 2873 2 MP stroke
104 0 1342 3045 2 MP stroke
0 177 1420 2946 2 MP stroke
104 0 1368 2946 2 MP stroke
104 0 1368 3123 2 MP stroke
0 171 1446 3022 2 MP stroke
104 0 1394 3022 2 MP stroke
104 0 1394 3193 2 MP stroke
0 171 1472 3097 2 MP stroke
105 0 1420 3097 2 MP stroke
105 0 1420 3268 2 MP stroke
0 152 1498 3181 2 MP stroke
105 0 1446 3181 2 MP stroke
105 0 1446 3333 2 MP stroke
0 143 1525 3254 2 MP stroke
105 0 1472 3254 2 MP stroke
105 0 1472 3397 2 MP stroke
0 138 1551 3312 2 MP stroke
105 0 1498 3312 2 MP stroke
105 0 1498 3450 2 MP stroke
0 130 1577 3371 2 MP stroke
104 0 1525 3371 2 MP stroke
104 0 1525 3501 2 MP stroke
0 122 1603 3435 2 MP stroke
104 0 1551 3435 2 MP stroke
104 0 1551 3557 2 MP stroke
0 120 1629 3492 2 MP stroke
104 0 1577 3492 2 MP stroke
104 0 1577 3612 2 MP stroke
0 112 1655 3537 2 MP stroke
104 0 1603 3537 2 MP stroke
104 0 1603 3649 2 MP stroke
0 109 1681 3582 2 MP stroke
104 0 1629 3582 2 MP stroke
104 0 1629 3691 2 MP stroke
0 114 1707 3625 2 MP stroke
104 0 1655 3625 2 MP stroke
104 0 1655 3739 2 MP stroke
0 123 1733 3663 2 MP stroke
104 0 1681 3663 2 MP stroke
104 0 1681 3786 2 MP stroke
0 114 1759 3704 2 MP stroke
104 0 1707 3704 2 MP stroke
104 0 1707 3818 2 MP stroke
0 117 1785 3745 2 MP stroke
104 0 1733 3745 2 MP stroke
104 0 1733 3862 2 MP stroke
0 111 1811 3778 2 MP stroke
104 0 1759 3778 2 MP stroke
104 0 1759 3889 2 MP stroke
0 90 1837 3822 2 MP stroke
104 0 1785 3822 2 MP stroke
104 0 1785 3912 2 MP stroke
0 105 1863 3847 2 MP stroke
104 0 1811 3847 2 MP stroke
104 0 1811 3952 2 MP stroke
0 100 1889 3875 2 MP stroke
104 0 1837 3875 2 MP stroke
104 0 1837 3975 2 MP stroke
0 88 1915 3921 2 MP stroke
104 0 1863 3921 2 MP stroke
104 0 1863 4009 2 MP stroke
0 91 1941 3944 2 MP stroke
104 0 1889 3944 2 MP stroke
104 0 1889 4035 2 MP stroke
0 81 1967 3977 2 MP stroke
104 0 1915 3977 2 MP stroke
104 0 1915 4058 2 MP stroke
0 88 1993 3993 2 MP stroke
104 0 1941 3993 2 MP stroke
104 0 1941 4081 2 MP stroke
0 92 2019 4021 2 MP stroke
104 0 1967 4021 2 MP stroke
104 0 1967 4113 2 MP stroke
0 96 2045 4040 2 MP stroke
104 0 1993 4040 2 MP stroke
104 0 1993 4136 2 MP stroke
0 85 2071 4067 2 MP stroke
104 0 2019 4067 2 MP stroke
104 0 2019 4152 2 MP stroke
0 88 2097 4085 2 MP stroke
104 0 2045 4085 2 MP stroke
104 0 2045 4173 2 MP stroke
0 81 2123 4104 2 MP stroke
105 0 2071 4104 2 MP stroke
105 0 2071 4185 2 MP stroke
0 80 2149 4125 2 MP stroke
105 0 2097 4125 2 MP stroke
105 0 2097 4205 2 MP stroke
0 65 2176 4151 2 MP stroke
105 0 2123 4151 2 MP stroke
105 0 2123 4216 2 MP stroke
0 76 2202 4158 2 MP stroke
105 0 2149 4158 2 MP stroke
105 0 2149 4234 2 MP stroke
0 76 2228 4176 2 MP stroke
104 0 2176 4176 2 MP stroke
104 0 2176 4252 2 MP stroke
0 62 2254 4200 2 MP stroke
104 0 2202 4200 2 MP stroke
104 0 2202 4262 2 MP stroke
0 64 2280 4208 2 MP stroke
104 0 2228 4208 2 MP stroke
104 0 2228 4272 2 MP stroke
0 70 2306 4217 2 MP stroke
104 0 2254 4217 2 MP stroke
104 0 2254 4287 2 MP stroke
0 61 2332 4236 2 MP stroke
104 0 2280 4236 2 MP stroke
104 0 2280 4297 2 MP stroke
0 56 2358 4251 2 MP stroke
104 0 2306 4251 2 MP stroke
104 0 2306 4307 2 MP stroke
0 56 2384 4262 2 MP stroke
104 0 2332 4262 2 MP stroke
104 0 2332 4318 2 MP stroke
0 61 2410 4269 2 MP stroke
104 0 2358 4269 2 MP stroke
104 0 2358 4330 2 MP stroke
0 58 2436 4287 2 MP stroke
104 0 2384 4287 2 MP stroke
104 0 2384 4345 2 MP stroke
0 57 2462 4293 2 MP stroke
104 0 2410 4293 2 MP stroke
104 0 2410 4350 2 MP stroke
0 52 2488 4306 2 MP stroke
104 0 2436 4306 2 MP stroke
104 0 2436 4358 2 MP stroke
0 55 2514 4309 2 MP stroke
104 0 2462 4309 2 MP stroke
104 0 2462 4364 2 MP stroke
0 47 2540 4319 2 MP stroke
104 0 2488 4319 2 MP stroke
104 0 2488 4366 2 MP stroke
0 45 2566 4328 2 MP stroke
104 0 2514 4328 2 MP stroke
104 0 2514 4373 2 MP stroke
0 43 2592 4338 2 MP stroke
104 0 2540 4338 2 MP stroke
104 0 2540 4381 2 MP stroke
0 43 2618 4345 2 MP stroke
104 0 2566 4345 2 MP stroke
104 0 2566 4388 2 MP stroke
0 41 2644 4353 2 MP stroke
104 0 2592 4353 2 MP stroke
104 0 2592 4394 2 MP stroke
0 44 2670 4357 2 MP stroke
104 0 2618 4357 2 MP stroke
104 0 2618 4401 2 MP stroke
0 44 2696 4363 2 MP stroke
104 0 2644 4363 2 MP stroke
104 0 2644 4407 2 MP stroke
0 36 2722 4372 2 MP stroke
104 0 2670 4372 2 MP stroke
104 0 2670 4408 2 MP stroke
0 35 2748 4379 2 MP stroke
104 0 2696 4379 2 MP stroke
104 0 2696 4414 2 MP stroke
0 41 2774 4380 2 MP stroke
105 0 2722 4380 2 MP stroke
105 0 2722 4421 2 MP stroke
0 38 2800 4384 2 MP stroke
105 0 2748 4384 2 MP stroke
105 0 2748 4422 2 MP stroke
0 33 2827 4391 2 MP stroke
105 0 2774 4391 2 MP stroke
105 0 2774 4424 2 MP stroke
0 36 2853 4390 2 MP stroke
105 0 2800 4390 2 MP stroke
105 0 2800 4426 2 MP stroke
0 36 2879 4395 2 MP stroke
104 0 2827 4395 2 MP stroke
104 0 2827 4431 2 MP stroke
0 33 2905 4401 2 MP stroke
104 0 2853 4401 2 MP stroke
104 0 2853 4434 2 MP stroke
0 33 2931 4406 2 MP stroke
104 0 2879 4406 2 MP stroke
104 0 2879 4439 2 MP stroke
0 30 2957 4411 2 MP stroke
104 0 2905 4411 2 MP stroke
104 0 2905 4441 2 MP stroke
0 28 2983 4416 2 MP stroke
104 0 2931 4416 2 MP stroke
104 0 2931 4444 2 MP stroke
0 26 3009 4419 2 MP stroke
104 0 2957 4419 2 MP stroke
104 0 2957 4445 2 MP stroke
0 28 3035 4419 2 MP stroke
104 0 2983 4419 2 MP stroke
104 0 2983 4447 2 MP stroke
0 28 3061 4422 2 MP stroke
104 0 3009 4422 2 MP stroke
104 0 3009 4450 2 MP stroke
0 31 3087 4423 2 MP stroke
104 0 3035 4423 2 MP stroke
104 0 3035 4454 2 MP stroke
0 30 3113 4427 2 MP stroke
104 0 3061 4427 2 MP stroke
104 0 3061 4457 2 MP stroke
0 25 3139 4432 2 MP stroke
104 0 3087 4432 2 MP stroke
104 0 3087 4457 2 MP stroke
0 26 3165 4433 2 MP stroke
104 0 3113 4433 2 MP stroke
104 0 3113 4459 2 MP stroke
0 23 3191 4438 2 MP stroke
104 0 3139 4438 2 MP stroke
104 0 3139 4461 2 MP stroke
0 23 3217 4441 2 MP stroke
104 0 3165 4441 2 MP stroke
104 0 3165 4464 2 MP stroke
0 24 3243 4441 2 MP stroke
104 0 3191 4441 2 MP stroke
104 0 3191 4465 2 MP stroke
0 22 3269 4443 2 MP stroke
104 0 3217 4443 2 MP stroke
104 0 3217 4465 2 MP stroke
0 20 3295 4446 2 MP stroke
104 0 3243 4446 2 MP stroke
104 0 3243 4466 2 MP stroke
0 20 3321 4447 2 MP stroke
104 0 3269 4447 2 MP stroke
104 0 3269 4467 2 MP stroke
0 19 3347 4449 2 MP stroke
104 0 3295 4449 2 MP stroke
104 0 3295 4468 2 MP stroke
0 21 3373 4449 2 MP stroke
104 0 3321 4449 2 MP stroke
104 0 3321 4470 2 MP stroke
0 17 3399 4452 2 MP stroke
104 0 3347 4452 2 MP stroke
104 0 3347 4469 2 MP stroke
0 19 3425 4454 2 MP stroke
105 0 3373 4454 2 MP stroke
105 0 3373 4473 2 MP stroke
0 18 3451 4456 2 MP stroke
105 0 3399 4456 2 MP stroke
105 0 3399 4474 2 MP stroke
0 16 3478 4458 2 MP stroke
105 0 3425 4458 2 MP stroke
105 0 3425 4474 2 MP stroke
0 17 3504 4459 2 MP stroke
105 0 3451 4459 2 MP stroke
105 0 3451 4476 2 MP stroke
0 17 3530 4460 2 MP stroke
104 0 3478 4460 2 MP stroke
104 0 3478 4477 2 MP stroke
0 17 3556 4461 2 MP stroke
104 0 3504 4461 2 MP stroke
104 0 3504 4478 2 MP stroke
0 16 3582 4463 2 MP stroke
104 0 3530 4463 2 MP stroke
104 0 3530 4479 2 MP stroke
0 17 3608 4462 2 MP stroke
104 0 3556 4462 2 MP stroke
104 0 3556 4479 2 MP stroke
0 14 3634 4465 2 MP stroke
104 0 3582 4465 2 MP stroke
104 0 3582 4479 2 MP stroke
0 15 3660 4466 2 MP stroke
104 0 3608 4466 2 MP stroke
104 0 3608 4481 2 MP stroke
0 17 3686 4464 2 MP stroke
104 0 3634 4464 2 MP stroke
104 0 3634 4481 2 MP stroke
0 15 3712 4466 2 MP stroke
104 0 3660 4466 2 MP stroke
104 0 3660 4481 2 MP stroke
0 13 3738 4468 2 MP stroke
104 0 3686 4468 2 MP stroke
104 0 3686 4481 2 MP stroke
0 15 3764 4467 2 MP stroke
104 0 3712 4467 2 MP stroke
104 0 3712 4482 2 MP stroke
0 13 3790 4469 2 MP stroke
104 0 3738 4469 2 MP stroke
104 0 3738 4482 2 MP stroke
0 14 3816 4469 2 MP stroke
104 0 3764 4469 2 MP stroke
104 0 3764 4483 2 MP stroke
0 13 3842 4470 2 MP stroke
104 0 3790 4470 2 MP stroke
104 0 3790 4483 2 MP stroke
0 11 3868 4472 2 MP stroke
104 0 3816 4472 2 MP stroke
104 0 3816 4483 2 MP stroke
0 11 3894 4472 2 MP stroke
104 0 3842 4472 2 MP stroke
104 0 3842 4483 2 MP stroke
0 10 3920 4473 2 MP stroke
104 0 3868 4473 2 MP stroke
104 0 3868 4483 2 MP stroke
0 12 3946 4472 2 MP stroke
104 0 3894 4472 2 MP stroke
104 0 3894 4484 2 MP stroke
0 10 3972 4473 2 MP stroke
104 0 3920 4473 2 MP stroke
104 0 3920 4483 2 MP stroke
0 10 3998 4474 2 MP stroke
104 0 3946 4474 2 MP stroke
104 0 3946 4484 2 MP stroke
0 10 4024 4475 2 MP stroke
104 0 3972 4475 2 MP stroke
104 0 3972 4485 2 MP stroke
0 11 4050 4474 2 MP stroke
104 0 3998 4474 2 MP stroke
104 0 3998 4485 2 MP stroke
0 9 4076 4476 2 MP stroke
105 0 4024 4476 2 MP stroke
105 0 4024 4485 2 MP stroke
0 8 4102 4477 2 MP stroke
105 0 4050 4477 2 MP stroke
105 0 4050 4485 2 MP stroke
0 8 4129 4477 2 MP stroke
105 0 4076 4477 2 MP stroke
105 0 4076 4485 2 MP stroke
0 8 4155 4478 2 MP stroke
105 0 4102 4478 2 MP stroke
105 0 4102 4486 2 MP stroke
0 8 4181 4478 2 MP stroke
104 0 4129 4478 2 MP stroke
104 0 4129 4486 2 MP stroke
0 9 4207 4477 2 MP stroke
104 0 4155 4477 2 MP stroke
104 0 4155 4486 2 MP stroke
0 8 4233 4478 2 MP stroke
104 0 4181 4478 2 MP stroke
104 0 4181 4486 2 MP stroke
0 9 4259 4478 2 MP stroke
104 0 4207 4478 2 MP stroke
0 8 4285 4479 2 MP stroke
104 0 4233 4479 2 MP stroke
0 7 4311 4479 2 MP stroke
104 0 4259 4479 2 MP stroke
104 0 4259 4486 2 MP stroke
0 6 4337 4480 2 MP stroke
104 0 4285 4480 2 MP stroke
104 0 4285 4486 2 MP stroke
0 7 4363 4479 2 MP stroke
104 0 4311 4479 2 MP stroke
104 0 4311 4486 2 MP stroke
0 7 4389 4479 2 MP stroke
104 0 4337 4479 2 MP stroke
104 0 4337 4486 2 MP stroke
0 7 4415 4479 2 MP stroke
104 0 4363 4479 2 MP stroke
104 0 4363 4486 2 MP stroke
0 7 4441 4479 2 MP stroke
104 0 4389 4479 2 MP stroke
104 0 4389 4486 2 MP stroke
0 6 4467 4480 2 MP stroke
104 0 4415 4480 2 MP stroke
104 0 4415 4486 2 MP stroke
0 6 4493 4480 2 MP stroke
104 0 4441 4480 2 MP stroke
104 0 4441 4486 2 MP stroke
0 6 4519 4480 2 MP stroke
104 0 4467 4480 2 MP stroke
104 0 4467 4486 2 MP stroke
0 7 4545 4479 2 MP stroke
104 0 4493 4479 2 MP stroke
104 0 4493 4486 2 MP stroke
0 6 4571 4480 2 MP stroke
104 0 4519 4480 2 MP stroke
104 0 4519 4486 2 MP stroke
0 5 4597 4481 2 MP stroke
104 0 4545 4481 2 MP stroke
104 0 4545 4486 2 MP stroke
0 7 4623 4480 2 MP stroke
104 0 4571 4480 2 MP stroke
0 6 4649 4481 2 MP stroke
104 0 4597 4481 2 MP stroke
0 6 4675 4481 2 MP stroke
104 0 4623 4481 2 MP stroke
0 5 4701 4481 2 MP stroke
104 0 4649 4481 2 MP stroke
104 0 4649 4486 2 MP stroke
0 5 4727 4481 2 MP stroke
105 0 4675 4481 2 MP stroke
105 0 4675 4486 2 MP stroke
0 5 4753 4481 2 MP stroke
105 0 4701 4481 2 MP stroke
105 0 4701 4486 2 MP stroke
0 5 4780 4481 2 MP stroke
105 0 4727 4481 2 MP stroke
105 0 4727 4486 2 MP stroke
0 4 4806 4482 2 MP stroke
105 0 4753 4482 2 MP stroke
105 0 4753 4486 2 MP stroke
0 5 4832 4482 2 MP stroke
104 0 4780 4482 2 MP stroke
0 5 4858 4482 2 MP stroke
104 0 4806 4482 2 MP stroke
0 5 4884 4482 2 MP stroke
104 0 4832 4482 2 MP stroke
0 5 4910 4482 2 MP stroke
104 0 4858 4482 2 MP stroke
0 4 4936 4483 2 MP stroke
104 0 4884 4483 2 MP stroke
0 3 4962 4483 2 MP stroke
104 0 4910 4483 2 MP stroke
104 0 4910 4486 2 MP stroke
0 3 4988 4483 2 MP stroke
104 0 4936 4483 2 MP stroke
104 0 4936 4486 2 MP stroke
0 5 5014 4482 2 MP stroke
104 0 4962 4482 2 MP stroke
0 3 5040 4483 2 MP stroke
104 0 4988 4483 2 MP stroke
104 0 4988 4486 2 MP stroke
0 3 5066 4483 2 MP stroke
104 0 5014 4483 2 MP stroke
104 0 5014 4486 2 MP stroke
0 3 5092 4483 2 MP stroke
104 0 5040 4483 2 MP stroke
104 0 5040 4486 2 MP stroke
0 3 5118 4483 2 MP stroke
104 0 5066 4483 2 MP stroke
104 0 5066 4486 2 MP stroke
0 3 5144 4483 2 MP stroke
104 0 5092 4483 2 MP stroke
104 0 5092 4486 2 MP stroke
0 3 5170 4483 2 MP stroke
104 0 5118 4483 2 MP stroke
104 0 5118 4486 2 MP stroke
0 3 5196 4483 2 MP stroke
104 0 5144 4483 2 MP stroke
104 0 5144 4486 2 MP stroke
0 2 5222 4484 2 MP stroke
104 0 5170 4484 2 MP stroke
104 0 5170 4486 2 MP stroke
0 2 5248 4484 2 MP stroke
104 0 5196 4484 2 MP stroke
104 0 5196 4486 2 MP stroke
0 2 5274 4484 2 MP stroke
104 0 5222 4484 2 MP stroke
104 0 5222 4486 2 MP stroke
0 4 5300 4483 2 MP stroke
104 0 5248 4483 2 MP stroke
0 2 5326 4484 2 MP stroke
104 0 5274 4484 2 MP stroke
104 0 5274 4486 2 MP stroke
0 1 5352 4485 2 MP stroke
104 0 5300 4485 2 MP stroke
104 0 5300 4486 2 MP stroke
0 2 5378 4484 2 MP stroke
105 0 5326 4484 2 MP stroke
105 0 5326 4486 2 MP stroke
0 3 5404 4484 2 MP stroke
105 0 5352 4484 2 MP stroke
0 3 5431 4484 2 MP stroke
105 0 5378 4484 2 MP stroke
0 2 5457 4484 2 MP stroke
105 0 5404 4484 2 MP stroke
105 0 5404 4486 2 MP stroke
0 1 5483 4485 2 MP stroke
104 0 5431 4485 2 MP stroke
104 0 5431 4486 2 MP stroke
0 1 5509 4485 2 MP stroke
104 0 5457 4485 2 MP stroke
104 0 5457 4486 2 MP stroke
0 2 5535 4484 2 MP stroke
104 0 5483 4484 2 MP stroke
104 0 5483 4486 2 MP stroke
0 2 5561 4484 2 MP stroke
104 0 5509 4484 2 MP stroke
104 0 5509 4486 2 MP stroke
0 2 5587 4484 2 MP stroke
104 0 5535 4484 2 MP stroke
104 0 5535 4486 2 MP stroke
0 2 5613 4484 2 MP stroke
104 0 5561 4484 2 MP stroke
104 0 5561 4486 2 MP stroke
0 1 5639 4485 2 MP stroke
104 0 5587 4485 2 MP stroke
104 0 5587 4486 2 MP stroke
0 2 5665 4484 2 MP stroke
104 0 5613 4484 2 MP stroke
104 0 5613 4486 2 MP stroke
0 2 5691 4484 2 MP stroke
104 0 5639 4484 2 MP stroke
104 0 5639 4486 2 MP stroke
0 2 5717 4484 2 MP stroke
104 0 5665 4484 2 MP stroke
104 0 5665 4486 2 MP stroke
0 2 5743 4484 2 MP stroke
104 0 5691 4484 2 MP stroke
104 0 5691 4486 2 MP stroke
0 1 5769 4485 2 MP stroke
104 0 5717 4485 2 MP stroke
104 0 5717 4486 2 MP stroke
0 1 5795 4485 2 MP stroke
104 0 5743 4485 2 MP stroke
104 0 5743 4486 2 MP stroke
0 1 5821 4485 2 MP stroke
104 0 5769 4485 2 MP stroke
104 0 5769 4486 2 MP stroke
0 1 5847 4485 2 MP stroke
104 0 5795 4485 2 MP stroke
104 0 5795 4486 2 MP stroke
0 1 5873 4485 2 MP stroke
104 0 5821 4485 2 MP stroke
104 0 5821 4486 2 MP stroke
0 2 5899 4484 2 MP stroke
104 0 5847 4484 2 MP stroke
104 0 5847 4486 2 MP stroke
0 1 5925 4485 2 MP stroke
104 0 5873 4485 2 MP stroke
104 0 5873 4486 2 MP stroke
0 1 5951 4485 2 MP stroke
104 0 5899 4485 2 MP stroke
104 0 5899 4486 2 MP stroke
0 1 5977 4485 2 MP stroke
104 0 5925 4485 2 MP stroke
104 0 5925 4486 2 MP stroke
0 1 6003 4485 2 MP stroke
104 0 5951 4485 2 MP stroke
104 0 5951 4486 2 MP stroke
0 1 6029 4485 2 MP stroke
105 0 5977 4485 2 MP stroke
105 0 5977 4486 2 MP stroke
0 1 6055 4485 2 MP stroke
80 0 6003 4485 2 MP stroke
80 0 6003 4486 2 MP stroke
0 1 6082 4485 2 MP stroke
54 0 6029 4485 2 MP stroke
54 0 6029 4486 2 MP stroke
27 0 26 0 26 0 26 0 26 0 26 0 26 0 26 0 
26 0 26 0 26 0 26 0 26 0 26 0 26 0 26 0 
26 0 26 0 26 0 26 0 26 0 26 0 26 0 26 0 
26 0 27 0 26 0 26 0 26 0 26 0 26 0 26 0 
26 0 26 0 26 0 26 0 26 0 26 0 26 0 26 0 
26 1 26 -1 26 0 26 0 26 0 26 1 26 0 26 0 
26 0 26 0 27 0 26 1 26 -1 26 0 26 0 26 1 
26 0 26 0 26 0 26 0 26 0 26 0 26 0 26 0 
26 0 26 0 26 0 26 0 26 0 26 1 26 0 26 0 
26 0 26 0 26 1 27 0 26 0 26 1 26 0 26 1 
26 1 26 0 26 0 26 0 26 1 26 0 26 1 26 1 
26 1 26 0 26 0 26 1 26 0 26 1 26 1 26 0 
26 1 26 2 26 1 26 1 27 1 26 2 26 2 26 2 
26 0 26 2 26 1 26 2 26 1 26 0 26 4 26 3 
26 2 26 2 26 4 26 2 26 3 26 1 26 2 26 4 
26 3 26 6 26 4 26 5 26 1 27 4 26 3 26 3 
26 7 26 5 26 6 26 5 26 7 26 8 26 8 26 8 
26 7 26 4 26 10 26 6 26 16 26 10 26 11 26 12 
26 15 26 12 26 9 26 17 26 18 26 13 27 18 26 20 
26 16 26 19 26 22 26 21 26 30 26 20 26 28 26 24 
26 40 26 26 26 32 26 34 26 30 26 42 26 37 26 42 
26 45 26 44 26 41 26 56 26 60 26 55 26 56 27 68 
26 74 26 75 26 74 26 75 26 81 26 88 26 94 26 116 
26 103 26 111 26 131 26 112 26 126 26 142 26 137 26 147 
26 155 26 176 26 164 26 183 26 164 26 136 26 84 26 40 
874 469 201 MP stroke
gr

c8
  36   36  874  469 FO
  36   36  900  509 FO
  36   36  926  593 FO
  36   36  952  729 FO
  36   36  978  893 FO
  36   36 1004 1076 FO
  36   36 1030 1240 FO
  36   36 1056 1416 FO
  36   36 1082 1571 FO
  36   36 1108 1718 FO
  36   36 1134 1855 FO
  36   36 1160 1997 FO
  36   36 1186 2123 FO
  36   36 1212 2235 FO
  36   36 1238 2366 FO
  36   36 1264 2477 FO
  36   36 1290 2580 FO
  36   36 1316 2696 FO
  36   36 1342 2790 FO
  36   36 1368 2878 FO
  36   36 1394 2959 FO
  36   36 1420 3034 FO
  36   36 1446 3108 FO
  36   36 1472 3183 FO
  36   36 1498 3257 FO
  36   36 1525 3325 FO
  36   36 1551 3381 FO
  36   36 1577 3436 FO
  36   36 1603 3496 FO
  36   36 1629 3552 FO
  36   36 1655 3593 FO
  36   36 1681 3637 FO
  36   36 1707 3682 FO
  36   36 1733 3724 FO
  36   36 1759 3761 FO
  36   36 1785 3803 FO
  36   36 1811 3833 FO
  36   36 1837 3867 FO
  36   36 1863 3899 FO
  36   36 1889 3925 FO
  36   36 1915 3965 FO
  36   36 1941 3989 FO
  36   36 1967 4017 FO
  36   36 1993 4037 FO
  36   36 2019 4067 FO
  36   36 2045 4088 FO
  36   36 2071 4110 FO
  36   36 2097 4129 FO
  36   36 2123 4145 FO
  36   36 2149 4165 FO
  36   36 2176 4183 FO
  36   36 2202 4196 FO
  36   36 2228 4214 FO
  36   36 2254 4231 FO
  36   36 2280 4240 FO
  36   36 2306 4252 FO
  36   36 2332 4267 FO
  36   36 2358 4279 FO
  36   36 2384 4290 FO
  36   36 2410 4300 FO
  36   36 2436 4316 FO
  36   36 2462 4322 FO
  36   36 2488 4332 FO
  36   36 2514 4336 FO
  36   36 2540 4343 FO
  36   36 2566 4351 FO
  36   36 2592 4359 FO
  36   36 2618 4367 FO
  36   36 2644 4374 FO
  36   36 2670 4379 FO
  36   36 2696 4385 FO
  36   36 2722 4390 FO
  36   36 2748 4397 FO
  36   36 2774 4400 FO
  36   36 2800 4403 FO
  36   36 2827 4407 FO
  36   36 2853 4408 FO
  36   36 2879 4413 FO
  36   36 2905 4417 FO
  36   36 2931 4423 FO
  36   36 2957 4426 FO
  36   36 2983 4430 FO
  36   36 3009 4432 FO
  36   36 3035 4433 FO
  36   36 3061 4436 FO
  36   36 3087 4438 FO
  36   36 3113 4442 FO
  36   36 3139 4444 FO
  36   36 3165 4446 FO
  36   36 3191 4449 FO
  36   36 3217 4453 FO
  36   36 3243 4453 FO
  36   36 3269 4454 FO
  36   36 3295 4456 FO
  36   36 3321 4457 FO
  36   36 3347 4459 FO
  36   36 3373 4459 FO
  36   36 3399 4461 FO
  36   36 3425 4463 FO
  36   36 3451 4465 FO
  36   36 3478 4466 FO
  36   36 3504 4467 FO
  36   36 3530 4468 FO
  36   36 3556 4470 FO
  36   36 3582 4471 FO
  36   36 3608 4471 FO
  36   36 3634 4472 FO
  36   36 3660 4473 FO
  36   36 3686 4473 FO
  36   36 3712 4474 FO
  36   36 3738 4474 FO
  36   36 3764 4474 FO
  36   36 3790 4475 FO
  36   36 3816 4476 FO
  36   36 3842 4477 FO
  36   36 3868 4477 FO
  36   36 3894 4478 FO
  36   36 3920 4478 FO
  36   36 3946 4478 FO
  36   36 3972 4478 FO
  36   36 3998 4479 FO
  36   36 4024 4480 FO
  36   36 4050 4480 FO
  36   36 4076 4481 FO
  36   36 4102 4481 FO
  36   36 4129 4481 FO
  36   36 4155 4482 FO
  36   36 4181 4482 FO
  36   36 4207 4482 FO
  36   36 4233 4482 FO
  36   36 4259 4482 FO
  36   36 4285 4483 FO
  36   36 4311 4483 FO
  36   36 4337 4483 FO
  36   36 4363 4483 FO
  36   36 4389 4483 FO
  36   36 4415 4483 FO
  36   36 4441 4483 FO
  36   36 4467 4483 FO
  36   36 4493 4483 FO
  36   36 4519 4483 FO
  36   36 4545 4483 FO
  36   36 4571 4483 FO
  36   36 4597 4483 FO
  36   36 4623 4483 FO
  36   36 4649 4484 FO
  36   36 4675 4484 FO
  36   36 4701 4484 FO
  36   36 4727 4483 FO
  36   36 4753 4484 FO
  36   36 4780 4484 FO
  36   36 4806 4484 FO
  36   36 4832 4484 FO
  36   36 4858 4484 FO
  36   36 4884 4484 FO
  36   36 4910 4485 FO
  36   36 4936 4485 FO
  36   36 4962 4485 FO
  36   36 4988 4485 FO
  36   36 5014 4484 FO
  36   36 5040 4485 FO
  36   36 5066 4485 FO
  36   36 5092 4485 FO
  36   36 5118 4485 FO
  36   36 5144 4485 FO
  36   36 5170 4485 FO
  36   36 5196 4485 FO
  36   36 5222 4485 FO
  36   36 5248 4485 FO
  36   36 5274 4485 FO
  36   36 5300 4485 FO
  36   36 5326 4485 FO
  36   36 5352 4485 FO
  36   36 5378 4485 FO
  36   36 5404 4485 FO
  36   36 5431 4485 FO
  36   36 5457 4485 FO
  36   36 5483 4485 FO
  36   36 5509 4485 FO
  36   36 5535 4485 FO
  36   36 5561 4485 FO
  36   36 5587 4485 FO
  36   36 5613 4485 FO
  36   36 5639 4485 FO
  36   36 5665 4485 FO
  36   36 5691 4485 FO
  36   36 5717 4485 FO
  36   36 5743 4485 FO
  36   36 5769 4485 FO
  36   36 5795 4485 FO
  36   36 5821 4485 FO
  36   36 5847 4485 FO
  36   36 5873 4485 FO
  36   36 5899 4485 FO
  36   36 5925 4485 FO
  36   36 5951 4485 FO
  36   36 5977 4485 FO
  36   36 6003 4485 FO
  36   36 6029 4485 FO
  36   36 6055 4485 FO
  36   36 6082 4485 FO
gs 874 469 5209 4018 rc
gr

0 sg
%%IncludeResource: font Helvetica
/Helvetica /ISOLatin1Encoding 168 FMSR

2373  156 mt 
(TetR-GFP in Early Anaphase) s
%%IncludeResource: font Helvetica
/Helvetica /ISOLatin1Encoding 144 FMSR

2456  293 mt 
(Daughter lobe / n) s
%%IncludeResource: font Helvetica
/Helvetica /ISOLatin1Encoding 108 FMSR

3560  377 mt 
(simulations) s
%%IncludeResource: font Helvetica
/Helvetica /ISOLatin1Encoding 144 FMSR

4099  293 mt 
( = 100) s
3239 4792 mt 
(time \(s\)) s
 552 2993 mt  -90 rotate
(% Fluorescence) s
90 rotate
%%IncludeResource: font Helvetica
/Helvetica /ISOLatin1Encoding 120 FMSR

 857 4529 mt 
( ) s
6066  511 mt 
( ) s
1 sg
0 426 1261 0 0 -426 4762 955 4 MP
PP
-1261 0 0 426 1261 0 0 -426 4762 955 5 MP stroke
4 w
DO
SO
6 w
0 sg
4762  955 mt 6023  955 L
4762  529 mt 6023  529 L
4762  955 mt 4762  529 L
6023  955 mt 6023  529 L
4762  955 mt 6023  955 L
4762  955 mt 4762  529 L
4762  955 mt 6023  955 L
4762  529 mt 6023  529 L
4762  955 mt 4762  529 L
6023  955 mt 6023  529 L
5172  668 mt 
(FLIP exp) s
gs 4762 529 1262 427 rc
315 0 4825 626 2 MP stroke
gs 4909 553 147 147 rc
4957  601 mt 5007  651 L
5007  601 mt 4957  651 L
gr

gr

5172  795 mt 
(k) s
%%IncludeResource: font Helvetica
/Helvetica /ISOLatin1Encoding 96 FMSR

5232  855 mt 
(deg) s
%%IncludeResource: font Helvetica
/Helvetica /ISOLatin1Encoding 120 FMSR

5392  795 mt 
( = 110 s) s
%%IncludeResource: font Helvetica
/Helvetica /ISOLatin1Encoding 96 FMSR

5822  735 mt 
(-1) s
gs 4762 529 1262 427 rc
c8
315 0 4825 820 2 MP stroke
gs 4909 747 147 147 rc
  36   36 4982  820 FO
gr

gr

c8

end %%Color Dict

eplot
%%EndObject

epage
end

showpage

%%Trailer
%%EOF
