%!PS-Adobe-3.0 EPSF-3.0
%%Creator: MATLAB, The MathWorks, Inc. Version 7.14.0.739 (R2012a). Operating System: Darwin 11.4.2 Darwin Kernel Version 11.4.2: Thu Aug 23 16:25:48 PDT 2012; root:xnu-1699.32.7~1/RELEASE_X86_64 x86_64.
%%Title: /Users/zavalaeder/Dropbox/Yeast/bleaching_rate/figures/brate_daughter_k150.eps
%%CreationDate: 11/27/2012  09:31:29
%%DocumentNeededFonts: Helvetica
%%DocumentProcessColors: Cyan Magenta Yellow Black
%%LanguageLevel: 2
%%Pages: 1
%%BoundingBox:    26   186   586   606
%%EndComments

%%BeginProlog
% MathWorks dictionary
/MathWorks 160 dict begin
% definition operators
/bdef {bind def} bind def
/ldef {load def} bind def
/xdef {exch def} bdef
/xstore {exch store} bdef
% operator abbreviations
/c  /clip ldef
/cc /concat ldef
/cp /closepath ldef
/gr /grestore ldef
/gs /gsave ldef
/mt /moveto ldef
/np /newpath ldef
/cm /currentmatrix ldef
/sm /setmatrix ldef
/rm /rmoveto ldef
/rl /rlineto ldef
/s {show newpath} bdef
/sc {setcmykcolor} bdef
/sr /setrgbcolor ldef
/sg /setgray ldef
/w /setlinewidth ldef
/j /setlinejoin ldef
/cap /setlinecap ldef
/rc {rectclip} bdef
/rf {rectfill} bdef
% page state control
/pgsv () def
/bpage {/pgsv save def} bdef
/epage {pgsv restore} bdef
/bplot /gsave ldef
/eplot {stroke grestore} bdef
% orientation switch
/portraitMode 0 def /landscapeMode 1 def /rotateMode 2 def
% coordinate system mappings
/dpi2point 0 def
% font control
/FontSize 0 def
/FMS {/FontSize xstore findfont [FontSize 0 0 FontSize neg 0 0]
  makefont setfont} bdef
/reencode {exch dup where {pop load} {pop StandardEncoding} ifelse
  exch dup 3 1 roll findfont dup length dict begin
  { 1 index /FID ne {def}{pop pop} ifelse } forall
  /Encoding exch def currentdict end definefont pop} bdef
/isroman {findfont /CharStrings get /Agrave known} bdef
/FMSR {3 1 roll 1 index dup isroman {reencode} {pop pop} ifelse
  exch FMS} bdef
/csm {1 dpi2point div -1 dpi2point div scale neg translate
 dup landscapeMode eq {pop -90 rotate}
  {rotateMode eq {90 rotate} if} ifelse} bdef
% line types: solid, dotted, dashed, dotdash
/SO { [] 0 setdash } bdef
/DO { [.5 dpi2point mul 4 dpi2point mul] 0 setdash } bdef
/DA { [6 dpi2point mul] 0 setdash } bdef
/DD { [.5 dpi2point mul 4 dpi2point mul 6 dpi2point mul 4
  dpi2point mul] 0 setdash } bdef
% macros for lines and objects
/L {lineto stroke} bdef
/MP {3 1 roll moveto 1 sub {rlineto} repeat} bdef
/AP {{rlineto} repeat} bdef
/PDlw -1 def
/W {/PDlw currentlinewidth def setlinewidth} def
/PP {closepath eofill} bdef
/DP {closepath stroke} bdef
/MR {4 -2 roll moveto dup  0 exch rlineto exch 0 rlineto
  neg 0 exch rlineto closepath} bdef
/FR {MR stroke} bdef
/PR {MR fill} bdef
/L1i {{currentfile picstr readhexstring pop} image} bdef
/tMatrix matrix def
/MakeOval {newpath tMatrix currentmatrix pop translate scale
0 0 1 0 360 arc tMatrix setmatrix} bdef
/FO {MakeOval stroke} bdef
/PO {MakeOval fill} bdef
/PD {currentlinewidth 2 div 0 360 arc fill
   PDlw -1 eq not {PDlw w /PDlw -1 def} if} def
/FA {newpath tMatrix currentmatrix pop translate scale
  0 0 1 5 -2 roll arc tMatrix setmatrix stroke} bdef
/PA {newpath tMatrix currentmatrix pop	translate 0 0 moveto scale
  0 0 1 5 -2 roll arc closepath tMatrix setmatrix fill} bdef
/FAn {newpath tMatrix currentmatrix pop translate scale
  0 0 1 5 -2 roll arcn tMatrix setmatrix stroke} bdef
/PAn {newpath tMatrix currentmatrix pop translate 0 0 moveto scale
  0 0 1 5 -2 roll arcn closepath tMatrix setmatrix fill} bdef
/vradius 0 def /hradius 0 def /lry 0 def
/lrx 0 def /uly 0 def /ulx 0 def /rad 0 def
/MRR {/vradius xdef /hradius xdef /lry xdef /lrx xdef /uly xdef
  /ulx xdef newpath tMatrix currentmatrix pop ulx hradius add uly
  vradius add translate hradius vradius scale 0 0 1 180 270 arc 
  tMatrix setmatrix lrx hradius sub uly vradius add translate
  hradius vradius scale 0 0 1 270 360 arc tMatrix setmatrix
  lrx hradius sub lry vradius sub translate hradius vradius scale
  0 0 1 0 90 arc tMatrix setmatrix ulx hradius add lry vradius sub
  translate hradius vradius scale 0 0 1 90 180 arc tMatrix setmatrix
  closepath} bdef
/FRR {MRR stroke } bdef
/PRR {MRR fill } bdef
/MlrRR {/lry xdef /lrx xdef /uly xdef /ulx xdef /rad lry uly sub 2 div def
  newpath tMatrix currentmatrix pop ulx rad add uly rad add translate
  rad rad scale 0 0 1 90 270 arc tMatrix setmatrix lrx rad sub lry rad
  sub translate rad rad scale 0 0 1 270 90 arc tMatrix setmatrix
  closepath} bdef
/FlrRR {MlrRR stroke } bdef
/PlrRR {MlrRR fill } bdef
/MtbRR {/lry xdef /lrx xdef /uly xdef /ulx xdef /rad lrx ulx sub 2 div def
  newpath tMatrix currentmatrix pop ulx rad add uly rad add translate
  rad rad scale 0 0 1 180 360 arc tMatrix setmatrix lrx rad sub lry rad
  sub translate rad rad scale 0 0 1 0 180 arc tMatrix setmatrix
  closepath} bdef
/FtbRR {MtbRR stroke } bdef
/PtbRR {MtbRR fill } bdef
/stri 6 array def /dtri 6 array def
/smat 6 array def /dmat 6 array def
/tmat1 6 array def /tmat2 6 array def /dif 3 array def
/asub {/ind2 exch def /ind1 exch def dup dup
  ind1 get exch ind2 get sub exch } bdef
/tri_to_matrix {
  2 0 asub 3 1 asub 4 0 asub 5 1 asub
  dup 0 get exch 1 get 7 -1 roll astore } bdef
/compute_transform {
  dmat dtri tri_to_matrix tmat1 invertmatrix 
  smat stri tri_to_matrix tmat2 concatmatrix } bdef
/ds {stri astore pop} bdef
/dt {dtri astore pop} bdef
/db {2 copy /cols xdef /rows xdef mul dup 3 mul string
  currentfile 
  3 index 0 eq {/ASCIIHexDecode filter}
  {/ASCII85Decode filter 3 index 2 eq {/RunLengthDecode filter} if }
  ifelse exch readstring pop
  dup 0 3 index getinterval /rbmap xdef
  dup 2 index dup getinterval /gbmap xdef
  1 index dup 2 mul exch getinterval /bbmap xdef pop pop}bdef
/it {gs np dtri aload pop moveto lineto lineto cp c
  cols rows 8 compute_transform 
  rbmap gbmap bbmap true 3 colorimage gr}bdef
/il {newpath moveto lineto stroke}bdef
currentdict end def
%%EndProlog

%%BeginSetup
MathWorks begin

0 cap

end
%%EndSetup

%%Page: 1 1
%%BeginPageSetup
%%PageBoundingBox:    26   186   586   606
MathWorks begin
bpage
%%EndPageSetup

%%BeginObject: obj1
bplot

/dpi2point 12 def
portraitMode 0312 7272 csm

    0     0  6720  5040 rc
85 dict begin %Colortable dictionary
/c0 { 0.000000 0.000000 0.000000 sr} bdef
/c1 { 1.000000 1.000000 1.000000 sr} bdef
/c2 { 0.900000 0.000000 0.000000 sr} bdef
/c3 { 0.000000 0.820000 0.000000 sr} bdef
/c4 { 0.000000 0.000000 0.800000 sr} bdef
/c5 { 0.910000 0.820000 0.320000 sr} bdef
/c6 { 1.000000 0.260000 0.820000 sr} bdef
/c7 { 0.000000 0.820000 0.820000 sr} bdef
c0
1 j
1 sg
   0    0 6721 5041 rf
6 w
0 4017 5208 0 0 -4017 874 4486 4 MP
PP
-5208 0 0 4017 5208 0 0 -4017 874 4486 5 MP stroke
4 w
DO
SO
6 w
0 sg
 874 4486 mt 6082 4486 L
 874  469 mt 6082  469 L
 874 4486 mt  874  469 L
6082 4486 mt 6082  469 L
 874 4486 mt 6082 4486 L
 874 4486 mt  874  469 L
 874 4486 mt  874 4433 L
 874  469 mt  874  521 L
%%IncludeResource: font Helvetica
/Helvetica /ISOLatin1Encoding 120 FMSR

 841 4631 mt 
(0) s
1394 4486 mt 1394 4433 L
1394  469 mt 1394  521 L
1328 4631 mt 
(10) s
1915 4486 mt 1915 4433 L
1915  469 mt 1915  521 L
1849 4631 mt 
(20) s
2436 4486 mt 2436 4433 L
2436  469 mt 2436  521 L
2370 4631 mt 
(30) s
2957 4486 mt 2957 4433 L
2957  469 mt 2957  521 L
2891 4631 mt 
(40) s
3478 4486 mt 3478 4433 L
3478  469 mt 3478  521 L
3412 4631 mt 
(50) s
3998 4486 mt 3998 4433 L
3998  469 mt 3998  521 L
3932 4631 mt 
(60) s
4519 4486 mt 4519 4433 L
4519  469 mt 4519  521 L
4453 4631 mt 
(70) s
5040 4486 mt 5040 4433 L
5040  469 mt 5040  521 L
4974 4631 mt 
(80) s
5561 4486 mt 5561 4433 L
5561  469 mt 5561  521 L
5495 4631 mt 
(90) s
6082 4486 mt 6082 4433 L
6082  469 mt 6082  521 L
5982 4631 mt 
(100) s
 874 4486 mt  926 4486 L
6082 4486 mt 6029 4486 L
 773 4530 mt 
(0) s
 874 4084 mt  926 4084 L
6082 4084 mt 6029 4084 L
 706 4128 mt 
(10) s
 874 3682 mt  926 3682 L
6082 3682 mt 6029 3682 L
 706 3726 mt 
(20) s
 874 3280 mt  926 3280 L
6082 3280 mt 6029 3280 L
 706 3324 mt 
(30) s
 874 2879 mt  926 2879 L
6082 2879 mt 6029 2879 L
 706 2923 mt 
(40) s
 874 2477 mt  926 2477 L
6082 2477 mt 6029 2477 L
 706 2521 mt 
(50) s
 874 2075 mt  926 2075 L
6082 2075 mt 6029 2075 L
 706 2119 mt 
(60) s
 874 1674 mt  926 1674 L
6082 1674 mt 6029 1674 L
 706 1718 mt 
(70) s
 874 1272 mt  926 1272 L
6082 1272 mt 6029 1272 L
 706 1316 mt 
(80) s
 874  870 mt  926  870 L
6082  870 mt 6029  870 L
 706  914 mt 
(90) s
 874  469 mt  926  469 L
6082  469 mt 6029  469 L
 639  513 mt 
(100) s
 874 4486 mt 6082 4486 L
 874  469 mt 6082  469 L
 874 4486 mt  874  469 L
6082 4486 mt 6082  469 L
gs 874 469 5209 4018 rc
874 469 PD
49 0 874 469 2 MP stroke
49 0 874 469 2 MP stroke
0 1433 1021 1155 2 MP stroke
99 0 971 1155 2 MP stroke
99 0 971 2588 2 MP stroke
0 670 1168 1835 2 MP stroke
99 0 1119 1835 2 MP stroke
99 0 1119 2505 2 MP stroke
0 1134 1315 2254 2 MP stroke
99 0 1266 2254 2 MP stroke
99 0 1266 3388 2 MP stroke
0 626 1460 2630 2 MP stroke
99 0 1411 2630 2 MP stroke
99 0 1411 3256 2 MP stroke
0 909 1606 2832 2 MP stroke
99 0 1556 2832 2 MP stroke
99 0 1556 3741 2 MP stroke
0 908 1753 3142 2 MP stroke
98 0 1704 3142 2 MP stroke
98 0 1704 4050 2 MP stroke
0 644 1898 3533 2 MP stroke
99 0 1849 3533 2 MP stroke
99 0 1849 4177 2 MP stroke
0 604 2043 3563 2 MP stroke
99 0 1994 3563 2 MP stroke
99 0 1994 4167 2 MP stroke
0 641 2191 3678 2 MP stroke
99 0 2141 3678 2 MP stroke
99 0 2141 4319 2 MP stroke
0 533 2335 3806 2 MP stroke
99 0 2286 3806 2 MP stroke
99 0 2286 4339 2 MP stroke
0 360 2481 4000 2 MP stroke
99 0 2432 4000 2 MP stroke
99 0 2432 4360 2 MP stroke
0 453 2629 3942 2 MP stroke
99 0 2579 3942 2 MP stroke
99 0 2579 4395 2 MP stroke
0 340 2776 4060 2 MP stroke
99 0 2727 4060 2 MP stroke
99 0 2727 4400 2 MP stroke
0 242 2923 4171 2 MP stroke
99 0 2874 4171 2 MP stroke
99 0 2874 4413 2 MP stroke
0 372 3070 4066 2 MP stroke
98 0 3021 4066 2 MP stroke
98 0 3021 4438 2 MP stroke
0 320 3216 4162 2 MP stroke
98 0 3167 4162 2 MP stroke
98 0 3167 4482 2 MP stroke
0 118 3360 4351 2 MP stroke
99 0 3310 4351 2 MP stroke
99 0 3310 4469 2 MP stroke
0 227 3507 4260 2 MP stroke
99 0 3457 4260 2 MP stroke
0 224 3654 4246 2 MP stroke
98 0 3605 4246 2 MP stroke
98 0 3605 4470 2 MP stroke
0 211 3801 4276 2 MP stroke
99 0 3752 4276 2 MP stroke
0 226 3947 4239 2 MP stroke
98 0 3898 4239 2 MP stroke
98 0 3898 4465 2 MP stroke
0 213 4094 4224 2 MP stroke
98 0 4045 4224 2 MP stroke
98 0 4045 4437 2 MP stroke
0 97 4240 4388 2 MP stroke
99 0 4190 4388 2 MP stroke
99 0 4190 4485 2 MP stroke
0 222 4386 4265 2 MP stroke
99 0 4337 4265 2 MP stroke
0 133 4532 4324 2 MP stroke
98 0 4483 4324 2 MP stroke
98 0 4483 4457 2 MP stroke
0 199 4679 4273 2 MP stroke
99 0 4629 4273 2 MP stroke
99 0 4629 4472 2 MP stroke
0 177 4829 4310 2 MP stroke
99 0 4780 4310 2 MP stroke
0 157 5025 4320 2 MP stroke
99 0 4975 4320 2 MP stroke
99 0 4975 4477 2 MP stroke
0 184 5284 4303 2 MP stroke
99 0 5235 4303 2 MP stroke
0 108 5809 4325 2 MP stroke
98 0 5760 4325 2 MP stroke
98 0 5760 4433 2 MP stroke
525 -23 259 4 196 -3 150 29 147 -18 146 -4 146 -42 146 105 
147 -21 146 -38 147 32 147 -36 147 -16 144 88 146 70 147 -40 
147 62 147 61 148 -11 146 108 144 74 148 133 145 10 145 259 
147 309 146 344 145 122 147 651 147 299 147 1402 874 469 31 MP stroke
gr

 849  444 mt  899  494 L
 899  444 mt  849  494 L
 996 1846 mt 1046 1896 L
1046 1846 mt  996 1896 L
1143 2145 mt 1193 2195 L
1193 2145 mt 1143 2195 L
1290 2796 mt 1340 2846 L
1340 2796 mt 1290 2846 L
1435 2918 mt 1485 2968 L
1485 2918 mt 1435 2968 L
1581 3262 mt 1631 3312 L
1631 3262 mt 1581 3312 L
1728 3571 mt 1778 3621 L
1778 3571 mt 1728 3621 L
1873 3830 mt 1923 3880 L
1923 3830 mt 1873 3880 L
2018 3840 mt 2068 3890 L
2068 3840 mt 2018 3890 L
2166 3973 mt 2216 4023 L
2216 3973 mt 2166 4023 L
2310 4047 mt 2360 4097 L
2360 4047 mt 2310 4097 L
2456 4155 mt 2506 4205 L
2506 4155 mt 2456 4205 L
2604 4144 mt 2654 4194 L
2654 4144 mt 2604 4194 L
2751 4205 mt 2801 4255 L
2801 4205 mt 2751 4255 L
2898 4267 mt 2948 4317 L
2948 4267 mt 2898 4317 L
3045 4227 mt 3095 4277 L
3095 4227 mt 3045 4277 L
3191 4297 mt 3241 4347 L
3241 4297 mt 3191 4347 L
3335 4385 mt 3385 4435 L
3385 4385 mt 3335 4435 L
3482 4369 mt 3532 4419 L
3532 4369 mt 3482 4419 L
3629 4333 mt 3679 4383 L
3679 4333 mt 3629 4383 L
3776 4365 mt 3826 4415 L
3826 4365 mt 3776 4415 L
3922 4327 mt 3972 4377 L
3972 4327 mt 3922 4377 L
4069 4306 mt 4119 4356 L
4119 4306 mt 4069 4356 L
4215 4411 mt 4265 4461 L
4265 4411 mt 4215 4461 L
4361 4369 mt 4411 4419 L
4411 4369 mt 4361 4419 L
4507 4365 mt 4557 4415 L
4557 4365 mt 4507 4415 L
4654 4347 mt 4704 4397 L
4704 4347 mt 4654 4397 L
4804 4376 mt 4854 4426 L
4854 4376 mt 4804 4426 L
5000 4373 mt 5050 4423 L
5050 4373 mt 5000 4423 L
5259 4377 mt 5309 4427 L
5309 4377 mt 5259 4427 L
5784 4354 mt 5834 4404 L
5834 4354 mt 5784 4404 L
gs 874 469 5209 4018 rc
/c8 { 0.000000 0.500000 0.000000 sr} bdef
c8
874 469 PD
52 0 874 469 2 MP stroke
52 0 874 469 2 MP stroke
0 293 978 765 2 MP stroke
104 0 926 765 2 MP stroke
104 0 926 1058 2 MP stroke
0 240 1082 1497 2 MP stroke
104 0 1030 1497 2 MP stroke
104 0 1030 1737 2 MP stroke
0 210 1186 2124 2 MP stroke
104 0 1134 2124 2 MP stroke
104 0 1134 2334 2 MP stroke
0 174 1290 2629 2 MP stroke
104 0 1238 2629 2 MP stroke
104 0 1238 2803 2 MP stroke
0 165 1394 3001 2 MP stroke
104 0 1342 3001 2 MP stroke
104 0 1342 3166 2 MP stroke
0 142 1498 3301 2 MP stroke
105 0 1446 3301 2 MP stroke
105 0 1446 3443 2 MP stroke
0 122 1603 3542 2 MP stroke
104 0 1551 3542 2 MP stroke
104 0 1551 3664 2 MP stroke
0 118 1707 3728 2 MP stroke
104 0 1655 3728 2 MP stroke
104 0 1655 3846 2 MP stroke
0 95 1811 3888 2 MP stroke
104 0 1759 3888 2 MP stroke
104 0 1759 3983 2 MP stroke
0 84 1915 4008 2 MP stroke
104 0 1863 4008 2 MP stroke
104 0 1863 4092 2 MP stroke
0 84 2019 4098 2 MP stroke
104 0 1967 4098 2 MP stroke
104 0 1967 4182 2 MP stroke
0 73 2123 4177 2 MP stroke
105 0 2071 4177 2 MP stroke
105 0 2071 4250 2 MP stroke
0 63 2228 4240 2 MP stroke
104 0 2176 4240 2 MP stroke
104 0 2176 4303 2 MP stroke
0 50 2332 4293 2 MP stroke
104 0 2280 4293 2 MP stroke
104 0 2280 4343 2 MP stroke
0 52 2436 4330 2 MP stroke
104 0 2384 4330 2 MP stroke
104 0 2384 4382 2 MP stroke
0 43 2540 4358 2 MP stroke
104 0 2488 4358 2 MP stroke
104 0 2488 4401 2 MP stroke
0 40 2644 4382 2 MP stroke
104 0 2592 4382 2 MP stroke
104 0 2592 4422 2 MP stroke
0 31 2748 4401 2 MP stroke
104 0 2696 4401 2 MP stroke
104 0 2696 4432 2 MP stroke
0 29 2853 4420 2 MP stroke
105 0 2800 4420 2 MP stroke
105 0 2800 4449 2 MP stroke
0 26 2957 4431 2 MP stroke
104 0 2905 4431 2 MP stroke
104 0 2905 4457 2 MP stroke
0 25 3061 4440 2 MP stroke
104 0 3009 4440 2 MP stroke
104 0 3009 4465 2 MP stroke
0 20 3165 4449 2 MP stroke
104 0 3113 4449 2 MP stroke
104 0 3113 4469 2 MP stroke
0 19 3269 4455 2 MP stroke
104 0 3217 4455 2 MP stroke
104 0 3217 4474 2 MP stroke
0 16 3373 4460 2 MP stroke
104 0 3321 4460 2 MP stroke
104 0 3321 4476 2 MP stroke
0 14 3478 4466 2 MP stroke
105 0 3425 4466 2 MP stroke
105 0 3425 4480 2 MP stroke
0 12 3582 4469 2 MP stroke
104 0 3530 4469 2 MP stroke
104 0 3530 4481 2 MP stroke
0 11 3686 4472 2 MP stroke
104 0 3634 4472 2 MP stroke
104 0 3634 4483 2 MP stroke
0 10 3790 4474 2 MP stroke
104 0 3738 4474 2 MP stroke
104 0 3738 4484 2 MP stroke
0 8 3894 4477 2 MP stroke
104 0 3842 4477 2 MP stroke
104 0 3842 4485 2 MP stroke
0 7 3998 4478 2 MP stroke
104 0 3946 4478 2 MP stroke
104 0 3946 4485 2 MP stroke
0 8 4102 4478 2 MP stroke
105 0 4050 4478 2 MP stroke
105 0 4050 4486 2 MP stroke
0 6 4207 4480 2 MP stroke
104 0 4155 4480 2 MP stroke
104 0 4155 4486 2 MP stroke
0 5 4311 4481 2 MP stroke
104 0 4259 4481 2 MP stroke
104 0 4259 4486 2 MP stroke
0 5 4415 4482 2 MP stroke
104 0 4363 4482 2 MP stroke
0 5 4519 4482 2 MP stroke
104 0 4467 4482 2 MP stroke
0 3 4623 4483 2 MP stroke
104 0 4571 4483 2 MP stroke
104 0 4571 4486 2 MP stroke
0 4 4727 4483 2 MP stroke
105 0 4675 4483 2 MP stroke
0 2 4832 4484 2 MP stroke
104 0 4780 4484 2 MP stroke
104 0 4780 4486 2 MP stroke
0 3 4936 4484 2 MP stroke
104 0 4884 4484 2 MP stroke
0 2 5040 4484 2 MP stroke
104 0 4988 4484 2 MP stroke
104 0 4988 4486 2 MP stroke
0 2 5144 4484 2 MP stroke
104 0 5092 4484 2 MP stroke
104 0 5092 4486 2 MP stroke
0 1 5248 4485 2 MP stroke
104 0 5196 4485 2 MP stroke
104 0 5196 4486 2 MP stroke
0 2 5352 4484 2 MP stroke
104 0 5300 4484 2 MP stroke
104 0 5300 4486 2 MP stroke
0 2 5457 4484 2 MP stroke
105 0 5404 4484 2 MP stroke
105 0 5404 4486 2 MP stroke
0 1 5561 4485 2 MP stroke
104 0 5509 4485 2 MP stroke
104 0 5509 4486 2 MP stroke
0 1 5665 4485 2 MP stroke
104 0 5613 4485 2 MP stroke
104 0 5613 4486 2 MP stroke
0 1 5769 4485 2 MP stroke
104 0 5717 4485 2 MP stroke
104 0 5717 4486 2 MP stroke
5873 4486 PD
104 0 5821 4486 2 MP stroke
104 0 5821 4486 2 MP stroke
0 1 5977 4485 2 MP stroke
104 0 5925 4485 2 MP stroke
104 0 5925 4486 2 MP stroke
6082 4486 PD
54 0 6029 4486 2 MP stroke
54 0 6029 4486 2 MP stroke
105 1 104 -1 104 1 104 0 104 0 104 0 105 0 104 0 
104 0 104 0 104 0 104 0 105 0 104 0 104 1 104 0 
104 0 104 1 105 1 104 0 104 1 104 2 104 2 104 2 
104 2 105 5 104 3 104 6 104 6 104 9 104 10 105 18 
104 14 104 23 104 23 104 38 104 46 105 59 104 73 104 90 
104 115 104 148 104 184 105 231 104 288 104 368 104 487 104 612 
104 706 104 442 874 469 51 MP stroke
gr

c8
  36   36  874  469 FO
  36   36  978  911 FO
  36   36 1082 1617 FO
  36   36 1186 2229 FO
  36   36 1290 2716 FO
  36   36 1394 3084 FO
  36   36 1498 3372 FO
  36   36 1603 3603 FO
  36   36 1707 3787 FO
  36   36 1811 3935 FO
  36   36 1915 4050 FO
  36   36 2019 4140 FO
  36   36 2123 4213 FO
  36   36 2228 4272 FO
  36   36 2332 4318 FO
  36   36 2436 4356 FO
  36   36 2540 4379 FO
  36   36 2644 4402 FO
  36   36 2748 4416 FO
  36   36 2853 4434 FO
  36   36 2957 4444 FO
  36   36 3061 4453 FO
  36   36 3165 4459 FO
  36   36 3269 4465 FO
  36   36 3373 4468 FO
  36   36 3478 4473 FO
  36   36 3582 4475 FO
  36   36 3686 4477 FO
  36   36 3790 4479 FO
  36   36 3894 4481 FO
  36   36 3998 4482 FO
  36   36 4102 4482 FO
  36   36 4207 4483 FO
  36   36 4311 4484 FO
  36   36 4415 4484 FO
  36   36 4519 4484 FO
  36   36 4623 4485 FO
  36   36 4727 4485 FO
  36   36 4832 4485 FO
  36   36 4936 4485 FO
  36   36 5040 4485 FO
  36   36 5144 4485 FO
  36   36 5248 4485 FO
  36   36 5352 4485 FO
  36   36 5457 4485 FO
  36   36 5561 4485 FO
  36   36 5665 4485 FO
  36   36 5769 4485 FO
  36   36 5873 4486 FO
  36   36 5977 4485 FO
  36   36 6082 4486 FO
gs 874 469 5209 4018 rc
gr

0 sg
%%IncludeResource: font Helvetica
/Helvetica /ISOLatin1Encoding 168 FMSR

2373  156 mt 
(TetR-GFP in Early Anaphase) s
%%IncludeResource: font Helvetica
/Helvetica /ISOLatin1Encoding 144 FMSR

2456  293 mt 
(Daughter lobe / n) s
%%IncludeResource: font Helvetica
/Helvetica /ISOLatin1Encoding 108 FMSR

3560  377 mt 
(simulations) s
%%IncludeResource: font Helvetica
/Helvetica /ISOLatin1Encoding 144 FMSR

4099  293 mt 
( = 100) s
3239 4792 mt 
(time \(s\)) s
 552 2993 mt  -90 rotate
(% Fluorescence) s
90 rotate
%%IncludeResource: font Helvetica
/Helvetica /ISOLatin1Encoding 120 FMSR

 857 4529 mt 
( ) s
6066  511 mt 
( ) s
1 sg
0 426 1261 0 0 -426 4762 955 4 MP
PP
-1261 0 0 426 1261 0 0 -426 4762 955 5 MP stroke
4 w
DO
SO
6 w
0 sg
4762  955 mt 6023  955 L
4762  529 mt 6023  529 L
4762  955 mt 4762  529 L
6023  955 mt 6023  529 L
4762  955 mt 6023  955 L
4762  955 mt 4762  529 L
4762  955 mt 6023  955 L
4762  529 mt 6023  529 L
4762  955 mt 4762  529 L
6023  955 mt 6023  529 L
5172  668 mt 
(FLIP exp) s
gs 4762 529 1262 427 rc
315 0 4825 626 2 MP stroke
gs 4909 553 147 147 rc
4957  601 mt 5007  651 L
5007  601 mt 4957  651 L
gr

gr

5172  795 mt 
(k) s
%%IncludeResource: font Helvetica
/Helvetica /ISOLatin1Encoding 96 FMSR

5232  855 mt 
(deg) s
%%IncludeResource: font Helvetica
/Helvetica /ISOLatin1Encoding 120 FMSR

5392  795 mt 
( = 150 s) s
%%IncludeResource: font Helvetica
/Helvetica /ISOLatin1Encoding 96 FMSR

5822  735 mt 
(-1) s
gs 4762 529 1262 427 rc
c8
315 0 4825 820 2 MP stroke
gs 4909 747 147 147 rc
  36   36 4982  820 FO
gr

gr

c8

end %%Color Dict

eplot
%%EndObject

epage
end

showpage

%%Trailer
%%EOF
