%!PS-Adobe-3.0 EPSF-3.0
%%Creator: MATLAB, The MathWorks, Inc. Version 7.14.0.739 (R2012a). Operating System: Darwin 11.4.2 Darwin Kernel Version 11.4.2: Thu Aug 23 16:25:48 PDT 2012; root:xnu-1699.32.7~1/RELEASE_X86_64 x86_64.
%%Title: /Users/zavalaeder/Dropbox/Yeast/bleaching_rate/figures/brate_mother_JCB.eps
%%CreationDate: 11/26/2012  16:43:23
%%DocumentNeededFonts: Helvetica
%%DocumentProcessColors: Cyan Magenta Yellow Black
%%LanguageLevel: 2
%%Pages: 1
%%BoundingBox:    26   186   586   606
%%EndComments

%%BeginProlog
% MathWorks dictionary
/MathWorks 160 dict begin
% definition operators
/bdef {bind def} bind def
/ldef {load def} bind def
/xdef {exch def} bdef
/xstore {exch store} bdef
% operator abbreviations
/c  /clip ldef
/cc /concat ldef
/cp /closepath ldef
/gr /grestore ldef
/gs /gsave ldef
/mt /moveto ldef
/np /newpath ldef
/cm /currentmatrix ldef
/sm /setmatrix ldef
/rm /rmoveto ldef
/rl /rlineto ldef
/s {show newpath} bdef
/sc {setcmykcolor} bdef
/sr /setrgbcolor ldef
/sg /setgray ldef
/w /setlinewidth ldef
/j /setlinejoin ldef
/cap /setlinecap ldef
/rc {rectclip} bdef
/rf {rectfill} bdef
% page state control
/pgsv () def
/bpage {/pgsv save def} bdef
/epage {pgsv restore} bdef
/bplot /gsave ldef
/eplot {stroke grestore} bdef
% orientation switch
/portraitMode 0 def /landscapeMode 1 def /rotateMode 2 def
% coordinate system mappings
/dpi2point 0 def
% font control
/FontSize 0 def
/FMS {/FontSize xstore findfont [FontSize 0 0 FontSize neg 0 0]
  makefont setfont} bdef
/reencode {exch dup where {pop load} {pop StandardEncoding} ifelse
  exch dup 3 1 roll findfont dup length dict begin
  { 1 index /FID ne {def}{pop pop} ifelse } forall
  /Encoding exch def currentdict end definefont pop} bdef
/isroman {findfont /CharStrings get /Agrave known} bdef
/FMSR {3 1 roll 1 index dup isroman {reencode} {pop pop} ifelse
  exch FMS} bdef
/csm {1 dpi2point div -1 dpi2point div scale neg translate
 dup landscapeMode eq {pop -90 rotate}
  {rotateMode eq {90 rotate} if} ifelse} bdef
% line types: solid, dotted, dashed, dotdash
/SO { [] 0 setdash } bdef
/DO { [.5 dpi2point mul 4 dpi2point mul] 0 setdash } bdef
/DA { [6 dpi2point mul] 0 setdash } bdef
/DD { [.5 dpi2point mul 4 dpi2point mul 6 dpi2point mul 4
  dpi2point mul] 0 setdash } bdef
% macros for lines and objects
/L {lineto stroke} bdef
/MP {3 1 roll moveto 1 sub {rlineto} repeat} bdef
/AP {{rlineto} repeat} bdef
/PDlw -1 def
/W {/PDlw currentlinewidth def setlinewidth} def
/PP {closepath eofill} bdef
/DP {closepath stroke} bdef
/MR {4 -2 roll moveto dup  0 exch rlineto exch 0 rlineto
  neg 0 exch rlineto closepath} bdef
/FR {MR stroke} bdef
/PR {MR fill} bdef
/L1i {{currentfile picstr readhexstring pop} image} bdef
/tMatrix matrix def
/MakeOval {newpath tMatrix currentmatrix pop translate scale
0 0 1 0 360 arc tMatrix setmatrix} bdef
/FO {MakeOval stroke} bdef
/PO {MakeOval fill} bdef
/PD {currentlinewidth 2 div 0 360 arc fill
   PDlw -1 eq not {PDlw w /PDlw -1 def} if} def
/FA {newpath tMatrix currentmatrix pop translate scale
  0 0 1 5 -2 roll arc tMatrix setmatrix stroke} bdef
/PA {newpath tMatrix currentmatrix pop	translate 0 0 moveto scale
  0 0 1 5 -2 roll arc closepath tMatrix setmatrix fill} bdef
/FAn {newpath tMatrix currentmatrix pop translate scale
  0 0 1 5 -2 roll arcn tMatrix setmatrix stroke} bdef
/PAn {newpath tMatrix currentmatrix pop translate 0 0 moveto scale
  0 0 1 5 -2 roll arcn closepath tMatrix setmatrix fill} bdef
/vradius 0 def /hradius 0 def /lry 0 def
/lrx 0 def /uly 0 def /ulx 0 def /rad 0 def
/MRR {/vradius xdef /hradius xdef /lry xdef /lrx xdef /uly xdef
  /ulx xdef newpath tMatrix currentmatrix pop ulx hradius add uly
  vradius add translate hradius vradius scale 0 0 1 180 270 arc 
  tMatrix setmatrix lrx hradius sub uly vradius add translate
  hradius vradius scale 0 0 1 270 360 arc tMatrix setmatrix
  lrx hradius sub lry vradius sub translate hradius vradius scale
  0 0 1 0 90 arc tMatrix setmatrix ulx hradius add lry vradius sub
  translate hradius vradius scale 0 0 1 90 180 arc tMatrix setmatrix
  closepath} bdef
/FRR {MRR stroke } bdef
/PRR {MRR fill } bdef
/MlrRR {/lry xdef /lrx xdef /uly xdef /ulx xdef /rad lry uly sub 2 div def
  newpath tMatrix currentmatrix pop ulx rad add uly rad add translate
  rad rad scale 0 0 1 90 270 arc tMatrix setmatrix lrx rad sub lry rad
  sub translate rad rad scale 0 0 1 270 90 arc tMatrix setmatrix
  closepath} bdef
/FlrRR {MlrRR stroke } bdef
/PlrRR {MlrRR fill } bdef
/MtbRR {/lry xdef /lrx xdef /uly xdef /ulx xdef /rad lrx ulx sub 2 div def
  newpath tMatrix currentmatrix pop ulx rad add uly rad add translate
  rad rad scale 0 0 1 180 360 arc tMatrix setmatrix lrx rad sub lry rad
  sub translate rad rad scale 0 0 1 0 180 arc tMatrix setmatrix
  closepath} bdef
/FtbRR {MtbRR stroke } bdef
/PtbRR {MtbRR fill } bdef
/stri 6 array def /dtri 6 array def
/smat 6 array def /dmat 6 array def
/tmat1 6 array def /tmat2 6 array def /dif 3 array def
/asub {/ind2 exch def /ind1 exch def dup dup
  ind1 get exch ind2 get sub exch } bdef
/tri_to_matrix {
  2 0 asub 3 1 asub 4 0 asub 5 1 asub
  dup 0 get exch 1 get 7 -1 roll astore } bdef
/compute_transform {
  dmat dtri tri_to_matrix tmat1 invertmatrix 
  smat stri tri_to_matrix tmat2 concatmatrix } bdef
/ds {stri astore pop} bdef
/dt {dtri astore pop} bdef
/db {2 copy /cols xdef /rows xdef mul dup 3 mul string
  currentfile 
  3 index 0 eq {/ASCIIHexDecode filter}
  {/ASCII85Decode filter 3 index 2 eq {/RunLengthDecode filter} if }
  ifelse exch readstring pop
  dup 0 3 index getinterval /rbmap xdef
  dup 2 index dup getinterval /gbmap xdef
  1 index dup 2 mul exch getinterval /bbmap xdef pop pop}bdef
/it {gs np dtri aload pop moveto lineto lineto cp c
  cols rows 8 compute_transform 
  rbmap gbmap bbmap true 3 colorimage gr}bdef
/il {newpath moveto lineto stroke}bdef
currentdict end def
%%EndProlog

%%BeginSetup
MathWorks begin

0 cap

end
%%EndSetup

%%Page: 1 1
%%BeginPageSetup
%%PageBoundingBox:    26   186   586   606
MathWorks begin
bpage
%%EndPageSetup

%%BeginObject: obj1
bplot

/dpi2point 12 def
portraitMode 0312 7272 csm

    0     0  6720  5040 rc
85 dict begin %Colortable dictionary
/c0 { 0.000000 0.000000 0.000000 sr} bdef
/c1 { 1.000000 1.000000 1.000000 sr} bdef
/c2 { 0.900000 0.000000 0.000000 sr} bdef
/c3 { 0.000000 0.820000 0.000000 sr} bdef
/c4 { 0.000000 0.000000 0.800000 sr} bdef
/c5 { 0.910000 0.820000 0.320000 sr} bdef
/c6 { 1.000000 0.260000 0.820000 sr} bdef
/c7 { 0.000000 0.820000 0.820000 sr} bdef
c0
1 j
1 sg
   0    0 6721 5041 rf
6 w
0 4017 5208 0 0 -4017 874 4486 4 MP
PP
-5208 0 0 4017 5208 0 0 -4017 874 4486 5 MP stroke
4 w
DO
SO
6 w
0 sg
 874 4486 mt 6082 4486 L
 874  469 mt 6082  469 L
 874 4486 mt  874  469 L
6082 4486 mt 6082  469 L
 874 4486 mt 6082 4486 L
 874 4486 mt  874  469 L
 874 4486 mt  874 4433 L
 874  469 mt  874  521 L
%%IncludeResource: font Helvetica
/Helvetica /ISOLatin1Encoding 120 FMSR

 841 4631 mt 
(0) s
1394 4486 mt 1394 4433 L
1394  469 mt 1394  521 L
1328 4631 mt 
(10) s
1915 4486 mt 1915 4433 L
1915  469 mt 1915  521 L
1849 4631 mt 
(20) s
2436 4486 mt 2436 4433 L
2436  469 mt 2436  521 L
2370 4631 mt 
(30) s
2957 4486 mt 2957 4433 L
2957  469 mt 2957  521 L
2891 4631 mt 
(40) s
3478 4486 mt 3478 4433 L
3478  469 mt 3478  521 L
3412 4631 mt 
(50) s
3998 4486 mt 3998 4433 L
3998  469 mt 3998  521 L
3932 4631 mt 
(60) s
4519 4486 mt 4519 4433 L
4519  469 mt 4519  521 L
4453 4631 mt 
(70) s
5040 4486 mt 5040 4433 L
5040  469 mt 5040  521 L
4974 4631 mt 
(80) s
5561 4486 mt 5561 4433 L
5561  469 mt 5561  521 L
5495 4631 mt 
(90) s
6082 4486 mt 6082 4433 L
6082  469 mt 6082  521 L
5982 4631 mt 
(100) s
 874 4486 mt  926 4486 L
6082 4486 mt 6029 4486 L
 773 4530 mt 
(0) s
 874 4084 mt  926 4084 L
6082 4084 mt 6029 4084 L
 706 4128 mt 
(10) s
 874 3682 mt  926 3682 L
6082 3682 mt 6029 3682 L
 706 3726 mt 
(20) s
 874 3280 mt  926 3280 L
6082 3280 mt 6029 3280 L
 706 3324 mt 
(30) s
 874 2879 mt  926 2879 L
6082 2879 mt 6029 2879 L
 706 2923 mt 
(40) s
 874 2477 mt  926 2477 L
6082 2477 mt 6029 2477 L
 706 2521 mt 
(50) s
 874 2075 mt  926 2075 L
6082 2075 mt 6029 2075 L
 706 2119 mt 
(60) s
 874 1674 mt  926 1674 L
6082 1674 mt 6029 1674 L
 706 1718 mt 
(70) s
 874 1272 mt  926 1272 L
6082 1272 mt 6029 1272 L
 706 1316 mt 
(80) s
 874  870 mt  926  870 L
6082  870 mt 6029  870 L
 706  914 mt 
(90) s
 874  469 mt  926  469 L
6082  469 mt 6029  469 L
 639  513 mt 
(100) s
 874 4486 mt 6082 4486 L
 874  469 mt 6082  469 L
 874 4486 mt  874  469 L
6082 4486 mt 6082  469 L
gs 874 469 5209 4018 rc
874 469 PD
49 0 874 469 2 MP stroke
0 1533 1021 1739 2 MP stroke
99 0 971 1739 2 MP stroke
99 0 971 3272 2 MP stroke
0 1453 1168 2473 2 MP stroke
99 0 1119 2473 2 MP stroke
99 0 1119 3926 2 MP stroke
0 1203 1315 2978 2 MP stroke
99 0 1266 2978 2 MP stroke
99 0 1266 4181 2 MP stroke
0 773 1460 3461 2 MP stroke
99 0 1411 3461 2 MP stroke
99 0 1411 4234 2 MP stroke
0 742 1606 3579 2 MP stroke
99 0 1556 3579 2 MP stroke
99 0 1556 4321 2 MP stroke
0 692 1753 3693 2 MP stroke
98 0 1704 3693 2 MP stroke
98 0 1704 4385 2 MP stroke
0 662 1898 3721 2 MP stroke
99 0 1849 3721 2 MP stroke
99 0 1849 4383 2 MP stroke
0 444 2043 3968 2 MP stroke
99 0 1994 3968 2 MP stroke
99 0 1994 4412 2 MP stroke
0 389 2191 4036 2 MP stroke
99 0 2141 4036 2 MP stroke
99 0 2141 4425 2 MP stroke
0 280 2335 4185 2 MP stroke
99 0 2286 4185 2 MP stroke
99 0 2286 4465 2 MP stroke
0 344 2481 4114 2 MP stroke
99 0 2432 4114 2 MP stroke
99 0 2432 4458 2 MP stroke
0 150 2629 4299 2 MP stroke
99 0 2579 4299 2 MP stroke
99 0 2579 4449 2 MP stroke
0 186 2776 4279 2 MP stroke
99 0 2727 4279 2 MP stroke
99 0 2727 4465 2 MP stroke
0 319 2923 4168 2 MP stroke
99 0 2874 4168 2 MP stroke
0 120 3070 4349 2 MP stroke
98 0 3021 4349 2 MP stroke
98 0 3021 4469 2 MP stroke
0 162 3216 4295 2 MP stroke
98 0 3167 4295 2 MP stroke
98 0 3167 4457 2 MP stroke
0 149 3360 4327 2 MP stroke
99 0 3310 4327 2 MP stroke
99 0 3310 4476 2 MP stroke
0 143 3507 4344 2 MP stroke
99 0 3457 4344 2 MP stroke
0 135 3654 4352 2 MP stroke
98 0 3605 4352 2 MP stroke
0 282 3801 4205 2 MP stroke
99 0 3752 4205 2 MP stroke
0 139 3947 4325 2 MP stroke
98 0 3898 4325 2 MP stroke
98 0 3898 4464 2 MP stroke
0 69 4094 4414 2 MP stroke
98 0 4045 4414 2 MP stroke
98 0 4045 4483 2 MP stroke
0 78 4240 4409 2 MP stroke
99 0 4190 4409 2 MP stroke
0 90 4386 4397 2 MP stroke
99 0 4337 4397 2 MP stroke
0 118 4532 4369 2 MP stroke
98 0 4483 4369 2 MP stroke
0 86 4679 4401 2 MP stroke
99 0 4629 4401 2 MP stroke
0 100 4829 4385 2 MP stroke
99 0 4780 4385 2 MP stroke
99 0 4780 4485 2 MP stroke
0 73 5025 4408 2 MP stroke
99 0 4975 4408 2 MP stroke
99 0 4975 4481 2 MP stroke
0 106 5284 4381 2 MP stroke
99 0 5235 4381 2 MP stroke
0 69 5809 4418 2 MP stroke
98 0 5760 4418 2 MP stroke
525 19 259 -3 196 9 150 -13 147 17 146 -11 146 -8 146 1 
147 54 146 41 147 -68 147 -3 147 23 144 26 146 -33 147 74 
147 -37 147 -2 148 88 146 -39 144 95 148 40 145 138 145 13 
147 89 146 102 145 268 147 381 147 693 147 2037 874 469 31 MP stroke
gr

 849  444 mt  899  494 L
 899  444 mt  849  494 L
 996 2481 mt 1046 2531 L
1046 2481 mt  996 2531 L
1143 3174 mt 1193 3224 L
1193 3174 mt 1143 3224 L
1290 3555 mt 1340 3605 L
1340 3555 mt 1290 3605 L
1435 3823 mt 1485 3873 L
1485 3823 mt 1435 3873 L
1581 3925 mt 1631 3975 L
1631 3925 mt 1581 3975 L
1728 4014 mt 1778 4064 L
1778 4014 mt 1728 4064 L
1873 4027 mt 1923 4077 L
1923 4027 mt 1873 4077 L
2018 4165 mt 2068 4215 L
2068 4165 mt 2018 4215 L
2166 4205 mt 2216 4255 L
2216 4205 mt 2166 4255 L
2310 4300 mt 2360 4350 L
2360 4300 mt 2310 4350 L
2456 4261 mt 2506 4311 L
2506 4261 mt 2456 4311 L
2604 4349 mt 2654 4399 L
2654 4349 mt 2604 4399 L
2751 4347 mt 2801 4397 L
2801 4347 mt 2751 4397 L
2898 4310 mt 2948 4360 L
2948 4310 mt 2898 4360 L
3045 4384 mt 3095 4434 L
3095 4384 mt 3045 4434 L
3191 4351 mt 3241 4401 L
3241 4351 mt 3191 4401 L
3335 4377 mt 3385 4427 L
3385 4377 mt 3335 4427 L
3482 4400 mt 3532 4450 L
3532 4400 mt 3482 4450 L
3629 4397 mt 3679 4447 L
3679 4397 mt 3629 4447 L
3776 4329 mt 3826 4379 L
3826 4329 mt 3776 4379 L
3922 4370 mt 3972 4420 L
3972 4370 mt 3922 4420 L
4069 4424 mt 4119 4474 L
4119 4424 mt 4069 4474 L
4215 4425 mt 4265 4475 L
4265 4425 mt 4215 4475 L
4361 4417 mt 4411 4467 L
4411 4417 mt 4361 4467 L
4507 4406 mt 4557 4456 L
4557 4406 mt 4507 4456 L
4654 4423 mt 4704 4473 L
4704 4423 mt 4654 4473 L
4804 4410 mt 4854 4460 L
4854 4410 mt 4804 4460 L
5000 4419 mt 5050 4469 L
5050 4419 mt 5000 4469 L
5259 4416 mt 5309 4466 L
5309 4416 mt 5259 4466 L
5784 4435 mt 5834 4485 L
5834 4435 mt 5784 4485 L
gs 874 469 5209 4018 rc
/c8 { 1.000000 0.000000 0.000000 sr} bdef
c8
874 469 PD
52 0 874 469 2 MP stroke
52 0 874 469 2 MP stroke
0 62 900 700 2 MP stroke
78 0 874 700 2 MP stroke
78 0 874 762 2 MP stroke
0 78 926 926 2 MP stroke
104 0 874 926 2 MP stroke
104 0 874 1004 2 MP stroke
0 81 952 1128 2 MP stroke
104 0 900 1128 2 MP stroke
104 0 900 1209 2 MP stroke
0 83 978 1317 2 MP stroke
104 0 926 1317 2 MP stroke
104 0 926 1400 2 MP stroke
0 75 1004 1489 2 MP stroke
104 0 952 1489 2 MP stroke
104 0 952 1564 2 MP stroke
0 83 1030 1646 2 MP stroke
104 0 978 1646 2 MP stroke
104 0 978 1729 2 MP stroke
0 79 1056 1795 2 MP stroke
104 0 1004 1795 2 MP stroke
104 0 1004 1874 2 MP stroke
0 73 1082 1938 2 MP stroke
104 0 1030 1938 2 MP stroke
104 0 1030 2011 2 MP stroke
0 79 1108 2069 2 MP stroke
104 0 1056 2069 2 MP stroke
104 0 1056 2148 2 MP stroke
0 85 1134 2193 2 MP stroke
104 0 1082 2193 2 MP stroke
104 0 1082 2278 2 MP stroke
0 80 1160 2315 2 MP stroke
104 0 1108 2315 2 MP stroke
104 0 1108 2395 2 MP stroke
0 76 1186 2432 2 MP stroke
104 0 1134 2432 2 MP stroke
104 0 1134 2508 2 MP stroke
0 77 1212 2541 2 MP stroke
104 0 1160 2541 2 MP stroke
104 0 1160 2618 2 MP stroke
0 76 1238 2640 2 MP stroke
104 0 1186 2640 2 MP stroke
104 0 1186 2716 2 MP stroke
0 73 1264 2737 2 MP stroke
104 0 1212 2737 2 MP stroke
104 0 1212 2810 2 MP stroke
0 65 1290 2832 2 MP stroke
104 0 1238 2832 2 MP stroke
104 0 1238 2897 2 MP stroke
0 69 1316 2912 2 MP stroke
104 0 1264 2912 2 MP stroke
104 0 1264 2981 2 MP stroke
0 73 1342 2991 2 MP stroke
104 0 1290 2991 2 MP stroke
104 0 1290 3064 2 MP stroke
0 64 1368 3073 2 MP stroke
104 0 1316 3073 2 MP stroke
104 0 1316 3137 2 MP stroke
0 67 1394 3145 2 MP stroke
104 0 1342 3145 2 MP stroke
104 0 1342 3212 2 MP stroke
0 65 1420 3216 2 MP stroke
104 0 1368 3216 2 MP stroke
104 0 1368 3281 2 MP stroke
0 65 1446 3283 2 MP stroke
104 0 1394 3283 2 MP stroke
104 0 1394 3348 2 MP stroke
0 62 1472 3347 2 MP stroke
105 0 1420 3347 2 MP stroke
105 0 1420 3409 2 MP stroke
0 64 1498 3403 2 MP stroke
105 0 1446 3403 2 MP stroke
105 0 1446 3467 2 MP stroke
0 63 1525 3458 2 MP stroke
105 0 1472 3458 2 MP stroke
105 0 1472 3521 2 MP stroke
0 63 1551 3513 2 MP stroke
105 0 1498 3513 2 MP stroke
105 0 1498 3576 2 MP stroke
0 58 1577 3566 2 MP stroke
104 0 1525 3566 2 MP stroke
104 0 1525 3624 2 MP stroke
0 57 1603 3611 2 MP stroke
104 0 1551 3611 2 MP stroke
104 0 1551 3668 2 MP stroke
0 57 1629 3654 2 MP stroke
104 0 1577 3654 2 MP stroke
104 0 1577 3711 2 MP stroke
0 59 1655 3697 2 MP stroke
104 0 1603 3697 2 MP stroke
104 0 1603 3756 2 MP stroke
0 54 1681 3740 2 MP stroke
104 0 1629 3740 2 MP stroke
104 0 1629 3794 2 MP stroke
0 53 1707 3779 2 MP stroke
104 0 1655 3779 2 MP stroke
104 0 1655 3832 2 MP stroke
0 57 1733 3812 2 MP stroke
104 0 1681 3812 2 MP stroke
104 0 1681 3869 2 MP stroke
0 53 1759 3849 2 MP stroke
104 0 1707 3849 2 MP stroke
104 0 1707 3902 2 MP stroke
0 50 1785 3881 2 MP stroke
104 0 1733 3881 2 MP stroke
104 0 1733 3931 2 MP stroke
0 46 1811 3914 2 MP stroke
104 0 1759 3914 2 MP stroke
104 0 1759 3960 2 MP stroke
0 48 1837 3941 2 MP stroke
104 0 1785 3941 2 MP stroke
104 0 1785 3989 2 MP stroke
0 46 1863 3970 2 MP stroke
104 0 1811 3970 2 MP stroke
104 0 1811 4016 2 MP stroke
0 46 1889 3997 2 MP stroke
104 0 1837 3997 2 MP stroke
104 0 1837 4043 2 MP stroke
0 43 1915 4020 2 MP stroke
104 0 1863 4020 2 MP stroke
104 0 1863 4063 2 MP stroke
0 40 1941 4046 2 MP stroke
104 0 1889 4046 2 MP stroke
104 0 1889 4086 2 MP stroke
0 40 1967 4069 2 MP stroke
104 0 1915 4069 2 MP stroke
104 0 1915 4109 2 MP stroke
0 36 1993 4093 2 MP stroke
104 0 1941 4093 2 MP stroke
104 0 1941 4129 2 MP stroke
0 35 2019 4113 2 MP stroke
104 0 1967 4113 2 MP stroke
104 0 1967 4148 2 MP stroke
0 33 2045 4132 2 MP stroke
104 0 1993 4132 2 MP stroke
104 0 1993 4165 2 MP stroke
0 34 2071 4149 2 MP stroke
104 0 2019 4149 2 MP stroke
104 0 2019 4183 2 MP stroke
0 34 2097 4165 2 MP stroke
104 0 2045 4165 2 MP stroke
104 0 2045 4199 2 MP stroke
0 34 2123 4182 2 MP stroke
105 0 2071 4182 2 MP stroke
105 0 2071 4216 2 MP stroke
0 33 2149 4197 2 MP stroke
105 0 2097 4197 2 MP stroke
105 0 2097 4230 2 MP stroke
0 31 2176 4213 2 MP stroke
105 0 2123 4213 2 MP stroke
105 0 2123 4244 2 MP stroke
0 32 2202 4227 2 MP stroke
105 0 2149 4227 2 MP stroke
105 0 2149 4259 2 MP stroke
0 30 2228 4240 2 MP stroke
104 0 2176 4240 2 MP stroke
104 0 2176 4270 2 MP stroke
0 29 2254 4251 2 MP stroke
104 0 2202 4251 2 MP stroke
104 0 2202 4280 2 MP stroke
0 30 2280 4264 2 MP stroke
104 0 2228 4264 2 MP stroke
104 0 2228 4294 2 MP stroke
0 30 2306 4275 2 MP stroke
104 0 2254 4275 2 MP stroke
104 0 2254 4305 2 MP stroke
0 26 2332 4288 2 MP stroke
104 0 2280 4288 2 MP stroke
104 0 2280 4314 2 MP stroke
0 26 2358 4297 2 MP stroke
104 0 2306 4297 2 MP stroke
104 0 2306 4323 2 MP stroke
0 26 2384 4306 2 MP stroke
104 0 2332 4306 2 MP stroke
104 0 2332 4332 2 MP stroke
0 26 2410 4315 2 MP stroke
104 0 2358 4315 2 MP stroke
104 0 2358 4341 2 MP stroke
0 23 2436 4323 2 MP stroke
104 0 2384 4323 2 MP stroke
104 0 2384 4346 2 MP stroke
0 23 2462 4332 2 MP stroke
104 0 2410 4332 2 MP stroke
104 0 2410 4355 2 MP stroke
0 23 2488 4339 2 MP stroke
104 0 2436 4339 2 MP stroke
104 0 2436 4362 2 MP stroke
0 21 2514 4349 2 MP stroke
104 0 2462 4349 2 MP stroke
104 0 2462 4370 2 MP stroke
0 20 2540 4356 2 MP stroke
104 0 2488 4356 2 MP stroke
104 0 2488 4376 2 MP stroke
0 19 2566 4363 2 MP stroke
104 0 2514 4363 2 MP stroke
104 0 2514 4382 2 MP stroke
0 20 2592 4368 2 MP stroke
104 0 2540 4368 2 MP stroke
104 0 2540 4388 2 MP stroke
0 19 2618 4374 2 MP stroke
104 0 2566 4374 2 MP stroke
104 0 2566 4393 2 MP stroke
0 19 2644 4379 2 MP stroke
104 0 2592 4379 2 MP stroke
104 0 2592 4398 2 MP stroke
0 18 2670 4385 2 MP stroke
104 0 2618 4385 2 MP stroke
104 0 2618 4403 2 MP stroke
0 18 2696 4390 2 MP stroke
104 0 2644 4390 2 MP stroke
104 0 2644 4408 2 MP stroke
0 18 2722 4394 2 MP stroke
104 0 2670 4394 2 MP stroke
104 0 2670 4412 2 MP stroke
0 16 2748 4399 2 MP stroke
104 0 2696 4399 2 MP stroke
104 0 2696 4415 2 MP stroke
0 16 2774 4404 2 MP stroke
105 0 2722 4404 2 MP stroke
105 0 2722 4420 2 MP stroke
0 17 2800 4408 2 MP stroke
105 0 2748 4408 2 MP stroke
105 0 2748 4425 2 MP stroke
0 16 2827 4412 2 MP stroke
105 0 2774 4412 2 MP stroke
105 0 2774 4428 2 MP stroke
0 13 2853 4417 2 MP stroke
105 0 2800 4417 2 MP stroke
105 0 2800 4430 2 MP stroke
0 14 2879 4420 2 MP stroke
104 0 2827 4420 2 MP stroke
104 0 2827 4434 2 MP stroke
0 15 2905 4422 2 MP stroke
104 0 2853 4422 2 MP stroke
104 0 2853 4437 2 MP stroke
0 14 2931 4425 2 MP stroke
104 0 2879 4425 2 MP stroke
104 0 2879 4439 2 MP stroke
0 14 2957 4428 2 MP stroke
104 0 2905 4428 2 MP stroke
104 0 2905 4442 2 MP stroke
0 13 2983 4431 2 MP stroke
104 0 2931 4431 2 MP stroke
104 0 2931 4444 2 MP stroke
0 13 3009 4434 2 MP stroke
104 0 2957 4434 2 MP stroke
104 0 2957 4447 2 MP stroke
0 13 3035 4437 2 MP stroke
104 0 2983 4437 2 MP stroke
104 0 2983 4450 2 MP stroke
0 13 3061 4439 2 MP stroke
104 0 3009 4439 2 MP stroke
104 0 3009 4452 2 MP stroke
0 11 3087 4442 2 MP stroke
104 0 3035 4442 2 MP stroke
104 0 3035 4453 2 MP stroke
0 11 3113 4444 2 MP stroke
104 0 3061 4444 2 MP stroke
104 0 3061 4455 2 MP stroke
0 11 3139 4446 2 MP stroke
104 0 3087 4446 2 MP stroke
104 0 3087 4457 2 MP stroke
0 11 3165 4448 2 MP stroke
104 0 3113 4448 2 MP stroke
104 0 3113 4459 2 MP stroke
0 11 3191 4450 2 MP stroke
104 0 3139 4450 2 MP stroke
104 0 3139 4461 2 MP stroke
0 10 3217 4451 2 MP stroke
104 0 3165 4451 2 MP stroke
104 0 3165 4461 2 MP stroke
0 10 3243 4453 2 MP stroke
104 0 3191 4453 2 MP stroke
104 0 3191 4463 2 MP stroke
0 9 3269 4455 2 MP stroke
104 0 3217 4455 2 MP stroke
104 0 3217 4464 2 MP stroke
0 10 3295 4456 2 MP stroke
104 0 3243 4456 2 MP stroke
104 0 3243 4466 2 MP stroke
0 9 3321 4458 2 MP stroke
104 0 3269 4458 2 MP stroke
104 0 3269 4467 2 MP stroke
0 9 3347 4459 2 MP stroke
104 0 3295 4459 2 MP stroke
104 0 3295 4468 2 MP stroke
0 8 3373 4461 2 MP stroke
104 0 3321 4461 2 MP stroke
104 0 3321 4469 2 MP stroke
0 8 3399 4462 2 MP stroke
104 0 3347 4462 2 MP stroke
104 0 3347 4470 2 MP stroke
0 8 3425 4463 2 MP stroke
105 0 3373 4463 2 MP stroke
105 0 3373 4471 2 MP stroke
0 8 3451 4464 2 MP stroke
105 0 3399 4464 2 MP stroke
105 0 3399 4472 2 MP stroke
0 8 3478 4465 2 MP stroke
105 0 3425 4465 2 MP stroke
105 0 3425 4473 2 MP stroke
0 7 3504 4466 2 MP stroke
105 0 3451 4466 2 MP stroke
105 0 3451 4473 2 MP stroke
0 7 3530 4467 2 MP stroke
104 0 3478 4467 2 MP stroke
104 0 3478 4474 2 MP stroke
0 7 3556 4468 2 MP stroke
104 0 3504 4468 2 MP stroke
104 0 3504 4475 2 MP stroke
0 6 3582 4469 2 MP stroke
104 0 3530 4469 2 MP stroke
104 0 3530 4475 2 MP stroke
0 6 3608 4470 2 MP stroke
104 0 3556 4470 2 MP stroke
104 0 3556 4476 2 MP stroke
0 7 3634 4470 2 MP stroke
104 0 3582 4470 2 MP stroke
104 0 3582 4477 2 MP stroke
0 6 3660 4471 2 MP stroke
104 0 3608 4471 2 MP stroke
104 0 3608 4477 2 MP stroke
0 6 3686 4472 2 MP stroke
104 0 3634 4472 2 MP stroke
104 0 3634 4478 2 MP stroke
0 7 3712 4472 2 MP stroke
104 0 3660 4472 2 MP stroke
104 0 3660 4479 2 MP stroke
0 6 3738 4473 2 MP stroke
104 0 3686 4473 2 MP stroke
104 0 3686 4479 2 MP stroke
0 5 3764 4474 2 MP stroke
104 0 3712 4474 2 MP stroke
104 0 3712 4479 2 MP stroke
0 6 3790 4474 2 MP stroke
104 0 3738 4474 2 MP stroke
104 0 3738 4480 2 MP stroke
0 6 3816 4474 2 MP stroke
104 0 3764 4474 2 MP stroke
104 0 3764 4480 2 MP stroke
0 6 3842 4475 2 MP stroke
104 0 3790 4475 2 MP stroke
104 0 3790 4481 2 MP stroke
0 6 3868 4475 2 MP stroke
104 0 3816 4475 2 MP stroke
104 0 3816 4481 2 MP stroke
0 6 3894 4476 2 MP stroke
104 0 3842 4476 2 MP stroke
104 0 3842 4482 2 MP stroke
0 6 3920 4476 2 MP stroke
104 0 3868 4476 2 MP stroke
104 0 3868 4482 2 MP stroke
0 5 3946 4477 2 MP stroke
104 0 3894 4477 2 MP stroke
104 0 3894 4482 2 MP stroke
0 5 3972 4477 2 MP stroke
104 0 3920 4477 2 MP stroke
104 0 3920 4482 2 MP stroke
0 6 3998 4477 2 MP stroke
104 0 3946 4477 2 MP stroke
104 0 3946 4483 2 MP stroke
0 5 4024 4478 2 MP stroke
104 0 3972 4478 2 MP stroke
104 0 3972 4483 2 MP stroke
0 5 4050 4478 2 MP stroke
104 0 3998 4478 2 MP stroke
104 0 3998 4483 2 MP stroke
0 4 4076 4479 2 MP stroke
105 0 4024 4479 2 MP stroke
105 0 4024 4483 2 MP stroke
0 4 4102 4479 2 MP stroke
105 0 4050 4479 2 MP stroke
105 0 4050 4483 2 MP stroke
0 4 4129 4479 2 MP stroke
105 0 4076 4479 2 MP stroke
105 0 4076 4483 2 MP stroke
0 4 4155 4479 2 MP stroke
105 0 4102 4479 2 MP stroke
105 0 4102 4483 2 MP stroke
0 3 4181 4480 2 MP stroke
104 0 4129 4480 2 MP stroke
104 0 4129 4483 2 MP stroke
0 4 4207 4480 2 MP stroke
104 0 4155 4480 2 MP stroke
104 0 4155 4484 2 MP stroke
0 4 4233 4480 2 MP stroke
104 0 4181 4480 2 MP stroke
104 0 4181 4484 2 MP stroke
0 4 4259 4480 2 MP stroke
104 0 4207 4480 2 MP stroke
104 0 4207 4484 2 MP stroke
0 4 4285 4480 2 MP stroke
104 0 4233 4480 2 MP stroke
104 0 4233 4484 2 MP stroke
0 3 4311 4481 2 MP stroke
104 0 4259 4481 2 MP stroke
104 0 4259 4484 2 MP stroke
0 3 4337 4481 2 MP stroke
104 0 4285 4481 2 MP stroke
104 0 4285 4484 2 MP stroke
0 4 4363 4481 2 MP stroke
104 0 4311 4481 2 MP stroke
104 0 4311 4485 2 MP stroke
0 4 4389 4481 2 MP stroke
104 0 4337 4481 2 MP stroke
104 0 4337 4485 2 MP stroke
0 4 4415 4481 2 MP stroke
104 0 4363 4481 2 MP stroke
104 0 4363 4485 2 MP stroke
0 3 4441 4482 2 MP stroke
104 0 4389 4482 2 MP stroke
104 0 4389 4485 2 MP stroke
0 3 4467 4482 2 MP stroke
104 0 4415 4482 2 MP stroke
104 0 4415 4485 2 MP stroke
0 3 4493 4482 2 MP stroke
104 0 4441 4482 2 MP stroke
104 0 4441 4485 2 MP stroke
0 3 4519 4482 2 MP stroke
104 0 4467 4482 2 MP stroke
104 0 4467 4485 2 MP stroke
0 2 4545 4483 2 MP stroke
104 0 4493 4483 2 MP stroke
104 0 4493 4485 2 MP stroke
0 2 4571 4483 2 MP stroke
104 0 4519 4483 2 MP stroke
104 0 4519 4485 2 MP stroke
0 2 4597 4483 2 MP stroke
104 0 4545 4483 2 MP stroke
104 0 4545 4485 2 MP stroke
0 2 4623 4483 2 MP stroke
104 0 4571 4483 2 MP stroke
104 0 4571 4485 2 MP stroke
0 2 4649 4483 2 MP stroke
104 0 4597 4483 2 MP stroke
104 0 4597 4485 2 MP stroke
0 2 4675 4483 2 MP stroke
104 0 4623 4483 2 MP stroke
104 0 4623 4485 2 MP stroke
0 3 4701 4483 2 MP stroke
104 0 4649 4483 2 MP stroke
104 0 4649 4486 2 MP stroke
0 3 4727 4483 2 MP stroke
105 0 4675 4483 2 MP stroke
105 0 4675 4486 2 MP stroke
0 3 4753 4483 2 MP stroke
105 0 4701 4483 2 MP stroke
105 0 4701 4486 2 MP stroke
0 2 4780 4483 2 MP stroke
105 0 4727 4483 2 MP stroke
105 0 4727 4485 2 MP stroke
0 3 4806 4483 2 MP stroke
105 0 4753 4483 2 MP stroke
105 0 4753 4486 2 MP stroke
0 3 4832 4483 2 MP stroke
104 0 4780 4483 2 MP stroke
104 0 4780 4486 2 MP stroke
0 2 4858 4484 2 MP stroke
104 0 4806 4484 2 MP stroke
104 0 4806 4486 2 MP stroke
0 2 4884 4484 2 MP stroke
104 0 4832 4484 2 MP stroke
104 0 4832 4486 2 MP stroke
0 2 4910 4484 2 MP stroke
104 0 4858 4484 2 MP stroke
104 0 4858 4486 2 MP stroke
0 2 4936 4484 2 MP stroke
104 0 4884 4484 2 MP stroke
104 0 4884 4486 2 MP stroke
0 2 4962 4484 2 MP stroke
104 0 4910 4484 2 MP stroke
104 0 4910 4486 2 MP stroke
0 2 4988 4484 2 MP stroke
104 0 4936 4484 2 MP stroke
104 0 4936 4486 2 MP stroke
0 2 5014 4484 2 MP stroke
104 0 4962 4484 2 MP stroke
104 0 4962 4486 2 MP stroke
0 2 5040 4484 2 MP stroke
104 0 4988 4484 2 MP stroke
104 0 4988 4486 2 MP stroke
0 2 5066 4484 2 MP stroke
104 0 5014 4484 2 MP stroke
104 0 5014 4486 2 MP stroke
0 2 5092 4484 2 MP stroke
104 0 5040 4484 2 MP stroke
104 0 5040 4486 2 MP stroke
0 2 5118 4484 2 MP stroke
104 0 5066 4484 2 MP stroke
104 0 5066 4486 2 MP stroke
0 2 5144 4484 2 MP stroke
104 0 5092 4484 2 MP stroke
104 0 5092 4486 2 MP stroke
0 2 5170 4484 2 MP stroke
104 0 5118 4484 2 MP stroke
104 0 5118 4486 2 MP stroke
0 2 5196 4484 2 MP stroke
104 0 5144 4484 2 MP stroke
104 0 5144 4486 2 MP stroke
0 2 5222 4484 2 MP stroke
104 0 5170 4484 2 MP stroke
104 0 5170 4486 2 MP stroke
0 2 5248 4484 2 MP stroke
104 0 5196 4484 2 MP stroke
104 0 5196 4486 2 MP stroke
0 2 5274 4484 2 MP stroke
104 0 5222 4484 2 MP stroke
104 0 5222 4486 2 MP stroke
0 1 5300 4485 2 MP stroke
104 0 5248 4485 2 MP stroke
104 0 5248 4486 2 MP stroke
0 1 5326 4485 2 MP stroke
104 0 5274 4485 2 MP stroke
104 0 5274 4486 2 MP stroke
0 2 5352 4484 2 MP stroke
104 0 5300 4484 2 MP stroke
104 0 5300 4486 2 MP stroke
0 1 5378 4485 2 MP stroke
105 0 5326 4485 2 MP stroke
105 0 5326 4486 2 MP stroke
0 1 5404 4485 2 MP stroke
105 0 5352 4485 2 MP stroke
105 0 5352 4486 2 MP stroke
0 1 5431 4485 2 MP stroke
105 0 5378 4485 2 MP stroke
105 0 5378 4486 2 MP stroke
0 1 5457 4485 2 MP stroke
105 0 5404 4485 2 MP stroke
105 0 5404 4486 2 MP stroke
0 1 5483 4485 2 MP stroke
104 0 5431 4485 2 MP stroke
104 0 5431 4486 2 MP stroke
0 1 5509 4485 2 MP stroke
104 0 5457 4485 2 MP stroke
104 0 5457 4486 2 MP stroke
0 1 5535 4485 2 MP stroke
104 0 5483 4485 2 MP stroke
104 0 5483 4486 2 MP stroke
0 1 5561 4485 2 MP stroke
104 0 5509 4485 2 MP stroke
104 0 5509 4486 2 MP stroke
0 1 5587 4485 2 MP stroke
104 0 5535 4485 2 MP stroke
104 0 5535 4486 2 MP stroke
0 1 5613 4485 2 MP stroke
104 0 5561 4485 2 MP stroke
104 0 5561 4486 2 MP stroke
0 1 5639 4485 2 MP stroke
104 0 5587 4485 2 MP stroke
104 0 5587 4486 2 MP stroke
0 1 5665 4485 2 MP stroke
104 0 5613 4485 2 MP stroke
104 0 5613 4486 2 MP stroke
0 1 5691 4485 2 MP stroke
104 0 5639 4485 2 MP stroke
104 0 5639 4486 2 MP stroke
0 1 5717 4485 2 MP stroke
104 0 5665 4485 2 MP stroke
104 0 5665 4486 2 MP stroke
0 1 5743 4485 2 MP stroke
104 0 5691 4485 2 MP stroke
104 0 5691 4486 2 MP stroke
0 1 5769 4485 2 MP stroke
104 0 5717 4485 2 MP stroke
104 0 5717 4486 2 MP stroke
0 1 5795 4485 2 MP stroke
104 0 5743 4485 2 MP stroke
104 0 5743 4486 2 MP stroke
0 1 5821 4485 2 MP stroke
104 0 5769 4485 2 MP stroke
104 0 5769 4486 2 MP stroke
0 1 5847 4485 2 MP stroke
104 0 5795 4485 2 MP stroke
104 0 5795 4486 2 MP stroke
0 1 5873 4485 2 MP stroke
104 0 5821 4485 2 MP stroke
104 0 5821 4486 2 MP stroke
0 1 5899 4485 2 MP stroke
104 0 5847 4485 2 MP stroke
104 0 5847 4486 2 MP stroke
0 1 5925 4485 2 MP stroke
104 0 5873 4485 2 MP stroke
104 0 5873 4486 2 MP stroke
0 1 5951 4485 2 MP stroke
104 0 5899 4485 2 MP stroke
104 0 5899 4486 2 MP stroke
0 1 5977 4485 2 MP stroke
104 0 5925 4485 2 MP stroke
104 0 5925 4486 2 MP stroke
0 1 6003 4485 2 MP stroke
104 0 5951 4485 2 MP stroke
104 0 5951 4486 2 MP stroke
0 1 6029 4485 2 MP stroke
105 0 5977 4485 2 MP stroke
105 0 5977 4486 2 MP stroke
0 1 6055 4485 2 MP stroke
80 0 6003 4485 2 MP stroke
80 0 6003 4486 2 MP stroke
0 1 6082 4485 2 MP stroke
54 0 6029 4485 2 MP stroke
54 0 6029 4486 2 MP stroke
27 0 26 0 26 0 26 0 26 0 26 0 26 0 26 0 
26 0 26 0 26 0 26 0 26 0 26 0 26 0 26 0 
26 0 26 0 26 0 26 0 26 0 26 0 26 0 26 0 
26 0 27 0 26 0 26 0 26 0 26 0 26 0 26 0 
26 0 26 0 26 0 26 0 26 0 26 0 26 0 26 0 
26 0 26 0 26 0 26 0 26 0 26 0 26 0 26 0 
26 1 26 0 27 0 26 0 26 0 26 0 26 0 26 0 
26 0 26 0 26 0 26 0 26 1 26 0 26 0 26 0 
26 0 26 0 26 0 26 0 26 1 26 0 26 0 26 0 
26 0 26 1 26 0 27 0 26 0 26 0 26 1 26 0 
26 0 26 1 26 0 26 0 26 1 26 0 26 1 26 0 
26 0 26 1 26 1 26 0 26 1 26 1 26 0 26 1 
26 1 26 0 26 1 26 1 27 1 26 1 26 1 26 1 
26 1 26 1 26 2 26 1 26 2 26 2 26 1 26 2 
26 2 26 2 26 1 26 3 26 2 26 3 26 3 26 2 
26 3 26 3 26 2 26 3 26 4 27 4 26 4 26 5 
26 4 26 4 26 5 26 6 26 5 26 5 26 5 26 7 
26 7 26 8 26 8 26 8 26 7 26 9 26 9 26 9 
26 11 26 11 26 13 26 11 26 12 26 15 27 15 26 14 
26 17 26 16 26 18 26 18 26 19 26 22 26 23 26 25 
26 21 26 27 26 28 26 28 26 31 26 31 26 34 26 36 
26 38 26 40 26 44 26 43 26 45 26 51 26 54 27 55 
26 57 26 62 26 67 26 70 26 74 26 77 26 82 26 81 
26 92 26 95 26 98 26 110 26 115 26 120 26 127 26 133 
26 141 26 147 26 161 26 167 26 191 26 203 26 234 26 262 
874 469 201 MP stroke
gr

c8
  36   36  874  469 FO
  36   36  900  731 FO
  36   36  926  965 FO
  36   36  952 1168 FO
  36   36  978 1359 FO
  36   36 1004 1526 FO
  36   36 1030 1687 FO
  36   36 1056 1834 FO
  36   36 1082 1975 FO
  36   36 1108 2108 FO
  36   36 1134 2235 FO
  36   36 1160 2355 FO
  36   36 1186 2470 FO
  36   36 1212 2580 FO
  36   36 1238 2678 FO
  36   36 1264 2773 FO
  36   36 1290 2865 FO
  36   36 1316 2946 FO
  36   36 1342 3028 FO
  36   36 1368 3105 FO
  36   36 1394 3179 FO
  36   36 1420 3249 FO
  36   36 1446 3316 FO
  36   36 1472 3378 FO
  36   36 1498 3435 FO
  36   36 1525 3490 FO
  36   36 1551 3544 FO
  36   36 1577 3595 FO
  36   36 1603 3640 FO
  36   36 1629 3683 FO
  36   36 1655 3727 FO
  36   36 1681 3767 FO
  36   36 1707 3805 FO
  36   36 1733 3841 FO
  36   36 1759 3875 FO
  36   36 1785 3906 FO
  36   36 1811 3937 FO
  36   36 1837 3965 FO
  36   36 1863 3993 FO
  36   36 1889 4020 FO
  36   36 1915 4041 FO
  36   36 1941 4066 FO
  36   36 1967 4089 FO
  36   36 1993 4111 FO
  36   36 2019 4130 FO
  36   36 2045 4148 FO
  36   36 2071 4166 FO
  36   36 2097 4182 FO
  36   36 2123 4199 FO
  36   36 2149 4213 FO
  36   36 2176 4228 FO
  36   36 2202 4243 FO
  36   36 2228 4255 FO
  36   36 2254 4266 FO
  36   36 2280 4279 FO
  36   36 2306 4290 FO
  36   36 2332 4301 FO
  36   36 2358 4310 FO
  36   36 2384 4319 FO
  36   36 2410 4328 FO
  36   36 2436 4335 FO
  36   36 2462 4343 FO
  36   36 2488 4351 FO
  36   36 2514 4359 FO
  36   36 2540 4366 FO
  36   36 2566 4373 FO
  36   36 2592 4378 FO
  36   36 2618 4383 FO
  36   36 2644 4388 FO
  36   36 2670 4394 FO
  36   36 2696 4399 FO
  36   36 2722 4403 FO
  36   36 2748 4407 FO
  36   36 2774 4412 FO
  36   36 2800 4416 FO
  36   36 2827 4420 FO
  36   36 2853 4424 FO
  36   36 2879 4427 FO
  36   36 2905 4429 FO
  36   36 2931 4432 FO
  36   36 2957 4435 FO
  36   36 2983 4437 FO
  36   36 3009 4440 FO
  36   36 3035 4443 FO
  36   36 3061 4445 FO
  36   36 3087 4448 FO
  36   36 3113 4449 FO
  36   36 3139 4451 FO
  36   36 3165 4453 FO
  36   36 3191 4455 FO
  36   36 3217 4456 FO
  36   36 3243 4458 FO
  36   36 3269 4460 FO
  36   36 3295 4461 FO
  36   36 3321 4463 FO
  36   36 3347 4464 FO
  36   36 3373 4465 FO
  36   36 3399 4466 FO
  36   36 3425 4467 FO
  36   36 3451 4468 FO
  36   36 3478 4469 FO
  36   36 3504 4470 FO
  36   36 3530 4471 FO
  36   36 3556 4471 FO
  36   36 3582 4472 FO
  36   36 3608 4473 FO
  36   36 3634 4473 FO
  36   36 3660 4474 FO
  36   36 3686 4475 FO
  36   36 3712 4475 FO
  36   36 3738 4476 FO
  36   36 3764 4477 FO
  36   36 3790 4477 FO
  36   36 3816 4477 FO
  36   36 3842 4478 FO
  36   36 3868 4478 FO
  36   36 3894 4479 FO
  36   36 3920 4479 FO
  36   36 3946 4479 FO
  36   36 3972 4480 FO
  36   36 3998 4480 FO
  36   36 4024 4480 FO
  36   36 4050 4481 FO
  36   36 4076 4481 FO
  36   36 4102 4481 FO
  36   36 4129 4481 FO
  36   36 4155 4481 FO
  36   36 4181 4482 FO
  36   36 4207 4482 FO
  36   36 4233 4482 FO
  36   36 4259 4482 FO
  36   36 4285 4482 FO
  36   36 4311 4483 FO
  36   36 4337 4483 FO
  36   36 4363 4483 FO
  36   36 4389 4483 FO
  36   36 4415 4483 FO
  36   36 4441 4483 FO
  36   36 4467 4483 FO
  36   36 4493 4483 FO
  36   36 4519 4484 FO
  36   36 4545 4484 FO
  36   36 4571 4484 FO
  36   36 4597 4484 FO
  36   36 4623 4484 FO
  36   36 4649 4484 FO
  36   36 4675 4484 FO
  36   36 4701 4484 FO
  36   36 4727 4484 FO
  36   36 4753 4484 FO
  36   36 4780 4484 FO
  36   36 4806 4484 FO
  36   36 4832 4485 FO
  36   36 4858 4485 FO
  36   36 4884 4485 FO
  36   36 4910 4485 FO
  36   36 4936 4485 FO
  36   36 4962 4485 FO
  36   36 4988 4485 FO
  36   36 5014 4485 FO
  36   36 5040 4485 FO
  36   36 5066 4485 FO
  36   36 5092 4485 FO
  36   36 5118 4485 FO
  36   36 5144 4485 FO
  36   36 5170 4485 FO
  36   36 5196 4485 FO
  36   36 5222 4485 FO
  36   36 5248 4485 FO
  36   36 5274 4485 FO
  36   36 5300 4485 FO
  36   36 5326 4485 FO
  36   36 5352 4485 FO
  36   36 5378 4485 FO
  36   36 5404 4485 FO
  36   36 5431 4485 FO
  36   36 5457 4485 FO
  36   36 5483 4485 FO
  36   36 5509 4485 FO
  36   36 5535 4485 FO
  36   36 5561 4485 FO
  36   36 5587 4485 FO
  36   36 5613 4485 FO
  36   36 5639 4485 FO
  36   36 5665 4485 FO
  36   36 5691 4485 FO
  36   36 5717 4485 FO
  36   36 5743 4485 FO
  36   36 5769 4485 FO
  36   36 5795 4485 FO
  36   36 5821 4485 FO
  36   36 5847 4485 FO
  36   36 5873 4485 FO
  36   36 5899 4485 FO
  36   36 5925 4485 FO
  36   36 5951 4485 FO
  36   36 5977 4485 FO
  36   36 6003 4485 FO
  36   36 6029 4485 FO
  36   36 6055 4485 FO
  36   36 6082 4485 FO
gs 874 469 5209 4018 rc
gr

0 sg
%%IncludeResource: font Helvetica
/Helvetica /ISOLatin1Encoding 168 FMSR

2373  156 mt 
(TetR-GFP in Early Anaphase) s
%%IncludeResource: font Helvetica
/Helvetica /ISOLatin1Encoding 144 FMSR

2528  293 mt 
(Mother lobe / n) s
%%IncludeResource: font Helvetica
/Helvetica /ISOLatin1Encoding 108 FMSR

3488  377 mt 
(simulations) s
%%IncludeResource: font Helvetica
/Helvetica /ISOLatin1Encoding 144 FMSR

4027  293 mt 
( = 100) s
3239 4792 mt 
(time \(s\)) s
 552 2993 mt  -90 rotate
(% Fluorescence) s
90 rotate
%%IncludeResource: font Helvetica
/Helvetica /ISOLatin1Encoding 120 FMSR

 857 4529 mt 
( ) s
6066  511 mt 
( ) s
1 sg
0 426 1261 0 0 -426 4762 955 4 MP
PP
-1261 0 0 426 1261 0 0 -426 4762 955 5 MP stroke
4 w
DO
SO
6 w
0 sg
4762  955 mt 6023  955 L
4762  529 mt 6023  529 L
4762  955 mt 4762  529 L
6023  955 mt 6023  529 L
4762  955 mt 6023  955 L
4762  955 mt 4762  529 L
4762  955 mt 6023  955 L
4762  529 mt 6023  529 L
4762  955 mt 4762  529 L
6023  955 mt 6023  529 L
5172  668 mt 
(FLIP exp) s
gs 4762 529 1262 427 rc
315 0 4825 626 2 MP stroke
gs 4909 553 147 147 rc
4957  601 mt 5007  651 L
5007  601 mt 4957  651 L
gr

gr

5172  795 mt 
(k) s
%%IncludeResource: font Helvetica
/Helvetica /ISOLatin1Encoding 96 FMSR

5232  855 mt 
(deg) s
%%IncludeResource: font Helvetica
/Helvetica /ISOLatin1Encoding 120 FMSR

5392  795 mt 
( = 110 s) s
%%IncludeResource: font Helvetica
/Helvetica /ISOLatin1Encoding 96 FMSR

5822  735 mt 
(-1) s
gs 4762 529 1262 427 rc
c8
315 0 4825 820 2 MP stroke
gs 4909 747 147 147 rc
  36   36 4982  820 FO
gr

gr

c8

end %%Color Dict

eplot
%%EndObject

epage
end

showpage

%%Trailer
%%EOF
