%!PS-Adobe-3.0 EPSF-3.0
%%Creator: MATLAB, The MathWorks, Inc. Version 7.14.0.739 (R2012a). Operating System: Darwin 11.4.2 Darwin Kernel Version 11.4.2: Thu Aug 23 16:25:48 PDT 2012; root:xnu-1699.32.7~1/RELEASE_X86_64 x86_64.
%%Title: /Users/zavalaeder/Dropbox/Yeast/bleaching_rate/figures/laser_mother_k500.eps
%%CreationDate: 11/26/2012  09:13:50
%%DocumentNeededFonts: Helvetica
%%DocumentProcessColors: Cyan Magenta Yellow Black
%%LanguageLevel: 2
%%Pages: 1
%%BoundingBox:    26   186   586   606
%%EndComments

%%BeginProlog
% MathWorks dictionary
/MathWorks 160 dict begin
% definition operators
/bdef {bind def} bind def
/ldef {load def} bind def
/xdef {exch def} bdef
/xstore {exch store} bdef
% operator abbreviations
/c  /clip ldef
/cc /concat ldef
/cp /closepath ldef
/gr /grestore ldef
/gs /gsave ldef
/mt /moveto ldef
/np /newpath ldef
/cm /currentmatrix ldef
/sm /setmatrix ldef
/rm /rmoveto ldef
/rl /rlineto ldef
/s {show newpath} bdef
/sc {setcmykcolor} bdef
/sr /setrgbcolor ldef
/sg /setgray ldef
/w /setlinewidth ldef
/j /setlinejoin ldef
/cap /setlinecap ldef
/rc {rectclip} bdef
/rf {rectfill} bdef
% page state control
/pgsv () def
/bpage {/pgsv save def} bdef
/epage {pgsv restore} bdef
/bplot /gsave ldef
/eplot {stroke grestore} bdef
% orientation switch
/portraitMode 0 def /landscapeMode 1 def /rotateMode 2 def
% coordinate system mappings
/dpi2point 0 def
% font control
/FontSize 0 def
/FMS {/FontSize xstore findfont [FontSize 0 0 FontSize neg 0 0]
  makefont setfont} bdef
/reencode {exch dup where {pop load} {pop StandardEncoding} ifelse
  exch dup 3 1 roll findfont dup length dict begin
  { 1 index /FID ne {def}{pop pop} ifelse } forall
  /Encoding exch def currentdict end definefont pop} bdef
/isroman {findfont /CharStrings get /Agrave known} bdef
/FMSR {3 1 roll 1 index dup isroman {reencode} {pop pop} ifelse
  exch FMS} bdef
/csm {1 dpi2point div -1 dpi2point div scale neg translate
 dup landscapeMode eq {pop -90 rotate}
  {rotateMode eq {90 rotate} if} ifelse} bdef
% line types: solid, dotted, dashed, dotdash
/SO { [] 0 setdash } bdef
/DO { [.5 dpi2point mul 4 dpi2point mul] 0 setdash } bdef
/DA { [6 dpi2point mul] 0 setdash } bdef
/DD { [.5 dpi2point mul 4 dpi2point mul 6 dpi2point mul 4
  dpi2point mul] 0 setdash } bdef
% macros for lines and objects
/L {lineto stroke} bdef
/MP {3 1 roll moveto 1 sub {rlineto} repeat} bdef
/AP {{rlineto} repeat} bdef
/PDlw -1 def
/W {/PDlw currentlinewidth def setlinewidth} def
/PP {closepath eofill} bdef
/DP {closepath stroke} bdef
/MR {4 -2 roll moveto dup  0 exch rlineto exch 0 rlineto
  neg 0 exch rlineto closepath} bdef
/FR {MR stroke} bdef
/PR {MR fill} bdef
/L1i {{currentfile picstr readhexstring pop} image} bdef
/tMatrix matrix def
/MakeOval {newpath tMatrix currentmatrix pop translate scale
0 0 1 0 360 arc tMatrix setmatrix} bdef
/FO {MakeOval stroke} bdef
/PO {MakeOval fill} bdef
/PD {currentlinewidth 2 div 0 360 arc fill
   PDlw -1 eq not {PDlw w /PDlw -1 def} if} def
/FA {newpath tMatrix currentmatrix pop translate scale
  0 0 1 5 -2 roll arc tMatrix setmatrix stroke} bdef
/PA {newpath tMatrix currentmatrix pop	translate 0 0 moveto scale
  0 0 1 5 -2 roll arc closepath tMatrix setmatrix fill} bdef
/FAn {newpath tMatrix currentmatrix pop translate scale
  0 0 1 5 -2 roll arcn tMatrix setmatrix stroke} bdef
/PAn {newpath tMatrix currentmatrix pop translate 0 0 moveto scale
  0 0 1 5 -2 roll arcn closepath tMatrix setmatrix fill} bdef
/vradius 0 def /hradius 0 def /lry 0 def
/lrx 0 def /uly 0 def /ulx 0 def /rad 0 def
/MRR {/vradius xdef /hradius xdef /lry xdef /lrx xdef /uly xdef
  /ulx xdef newpath tMatrix currentmatrix pop ulx hradius add uly
  vradius add translate hradius vradius scale 0 0 1 180 270 arc 
  tMatrix setmatrix lrx hradius sub uly vradius add translate
  hradius vradius scale 0 0 1 270 360 arc tMatrix setmatrix
  lrx hradius sub lry vradius sub translate hradius vradius scale
  0 0 1 0 90 arc tMatrix setmatrix ulx hradius add lry vradius sub
  translate hradius vradius scale 0 0 1 90 180 arc tMatrix setmatrix
  closepath} bdef
/FRR {MRR stroke } bdef
/PRR {MRR fill } bdef
/MlrRR {/lry xdef /lrx xdef /uly xdef /ulx xdef /rad lry uly sub 2 div def
  newpath tMatrix currentmatrix pop ulx rad add uly rad add translate
  rad rad scale 0 0 1 90 270 arc tMatrix setmatrix lrx rad sub lry rad
  sub translate rad rad scale 0 0 1 270 90 arc tMatrix setmatrix
  closepath} bdef
/FlrRR {MlrRR stroke } bdef
/PlrRR {MlrRR fill } bdef
/MtbRR {/lry xdef /lrx xdef /uly xdef /ulx xdef /rad lrx ulx sub 2 div def
  newpath tMatrix currentmatrix pop ulx rad add uly rad add translate
  rad rad scale 0 0 1 180 360 arc tMatrix setmatrix lrx rad sub lry rad
  sub translate rad rad scale 0 0 1 0 180 arc tMatrix setmatrix
  closepath} bdef
/FtbRR {MtbRR stroke } bdef
/PtbRR {MtbRR fill } bdef
/stri 6 array def /dtri 6 array def
/smat 6 array def /dmat 6 array def
/tmat1 6 array def /tmat2 6 array def /dif 3 array def
/asub {/ind2 exch def /ind1 exch def dup dup
  ind1 get exch ind2 get sub exch } bdef
/tri_to_matrix {
  2 0 asub 3 1 asub 4 0 asub 5 1 asub
  dup 0 get exch 1 get 7 -1 roll astore } bdef
/compute_transform {
  dmat dtri tri_to_matrix tmat1 invertmatrix 
  smat stri tri_to_matrix tmat2 concatmatrix } bdef
/ds {stri astore pop} bdef
/dt {dtri astore pop} bdef
/db {2 copy /cols xdef /rows xdef mul dup 3 mul string
  currentfile 
  3 index 0 eq {/ASCIIHexDecode filter}
  {/ASCII85Decode filter 3 index 2 eq {/RunLengthDecode filter} if }
  ifelse exch readstring pop
  dup 0 3 index getinterval /rbmap xdef
  dup 2 index dup getinterval /gbmap xdef
  1 index dup 2 mul exch getinterval /bbmap xdef pop pop}bdef
/it {gs np dtri aload pop moveto lineto lineto cp c
  cols rows 8 compute_transform 
  rbmap gbmap bbmap true 3 colorimage gr}bdef
/il {newpath moveto lineto stroke}bdef
currentdict end def
%%EndProlog

%%BeginSetup
MathWorks begin

0 cap

end
%%EndSetup

%%Page: 1 1
%%BeginPageSetup
%%PageBoundingBox:    26   186   586   606
MathWorks begin
bpage
%%EndPageSetup

%%BeginObject: obj1
bplot

/dpi2point 12 def
portraitMode 0312 7272 csm

    0     0  6720  5040 rc
90 dict begin %Colortable dictionary
/c0 { 0.000000 0.000000 0.000000 sr} bdef
/c1 { 1.000000 1.000000 1.000000 sr} bdef
/c2 { 0.900000 0.000000 0.000000 sr} bdef
/c3 { 0.000000 0.820000 0.000000 sr} bdef
/c4 { 0.000000 0.000000 0.800000 sr} bdef
/c5 { 0.910000 0.820000 0.320000 sr} bdef
/c6 { 1.000000 0.260000 0.820000 sr} bdef
/c7 { 0.000000 0.820000 0.820000 sr} bdef
c0
1 j
1 sg
   0    0 6721 5041 rf
6 w
0 4060 5208 0 0 -4060 874 4486 4 MP
PP
-5208 0 0 4060 5208 0 0 -4060 874 4486 5 MP stroke
4 w
DO
SO
6 w
0 sg
 874 4486 mt 6082 4486 L
 874  426 mt 6082  426 L
 874 4486 mt  874  426 L
6082 4486 mt 6082  426 L
 874 4486 mt 6082 4486 L
 874 4486 mt  874  426 L
 874 4486 mt  874 4433 L
 874  427 mt  874  479 L
%%IncludeResource: font Helvetica
/Helvetica /ISOLatin1Encoding 120 FMSR

 841 4631 mt 
(0) s
1394 4486 mt 1394 4433 L
1394  427 mt 1394  479 L
1328 4631 mt 
(10) s
1915 4486 mt 1915 4433 L
1915  427 mt 1915  479 L
1849 4631 mt 
(20) s
2436 4486 mt 2436 4433 L
2436  427 mt 2436  479 L
2370 4631 mt 
(30) s
2957 4486 mt 2957 4433 L
2957  427 mt 2957  479 L
2891 4631 mt 
(40) s
3478 4486 mt 3478 4433 L
3478  427 mt 3478  479 L
3412 4631 mt 
(50) s
3998 4486 mt 3998 4433 L
3998  427 mt 3998  479 L
3932 4631 mt 
(60) s
4519 4486 mt 4519 4433 L
4519  427 mt 4519  479 L
4453 4631 mt 
(70) s
5040 4486 mt 5040 4433 L
5040  427 mt 5040  479 L
4974 4631 mt 
(80) s
5561 4486 mt 5561 4433 L
5561  427 mt 5561  479 L
5495 4631 mt 
(90) s
6082 4486 mt 6082 4433 L
6082  427 mt 6082  479 L
5982 4631 mt 
(100) s
 874 4486 mt  926 4486 L
6082 4486 mt 6029 4486 L
 773 4530 mt 
(0) s
 874 4080 mt  926 4080 L
6082 4080 mt 6029 4080 L
 706 4124 mt 
(10) s
 874 3674 mt  926 3674 L
6082 3674 mt 6029 3674 L
 706 3718 mt 
(20) s
 874 3268 mt  926 3268 L
6082 3268 mt 6029 3268 L
 706 3312 mt 
(30) s
 874 2862 mt  926 2862 L
6082 2862 mt 6029 2862 L
 706 2906 mt 
(40) s
 874 2456 mt  926 2456 L
6082 2456 mt 6029 2456 L
 706 2500 mt 
(50) s
 874 2050 mt  926 2050 L
6082 2050 mt 6029 2050 L
 706 2094 mt 
(60) s
 874 1644 mt  926 1644 L
6082 1644 mt 6029 1644 L
 706 1688 mt 
(70) s
 874 1238 mt  926 1238 L
6082 1238 mt 6029 1238 L
 706 1282 mt 
(80) s
 874  832 mt  926  832 L
6082  832 mt 6029  832 L
 706  876 mt 
(90) s
 874  427 mt  926  427 L
6082  427 mt 6029  427 L
 639  471 mt 
(100) s
 874 4486 mt 6082 4486 L
 874  426 mt 6082  426 L
 874 4486 mt  874  426 L
6082 4486 mt 6082  426 L
gs 874 427 5209 4060 rc
/c8 { 1.000000 0.000000 0.000000 sr} bdef
c8
0 581 960 2611 2 MP stroke
106 0 907 2611 2 MP stroke
106 0 907 3192 2 MP stroke
0 477 1047 3339 2 MP stroke
105 0 994 3339 2 MP stroke
105 0 994 3816 2 MP stroke
0 433 1133 3665 2 MP stroke
105 0 1081 3665 2 MP stroke
105 0 1081 4098 2 MP stroke
0 366 1220 3868 2 MP stroke
106 0 1167 3868 2 MP stroke
106 0 1167 4234 2 MP stroke
0 238 1307 4052 2 MP stroke
105 0 1254 4052 2 MP stroke
105 0 1254 4290 2 MP stroke
0 159 1393 4184 2 MP stroke
106 0 1340 4184 2 MP stroke
106 0 1340 4343 2 MP stroke
0 141 1479 4220 2 MP stroke
106 0 1426 4220 2 MP stroke
106 0 1426 4361 2 MP stroke
0 142 1565 4263 2 MP stroke
106 0 1512 4263 2 MP stroke
106 0 1512 4405 2 MP stroke
0 97 1652 4318 2 MP stroke
106 0 1599 4318 2 MP stroke
106 0 1599 4415 2 MP stroke
0 101 1738 4336 2 MP stroke
105 0 1686 4336 2 MP stroke
105 0 1686 4437 2 MP stroke
0 68 1824 4370 2 MP stroke
105 0 1772 4370 2 MP stroke
105 0 1772 4438 2 MP stroke
0 65 1911 4394 2 MP stroke
106 0 1858 4394 2 MP stroke
106 0 1858 4459 2 MP stroke
0 48 1997 4425 2 MP stroke
105 0 1945 4425 2 MP stroke
105 0 1945 4473 2 MP stroke
0 57 2084 4429 2 MP stroke
106 0 2031 4429 2 MP stroke
106 0 2031 4486 2 MP stroke
0 55 2171 4408 2 MP stroke
105 0 2118 4408 2 MP stroke
105 0 2118 4463 2 MP stroke
0 58 2257 4429 2 MP stroke
105 0 2205 4429 2 MP stroke
0 40 2344 4439 2 MP stroke
106 0 2291 4439 2 MP stroke
106 0 2291 4479 2 MP stroke
0 24 2430 4463 2 MP stroke
105 0 2378 4463 2 MP stroke
0 42 2517 4445 2 MP stroke
106 0 2464 4445 2 MP stroke
0 21 2603 4466 2 MP stroke
106 0 2550 4466 2 MP stroke
0 35 2689 4452 2 MP stroke
105 0 2636 4452 2 MP stroke
0 32 2775 4455 2 MP stroke
106 0 2722 4455 2 MP stroke
0 27 2862 4460 2 MP stroke
106 0 2809 4460 2 MP stroke
0 17 2948 4470 2 MP stroke
105 0 2896 4470 2 MP stroke
0 18 3035 4469 2 MP stroke
106 0 2982 4469 2 MP stroke
0 1 3122 4486 2 MP stroke
105 0 3069 4486 2 MP stroke
0 8 3208 4479 2 MP stroke
105 0 3156 4479 2 MP stroke
0 6 3295 4481 2 MP stroke
106 0 3242 4481 2 MP stroke
0 16 3382 4471 2 MP stroke
105 0 3329 4471 2 MP stroke
0 7 3555 4480 2 MP stroke
106 0 3502 4480 2 MP stroke
0 12 3899 4475 2 MP stroke
106 0 3846 4475 2 MP stroke
0 1 4072 4486 2 MP stroke
105 0 4020 4486 2 MP stroke
0 5 4678 4482 2 MP stroke
105 0 4626 4482 2 MP stroke
0 3 4852 4484 2 MP stroke
105 0 4799 4484 2 MP stroke
0 1 5629 4486 2 MP stroke
106 0 5576 4486 2 MP stroke
62 6 87 2 86 2 86 -3 86 12 87 -9 86 18 87 -5 
86 28 87 -21 87 8 86 23 87 22 86 17 86 20 87 33 
86 44 86 27 86 92 87 120 87 169 86 304 87 676 86 2475 
874 427 25 MP stroke
gr

c8
  36   36  960 2902 FO
  36   36 1047 3578 FO
  36   36 1133 3882 FO
  36   36 1220 4051 FO
  36   36 1307 4171 FO
  36   36 1393 4263 FO
  36   36 1479 4290 FO
  36   36 1565 4334 FO
  36   36 1652 4367 FO
  36   36 1738 4387 FO
  36   36 1824 4404 FO
  36   36 1911 4426 FO
  36   36 1997 4449 FO
  36   36 2084 4457 FO
  36   36 2171 4436 FO
  36   36 2257 4464 FO
  36   36 2344 4459 FO
  36   36 2430 4477 FO
  36   36 2517 4468 FO
  36   36 2603 4480 FO
  36   36 2689 4477 FO
  36   36 2775 4479 FO
  36   36 2862 4481 FO
gs 874 427 5209 4060 rc
5 1 27 -1 3008 4487 3 MP stroke
gr

  36   36 3035 4486 FO
gs 874 427 5209 4060 rc
/c9 { 1.000000 0.400000 0.000000 sr} bdef
c9
0 580 957 1943 2 MP stroke
102 0 906 1943 2 MP stroke
102 0 906 2523 2 MP stroke
0 477 1041 2717 2 MP stroke
103 0 989 2717 2 MP stroke
103 0 989 3194 2 MP stroke
0 434 1124 3151 2 MP stroke
102 0 1073 3151 2 MP stroke
102 0 1073 3585 2 MP stroke
0 366 1208 3500 2 MP stroke
103 0 1156 3500 2 MP stroke
103 0 1156 3866 2 MP stroke
0 238 1291 3728 2 MP stroke
103 0 1240 3728 2 MP stroke
103 0 1240 3966 2 MP stroke
0 160 1374 3894 2 MP stroke
102 0 1323 3894 2 MP stroke
102 0 1323 4054 2 MP stroke
0 140 1457 3976 2 MP stroke
102 0 1406 3976 2 MP stroke
102 0 1406 4116 2 MP stroke
0 143 1541 4042 2 MP stroke
103 0 1489 4042 2 MP stroke
103 0 1489 4185 2 MP stroke
0 98 1623 4129 2 MP stroke
103 0 1572 4129 2 MP stroke
103 0 1572 4227 2 MP stroke
0 101 1707 4184 2 MP stroke
103 0 1655 4184 2 MP stroke
103 0 1655 4285 2 MP stroke
0 68 1790 4217 2 MP stroke
103 0 1739 4217 2 MP stroke
103 0 1739 4285 2 MP stroke
0 66 1874 4261 2 MP stroke
102 0 1823 4261 2 MP stroke
102 0 1823 4327 2 MP stroke
0 48 1957 4269 2 MP stroke
103 0 1906 4269 2 MP stroke
103 0 1906 4317 2 MP stroke
0 57 2041 4305 2 MP stroke
102 0 1990 4305 2 MP stroke
102 0 1990 4362 2 MP stroke
0 54 2125 4303 2 MP stroke
103 0 2073 4303 2 MP stroke
103 0 2073 4357 2 MP stroke
0 69 2208 4324 2 MP stroke
102 0 2157 4324 2 MP stroke
102 0 2157 4393 2 MP stroke
0 40 2291 4340 2 MP stroke
103 0 2240 4340 2 MP stroke
103 0 2240 4380 2 MP stroke
0 29 2374 4355 2 MP stroke
103 0 2322 4355 2 MP stroke
103 0 2322 4384 2 MP stroke
0 45 2457 4361 2 MP stroke
103 0 2405 4361 2 MP stroke
103 0 2405 4406 2 MP stroke
0 27 2540 4389 2 MP stroke
102 0 2489 4389 2 MP stroke
102 0 2489 4416 2 MP stroke
0 51 2624 4363 2 MP stroke
103 0 2572 4363 2 MP stroke
103 0 2572 4414 2 MP stroke
0 47 2707 4386 2 MP stroke
102 0 2656 4386 2 MP stroke
102 0 2656 4433 2 MP stroke
0 42 2790 4413 2 MP stroke
103 0 2739 4413 2 MP stroke
103 0 2739 4455 2 MP stroke
0 38 2874 4412 2 MP stroke
103 0 2822 4412 2 MP stroke
103 0 2822 4450 2 MP stroke
0 33 2957 4414 2 MP stroke
102 0 2906 4414 2 MP stroke
102 0 2906 4447 2 MP stroke
0 35 3041 4421 2 MP stroke
103 0 2989 4421 2 MP stroke
103 0 2989 4456 2 MP stroke
0 20 3124 4425 2 MP stroke
103 0 3073 4425 2 MP stroke
103 0 3073 4445 2 MP stroke
0 35 3208 4427 2 MP stroke
102 0 3157 4427 2 MP stroke
102 0 3157 4462 2 MP stroke
0 53 3291 4430 2 MP stroke
102 0 3240 4430 2 MP stroke
102 0 3240 4483 2 MP stroke
0 33 3374 4442 2 MP stroke
103 0 3322 4442 2 MP stroke
103 0 3322 4475 2 MP stroke
0 36 3457 4441 2 MP stroke
102 0 3406 4441 2 MP stroke
102 0 3406 4477 2 MP stroke
0 46 3540 4418 2 MP stroke
103 0 3489 4418 2 MP stroke
103 0 3489 4464 2 MP stroke
0 45 3624 4439 2 MP stroke
102 0 3573 4439 2 MP stroke
102 0 3573 4484 2 MP stroke
0 38 3707 4434 2 MP stroke
103 0 3656 4434 2 MP stroke
103 0 3656 4472 2 MP stroke
0 31 3791 4453 2 MP stroke
102 0 3740 4453 2 MP stroke
102 0 3740 4484 2 MP stroke
0 29 3874 4458 2 MP stroke
102 0 3823 4458 2 MP stroke
0 34 3958 4441 2 MP stroke
103 0 3906 4441 2 MP stroke
103 0 3906 4475 2 MP stroke
0 45 4041 4442 2 MP stroke
102 0 3990 4442 2 MP stroke
0 29 4125 4458 2 MP stroke
103 0 4073 4458 2 MP stroke
0 15 4208 4472 2 MP stroke
103 0 4157 4472 2 MP stroke
0 30 4291 4457 2 MP stroke
103 0 4239 4457 2 MP stroke
0 28 4374 4459 2 MP stroke
102 0 4323 4459 2 MP stroke
0 24 4458 4463 2 MP stroke
103 0 4406 4463 2 MP stroke
0 30 4541 4457 2 MP stroke
102 0 4490 4457 2 MP stroke
0 14 4625 4473 2 MP stroke
103 0 4573 4473 2 MP stroke
0 12 4707 4475 2 MP stroke
103 0 4656 4475 2 MP stroke
0 34 4791 4453 2 MP stroke
102 0 4740 4453 2 MP stroke
0 20 4875 4467 2 MP stroke
103 0 4823 4467 2 MP stroke
0 23 4958 4464 2 MP stroke
102 0 4907 4464 2 MP stroke
0 20 5042 4467 2 MP stroke
103 0 4990 4467 2 MP stroke
0 22 5125 4465 2 MP stroke
103 0 5074 4465 2 MP stroke
0 22 5209 4465 2 MP stroke
103 0 5157 4465 2 MP stroke
0 29 5291 4458 2 MP stroke
102 0 5240 4458 2 MP stroke
0 4 5375 4483 2 MP stroke
103 0 5323 4483 2 MP stroke
0 8 5462 4479 2 MP stroke
102 0 5411 4479 2 MP stroke
0 9 5566 4478 2 MP stroke
103 0 5515 4478 2 MP stroke
0 19 5793 4468 2 MP stroke
103 0 5742 4468 2 MP stroke
0 17 6002 4470 2 MP stroke
103 0 5950 4470 2 MP stroke
34 4 83 1 84 3 83 3 83 -8 83 7 84 8 83 11 
84 -18 83 7 84 16 83 -8 84 20 83 -18 83 1 83 2 
83 11 84 10 83 -4 84 8 83 0 84 -3 83 25 83 21 
84 -14 83 18 83 14 83 10 83 1 83 29 84 -4 84 41 
83 -1 84 43 83 16 84 57 82 64 84 68 83 72 83 127 
83 164 84 315 83 412 84 723 83 1806 874 427 46 MP stroke
gr

c9
  36   36  957 2233 FO
  36   36 1041 2956 FO
  36   36 1124 3368 FO
  36   36 1208 3683 FO
  36   36 1291 3847 FO
  36   36 1374 3974 FO
  36   36 1457 4046 FO
  36   36 1541 4114 FO
  36   36 1623 4178 FO
  36   36 1707 4235 FO
  36   36 1790 4251 FO
  36   36 1874 4294 FO
  36   36 1957 4293 FO
  36   36 2041 4334 FO
  36   36 2125 4330 FO
  36   36 2208 4359 FO
  36   36 2291 4360 FO
  36   36 2374 4370 FO
  36   36 2457 4384 FO
  36   36 2540 4402 FO
  36   36 2624 4388 FO
  36   36 2707 4409 FO
  36   36 2790 4434 FO
  36   36 2874 4431 FO
  36   36 2957 4431 FO
  36   36 3041 4439 FO
  36   36 3124 4435 FO
  36   36 3208 4445 FO
  36   36 3291 4456 FO
  36   36 3374 4458 FO
  36   36 3457 4459 FO
  36   36 3540 4441 FO
  36   36 3624 4461 FO
  36   36 3707 4453 FO
  36   36 3791 4469 FO
  36   36 3874 4476 FO
  36   36 3958 4458 FO
  36   36 4041 4469 FO
  36   36 4125 4477 FO
  36   36 4208 4484 FO
  36   36 4291 4476 FO
  36   36 4374 4479 FO
  36   36 4458 4482 FO
  36   36 4541 4483 FO
gs 874 427 5209 4060 rc
47 6 84 1 53 -7 4738 4487 4 MP stroke
gr

  36   36 4791 4480 FO
  36   36 4875 4481 FO
gs 874 427 5209 4060 rc
26 5 82 -1 70 -4 5139 4487 4 MP stroke
gr

  36   36 5209 4483 FO
  36   36 5291 4482 FO
gs 874 427 5209 4060 rc
13 1 1 -1 5792 4487 3 MP stroke
gr

  36   36 5793 4486 FO
gs 874 427 5209 4060 rc
/c10 { 1.000000 0.700000 0.000000 sr} bdef
c10
0 581 959 1305 2 MP stroke
108 0 905 1305 2 MP stroke
108 0 905 1886 2 MP stroke
0 478 1045 1880 2 MP stroke
108 0 991 1880 2 MP stroke
108 0 991 2358 2 MP stroke
0 434 1130 2322 2 MP stroke
108 0 1076 2322 2 MP stroke
108 0 1076 2756 2 MP stroke
0 366 1215 2613 2 MP stroke
108 0 1161 2613 2 MP stroke
108 0 1161 2979 2 MP stroke
0 238 1299 2891 2 MP stroke
108 0 1245 2891 2 MP stroke
108 0 1245 3129 2 MP stroke
0 160 1385 3104 2 MP stroke
108 0 1331 3104 2 MP stroke
108 0 1331 3264 2 MP stroke
0 141 1470 3228 2 MP stroke
108 0 1416 3228 2 MP stroke
108 0 1416 3369 2 MP stroke
0 142 1556 3373 2 MP stroke
108 0 1502 3373 2 MP stroke
108 0 1502 3515 2 MP stroke
0 98 1642 3498 2 MP stroke
108 0 1588 3498 2 MP stroke
108 0 1588 3596 2 MP stroke
0 101 1727 3580 2 MP stroke
108 0 1673 3580 2 MP stroke
108 0 1673 3681 2 MP stroke
0 68 1811 3671 2 MP stroke
108 0 1757 3671 2 MP stroke
108 0 1757 3739 2 MP stroke
0 65 1896 3658 2 MP stroke
108 0 1842 3658 2 MP stroke
108 0 1842 3723 2 MP stroke
0 48 1981 3806 2 MP stroke
108 0 1927 3806 2 MP stroke
108 0 1927 3854 2 MP stroke
0 58 2067 3821 2 MP stroke
108 0 2013 3821 2 MP stroke
108 0 2013 3879 2 MP stroke
0 54 2152 3869 2 MP stroke
108 0 2098 3869 2 MP stroke
108 0 2098 3923 2 MP stroke
0 69 2238 3892 2 MP stroke
108 0 2184 3892 2 MP stroke
108 0 2184 3961 2 MP stroke
0 40 2324 3958 2 MP stroke
107 0 2270 3958 2 MP stroke
107 0 2270 3998 2 MP stroke
0 28 2408 3976 2 MP stroke
108 0 2354 3976 2 MP stroke
108 0 2354 4004 2 MP stroke
0 45 2493 3987 2 MP stroke
108 0 2439 3987 2 MP stroke
108 0 2439 4032 2 MP stroke
0 27 2578 4028 2 MP stroke
108 0 2524 4028 2 MP stroke
108 0 2524 4055 2 MP stroke
0 50 2664 4032 2 MP stroke
108 0 2610 4032 2 MP stroke
108 0 2610 4082 2 MP stroke
0 47 2749 4073 2 MP stroke
108 0 2695 4073 2 MP stroke
108 0 2695 4120 2 MP stroke
0 41 2835 4086 2 MP stroke
108 0 2781 4086 2 MP stroke
108 0 2781 4127 2 MP stroke
0 38 2920 4119 2 MP stroke
108 0 2866 4119 2 MP stroke
108 0 2866 4157 2 MP stroke
0 32 3005 4136 2 MP stroke
108 0 2951 4136 2 MP stroke
108 0 2951 4168 2 MP stroke
0 34 3091 4125 2 MP stroke
108 0 3037 4125 2 MP stroke
108 0 3037 4159 2 MP stroke
0 20 3174 4113 2 MP stroke
108 0 3120 4113 2 MP stroke
108 0 3120 4133 2 MP stroke
0 35 3259 4150 2 MP stroke
108 0 3205 4150 2 MP stroke
108 0 3205 4185 2 MP stroke
0 52 3345 4174 2 MP stroke
108 0 3291 4174 2 MP stroke
108 0 3291 4226 2 MP stroke
0 33 3431 4188 2 MP stroke
108 0 3377 4188 2 MP stroke
108 0 3377 4221 2 MP stroke
0 36 3516 4206 2 MP stroke
108 0 3462 4206 2 MP stroke
108 0 3462 4242 2 MP stroke
0 47 3602 4198 2 MP stroke
108 0 3548 4198 2 MP stroke
108 0 3548 4245 2 MP stroke
0 45 3687 4216 2 MP stroke
108 0 3633 4216 2 MP stroke
108 0 3633 4261 2 MP stroke
0 38 3773 4242 2 MP stroke
108 0 3719 4242 2 MP stroke
108 0 3719 4280 2 MP stroke
0 32 3857 4257 2 MP stroke
108 0 3803 4257 2 MP stroke
108 0 3803 4289 2 MP stroke
0 37 3942 4256 2 MP stroke
108 0 3888 4256 2 MP stroke
108 0 3888 4293 2 MP stroke
0 35 4028 4273 2 MP stroke
108 0 3974 4273 2 MP stroke
108 0 3974 4308 2 MP stroke
0 54 4113 4262 2 MP stroke
108 0 4059 4262 2 MP stroke
108 0 4059 4316 2 MP stroke
0 38 4199 4272 2 MP stroke
108 0 4145 4272 2 MP stroke
108 0 4145 4310 2 MP stroke
0 23 4284 4265 2 MP stroke
108 0 4230 4265 2 MP stroke
108 0 4230 4288 2 MP stroke
0 38 4369 4281 2 MP stroke
108 0 4315 4281 2 MP stroke
108 0 4315 4319 2 MP stroke
0 41 4454 4298 2 MP stroke
108 0 4400 4298 2 MP stroke
108 0 4400 4339 2 MP stroke
0 37 4539 4290 2 MP stroke
108 0 4485 4290 2 MP stroke
108 0 4485 4327 2 MP stroke
0 53 4624 4273 2 MP stroke
108 0 4570 4273 2 MP stroke
108 0 4570 4326 2 MP stroke
0 37 4710 4311 2 MP stroke
108 0 4656 4311 2 MP stroke
108 0 4656 4348 2 MP stroke
0 30 4795 4313 2 MP stroke
108 0 4741 4313 2 MP stroke
108 0 4741 4343 2 MP stroke
0 53 4881 4312 2 MP stroke
108 0 4827 4312 2 MP stroke
108 0 4827 4365 2 MP stroke
0 29 4966 4328 2 MP stroke
108 0 4912 4328 2 MP stroke
108 0 4912 4357 2 MP stroke
0 53 5050 4326 2 MP stroke
108 0 4996 4326 2 MP stroke
108 0 4996 4379 2 MP stroke
0 40 5136 4330 2 MP stroke
108 0 5082 4330 2 MP stroke
108 0 5082 4370 2 MP stroke
0 45 5221 4336 2 MP stroke
108 0 5167 4336 2 MP stroke
108 0 5167 4381 2 MP stroke
0 37 5307 4344 2 MP stroke
108 0 5253 4344 2 MP stroke
108 0 5253 4381 2 MP stroke
0 48 5392 4348 2 MP stroke
108 0 5338 4348 2 MP stroke
108 0 5338 4396 2 MP stroke
0 27 5478 4357 2 MP stroke
108 0 5424 4357 2 MP stroke
108 0 5424 4384 2 MP stroke
0 50 5570 4340 2 MP stroke
108 0 5516 4340 2 MP stroke
108 0 5516 4390 2 MP stroke
0 48 5666 4345 2 MP stroke
108 0 5612 4345 2 MP stroke
108 0 5612 4393 2 MP stroke
0 39 5789 4358 2 MP stroke
108 0 5735 4358 2 MP stroke
108 0 5735 4397 2 MP stroke
0 35 5920 4388 2 MP stroke
108 0 5866 4388 2 MP stroke
108 0 5866 4423 2 MP stroke
163 4 131 27 123 9 96 4 92 -6 86 -1 85 9 86 5 
85 8 86 -2 84 10 85 4 86 10 85 -2 86 30 85 -9 
85 -9 85 18 85 23 85 -14 86 2 85 -1 86 15 85 2 
84 12 86 22 85 18 86 -3 85 19 86 5 86 32 85 45 
83 -19 86 -10 85 14 85 32 86 9 85 40 86 16 85 31 
85 20 84 12 86 51 86 31 85 46 86 20 85 139 85 -14 
84 75 85 83 86 103 86 146 85 114 86 174 84 214 85 257 
85 420 86 523 85 1169 874 427 60 MP stroke
gr

c10
  36   36  959 1596 FO
  36   36 1045 2119 FO
  36   36 1130 2539 FO
  36   36 1215 2796 FO
  36   36 1299 3010 FO
  36   36 1385 3184 FO
  36   36 1470 3298 FO
  36   36 1556 3444 FO
  36   36 1642 3547 FO
  36   36 1727 3630 FO
  36   36 1811 3705 FO
  36   36 1896 3691 FO
  36   36 1981 3830 FO
  36   36 2067 3850 FO
  36   36 2152 3896 FO
  36   36 2238 3927 FO
  36   36 2324 3978 FO
  36   36 2408 3990 FO
  36   36 2493 4010 FO
  36   36 2578 4041 FO
  36   36 2664 4057 FO
  36   36 2749 4097 FO
  36   36 2835 4106 FO
  36   36 2920 4138 FO
  36   36 3005 4152 FO
  36   36 3091 4142 FO
  36   36 3174 4123 FO
  36   36 3259 4168 FO
  36   36 3345 4200 FO
  36   36 3431 4205 FO
  36   36 3516 4224 FO
  36   36 3602 4221 FO
  36   36 3687 4239 FO
  36   36 3773 4261 FO
  36   36 3857 4273 FO
  36   36 3942 4275 FO
  36   36 4028 4290 FO
  36   36 4113 4289 FO
  36   36 4199 4291 FO
  36   36 4284 4277 FO
  36   36 4369 4300 FO
  36   36 4454 4318 FO
  36   36 4539 4309 FO
  36   36 4624 4300 FO
  36   36 4710 4330 FO
  36   36 4795 4328 FO
  36   36 4881 4338 FO
  36   36 4966 4342 FO
  36   36 5050 4352 FO
  36   36 5136 4350 FO
  36   36 5221 4358 FO
  36   36 5307 4363 FO
  36   36 5392 4372 FO
  36   36 5478 4371 FO
  36   36 5570 4365 FO
  36   36 5666 4369 FO
  36   36 5789 4378 FO
  36   36 5920 4405 FO
gs 874 427 5209 4060 rc
gr

0 sg
%%IncludeResource: font Helvetica
/Helvetica /ISOLatin1Encoding 168 FMSR

1282  156 mt 
(Fluorescence decay at different bleaching intensities / rat\
es) s
%%IncludeResource: font Helvetica
/Helvetica /ISOLatin1Encoding 144 FMSR

2861  327 mt 
(TetR - mother lobe) s
3239 4792 mt 
(time \(s\)) s
 552 2972 mt  -90 rotate
(% Fluorescence) s
90 rotate
gs 874 427 5209 4060 rc
0 80 978 1192 2 MP stroke
104 0 926 1192 2 MP stroke
104 0 926 1272 2 MP stroke
0 79 1082 1775 2 MP stroke
104 0 1030 1775 2 MP stroke
104 0 1030 1854 2 MP stroke
0 84 1186 2247 2 MP stroke
104 0 1134 2247 2 MP stroke
104 0 1134 2331 2 MP stroke
0 70 1290 2639 2 MP stroke
104 0 1238 2639 2 MP stroke
104 0 1238 2709 2 MP stroke
0 75 1394 2948 2 MP stroke
104 0 1342 2948 2 MP stroke
104 0 1342 3023 2 MP stroke
0 65 1498 3218 2 MP stroke
105 0 1446 3218 2 MP stroke
105 0 1446 3283 2 MP stroke
0 62 1603 3437 2 MP stroke
104 0 1551 3437 2 MP stroke
104 0 1551 3499 2 MP stroke
0 52 1707 3621 2 MP stroke
104 0 1655 3621 2 MP stroke
104 0 1655 3673 2 MP stroke
0 53 1811 3766 2 MP stroke
104 0 1759 3766 2 MP stroke
104 0 1759 3819 2 MP stroke
0 50 1915 3890 2 MP stroke
104 0 1863 3890 2 MP stroke
104 0 1863 3940 2 MP stroke
0 43 2019 3992 2 MP stroke
104 0 1967 3992 2 MP stroke
104 0 1967 4035 2 MP stroke
0 44 2123 4074 2 MP stroke
105 0 2071 4074 2 MP stroke
105 0 2071 4118 2 MP stroke
0 38 2228 4145 2 MP stroke
104 0 2176 4145 2 MP stroke
104 0 2176 4183 2 MP stroke
0 35 2332 4204 2 MP stroke
104 0 2280 4204 2 MP stroke
104 0 2280 4239 2 MP stroke
0 33 2436 4252 2 MP stroke
104 0 2384 4252 2 MP stroke
104 0 2384 4285 2 MP stroke
0 27 2540 4292 2 MP stroke
104 0 2488 4292 2 MP stroke
104 0 2488 4319 2 MP stroke
0 24 2644 4325 2 MP stroke
104 0 2592 4325 2 MP stroke
104 0 2592 4349 2 MP stroke
0 22 2748 4352 2 MP stroke
104 0 2696 4352 2 MP stroke
104 0 2696 4374 2 MP stroke
0 18 2853 4375 2 MP stroke
105 0 2800 4375 2 MP stroke
105 0 2800 4393 2 MP stroke
0 17 2957 4394 2 MP stroke
104 0 2905 4394 2 MP stroke
104 0 2905 4411 2 MP stroke
0 18 3061 4408 2 MP stroke
104 0 3009 4408 2 MP stroke
104 0 3009 4426 2 MP stroke
0 15 3165 4421 2 MP stroke
104 0 3113 4421 2 MP stroke
104 0 3113 4436 2 MP stroke
0 14 3269 4432 2 MP stroke
104 0 3217 4432 2 MP stroke
104 0 3217 4446 2 MP stroke
0 13 3373 4441 2 MP stroke
104 0 3321 4441 2 MP stroke
104 0 3321 4454 2 MP stroke
0 12 3478 4448 2 MP stroke
105 0 3425 4448 2 MP stroke
105 0 3425 4460 2 MP stroke
0 11 3582 4454 2 MP stroke
104 0 3530 4454 2 MP stroke
104 0 3530 4465 2 MP stroke
0 9 3686 4459 2 MP stroke
104 0 3634 4459 2 MP stroke
104 0 3634 4468 2 MP stroke
0 9 3790 4463 2 MP stroke
104 0 3738 4463 2 MP stroke
104 0 3738 4472 2 MP stroke
0 8 3894 4467 2 MP stroke
104 0 3842 4467 2 MP stroke
104 0 3842 4475 2 MP stroke
0 7 3998 4470 2 MP stroke
104 0 3946 4470 2 MP stroke
104 0 3946 4477 2 MP stroke
0 8 4102 4472 2 MP stroke
105 0 4050 4472 2 MP stroke
105 0 4050 4480 2 MP stroke
0 7 4207 4474 2 MP stroke
104 0 4155 4474 2 MP stroke
104 0 4155 4481 2 MP stroke
0 6 4311 4476 2 MP stroke
104 0 4259 4476 2 MP stroke
104 0 4259 4482 2 MP stroke
0 6 4415 4477 2 MP stroke
104 0 4363 4477 2 MP stroke
104 0 4363 4483 2 MP stroke
0 5 4519 4478 2 MP stroke
104 0 4467 4478 2 MP stroke
104 0 4467 4483 2 MP stroke
0 4 4623 4480 2 MP stroke
104 0 4571 4480 2 MP stroke
104 0 4571 4484 2 MP stroke
0 3 4727 4481 2 MP stroke
105 0 4675 4481 2 MP stroke
105 0 4675 4484 2 MP stroke
0 3 4832 4481 2 MP stroke
104 0 4780 4481 2 MP stroke
104 0 4780 4484 2 MP stroke
0 3 4936 4482 2 MP stroke
104 0 4884 4482 2 MP stroke
104 0 4884 4485 2 MP stroke
0 2 5040 4483 2 MP stroke
104 0 4988 4483 2 MP stroke
104 0 4988 4485 2 MP stroke
0 2 5144 4483 2 MP stroke
104 0 5092 4483 2 MP stroke
104 0 5092 4485 2 MP stroke
0 2 5248 4483 2 MP stroke
104 0 5196 4483 2 MP stroke
104 0 5196 4485 2 MP stroke
0 1 5352 4484 2 MP stroke
104 0 5300 4484 2 MP stroke
104 0 5300 4485 2 MP stroke
0 2 5457 4484 2 MP stroke
105 0 5404 4484 2 MP stroke
105 0 5404 4486 2 MP stroke
0 2 5561 4484 2 MP stroke
104 0 5509 4484 2 MP stroke
104 0 5509 4486 2 MP stroke
0 2 5665 4484 2 MP stroke
104 0 5613 4484 2 MP stroke
104 0 5613 4486 2 MP stroke
0 1 5769 4485 2 MP stroke
104 0 5717 4485 2 MP stroke
104 0 5717 4486 2 MP stroke
0 1 5873 4485 2 MP stroke
104 0 5821 4485 2 MP stroke
104 0 5821 4486 2 MP stroke
0 1 5977 4485 2 MP stroke
104 0 5925 4485 2 MP stroke
104 0 5925 4486 2 MP stroke
0 1 6082 4485 2 MP stroke
54 0 6029 4485 2 MP stroke
54 0 6029 4486 2 MP stroke
105 0 104 0 104 0 104 0 104 0 104 0 105 0 104 1 
104 0 104 0 104 1 104 0 105 0 104 1 104 1 104 1 
104 1 104 2 105 1 104 2 104 3 104 3 104 4 104 4 
104 6 105 7 104 8 104 10 104 12 104 14 104 19 105 21 
104 26 104 32 104 36 104 48 104 57 105 68 104 82 104 99 
104 122 104 146 104 179 105 218 104 265 104 311 104 385 104 474 
104 583 104 805 874 427 51 MP stroke
0.5 sg
0 72 978 878 2 MP stroke
104 0 926 878 2 MP stroke
104 0 926 950 2 MP stroke
0 74 1082 1271 2 MP stroke
104 0 1030 1271 2 MP stroke
104 0 1030 1345 2 MP stroke
0 81 1186 1612 2 MP stroke
104 0 1134 1612 2 MP stroke
104 0 1134 1693 2 MP stroke
0 82 1290 1917 2 MP stroke
104 0 1238 1917 2 MP stroke
104 0 1238 1999 2 MP stroke
0 89 1394 2187 2 MP stroke
104 0 1342 2187 2 MP stroke
104 0 1342 2276 2 MP stroke
0 79 1498 2435 2 MP stroke
105 0 1446 2435 2 MP stroke
105 0 1446 2514 2 MP stroke
0 78 1603 2656 2 MP stroke
104 0 1551 2656 2 MP stroke
104 0 1551 2734 2 MP stroke
0 72 1707 2849 2 MP stroke
104 0 1655 2849 2 MP stroke
104 0 1655 2921 2 MP stroke
0 72 1811 3016 2 MP stroke
104 0 1759 3016 2 MP stroke
104 0 1759 3088 2 MP stroke
0 73 1915 3172 2 MP stroke
104 0 1863 3172 2 MP stroke
104 0 1863 3245 2 MP stroke
0 71 2019 3310 2 MP stroke
104 0 1967 3310 2 MP stroke
104 0 1967 3381 2 MP stroke
0 64 2123 3437 2 MP stroke
105 0 2071 3437 2 MP stroke
105 0 2071 3501 2 MP stroke
0 59 2228 3552 2 MP stroke
104 0 2176 3552 2 MP stroke
104 0 2176 3611 2 MP stroke
0 57 2332 3650 2 MP stroke
104 0 2280 3650 2 MP stroke
104 0 2280 3707 2 MP stroke
0 55 2436 3738 2 MP stroke
104 0 2384 3738 2 MP stroke
104 0 2384 3793 2 MP stroke
0 55 2540 3815 2 MP stroke
104 0 2488 3815 2 MP stroke
104 0 2488 3870 2 MP stroke
0 52 2644 3887 2 MP stroke
104 0 2592 3887 2 MP stroke
104 0 2592 3939 2 MP stroke
0 47 2748 3954 2 MP stroke
104 0 2696 3954 2 MP stroke
104 0 2696 4001 2 MP stroke
0 45 2853 4010 2 MP stroke
105 0 2800 4010 2 MP stroke
105 0 2800 4055 2 MP stroke
0 42 2957 4060 2 MP stroke
104 0 2905 4060 2 MP stroke
104 0 2905 4102 2 MP stroke
0 38 3061 4105 2 MP stroke
104 0 3009 4105 2 MP stroke
104 0 3009 4143 2 MP stroke
0 34 3165 4146 2 MP stroke
104 0 3113 4146 2 MP stroke
104 0 3113 4180 2 MP stroke
0 33 3269 4182 2 MP stroke
104 0 3217 4182 2 MP stroke
104 0 3217 4215 2 MP stroke
0 33 3373 4213 2 MP stroke
104 0 3321 4213 2 MP stroke
104 0 3321 4246 2 MP stroke
0 30 3478 4243 2 MP stroke
105 0 3425 4243 2 MP stroke
105 0 3425 4273 2 MP stroke
0 25 3582 4269 2 MP stroke
104 0 3530 4269 2 MP stroke
104 0 3530 4294 2 MP stroke
0 25 3686 4291 2 MP stroke
104 0 3634 4291 2 MP stroke
104 0 3634 4316 2 MP stroke
0 27 3790 4311 2 MP stroke
104 0 3738 4311 2 MP stroke
104 0 3738 4338 2 MP stroke
0 24 3894 4332 2 MP stroke
104 0 3842 4332 2 MP stroke
104 0 3842 4356 2 MP stroke
0 22 3998 4347 2 MP stroke
104 0 3946 4347 2 MP stroke
104 0 3946 4369 2 MP stroke
0 21 4102 4362 2 MP stroke
105 0 4050 4362 2 MP stroke
105 0 4050 4383 2 MP stroke
0 22 4207 4374 2 MP stroke
104 0 4155 4374 2 MP stroke
104 0 4155 4396 2 MP stroke
0 21 4311 4384 2 MP stroke
104 0 4259 4384 2 MP stroke
104 0 4259 4405 2 MP stroke
0 20 4415 4395 2 MP stroke
104 0 4363 4395 2 MP stroke
104 0 4363 4415 2 MP stroke
0 19 4519 4404 2 MP stroke
104 0 4467 4404 2 MP stroke
104 0 4467 4423 2 MP stroke
0 17 4623 4413 2 MP stroke
104 0 4571 4413 2 MP stroke
104 0 4571 4430 2 MP stroke
0 17 4727 4419 2 MP stroke
105 0 4675 4419 2 MP stroke
105 0 4675 4436 2 MP stroke
0 15 4832 4426 2 MP stroke
104 0 4780 4426 2 MP stroke
104 0 4780 4441 2 MP stroke
0 15 4936 4432 2 MP stroke
104 0 4884 4432 2 MP stroke
104 0 4884 4447 2 MP stroke
0 15 5040 4436 2 MP stroke
104 0 4988 4436 2 MP stroke
104 0 4988 4451 2 MP stroke
0 14 5144 4441 2 MP stroke
104 0 5092 4441 2 MP stroke
104 0 5092 4455 2 MP stroke
0 13 5248 4446 2 MP stroke
104 0 5196 4446 2 MP stroke
104 0 5196 4459 2 MP stroke
0 12 5352 4450 2 MP stroke
104 0 5300 4450 2 MP stroke
104 0 5300 4462 2 MP stroke
0 11 5457 4453 2 MP stroke
105 0 5404 4453 2 MP stroke
105 0 5404 4464 2 MP stroke
0 10 5561 4457 2 MP stroke
104 0 5509 4457 2 MP stroke
104 0 5509 4467 2 MP stroke
0 9 5665 4460 2 MP stroke
104 0 5613 4460 2 MP stroke
104 0 5613 4469 2 MP stroke
0 9 5769 4462 2 MP stroke
104 0 5717 4462 2 MP stroke
104 0 5717 4471 2 MP stroke
0 9 5873 4465 2 MP stroke
104 0 5821 4465 2 MP stroke
104 0 5821 4474 2 MP stroke
0 9 5977 4466 2 MP stroke
104 0 5925 4466 2 MP stroke
104 0 5925 4475 2 MP stroke
0 8 6082 4468 2 MP stroke
54 0 6029 4468 2 MP stroke
54 0 6029 4476 2 MP stroke
105 1 104 2 104 2 104 3 104 2 104 3 105 3 104 4 
104 4 104 5 104 3 104 6 105 7 104 6 104 8 104 8 
104 10 104 10 105 12 104 15 104 14 104 19 104 21 104 23 
104 23 105 28 104 31 104 36 104 39 104 43 104 49 105 55 
104 64 104 71 104 76 104 87 104 97 105 113 104 123 104 137 
104 157 104 167 104 190 105 220 104 244 104 273 104 306 104 344 
104 394 104 487 874 427 51 MP stroke
0.8 sg
0 79 978 669 2 MP stroke
104 0 926 669 2 MP stroke
104 0 926 748 2 MP stroke
0 78 1082 904 2 MP stroke
104 0 1030 904 2 MP stroke
104 0 1030 982 2 MP stroke
0 79 1186 1119 2 MP stroke
104 0 1134 1119 2 MP stroke
104 0 1134 1198 2 MP stroke
0 87 1290 1315 2 MP stroke
104 0 1238 1315 2 MP stroke
104 0 1238 1402 2 MP stroke
0 73 1394 1510 2 MP stroke
104 0 1342 1510 2 MP stroke
104 0 1342 1583 2 MP stroke
0 82 1498 1693 2 MP stroke
105 0 1446 1693 2 MP stroke
105 0 1446 1775 2 MP stroke
0 79 1603 1861 2 MP stroke
104 0 1551 1861 2 MP stroke
104 0 1551 1940 2 MP stroke
0 82 1707 2020 2 MP stroke
104 0 1655 2020 2 MP stroke
104 0 1655 2102 2 MP stroke
0 76 1811 2171 2 MP stroke
104 0 1759 2171 2 MP stroke
104 0 1759 2247 2 MP stroke
0 79 1915 2305 2 MP stroke
104 0 1863 2305 2 MP stroke
104 0 1863 2384 2 MP stroke
0 72 2019 2441 2 MP stroke
104 0 1967 2441 2 MP stroke
104 0 1967 2513 2 MP stroke
0 76 2123 2561 2 MP stroke
105 0 2071 2561 2 MP stroke
105 0 2071 2637 2 MP stroke
0 64 2228 2684 2 MP stroke
104 0 2176 2684 2 MP stroke
104 0 2176 2748 2 MP stroke
0 70 2332 2786 2 MP stroke
104 0 2280 2786 2 MP stroke
104 0 2280 2856 2 MP stroke
0 64 2436 2895 2 MP stroke
104 0 2384 2895 2 MP stroke
104 0 2384 2959 2 MP stroke
0 70 2540 2984 2 MP stroke
104 0 2488 2984 2 MP stroke
104 0 2488 3054 2 MP stroke
0 72 2644 3069 2 MP stroke
104 0 2592 3069 2 MP stroke
104 0 2592 3141 2 MP stroke
0 68 2748 3159 2 MP stroke
104 0 2696 3159 2 MP stroke
104 0 2696 3227 2 MP stroke
0 64 2853 3239 2 MP stroke
105 0 2800 3239 2 MP stroke
105 0 2800 3303 2 MP stroke
0 65 2957 3311 2 MP stroke
104 0 2905 3311 2 MP stroke
104 0 2905 3376 2 MP stroke
0 62 3061 3381 2 MP stroke
104 0 3009 3381 2 MP stroke
104 0 3009 3443 2 MP stroke
0 58 3165 3451 2 MP stroke
104 0 3113 3451 2 MP stroke
104 0 3113 3509 2 MP stroke
0 53 3269 3513 2 MP stroke
104 0 3217 3513 2 MP stroke
104 0 3217 3566 2 MP stroke
0 51 3373 3573 2 MP stroke
104 0 3321 3573 2 MP stroke
104 0 3321 3624 2 MP stroke
0 47 3478 3630 2 MP stroke
105 0 3425 3630 2 MP stroke
105 0 3425 3677 2 MP stroke
0 45 3582 3683 2 MP stroke
104 0 3530 3683 2 MP stroke
104 0 3530 3728 2 MP stroke
0 47 3686 3730 2 MP stroke
104 0 3634 3730 2 MP stroke
104 0 3634 3777 2 MP stroke
0 44 3790 3776 2 MP stroke
104 0 3738 3776 2 MP stroke
104 0 3738 3820 2 MP stroke
0 42 3894 3820 2 MP stroke
104 0 3842 3820 2 MP stroke
104 0 3842 3862 2 MP stroke
0 41 3998 3858 2 MP stroke
104 0 3946 3858 2 MP stroke
104 0 3946 3899 2 MP stroke
0 42 4102 3896 2 MP stroke
105 0 4050 3896 2 MP stroke
105 0 4050 3938 2 MP stroke
0 39 4207 3932 2 MP stroke
104 0 4155 3932 2 MP stroke
104 0 4155 3971 2 MP stroke
0 43 4311 3961 2 MP stroke
104 0 4259 3961 2 MP stroke
104 0 4259 4004 2 MP stroke
0 35 4415 3996 2 MP stroke
104 0 4363 3996 2 MP stroke
104 0 4363 4031 2 MP stroke
0 38 4519 4024 2 MP stroke
104 0 4467 4024 2 MP stroke
104 0 4467 4062 2 MP stroke
0 40 4623 4050 2 MP stroke
104 0 4571 4050 2 MP stroke
104 0 4571 4090 2 MP stroke
0 35 4727 4076 2 MP stroke
105 0 4675 4076 2 MP stroke
105 0 4675 4111 2 MP stroke
0 36 4832 4099 2 MP stroke
104 0 4780 4099 2 MP stroke
104 0 4780 4135 2 MP stroke
0 37 4936 4121 2 MP stroke
104 0 4884 4121 2 MP stroke
104 0 4884 4158 2 MP stroke
0 34 5040 4144 2 MP stroke
104 0 4988 4144 2 MP stroke
104 0 4988 4178 2 MP stroke
0 34 5144 4164 2 MP stroke
104 0 5092 4164 2 MP stroke
104 0 5092 4198 2 MP stroke
0 32 5248 4183 2 MP stroke
104 0 5196 4183 2 MP stroke
104 0 5196 4215 2 MP stroke
0 30 5352 4202 2 MP stroke
104 0 5300 4202 2 MP stroke
104 0 5300 4232 2 MP stroke
0 32 5457 4217 2 MP stroke
105 0 5404 4217 2 MP stroke
105 0 5404 4249 2 MP stroke
0 28 5561 4235 2 MP stroke
104 0 5509 4235 2 MP stroke
104 0 5509 4263 2 MP stroke
0 28 5665 4249 2 MP stroke
104 0 5613 4249 2 MP stroke
104 0 5613 4277 2 MP stroke
0 30 5769 4261 2 MP stroke
104 0 5717 4261 2 MP stroke
104 0 5717 4291 2 MP stroke
0 28 5873 4276 2 MP stroke
104 0 5821 4276 2 MP stroke
104 0 5821 4304 2 MP stroke
0 26 5977 4288 2 MP stroke
104 0 5925 4288 2 MP stroke
104 0 5925 4314 2 MP stroke
0 27 6082 4299 2 MP stroke
54 0 6029 4299 2 MP stroke
54 0 6029 4326 2 MP stroke
105 11 104 11 104 14 104 13 104 14 104 16 105 16 104 18 
104 18 104 20 104 22 104 22 105 24 104 23 104 27 104 30 
104 30 104 32 105 34 104 38 104 38 104 43 104 44 104 49 
104 51 105 56 104 58 104 60 104 68 104 69 104 72 105 78 
104 88 104 86 104 92 104 106 104 105 105 117 104 122 104 132 
104 136 104 148 104 160 105 167 104 188 104 187 104 200 104 216 
104 235 104 281 874 427 51 MP stroke
/c11 { 0.000000 0.800000 1.000000 sr} bdef
c11
0 77 978 1971 2 MP stroke
104 0 926 1971 2 MP stroke
104 0 926 2048 2 MP stroke
0 65 1082 2844 2 MP stroke
104 0 1030 2844 2 MP stroke
104 0 1030 2909 2 MP stroke
0 57 1186 3394 2 MP stroke
104 0 1134 3394 2 MP stroke
104 0 1134 3451 2 MP stroke
0 56 1290 3760 2 MP stroke
104 0 1238 3760 2 MP stroke
104 0 1238 3816 2 MP stroke
0 42 1394 4007 2 MP stroke
104 0 1342 4007 2 MP stroke
104 0 1342 4049 2 MP stroke
0 38 1498 4163 2 MP stroke
105 0 1446 4163 2 MP stroke
105 0 1446 4201 2 MP stroke
0 28 1603 4270 2 MP stroke
104 0 1551 4270 2 MP stroke
104 0 1551 4298 2 MP stroke
0 21 1707 4343 2 MP stroke
104 0 1655 4343 2 MP stroke
104 0 1655 4364 2 MP stroke
0 19 1811 4388 2 MP stroke
104 0 1759 4388 2 MP stroke
104 0 1759 4407 2 MP stroke
0 15 1915 4421 2 MP stroke
104 0 1863 4421 2 MP stroke
104 0 1863 4436 2 MP stroke
0 13 2019 4442 2 MP stroke
104 0 1967 4442 2 MP stroke
104 0 1967 4455 2 MP stroke
0 10 2123 4455 2 MP stroke
105 0 2071 4455 2 MP stroke
105 0 2071 4465 2 MP stroke
0 10 2228 4464 2 MP stroke
104 0 2176 4464 2 MP stroke
104 0 2176 4474 2 MP stroke
0 8 2332 4471 2 MP stroke
104 0 2280 4471 2 MP stroke
104 0 2280 4479 2 MP stroke
0 5 2436 4476 2 MP stroke
104 0 2384 4476 2 MP stroke
104 0 2384 4481 2 MP stroke
0 4 2540 4479 2 MP stroke
104 0 2488 4479 2 MP stroke
104 0 2488 4483 2 MP stroke
0 3 2644 4481 2 MP stroke
104 0 2592 4481 2 MP stroke
104 0 2592 4484 2 MP stroke
0 3 2748 4482 2 MP stroke
104 0 2696 4482 2 MP stroke
104 0 2696 4485 2 MP stroke
0 2 2853 4483 2 MP stroke
105 0 2800 4483 2 MP stroke
105 0 2800 4485 2 MP stroke
0 2 2957 4484 2 MP stroke
104 0 2905 4484 2 MP stroke
104 0 2905 4486 2 MP stroke
0 2 3061 4484 2 MP stroke
104 0 3009 4484 2 MP stroke
104 0 3009 4486 2 MP stroke
0 1 3165 4485 2 MP stroke
104 0 3113 4485 2 MP stroke
104 0 3113 4486 2 MP stroke
0 1 3269 4485 2 MP stroke
104 0 3217 4485 2 MP stroke
104 0 3217 4486 2 MP stroke
0 1 3373 4485 2 MP stroke
104 0 3321 4485 2 MP stroke
104 0 3321 4486 2 MP stroke
0 1 3478 4485 2 MP stroke
105 0 3425 4485 2 MP stroke
105 0 3425 4486 2 MP stroke
0 1 3582 4485 2 MP stroke
104 0 3530 4485 2 MP stroke
104 0 3530 4486 2 MP stroke
0 1 3686 4485 2 MP stroke
104 0 3634 4485 2 MP stroke
104 0 3634 4486 2 MP stroke
0 1 3790 4485 2 MP stroke
104 0 3738 4485 2 MP stroke
104 0 3738 4486 2 MP stroke
0 1 3894 4485 2 MP stroke
104 0 3842 4485 2 MP stroke
104 0 3842 4486 2 MP stroke
0 1 3998 4485 2 MP stroke
104 0 3946 4485 2 MP stroke
104 0 3946 4486 2 MP stroke
0 1 4102 4485 2 MP stroke
105 0 4050 4485 2 MP stroke
105 0 4050 4486 2 MP stroke
4207 4486 PD
104 0 4155 4486 2 MP stroke
104 0 4155 4486 2 MP stroke
4311 4486 PD
104 0 4259 4486 2 MP stroke
104 0 4259 4486 2 MP stroke
0 1 4415 4485 2 MP stroke
104 0 4363 4485 2 MP stroke
104 0 4363 4486 2 MP stroke
4519 4486 PD
104 0 4467 4486 2 MP stroke
104 0 4467 4486 2 MP stroke
4623 4486 PD
104 0 4571 4486 2 MP stroke
104 0 4571 4486 2 MP stroke
4727 4486 PD
105 0 4675 4486 2 MP stroke
105 0 4675 4486 2 MP stroke
4832 4486 PD
104 0 4780 4486 2 MP stroke
104 0 4780 4486 2 MP stroke
4936 4486 PD
104 0 4884 4486 2 MP stroke
104 0 4884 4486 2 MP stroke
5040 4486 PD
104 0 4988 4486 2 MP stroke
104 0 4988 4486 2 MP stroke
5144 4486 PD
104 0 5092 4486 2 MP stroke
104 0 5092 4486 2 MP stroke
5248 4486 PD
104 0 5196 4486 2 MP stroke
104 0 5196 4486 2 MP stroke
5352 4486 PD
104 0 5300 4486 2 MP stroke
104 0 5300 4486 2 MP stroke
5457 4486 PD
105 0 5404 4486 2 MP stroke
105 0 5404 4486 2 MP stroke
5561 4486 PD
104 0 5509 4486 2 MP stroke
104 0 5509 4486 2 MP stroke
5665 4486 PD
104 0 5613 4486 2 MP stroke
104 0 5613 4486 2 MP stroke
5769 4486 PD
104 0 5717 4486 2 MP stroke
104 0 5717 4486 2 MP stroke
5873 4486 PD
104 0 5821 4486 2 MP stroke
104 0 5821 4486 2 MP stroke
5977 4486 PD
104 0 5925 4486 2 MP stroke
104 0 5925 4486 2 MP stroke
6082 4486 PD
54 0 6029 4486 2 MP stroke
54 0 6029 4486 2 MP stroke
105 0 104 0 104 0 104 0 104 0 104 0 105 0 104 0 
104 0 104 0 104 0 104 0 105 0 104 0 104 0 104 1 
104 -1 104 0 105 1 104 0 104 0 104 0 104 0 104 0 
104 0 105 0 104 0 104 0 104 0 104 0 104 1 105 0 
104 1 104 2 104 3 104 3 104 6 105 9 104 12 104 19 
104 31 104 44 104 70 105 102 104 154 104 240 104 365 104 546 
104 867 104 1583 874 427 51 MP stroke
gr

c11
0 sg
%%IncludeResource: font Helvetica
/Helvetica /ISOLatin1Encoding 120 FMSR

 857 4529 mt 
( ) s
6066  469 mt 
( ) s
1 sg
0 1216 939 0 0 -1216 5084 1703 4 MP
PP
-939 0 0 1216 939 0 0 -1216 5084 1703 5 MP stroke
4 w
DO
SO
6 w
0 sg
5084 1703 mt 6023 1703 L
5084  487 mt 6023  487 L
5084 1703 mt 5084  487 L
6023 1703 mt 6023  487 L
5084 1703 mt 6023 1703 L
5084 1703 mt 5084  487 L
5084 1703 mt 6023 1703 L
5084  487 mt 6023  487 L
5084 1703 mt 5084  487 L
6023 1703 mt 6023  487 L
5501  623 mt 
(60%) s
gs 5084 487 940 1217 rc
c8
320 0 5148 580 2 MP stroke
gs 5235 507 147 147 rc
  36   36 5308  580 FO
gr

gr

c8
0 sg
5501  773 mt 
(30%) s
gs 5084 487 940 1217 rc
c9
320 0 5148 731 2 MP stroke
gs 5235 658 147 147 rc
  36   36 5308  731 FO
gr

gr

c9
0 sg
5501  924 mt 
(15%) s
gs 5084 487 940 1217 rc
c10
320 0 5148 881 2 MP stroke
gs 5235 808 147 147 rc
  36   36 5308  881 FO
gr

gr

c10
0 sg
5501 1104 mt 
(110 s) s
%%IncludeResource: font Helvetica
/Helvetica /ISOLatin1Encoding 96 FMSR

5794 1044 mt 
(-1) s
gs 5084 487 940 1217 rc
320 0 5148 1048 2 MP stroke
gr

%%IncludeResource: font Helvetica
/Helvetica /ISOLatin1Encoding 120 FMSR

5501 1286 mt 
(55 s) s
%%IncludeResource: font Helvetica
/Helvetica /ISOLatin1Encoding 96 FMSR

5727 1226 mt 
(-1) s
gs 5084 487 940 1217 rc
0.5 sg
320 0 5148 1230 2 MP stroke
gr

0.5 sg
0 sg
%%IncludeResource: font Helvetica
/Helvetica /ISOLatin1Encoding 120 FMSR

5501 1468 mt 
(27.5 s) s
%%IncludeResource: font Helvetica
/Helvetica /ISOLatin1Encoding 96 FMSR

5827 1408 mt 
(-1) s
gs 5084 487 940 1217 rc
0.8 sg
320 0 5148 1411 2 MP stroke
gr

0.8 sg
0 sg
%%IncludeResource: font Helvetica
/Helvetica /ISOLatin1Encoding 120 FMSR

5501 1650 mt 
(500 s) s
%%IncludeResource: font Helvetica
/Helvetica /ISOLatin1Encoding 96 FMSR

5794 1590 mt 
(-1) s
gs 5084 487 940 1217 rc
c11
320 0 5148 1593 2 MP stroke
gr

c11

end %%Color Dict

eplot
%%EndObject

epage
end

showpage

%%Trailer
%%EOF
