%!PS-Adobe-3.0 EPSF-3.0
%%Creator: MATLAB, The MathWorks, Inc. Version 7.14.0.739 (R2012a). Operating System: Darwin 11.4.2 Darwin Kernel Version 11.4.2: Thu Aug 23 16:25:48 PDT 2012; root:xnu-1699.32.7~1/RELEASE_X86_64 x86_64.
%%Title: /Users/zavalaeder/Dropbox/Yeast/bleaching_rate/figures/laser_daughter_k500.eps
%%CreationDate: 11/26/2012  09:14:24
%%DocumentNeededFonts: Helvetica
%%DocumentProcessColors: Cyan Magenta Yellow Black
%%LanguageLevel: 2
%%Pages: 1
%%BoundingBox:    25   186   587   606
%%EndComments

%%BeginProlog
% MathWorks dictionary
/MathWorks 160 dict begin
% definition operators
/bdef {bind def} bind def
/ldef {load def} bind def
/xdef {exch def} bdef
/xstore {exch store} bdef
% operator abbreviations
/c  /clip ldef
/cc /concat ldef
/cp /closepath ldef
/gr /grestore ldef
/gs /gsave ldef
/mt /moveto ldef
/np /newpath ldef
/cm /currentmatrix ldef
/sm /setmatrix ldef
/rm /rmoveto ldef
/rl /rlineto ldef
/s {show newpath} bdef
/sc {setcmykcolor} bdef
/sr /setrgbcolor ldef
/sg /setgray ldef
/w /setlinewidth ldef
/j /setlinejoin ldef
/cap /setlinecap ldef
/rc {rectclip} bdef
/rf {rectfill} bdef
% page state control
/pgsv () def
/bpage {/pgsv save def} bdef
/epage {pgsv restore} bdef
/bplot /gsave ldef
/eplot {stroke grestore} bdef
% orientation switch
/portraitMode 0 def /landscapeMode 1 def /rotateMode 2 def
% coordinate system mappings
/dpi2point 0 def
% font control
/FontSize 0 def
/FMS {/FontSize xstore findfont [FontSize 0 0 FontSize neg 0 0]
  makefont setfont} bdef
/reencode {exch dup where {pop load} {pop StandardEncoding} ifelse
  exch dup 3 1 roll findfont dup length dict begin
  { 1 index /FID ne {def}{pop pop} ifelse } forall
  /Encoding exch def currentdict end definefont pop} bdef
/isroman {findfont /CharStrings get /Agrave known} bdef
/FMSR {3 1 roll 1 index dup isroman {reencode} {pop pop} ifelse
  exch FMS} bdef
/csm {1 dpi2point div -1 dpi2point div scale neg translate
 dup landscapeMode eq {pop -90 rotate}
  {rotateMode eq {90 rotate} if} ifelse} bdef
% line types: solid, dotted, dashed, dotdash
/SO { [] 0 setdash } bdef
/DO { [.5 dpi2point mul 4 dpi2point mul] 0 setdash } bdef
/DA { [6 dpi2point mul] 0 setdash } bdef
/DD { [.5 dpi2point mul 4 dpi2point mul 6 dpi2point mul 4
  dpi2point mul] 0 setdash } bdef
% macros for lines and objects
/L {lineto stroke} bdef
/MP {3 1 roll moveto 1 sub {rlineto} repeat} bdef
/AP {{rlineto} repeat} bdef
/PDlw -1 def
/W {/PDlw currentlinewidth def setlinewidth} def
/PP {closepath eofill} bdef
/DP {closepath stroke} bdef
/MR {4 -2 roll moveto dup  0 exch rlineto exch 0 rlineto
  neg 0 exch rlineto closepath} bdef
/FR {MR stroke} bdef
/PR {MR fill} bdef
/L1i {{currentfile picstr readhexstring pop} image} bdef
/tMatrix matrix def
/MakeOval {newpath tMatrix currentmatrix pop translate scale
0 0 1 0 360 arc tMatrix setmatrix} bdef
/FO {MakeOval stroke} bdef
/PO {MakeOval fill} bdef
/PD {currentlinewidth 2 div 0 360 arc fill
   PDlw -1 eq not {PDlw w /PDlw -1 def} if} def
/FA {newpath tMatrix currentmatrix pop translate scale
  0 0 1 5 -2 roll arc tMatrix setmatrix stroke} bdef
/PA {newpath tMatrix currentmatrix pop	translate 0 0 moveto scale
  0 0 1 5 -2 roll arc closepath tMatrix setmatrix fill} bdef
/FAn {newpath tMatrix currentmatrix pop translate scale
  0 0 1 5 -2 roll arcn tMatrix setmatrix stroke} bdef
/PAn {newpath tMatrix currentmatrix pop translate 0 0 moveto scale
  0 0 1 5 -2 roll arcn closepath tMatrix setmatrix fill} bdef
/vradius 0 def /hradius 0 def /lry 0 def
/lrx 0 def /uly 0 def /ulx 0 def /rad 0 def
/MRR {/vradius xdef /hradius xdef /lry xdef /lrx xdef /uly xdef
  /ulx xdef newpath tMatrix currentmatrix pop ulx hradius add uly
  vradius add translate hradius vradius scale 0 0 1 180 270 arc 
  tMatrix setmatrix lrx hradius sub uly vradius add translate
  hradius vradius scale 0 0 1 270 360 arc tMatrix setmatrix
  lrx hradius sub lry vradius sub translate hradius vradius scale
  0 0 1 0 90 arc tMatrix setmatrix ulx hradius add lry vradius sub
  translate hradius vradius scale 0 0 1 90 180 arc tMatrix setmatrix
  closepath} bdef
/FRR {MRR stroke } bdef
/PRR {MRR fill } bdef
/MlrRR {/lry xdef /lrx xdef /uly xdef /ulx xdef /rad lry uly sub 2 div def
  newpath tMatrix currentmatrix pop ulx rad add uly rad add translate
  rad rad scale 0 0 1 90 270 arc tMatrix setmatrix lrx rad sub lry rad
  sub translate rad rad scale 0 0 1 270 90 arc tMatrix setmatrix
  closepath} bdef
/FlrRR {MlrRR stroke } bdef
/PlrRR {MlrRR fill } bdef
/MtbRR {/lry xdef /lrx xdef /uly xdef /ulx xdef /rad lrx ulx sub 2 div def
  newpath tMatrix currentmatrix pop ulx rad add uly rad add translate
  rad rad scale 0 0 1 180 360 arc tMatrix setmatrix lrx rad sub lry rad
  sub translate rad rad scale 0 0 1 0 180 arc tMatrix setmatrix
  closepath} bdef
/FtbRR {MtbRR stroke } bdef
/PtbRR {MtbRR fill } bdef
/stri 6 array def /dtri 6 array def
/smat 6 array def /dmat 6 array def
/tmat1 6 array def /tmat2 6 array def /dif 3 array def
/asub {/ind2 exch def /ind1 exch def dup dup
  ind1 get exch ind2 get sub exch } bdef
/tri_to_matrix {
  2 0 asub 3 1 asub 4 0 asub 5 1 asub
  dup 0 get exch 1 get 7 -1 roll astore } bdef
/compute_transform {
  dmat dtri tri_to_matrix tmat1 invertmatrix 
  smat stri tri_to_matrix tmat2 concatmatrix } bdef
/ds {stri astore pop} bdef
/dt {dtri astore pop} bdef
/db {2 copy /cols xdef /rows xdef mul dup 3 mul string
  currentfile 
  3 index 0 eq {/ASCIIHexDecode filter}
  {/ASCII85Decode filter 3 index 2 eq {/RunLengthDecode filter} if }
  ifelse exch readstring pop
  dup 0 3 index getinterval /rbmap xdef
  dup 2 index dup getinterval /gbmap xdef
  1 index dup 2 mul exch getinterval /bbmap xdef pop pop}bdef
/it {gs np dtri aload pop moveto lineto lineto cp c
  cols rows 8 compute_transform 
  rbmap gbmap bbmap true 3 colorimage gr}bdef
/il {newpath moveto lineto stroke}bdef
currentdict end def
%%EndProlog

%%BeginSetup
MathWorks begin

0 cap

end
%%EndSetup

%%Page: 1 1
%%BeginPageSetup
%%PageBoundingBox:    25   186   587   606
MathWorks begin
bpage
%%EndPageSetup

%%BeginObject: obj1
bplot

/dpi2point 12 def
portraitMode 0300 7272 csm

    0     0  6744  5040 rc
90 dict begin %Colortable dictionary
/c0 { 0.000000 0.000000 0.000000 sr} bdef
/c1 { 1.000000 1.000000 1.000000 sr} bdef
/c2 { 0.900000 0.000000 0.000000 sr} bdef
/c3 { 0.000000 0.820000 0.000000 sr} bdef
/c4 { 0.000000 0.000000 0.800000 sr} bdef
/c5 { 0.910000 0.820000 0.320000 sr} bdef
/c6 { 1.000000 0.260000 0.820000 sr} bdef
/c7 { 0.000000 0.820000 0.820000 sr} bdef
c0
1 j
1 sg
   0    0 6745 5041 rf
6 w
0 4060 5226 0 0 -4060 877 4486 4 MP
PP
-5226 0 0 4060 5226 0 0 -4060 877 4486 5 MP stroke
4 w
DO
SO
6 w
0 sg
 877 4486 mt 6103 4486 L
 877  426 mt 6103  426 L
 877 4486 mt  877  426 L
6103 4486 mt 6103  426 L
 877 4486 mt 6103 4486 L
 877 4486 mt  877  426 L
 877 4486 mt  877 4433 L
 877  427 mt  877  479 L
%%IncludeResource: font Helvetica
/Helvetica /ISOLatin1Encoding 120 FMSR

 844 4631 mt 
(0) s
1399 4486 mt 1399 4433 L
1399  427 mt 1399  479 L
1333 4631 mt 
(10) s
1922 4486 mt 1922 4433 L
1922  427 mt 1922  479 L
1856 4631 mt 
(20) s
2444 4486 mt 2444 4433 L
2444  427 mt 2444  479 L
2378 4631 mt 
(30) s
2967 4486 mt 2967 4433 L
2967  427 mt 2967  479 L
2901 4631 mt 
(40) s
3490 4486 mt 3490 4433 L
3490  427 mt 3490  479 L
3424 4631 mt 
(50) s
4012 4486 mt 4012 4433 L
4012  427 mt 4012  479 L
3946 4631 mt 
(60) s
4535 4486 mt 4535 4433 L
4535  427 mt 4535  479 L
4469 4631 mt 
(70) s
5057 4486 mt 5057 4433 L
5057  427 mt 5057  479 L
4991 4631 mt 
(80) s
5580 4486 mt 5580 4433 L
5580  427 mt 5580  479 L
5514 4631 mt 
(90) s
6103 4486 mt 6103 4433 L
6103  427 mt 6103  479 L
6003 4631 mt 
(100) s
 877 4486 mt  929 4486 L
6103 4486 mt 6050 4486 L
 776 4530 mt 
(0) s
 877 4080 mt  929 4080 L
6103 4080 mt 6050 4080 L
 709 4124 mt 
(10) s
 877 3674 mt  929 3674 L
6103 3674 mt 6050 3674 L
 709 3718 mt 
(20) s
 877 3268 mt  929 3268 L
6103 3268 mt 6050 3268 L
 709 3312 mt 
(30) s
 877 2862 mt  929 2862 L
6103 2862 mt 6050 2862 L
 709 2906 mt 
(40) s
 877 2456 mt  929 2456 L
6103 2456 mt 6050 2456 L
 709 2500 mt 
(50) s
 877 2050 mt  929 2050 L
6103 2050 mt 6050 2050 L
 709 2094 mt 
(60) s
 877 1644 mt  929 1644 L
6103 1644 mt 6050 1644 L
 709 1688 mt 
(70) s
 877 1238 mt  929 1238 L
6103 1238 mt 6050 1238 L
 709 1282 mt 
(80) s
 877  832 mt  929  832 L
6103  832 mt 6050  832 L
 709  876 mt 
(90) s
 877  427 mt  929  427 L
6103  427 mt 6050  427 L
 642  471 mt 
(100) s
 877 4486 mt 6103 4486 L
 877  426 mt 6103  426 L
 877 4486 mt  877  426 L
6103 4486 mt 6103  426 L
gs 877 427 5227 4060 rc
/c8 { 0.000000 0.500000 0.000000 sr} bdef
c8
0 1012 963 770 2 MP stroke
106 0 910 770 2 MP stroke
106 0 910 1782 2 MP stroke
0 1185 1050 1542 2 MP stroke
106 0 997 1542 2 MP stroke
106 0 997 2727 2 MP stroke
0 984 1137 2335 2 MP stroke
106 0 1084 2335 2 MP stroke
106 0 1084 3319 2 MP stroke
0 868 1224 2785 2 MP stroke
106 0 1171 2785 2 MP stroke
106 0 1171 3653 2 MP stroke
0 760 1311 3200 2 MP stroke
106 0 1258 3200 2 MP stroke
106 0 1258 3960 2 MP stroke
0 756 1398 3335 2 MP stroke
106 0 1345 3335 2 MP stroke
106 0 1345 4091 2 MP stroke
0 516 1484 3659 2 MP stroke
106 0 1431 3659 2 MP stroke
106 0 1431 4175 2 MP stroke
0 431 1571 3814 2 MP stroke
105 0 1518 3814 2 MP stroke
105 0 1518 4245 2 MP stroke
0 332 1657 3930 2 MP stroke
105 0 1605 3930 2 MP stroke
105 0 1605 4262 2 MP stroke
0 312 1744 4035 2 MP stroke
106 0 1691 4035 2 MP stroke
106 0 1691 4347 2 MP stroke
0 273 1831 4074 2 MP stroke
106 0 1778 4074 2 MP stroke
106 0 1778 4347 2 MP stroke
0 236 1917 4179 2 MP stroke
106 0 1864 4179 2 MP stroke
106 0 1864 4415 2 MP stroke
0 252 2004 4179 2 MP stroke
106 0 1951 4179 2 MP stroke
106 0 1951 4431 2 MP stroke
0 149 2091 4279 2 MP stroke
106 0 2038 4279 2 MP stroke
106 0 2038 4428 2 MP stroke
0 102 2178 4294 2 MP stroke
106 0 2125 4294 2 MP stroke
106 0 2125 4396 2 MP stroke
0 95 2265 4329 2 MP stroke
106 0 2212 4329 2 MP stroke
106 0 2212 4424 2 MP stroke
0 149 2352 4306 2 MP stroke
106 0 2299 4306 2 MP stroke
106 0 2299 4455 2 MP stroke
0 108 2439 4309 2 MP stroke
106 0 2386 4309 2 MP stroke
106 0 2386 4417 2 MP stroke
0 127 2526 4340 2 MP stroke
106 0 2473 4340 2 MP stroke
106 0 2473 4467 2 MP stroke
0 131 2612 4296 2 MP stroke
106 0 2559 4296 2 MP stroke
106 0 2559 4427 2 MP stroke
0 117 2698 4356 2 MP stroke
106 0 2645 4356 2 MP stroke
106 0 2645 4473 2 MP stroke
0 103 2785 4351 2 MP stroke
106 0 2732 4351 2 MP stroke
106 0 2732 4454 2 MP stroke
0 101 2872 4368 2 MP stroke
106 0 2819 4368 2 MP stroke
106 0 2819 4469 2 MP stroke
0 102 2959 4385 2 MP stroke
106 0 2906 4385 2 MP stroke
0 108 3046 4379 2 MP stroke
105 0 2993 4379 2 MP stroke
0 104 3132 4383 2 MP stroke
105 0 3080 4383 2 MP stroke
0 84 3219 4403 2 MP stroke
106 0 3166 4403 2 MP stroke
0 65 3306 4412 2 MP stroke
106 0 3253 4412 2 MP stroke
106 0 3253 4477 2 MP stroke
0 127 3393 4360 2 MP stroke
106 0 3340 4360 2 MP stroke
0 68 3480 4419 2 MP stroke
106 0 3427 4419 2 MP stroke
0 97 3567 4390 2 MP stroke
106 0 3514 4390 2 MP stroke
0 36 3654 4451 2 MP stroke
106 0 3601 4451 2 MP stroke
0 73 3740 4414 2 MP stroke
106 0 3687 4414 2 MP stroke
0 68 3827 4419 2 MP stroke
106 0 3774 4419 2 MP stroke
0 49 3913 4438 2 MP stroke
106 0 3860 4438 2 MP stroke
0 52 4000 4435 2 MP stroke
105 0 3947 4435 2 MP stroke
0 69 4086 4418 2 MP stroke
106 0 4033 4418 2 MP stroke
0 50 4173 4437 2 MP stroke
106 0 4120 4437 2 MP stroke
0 42 4260 4445 2 MP stroke
106 0 4207 4445 2 MP stroke
0 25 4347 4462 2 MP stroke
106 0 4294 4462 2 MP stroke
0 44 4434 4443 2 MP stroke
106 0 4381 4443 2 MP stroke
0 53 4521 4434 2 MP stroke
106 0 4468 4434 2 MP stroke
0 23 4608 4464 2 MP stroke
106 0 4555 4464 2 MP stroke
0 71 4695 4416 2 MP stroke
106 0 4642 4416 2 MP stroke
0 49 4782 4438 2 MP stroke
105 0 4729 4438 2 MP stroke
0 56 4868 4431 2 MP stroke
106 0 4815 4431 2 MP stroke
0 44 4955 4443 2 MP stroke
106 0 4902 4443 2 MP stroke
0 86 5042 4401 2 MP stroke
106 0 4989 4401 2 MP stroke
0 16 5128 4471 2 MP stroke
106 0 5075 4471 2 MP stroke
0 57 5215 4430 2 MP stroke
106 0 5162 4430 2 MP stroke
0 34 5302 4453 2 MP stroke
106 0 5249 4453 2 MP stroke
0 54 5389 4433 2 MP stroke
106 0 5336 4433 2 MP stroke
0 20 5476 4467 2 MP stroke
105 0 5423 4467 2 MP stroke
0 53 5562 4434 2 MP stroke
106 0 5509 4434 2 MP stroke
0 37 5649 4450 2 MP stroke
106 0 5596 4450 2 MP stroke
0 16 5742 4471 2 MP stroke
106 0 5689 4471 2 MP stroke
0 27 5842 4460 2 MP stroke
105 0 5789 4460 2 MP stroke
0 47 5961 4440 2 MP stroke
106 0 5908 4440 2 MP stroke
85 48 87 -18 87 19 87 -7 87 -7 87 8 86 5 87 -3 
87 23 87 16 87 -12 86 53 86 -41 87 40 87 -17 87 4 
87 31 87 -8 87 48 87 8 86 86 87 20 87 95 86 66 
87 113 86 204 87 133 87 361 87 392 87 693 87 858 86 849 
877 427 33 MP stroke
gr

c8
  36   36  963 1276 FO
  36   36 1050 2134 FO
  36   36 1137 2827 FO
  36   36 1224 3219 FO
  36   36 1311 3580 FO
  36   36 1398 3713 FO
  36   36 1484 3917 FO
  36   36 1571 4030 FO
  36   36 1657 4096 FO
  36   36 1744 4191 FO
  36   36 1831 4211 FO
  36   36 1917 4297 FO
  36   36 2004 4305 FO
  36   36 2091 4353 FO
  36   36 2178 4345 FO
  36   36 2265 4376 FO
  36   36 2352 4380 FO
  36   36 2439 4363 FO
  36   36 2526 4403 FO
  36   36 2612 4362 FO
  36   36 2698 4415 FO
  36   36 2785 4403 FO
  36   36 2872 4419 FO
  36   36 2959 4442 FO
  36   36 3046 4439 FO
  36   36 3132 4444 FO
  36   36 3219 4452 FO
  36   36 3306 4445 FO
  36   36 3393 4438 FO
  36   36 3480 4457 FO
  36   36 3567 4439 FO
gs 877 427 5227 4060 rc
58 25 86 -21 87 15 86 2 87 1 82 -22 3658 4487 7 MP stroke
gr

  36   36 3740 4465 FO
  36   36 3827 4466 FO
  36   36 3913 4468 FO
  36   36 4000 4483 FO
  36   36 4086 4462 FO
gs 877 427 5227 4060 rc
71 9 34 -9 4226 4487 3 MP stroke
gr

  36   36 4260 4478 FO
gs 877 427 5227 4060 rc
43 9 87 -1 69 -8 4365 4487 4 MP stroke
gr

  36   36 4434 4479 FO
  36   36 4521 4478 FO
gs 877 427 5227 4060 rc
53 26 87 -25 87 12 86 0 87 7 61 -20 4634 4487 7 MP stroke
gr

  36   36 4695 4467 FO
  36   36 4782 4474 FO
  36   36 4868 4474 FO
  36   36 4955 4486 FO
  36   36 5042 4461 FO
gs 877 427 5227 4060 rc
47 13 39 -13 5176 4487 3 MP stroke
gr

  36   36 5215 4474 FO
gs 877 427 5227 4060 rc
43 9 31 -9 5531 4487 3 MP stroke
gr

  36   36 5562 4478 FO
gs 877 427 5227 4060 rc
44 10 50 -10 5911 4487 3 MP stroke
gr

  36   36 5961 4477 FO
gs 877 427 5227 4060 rc
/c9 { 0.000000 0.800000 0.000000 sr} bdef
c9
0 1012 960 829 2 MP stroke
103 0 909 829 2 MP stroke
103 0 909 1841 2 MP stroke
0 1185 1044 1415 2 MP stroke
103 0 993 1415 2 MP stroke
103 0 993 2600 2 MP stroke
0 984 1128 2144 2 MP stroke
103 0 1077 2144 2 MP stroke
103 0 1077 3128 2 MP stroke
0 868 1212 2613 2 MP stroke
103 0 1160 2613 2 MP stroke
103 0 1160 3481 2 MP stroke
0 760 1296 2962 2 MP stroke
103 0 1244 2962 2 MP stroke
103 0 1244 3722 2 MP stroke
0 757 1379 3202 2 MP stroke
103 0 1327 3202 2 MP stroke
103 0 1327 3959 2 MP stroke
0 516 1462 3519 2 MP stroke
103 0 1411 3519 2 MP stroke
103 0 1411 4035 2 MP stroke
0 430 1546 3641 2 MP stroke
103 0 1494 3641 2 MP stroke
103 0 1494 4071 2 MP stroke
0 333 1629 3791 2 MP stroke
103 0 1577 3791 2 MP stroke
103 0 1577 4124 2 MP stroke
0 312 1713 3906 2 MP stroke
103 0 1661 3906 2 MP stroke
103 0 1661 4218 2 MP stroke
0 273 1797 3960 2 MP stroke
103 0 1745 3960 2 MP stroke
103 0 1745 4233 2 MP stroke
0 235 1880 4040 2 MP stroke
103 0 1829 4040 2 MP stroke
103 0 1829 4275 2 MP stroke
0 252 1964 4036 2 MP stroke
103 0 1913 4036 2 MP stroke
103 0 1913 4288 2 MP stroke
0 149 2048 4145 2 MP stroke
103 0 1997 4145 2 MP stroke
103 0 1997 4294 2 MP stroke
0 102 2132 4176 2 MP stroke
103 0 2080 4176 2 MP stroke
103 0 2080 4278 2 MP stroke
0 95 2216 4232 2 MP stroke
103 0 2164 4232 2 MP stroke
103 0 2164 4327 2 MP stroke
0 149 2299 4198 2 MP stroke
103 0 2248 4198 2 MP stroke
103 0 2248 4347 2 MP stroke
0 108 2382 4218 2 MP stroke
103 0 2330 4218 2 MP stroke
103 0 2330 4326 2 MP stroke
0 126 2465 4256 2 MP stroke
102 0 2414 4256 2 MP stroke
102 0 2414 4382 2 MP stroke
0 131 2549 4243 2 MP stroke
103 0 2497 4243 2 MP stroke
103 0 2497 4374 2 MP stroke
0 117 2633 4252 2 MP stroke
103 0 2581 4252 2 MP stroke
103 0 2581 4369 2 MP stroke
0 104 2716 4271 2 MP stroke
103 0 2665 4271 2 MP stroke
103 0 2665 4375 2 MP stroke
0 102 2800 4300 2 MP stroke
102 0 2749 4300 2 MP stroke
102 0 2749 4402 2 MP stroke
0 114 2884 4310 2 MP stroke
103 0 2832 4310 2 MP stroke
103 0 2832 4424 2 MP stroke
0 119 2967 4327 2 MP stroke
103 0 2916 4327 2 MP stroke
103 0 2916 4446 2 MP stroke
0 123 3051 4326 2 MP stroke
103 0 3000 4326 2 MP stroke
103 0 3000 4449 2 MP stroke
0 99 3135 4333 2 MP stroke
103 0 3084 4333 2 MP stroke
103 0 3084 4432 2 MP stroke
0 65 3219 4351 2 MP stroke
102 0 3168 4351 2 MP stroke
102 0 3168 4416 2 MP stroke
0 156 3302 4317 2 MP stroke
103 0 3251 4317 2 MP stroke
103 0 3251 4473 2 MP stroke
0 75 3385 4388 2 MP stroke
103 0 3334 4388 2 MP stroke
103 0 3334 4463 2 MP stroke
0 98 3469 4368 2 MP stroke
103 0 3418 4368 2 MP stroke
103 0 3418 4466 2 MP stroke
0 72 3553 4365 2 MP stroke
103 0 3501 4365 2 MP stroke
103 0 3501 4437 2 MP stroke
0 102 3636 4359 2 MP stroke
103 0 3585 4359 2 MP stroke
103 0 3585 4461 2 MP stroke
0 95 3720 4362 2 MP stroke
103 0 3669 4362 2 MP stroke
103 0 3669 4457 2 MP stroke
0 60 3804 4390 2 MP stroke
103 0 3753 4390 2 MP stroke
103 0 3753 4450 2 MP stroke
0 80 3888 4407 2 MP stroke
103 0 3836 4407 2 MP stroke
0 89 3971 4382 2 MP stroke
103 0 3920 4382 2 MP stroke
103 0 3920 4471 2 MP stroke
0 115 4055 4372 2 MP stroke
103 0 4004 4372 2 MP stroke
0 66 4139 4397 2 MP stroke
102 0 4088 4397 2 MP stroke
102 0 4088 4463 2 MP stroke
0 53 4223 4406 2 MP stroke
103 0 4171 4406 2 MP stroke
103 0 4171 4459 2 MP stroke
0 73 4306 4394 2 MP stroke
103 0 4254 4394 2 MP stroke
103 0 4254 4467 2 MP stroke
0 75 4389 4412 2 MP stroke
103 0 4338 4412 2 MP stroke
0 63 4473 4411 2 MP stroke
102 0 4422 4411 2 MP stroke
102 0 4422 4474 2 MP stroke
0 88 4557 4399 2 MP stroke
103 0 4505 4399 2 MP stroke
0 69 4641 4418 2 MP stroke
103 0 4589 4418 2 MP stroke
0 63 4724 4424 2 MP stroke
103 0 4672 4424 2 MP stroke
0 85 4808 4391 2 MP stroke
103 0 4756 4391 2 MP stroke
103 0 4756 4476 2 MP stroke
0 92 4891 4395 2 MP stroke
103 0 4840 4395 2 MP stroke
0 63 4975 4409 2 MP stroke
103 0 4924 4409 2 MP stroke
103 0 4924 4472 2 MP stroke
0 86 5059 4401 2 MP stroke
103 0 5008 4401 2 MP stroke
0 74 5143 4413 2 MP stroke
103 0 5091 4413 2 MP stroke
0 94 5227 4393 2 MP stroke
103 0 5175 4393 2 MP stroke
0 69 5309 4406 2 MP stroke
103 0 5258 4406 2 MP stroke
103 0 5258 4475 2 MP stroke
0 64 5393 4423 2 MP stroke
103 0 5342 4423 2 MP stroke
0 63 5481 4424 2 MP stroke
103 0 5429 4424 2 MP stroke
0 66 5586 4421 2 MP stroke
103 0 5534 4421 2 MP stroke
0 38 5692 4449 2 MP stroke
103 0 5641 4449 2 MP stroke
0 60 5813 4427 2 MP stroke
103 0 5762 4427 2 MP stroke
0 27 6022 4460 2 MP stroke
103 0 5971 4460 2 MP stroke
99 29 105 -11 88 2 84 27 82 -8 84 -9 84 12 84 5 
84 -15 83 22 84 -35 83 14 84 3 84 9 84 -14 83 26 
83 -3 84 3 84 -4 84 7 83 -28 84 35 84 11 84 -1 
83 9 84 -16 84 -9 83 31 83 12 84 1 84 -5 84 1 
83 19 84 16 84 28 83 13 84 1 84 -10 83 47 83 -1 
83 -7 84 53 84 8 84 57 84 5 83 61 84 34 84 105 
83 101 84 79 83 196 83 239 84 295 84 411 84 629 84 672 
83 908 877 427 58 MP stroke
gr

c9
  36   36  960 1335 FO
  36   36 1044 2007 FO
  36   36 1128 2636 FO
  36   36 1212 3047 FO
  36   36 1296 3342 FO
  36   36 1379 3581 FO
  36   36 1462 3777 FO
  36   36 1546 3856 FO
  36   36 1629 3957 FO
  36   36 1713 4062 FO
  36   36 1797 4096 FO
  36   36 1880 4157 FO
  36   36 1964 4162 FO
  36   36 2048 4219 FO
  36   36 2132 4227 FO
  36   36 2216 4280 FO
  36   36 2299 4273 FO
  36   36 2382 4272 FO
  36   36 2465 4319 FO
  36   36 2549 4309 FO
  36   36 2633 4310 FO
  36   36 2716 4323 FO
  36   36 2800 4351 FO
  36   36 2884 4367 FO
  36   36 2967 4386 FO
  36   36 3051 4387 FO
  36   36 3135 4382 FO
  36   36 3219 4383 FO
  36   36 3302 4395 FO
  36   36 3385 4426 FO
  36   36 3469 4417 FO
  36   36 3553 4401 FO
  36   36 3636 4410 FO
  36   36 3720 4409 FO
  36   36 3804 4420 FO
  36   36 3888 4455 FO
  36   36 3971 4427 FO
  36   36 4055 4434 FO
  36   36 4139 4430 FO
  36   36 4223 4433 FO
  36   36 4306 4430 FO
  36   36 4389 4456 FO
  36   36 4473 4442 FO
  36   36 4557 4451 FO
  36   36 4641 4454 FO
  36   36 4724 4468 FO
  36   36 4808 4433 FO
  36   36 4891 4455 FO
  36   36 4975 4440 FO
  36   36 5059 4445 FO
  36   36 5143 4457 FO
  36   36 5227 4448 FO
  36   36 5309 4440 FO
  36   36 5393 4467 FO
  36   36 5481 4469 FO
  36   36 5586 4458 FO
gs 877 427 5227 4060 rc
209 17 111 -24 5702 4487 3 MP stroke
gr

  36   36 5813 4463 FO
  36   36 6022 4480 FO
gs 877 427 5227 4060 rc
/c10 { 0.700000 1.000000 0.000000 sr} bdef
c10
0 930 962 427 2 MP stroke
109 0 908 1357 2 MP stroke
0 1185 1048 785 2 MP stroke
108 0 994 785 2 MP stroke
108 0 994 1970 2 MP stroke
0 983 1134 1231 2 MP stroke
108 0 1080 1231 2 MP stroke
108 0 1080 2214 2 MP stroke
0 867 1220 1693 2 MP stroke
109 0 1165 1693 2 MP stroke
109 0 1165 2560 2 MP stroke
0 759 1304 2023 2 MP stroke
108 0 1250 2023 2 MP stroke
108 0 1250 2782 2 MP stroke
0 756 1390 2152 2 MP stroke
109 0 1335 2152 2 MP stroke
109 0 1335 2908 2 MP stroke
0 516 1475 2519 2 MP stroke
109 0 1421 2519 2 MP stroke
109 0 1421 3035 2 MP stroke
0 430 1561 2751 2 MP stroke
109 0 1507 2751 2 MP stroke
109 0 1507 3181 2 MP stroke
0 333 1647 2885 2 MP stroke
108 0 1593 2885 2 MP stroke
108 0 1593 3218 2 MP stroke
0 312 1733 3096 2 MP stroke
108 0 1679 3096 2 MP stroke
108 0 1679 3408 2 MP stroke
0 272 1817 3171 2 MP stroke
108 0 1763 3171 2 MP stroke
108 0 1763 3443 2 MP stroke
0 235 1902 3185 2 MP stroke
109 0 1848 3185 2 MP stroke
109 0 1848 3420 2 MP stroke
0 252 1988 3409 2 MP stroke
108 0 1934 3409 2 MP stroke
108 0 1934 3661 2 MP stroke
0 149 2074 3510 2 MP stroke
108 0 2020 3510 2 MP stroke
108 0 2020 3659 2 MP stroke
0 101 2160 3537 2 MP stroke
108 0 2106 3537 2 MP stroke
108 0 2106 3638 2 MP stroke
0 96 2246 3608 2 MP stroke
108 0 2192 3608 2 MP stroke
108 0 2192 3704 2 MP stroke
0 149 2332 3694 2 MP stroke
109 0 2277 3694 2 MP stroke
109 0 2277 3843 2 MP stroke
0 108 2416 3710 2 MP stroke
108 0 2362 3710 2 MP stroke
108 0 2362 3818 2 MP stroke
0 126 2501 3749 2 MP stroke
108 0 2447 3749 2 MP stroke
108 0 2447 3875 2 MP stroke
0 132 2587 3753 2 MP stroke
108 0 2533 3753 2 MP stroke
108 0 2533 3885 2 MP stroke
0 117 2673 3811 2 MP stroke
108 0 2619 3811 2 MP stroke
108 0 2619 3928 2 MP stroke
0 103 2759 3842 2 MP stroke
108 0 2705 3842 2 MP stroke
108 0 2705 3945 2 MP stroke
0 101 2845 3881 2 MP stroke
108 0 2791 3881 2 MP stroke
108 0 2791 3982 2 MP stroke
0 114 2930 3893 2 MP stroke
109 0 2876 3893 2 MP stroke
109 0 2876 4007 2 MP stroke
0 119 3016 3870 2 MP stroke
108 0 2962 3870 2 MP stroke
108 0 2962 3989 2 MP stroke
0 123 3101 3930 2 MP stroke
109 0 3047 3930 2 MP stroke
109 0 3047 4053 2 MP stroke
0 99 3185 3922 2 MP stroke
109 0 3131 3922 2 MP stroke
109 0 3131 4021 2 MP stroke
0 65 3271 3970 2 MP stroke
108 0 3217 3970 2 MP stroke
108 0 3217 4035 2 MP stroke
0 156 3357 3992 2 MP stroke
109 0 3302 3992 2 MP stroke
109 0 3302 4148 2 MP stroke
0 75 3442 3999 2 MP stroke
109 0 3388 3999 2 MP stroke
109 0 3388 4074 2 MP stroke
0 99 3528 3999 2 MP stroke
108 0 3474 3999 2 MP stroke
108 0 3474 4098 2 MP stroke
0 72 3614 4038 2 MP stroke
108 0 3560 4038 2 MP stroke
108 0 3560 4110 2 MP stroke
0 102 3700 4043 2 MP stroke
108 0 3646 4043 2 MP stroke
108 0 3646 4145 2 MP stroke
0 95 3786 4109 2 MP stroke
108 0 3732 4109 2 MP stroke
108 0 3732 4204 2 MP stroke
0 60 3871 4112 2 MP stroke
109 0 3816 4112 2 MP stroke
109 0 3816 4172 2 MP stroke
0 95 3956 4118 2 MP stroke
108 0 3902 4118 2 MP stroke
108 0 3902 4213 2 MP stroke
0 89 4041 4116 2 MP stroke
109 0 3987 4116 2 MP stroke
109 0 3987 4205 2 MP stroke
0 124 4127 4092 2 MP stroke
108 0 4073 4092 2 MP stroke
108 0 4073 4216 2 MP stroke
0 67 4213 4126 2 MP stroke
108 0 4159 4126 2 MP stroke
108 0 4159 4193 2 MP stroke
0 53 4299 4113 2 MP stroke
108 0 4245 4113 2 MP stroke
108 0 4245 4166 2 MP stroke
0 73 4384 4146 2 MP stroke
109 0 4330 4146 2 MP stroke
109 0 4330 4219 2 MP stroke
0 89 4469 4146 2 MP stroke
108 0 4415 4146 2 MP stroke
108 0 4415 4235 2 MP stroke
0 62 4555 4202 2 MP stroke
108 0 4501 4202 2 MP stroke
108 0 4501 4264 2 MP stroke
0 103 4640 4136 2 MP stroke
108 0 4586 4136 2 MP stroke
108 0 4586 4239 2 MP stroke
0 73 4726 4169 2 MP stroke
108 0 4672 4169 2 MP stroke
108 0 4672 4242 2 MP stroke
0 88 4812 4157 2 MP stroke
108 0 4758 4157 2 MP stroke
108 0 4758 4245 2 MP stroke
0 85 4898 4155 2 MP stroke
108 0 4844 4155 2 MP stroke
108 0 4844 4240 2 MP stroke
0 121 4983 4187 2 MP stroke
108 0 4929 4187 2 MP stroke
108 0 4929 4308 2 MP stroke
0 64 5068 4211 2 MP stroke
109 0 5013 4211 2 MP stroke
109 0 5013 4275 2 MP stroke
0 88 5153 4186 2 MP stroke
108 0 5099 4186 2 MP stroke
108 0 5099 4274 2 MP stroke
0 88 5239 4172 2 MP stroke
108 0 5185 4172 2 MP stroke
108 0 5185 4260 2 MP stroke
0 110 5325 4147 2 MP stroke
108 0 5271 4147 2 MP stroke
108 0 5271 4257 2 MP stroke
0 68 5411 4218 2 MP stroke
108 0 5357 4218 2 MP stroke
108 0 5357 4286 2 MP stroke
0 89 5497 4182 2 MP stroke
108 0 5443 4182 2 MP stroke
108 0 5443 4271 2 MP stroke
0 89 5589 4171 2 MP stroke
108 0 5535 4171 2 MP stroke
108 0 5535 4260 2 MP stroke
0 75 5686 4232 2 MP stroke
108 0 5632 4232 2 MP stroke
108 0 5632 4307 2 MP stroke
0 79 5809 4211 2 MP stroke
108 0 5755 4211 2 MP stroke
108 0 5755 4290 2 MP stroke
0 73 5941 4219 2 MP stroke
108 0 5887 4219 2 MP stroke
108 0 5887 4292 2 MP stroke
163 -34 132 4 123 -19 97 54 92 -11 86 -25 86 50 86 -14 
86 -14 85 -13 85 -4 85 50 86 -4 86 -5 86 19 85 -46 
86 42 85 8 85 44 86 -21 86 6 86 -6 85 -6 85 24 
85 -14 86 62 86 20 86 25 86 12 85 -33 86 68 86 30 
84 -20 85 62 86 -20 85 19 86 37 86 24 86 51 86 7 
85 48 84 -4 86 112 86 68 86 3 86 50 86 233 85 -5 
84 55 86 201 86 85 86 189 85 247 86 127 84 277 86 403 
86 346 86 526 85 424 877 427 60 MP stroke
gr

c10
  36   36  962  851 FO
  36   36 1048 1377 FO
  36   36 1134 1723 FO
  36   36 1220 2126 FO
  36   36 1304 2403 FO
  36   36 1390 2530 FO
  36   36 1475 2777 FO
  36   36 1561 2966 FO
  36   36 1647 3051 FO
  36   36 1733 3252 FO
  36   36 1817 3307 FO
  36   36 1902 3302 FO
  36   36 1988 3535 FO
  36   36 2074 3585 FO
  36   36 2160 3588 FO
  36   36 2246 3656 FO
  36   36 2332 3768 FO
  36   36 2416 3764 FO
  36   36 2501 3812 FO
  36   36 2587 3819 FO
  36   36 2673 3870 FO
  36   36 2759 3894 FO
  36   36 2845 3931 FO
  36   36 2930 3950 FO
  36   36 3016 3930 FO
  36   36 3101 3992 FO
  36   36 3185 3972 FO
  36   36 3271 4002 FO
  36   36 3357 4070 FO
  36   36 3442 4037 FO
  36   36 3528 4049 FO
  36   36 3614 4074 FO
  36   36 3700 4094 FO
  36   36 3786 4156 FO
  36   36 3871 4142 FO
  36   36 3956 4166 FO
  36   36 4041 4160 FO
  36   36 4127 4154 FO
  36   36 4213 4160 FO
  36   36 4299 4139 FO
  36   36 4384 4183 FO
  36   36 4469 4191 FO
  36   36 4555 4233 FO
  36   36 4640 4187 FO
  36   36 4726 4206 FO
  36   36 4812 4201 FO
  36   36 4898 4197 FO
  36   36 4983 4247 FO
  36   36 5068 4243 FO
  36   36 5153 4230 FO
  36   36 5239 4216 FO
  36   36 5325 4202 FO
  36   36 5411 4252 FO
  36   36 5497 4227 FO
  36   36 5589 4216 FO
  36   36 5686 4270 FO
  36   36 5809 4251 FO
  36   36 5941 4255 FO
gs 877 427 5227 4060 rc
gr

0 sg
%%IncludeResource: font Helvetica
/Helvetica /ISOLatin1Encoding 168 FMSR

1294  156 mt 
(Fluorescence decay at different bleaching intensities / rat\
es) s
%%IncludeResource: font Helvetica
/Helvetica /ISOLatin1Encoding 144 FMSR

2813  327 mt 
(TetR - daughter lobe) s
3251 4792 mt 
(time \(s\)) s
 555 2972 mt  -90 rotate
(% Fluorescence) s
90 rotate
gs 877 427 5227 4060 rc
0 295 981 656 2 MP stroke
104 0 929 656 2 MP stroke
104 0 929 951 2 MP stroke
0 256 1086 1277 2 MP stroke
105 0 1033 1277 2 MP stroke
105 0 1033 1533 2 MP stroke
0 231 1190 1812 2 MP stroke
104 0 1138 1812 2 MP stroke
104 0 1138 2043 2 MP stroke
0 208 1295 2274 2 MP stroke
105 0 1242 2274 2 MP stroke
105 0 1242 2482 2 MP stroke
0 199 1399 2667 2 MP stroke
104 0 1347 2667 2 MP stroke
104 0 1347 2866 2 MP stroke
0 157 1504 2982 2 MP stroke
105 0 1451 2982 2 MP stroke
105 0 1451 3139 2 MP stroke
0 150 1608 3230 2 MP stroke
104 0 1556 3230 2 MP stroke
104 0 1556 3380 2 MP stroke
0 125 1713 3452 2 MP stroke
105 0 1660 3452 2 MP stroke
105 0 1660 3577 2 MP stroke
0 131 1817 3629 2 MP stroke
104 0 1765 3629 2 MP stroke
104 0 1765 3760 2 MP stroke
0 110 1922 3777 2 MP stroke
105 0 1869 3777 2 MP stroke
105 0 1869 3887 2 MP stroke
0 108 2026 3892 2 MP stroke
104 0 1974 3892 2 MP stroke
104 0 1974 4000 2 MP stroke
0 92 2131 3993 2 MP stroke
105 0 2078 3993 2 MP stroke
105 0 2078 4085 2 MP stroke
0 82 2235 4079 2 MP stroke
105 0 2183 4079 2 MP stroke
105 0 2183 4161 2 MP stroke
0 69 2340 4145 2 MP stroke
104 0 2288 4145 2 MP stroke
104 0 2288 4214 2 MP stroke
0 70 2444 4196 2 MP stroke
105 0 2392 4196 2 MP stroke
105 0 2392 4266 2 MP stroke
0 57 2549 4252 2 MP stroke
104 0 2497 4252 2 MP stroke
104 0 2497 4309 2 MP stroke
0 55 2653 4285 2 MP stroke
105 0 2601 4285 2 MP stroke
105 0 2601 4340 2 MP stroke
0 48 2758 4320 2 MP stroke
104 0 2706 4320 2 MP stroke
104 0 2706 4368 2 MP stroke
0 43 2862 4348 2 MP stroke
105 0 2810 4348 2 MP stroke
105 0 2810 4391 2 MP stroke
0 41 2967 4368 2 MP stroke
104 0 2915 4368 2 MP stroke
104 0 2915 4409 2 MP stroke
0 36 3071 4389 2 MP stroke
105 0 3019 4389 2 MP stroke
105 0 3019 4425 2 MP stroke
0 34 3176 4404 2 MP stroke
104 0 3124 4404 2 MP stroke
104 0 3124 4438 2 MP stroke
0 27 3280 4419 2 MP stroke
105 0 3228 4419 2 MP stroke
105 0 3228 4446 2 MP stroke
0 29 3385 4426 2 MP stroke
104 0 3333 4426 2 MP stroke
104 0 3333 4455 2 MP stroke
0 25 3490 4436 2 MP stroke
105 0 3437 4436 2 MP stroke
105 0 3437 4461 2 MP stroke
0 26 3594 4442 2 MP stroke
104 0 3542 4442 2 MP stroke
104 0 3542 4468 2 MP stroke
0 19 3699 4453 2 MP stroke
105 0 3646 4453 2 MP stroke
105 0 3646 4472 2 MP stroke
0 18 3803 4457 2 MP stroke
104 0 3751 4457 2 MP stroke
104 0 3751 4475 2 MP stroke
0 19 3908 4458 2 MP stroke
105 0 3855 4458 2 MP stroke
105 0 3855 4477 2 MP stroke
0 16 4012 4463 2 MP stroke
104 0 3960 4463 2 MP stroke
104 0 3960 4479 2 MP stroke
0 15 4117 4465 2 MP stroke
105 0 4064 4465 2 MP stroke
105 0 4064 4480 2 MP stroke
0 14 4221 4469 2 MP stroke
104 0 4169 4469 2 MP stroke
104 0 4169 4483 2 MP stroke
0 10 4326 4473 2 MP stroke
105 0 4273 4473 2 MP stroke
105 0 4273 4483 2 MP stroke
0 10 4430 4474 2 MP stroke
104 0 4378 4474 2 MP stroke
104 0 4378 4484 2 MP stroke
0 8 4535 4477 2 MP stroke
105 0 4482 4477 2 MP stroke
105 0 4482 4485 2 MP stroke
0 9 4639 4477 2 MP stroke
104 0 4587 4477 2 MP stroke
104 0 4587 4486 2 MP stroke
0 9 4744 4477 2 MP stroke
105 0 4691 4477 2 MP stroke
105 0 4691 4486 2 MP stroke
0 6 4848 4480 2 MP stroke
105 0 4796 4480 2 MP stroke
105 0 4796 4486 2 MP stroke
0 6 4953 4480 2 MP stroke
104 0 4901 4480 2 MP stroke
104 0 4901 4486 2 MP stroke
0 7 5057 4480 2 MP stroke
105 0 5005 4480 2 MP stroke
0 5 5162 4481 2 MP stroke
104 0 5110 4481 2 MP stroke
104 0 5110 4486 2 MP stroke
0 5 5266 4482 2 MP stroke
105 0 5214 4482 2 MP stroke
0 3 5371 4483 2 MP stroke
104 0 5319 4483 2 MP stroke
104 0 5319 4486 2 MP stroke
0 4 5475 4483 2 MP stroke
105 0 5423 4483 2 MP stroke
0 4 5580 4483 2 MP stroke
104 0 5528 4483 2 MP stroke
0 3 5684 4483 2 MP stroke
105 0 5632 4483 2 MP stroke
105 0 5632 4486 2 MP stroke
0 4 5789 4483 2 MP stroke
104 0 5737 4483 2 MP stroke
0 2 5893 4484 2 MP stroke
105 0 5841 4484 2 MP stroke
105 0 5841 4486 2 MP stroke
0 2 5998 4484 2 MP stroke
104 0 5946 4484 2 MP stroke
104 0 5946 4486 2 MP stroke
0 2 6103 4484 2 MP stroke
54 0 6050 4484 2 MP stroke
54 0 6050 4486 2 MP stroke
105 0 105 0 104 0 105 0 104 0 105 0 104 0 105 1 
104 0 105 1 104 0 105 0 104 1 105 1 104 0 105 2 
104 1 105 2 104 3 105 2 104 3 105 2 104 4 105 7 
104 7 105 8 105 8 104 11 105 14 104 18 105 19 104 26 
105 31 104 32 105 50 104 52 105 59 104 81 105 93 104 114 
105 137 104 181 105 209 104 244 105 295 104 388 105 450 104 523 
105 602 104 376 877 427 51 MP stroke
0.5 sg
0 296 981 514 2 MP stroke
104 0 929 514 2 MP stroke
104 0 929 810 2 MP stroke
0 291 1086 907 2 MP stroke
105 0 1033 907 2 MP stroke
105 0 1033 1198 2 MP stroke
0 266 1190 1290 2 MP stroke
104 0 1138 1290 2 MP stroke
104 0 1138 1556 2 MP stroke
0 233 1295 1638 2 MP stroke
105 0 1242 1638 2 MP stroke
105 0 1242 1871 2 MP stroke
0 251 1399 1905 2 MP stroke
104 0 1347 1905 2 MP stroke
104 0 1347 2156 2 MP stroke
0 227 1504 2179 2 MP stroke
105 0 1451 2179 2 MP stroke
105 0 1451 2406 2 MP stroke
0 209 1608 2423 2 MP stroke
104 0 1556 2423 2 MP stroke
104 0 1556 2632 2 MP stroke
0 190 1713 2648 2 MP stroke
105 0 1660 2648 2 MP stroke
105 0 1660 2838 2 MP stroke
0 172 1817 2867 2 MP stroke
104 0 1765 2867 2 MP stroke
104 0 1765 3039 2 MP stroke
0 157 1922 3027 2 MP stroke
105 0 1869 3027 2 MP stroke
105 0 1869 3184 2 MP stroke
0 175 2026 3167 2 MP stroke
104 0 1974 3167 2 MP stroke
104 0 1974 3342 2 MP stroke
0 143 2131 3318 2 MP stroke
105 0 2078 3318 2 MP stroke
105 0 2078 3461 2 MP stroke
0 129 2235 3440 2 MP stroke
105 0 2183 3440 2 MP stroke
105 0 2183 3569 2 MP stroke
0 141 2340 3549 2 MP stroke
104 0 2288 3549 2 MP stroke
104 0 2288 3690 2 MP stroke
0 120 2444 3651 2 MP stroke
105 0 2392 3651 2 MP stroke
105 0 2392 3771 2 MP stroke
0 104 2549 3754 2 MP stroke
104 0 2497 3754 2 MP stroke
104 0 2497 3858 2 MP stroke
0 101 2653 3826 2 MP stroke
105 0 2601 3826 2 MP stroke
105 0 2601 3927 2 MP stroke
0 101 2758 3885 2 MP stroke
104 0 2706 3885 2 MP stroke
104 0 2706 3986 2 MP stroke
0 94 2862 3948 2 MP stroke
105 0 2810 3948 2 MP stroke
105 0 2810 4042 2 MP stroke
0 97 2967 4000 2 MP stroke
104 0 2915 4000 2 MP stroke
104 0 2915 4097 2 MP stroke
0 87 3071 4051 2 MP stroke
105 0 3019 4051 2 MP stroke
105 0 3019 4138 2 MP stroke
0 78 3176 4099 2 MP stroke
104 0 3124 4099 2 MP stroke
104 0 3124 4177 2 MP stroke
0 63 3280 4142 2 MP stroke
105 0 3228 4142 2 MP stroke
105 0 3228 4205 2 MP stroke
0 68 3385 4174 2 MP stroke
104 0 3333 4174 2 MP stroke
104 0 3333 4242 2 MP stroke
0 60 3490 4206 2 MP stroke
105 0 3437 4206 2 MP stroke
105 0 3437 4266 2 MP stroke
0 69 3594 4233 2 MP stroke
104 0 3542 4233 2 MP stroke
104 0 3542 4302 2 MP stroke
0 54 3699 4265 2 MP stroke
105 0 3646 4265 2 MP stroke
105 0 3646 4319 2 MP stroke
0 54 3803 4283 2 MP stroke
104 0 3751 4283 2 MP stroke
104 0 3751 4337 2 MP stroke
0 51 3908 4299 2 MP stroke
105 0 3855 4299 2 MP stroke
105 0 3855 4350 2 MP stroke
0 51 4012 4322 2 MP stroke
104 0 3960 4322 2 MP stroke
104 0 3960 4373 2 MP stroke
0 52 4117 4335 2 MP stroke
105 0 4064 4335 2 MP stroke
105 0 4064 4387 2 MP stroke
0 46 4221 4352 2 MP stroke
104 0 4169 4352 2 MP stroke
104 0 4169 4398 2 MP stroke
0 42 4326 4369 2 MP stroke
105 0 4273 4369 2 MP stroke
105 0 4273 4411 2 MP stroke
0 38 4430 4379 2 MP stroke
104 0 4378 4379 2 MP stroke
104 0 4378 4417 2 MP stroke
0 37 4535 4389 2 MP stroke
105 0 4482 4389 2 MP stroke
105 0 4482 4426 2 MP stroke
0 38 4639 4395 2 MP stroke
104 0 4587 4395 2 MP stroke
104 0 4587 4433 2 MP stroke
0 32 4744 4408 2 MP stroke
105 0 4691 4408 2 MP stroke
105 0 4691 4440 2 MP stroke
0 31 4848 4413 2 MP stroke
105 0 4796 4413 2 MP stroke
105 0 4796 4444 2 MP stroke
0 33 4953 4416 2 MP stroke
104 0 4901 4416 2 MP stroke
104 0 4901 4449 2 MP stroke
0 27 5057 4427 2 MP stroke
105 0 5005 4427 2 MP stroke
105 0 5005 4454 2 MP stroke
0 25 5162 4433 2 MP stroke
104 0 5110 4433 2 MP stroke
104 0 5110 4458 2 MP stroke
0 25 5266 4437 2 MP stroke
105 0 5214 4437 2 MP stroke
105 0 5214 4462 2 MP stroke
0 26 5371 4439 2 MP stroke
104 0 5319 4439 2 MP stroke
104 0 5319 4465 2 MP stroke
0 22 5475 4446 2 MP stroke
105 0 5423 4446 2 MP stroke
105 0 5423 4468 2 MP stroke
0 20 5580 4449 2 MP stroke
104 0 5528 4449 2 MP stroke
104 0 5528 4469 2 MP stroke
0 21 5684 4452 2 MP stroke
105 0 5632 4452 2 MP stroke
105 0 5632 4473 2 MP stroke
0 21 5789 4455 2 MP stroke
104 0 5737 4455 2 MP stroke
104 0 5737 4476 2 MP stroke
0 20 5893 4455 2 MP stroke
105 0 5841 4455 2 MP stroke
105 0 5841 4475 2 MP stroke
0 19 5998 4459 2 MP stroke
104 0 5946 4459 2 MP stroke
104 0 5946 4478 2 MP stroke
0 16 6103 4464 2 MP stroke
54 0 6050 4464 2 MP stroke
54 0 6050 4480 2 MP stroke
105 3 105 4 104 -1 105 4 104 3 105 2 104 5 105 3 
104 4 105 5 104 8 105 4 104 4 105 10 104 7 105 9 
104 8 105 15 104 14 105 13 104 24 105 14 104 18 105 25 
104 31 105 28 105 35 104 35 105 44 104 45 105 54 104 59 
105 59 104 71 105 95 104 91 105 116 104 114 105 136 104 148 
105 153 104 210 105 216 104 235 105 261 104 277 105 331 104 371 
105 390 104 235 877 427 51 MP stroke
0.8 sg
0 262 981 427 2 MP stroke
104 0 929 689 2 MP stroke
0 296 1086 617 2 MP stroke
105 0 1033 617 2 MP stroke
105 0 1033 913 2 MP stroke
0 284 1190 851 2 MP stroke
104 0 1138 851 2 MP stroke
104 0 1138 1135 2 MP stroke
0 311 1295 1053 2 MP stroke
105 0 1242 1053 2 MP stroke
105 0 1242 1364 2 MP stroke
0 271 1399 1275 2 MP stroke
104 0 1347 1275 2 MP stroke
104 0 1347 1546 2 MP stroke
0 244 1504 1460 2 MP stroke
105 0 1451 1460 2 MP stroke
105 0 1451 1704 2 MP stroke
0 240 1608 1638 2 MP stroke
104 0 1556 1638 2 MP stroke
104 0 1556 1878 2 MP stroke
0 254 1713 1787 2 MP stroke
105 0 1660 1787 2 MP stroke
105 0 1660 2041 2 MP stroke
0 255 1817 1939 2 MP stroke
104 0 1765 1939 2 MP stroke
104 0 1765 2194 2 MP stroke
0 225 1922 2113 2 MP stroke
105 0 1869 2113 2 MP stroke
105 0 1869 2338 2 MP stroke
0 222 2026 2251 2 MP stroke
104 0 1974 2251 2 MP stroke
104 0 1974 2473 2 MP stroke
0 212 2131 2388 2 MP stroke
105 0 2078 2388 2 MP stroke
105 0 2078 2600 2 MP stroke
0 198 2235 2512 2 MP stroke
105 0 2183 2512 2 MP stroke
105 0 2183 2710 2 MP stroke
0 184 2340 2650 2 MP stroke
104 0 2288 2650 2 MP stroke
104 0 2288 2834 2 MP stroke
0 182 2444 2739 2 MP stroke
105 0 2392 2739 2 MP stroke
105 0 2392 2921 2 MP stroke
0 168 2549 2851 2 MP stroke
104 0 2497 2851 2 MP stroke
104 0 2497 3019 2 MP stroke
0 188 2653 2952 2 MP stroke
105 0 2601 2952 2 MP stroke
105 0 2601 3140 2 MP stroke
0 135 2758 3049 2 MP stroke
104 0 2706 3049 2 MP stroke
104 0 2706 3184 2 MP stroke
0 157 2862 3127 2 MP stroke
105 0 2810 3127 2 MP stroke
105 0 2810 3284 2 MP stroke
0 149 2967 3213 2 MP stroke
104 0 2915 3213 2 MP stroke
104 0 2915 3362 2 MP stroke
0 151 3071 3288 2 MP stroke
105 0 3019 3288 2 MP stroke
105 0 3019 3439 2 MP stroke
0 130 3176 3359 2 MP stroke
104 0 3124 3359 2 MP stroke
104 0 3124 3489 2 MP stroke
0 125 3280 3438 2 MP stroke
105 0 3228 3438 2 MP stroke
105 0 3228 3563 2 MP stroke
0 126 3385 3495 2 MP stroke
104 0 3333 3495 2 MP stroke
104 0 3333 3621 2 MP stroke
0 121 3490 3555 2 MP stroke
105 0 3437 3555 2 MP stroke
105 0 3437 3676 2 MP stroke
0 144 3594 3595 2 MP stroke
104 0 3542 3595 2 MP stroke
104 0 3542 3739 2 MP stroke
0 116 3699 3653 2 MP stroke
105 0 3646 3653 2 MP stroke
105 0 3646 3769 2 MP stroke
0 116 3803 3704 2 MP stroke
104 0 3751 3704 2 MP stroke
104 0 3751 3820 2 MP stroke
0 118 3908 3741 2 MP stroke
105 0 3855 3741 2 MP stroke
105 0 3855 3859 2 MP stroke
0 114 4012 3791 2 MP stroke
104 0 3960 3791 2 MP stroke
104 0 3960 3905 2 MP stroke
0 98 4117 3837 2 MP stroke
105 0 4064 3837 2 MP stroke
105 0 4064 3935 2 MP stroke
0 119 4221 3861 2 MP stroke
104 0 4169 3861 2 MP stroke
104 0 4169 3980 2 MP stroke
0 102 4326 3905 2 MP stroke
105 0 4273 3905 2 MP stroke
105 0 4273 4007 2 MP stroke
0 110 4430 3932 2 MP stroke
104 0 4378 3932 2 MP stroke
104 0 4378 4042 2 MP stroke
0 97 4535 3964 2 MP stroke
105 0 4482 3964 2 MP stroke
105 0 4482 4061 2 MP stroke
0 80 4639 4004 2 MP stroke
104 0 4587 4004 2 MP stroke
104 0 4587 4084 2 MP stroke
0 84 4744 4035 2 MP stroke
105 0 4691 4035 2 MP stroke
105 0 4691 4119 2 MP stroke
0 94 4848 4053 2 MP stroke
105 0 4796 4053 2 MP stroke
105 0 4796 4147 2 MP stroke
0 85 4953 4080 2 MP stroke
104 0 4901 4080 2 MP stroke
104 0 4901 4165 2 MP stroke
0 85 5057 4100 2 MP stroke
105 0 5005 4100 2 MP stroke
105 0 5005 4185 2 MP stroke
0 86 5162 4118 2 MP stroke
104 0 5110 4118 2 MP stroke
104 0 5110 4204 2 MP stroke
0 79 5266 4146 2 MP stroke
105 0 5214 4146 2 MP stroke
105 0 5214 4225 2 MP stroke
0 72 5371 4165 2 MP stroke
104 0 5319 4165 2 MP stroke
104 0 5319 4237 2 MP stroke
0 62 5475 4189 2 MP stroke
105 0 5423 4189 2 MP stroke
105 0 5423 4251 2 MP stroke
0 65 5580 4201 2 MP stroke
104 0 5528 4201 2 MP stroke
104 0 5528 4266 2 MP stroke
0 64 5684 4219 2 MP stroke
105 0 5632 4219 2 MP stroke
105 0 5632 4283 2 MP stroke
0 61 5789 4234 2 MP stroke
104 0 5737 4234 2 MP stroke
104 0 5737 4295 2 MP stroke
0 59 5893 4245 2 MP stroke
105 0 5841 4245 2 MP stroke
105 0 5841 4304 2 MP stroke
0 64 5998 4260 2 MP stroke
104 0 5946 4260 2 MP stroke
104 0 5946 4324 2 MP stroke
0 63 6103 4271 2 MP stroke
54 0 6050 4271 2 MP stroke
54 0 6050 4334 2 MP stroke
105 10 105 17 104 11 105 13 104 18 105 13 104 19 105 16 
104 24 105 18 104 20 105 23 104 23 105 33 104 31 105 26 
104 31 105 36 104 34 105 38 104 48 105 38 104 51 105 44 
104 51 105 58 105 58 104 76 105 60 104 76 105 83 104 89 
105 70 104 111 105 105 104 88 105 131 104 117 105 132 104 136 
105 159 104 153 105 156 104 176 105 171 104 203 105 215 104 228 
105 228 104 110 877 427 51 MP stroke
/c11 { 0.000000 0.800000 1.000000 sr} bdef
c11
0 262 981 1110 2 MP stroke
104 0 929 1110 2 MP stroke
104 0 929 1372 2 MP stroke
0 219 1086 2155 2 MP stroke
105 0 1033 2155 2 MP stroke
105 0 1033 2374 2 MP stroke
0 164 1190 2934 2 MP stroke
104 0 1138 2934 2 MP stroke
104 0 1138 3098 2 MP stroke
0 136 1295 3450 2 MP stroke
105 0 1242 3450 2 MP stroke
105 0 1242 3586 2 MP stroke
0 111 1399 3781 2 MP stroke
104 0 1347 3781 2 MP stroke
104 0 1347 3892 2 MP stroke
0 85 1504 4017 2 MP stroke
105 0 1451 4017 2 MP stroke
105 0 1451 4102 2 MP stroke
0 72 1608 4173 2 MP stroke
104 0 1556 4173 2 MP stroke
104 0 1556 4245 2 MP stroke
0 62 1713 4267 2 MP stroke
105 0 1660 4267 2 MP stroke
105 0 1660 4329 2 MP stroke
0 47 1817 4343 2 MP stroke
104 0 1765 4343 2 MP stroke
104 0 1765 4390 2 MP stroke
0 36 1922 4391 2 MP stroke
105 0 1869 4391 2 MP stroke
105 0 1869 4427 2 MP stroke
0 29 2026 4418 2 MP stroke
104 0 1974 4418 2 MP stroke
104 0 1974 4447 2 MP stroke
0 27 2131 4438 2 MP stroke
105 0 2078 4438 2 MP stroke
105 0 2078 4465 2 MP stroke
0 19 2235 4454 2 MP stroke
105 0 2183 4454 2 MP stroke
105 0 2183 4473 2 MP stroke
0 16 2340 4463 2 MP stroke
104 0 2288 4463 2 MP stroke
104 0 2288 4479 2 MP stroke
0 12 2444 4470 2 MP stroke
105 0 2392 4470 2 MP stroke
105 0 2392 4482 2 MP stroke
0 10 2549 4474 2 MP stroke
104 0 2497 4474 2 MP stroke
104 0 2497 4484 2 MP stroke
0 9 2653 4477 2 MP stroke
105 0 2601 4477 2 MP stroke
105 0 2601 4486 2 MP stroke
0 6 2758 4480 2 MP stroke
104 0 2706 4480 2 MP stroke
104 0 2706 4486 2 MP stroke
0 5 2862 4481 2 MP stroke
105 0 2810 4481 2 MP stroke
105 0 2810 4486 2 MP stroke
0 4 2967 4482 2 MP stroke
104 0 2915 4482 2 MP stroke
104 0 2915 4486 2 MP stroke
0 3 3071 4483 2 MP stroke
105 0 3019 4483 2 MP stroke
105 0 3019 4486 2 MP stroke
0 2 3176 4484 2 MP stroke
104 0 3124 4484 2 MP stroke
104 0 3124 4486 2 MP stroke
0 1 3280 4485 2 MP stroke
105 0 3228 4485 2 MP stroke
105 0 3228 4486 2 MP stroke
0 1 3385 4485 2 MP stroke
104 0 3333 4485 2 MP stroke
104 0 3333 4486 2 MP stroke
0 1 3490 4485 2 MP stroke
105 0 3437 4485 2 MP stroke
105 0 3437 4486 2 MP stroke
0 1 3594 4485 2 MP stroke
104 0 3542 4485 2 MP stroke
104 0 3542 4486 2 MP stroke
3699 4486 PD
105 0 3646 4486 2 MP stroke
105 0 3646 4486 2 MP stroke
3803 4486 PD
104 0 3751 4486 2 MP stroke
104 0 3751 4486 2 MP stroke
3908 4486 PD
105 0 3855 4486 2 MP stroke
105 0 3855 4486 2 MP stroke
4012 4486 PD
104 0 3960 4486 2 MP stroke
104 0 3960 4486 2 MP stroke
0 1 4117 4485 2 MP stroke
105 0 4064 4485 2 MP stroke
105 0 4064 4486 2 MP stroke
0 1 4221 4485 2 MP stroke
104 0 4169 4485 2 MP stroke
104 0 4169 4486 2 MP stroke
0 1 4326 4485 2 MP stroke
105 0 4273 4485 2 MP stroke
105 0 4273 4486 2 MP stroke
4430 4486 PD
104 0 4378 4486 2 MP stroke
104 0 4378 4486 2 MP stroke
4535 4486 PD
105 0 4482 4486 2 MP stroke
105 0 4482 4486 2 MP stroke
4639 4486 PD
104 0 4587 4486 2 MP stroke
104 0 4587 4486 2 MP stroke
4744 4486 PD
105 0 4691 4486 2 MP stroke
105 0 4691 4486 2 MP stroke
4848 4486 PD
105 0 4796 4486 2 MP stroke
105 0 4796 4486 2 MP stroke
4953 4486 PD
104 0 4901 4486 2 MP stroke
104 0 4901 4486 2 MP stroke
5057 4486 PD
105 0 5005 4486 2 MP stroke
105 0 5005 4486 2 MP stroke
5162 4486 PD
104 0 5110 4486 2 MP stroke
104 0 5110 4486 2 MP stroke
5266 4486 PD
105 0 5214 4486 2 MP stroke
105 0 5214 4486 2 MP stroke
5371 4486 PD
104 0 5319 4486 2 MP stroke
104 0 5319 4486 2 MP stroke
5475 4486 PD
105 0 5423 4486 2 MP stroke
105 0 5423 4486 2 MP stroke
5580 4486 PD
104 0 5528 4486 2 MP stroke
104 0 5528 4486 2 MP stroke
5684 4486 PD
105 0 5632 4486 2 MP stroke
105 0 5632 4486 2 MP stroke
5789 4486 PD
104 0 5737 4486 2 MP stroke
104 0 5737 4486 2 MP stroke
5893 4486 PD
105 0 5841 4486 2 MP stroke
105 0 5841 4486 2 MP stroke
5998 4486 PD
104 0 5946 4486 2 MP stroke
104 0 5946 4486 2 MP stroke
6103 4486 PD
54 0 6050 4486 2 MP stroke
54 0 6050 4486 2 MP stroke
105 0 105 0 104 0 105 0 104 0 105 0 104 0 105 0 
104 0 105 0 104 0 105 0 104 0 105 0 104 0 105 0 
104 1 105 0 104 0 105 -1 104 0 105 0 104 0 105 1 
104 0 105 0 105 0 104 0 105 0 104 1 105 0 104 1 
105 2 104 2 105 3 104 5 105 7 104 12 105 20 104 23 
105 43 104 68 105 89 104 150 105 223 104 318 105 502 104 751 
105 1024 104 814 877 427 51 MP stroke
gr

c11
0 sg
%%IncludeResource: font Helvetica
/Helvetica /ISOLatin1Encoding 120 FMSR

 860 4529 mt 
( ) s
6087  469 mt 
( ) s
1 sg
0 1216 939 0 0 -1216 5105 1703 4 MP
PP
-939 0 0 1216 939 0 0 -1216 5105 1703 5 MP stroke
4 w
DO
SO
6 w
0 sg
5105 1703 mt 6044 1703 L
5105  487 mt 6044  487 L
5105 1703 mt 5105  487 L
6044 1703 mt 6044  487 L
5105 1703 mt 6044 1703 L
5105 1703 mt 5105  487 L
5105 1703 mt 6044 1703 L
5105  487 mt 6044  487 L
5105 1703 mt 5105  487 L
6044 1703 mt 6044  487 L
5522  623 mt 
(60%) s
gs 5105 487 940 1217 rc
c8
320 0 5169 580 2 MP stroke
gs 5256 507 147 147 rc
  36   36 5329  580 FO
gr

gr

c8
0 sg
5522  773 mt 
(30%) s
gs 5105 487 940 1217 rc
c9
320 0 5169 731 2 MP stroke
gs 5256 658 147 147 rc
  36   36 5329  731 FO
gr

gr

c9
0 sg
5522  924 mt 
(15%) s
gs 5105 487 940 1217 rc
c10
320 0 5169 881 2 MP stroke
gs 5256 808 147 147 rc
  36   36 5329  881 FO
gr

gr

c10
0 sg
5522 1104 mt 
(110 s) s
%%IncludeResource: font Helvetica
/Helvetica /ISOLatin1Encoding 96 FMSR

5815 1044 mt 
(-1) s
gs 5105 487 940 1217 rc
320 0 5169 1048 2 MP stroke
gr

%%IncludeResource: font Helvetica
/Helvetica /ISOLatin1Encoding 120 FMSR

5522 1286 mt 
(55 s) s
%%IncludeResource: font Helvetica
/Helvetica /ISOLatin1Encoding 96 FMSR

5748 1226 mt 
(-1) s
gs 5105 487 940 1217 rc
0.5 sg
320 0 5169 1230 2 MP stroke
gr

0.5 sg
0 sg
%%IncludeResource: font Helvetica
/Helvetica /ISOLatin1Encoding 120 FMSR

5522 1468 mt 
(27.5 s) s
%%IncludeResource: font Helvetica
/Helvetica /ISOLatin1Encoding 96 FMSR

5848 1408 mt 
(-1) s
gs 5105 487 940 1217 rc
0.8 sg
320 0 5169 1411 2 MP stroke
gr

0.8 sg
0 sg
%%IncludeResource: font Helvetica
/Helvetica /ISOLatin1Encoding 120 FMSR

5522 1650 mt 
(500 s) s
%%IncludeResource: font Helvetica
/Helvetica /ISOLatin1Encoding 96 FMSR

5815 1590 mt 
(-1) s
gs 5105 487 940 1217 rc
c11
320 0 5169 1593 2 MP stroke
gr

c11

end %%Color Dict

eplot
%%EndObject

epage
end

showpage

%%Trailer
%%EOF
