%!PS-Adobe-3.0 EPSF-3.0
%%Creator: MATLAB, The MathWorks, Inc. Version 7.14.0.739 (R2012a). Operating System: Darwin 11.4.2 Darwin Kernel Version 11.4.2: Thu Aug 23 16:25:48 PDT 2012; root:xnu-1699.32.7~1/RELEASE_X86_64 x86_64.
%%Title: /Users/zavalaeder/Dropbox/Yeast/bleaching_rate/mag_std.eps
%%CreationDate: 11/15/2012  16:40:33
%%DocumentNeededFonts: Helvetica
%%DocumentProcessColors: Cyan Magenta Yellow Black
%%LanguageLevel: 2
%%Pages: 1
%%BoundingBox:    25   186   586   606
%%EndComments

%%BeginProlog
% MathWorks dictionary
/MathWorks 160 dict begin
% definition operators
/bdef {bind def} bind def
/ldef {load def} bind def
/xdef {exch def} bdef
/xstore {exch store} bdef
% operator abbreviations
/c  /clip ldef
/cc /concat ldef
/cp /closepath ldef
/gr /grestore ldef
/gs /gsave ldef
/mt /moveto ldef
/np /newpath ldef
/cm /currentmatrix ldef
/sm /setmatrix ldef
/rm /rmoveto ldef
/rl /rlineto ldef
/s {show newpath} bdef
/sc {setcmykcolor} bdef
/sr /setrgbcolor ldef
/sg /setgray ldef
/w /setlinewidth ldef
/j /setlinejoin ldef
/cap /setlinecap ldef
/rc {rectclip} bdef
/rf {rectfill} bdef
% page state control
/pgsv () def
/bpage {/pgsv save def} bdef
/epage {pgsv restore} bdef
/bplot /gsave ldef
/eplot {stroke grestore} bdef
% orientation switch
/portraitMode 0 def /landscapeMode 1 def /rotateMode 2 def
% coordinate system mappings
/dpi2point 0 def
% font control
/FontSize 0 def
/FMS {/FontSize xstore findfont [FontSize 0 0 FontSize neg 0 0]
  makefont setfont} bdef
/reencode {exch dup where {pop load} {pop StandardEncoding} ifelse
  exch dup 3 1 roll findfont dup length dict begin
  { 1 index /FID ne {def}{pop pop} ifelse } forall
  /Encoding exch def currentdict end definefont pop} bdef
/isroman {findfont /CharStrings get /Agrave known} bdef
/FMSR {3 1 roll 1 index dup isroman {reencode} {pop pop} ifelse
  exch FMS} bdef
/csm {1 dpi2point div -1 dpi2point div scale neg translate
 dup landscapeMode eq {pop -90 rotate}
  {rotateMode eq {90 rotate} if} ifelse} bdef
% line types: solid, dotted, dashed, dotdash
/SO { [] 0 setdash } bdef
/DO { [.5 dpi2point mul 4 dpi2point mul] 0 setdash } bdef
/DA { [6 dpi2point mul] 0 setdash } bdef
/DD { [.5 dpi2point mul 4 dpi2point mul 6 dpi2point mul 4
  dpi2point mul] 0 setdash } bdef
% macros for lines and objects
/L {lineto stroke} bdef
/MP {3 1 roll moveto 1 sub {rlineto} repeat} bdef
/AP {{rlineto} repeat} bdef
/PDlw -1 def
/W {/PDlw currentlinewidth def setlinewidth} def
/PP {closepath eofill} bdef
/DP {closepath stroke} bdef
/MR {4 -2 roll moveto dup  0 exch rlineto exch 0 rlineto
  neg 0 exch rlineto closepath} bdef
/FR {MR stroke} bdef
/PR {MR fill} bdef
/L1i {{currentfile picstr readhexstring pop} image} bdef
/tMatrix matrix def
/MakeOval {newpath tMatrix currentmatrix pop translate scale
0 0 1 0 360 arc tMatrix setmatrix} bdef
/FO {MakeOval stroke} bdef
/PO {MakeOval fill} bdef
/PD {currentlinewidth 2 div 0 360 arc fill
   PDlw -1 eq not {PDlw w /PDlw -1 def} if} def
/FA {newpath tMatrix currentmatrix pop translate scale
  0 0 1 5 -2 roll arc tMatrix setmatrix stroke} bdef
/PA {newpath tMatrix currentmatrix pop	translate 0 0 moveto scale
  0 0 1 5 -2 roll arc closepath tMatrix setmatrix fill} bdef
/FAn {newpath tMatrix currentmatrix pop translate scale
  0 0 1 5 -2 roll arcn tMatrix setmatrix stroke} bdef
/PAn {newpath tMatrix currentmatrix pop translate 0 0 moveto scale
  0 0 1 5 -2 roll arcn closepath tMatrix setmatrix fill} bdef
/vradius 0 def /hradius 0 def /lry 0 def
/lrx 0 def /uly 0 def /ulx 0 def /rad 0 def
/MRR {/vradius xdef /hradius xdef /lry xdef /lrx xdef /uly xdef
  /ulx xdef newpath tMatrix currentmatrix pop ulx hradius add uly
  vradius add translate hradius vradius scale 0 0 1 180 270 arc 
  tMatrix setmatrix lrx hradius sub uly vradius add translate
  hradius vradius scale 0 0 1 270 360 arc tMatrix setmatrix
  lrx hradius sub lry vradius sub translate hradius vradius scale
  0 0 1 0 90 arc tMatrix setmatrix ulx hradius add lry vradius sub
  translate hradius vradius scale 0 0 1 90 180 arc tMatrix setmatrix
  closepath} bdef
/FRR {MRR stroke } bdef
/PRR {MRR fill } bdef
/MlrRR {/lry xdef /lrx xdef /uly xdef /ulx xdef /rad lry uly sub 2 div def
  newpath tMatrix currentmatrix pop ulx rad add uly rad add translate
  rad rad scale 0 0 1 90 270 arc tMatrix setmatrix lrx rad sub lry rad
  sub translate rad rad scale 0 0 1 270 90 arc tMatrix setmatrix
  closepath} bdef
/FlrRR {MlrRR stroke } bdef
/PlrRR {MlrRR fill } bdef
/MtbRR {/lry xdef /lrx xdef /uly xdef /ulx xdef /rad lrx ulx sub 2 div def
  newpath tMatrix currentmatrix pop ulx rad add uly rad add translate
  rad rad scale 0 0 1 180 360 arc tMatrix setmatrix lrx rad sub lry rad
  sub translate rad rad scale 0 0 1 0 180 arc tMatrix setmatrix
  closepath} bdef
/FtbRR {MtbRR stroke } bdef
/PtbRR {MtbRR fill } bdef
/stri 6 array def /dtri 6 array def
/smat 6 array def /dmat 6 array def
/tmat1 6 array def /tmat2 6 array def /dif 3 array def
/asub {/ind2 exch def /ind1 exch def dup dup
  ind1 get exch ind2 get sub exch } bdef
/tri_to_matrix {
  2 0 asub 3 1 asub 4 0 asub 5 1 asub
  dup 0 get exch 1 get 7 -1 roll astore } bdef
/compute_transform {
  dmat dtri tri_to_matrix tmat1 invertmatrix 
  smat stri tri_to_matrix tmat2 concatmatrix } bdef
/ds {stri astore pop} bdef
/dt {dtri astore pop} bdef
/db {2 copy /cols xdef /rows xdef mul dup 3 mul string
  currentfile 
  3 index 0 eq {/ASCIIHexDecode filter}
  {/ASCII85Decode filter 3 index 2 eq {/RunLengthDecode filter} if }
  ifelse exch readstring pop
  dup 0 3 index getinterval /rbmap xdef
  dup 2 index dup getinterval /gbmap xdef
  1 index dup 2 mul exch getinterval /bbmap xdef pop pop}bdef
/it {gs np dtri aload pop moveto lineto lineto cp c
  cols rows 8 compute_transform 
  rbmap gbmap bbmap true 3 colorimage gr}bdef
/il {newpath moveto lineto stroke}bdef
currentdict end def
%%EndProlog

%%BeginSetup
MathWorks begin

0 cap

end
%%EndSetup

%%Page: 1 1
%%BeginPageSetup
%%PageBoundingBox:    25   186   586   606
MathWorks begin
bpage
%%EndPageSetup

%%BeginObject: obj1
bplot

/dpi2point 12 def
portraitMode 0300 7272 csm

    0     0  6732  5040 rc
87 dict begin %Colortable dictionary
/c0 { 0.000000 0.000000 0.000000 sr} bdef
/c1 { 1.000000 1.000000 1.000000 sr} bdef
/c2 { 0.900000 0.000000 0.000000 sr} bdef
/c3 { 0.000000 0.820000 0.000000 sr} bdef
/c4 { 0.000000 0.000000 0.800000 sr} bdef
/c5 { 0.910000 0.820000 0.320000 sr} bdef
/c6 { 1.000000 0.260000 0.820000 sr} bdef
/c7 { 0.000000 0.820000 0.820000 sr} bdef
c0
1 j
1 sg
   0    0 6733 5041 rf
6 w
0 4060 5217 0 0 -4060 875 4486 4 MP
PP
-5217 0 0 4060 5217 0 0 -4060 875 4486 5 MP stroke
4 w
DO
SO
6 w
0 sg
 875 4486 mt 6092 4486 L
 875  426 mt 6092  426 L
 875 4486 mt  875  426 L
6092 4486 mt 6092  426 L
 875 4486 mt 6092 4486 L
 875 4486 mt  875  426 L
 875 4486 mt  875 4433 L
 875  427 mt  875  479 L
%%IncludeResource: font Helvetica
/Helvetica /ISOLatin1Encoding 120 FMSR

 842 4631 mt 
(0) s
1620 4486 mt 1620 4433 L
1620  427 mt 1620  479 L
1554 4631 mt 
(10) s
2365 4486 mt 2365 4433 L
2365  427 mt 2365  479 L
2299 4631 mt 
(20) s
3110 4486 mt 3110 4433 L
3110  427 mt 3110  479 L
3044 4631 mt 
(30) s
3856 4486 mt 3856 4433 L
3856  427 mt 3856  479 L
3790 4631 mt 
(40) s
4601 4486 mt 4601 4433 L
4601  427 mt 4601  479 L
4535 4631 mt 
(50) s
5346 4486 mt 5346 4433 L
5346  427 mt 5346  479 L
5280 4631 mt 
(60) s
6092 4486 mt 6092 4433 L
6092  427 mt 6092  479 L
6026 4631 mt 
(70) s
 875 4486 mt  927 4486 L
6092 4486 mt 6039 4486 L
 774 4530 mt 
(0) s
 875 4080 mt  927 4080 L
6092 4080 mt 6039 4080 L
 707 4124 mt 
(10) s
 875 3674 mt  927 3674 L
6092 3674 mt 6039 3674 L
 707 3718 mt 
(20) s
 875 3268 mt  927 3268 L
6092 3268 mt 6039 3268 L
 707 3312 mt 
(30) s
 875 2862 mt  927 2862 L
6092 2862 mt 6039 2862 L
 707 2906 mt 
(40) s
 875 2456 mt  927 2456 L
6092 2456 mt 6039 2456 L
 707 2500 mt 
(50) s
 875 2050 mt  927 2050 L
6092 2050 mt 6039 2050 L
 707 2094 mt 
(60) s
 875 1644 mt  927 1644 L
6092 1644 mt 6039 1644 L
 707 1688 mt 
(70) s
 875 1238 mt  927 1238 L
6092 1238 mt 6039 1238 L
 707 1282 mt 
(80) s
 875  832 mt  927  832 L
6092  832 mt 6039  832 L
 707  876 mt 
(90) s
 875  427 mt  927  427 L
6092  427 mt 6039  427 L
 640  471 mt 
(100) s
 875 4486 mt 6092 4486 L
 875  426 mt 6092  426 L
 875 4486 mt  875  426 L
6092 4486 mt 6092  426 L
gs 875 427 5218 4060 rc
/c8 { 1.000000 0.000000 0.000000 sr} bdef
c8
0 693 945 2548 2 MP stroke
94 0 898 2548 2 MP stroke
94 0 898 3241 2 MP stroke
0 570 1015 3243 2 MP stroke
94 0 968 3243 2 MP stroke
94 0 968 3813 2 MP stroke
0 607 1084 3496 2 MP stroke
94 0 1037 3496 2 MP stroke
94 0 1037 4103 2 MP stroke
0 514 1154 3719 2 MP stroke
94 0 1107 3719 2 MP stroke
94 0 1107 4233 2 MP stroke
0 366 1224 3898 2 MP stroke
93 0 1177 3898 2 MP stroke
93 0 1177 4264 2 MP stroke
0 357 1293 3975 2 MP stroke
94 0 1246 3975 2 MP stroke
94 0 1246 4332 2 MP stroke
0 247 1362 4092 2 MP stroke
94 0 1315 4092 2 MP stroke
94 0 1315 4339 2 MP stroke
0 248 1432 4131 2 MP stroke
94 0 1385 4131 2 MP stroke
94 0 1385 4379 2 MP stroke
0 231 1502 4190 2 MP stroke
94 0 1455 4190 2 MP stroke
94 0 1455 4421 2 MP stroke
0 130 1572 4265 2 MP stroke
94 0 1525 4265 2 MP stroke
94 0 1525 4395 2 MP stroke
0 195 1641 4238 2 MP stroke
94 0 1594 4238 2 MP stroke
94 0 1594 4433 2 MP stroke
0 136 1711 4301 2 MP stroke
94 0 1664 4301 2 MP stroke
94 0 1664 4437 2 MP stroke
0 140 1781 4317 2 MP stroke
94 0 1734 4317 2 MP stroke
94 0 1734 4457 2 MP stroke
0 128 1851 4318 2 MP stroke
94 0 1804 4318 2 MP stroke
94 0 1804 4446 2 MP stroke
0 98 1920 4357 2 MP stroke
94 0 1873 4357 2 MP stroke
94 0 1873 4455 2 MP stroke
0 120 1990 4333 2 MP stroke
94 0 1943 4333 2 MP stroke
94 0 1943 4453 2 MP stroke
0 124 2060 4355 2 MP stroke
94 0 2013 4355 2 MP stroke
94 0 2013 4479 2 MP stroke
0 120 2130 4359 2 MP stroke
94 0 2083 4359 2 MP stroke
94 0 2083 4479 2 MP stroke
0 105 2199 4371 2 MP stroke
94 0 2152 4371 2 MP stroke
94 0 2152 4476 2 MP stroke
0 99 2269 4388 2 MP stroke
94 0 2222 4388 2 MP stroke
0 84 2339 4403 2 MP stroke
94 0 2292 4403 2 MP stroke
0 89 2408 4398 2 MP stroke
94 0 2361 4398 2 MP stroke
0 74 2477 4413 2 MP stroke
94 0 2430 4413 2 MP stroke
0 60 2547 4422 2 MP stroke
94 0 2500 4422 2 MP stroke
94 0 2500 4482 2 MP stroke
0 95 2618 4392 2 MP stroke
94 0 2571 4392 2 MP stroke
0 63 2688 4424 2 MP stroke
94 0 2641 4424 2 MP stroke
0 71 2757 4416 2 MP stroke
94 0 2710 4416 2 MP stroke
0 65 2827 4422 2 MP stroke
94 0 2780 4422 2 MP stroke
0 59 2897 4428 2 MP stroke
94 0 2850 4428 2 MP stroke
0 50 2966 4437 2 MP stroke
94 0 2919 4437 2 MP stroke
0 60 3036 4427 2 MP stroke
93 0 2989 4427 2 MP stroke
0 45 3105 4442 2 MP stroke
94 0 3058 4442 2 MP stroke
0 54 3175 4433 2 MP stroke
94 0 3128 4433 2 MP stroke
0 47 3245 4440 2 MP stroke
94 0 3198 4440 2 MP stroke
0 37 3314 4450 2 MP stroke
94 0 3267 4450 2 MP stroke
0 37 3384 4450 2 MP stroke
94 0 3337 4450 2 MP stroke
0 33 3454 4454 2 MP stroke
94 0 3407 4454 2 MP stroke
0 56 3524 4431 2 MP stroke
94 0 3477 4431 2 MP stroke
0 48 3594 4439 2 MP stroke
94 0 3547 4439 2 MP stroke
0 44 3663 4443 2 MP stroke
94 0 3616 4443 2 MP stroke
0 33 3733 4454 2 MP stroke
94 0 3686 4454 2 MP stroke
0 41 3803 4446 2 MP stroke
94 0 3756 4446 2 MP stroke
0 27 3873 4460 2 MP stroke
94 0 3826 4460 2 MP stroke
0 25 3942 4462 2 MP stroke
94 0 3895 4462 2 MP stroke
0 44 4012 4443 2 MP stroke
94 0 3965 4443 2 MP stroke
0 31 4082 4456 2 MP stroke
94 0 4035 4456 2 MP stroke
0 28 4151 4459 2 MP stroke
94 0 4104 4459 2 MP stroke
0 30 4221 4457 2 MP stroke
94 0 4174 4457 2 MP stroke
0 35 4291 4452 2 MP stroke
93 0 4244 4452 2 MP stroke
0 26 4361 4461 2 MP stroke
94 0 4314 4461 2 MP stroke
0 17 4430 4470 2 MP stroke
93 0 4384 4470 2 MP stroke
0 23 4500 4464 2 MP stroke
94 0 4453 4464 2 MP stroke
0 27 4570 4460 2 MP stroke
94 0 4523 4460 2 MP stroke
0 28 4646 4459 2 MP stroke
94 0 4599 4459 2 MP stroke
0 34 4730 4453 2 MP stroke
94 0 4683 4453 2 MP stroke
0 22 4829 4465 2 MP stroke
94 0 4782 4465 2 MP stroke
0 33 4945 4454 2 MP stroke
93 0 4898 4454 2 MP stroke
0 21 5109 4466 2 MP stroke
93 0 5063 4466 2 MP stroke
0 6 5567 4481 2 MP stroke
94 0 5520 4481 2 MP stroke
47 8 70 -3 70 9 69 4 70 -3 69 9 70 2 70 -2 
69 -4 70 20 71 -5 70 2 69 -2 69 2 70 3 70 23 
69 5 70 2 70 24 70 -13 69 24 70 -5 70 18 70 33 
69 6 70 24 70 51 70 39 69 63 69 72 70 105 70 176 
69 272 70 634 70 2467 875 427 36 MP stroke
gr

c8
  36   36  945 2894 FO
  36   36 1015 3528 FO
  36   36 1084 3800 FO
  36   36 1154 3976 FO
  36   36 1224 4081 FO
  36   36 1293 4153 FO
  36   36 1362 4216 FO
  36   36 1432 4255 FO
  36   36 1502 4306 FO
  36   36 1572 4330 FO
  36   36 1641 4336 FO
  36   36 1711 4369 FO
  36   36 1781 4387 FO
  36   36 1851 4382 FO
  36   36 1920 4406 FO
  36   36 1990 4393 FO
  36   36 2060 4417 FO
  36   36 2130 4419 FO
  36   36 2199 4424 FO
  36   36 2269 4447 FO
  36   36 2339 4450 FO
  36   36 2408 4452 FO
  36   36 2477 4450 FO
  36   36 2547 4452 FO
  36   36 2618 4447 FO
  36   36 2688 4467 FO
  36   36 2757 4463 FO
  36   36 2827 4461 FO
  36   36 2897 4463 FO
  36   36 2966 4472 FO
  36   36 3036 4469 FO
  36   36 3105 4473 FO
  36   36 3175 4482 FO
  36   36 3245 4479 FO
gs 875 427 5218 4060 rc
25 1 70 7 69 -2 70 1 70 -3 70 -3 15 -1 3369 4487 8 MP stroke
gr

  36   36 3384 4486 FO
  36   36 3454 4483 FO
  36   36 3524 4480 FO
  36   36 3594 4481 FO
  36   36 3663 4479 FO
  36   36 3733 4486 FO
gs 875 427 5218 4060 rc
4 1 4 -1 4008 4487 3 MP stroke
gr

  36   36 4012 4486 FO
gs 875 427 5218 4060 rc
/c9 { 1.000000 0.400000 0.000000 sr} bdef
c9
0 1201 926 2115 2 MP stroke
63 0 894 2115 2 MP stroke
63 0 894 3316 2 MP stroke
0 1153 977 2678 2 MP stroke
62 0 946 2678 2 MP stroke
62 0 946 3831 2 MP stroke
0 1131 1028 3036 2 MP stroke
63 0 997 3036 2 MP stroke
63 0 997 4167 2 MP stroke
0 901 1080 3262 2 MP stroke
63 0 1048 3262 2 MP stroke
63 0 1048 4163 2 MP stroke
0 774 1131 3481 2 MP stroke
62 0 1100 3481 2 MP stroke
62 0 1100 4255 2 MP stroke
0 597 1182 3706 2 MP stroke
62 0 1151 3706 2 MP stroke
62 0 1151 4303 2 MP stroke
0 651 1233 3692 2 MP stroke
62 0 1202 3692 2 MP stroke
62 0 1202 4343 2 MP stroke
0 659 1284 3708 2 MP stroke
63 0 1253 3708 2 MP stroke
63 0 1253 4367 2 MP stroke
0 474 1336 3924 2 MP stroke
63 0 1304 3924 2 MP stroke
63 0 1304 4398 2 MP stroke
0 422 1387 4019 2 MP stroke
63 0 1355 4019 2 MP stroke
63 0 1355 4441 2 MP stroke
0 376 1438 4059 2 MP stroke
63 0 1406 4059 2 MP stroke
63 0 1406 4435 2 MP stroke
0 526 1489 3942 2 MP stroke
62 0 1458 3942 2 MP stroke
62 0 1458 4468 2 MP stroke
0 350 1540 4106 2 MP stroke
63 0 1509 4106 2 MP stroke
63 0 1509 4456 2 MP stroke
0 297 1592 4154 2 MP stroke
63 0 1560 4154 2 MP stroke
63 0 1560 4451 2 MP stroke
0 256 1643 4224 2 MP stroke
63 0 1611 4224 2 MP stroke
63 0 1611 4480 2 MP stroke
0 310 1694 4177 2 MP stroke
63 0 1662 4177 2 MP stroke
0 376 1745 4111 2 MP stroke
62 0 1714 4111 2 MP stroke
0 332 1796 4155 2 MP stroke
63 0 1765 4155 2 MP stroke
0 365 1847 4122 2 MP stroke
63 0 1816 4122 2 MP stroke
0 315 1899 4172 2 MP stroke
63 0 1867 4172 2 MP stroke
0 282 1950 4205 2 MP stroke
62 0 1919 4205 2 MP stroke
0 221 2001 4266 2 MP stroke
62 0 1970 4266 2 MP stroke
0 224 2052 4263 2 MP stroke
63 0 2021 4263 2 MP stroke
0 221 2104 4266 2 MP stroke
63 0 2072 4266 2 MP stroke
0 218 2155 4269 2 MP stroke
63 0 2123 4269 2 MP stroke
0 225 2206 4262 2 MP stroke
62 0 2175 4262 2 MP stroke
0 158 2257 4329 2 MP stroke
62 0 2226 4329 2 MP stroke
0 155 2308 4332 2 MP stroke
63 0 2277 4332 2 MP stroke
0 223 2360 4264 2 MP stroke
63 0 2328 4264 2 MP stroke
0 201 2411 4286 2 MP stroke
63 0 2379 4286 2 MP stroke
0 155 2462 4332 2 MP stroke
62 0 2431 4332 2 MP stroke
0 191 2513 4296 2 MP stroke
63 0 2482 4296 2 MP stroke
0 137 2564 4350 2 MP stroke
63 0 2533 4350 2 MP stroke
0 167 2615 4320 2 MP stroke
63 0 2584 4320 2 MP stroke
0 102 2667 4385 2 MP stroke
63 0 2635 4385 2 MP stroke
0 124 2718 4363 2 MP stroke
62 0 2687 4363 2 MP stroke
0 174 2769 4313 2 MP stroke
62 0 2738 4313 2 MP stroke
0 80 2820 4407 2 MP stroke
63 0 2789 4407 2 MP stroke
0 145 2872 4342 2 MP stroke
63 0 2840 4342 2 MP stroke
0 122 2923 4365 2 MP stroke
62 0 2892 4365 2 MP stroke
0 108 2974 4379 2 MP stroke
63 0 2943 4379 2 MP stroke
0 94 3025 4393 2 MP stroke
63 0 2994 4393 2 MP stroke
0 168 3077 4319 2 MP stroke
63 0 3045 4319 2 MP stroke
0 130 3128 4357 2 MP stroke
62 0 3097 4357 2 MP stroke
0 89 3179 4398 2 MP stroke
62 0 3148 4398 2 MP stroke
0 132 3230 4355 2 MP stroke
63 0 3199 4355 2 MP stroke
0 64 3281 4423 2 MP stroke
63 0 3250 4423 2 MP stroke
0 143 3332 4344 2 MP stroke
63 0 3301 4344 2 MP stroke
0 107 3384 4380 2 MP stroke
63 0 3352 4380 2 MP stroke
0 92 3435 4395 2 MP stroke
63 0 3403 4395 2 MP stroke
0 168 3486 4319 2 MP stroke
62 0 3455 4319 2 MP stroke
0 168 3537 4319 2 MP stroke
63 0 3506 4319 2 MP stroke
0 125 3589 4362 2 MP stroke
63 0 3557 4362 2 MP stroke
0 39 3640 4448 2 MP stroke
62 0 3609 4448 2 MP stroke
0 109 3693 4378 2 MP stroke
63 0 3661 4378 2 MP stroke
0 90 3748 4397 2 MP stroke
63 0 3716 4397 2 MP stroke
0 131 3804 4356 2 MP stroke
63 0 3773 4356 2 MP stroke
0 115 3875 4372 2 MP stroke
63 0 3843 4372 2 MP stroke
0 102 4009 4385 2 MP stroke
62 0 3978 4385 2 MP stroke
46 25 51 31 51 -14 51 -10 51 -27 51 64 52 -33 51 29 
51 7 51 4 51 17 52 -24 51 25 51 -64 51 101 52 19 
51 -8 51 46 51 -84 51 31 51 50 52 21 51 76 51 -42 
51 17 51 69 52 123 51 20 51 14 51 136 51 155 52 111 
51 347 51 540 51 2288 875 427 36 MP stroke
gr

c9
  36   36  926 2715 FO
  36   36  977 3255 FO
  36   36 1028 3602 FO
  36   36 1080 3713 FO
  36   36 1131 3868 FO
  36   36 1182 4004 FO
  36   36 1233 4018 FO
  36   36 1284 4038 FO
  36   36 1336 4161 FO
  36   36 1387 4230 FO
  36   36 1438 4247 FO
  36   36 1489 4205 FO
  36   36 1540 4281 FO
  36   36 1592 4302 FO
  36   36 1643 4352 FO
  36   36 1694 4383 FO
  36   36 1745 4299 FO
  36   36 1796 4345 FO
  36   36 1847 4337 FO
  36   36 1899 4356 FO
  36   36 1950 4457 FO
  36   36 2001 4393 FO
  36   36 2052 4418 FO
  36   36 2104 4394 FO
  36   36 2155 4411 FO
  36   36 2206 4415 FO
  36   36 2257 4422 FO
  36   36 2308 4451 FO
  36   36 2360 4418 FO
  36   36 2411 4482 FO
  36   36 2462 4455 FO
  36   36 2513 4445 FO
  36   36 2564 4431 FO
  36   36 2615 4462 FO
gs 875 427 5218 4060 rc
5 2 51 17 19 -19 2853 4487 4 MP stroke
gr

  36   36 2872 4468 FO
  36   36 2923 4485 FO
gs 875 427 5218 4060 rc
23 31 51 -14 33 -17 3044 4487 4 MP stroke
gr

  36   36 3077 4470 FO
  36   36 3128 4456 FO
gs 875 427 5218 4060 rc
7 7 6 -7 3326 4487 3 MP stroke
gr

  36   36 3332 4480 FO
gs 875 427 5218 4060 rc
23 22 22 -22 3464 4487 3 MP stroke
gr

  36   36 3486 4465 FO
gs 875 427 5218 4060 rc
134 -1 71 4 15 -12 3789 4487 4 MP stroke
gr

  36   36 3804 4475 FO
  36   36 3875 4479 FO
  36   36 4009 4478 FO
gs 875 427 5218 4060 rc
/c10 { 0.000000 0.500000 0.000000 sr} bdef
c10
0 1406 945 427 2 MP stroke
94 0 898 1833 2 MP stroke
0 1390 1015 1052 2 MP stroke
94 0 968 1052 2 MP stroke
94 0 968 2442 2 MP stroke
0 1551 1084 1396 2 MP stroke
94 0 1037 1396 2 MP stroke
94 0 1037 2947 2 MP stroke
0 1440 1154 1909 2 MP stroke
94 0 1107 1909 2 MP stroke
94 0 1107 3349 2 MP stroke
0 1285 1224 2328 2 MP stroke
93 0 1177 2328 2 MP stroke
93 0 1177 3613 2 MP stroke
0 1448 1293 2404 2 MP stroke
94 0 1246 2404 2 MP stroke
94 0 1246 3852 2 MP stroke
0 871 1362 3026 2 MP stroke
94 0 1315 3026 2 MP stroke
94 0 1315 3897 2 MP stroke
0 1156 1432 2990 2 MP stroke
94 0 1385 2990 2 MP stroke
94 0 1385 4146 2 MP stroke
0 896 1502 3232 2 MP stroke
94 0 1455 3232 2 MP stroke
94 0 1455 4128 2 MP stroke
0 832 1572 3392 2 MP stroke
94 0 1525 3392 2 MP stroke
94 0 1525 4224 2 MP stroke
0 786 1641 3513 2 MP stroke
94 0 1594 3513 2 MP stroke
94 0 1594 4299 2 MP stroke
0 763 1711 3621 2 MP stroke
94 0 1664 3621 2 MP stroke
94 0 1664 4384 2 MP stroke
0 799 1781 3611 2 MP stroke
94 0 1734 3611 2 MP stroke
94 0 1734 4410 2 MP stroke
0 684 1851 3726 2 MP stroke
94 0 1804 3726 2 MP stroke
94 0 1804 4410 2 MP stroke
0 778 1920 3675 2 MP stroke
94 0 1873 3675 2 MP stroke
94 0 1873 4453 2 MP stroke
0 727 1990 3737 2 MP stroke
94 0 1943 3737 2 MP stroke
94 0 1943 4464 2 MP stroke
0 601 2060 3886 2 MP stroke
94 0 2013 3886 2 MP stroke
0 617 2130 3870 2 MP stroke
94 0 2083 3870 2 MP stroke
0 568 2199 3919 2 MP stroke
94 0 2152 3919 2 MP stroke
0 490 2269 3997 2 MP stroke
94 0 2222 3997 2 MP stroke
0 327 2339 4130 2 MP stroke
94 0 2292 4130 2 MP stroke
94 0 2292 4457 2 MP stroke
0 489 2408 3998 2 MP stroke
94 0 2361 3998 2 MP stroke
0 364 2477 4098 2 MP stroke
94 0 2430 4098 2 MP stroke
94 0 2430 4462 2 MP stroke
0 413 2547 4074 2 MP stroke
94 0 2500 4074 2 MP stroke
0 397 2618 4090 2 MP stroke
94 0 2571 4090 2 MP stroke
0 421 2688 4066 2 MP stroke
94 0 2641 4066 2 MP stroke
0 323 2757 4164 2 MP stroke
94 0 2710 4164 2 MP stroke
0 378 2827 4109 2 MP stroke
94 0 2780 4109 2 MP stroke
0 253 2897 4234 2 MP stroke
94 0 2850 4234 2 MP stroke
0 359 2966 4128 2 MP stroke
94 0 2919 4128 2 MP stroke
0 341 3036 4146 2 MP stroke
93 0 2989 4146 2 MP stroke
0 291 3105 4196 2 MP stroke
94 0 3058 4196 2 MP stroke
0 488 3175 3999 2 MP stroke
94 0 3128 3999 2 MP stroke
0 246 3245 4241 2 MP stroke
94 0 3198 4241 2 MP stroke
0 277 3314 4210 2 MP stroke
94 0 3267 4210 2 MP stroke
0 200 3384 4287 2 MP stroke
94 0 3337 4287 2 MP stroke
0 312 3454 4175 2 MP stroke
94 0 3407 4175 2 MP stroke
0 218 3524 4269 2 MP stroke
94 0 3477 4269 2 MP stroke
0 201 3594 4286 2 MP stroke
94 0 3547 4286 2 MP stroke
0 275 3663 4212 2 MP stroke
94 0 3616 4212 2 MP stroke
0 223 3733 4264 2 MP stroke
94 0 3686 4264 2 MP stroke
0 178 3803 4309 2 MP stroke
94 0 3756 4309 2 MP stroke
0 203 3873 4284 2 MP stroke
94 0 3826 4284 2 MP stroke
0 278 3942 4209 2 MP stroke
94 0 3895 4209 2 MP stroke
0 223 4012 4264 2 MP stroke
94 0 3965 4264 2 MP stroke
0 202 4082 4285 2 MP stroke
94 0 4035 4285 2 MP stroke
0 182 4151 4305 2 MP stroke
94 0 4104 4305 2 MP stroke
0 182 4221 4305 2 MP stroke
94 0 4174 4305 2 MP stroke
0 202 4291 4285 2 MP stroke
93 0 4244 4285 2 MP stroke
0 185 4361 4302 2 MP stroke
94 0 4314 4302 2 MP stroke
0 147 4430 4340 2 MP stroke
93 0 4384 4340 2 MP stroke
0 163 4500 4324 2 MP stroke
94 0 4453 4324 2 MP stroke
0 124 4570 4363 2 MP stroke
94 0 4523 4363 2 MP stroke
0 134 4646 4353 2 MP stroke
94 0 4599 4353 2 MP stroke
0 143 4730 4344 2 MP stroke
94 0 4683 4344 2 MP stroke
0 139 4829 4348 2 MP stroke
94 0 4782 4348 2 MP stroke
0 56 4945 4431 2 MP stroke
93 0 4898 4431 2 MP stroke
0 153 5109 4334 2 MP stroke
93 0 5063 4334 2 MP stroke
0 102 5567 4385 2 MP stroke
94 0 5520 4385 2 MP stroke
51 28 99 7 84 13 76 -26 70 40 70 -22 69 19 70 -11 
70 33 70 -33 69 38 70 10 70 7 69 -42 70 3 70 23 
70 5 69 1 70 -26 70 35 70 -39 70 32 69 16 70 32 
70 -15 69 25 70 22 69 -72 70 57 70 -1 69 40 70 -16 
71 15 70 9 69 6 69 -19 70 21 70 55 69 29 70 -16 
70 104 70 36 69 -4 70 57 70 9 70 96 69 98 70 128 
70 112 70 107 69 333 69 157 70 342 70 458 69 424 70 660 
70 660 875 427 58 MP stroke
gr

c10
  36   36  945 1087 FO
  36   36 1015 1747 FO
  36   36 1084 2171 FO
  36   36 1154 2629 FO
  36   36 1224 2971 FO
  36   36 1293 3128 FO
  36   36 1362 3461 FO
  36   36 1432 3568 FO
  36   36 1502 3680 FO
  36   36 1572 3808 FO
  36   36 1641 3906 FO
  36   36 1711 4002 FO
  36   36 1781 4011 FO
  36   36 1851 4068 FO
  36   36 1920 4064 FO
  36   36 1990 4100 FO
  36   36 2060 4204 FO
  36   36 2130 4188 FO
  36   36 2199 4217 FO
  36   36 2269 4272 FO
  36   36 2339 4293 FO
  36   36 2408 4274 FO
  36   36 2477 4280 FO
  36   36 2547 4289 FO
  36   36 2618 4304 FO
  36   36 2688 4288 FO
  36   36 2757 4328 FO
  36   36 2827 4327 FO
  36   36 2897 4384 FO
  36   36 2966 4312 FO
  36   36 3036 4334 FO
  36   36 3105 4359 FO
  36   36 3175 4344 FO
  36   36 3245 4376 FO
  36   36 3314 4392 FO
  36   36 3384 4424 FO
  36   36 3454 4385 FO
  36   36 3524 4420 FO
  36   36 3594 4394 FO
  36   36 3663 4395 FO
  36   36 3733 4400 FO
  36   36 3803 4423 FO
  36   36 3873 4426 FO
  36   36 3942 4384 FO
  36   36 4012 4391 FO
  36   36 4082 4401 FO
  36   36 4151 4439 FO
  36   36 4221 4406 FO
  36   36 4291 4439 FO
  36   36 4361 4428 FO
  36   36 4430 4447 FO
  36   36 4500 4425 FO
  36   36 4570 4465 FO
  36   36 4646 4439 FO
  36   36 4730 4452 FO
  36   36 4829 4459 FO
gs 875 427 5218 4060 rc
427 40 88 -40 5021 4487 3 MP stroke
gr

  36   36 5109 4447 FO
gs 875 427 5218 4060 rc
/c11 { 0.000000 0.800000 0.000000 sr} bdef
c11
0 2463 926 427 2 MP stroke
63 0 894 2890 2 MP stroke
0 2646 977 427 2 MP stroke
62 0 946 3073 2 MP stroke
0 2760 1028 427 2 MP stroke
63 0 997 3187 2 MP stroke
0 2530 1080 745 2 MP stroke
63 0 1048 745 2 MP stroke
63 0 1048 3275 2 MP stroke
0 2358 1131 1110 2 MP stroke
62 0 1100 1110 2 MP stroke
62 0 1100 3468 2 MP stroke
0 2063 1182 1488 2 MP stroke
62 0 1151 1488 2 MP stroke
62 0 1151 3551 2 MP stroke
0 2252 1233 1769 2 MP stroke
62 0 1202 1769 2 MP stroke
62 0 1202 4021 2 MP stroke
0 1636 1284 2180 2 MP stroke
63 0 1253 2180 2 MP stroke
63 0 1253 3816 2 MP stroke
0 1983 1336 2097 2 MP stroke
63 0 1304 2097 2 MP stroke
63 0 1304 4080 2 MP stroke
0 1243 1387 2680 2 MP stroke
63 0 1355 2680 2 MP stroke
63 0 1355 3923 2 MP stroke
0 1471 1438 2670 2 MP stroke
63 0 1406 2670 2 MP stroke
63 0 1406 4141 2 MP stroke
0 1400 1489 2692 2 MP stroke
62 0 1458 2692 2 MP stroke
62 0 1458 4092 2 MP stroke
0 1152 1540 3095 2 MP stroke
63 0 1509 3095 2 MP stroke
63 0 1509 4247 2 MP stroke
0 2373 1592 2114 2 MP stroke
63 0 1560 2114 2 MP stroke
0 1165 1643 3217 2 MP stroke
63 0 1611 3217 2 MP stroke
63 0 1611 4382 2 MP stroke
0 1117 1694 3370 2 MP stroke
63 0 1662 3370 2 MP stroke
0 896 1745 3480 2 MP stroke
62 0 1714 3480 2 MP stroke
62 0 1714 4376 2 MP stroke
0 1120 1796 3367 2 MP stroke
63 0 1765 3367 2 MP stroke
0 987 1847 3453 2 MP stroke
63 0 1816 3453 2 MP stroke
63 0 1816 4440 2 MP stroke
0 836 1899 3611 2 MP stroke
63 0 1867 3611 2 MP stroke
63 0 1867 4447 2 MP stroke
0 1140 1950 3347 2 MP stroke
62 0 1919 3347 2 MP stroke
0 959 2001 3528 2 MP stroke
62 0 1970 3528 2 MP stroke
0 921 2052 3566 2 MP stroke
63 0 2021 3566 2 MP stroke
0 882 2104 3594 2 MP stroke
63 0 2072 3594 2 MP stroke
63 0 2072 4476 2 MP stroke
0 888 2155 3599 2 MP stroke
63 0 2123 3599 2 MP stroke
0 684 2206 3803 2 MP stroke
62 0 2175 3803 2 MP stroke
0 719 2257 3768 2 MP stroke
62 0 2226 3768 2 MP stroke
0 688 2308 3799 2 MP stroke
63 0 2277 3799 2 MP stroke
0 495 2360 3992 2 MP stroke
63 0 2328 3992 2 MP stroke
0 500 2411 3987 2 MP stroke
63 0 2379 3987 2 MP stroke
0 556 2462 3931 2 MP stroke
62 0 2431 3931 2 MP stroke
0 612 2513 3875 2 MP stroke
63 0 2482 3875 2 MP stroke
0 613 2564 3874 2 MP stroke
63 0 2533 3874 2 MP stroke
0 472 2615 4015 2 MP stroke
63 0 2584 4015 2 MP stroke
0 428 2667 4059 2 MP stroke
63 0 2635 4059 2 MP stroke
0 522 2718 3965 2 MP stroke
62 0 2687 3965 2 MP stroke
0 709 2769 3778 2 MP stroke
62 0 2738 3778 2 MP stroke
0 522 2820 3965 2 MP stroke
63 0 2789 3965 2 MP stroke
0 472 2872 4015 2 MP stroke
63 0 2840 4015 2 MP stroke
0 319 2923 4168 2 MP stroke
62 0 2892 4168 2 MP stroke
0 448 2974 4039 2 MP stroke
63 0 2943 4039 2 MP stroke
0 491 3025 3996 2 MP stroke
63 0 2994 3996 2 MP stroke
0 355 3077 4132 2 MP stroke
63 0 3045 4132 2 MP stroke
0 456 3128 4031 2 MP stroke
62 0 3097 4031 2 MP stroke
0 592 3179 3895 2 MP stroke
62 0 3148 3895 2 MP stroke
0 321 3230 4166 2 MP stroke
63 0 3199 4166 2 MP stroke
0 443 3281 4044 2 MP stroke
63 0 3250 4044 2 MP stroke
0 324 3332 4163 2 MP stroke
63 0 3301 4163 2 MP stroke
0 366 3384 4121 2 MP stroke
63 0 3352 4121 2 MP stroke
0 242 3435 4245 2 MP stroke
63 0 3403 4245 2 MP stroke
0 352 3486 4135 2 MP stroke
62 0 3455 4135 2 MP stroke
0 324 3537 4163 2 MP stroke
63 0 3506 4163 2 MP stroke
0 363 3589 4124 2 MP stroke
63 0 3557 4124 2 MP stroke
0 582 3640 3905 2 MP stroke
62 0 3609 3905 2 MP stroke
0 222 3693 4265 2 MP stroke
63 0 3661 4265 2 MP stroke
0 327 3748 4160 2 MP stroke
63 0 3716 4160 2 MP stroke
0 415 3804 4072 2 MP stroke
63 0 3773 4072 2 MP stroke
0 340 3875 4147 2 MP stroke
63 0 3843 4147 2 MP stroke
0 359 4009 4128 2 MP stroke
62 0 3978 4128 2 MP stroke
47 97 51 -73 51 10 52 40 51 54 51 -98 51 86 51 44 
51 -141 52 134 51 -65 51 13 51 105 52 -48 51 90 51 -97 
51 20 52 -32 51 131 51 -24 51 -36 51 -6 51 16 52 93 
51 17 51 -37 51 52 51 107 52 -46 51 63 51 18 51 -29 
52 83 51 -30 51 48 51 -20 51 149 51 397 52 -269 51 279 
51 -13 51 103 51 213 52 91 51 103 51 375 51 231 51 279 
52 397 51 225 51 817 51 144 875 427 53 MP stroke
gr

c11
  36   36  926  571 FO
  36   36  977 1388 FO
  36   36 1028 1613 FO
  36   36 1080 2010 FO
  36   36 1131 2289 FO
  36   36 1182 2520 FO
  36   36 1233 2895 FO
  36   36 1284 2998 FO
  36   36 1336 3089 FO
  36   36 1387 3302 FO
  36   36 1438 3405 FO
  36   36 1489 3392 FO
  36   36 1540 3671 FO
  36   36 1592 3402 FO
  36   36 1643 3799 FO
  36   36 1694 3948 FO
  36   36 1745 3928 FO
  36   36 1796 3976 FO
  36   36 1847 3946 FO
  36   36 1899 4029 FO
  36   36 1950 4000 FO
  36   36 2001 4018 FO
  36   36 2052 4081 FO
  36   36 2104 4035 FO
  36   36 2155 4142 FO
  36   36 2206 4194 FO
  36   36 2257 4157 FO
  36   36 2308 4174 FO
  36   36 2360 4267 FO
  36   36 2411 4283 FO
  36   36 2462 4277 FO
  36   36 2513 4241 FO
  36   36 2564 4217 FO
  36   36 2615 4348 FO
  36   36 2667 4316 FO
  36   36 2718 4336 FO
  36   36 2769 4239 FO
  36   36 2820 4329 FO
  36   36 2872 4281 FO
  36   36 2923 4386 FO
  36   36 2974 4399 FO
  36   36 3025 4334 FO
  36   36 3077 4468 FO
  36   36 3128 4327 FO
  36   36 3179 4371 FO
  36   36 3230 4457 FO
  36   36 3281 4359 FO
  36   36 3332 4413 FO
  36   36 3384 4453 FO
  36   36 3435 4463 FO
  36   36 3486 4390 FO
gs 875 427 5218 4060 rc
134 -2 71 24 56 -21 55 -65 53 139 51 -123 42 -45 3547 4487 8 MP stroke
gr

  36   36 3589 4442 FO
  36   36 3640 4319 FO
  36   36 3693 4458 FO
  36   36 3748 4393 FO
  36   36 3804 4372 FO
  36   36 3875 4396 FO
  36   36 4009 4394 FO
gs 875 427 5218 4060 rc
gr

0 sg
%%IncludeResource: font Helvetica
/Helvetica /ISOLatin1Encoding 168 FMSR

1310  156 mt 
(Fluorescence decay at different microscope magnifications) s
%%IncludeResource: font Helvetica
/Helvetica /ISOLatin1Encoding 144 FMSR

2666  327 mt 
(TetR / 60% laser intensity) s
3244 4792 mt 
(time \(s\)) s
 553 2972 mt  -90 rotate
(% Fluorescence) s
90 rotate
%%IncludeResource: font Helvetica
/Helvetica /ISOLatin1Encoding 120 FMSR

 858 4529 mt 
( ) s
6076  469 mt 
( ) s
1 sg
0 626 1206 0 0 -626 4827 1113 4 MP
PP
-1206 0 0 626 1206 0 0 -626 4827 1113 5 MP stroke
4 w
DO
SO
6 w
0 sg
4827 1113 mt 6033 1113 L
4827  487 mt 6033  487 L
4827 1113 mt 4827  487 L
6033 1113 mt 6033  487 L
4827 1113 mt 6033 1113 L
4827 1113 mt 4827  487 L
4827 1113 mt 6033 1113 L
4827  487 mt 6033  487 L
4827 1113 mt 4827  487 L
6033 1113 mt 6033  487 L
5267  621 mt 
(mother 40x) s
gs 4827 487 1207 627 rc
c8
338 0 4894 578 2 MP stroke
gs 4990 505 147 147 rc
  36   36 5063  578 FO
gr

gr

c8
0 sg
5267  769 mt 
(mother 20x) s
gs 4827 487 1207 627 rc
c9
338 0 4894 726 2 MP stroke
gs 4990 653 147 147 rc
  36   36 5063  726 FO
gr

gr

c9
0 sg
5267  916 mt 
(daughter 40x) s
gs 4827 487 1207 627 rc
c10
338 0 4894 873 2 MP stroke
gs 4990 800 147 147 rc
  36   36 5063  873 FO
gr

gr

c10
0 sg
5267 1064 mt 
(daughter 20x) s
gs 4827 487 1207 627 rc
c11
338 0 4894 1021 2 MP stroke
gs 4990 948 147 147 rc
  36   36 5063 1021 FO
gr

gr

c11

end %%Color Dict

eplot
%%EndObject

epage
end

showpage

%%Trailer
%%EOF
