%!PS-Adobe-3.0 EPSF-3.0
%%Creator: MATLAB, The MathWorks, Inc. Version 7.14.0.739 (R2012a). Operating System: Darwin 11.4.2 Darwin Kernel Version 11.4.2: Thu Aug 23 16:25:48 PDT 2012; root:xnu-1699.32.7~1/RELEASE_X86_64 x86_64.
%%Title: /Users/zavalaeder/Dropbox/Yeast/bleaching_rate/mag_no_std.eps
%%CreationDate: 11/15/2012  16:39:22
%%DocumentNeededFonts: Helvetica
%%DocumentProcessColors: Cyan Magenta Yellow Black
%%LanguageLevel: 2
%%Pages: 1
%%BoundingBox:    25   186   586   606
%%EndComments

%%BeginProlog
% MathWorks dictionary
/MathWorks 160 dict begin
% definition operators
/bdef {bind def} bind def
/ldef {load def} bind def
/xdef {exch def} bdef
/xstore {exch store} bdef
% operator abbreviations
/c  /clip ldef
/cc /concat ldef
/cp /closepath ldef
/gr /grestore ldef
/gs /gsave ldef
/mt /moveto ldef
/np /newpath ldef
/cm /currentmatrix ldef
/sm /setmatrix ldef
/rm /rmoveto ldef
/rl /rlineto ldef
/s {show newpath} bdef
/sc {setcmykcolor} bdef
/sr /setrgbcolor ldef
/sg /setgray ldef
/w /setlinewidth ldef
/j /setlinejoin ldef
/cap /setlinecap ldef
/rc {rectclip} bdef
/rf {rectfill} bdef
% page state control
/pgsv () def
/bpage {/pgsv save def} bdef
/epage {pgsv restore} bdef
/bplot /gsave ldef
/eplot {stroke grestore} bdef
% orientation switch
/portraitMode 0 def /landscapeMode 1 def /rotateMode 2 def
% coordinate system mappings
/dpi2point 0 def
% font control
/FontSize 0 def
/FMS {/FontSize xstore findfont [FontSize 0 0 FontSize neg 0 0]
  makefont setfont} bdef
/reencode {exch dup where {pop load} {pop StandardEncoding} ifelse
  exch dup 3 1 roll findfont dup length dict begin
  { 1 index /FID ne {def}{pop pop} ifelse } forall
  /Encoding exch def currentdict end definefont pop} bdef
/isroman {findfont /CharStrings get /Agrave known} bdef
/FMSR {3 1 roll 1 index dup isroman {reencode} {pop pop} ifelse
  exch FMS} bdef
/csm {1 dpi2point div -1 dpi2point div scale neg translate
 dup landscapeMode eq {pop -90 rotate}
  {rotateMode eq {90 rotate} if} ifelse} bdef
% line types: solid, dotted, dashed, dotdash
/SO { [] 0 setdash } bdef
/DO { [.5 dpi2point mul 4 dpi2point mul] 0 setdash } bdef
/DA { [6 dpi2point mul] 0 setdash } bdef
/DD { [.5 dpi2point mul 4 dpi2point mul 6 dpi2point mul 4
  dpi2point mul] 0 setdash } bdef
% macros for lines and objects
/L {lineto stroke} bdef
/MP {3 1 roll moveto 1 sub {rlineto} repeat} bdef
/AP {{rlineto} repeat} bdef
/PDlw -1 def
/W {/PDlw currentlinewidth def setlinewidth} def
/PP {closepath eofill} bdef
/DP {closepath stroke} bdef
/MR {4 -2 roll moveto dup  0 exch rlineto exch 0 rlineto
  neg 0 exch rlineto closepath} bdef
/FR {MR stroke} bdef
/PR {MR fill} bdef
/L1i {{currentfile picstr readhexstring pop} image} bdef
/tMatrix matrix def
/MakeOval {newpath tMatrix currentmatrix pop translate scale
0 0 1 0 360 arc tMatrix setmatrix} bdef
/FO {MakeOval stroke} bdef
/PO {MakeOval fill} bdef
/PD {currentlinewidth 2 div 0 360 arc fill
   PDlw -1 eq not {PDlw w /PDlw -1 def} if} def
/FA {newpath tMatrix currentmatrix pop translate scale
  0 0 1 5 -2 roll arc tMatrix setmatrix stroke} bdef
/PA {newpath tMatrix currentmatrix pop	translate 0 0 moveto scale
  0 0 1 5 -2 roll arc closepath tMatrix setmatrix fill} bdef
/FAn {newpath tMatrix currentmatrix pop translate scale
  0 0 1 5 -2 roll arcn tMatrix setmatrix stroke} bdef
/PAn {newpath tMatrix currentmatrix pop translate 0 0 moveto scale
  0 0 1 5 -2 roll arcn closepath tMatrix setmatrix fill} bdef
/vradius 0 def /hradius 0 def /lry 0 def
/lrx 0 def /uly 0 def /ulx 0 def /rad 0 def
/MRR {/vradius xdef /hradius xdef /lry xdef /lrx xdef /uly xdef
  /ulx xdef newpath tMatrix currentmatrix pop ulx hradius add uly
  vradius add translate hradius vradius scale 0 0 1 180 270 arc 
  tMatrix setmatrix lrx hradius sub uly vradius add translate
  hradius vradius scale 0 0 1 270 360 arc tMatrix setmatrix
  lrx hradius sub lry vradius sub translate hradius vradius scale
  0 0 1 0 90 arc tMatrix setmatrix ulx hradius add lry vradius sub
  translate hradius vradius scale 0 0 1 90 180 arc tMatrix setmatrix
  closepath} bdef
/FRR {MRR stroke } bdef
/PRR {MRR fill } bdef
/MlrRR {/lry xdef /lrx xdef /uly xdef /ulx xdef /rad lry uly sub 2 div def
  newpath tMatrix currentmatrix pop ulx rad add uly rad add translate
  rad rad scale 0 0 1 90 270 arc tMatrix setmatrix lrx rad sub lry rad
  sub translate rad rad scale 0 0 1 270 90 arc tMatrix setmatrix
  closepath} bdef
/FlrRR {MlrRR stroke } bdef
/PlrRR {MlrRR fill } bdef
/MtbRR {/lry xdef /lrx xdef /uly xdef /ulx xdef /rad lrx ulx sub 2 div def
  newpath tMatrix currentmatrix pop ulx rad add uly rad add translate
  rad rad scale 0 0 1 180 360 arc tMatrix setmatrix lrx rad sub lry rad
  sub translate rad rad scale 0 0 1 0 180 arc tMatrix setmatrix
  closepath} bdef
/FtbRR {MtbRR stroke } bdef
/PtbRR {MtbRR fill } bdef
/stri 6 array def /dtri 6 array def
/smat 6 array def /dmat 6 array def
/tmat1 6 array def /tmat2 6 array def /dif 3 array def
/asub {/ind2 exch def /ind1 exch def dup dup
  ind1 get exch ind2 get sub exch } bdef
/tri_to_matrix {
  2 0 asub 3 1 asub 4 0 asub 5 1 asub
  dup 0 get exch 1 get 7 -1 roll astore } bdef
/compute_transform {
  dmat dtri tri_to_matrix tmat1 invertmatrix 
  smat stri tri_to_matrix tmat2 concatmatrix } bdef
/ds {stri astore pop} bdef
/dt {dtri astore pop} bdef
/db {2 copy /cols xdef /rows xdef mul dup 3 mul string
  currentfile 
  3 index 0 eq {/ASCIIHexDecode filter}
  {/ASCII85Decode filter 3 index 2 eq {/RunLengthDecode filter} if }
  ifelse exch readstring pop
  dup 0 3 index getinterval /rbmap xdef
  dup 2 index dup getinterval /gbmap xdef
  1 index dup 2 mul exch getinterval /bbmap xdef pop pop}bdef
/it {gs np dtri aload pop moveto lineto lineto cp c
  cols rows 8 compute_transform 
  rbmap gbmap bbmap true 3 colorimage gr}bdef
/il {newpath moveto lineto stroke}bdef
currentdict end def
%%EndProlog

%%BeginSetup
MathWorks begin

0 cap

end
%%EndSetup

%%Page: 1 1
%%BeginPageSetup
%%PageBoundingBox:    25   186   586   606
MathWorks begin
bpage
%%EndPageSetup

%%BeginObject: obj1
bplot

/dpi2point 12 def
portraitMode 0300 7272 csm

    0     0  6732  5040 rc
87 dict begin %Colortable dictionary
/c0 { 0.000000 0.000000 0.000000 sr} bdef
/c1 { 1.000000 1.000000 1.000000 sr} bdef
/c2 { 0.900000 0.000000 0.000000 sr} bdef
/c3 { 0.000000 0.820000 0.000000 sr} bdef
/c4 { 0.000000 0.000000 0.800000 sr} bdef
/c5 { 0.910000 0.820000 0.320000 sr} bdef
/c6 { 1.000000 0.260000 0.820000 sr} bdef
/c7 { 0.000000 0.820000 0.820000 sr} bdef
c0
1 j
1 sg
   0    0 6733 5041 rf
6 w
0 4039 5217 0 0 -4039 875 4486 4 MP
PP
-5217 0 0 4039 5217 0 0 -4039 875 4486 5 MP stroke
4 w
DO
SO
6 w
0 sg
 875 4486 mt 6092 4486 L
 875  447 mt 6092  447 L
 875 4486 mt  875  447 L
6092 4486 mt 6092  447 L
 875 4486 mt 6092 4486 L
 875 4486 mt  875  447 L
 875 4486 mt  875 4433 L
 875  448 mt  875  500 L
%%IncludeResource: font Helvetica
/Helvetica /ISOLatin1Encoding 120 FMSR

 842 4631 mt 
(0) s
1620 4486 mt 1620 4433 L
1620  448 mt 1620  500 L
1554 4631 mt 
(10) s
2365 4486 mt 2365 4433 L
2365  448 mt 2365  500 L
2299 4631 mt 
(20) s
3110 4486 mt 3110 4433 L
3110  448 mt 3110  500 L
3044 4631 mt 
(30) s
3856 4486 mt 3856 4433 L
3856  448 mt 3856  500 L
3790 4631 mt 
(40) s
4601 4486 mt 4601 4433 L
4601  448 mt 4601  500 L
4535 4631 mt 
(50) s
5346 4486 mt 5346 4433 L
5346  448 mt 5346  500 L
5280 4631 mt 
(60) s
6092 4486 mt 6092 4433 L
6092  448 mt 6092  500 L
6026 4631 mt 
(70) s
 875 4486 mt  927 4486 L
6092 4486 mt 6039 4486 L
 774 4530 mt 
(0) s
 875 4082 mt  927 4082 L
6092 4082 mt 6039 4082 L
 707 4126 mt 
(10) s
 875 3678 mt  927 3678 L
6092 3678 mt 6039 3678 L
 707 3722 mt 
(20) s
 875 3274 mt  927 3274 L
6092 3274 mt 6039 3274 L
 707 3318 mt 
(30) s
 875 2870 mt  927 2870 L
6092 2870 mt 6039 2870 L
 707 2914 mt 
(40) s
 875 2467 mt  927 2467 L
6092 2467 mt 6039 2467 L
 707 2511 mt 
(50) s
 875 2063 mt  927 2063 L
6092 2063 mt 6039 2063 L
 707 2107 mt 
(60) s
 875 1659 mt  927 1659 L
6092 1659 mt 6039 1659 L
 707 1703 mt 
(70) s
 875 1255 mt  927 1255 L
6092 1255 mt 6039 1255 L
 707 1299 mt 
(80) s
 875  851 mt  927  851 L
6092  851 mt 6039  851 L
 707  895 mt 
(90) s
 875  448 mt  927  448 L
6092  448 mt 6039  448 L
 640  492 mt 
(100) s
 875 4486 mt 6092 4486 L
 875  447 mt 6092  447 L
 875 4486 mt  875  447 L
6092 4486 mt 6092  447 L
gs 875 448 5218 4039 rc
gr

/c8 { 1.000000 0.000000 0.000000 sr} bdef
c8
  36   36  945 2903 FO
  36   36 1015 3533 FO
  36   36 1084 3803 FO
  36   36 1154 3979 FO
  36   36 1224 4083 FO
  36   36 1293 4155 FO
  36   36 1362 4217 FO
  36   36 1432 4256 FO
  36   36 1502 4307 FO
  36   36 1572 4331 FO
  36   36 1641 4337 FO
  36   36 1711 4370 FO
  36   36 1781 4388 FO
  36   36 1851 4383 FO
  36   36 1920 4406 FO
  36   36 1990 4394 FO
  36   36 2060 4417 FO
  36   36 2130 4419 FO
  36   36 2199 4424 FO
  36   36 2269 4447 FO
  36   36 2339 4451 FO
  36   36 2408 4452 FO
  36   36 2477 4450 FO
  36   36 2547 4452 FO
  36   36 2618 4447 FO
  36   36 2688 4467 FO
  36   36 2757 4463 FO
  36   36 2827 4461 FO
  36   36 2897 4463 FO
  36   36 2966 4472 FO
  36   36 3036 4469 FO
  36   36 3105 4473 FO
  36   36 3175 4482 FO
  36   36 3245 4479 FO
gs 875 448 5218 4039 rc
gr

  36   36 3384 4486 FO
  36   36 3454 4483 FO
  36   36 3524 4480 FO
  36   36 3594 4482 FO
  36   36 3663 4479 FO
  36   36 3733 4486 FO
gs 875 448 5218 4039 rc
gr

  36   36 4012 4486 FO
gs 875 448 5218 4039 rc
gr

/c9 { 1.000000 0.400000 0.000000 sr} bdef
c9
 901 2699 mt  951 2749 L
 951 2699 mt  901 2749 L
 952 3236 mt 1002 3286 L
1002 3236 mt  952 3286 L
1003 3581 mt 1053 3631 L
1053 3581 mt 1003 3631 L
1055 3692 mt 1105 3742 L
1105 3692 mt 1055 3742 L
1106 3846 mt 1156 3896 L
1156 3846 mt 1106 3896 L
1157 3982 mt 1207 4032 L
1207 3982 mt 1157 4032 L
1208 3995 mt 1258 4045 L
1258 3995 mt 1208 4045 L
1259 4015 mt 1309 4065 L
1309 4015 mt 1259 4065 L
1311 4138 mt 1361 4188 L
1361 4138 mt 1311 4188 L
1362 4207 mt 1412 4257 L
1412 4207 mt 1362 4257 L
1413 4223 mt 1463 4273 L
1463 4223 mt 1413 4273 L
1464 4181 mt 1514 4231 L
1514 4181 mt 1464 4231 L
1515 4257 mt 1565 4307 L
1565 4257 mt 1515 4307 L
1567 4278 mt 1617 4328 L
1617 4278 mt 1567 4328 L
1618 4328 mt 1668 4378 L
1668 4328 mt 1618 4378 L
1669 4359 mt 1719 4409 L
1719 4359 mt 1669 4409 L
1720 4275 mt 1770 4325 L
1770 4275 mt 1720 4325 L
1771 4321 mt 1821 4371 L
1821 4321 mt 1771 4371 L
1822 4313 mt 1872 4363 L
1872 4313 mt 1822 4363 L
1874 4332 mt 1924 4382 L
1924 4332 mt 1874 4382 L
1925 4432 mt 1975 4482 L
1975 4432 mt 1925 4482 L
1976 4368 mt 2026 4418 L
2026 4368 mt 1976 4418 L
2027 4393 mt 2077 4443 L
2077 4393 mt 2027 4443 L
2079 4369 mt 2129 4419 L
2129 4369 mt 2079 4419 L
2130 4386 mt 2180 4436 L
2180 4386 mt 2130 4436 L
2181 4390 mt 2231 4440 L
2231 4390 mt 2181 4440 L
2232 4398 mt 2282 4448 L
2282 4398 mt 2232 4448 L
2283 4426 mt 2333 4476 L
2333 4426 mt 2283 4476 L
2335 4393 mt 2385 4443 L
2385 4393 mt 2335 4443 L
2386 4457 mt 2436 4507 L
2436 4457 mt 2386 4507 L
2437 4430 mt 2487 4480 L
2487 4430 mt 2437 4480 L
2488 4420 mt 2538 4470 L
2538 4420 mt 2488 4470 L
2539 4406 mt 2589 4456 L
2589 4406 mt 2539 4456 L
2590 4437 mt 2640 4487 L
2640 4437 mt 2590 4487 L
gs 875 448 5218 4039 rc
gr

2847 4443 mt 2897 4493 L
2897 4443 mt 2847 4493 L
2898 4460 mt 2948 4510 L
2948 4460 mt 2898 4510 L
gs 875 448 5218 4039 rc
gr

3052 4445 mt 3102 4495 L
3102 4445 mt 3052 4495 L
3103 4431 mt 3153 4481 L
3153 4431 mt 3103 4481 L
gs 875 448 5218 4039 rc
gr

3307 4455 mt 3357 4505 L
3357 4455 mt 3307 4505 L
gs 875 448 5218 4039 rc
gr

3461 4441 mt 3511 4491 L
3511 4441 mt 3461 4491 L
gs 875 448 5218 4039 rc
gr

3779 4450 mt 3829 4500 L
3829 4450 mt 3779 4500 L
3850 4454 mt 3900 4504 L
3900 4454 mt 3850 4504 L
3984 4453 mt 4034 4503 L
4034 4453 mt 3984 4503 L
gs 875 448 5218 4039 rc
gr

/c10 { 0.000000 0.500000 0.000000 sr} bdef
c10
  36   36  945 1104 FO
  36   36 1015 1761 FO
  36   36 1084 2183 FO
  36   36 1154 2638 FO
  36   36 1224 2978 FO
  36   36 1293 3135 FO
  36   36 1362 3467 FO
  36   36 1432 3573 FO
  36   36 1502 3684 FO
  36   36 1572 3812 FO
  36   36 1641 3909 FO
  36   36 1711 4005 FO
  36   36 1781 4013 FO
  36   36 1851 4070 FO
  36   36 1920 4066 FO
  36   36 1990 4102 FO
  36   36 2060 4205 FO
  36   36 2130 4190 FO
  36   36 2199 4218 FO
  36   36 2269 4273 FO
  36   36 2339 4294 FO
  36   36 2408 4275 FO
  36   36 2477 4281 FO
  36   36 2547 4290 FO
  36   36 2618 4305 FO
  36   36 2688 4289 FO
  36   36 2757 4329 FO
  36   36 2827 4328 FO
  36   36 2897 4384 FO
  36   36 2966 4313 FO
  36   36 3036 4335 FO
  36   36 3105 4360 FO
  36   36 3175 4345 FO
  36   36 3245 4377 FO
  36   36 3314 4393 FO
  36   36 3384 4424 FO
  36   36 3454 4386 FO
  36   36 3524 4420 FO
  36   36 3594 4394 FO
  36   36 3663 4396 FO
  36   36 3733 4401 FO
  36   36 3803 4423 FO
  36   36 3873 4427 FO
  36   36 3942 4384 FO
  36   36 4012 4392 FO
  36   36 4082 4401 FO
  36   36 4151 4439 FO
  36   36 4221 4406 FO
  36   36 4291 4439 FO
  36   36 4361 4428 FO
  36   36 4430 4448 FO
  36   36 4500 4426 FO
  36   36 4570 4465 FO
  36   36 4646 4439 FO
  36   36 4730 4452 FO
  36   36 4829 4459 FO
gs 875 448 5218 4039 rc
gr

  36   36 5109 4447 FO
gs 875 448 5218 4039 rc
gr

/c11 { 0.000000 0.800000 0.000000 sr} bdef
c11
 901  566 mt  951  616 L
 951  566 mt  901  616 L
 952 1379 mt 1002 1429 L
1002 1379 mt  952 1429 L
1003 1603 mt 1053 1653 L
1053 1603 mt 1003 1653 L
1055 1998 mt 1105 2048 L
1105 1998 mt 1055 2048 L
1106 2276 mt 1156 2326 L
1156 2276 mt 1106 2326 L
1157 2505 mt 1207 2555 L
1207 2505 mt 1157 2555 L
1208 2878 mt 1258 2928 L
1258 2878 mt 1208 2928 L
1259 2980 mt 1309 3030 L
1309 2980 mt 1259 3030 L
1311 3071 mt 1361 3121 L
1361 3071 mt 1311 3121 L
1362 3283 mt 1412 3333 L
1412 3283 mt 1362 3333 L
1413 3386 mt 1463 3436 L
1463 3386 mt 1413 3436 L
1464 3372 mt 1514 3422 L
1514 3372 mt 1464 3422 L
1515 3650 mt 1565 3700 L
1565 3650 mt 1515 3700 L
1567 3382 mt 1617 3432 L
1617 3382 mt 1567 3432 L
1618 3778 mt 1668 3828 L
1668 3778 mt 1618 3828 L
1669 3926 mt 1719 3976 L
1719 3926 mt 1669 3976 L
1720 3906 mt 1770 3956 L
1770 3906 mt 1720 3956 L
1771 3953 mt 1821 4003 L
1821 3953 mt 1771 4003 L
1822 3924 mt 1872 3974 L
1872 3924 mt 1822 3974 L
1874 4006 mt 1924 4056 L
1924 4006 mt 1874 4056 L
1925 3978 mt 1975 4028 L
1975 3978 mt 1925 4028 L
1976 3995 mt 2026 4045 L
2026 3995 mt 1976 4045 L
2027 4059 mt 2077 4109 L
2077 4059 mt 2027 4109 L
2079 4013 mt 2129 4063 L
2129 4013 mt 2079 4063 L
2130 4118 mt 2180 4168 L
2180 4118 mt 2130 4168 L
2181 4171 mt 2231 4221 L
2231 4171 mt 2181 4221 L
2232 4134 mt 2282 4184 L
2282 4134 mt 2232 4184 L
2283 4150 mt 2333 4200 L
2333 4150 mt 2283 4200 L
2335 4243 mt 2385 4293 L
2385 4243 mt 2335 4293 L
2386 4259 mt 2436 4309 L
2436 4259 mt 2386 4309 L
2437 4253 mt 2487 4303 L
2487 4253 mt 2437 4303 L
2488 4217 mt 2538 4267 L
2538 4217 mt 2488 4267 L
2539 4193 mt 2589 4243 L
2589 4193 mt 2539 4243 L
2590 4324 mt 2640 4374 L
2640 4324 mt 2590 4374 L
2642 4292 mt 2692 4342 L
2692 4292 mt 2642 4342 L
2693 4311 mt 2743 4361 L
2743 4311 mt 2693 4361 L
2744 4215 mt 2794 4265 L
2794 4215 mt 2744 4265 L
2795 4305 mt 2845 4355 L
2845 4305 mt 2795 4355 L
2847 4257 mt 2897 4307 L
2897 4257 mt 2847 4307 L
2898 4361 mt 2948 4411 L
2948 4361 mt 2898 4411 L
2949 4375 mt 2999 4425 L
2999 4375 mt 2949 4425 L
3000 4310 mt 3050 4360 L
3050 4310 mt 3000 4360 L
3052 4444 mt 3102 4494 L
3102 4444 mt 3052 4494 L
3103 4303 mt 3153 4353 L
3153 4303 mt 3103 4353 L
3154 4346 mt 3204 4396 L
3204 4346 mt 3154 4396 L
3205 4432 mt 3255 4482 L
3255 4432 mt 3205 4482 L
3256 4335 mt 3306 4385 L
3306 4335 mt 3256 4385 L
3307 4389 mt 3357 4439 L
3357 4389 mt 3307 4439 L
3359 4428 mt 3409 4478 L
3409 4428 mt 3359 4478 L
3410 4438 mt 3460 4488 L
3460 4438 mt 3410 4488 L
3461 4365 mt 3511 4415 L
3511 4365 mt 3461 4415 L
gs 875 448 5218 4039 rc
gr

3564 4417 mt 3614 4467 L
3614 4417 mt 3564 4467 L
3615 4294 mt 3665 4344 L
3665 4294 mt 3615 4344 L
3668 4433 mt 3718 4483 L
3718 4433 mt 3668 4483 L
3723 4369 mt 3773 4419 L
3773 4369 mt 3723 4419 L
3779 4348 mt 3829 4398 L
3829 4348 mt 3779 4398 L
3850 4372 mt 3900 4422 L
3900 4372 mt 3850 4422 L
3984 4370 mt 4034 4420 L
4034 4370 mt 3984 4420 L
gs 875 448 5218 4039 rc
gr

0 sg
%%IncludeResource: font Helvetica
/Helvetica /ISOLatin1Encoding 168 FMSR

1310  156 mt 
(Fluorescence decay at different microscope magnifications) s
%%IncludeResource: font Helvetica
/Helvetica /ISOLatin1Encoding 144 FMSR

2215  338 mt 
(TetR / 60% laser intensity / ) s
%%IncludeResource: font Symbol
/Symbol /ISOLatin1Encoding 144 FMSR

3958  338 mt 
(s) s
%%IncludeResource: font Helvetica
/Helvetica /ISOLatin1Encoding 144 FMSR

4044  338 mt 
( not shown) s
3244 4792 mt 
(time \(s\)) s
 553 2983 mt  -90 rotate
(% Fluorescence) s
90 rotate
%%IncludeResource: font Helvetica
/Helvetica /ISOLatin1Encoding 120 FMSR

 858 4529 mt 
( ) s
6076  490 mt 
( ) s
1 sg
0 626 1206 0 0 -626 4827 1134 4 MP
PP
-1206 0 0 626 1206 0 0 -626 4827 1134 5 MP stroke
4 w
DO
SO
6 w
0 sg
4827 1134 mt 6033 1134 L
4827  508 mt 6033  508 L
4827 1134 mt 4827  508 L
6033 1134 mt 6033  508 L
4827 1134 mt 6033 1134 L
4827 1134 mt 4827  508 L
4827 1134 mt 6033 1134 L
4827  508 mt 6033  508 L
4827 1134 mt 4827  508 L
6033 1134 mt 6033  508 L
5267  642 mt 
(mother 40x) s
gs 4827 508 1207 627 rc
gs 4990 526 147 147 rc
c8
  36   36 5063  599 FO
gr

c8
gr

c8
0 sg
5267  790 mt 
(mother 20x) s
gs 4827 508 1207 627 rc
gs 4990 674 147 147 rc
c9
5038  722 mt 5088  772 L
5088  722 mt 5038  772 L
gr

c9
gr

c9
0 sg
5267  937 mt 
(daughter 40x) s
gs 4827 508 1207 627 rc
gs 4990 821 147 147 rc
c10
  36   36 5063  894 FO
gr

c10
gr

c10
0 sg
5267 1085 mt 
(daughter 20x) s
gs 4827 508 1207 627 rc
gs 4990 969 147 147 rc
c11
5038 1017 mt 5088 1067 L
5088 1017 mt 5038 1067 L
gr

c11
gr

c11

end %%Color Dict

eplot
%%EndObject

epage
end

showpage

%%Trailer
%%EOF
