0 1007 0 0 0 0 0
2 883 23 0 91 0 10
4.00004 880 18 0 98 0 8
6 891 17 0 79 0 16
8 888 22 0 78 0 15
10 911 8 0 83 0 12
12 904 25 0 70 0 11
14 902 11 0 84 0 11
16 893 16 0 82 0 12
18 881 22 0 82 0 6
20 897 14 0 78 0 15
22 895 17 0 68 0 11
24 874 20 0 84 0 10
26 877 22 0 77 0 8
28 897 13 0 69 0 7
30 885 19 0 87 0 7
32 892 21 0 75 0 10
34 909 17 0 78 0 6
36 880 17 0 95 0 5
38 905 15 0 70 0 15
40 895 17 0 65 0 12
42 917 15 0 61 0 7
44 892 17 0 89 0 8
46 914 13 0 75 0 9
48 906 17 0 80 0 11
50 912 16 0 82 0 13
52 849 0 72 53 44 0
54 821 0 90 42 69 0
56 793 0 128 31 62 0
58 773 0 158 33 48 0
60 744 0 178 37 44 0
62 731 0 173 37 69 0
64 720 0 203 29 62 0
66 694 0 222 23 69 0
68 680 0 227 27 71 0
70 675 0 256 22 62 0
72 653 0 254 27 67 0
74 634 0 262 37 73 0
76 627 0 273 32 75 0
78 620 0 297 24 71 0
80 608 0 314 21 70 1
82 592 0 336 20 70 0
84 584 0 330 21 72 0
86 567 0 348 26 67 0
88 560 0 350 15 78 0
90 542 0 364 19 76 0
92 527 0 388 22 72 0
94 519 0 412 20 53 0
96 501 0 421 22 71 0
98 494 0 435 21 71 0
100 484 0 429 20 81 0
102 480 0 433 10 82 0
104 457 0 453 21 73 0
106 444 0 450 21 96 0
108 436 0 475 25 80 0
110 427 0 492 18 81 0
112 420 0 487 17 85 0
114 409 0 508 20 65 0
116 399 0 514 19 79 0
118 391 0 530 24 68 0
120 381 0 526 20 84 0
122 378 0 544 16 78 0
124 368 0 564 13 76 0
126 361 0 568 15 75 0
128 358 0 573 16 75 0
130 348 0 564 19 90 0
132 338 0 583 14 82 0
134 331 0 601 21 79 0
136 332 0 607 12 95 0
138 312 0 628 16 79 0
140 303 0 637 16 82 0
142 303 0 645 12 85 0
144 290 0 659 20 79 0
146 290 0 662 8 74 0
148 283 0 667 13 79 0
150 266 0 661 17 86 0
152 266 0 644 8 107 0
154 261 0 653 12 107 0
156 253 0 678 15 96 0
158 249 0 692 9 72 0
160 239 0 691 14 81 0
162 227 0 693 16 83 0
164 229 0 690 15 85 0
166 225 0 701 8 87 0
168 219 0 706 13 83 0
170 220 0 705 10 85 0
172 222 0 712 13 83 0
174 209 0 700 15 95 0
176 206 0 717 10 86 0
178 206 0 707 9 98 0
180 201 0 720 9 92 0
182 200 0 744 4 74 0
184 193 0 728 14 97 0
186 194 0 746 7 91 0
188 190 0 735 7 87 0
190 186 0 737 5 94 0
192 186 0 728 2 106 0
194 183 1 739 4 84 0
196 178 0 741 7 87 0
198 178 0 762 6 68 1
200 171 0 739 10 84 0
