0 4033 0 967 0
2.0001 3775 294 894 37
4 3505 527 876 92
6.0001 3280 712 853 155
8.0001 3136 902 771 191
10.0001 2964 1102 720 214
12.0001 2749 1271 716 264
14.0001 2663 1410 601 326
16.0001 2454 1579 595 372
18.0001 2302 1750 553 395
20.0001 2130 1893 556 421
22.0001 2005 1995 517 483
24.0001 1899 2157 477 467
26.0001 1774 2260 467 499
28.0001 1678 2333 413 576
30.0001 1589 2472 375 564
32.0001 1477 2540 373 610
34 1420 2653 324 603
36 1309 2756 329 606
38 1220 2829 327 624
40 1165 2868 294 673
42 1090 2917 280 713
44 1019 2990 277 714
46 979 3039 237 745
48 917 3152 224 707
50 854 3211 216 719
52 816 3268 196 720
54 749 3279 198 774
56 713 3389 166 732
58 640 3376 174 810
60 627 3456 137 780
62 578 3474 135 813
64 539 3503 130 828
66 487 3547 139 827
68 471 3655 115 759
70 436 3620 114 830
72 409 3603 114 874
74 392 3624 96 888
76 364 3657 92 886
78 335 3682 96 887
80 318 3744 79 859
82 323 3721 50 906
84 266 3766 82 886
86 261 3780 75 884
88 243 3799 71 887
90 238 3792 57 913
92 219 3792 60 929
94 203 3845 55 897
96 194 3818 55 932
98 181 3816 58 945
100 188 3850 39 923
