0 4078 0 922 0
2.0001 3774 281 917 28
4 3535 513 881 71
6.0001 3321 746 802 131
8.0001 3064 919 801 216
10.0001 2936 1110 713 241
12.0001 2773 1288 655 284
14.0001 2576 1462 650 312
16.0001 2433 1599 591 377
18.0001 2281 1749 559 410
20.0001 2081 1929 560 430
22.0001 2005 2063 469 463
24.0001 1886 2180 445 489
26.0001 1743 2290 449 518
28.0001 1634 2414 426 526
30.0001 1575 2471 374 580
32.0001 1496 2586 348 570
34 1388 2669 331 612
36 1265 2723 363 649
38 1218 2848 316 618
40 1139 2926 291 644
42 1068 2947 262 723
44 995 3022 259 723
46 951 3100 224 724
48 884 3122 205 789
50 816 3217 204 763
52 771 3270 193 765
54 735 3377 175 713
56 687 3305 176 831
58 639 3411 180 770
60 599 3420 162 819
62 568 3505 149 778
64 544 3551 131 774
66 504 3513 132 850
68 492 3596 110 802
70 457 3596 106 841
72 420 3601 111 868
74 391 3692 102 815
76 375 3650 90 885
78 366 3652 78 904
80 343 3701 74 882
82 317 3714 76 893
84 302 3687 74 937
86 266 3742 82 910
88 262 3778 61 899
90 234 3827 65 874
92 233 3835 46 886
94 216 3828 50 906
96 200 3812 52 936
98 198 3811 46 945
100 187 3855 47 911
