0 4024 0 976 0
2.0001 3689 271 1005 35
4 3510 530 863 97
6.0001 3321 760 789 130
8.0001 3089 943 773 195
10.0001 2945 1138 685 231
12.0001 2739 1328 672 261
14.0001 2503 1507 672 318
16.0001 2354 1684 598 363
18.0001 2216 1819 543 422
20.0001 2092 1951 487 470
22.0001 1942 2070 504 484
24.0001 1819 2213 465 503
26.0001 1715 2307 438 540
28.0001 1603 2443 393 561
30.0001 1513 2594 349 544
32.0001 1402 2642 337 619
34 1302 2726 311 661
36 1222 2887 290 601
38 1123 2869 291 717
40 1067 2958 257 718
42 975 3013 266 746
44 930 3117 250 703
46 912 3189 199 700
48 841 3217 211 730
50 786 3266 198 750
52 760 3292 166 782
54 706 3353 172 769
56 677 3377 149 797
58 621 3424 147 808
60 595 3465 130 810
62 540 3479 145 836
64 513 3537 129 821
66 471 3528 129 871
68 464 3640 100 796
70 425 3573 111 891
72 395 3645 93 867
74 377 3626 88 909
76 355 3712 83 850
78 332 3714 79 875
80 316 3717 75 892
82 293 3764 72 870
84 266 3767 75 892
86 257 3824 60 858
88 246 3816 55 883
90 219 3805 54 922
92 208 3805 55 932
94 192 3786 51 971
96 177 3831 52 940
98 158 3920 55 867
100 180 3889 25 906
