0 4049 0 951 0
2.0001 3791 300 875 34
4 3520 525 877 78
6.0001 3307 734 828 131
8.0001 3108 929 781 182
10.0001 2970 1081 707 242
12.0001 2766 1243 718 273
14.0001 2633 1400 641 326
16.0001 2447 1604 596 353
18.0001 2323 1760 545 372
20.0001 2230 1891 457 422
22.0001 2010 2001 502 487
24.0001 1929 2154 437 480
26.0001 1802 2282 417 499
28.0001 1663 2372 402 563
30.0001 1548 2495 392 565
32.0001 1457 2573 361 609
34 1380 2705 326 589
36 1302 2764 305 629
38 1203 2814 312 671
40 1139 2825 293 743
42 1082 2955 270 693
44 995 3023 273 709
46 947 3068 243 742
48 889 3129 233 749
50 841 3185 207 767
52 799 3264 179 758
54 715 3304 202 779
56 682 3355 181 782
58 658 3368 164 810
60 571 3438 192 799
62 552 3460 163 825
64 529 3568 147 756
66 515 3523 127 835
68 486 3550 124 840
70 457 3585 114 844
72 429 3620 110 841
74 407 3677 100 816
76 384 3674 98 844
78 370 3705 85 840
80 315 3743 104 838
82 310 3760 79 851
84 299 3735 68 898
86 282 3788 62 868
88 263 3782 58 897
90 239 3828 65 867
92 216 3820 61 903
94 206 3823 59 912
96 196 3830 52 922
98 191 3841 41 927
100 177 3858 38 926
