0 4028 0 972 0
2.0001 3799 241 931 29
4 3543 466 906 85
6.0001 3309 671 893 127
8.0001 3129 874 813 184
10.0001 2943 1085 744 227
12.0001 2797 1267 672 264
14.0001 2577 1451 682 290
16.0001 2427 1608 611 354
18.0001 2272 1746 565 417
20.0001 2124 1880 531 465
22.0001 1993 2054 498 455
24.0001 1880 2166 469 485
26.0001 1743 2256 455 546
28.0001 1645 2380 414 561
30.0001 1584 2460 355 600
32.0001 1482 2533 344 641
34 1371 2669 320 640
36 1254 2793 328 625
38 1168 2891 297 644
40 1116 2960 257 667
42 1047 3002 247 704
44 965 2989 258 788
46 894 3143 241 722
48 840 3191 236 733
50 844 3240 172 744
52 778 3268 171 783
54 747 3316 153 784
56 670 3386 163 781
58 611 3356 172 861
60 604 3421 140 835
62 573 3437 132 858
64 546 3445 113 896
66 501 3541 131 827
68 471 3502 121 906
70 453 3628 109 809
72 427 3602 92 879
74 399 3623 88 890
76 381 3655 83 881
78 357 3749 71 823
80 323 3735 86 856
82 297 3706 84 913
84 292 3704 65 939
86 272 3771 66 891
88 258 3765 58 919
90 247 3793 51 908
92 216 3861 53 870
94 199 3839 54 908
96 191 3874 47 888
98 171 3836 51 942
100 167 3869 44 920
