0 4066 0 934 0
2.0001 3757 285 926 32
4 3522 516 876 86
6.0001 3297 718 843 142
8.0001 3092 915 796 197
10.0001 2921 1115 728 236
12.0001 2715 1301 695 289
14.0001 2570 1437 632 361
16.0001 2397 1639 597 367
18.0001 2251 1753 577 419
20.0001 2095 1886 560 459
22.0001 1990 2068 503 439
24.0001 1875 2183 467 475
26.0001 1726 2288 454 532
28.0001 1635 2400 417 548
30.0001 1557 2499 372 572
32.0001 1419 2558 385 638
34 1362 2688 342 608
36 1289 2767 321 623
38 1205 2813 299 683
40 1123 2901 290 686
42 1065 2977 254 704
44 979 3065 260 696
46 928 3094 230 748
48 895 3157 200 748
50 816 3230 204 750
52 759 3260 205 776
54 742 3282 175 801
56 686 3371 179 764
58 657 3420 157 766
60 597 3416 158 829
62 579 3481 133 807
64 528 3492 134 846
66 490 3553 131 826
68 480 3547 106 867
70 447 3567 109 877
72 415 3608 101 876
74 387 3677 95 841
76 365 3724 85 826
78 345 3739 79 837
80 333 3708 73 886
82 306 3742 62 890
84 277 3756 69 898
86 258 3809 64 869
88 241 3783 53 923
90 225 3841 52 882
92 213 3854 54 879
94 208 3832 45 915
96 193 3840 44 923
98 185 3882 34 899
100 159 3826 43 972
