0 4101 0 899 0
2.0001 3760 279 932 29
4 3569 505 844 82
6.0001 3379 721 758 142
8.0001 3110 928 784 177
10.0001 2926 1117 744 213
12.0001 2788 1286 674 252
14.0001 2557 1394 707 342
16.0001 2434 1565 610 391
18.0001 2313 1740 552 395
20.0001 2153 1911 529 407
22.0001 1995 2035 516 454
24.0001 1925 2134 446 495
26.0001 1774 2242 455 529
28.0001 1711 2355 376 558
30.0001 1561 2432 403 604
32.0001 1457 2578 389 576
34 1343 2680 384 593
36 1309 2731 329 631
38 1196 2800 340 664
40 1171 2912 271 646
42 1093 2988 260 659
44 1008 3018 253 721
46 954 3072 233 741
48 908 3152 207 733
50 856 3185 183 776
52 790 3230 183 797
54 734 3333 184 749
56 689 3343 175 793
58 654 3374 153 819
60 625 3449 135 791
62 569 3507 147 777
64 529 3508 140 823
66 498 3586 129 787
68 465 3591 127 817
70 424 3615 126 835
72 422 3625 102 851
74 402 3677 95 826
76 363 3680 99 858
78 337 3715 90 858
80 323 3720 81 876
82 294 3731 84 890
84 290 3748 71 891
86 283 3768 60 889
88 272 3804 50 874
90 237 3794 65 904
92 223 3793 62 922
94 211 3835 62 892
96 198 3913 57 832
98 190 3841 49 920
100 175 3849 52 924
