0 4023 0 977 0
2.0001 3777 247 948 28
4 3542 479 891 88
6.0001 3349 688 823 140
8.0001 3143 882 796 179
10.0001 2960 1061 754 225
12.0001 2810 1245 675 270
14.0001 2673 1423 610 294
16.0001 2436 1580 659 325
18.0001 2307 1752 574 367
20.0001 2125 1929 549 397
22.0001 2018 2012 510 459
24.0001 1897 2132 481 489
26.0001 1778 2261 458 503
28.0001 1706 2340 381 573
30.0001 1541 2470 415 574
32.0001 1486 2557 366 591
34 1377 2628 367 628
36 1296 2697 333 674
38 1188 2856 339 617
40 1147 2851 298 704
42 1077 2948 271 704
44 988 3061 260 691
46 929 3125 232 714
48 892 3156 200 752
50 826 3251 182 741
52 791 3264 158 787
54 720 3327 169 784
56 682 3372 154 791
58 637 3428 147 788
60 591 3498 146 764
62 539 3451 132 878
64 514 3501 129 856
66 475 3523 135 867
68 460 3580 110 850
70 435 3663 100 802
72 405 3674 95 826
74 389 3657 90 864
76 363 3689 94 854
78 336 3676 90 898
80 323 3697 79 901
82 303 3725 74 898
84 290 3693 65 952
86 263 3771 72 894
88 260 3799 55 886
90 237 3813 54 896
92 218 3838 47 897
94 211 3864 36 889
96 197 3860 38 905
98 189 3841 31 939
100 157 3844 51 948
