0 4034 0 966 0
2.0001 3746 281 939 34
4 3489 514 906 91
6.0001 3285 757 827 131
8.0001 3096 944 791 169
10.0001 2958 1117 690 235
12.0001 2754 1324 654 268
14.0001 2556 1495 627 322
16.0001 2381 1612 600 407
18.0001 2200 1821 559 420
20.0001 2082 1978 506 434
22.0001 1964 2124 457 455
24.0001 1818 2208 456 517
26.0001 1702 2357 434 507
28.0001 1627 2461 370 542
30.0001 1468 2543 395 594
32.0001 1384 2620 359 637
34 1331 2772 304 593
36 1200 2808 319 673
38 1177 2897 252 674
40 1098 2956 250 696
42 1038 3000 239 723
44 959 3034 246 761
46 891 3074 231 804
48 856 3185 214 745
50 813 3209 192 786
52 742 3245 192 821
54 698 3356 189 757
56 634 3372 184 810
58 604 3425 160 811
60 572 3489 150 789
62 536 3507 135 822
64 508 3530 121 841
66 487 3540 106 867
68 441 3567 114 878
70 395 3620 131 854
72 384 3653 111 852
74 377 3680 89 854
76 340 3712 101 847
78 328 3743 87 842
80 313 3760 75 852
82 287 3765 75 873
84 276 3804 63 857
86 251 3850 65 834
88 254 3840 47 859
90 230 3830 51 889
92 207 3830 51 912
94 197 3840 42 921
96 180 3873 43 904
98 162 3859 45 934
100 159 3902 37 902
