0 1042 0 0 0 0 0
2 968 13 0 60 0 13
4.00004 932 8 0 96 0 19
6 918 3 0 98 0 38
8 902 2 0 116 0 33
10 876 0 0 141 0 29
12 857 0 0 146 0 49
14 862 0 0 151 0 36
16 852 0 0 150 0 50
18 856 0 0 136 0 56
20 859 0 0 141 0 37
22 841 0 0 156 0 41
24 822 0 0 154 0 61
26 814 0 0 179 0 59
28 801 0 0 184 0 61
30 811 0 0 172 0 53
32 818 0 0 164 0 50
34 822 0 0 156 0 46
36 842 0 0 136 0 51
38 837 0 0 148 0 48
40 825 0 0 160 0 62
42 832 0 0 161 0 52
44 813 0 0 168 0 66
46 815 0 0 186 0 52
48 830 0 0 159 0 51
50 823 0 0 163 0 50
52 801 0 27 68 140 0
54 776 0 57 49 163 0
56 750 0 93 47 146 0
58 717 0 120 52 157 0
60 694 0 142 39 176 0
62 671 0 179 29 187 0
64 643 0 206 39 176 0
66 619 0 242 37 170 1
68 593 0 267 40 152 1
70 568 0 284 45 157 0
72 548 0 310 26 170 1
74 523 0 329 33 183 0
76 495 0 355 38 193 0
78 480 0 385 38 179 1
80 460 0 401 31 201 0
82 451 0 432 25 181 0
84 429 0 445 24 197 0
86 405 0 473 26 193 1
88 390 0 488 20 189 2
90 373 0 492 25 193 0
92 359 0 507 14 216 0
94 335 0 521 23 201 0
96 318 0 528 24 215 0
98 303 0 540 15 240 0
100 292 0 570 11 220 0
102 282 0 583 12 202 0
104 262 0 591 20 209 0
106 258 0 610 13 206 0
108 246 0 626 9 218 0
110 240 0 637 9 210 0
112 226 0 646 14 198 0
114 219 0 647 12 204 0
116 207 0 664 8 197 0
118 192 0 666 17 216 0
120 186 0 670 14 223 0
122 182 0 684 7 229 0
124 171 0 683 11 217 0
126 160 0 695 14 205 0
128 152 0 699 15 199 0
130 148 0 688 12 208 0
132 149 0 682 9 236 0
134 138 0 703 9 208 0
136 130 0 696 10 207 0
138 128 0 722 7 198 0
140 124 0 725 10 203 0
142 121 0 716 6 228 0
144 114 0 719 8 231 0
146 107 0 730 11 207 0
148 99 0 740 12 210 0
150 99 0 751 7 206 0
152 94 0 751 8 196 0
154 90 0 772 7 181 0
156 90 0 767 3 197 0
158 88 0 753 5 227 0
160 81 0 754 8 219 0
162 78 0 747 10 238 0
164 76 0 758 7 219 0
166 73 0 765 3 212 0
168 71 0 767 4 190 0
170 68 0 773 3 214 0
172 67 0 770 2 218 0
174 64 0 763 3 207 0
176 61 0 777 7 206 0
178 60 0 764 8 225 0
180 58 0 764 5 212 0
182 57 0 763 3 216 0
184 55 0 761 7 217 0
186 49 0 761 8 204 0
188 50 0 779 1 196 0
190 47 0 788 4 188 0
192 48 0 763 2 211 0
194 48 0 767 1 201 0
196 44 0 764 3 214 0
198 42 0 756 4 218 0
200 40 0 753 2 229 0
