0 1003 0 0 0 0 0
2 932 0 0 59 0 0
4.00004 928 0 0 69 0 0
6 905 0 0 90 0 0
8 888 0 0 111 0 0
10 874 0 0 127 0 0
12 875 0 0 123 0 0
14 849 0 0 161 0 0
16 841 0 0 168 0 0
18 845 0 0 153 0 0
20 842 0 0 149 0 0
22 841 0 0 162 0 0
24 831 0 0 172 0 0
26 837 0 0 161 0 0
28 850 0 0 158 0 0
30 850 0 0 166 0 0
32 856 0 0 166 0 0
34 845 0 0 179 0 0
36 841 0 0 180 0 0
38 833 0 0 175 0 0
40 846 0 0 163 0 0
42 860 0 0 163 0 0
44 863 0 0 154 0 0
46 851 0 0 173 0 0
48 841 0 0 184 0 0
50 849 0 0 183 0 0
52 846 0 0 165 12 0
54 850 0 1 148 30 0
56 840 0 2 139 51 0
58 848 0 5 117 49 0
60 836 0 8 120 59 0
62 827 0 15 115 63 0
64 824 0 19 110 61 0
66 825 0 28 100 65 0
68 800 0 39 118 58 0
70 811 0 51 99 57 0
72 807 0 54 96 66 0
74 789 0 56 99 76 0
76 779 0 65 104 72 0
78 782 0 76 89 75 0
80 775 0 87 86 58 0
82 758 0 96 99 56 0
84 750 0 101 100 65 0
86 750 0 106 94 71 0
88 750 0 112 82 73 0
90 740 0 113 81 87 0
92 736 0 123 79 92 0
94 731 0 129 75 96 0
96 724 0 128 78 107 0
98 712 0 145 84 85 0
100 709 0 159 72 78 0
102 696 0 155 79 87 0
104 682 0 164 81 98 0
106 683 0 171 71 94 0
108 666 0 176 80 107 0
110 658 0 178 83 108 0
112 657 0 189 70 105 0
114 655 0 197 68 111 0
116 642 0 201 73 114 0
118 648 0 210 63 103 0
120 645 0 212 64 116 0
122 634 0 222 67 104 0
124 634 0 233 67 111 0
126 627 0 231 66 109 0
128 614 0 240 68 104 0
130 608 0 249 67 90 0
132 586 0 258 83 100 0
134 596 0 268 71 105 0
136 588 0 278 71 98 0
138 586 0 283 61 101 0
140 587 0 292 54 96 0
142 593 0 300 41 95 0
144 585 0 298 44 94 0
146 568 0 310 59 97 0
148 560 0 316 66 105 0
150 563 0 325 57 97 0
152 558 0 332 58 97 0
154 549 0 339 61 103 0
156 542 0 340 66 107 0
158 533 0 348 67 94 0
160 536 0 347 56 105 0
162 520 0 347 70 103 0
164 518 0 348 62 112 0
166 521 0 353 53 119 0
168 505 0 353 62 118 0
170 502 0 358 58 116 0
172 498 0 370 56 114 0
174 497 0 368 56 104 0
176 500 0 374 50 107 0
178 488 0 387 58 105 0
180 494 0 390 51 120 0
182 494 0 392 50 122 0
184 494 0 383 47 143 0
186 491 0 403 46 129 0
188 479 0 401 54 128 0
190 486 0 402 44 144 0
192 472 0 408 54 135 0
194 472 0 414 49 145 0
196 469 0 423 46 145 0
198 463 0 429 49 133 0
200 460 0 435 49 129 0
