0 880 0 0 0 0 0
2 811 0 0 69 0 0
4.00004 762 0 0 102 0 0
6 740 0 0 131 0 0
8 740 0 0 137 0 0
10 711 0 0 170 0 0
12 711 0 0 168 0 0
14 694 0 0 195 0 0
16 682 0 0 223 0 0
18 683 0 0 218 0 0
20 689 0 0 208 0 0
22 697 0 0 205 0 0
24 713 0 0 194 0 0
26 710 0 0 194 0 0
28 709 0 0 201 0 0
30 698 0 0 223 0 0
32 713 0 0 205 0 0
34 703 0 0 218 0 0
36 705 0 0 201 0 0
38 709 0 0 218 0 0
40 709 0 0 230 0 0
42 735 0 0 205 0 0
44 719 0 0 222 0 0
46 723 0 0 218 0 0
48 713 0 0 238 0 0
50 729 0 0 217 0 0
52 731 0 0 194 21 0
54 721 0 0 184 41 0
56 715 0 3 168 61 0
58 698 0 6 168 71 0
60 674 0 12 178 77 0
62 677 0 18 158 76 0
64 660 0 28 152 87 0
66 655 0 41 152 90 0
68 645 0 46 139 109 0
70 633 0 52 133 110 0
72 633 0 58 121 107 0
74 614 0 70 130 130 0
76 603 0 82 126 127 0
78 605 0 96 111 120 0
80 605 0 104 98 131 0
82 592 0 124 101 124 0
84 589 0 129 96 126 0
86 581 0 142 94 130 0
88 571 0 151 96 129 0
90 551 0 162 108 134 0
92 530 0 167 123 142 0
94 529 0 181 112 141 0
96 515 0 192 112 144 0
98 497 0 198 120 151 0
100 502 0 210 99 159 0
102 491 0 224 100 155 0
104 476 0 238 102 139 0
106 473 0 241 95 149 0
108 469 0 255 90 145 0
110 457 0 257 96 153 0
112 451 0 256 91 154 0
114 444 0 265 86 155 0
116 446 0 275 80 144 0
118 433 0 273 85 160 0
120 426 0 270 81 174 0
122 428 0 288 77 167 0
124 403 0 291 95 176 0
126 401 0 305 90 168 0
128 410 0 314 69 161 0
130 410 0 312 63 192 0
132 403 0 325 69 174 0
134 401 0 350 63 147 0
136 394 0 355 64 168 0
138 386 0 365 67 166 0
140 386 0 370 61 171 0
142 370 0 382 74 164 0
144 377 0 384 63 159 0
146 363 0 396 70 162 0
148 355 0 406 67 144 0
150 352 0 413 63 164 0
152 341 0 415 67 172 0
154 342 0 414 60 183 0
156 345 0 418 54 181 0
158 341 0 423 51 173 0
160 331 0 421 60 191 0
162 320 0 427 65 184 0
164 311 0 447 70 177 0
166 309 0 441 66 182 0
168 312 0 447 57 185 0
170 297 0 452 69 174 0
172 298 0 451 57 191 0
174 298 0 455 49 180 0
176 281 0 452 61 186 0
178 273 0 444 65 204 0
180 279 0 468 53 190 0
182 272 0 465 55 205 0
184 272 0 481 50 179 0
186 262 0 471 55 190 0
188 265 0 472 49 200 0
190 257 0 476 50 201 0
192 257 0 481 51 192 0
194 242 0 481 59 202 0
196 239 0 488 58 193 0
198 230 0 497 60 198 0
200 230 0 493 59 207 0
