0 1014 0 0 0 0 0
2 955 0 0 58 0 0
4.00004 933 0 0 82 0 0
6 926 0 0 97 0 0
8 917 0 0 112 0 0
10 906 0 0 119 0 0
12 895 0 0 137 0 0
14 907 0 0 118 0 0
16 889 0 0 140 0 0
18 883 0 0 145 0 0
20 874 0 0 156 0 0
22 858 0 0 174 0 0
24 862 0 0 175 0 0
26 860 0 0 175 0 0
28 853 0 0 184 0 0
30 848 0 0 187 0 0
32 859 0 0 181 0 0
34 858 0 0 177 0 0
36 860 0 0 176 0 0
38 855 0 0 181 0 0
40 838 0 0 186 0 0
42 847 0 0 184 0 0
44 826 0 0 196 0 0
46 844 0 0 187 0 0
48 841 0 0 191 0 0
50 842 0 0 198 0 0
52 839 0 0 182 8 0
54 829 0 0 168 23 0
56 826 0 0 160 36 0
58 819 0 1 162 45 0
60 824 0 8 151 49 0
62 826 0 11 136 56 0
64 837 0 19 124 61 0
66 830 0 22 117 57 0
68 807 0 28 132 58 0
70 806 0 29 128 63 0
72 811 0 36 114 69 0
74 792 0 39 119 69 0
76 783 0 46 117 65 0
78 777 0 50 112 71 0
80 781 0 53 104 81 0
82 780 0 54 98 77 0
84 766 0 59 110 78 0
86 761 0 63 104 86 0
88 750 0 68 106 86 0
90 728 0 78 118 83 0
92 717 0 82 126 102 0
94 727 0 93 111 91 0
96 715 0 107 117 89 0
98 709 0 113 118 94 0
100 714 0 127 108 83 0
102 701 0 138 115 93 0
104 698 0 143 113 88 0
106 686 0 152 115 88 0
108 680 0 156 115 91 0
110 673 0 154 116 99 0
112 666 0 157 106 112 0
114 667 0 174 100 104 0
116 659 0 178 111 101 0
118 650 0 190 112 96 0
120 654 0 193 101 90 0
122 652 0 193 94 90 0
124 641 0 201 102 83 0
126 638 0 200 96 96 0
128 632 0 203 94 95 0
130 630 0 212 89 84 0
132 635 0 213 80 93 0
134 624 0 223 84 90 0
136 615 0 225 89 92 0
138 614 0 230 83 99 0
140 606 0 233 87 101 0
142 597 0 235 90 118 0
144 597 0 243 87 115 0
146 607 0 238 72 128 0
148 596 0 242 80 128 0
150 587 0 247 83 135 0
152 579 0 255 88 123 0
154 575 0 257 90 124 0
156 573 0 262 86 129 0
158 558 0 260 101 134 0
160 559 0 263 90 139 0
162 575 0 267 69 134 0
164 562 0 277 76 124 0
166 561 0 287 73 126 0
168 559 0 295 67 119 0
170 547 0 298 76 126 0
172 556 0 305 61 113 0
174 546 0 311 71 116 0
176 538 0 306 77 131 0
178 526 0 318 86 122 0
180 526 0 323 80 119 0
182 519 0 326 83 116 0
184 512 0 316 89 136 0
186 511 0 319 87 129 0
188 505 0 318 88 141 0
190 502 0 333 87 139 0
192 498 0 338 83 140 0
194 506 0 346 69 127 0
196 499 0 351 74 120 0
198 497 0 360 70 122 0
200 488 0 354 74 129 0
