0 979 0 0 0 0
2 906 9 0 65 0
4.00004 910 7 0 60 0
6 912 6 0 52 0
8 907 8 0 50 0
10 909 6 0 55 0
12 908 6 0 51 0
14 906 8 0 58 0
16 894 12 0 53 0
18 895 8 0 66 0
20 899 5 0 60 0
22 914 7 0 52 0
24 900 10 0 69 0
26 911 9 0 48 0
28 906 8 0 60 0
30 909 9 0 52 0
32 890 6 0 73 0
34 896 4 0 76 0
36 904 3 0 52 0
38 897 6 0 66 0
40 894 4 0 74 0
42 887 8 0 58 0
44 880 5 0 62 0
46 880 3 0 63 0
48 890 7 0 51 0
50 890 10 0 43 0
52 749 0 153 45 1
54 616 1 266 57 8
56 532 0 351 44 14
58 470 1 408 44 20
60 403 0 474 53 18
62 352 1 529 35 19
64 294 0 589 33 15
66 243 0 634 40 16
68 228 0 669 31 21
70 185 0 697 35 21
72 172 0 710 30 27
74 157 0 727 28 33
76 128 0 756 28 30
78 123 1 770 30 25
80 121 0 779 24 25
82 108 0 784 22 29
84 112 0 784 20 39
86 106 0 789 22 37
88 102 0 788 26 38
90 103 0 805 19 33
92 99 0 804 19 37
94 94 0 815 14 31
96 80 0 807 20 49
98 73 0 833 22 36
100 73 0 832 23 33
102 88 0 822 11 37
104 76 0 837 17 34
106 71 0 825 21 37
108 62 0 841 21 44
110 66 0 848 17 31
112 69 0 831 18 42
114 69 0 847 14 33
116 60 0 835 13 46
118 59 0 833 17 47
120 54 0 827 22 55
122 63 0 838 11 50
124 53 0 842 18 44
126 53 0 856 15 28
128 59 0 850 8 38
130 49 0 832 12 56
132 56 0 844 7 43
134 49 0 851 4 44
136 46 0 854 12 42
138 41 0 860 15 39
140 35 0 853 21 44
142 44 0 865 12 36
144 36 0 854 14 47
146 38 0 858 9 40
148 37 0 855 15 44
150 46 0 862 12 40
152 43 0 861 15 48
154 52 0 867 6 49
156 38 0 862 16 47
158 47 0 871 13 40
160 51 0 870 13 46
162 47 0 855 15 57
164 42 1 860 18 53
166 54 0 856 11 53
168 52 0 864 12 49
170 52 0 867 6 39
172 36 0 869 18 48
174 44 0 863 10 51
176 45 0 865 11 56
178 44 0 864 17 45
180 54 0 862 10 41
182 47 0 867 12 48
184 45 0 859 19 51
186 50 0 870 13 44
188 44 0 869 18 48
190 43 0 864 18 49
192 44 0 866 13 39
194 45 0 858 10 59
196 43 0 856 15 54
198 46 0 857 14 51
200 40 0 872 11 48
