0 1091 0 0 0 0
2 1023 4 0 57 0
4.00004 1016 3 0 62 0
6 1021 4 0 54 0
8 1012 4 0 64 0
10 1012 2 0 67 0
12 1020 5 0 56 0
14 1014 1 0 61 0
16 1007 1 0 64 0
18 1010 5 0 65 0
20 1007 9 0 78 0
22 1031 2 0 76 0
24 1025 3 0 70 0
26 1010 4 0 72 0
28 996 2 0 77 0
30 1005 7 0 80 0
32 1001 4 0 87 0
34 976 6 0 97 0
36 997 6 0 82 0
38 1002 7 0 74 0
40 994 8 0 87 0
42 1000 4 0 80 0
44 1005 2 0 79 0
46 997 5 0 93 0
48 1016 8 0 71 0
50 1002 5 0 77 0
52 860 3 147 67 2
54 766 0 252 48 6
56 681 0 328 59 7
58 592 1 406 62 16
60 527 0 477 59 19
62 479 0 529 48 20
64 405 0 572 49 30
66 390 0 610 35 27
68 349 0 652 45 17
70 330 0 669 46 35
72 309 0 696 42 28
74 271 0 721 45 36
76 263 0 741 51 31
78 253 0 759 36 36
80 248 0 772 25 41
82 223 0 785 35 38
84 194 0 802 37 38
86 196 0 822 28 42
88 180 0 828 27 48
90 182 0 839 21 41
92 171 0 852 16 39
94 150 0 853 27 41
96 148 0 858 22 32
98 142 0 858 27 40
100 147 0 865 20 45
102 131 0 871 21 52
104 133 0 875 20 50
106 132 0 882 17 47
108 132 0 882 26 49
110 123 0 865 27 56
112 132 0 865 26 54
114 135 0 883 25 37
116 119 0 879 16 50
118 131 0 871 8 45
120 119 0 880 21 53
122 113 0 881 19 44
124 107 0 883 21 59
126 110 0 893 14 51
128 101 0 902 17 48
130 95 0 908 19 50
132 90 0 920 20 43
134 93 0 914 15 48
136 80 0 916 29 50
138 82 0 913 22 63
140 80 0 928 20 43
142 79 0 927 17 54
144 79 0 901 16 83
146 74 0 916 16 64
148 64 0 930 17 46
150 64 0 924 14 51
152 67 0 911 17 70
154 73 0 919 14 47
156 81 0 914 14 62
158 76 0 925 26 52
160 83 0 912 23 54
162 87 0 911 14 65
164 79 0 907 16 69
166 65 0 931 23 55
168 70 0 925 17 64
170 67 0 939 14 52
172 66 0 920 12 64
174 63 0 930 17 62
176 68 0 922 19 59
178 65 0 937 15 56
180 62 0 935 12 65
182 61 0 952 13 50
184 61 0 929 10 62
186 58 0 942 12 59
188 59 0 931 13 66
190 56 0 945 14 59
192 59 0 945 17 63
194 61 0 946 14 60
196 58 0 950 13 57
198 58 0 940 11 61
200 60 0 951 11 51
