0 859 0 0 0 0
2 818 0 0 47 0
4.00004 811 0 0 53 0
6 805 0 0 56 0
8 821 0 0 49 0
10 804 0 0 55 0
12 820 0 0 45 0
14 818 0 0 59 0
16 824 0 0 48 0
18 821 0 0 48 0
20 830 0 0 51 0
22 826 0 0 54 0
24 828 0 0 56 0
26 834 0 0 54 0
28 817 0 0 65 0
30 834 0 0 42 0
32 830 0 0 51 0
34 824 0 0 50 0
36 821 0 0 43 0
38 823 0 0 52 0
40 821 0 0 56 0
42 833 0 0 49 0
44 830 0 0 53 0
46 840 0 0 44 0
48 825 0 0 64 0
50 843 0 0 48 0
52 827 0 0 62 0
54 839 0 0 54 1
56 842 0 0 52 1
58 846 0 0 52 1
60 846 0 2 51 1
62 834 0 2 68 2
64 840 0 2 54 4
66 838 0 6 66 3
68 850 0 6 50 4
70 852 0 9 42 3
72 839 0 13 48 3
74 834 0 14 45 0
76 835 0 20 30 8
78 818 0 25 42 9
80 814 0 31 42 7
82 813 0 35 44 7
84 811 0 42 49 8
86 805 0 49 43 5
88 807 0 46 46 16
90 796 0 55 55 10
92 800 0 61 44 8
94 808 0 61 32 11
96 788 0 63 36 11
98 775 0 65 38 17
100 784 0 74 25 12
102 761 0 76 44 15
104 767 0 78 37 21
106 746 0 88 51 17
108 756 0 96 33 11
110 755 0 97 34 14
112 749 0 102 28 22
114 747 0 114 30 24
116 744 0 117 24 22
118 730 0 124 31 19
120 735 0 133 18 10
122 721 0 133 25 13
124 719 0 126 25 23
126 707 0 138 39 17
128 707 0 135 35 20
130 692 0 142 43 16
132 700 0 147 35 23
134 698 0 153 24 20
136 681 0 164 41 14
138 686 0 165 29 25
140 673 0 165 35 25
142 675 0 172 25 18
144 668 0 175 34 15
146 667 0 172 34 16
148 665 0 184 29 13
150 658 0 171 29 25
152 656 0 181 31 23
154 652 0 186 29 11
156 637 0 198 33 12
158 638 0 192 33 14
160 636 0 204 30 19
162 637 0 213 28 21
164 629 0 222 22 17
166 618 0 219 30 21
168 619 0 225 22 21
170 604 0 224 29 26
172 605 0 234 24 25
174 597 0 232 28 33
176 591 0 240 27 19
178 576 0 245 38 25
180 580 0 243 23 30
182 585 0 250 24 28
184 587 0 262 24 17
186 583 0 258 23 33
188 567 0 271 29 23
190 579 0 263 15 35
192 573 0 279 26 23
194 577 0 273 18 33
196 572 0 280 19 33
198 568 0 291 18 28
200 549 0 292 27 27
