0 819 0 0 0 0
2 770 0 0 54 0
4.00004 780 0 0 53 0
6 761 0 0 71 0
8 768 0 0 65 0
10 762 0 0 79 0
12 786 0 0 68 0
14 784 0 0 59 0
16 783 0 0 59 0
18 762 0 0 79 0
20 777 0 0 68 0
22 774 0 0 62 0
24 770 0 0 74 0
26 777 0 0 58 0
28 757 0 0 73 0
30 756 0 0 60 0
32 751 0 0 71 0
34 762 0 0 58 0
36 749 0 0 77 0
38 769 0 0 68 0
40 767 0 0 79 0
42 768 0 0 76 0
44 773 0 0 62 0
46 772 0 0 59 0
48 767 0 0 59 0
50 762 0 0 64 0
52 773 0 0 53 0
54 785 0 0 53 0
56 773 0 0 67 1
58 779 0 0 52 1
60 756 0 2 58 0
62 771 0 1 52 5
64 763 0 6 67 4
66 776 0 12 46 5
68 755 0 14 63 7
70 752 0 20 59 11
72 754 0 23 42 11
74 734 0 31 59 8
76 732 0 32 56 12
78 732 0 41 53 13
80 723 0 41 57 18
82 723 0 56 50 5
84 719 0 50 47 15
86 701 0 58 50 7
88 706 0 58 42 16
90 703 0 66 36 16
92 693 0 70 44 19
94 690 0 81 52 23
96 673 0 88 49 19
98 660 0 99 56 12
100 664 0 100 45 20
102 644 0 105 64 25
104 654 0 113 47 23
106 642 0 124 50 19
108 653 0 135 31 14
110 639 0 133 36 24
112 627 0 143 40 23
114 619 0 151 41 23
116 604 0 156 55 28
118 624 0 163 35 17
120 609 0 167 43 26
122 607 0 176 37 25
124 603 0 174 35 32
126 589 0 189 41 24
128 582 0 192 38 30
130 576 0 195 39 21
132 568 0 202 44 29
134 568 0 207 33 19
136 555 0 210 42 25
138 563 0 220 28 24
140 550 0 222 37 30
142 544 0 232 36 36
144 541 0 235 29 31
146 531 0 246 33 28
148 529 0 242 29 41
150 529 0 244 24 36
152 518 0 250 31 34
154 515 0 265 25 35
156 506 0 264 29 48
158 496 0 285 35 28
160 496 0 280 31 40
162 493 0 298 34 36
164 492 0 289 28 36
166 486 0 292 33 38
168 478 0 307 29 40
170 476 0 308 31 47
172 470 0 318 32 42
174 468 0 323 25 35
176 469 0 329 24 34
178 457 0 334 27 24
180 457 0 329 25 33
182 444 0 342 36 29
184 448 0 336 28 42
186 442 0 346 32 39
188 439 0 357 34 40
190 440 0 357 29 34
192 436 0 353 29 37
194 430 0 347 30 46
196 432 0 366 21 29
198 417 0 355 25 39
200 405 0 376 31 41
