0 1008 0 0 0 0
2 947 5 0 54 0
4.00004 952 5 0 55 0
6 947 3 0 59 0
8 944 8 0 57 0
10 945 8 0 61 0
12 954 2 0 55 0
14 954 5 0 55 0
16 951 5 0 61 0
18 940 3 0 71 0
20 927 6 0 83 0
22 952 6 0 54 0
24 945 10 0 64 0
26 961 4 0 62 0
28 950 5 0 56 0
30 929 7 0 66 0
32 954 12 0 47 0
34 944 5 0 69 0
36 939 7 0 61 0
38 950 3 0 59 0
40 944 3 0 68 0
42 930 6 0 69 0
44 936 5 0 64 0
46 940 6 0 67 0
48 942 4 0 61 0
50 942 5 0 70 0
52 817 1 132 59 2
54 754 1 214 50 3
56 647 0 313 49 9
58 545 0 400 55 12
60 507 0 457 47 7
62 439 0 527 43 9
64 380 0 568 48 17
66 333 0 615 51 18
68 303 0 644 46 22
70 277 0 676 40 24
72 255 0 689 32 38
74 237 0 723 30 23
76 207 0 734 30 37
78 209 0 747 22 34
80 200 1 751 26 37
82 180 0 777 28 28
84 167 0 784 31 37
86 167 0 791 20 39
88 150 0 793 24 35
90 143 0 804 24 36
92 134 0 826 25 30
94 123 0 820 24 42
96 116 0 831 20 41
98 110 0 838 21 41
100 117 0 845 12 43
102 92 0 866 22 33
104 88 0 872 18 33
106 94 0 864 17 42
108 80 0 867 25 41
110 83 0 877 16 36
112 73 0 857 16 42
114 61 0 866 21 48
116 66 0 876 18 42
118 72 0 868 13 48
120 68 0 870 18 41
122 74 0 860 17 46
124 76 0 861 16 43
126 81 0 871 11 40
128 78 0 836 13 68
130 80 0 857 10 47
132 79 0 864 13 48
134 77 0 861 14 45
136 79 0 863 14 42
138 72 0 871 8 42
140 77 0 861 8 50
142 69 0 862 13 45
144 73 0 887 11 29
146 67 0 866 15 43
148 73 0 864 16 50
150 73 0 869 15 45
152 77 0 876 11 40
154 72 0 881 13 34
156 69 0 871 21 45
158 66 0 870 16 46
160 67 0 872 14 47
162 74 0 879 20 48
164 71 0 881 11 40
166 59 0 875 17 42
168 72 0 868 13 52
170 64 0 878 23 51
172 70 0 874 22 49
174 78 0 868 15 46
176 79 0 868 15 51
178 68 0 862 22 52
180 70 0 867 14 43
182 67 0 864 8 55
184 67 0 868 8 46
186 60 0 864 18 55
188 65 0 872 14 45
190 65 0 871 14 45
192 63 0 871 9 48
194 58 0 889 11 38
196 57 0 881 10 54
198 56 0 876 11 52
200 63 0 880 8 47
