0 960 0 0 0 0
2 900 0 0 65 0
4.00004 888 0 0 78 0
6 888 0 0 79 0
8 887 0 0 70 0
10 899 0 0 68 0
12 896 0 0 78 0
14 889 0 0 81 0
16 870 0 0 84 0
18 882 0 0 71 0
20 879 0 0 82 0
22 861 0 0 105 0
24 878 0 0 80 0
26 876 0 0 89 0
28 876 0 0 88 0
30 882 0 0 70 0
32 867 0 0 98 0
34 866 0 0 78 0
36 871 0 0 87 0
38 873 0 0 79 0
40 866 0 0 88 0
42 874 0 0 80 0
44 873 0 0 85 0
46 865 0 0 90 0
48 870 0 0 77 0
50 869 0 0 88 0
52 880 0 0 76 0
54 899 0 0 76 0
56 881 0 1 80 0
58 871 0 1 86 2
60 878 0 2 82 5
62 859 0 5 84 5
64 858 0 15 66 3
66 853 0 15 79 6
68 850 0 15 72 7
70 834 0 17 75 10
72 846 0 26 73 8
74 848 0 27 62 14
76 837 0 32 71 18
78 824 0 43 69 10
80 816 0 53 72 18
82 819 0 49 56 21
84 807 0 59 71 15
86 806 0 63 52 23
88 806 0 77 57 18
90 792 0 83 56 20
92 786 0 84 57 22
94 768 0 87 59 34
96 755 0 106 55 25
98 759 0 110 40 34
100 730 0 135 57 17
102 727 0 138 59 26
104 720 0 153 63 24
106 725 0 153 45 31
108 707 0 156 53 26
110 711 0 164 49 24
112 713 0 164 46 29
114 695 0 167 60 22
116 682 0 165 58 30
118 676 0 184 58 16
120 680 0 181 46 26
122 658 0 178 69 28
124 665 0 180 49 34
126 656 0 200 49 27
128 650 0 209 47 21
130 632 0 205 54 26
132 634 0 208 49 29
134 619 0 213 54 38
136 605 0 228 63 33
138 616 0 234 42 27
140 595 0 247 54 31
142 591 0 249 41 32
144 591 0 247 45 46
146 574 0 263 49 45
148 573 0 262 51 44
150 555 0 277 55 38
152 548 0 278 50 52
154 546 0 294 52 53
156 546 0 307 48 41
158 557 0 318 33 46
160 555 0 315 24 51
162 541 0 335 33 39
164 550 0 324 26 58
166 541 0 348 34 39
168 543 0 362 29 30
170 533 0 362 32 38
172 515 0 363 49 50
174 513 0 387 46 37
176 517 0 382 39 43
178 520 0 380 34 46
180 509 0 388 40 44
182 507 0 386 34 33
184 493 0 372 36 61
186 477 0 394 50 51
188 479 0 404 40 46
190 479 0 409 40 41
192 472 0 410 41 45
194 473 0 406 30 55
196 465 0 433 36 47
198 465 0 427 34 41
200 457 0 437 35 35
