0 1004 0 0 0 0
2 935 6 0 70 0
4.00004 931 4 0 78 0
6 924 5 0 79 0
8 900 5 0 103 0
10 913 6 0 85 0
12 904 9 0 95 0
14 910 4 0 86 0
16 893 7 0 109 0
18 913 8 0 86 0
20 932 6 0 77 0
22 914 6 0 100 0
24 910 5 0 88 0
26 902 6 0 92 0
28 909 3 0 91 0
30 905 4 0 89 0
32 889 4 0 106 0
34 887 4 0 103 0
36 913 6 0 89 0
38 896 4 0 99 0
40 891 4 0 92 0
42 893 5 0 95 0
44 906 5 0 79 0
46 915 2 0 84 0
48 898 9 0 84 0
50 886 5 0 92 0
52 777 1 131 72 1
54 668 0 227 83 8
56 580 0 303 74 12
58 508 0 368 81 20
60 449 0 418 74 30
62 403 0 469 64 33
64 346 0 513 72 33
66 331 0 534 48 37
68 308 0 569 52 33
70 288 0 589 54 35
72 260 0 618 55 39
74 234 0 638 54 46
76 223 0 652 45 43
78 200 0 667 47 43
80 194 0 668 37 51
82 179 1 687 39 52
84 163 1 689 44 60
86 151 0 706 45 48
88 167 0 720 21 50
90 140 0 719 33 58
92 128 0 727 25 59
94 133 0 730 24 61
96 116 0 736 23 58
98 110 0 743 27 49
100 97 0 747 29 46
102 93 0 742 25 65
104 83 0 755 27 68
106 97 0 754 15 64
108 83 0 758 28 60
110 76 0 740 40 81
112 101 0 753 28 66
114 98 0 757 30 54
116 91 0 756 28 56
118 92 0 743 21 75
120 88 0 754 23 71
122 84 0 752 27 65
124 80 0 748 29 56
126 74 0 732 25 78
128 76 0 719 24 72
130 63 0 716 31 74
132 62 0 739 29 62
134 73 0 738 22 61
136 77 0 727 23 76
138 70 0 742 27 63
140 77 1 744 20 68
142 87 0 735 16 67
144 79 0 731 17 82
146 82 0 744 21 61
148 83 0 744 18 63
150 78 0 733 19 70
152 72 0 734 30 76
154 67 0 758 26 53
156 66 0 734 26 73
158 62 0 734 23 79
160 61 0 731 16 85
162 71 0 743 15 67
164 58 0 746 21 66
166 62 0 745 21 82
168 67 0 751 15 79
170 68 0 754 19 70
172 70 0 753 18 79
174 63 0 755 21 85
176 68 0 762 27 70
178 69 0 765 22 79
180 67 0 754 23 78
182 65 0 771 22 70
184 63 0 781 22 72
186 63 0 769 24 73
188 65 0 775 15 62
190 64 0 783 19 55
192 67 0 751 21 85
194 68 0 768 23 70
196 69 0 773 18 63
198 59 0 765 21 74
200 56 0 766 17 77
