0 360 0 0 0 0 412
2 339 0 0 10 0 382
4.00004 323 0 0 22 0 397
6 325 0 0 12 0 400
8 315 0 0 10 0 407
10 301 0 0 11 0 398
12 296 0 0 19 0 414
14 315 0 0 11 0 408
16 298 0 0 17 0 403
18 297 0 0 10 0 406
20 283 0 0 10 0 410
22 284 0 0 13 0 411
24 282 0 0 9 0 400
26 282 0 0 14 0 401
28 282 0 0 12 0 405
30 278 0 0 13 0 400
32 285 0 0 13 0 399
34 281 0 0 15 0 402
36 276 0 0 12 0 399
38 275 0 0 10 0 401
40 280 0 0 12 0 401
42 273 0 0 19 0 392
44 269 0 0 16 0 397
46 258 0 0 16 0 392
48 254 0 0 15 0 401
50 272 0 0 7 0 415
52 265 0 0 11 0 404
54 253 0 3 20 0 406
56 255 0 7 11 0 390
58 251 0 9 12 1 394
60 242 0 14 11 2 405
62 228 0 20 15 3 401
64 223 0 20 13 2 399
66 225 0 25 8 2 396
68 215 0 29 10 2 401
70 212 0 33 8 3 413
72 209 0 42 8 2 393
74 204 0 47 7 5 406
76 198 0 57 8 5 401
78 191 0 66 8 1 394
80 185 0 71 8 2 373
82 176 0 82 7 5 389
84 167 0 84 5 2 417
86 163 0 89 6 6 389
88 148 0 103 10 2 406
90 149 0 107 4 9 418
92 145 0 121 3 3 392
94 132 0 125 9 6 396
96 127 0 138 6 6 403
98 121 0 141 8 10 393
100 122 0 143 3 9 407
102 109 0 146 8 7 395
104 107 0 144 5 11 381
106 101 0 151 3 9 384
108 94 0 157 5 6 375
110 91 0 163 7 6 399
112 89 0 165 5 6 416
114 87 0 171 3 7 405
116 81 0 167 5 9 391
118 75 0 181 5 8 398
120 74 0 181 2 11 399
122 69 0 177 3 12 406
124 67 0 185 3 8 402
126 64 0 189 5 9 391
128 60 0 192 6 6 405
130 61 0 191 2 10 401
132 57 0 196 1 7 401
134 55 0 191 0 11 410
136 54 0 198 1 7 409
138 53 0 199 1 12 405
140 47 0 192 4 13 387
142 50 0 196 2 13 397
144 50 0 208 0 10 408
146 43 0 216 0 8 398
148 39 0 211 2 14 388
150 40 0 209 2 12 393
152 34 0 212 3 11 391
154 33 0 214 1 13 397
156 33 0 212 0 15 393
158 27 0 209 2 18 391
160 26 0 215 3 13 398
162 27 0 213 1 10 402
164 22 0 215 2 10 397
166 22 0 217 0 9 402
168 21 0 216 0 9 394
170 20 0 215 1 5 392
172 21 0 213 0 12 379
174 19 0 216 1 11 409
176 18 0 219 1 7 404
178 19 0 225 0 14 395
180 18 0 221 0 16 405
182 18 0 223 1 10 398
184 19 0 227 0 5 399
186 17 0 218 1 15 410
188 17 0 226 1 12 409
190 15 0 227 2 11 395
192 13 0 232 0 11 395
194 13 0 233 0 14 394
196 13 0 240 0 13 403
198 12 0 241 1 16 393
200 13 0 243 0 18 410
