0 419 0 0 0 0 398
2 411 0 0 20 0 406
4.00004 441 0 0 13 0 381
6 445 0 0 22 0 412
8 455 0 0 18 0 404
10 478 0 0 24 0 402
12 494 0 0 20 0 407
14 490 0 0 21 0 401
16 489 0 0 27 0 387
18 487 0 0 28 0 395
20 500 0 0 22 0 381
22 501 0 0 29 0 410
24 522 0 0 20 0 414
26 524 0 0 24 0 414
28 517 0 0 26 0 396
30 525 0 0 18 0 394
32 518 0 0 35 0 384
34 535 0 0 20 0 393
36 546 0 0 17 0 390
38 533 0 0 27 0 386
40 536 0 0 26 0 397
42 534 0 0 24 0 391
44 554 0 0 19 0 402
46 546 0 0 31 0 401
48 558 0 0 22 0 397
50 550 0 0 25 0 394
52 554 0 2 32 0 389
54 566 0 8 14 0 392
56 568 0 11 11 0 386
58 551 0 24 14 2 408
60 526 0 34 25 5 400
62 508 0 44 34 2 400
64 494 0 59 30 3 393
66 491 0 75 20 4 401
68 473 0 83 23 6 392
70 465 0 92 17 1 402
72 443 0 96 17 15 393
74 428 0 117 19 6 402
76 423 0 129 12 7 401
78 412 0 147 16 5 409
80 390 0 151 18 7 384
82 395 0 166 12 8 414
84 382 0 184 9 13 405
86 351 0 200 17 14 410
88 340 0 212 9 11 394
90 316 0 222 10 15 389
92 303 0 248 17 11 425
94 291 0 253 18 21 393
96 291 0 271 11 14 411
98 279 0 290 10 12 407
100 266 0 291 8 16 394
102 252 0 292 13 16 391
104 230 0 301 10 15 405
106 224 0 322 13 9 406
108 229 0 324 7 10 398
110 217 0 319 5 16 387
112 213 0 325 5 14 396
114 202 0 346 4 11 398
116 178 0 365 12 8 398
118 174 0 351 6 21 393
120 160 0 363 12 16 414
122 157 0 366 10 15 410
124 151 0 362 8 19 399
126 149 0 381 3 17 402
128 141 0 397 7 16 392
130 138 0 403 3 24 386
132 133 0 429 5 20 385
134 127 0 430 5 21 394
136 124 0 429 5 18 395
138 120 0 437 7 19 414
140 119 0 447 2 21 397
142 110 0 456 7 24 402
144 105 0 451 5 20 405
146 100 0 446 3 20 413
148 96 0 441 7 16 395
150 94 0 437 2 12 395
152 88 0 446 5 18 396
154 89 0 459 3 27 398
156 88 0 465 1 23 407
158 84 0 476 4 27 401
160 80 0 487 3 20 409
162 78 0 503 2 16 392
164 76 0 511 2 19 406
166 68 0 505 3 26 392
168 62 0 523 7 22 404
170 67 0 520 4 18 391
172 64 0 529 3 31 402
174 59 0 525 2 30 385
176 53 0 543 1 20 408
178 50 0 547 2 24 417
180 49 0 552 1 14 404
182 45 0 558 5 21 395
184 45 0 544 2 35 409
186 44 0 544 2 24 412
188 41 0 538 1 24 398
190 38 0 541 3 24 408
192 39 0 531 1 25 403
194 36 0 536 2 28 409
196 34 0 531 0 24 403
198 35 0 525 3 21 391
200 35 0 525 1 26 392
