0 525 0 0 0 0 405
2 498 0 0 24 0 393
4.00004 497 0 0 32 0 411
6 517 0 0 21 0 388
8 518 0 0 19 0 399
10 524 0 0 20 0 419
12 526 0 0 21 0 410
14 529 0 0 23 0 401
16 532 0 0 23 0 405
18 546 0 0 12 0 414
20 542 0 0 15 0 386
22 538 0 0 21 0 402
24 558 0 0 12 0 402
26 553 0 0 23 0 406
28 561 0 0 19 0 403
30 560 0 0 21 0 404
32 556 0 0 24 0 396
34 566 0 0 19 0 402
36 562 0 0 33 0 398
38 570 0 0 23 0 398
40 577 0 0 14 0 406
42 571 0 0 22 0 401
44 569 0 0 26 0 391
46 570 0 0 24 0 399
48 566 0 0 27 0 416
50 572 0 0 18 0 398
52 573 0 0 22 0 392
54 564 0 1 29 0 395
56 565 0 3 24 1 418
58 566 0 6 23 1 386
60 558 0 11 23 2 405
62 551 0 22 19 1 411
64 551 0 27 14 3 382
66 538 0 35 21 2 406
68 532 0 41 14 1 405
70 517 0 46 24 2 391
72 514 0 54 20 1 386
74 513 0 65 16 3 408
76 516 0 81 13 4 397
78 505 0 80 18 8 402
80 497 0 92 18 2 405
82 498 0 94 16 3 398
84 489 0 100 23 7 398
86 492 0 107 12 3 405
88 474 0 109 19 8 392
90 457 0 120 29 6 395
92 468 0 128 13 8 403
94 453 0 144 22 6 379
96 454 0 156 15 7 397
98 454 0 161 14 5 399
100 449 0 174 10 6 395
102 436 0 177 17 6 405
104 428 0 175 20 11 398
106 430 0 186 14 9 408
108 420 0 196 20 5 408
110 418 0 202 16 8 389
112 411 0 204 15 12 412
114 412 0 215 8 6 392
116 399 0 220 14 8 390
118 388 0 225 13 7 390
120 386 0 231 11 12 404
122 383 0 240 9 13 411
124 370 0 255 15 8 412
126 363 0 254 13 13 400
128 356 0 260 11 14 406
130 345 0 268 13 9 406
132 340 0 264 14 17 402
134 342 0 272 8 10 411
136 333 0 270 11 10 401
138 329 0 283 11 7 381
140 320 0 285 15 7 396
142 317 0 280 12 18 392
144 316 0 287 6 17 404
146 306 0 302 13 10 403
148 293 0 306 16 9 401
150 300 0 309 7 19 397
152 292 0 314 9 12 403
154 286 0 315 9 17 389
156 278 0 327 8 8 412
158 271 0 323 7 18 395
160 262 0 331 7 16 395
162 252 0 338 12 18 402
164 247 0 344 11 15 397
166 247 0 335 7 23 405
168 235 0 342 16 17 410
170 231 0 349 12 18 411
172 230 0 359 8 18 410
174 226 0 361 7 15 407
176 218 0 371 12 13 409
178 222 0 378 4 13 407
180 213 0 383 9 14 401
182 211 0 391 7 7 413
184 210 0 386 6 18 385
186 206 0 389 4 19 391
188 204 0 399 3 13 404
190 197 0 405 4 14 392
192 185 0 402 13 15 399
194 187 0 400 7 20 393
196 183 0 411 9 15 408
198 180 0 410 10 10 398
200 174 0 408 12 21 396
