0 1606 0 0 0 0 394
2 1601 10 0 14 0 396
4.00004 1620 7 0 20 0 388
6 1632 9 0 21 0 383
8 1644 12 0 18 0 402
10 1653 11 0 21 0 398
12 1673 5 0 17 0 399
14 1679 4 0 16 0 392
16 1684 4 0 22 0 407
18 1691 7 0 22 0 400
20 1702 7 0 16 0 394
22 1704 5 0 17 0 405
24 1707 10 0 17 0 410
26 1711 8 0 21 0 405
28 1739 7 0 16 0 408
30 1740 3 0 20 0 388
32 1730 13 0 18 0 385
34 1736 11 0 19 0 409
36 1736 10 0 18 0 404
38 1745 13 0 16 0 397
40 1749 9 0 12 0 399
42 1744 7 0 24 0 416
44 1743 10 0 28 0 391
46 1754 7 0 18 0 398
48 1746 6 0 25 0 381
50 1745 13 0 22 0 400
52 1556 0 212 19 1 413
54 1432 0 344 23 1 407
56 1304 0 465 19 3 401
58 1161 1 609 11 3 416
60 1051 0 714 13 11 403
62 942 1 826 12 6 410
64 842 0 913 15 12 416
66 774 0 990 8 7 380
68 704 1 1061 7 11 385
70 656 0 1111 5 11 400
72 614 0 1159 9 11 392
74 568 0 1207 7 14 402
76 521 0 1253 12 12 399
78 479 0 1299 5 13 414
80 450 0 1329 3 15 394
82 400 0 1383 3 15 408
84 371 0 1401 0 14 404
86 334 1 1429 3 22 401
88 305 0 1462 3 16 388
90 272 0 1484 6 18 406
92 252 0 1505 2 16 415
94 226 0 1523 5 24 398
96 212 0 1549 5 22 397
98 197 0 1556 4 28 401
100 180 0 1580 2 19 402
102 167 0 1594 0 13 407
104 141 0 1615 3 18 408
106 128 0 1624 3 15 394
108 112 0 1636 1 17 393
110 100 0 1642 1 29 400
112 90 0 1648 2 24 394
114 81 0 1654 3 18 392
116 75 0 1670 1 23 394
118 62 0 1693 1 15 399
120 57 0 1690 0 22 399
122 48 0 1698 1 25 387
124 44 0 1700 1 27 404
126 40 0 1711 0 23 407
128 34 0 1701 2 28 396
130 32 0 1711 3 23 411
132 26 0 1731 2 19 406
134 29 0 1722 0 15 412
136 26 0 1717 0 17 401
138 25 0 1710 0 23 399
140 23 0 1709 0 24 394
142 21 0 1718 0 15 402
144 20 0 1718 0 12 405
146 17 0 1728 0 19 407
148 15 0 1726 0 19 382
150 14 0 1731 0 17 388
152 12 0 1738 1 13 392
154 13 0 1726 0 15 403
156 11 0 1722 1 27 393
158 11 0 1730 0 18 406
160 9 0 1746 0 20 401
162 7 0 1743 0 17 411
164 5 0 1754 0 17 389
166 5 0 1768 0 16 400
168 5 0 1754 0 28 401
170 2 0 1762 0 21 413
172 2 0 1761 0 20 415
174 1 0 1752 0 20 408
176 1 0 1743 1 22 390
178 2 0 1732 0 26 403
180 2 0 1743 0 17 379
182 2 0 1755 0 11 420
184 1 0 1749 1 19 414
186 2 0 1753 0 13 394
188 2 0 1747 0 20 413
190 2 0 1747 0 21 408
192 2 0 1753 0 17 394
194 1 0 1762 0 16 399
196 1 0 1762 0 15 377
198 1 0 1763 0 23 392
200 1 0 1760 0 23 412
