0 1222 0 0 0 0 1052
2 1192 11 0 21 0 996
4.00004 1217 9 0 27 0 976
6 1243 10 0 21 0 988
8 1276 6 0 21 0 1020
10 1283 6 0 31 0 982
12 1299 12 0 27 0 992
14 1298 9 0 26 0 1006
16 1320 9 0 25 0 1006
18 1335 9 0 24 0 993
20 1349 10 0 21 0 994
22 1350 9 0 32 0 993
24 1362 5 0 26 0 973
26 1368 9 0 24 0 1009
28 1386 5 0 24 0 1013
30 1387 6 0 30 0 1004
32 1398 6 0 24 0 963
34 1415 7 0 17 0 1002
36 1422 11 0 20 0 997
38 1433 4 0 22 0 1020
40 1431 10 0 23 0 995
42 1436 13 0 21 0 973
44 1451 11 0 21 0 998
46 1452 6 0 16 0 1015
48 1441 11 0 29 0 985
50 1446 7 0 21 0 1004
52 1281 0 173 24 2 1003
54 1168 0 284 22 4 1005
56 1047 1 394 21 6 996
58 944 0 500 14 9 1036
60 853 0 590 23 11 994
62 773 0 672 13 9 985
64 705 0 733 12 11 1000
66 646 0 789 12 15 984
68 582 0 872 15 7 980
70 541 0 921 11 12 1009
72 498 0 958 15 15 991
74 468 1 994 6 10 1002
76 428 0 1035 13 10 1008
78 405 0 1065 8 13 1002
80 367 1 1088 11 16 1027
82 331 0 1132 5 17 1008
84 323 0 1154 4 13 984
86 300 0 1171 4 17 993
88 277 0 1209 3 8 1009
90 254 0 1229 7 11 993
92 251 0 1240 7 15 991
94 239 0 1250 6 14 987
96 221 0 1265 3 21 980
98 207 0 1282 7 11 999
100 201 0 1301 7 18 1014
102 183 1 1309 5 26 1009
104 168 0 1318 5 28 1017
106 163 0 1332 7 16 1007
108 160 0 1330 7 17 1009
110 158 0 1336 8 16 953
112 153 0 1334 3 22 1006
114 149 0 1340 5 23 994
116 139 0 1352 6 15 989
118 135 0 1351 4 22 1021
120 126 0 1356 5 16 987
122 117 0 1373 5 24 982
124 117 0 1385 2 19 1011
126 106 0 1395 6 15 1019
128 101 0 1393 3 26 1025
130 100 0 1393 2 23 989
132 89 0 1413 3 20 1008
134 84 0 1411 3 32 981
136 80 0 1424 1 21 1006
138 75 0 1427 2 26 1000
140 78 0 1429 4 19 983
142 72 0 1429 3 21 1008
144 77 0 1432 2 18 983
146 74 0 1439 1 19 1013
148 72 0 1450 1 22 987
150 62 0 1475 0 13 1004
152 53 0 1467 4 17 968
154 54 0 1471 0 18 996
156 48 0 1482 0 13 1011
158 41 0 1470 2 29 987
160 43 0 1482 1 21 1009
162 42 0 1485 0 17 1008
164 39 0 1486 1 21 1002
166 33 0 1495 0 18 1006
168 32 0 1480 0 26 1001
170 30 0 1490 0 22 1020
172 27 0 1504 0 21 1026
174 25 0 1513 0 22 1014
176 21 0 1512 0 19 1005
178 19 0 1500 0 21 990
180 20 0 1506 0 21 1001
182 17 0 1503 2 31 1002
184 16 0 1512 0 22 1013
186 16 0 1505 0 20 1010
188 13 0 1514 0 22 980
190 11 0 1518 2 21 992
192 9 0 1516 0 20 989
194 9 0 1511 0 28 999
196 10 0 1519 1 25 989
198 10 0 1516 0 26 1017
200 10 0 1505 0 27 980
