0 69 0 0 0
2 69 0 2 0
4.00004 71 0 0 0
6 71 0 1 0
8 71 0 0 0
10 70 0 1 0
12 70 0 1 0
14 69 0 2 0
16 69 0 2 0
18 70 0 1 0
20 70 0 1 0
22 72 0 1 0
24 72 0 0 0
26 71 0 0 0
28 72 0 1 0
30 71 0 2 0
32 71 0 1 0
34 72 0 0 0
36 71 0 1 0
38 72 0 0 0
40 70 0 2 0
42 70 0 3 0
44 71 0 1 0
46 72 0 0 0
48 70 0 1 0
50 73 0 0 0
52 70 0 1 0
54 70 0 0 0
56 68 0 1 0
58 69 0 2 0
60 71 0 0 0
62 71 0 0 0
64 71 0 1 0
66 71 0 1 0
68 72 1 0 0
70 69 0 3 1
72 72 1 1 0
74 72 1 1 0
76 73 1 0 0
78 72 0 1 1
80 69 1 5 0
82 72 1 1 0
84 74 1 0 0
86 73 1 1 0
88 74 1 1 0
90 69 1 6 0
92 74 1 0 0
94 72 1 2 0
96 72 0 0 1
98 68 1 3 0
100 71 1 1 0
102 70 1 1 0
104 69 1 1 0
106 70 1 0 0
108 70 2 0 0
110 69 2 1 0
112 70 2 0 0
114 69 2 0 0
116 69 2 1 0
118 71 2 0 0
120 70 2 1 0
122 69 1 2 1
124 70 2 0 0
126 70 2 0 0
128 70 2 1 0
130 70 2 1 0
132 71 2 0 0
134 72 2 0 0
136 70 3 2 0
138 72 3 0 0
140 71 2 1 0
142 72 1 0 1
144 72 1 0 2
146 72 3 0 0
148 72 2 0 1
150 72 2 0 1
152 71 2 0 1
154 68 3 3 0
156 71 3 0 0
158 72 3 0 0
160 71 3 1 0
162 71 3 1 0
164 70 3 2 0
166 71 3 1 1
168 71 3 1 0
170 71 3 1 0
172 71 2 1 0
174 72 2 0 0
176 70 2 0 0
178 71 2 0 0
180 70 3 0 0
182 70 3 1 0
184 72 3 0 0
186 71 4 1 0
188 72 3 0 0
190 71 2 1 1
192 69 4 1 0
194 70 4 1 0
196 70 4 1 0
198 70 4 1 0
200 70 4 1 0
202 70 4 1 0
204 71 4 0 0
206 69 5 2 0
208 70 5 1 0
210 68 4 2 1
212 71 4 0 1
214 70 6 0 0
216 71 5 0 1
218 70 4 1 0
220 70 3 1 0
222 70 2 1 0
224 70 2 1 0
226 69 2 1 0
228 68 2 1 0
230 69 2 1 0
232 70 2 0 0
234 68 2 2 0
236 70 2 0 0
238 70 2 0 0
240 69 3 1 0
242 69 2 1 0
244 68 2 2 0
246 70 2 0 0
248 68 3 1 0
250 68 3 1 0
252 69 3 0 0
254 70 3 0 0
256 68 3 2 0
258 69 3 1 0
260 68 4 2 0
262 69 4 1 0
264 69 4 0 0
266 68 4 1 0
268 69 4 0 1
270 69 5 0 0
272 69 3 0 2
274 68 4 1 1
276 69 5 0 0
278 67 5 2 0
280 69 5 0 0
282 66 4 3 0
284 68 4 1 0
286 68 5 1 0
288 66 5 3 0
290 68 4 1 1
292 68 5 1 0
294 69 5 0 0
296 69 5 0 0
298 69 5 0 0
300 69 6 0 0
302 69 7 0 1
304 67 8 1 0
306 68 7 0 1
308 67 8 1 0
310 65 9 2 0
312 67 9 0 0
314 67 8 1 1
316 67 8 0 1
318 66 7 1 2
320 66 6 1 2
322 67 8 0 1
324 66 9 1 0
326 66 8 1 1
328 67 9 1 0
330 68 9 1 0
332 69 9 0 0
334 67 9 1 0
336 67 9 1 0
338 67 8 1 1
340 66 7 2 2
342 68 9 0 0
344 67 9 1 0
346 67 10 1 0
348 67 10 1 0
350 68 9 0 2
