0 68 0 0 0
2 68 0 1 0
4.00004 68 0 1 0
6 68 0 0 0
8 69 0 0 0
10 69 0 1 0
12 69 0 1 0
14 71 0 0 0
16 71 0 0 0
18 68 0 3 0
20 71 0 0 0
22 69 0 2 0
24 69 0 2 0
26 72 0 0 0
28 70 0 2 0
30 72 0 0 0
32 71 0 0 0
34 70 0 1 0
36 70 0 1 0
38 71 0 0 0
40 71 0 0 0
42 70 0 1 0
44 71 0 0 0
46 71 0 0 0
48 70 0 1 0
50 72 0 0 0
52 65 7 0 0
54 59 14 0 0
56 52 19 2 0
58 45 25 3 0
60 38 32 2 0
62 34 37 1 0
64 33 39 0 0
66 29 44 0 0
68 26 46 0 0
70 22 50 0 0
72 19 52 1 0
74 18 54 0 0
76 18 54 0 0
78 18 54 0 0
80 15 56 0 0
82 11 58 2 0
84 13 58 0 0
86 12 59 0 0
88 11 60 1 0
90 10 61 0 0
92 8 61 1 0
94 7 61 2 0
96 6 62 1 0
98 7 62 1 0
100 6 62 1 0
102 7 62 0 0
104 7 63 0 0
106 7 63 1 0
108 9 63 0 0
110 8 62 0 1
112 8 63 1 0
114 7 62 2 1
116 8 64 0 0
118 7 64 1 0
120 8 64 0 0
122 8 64 0 0
124 7 63 1 1
126 7 64 0 1
128 7 65 0 0
130 8 65 0 0
132 8 64 0 1
134 5 62 3 3
136 8 63 0 2
138 6 65 1 1
140 6 65 1 1
142 8 64 0 1
144 8 65 0 0
146 8 63 0 1
148 8 64 0 0
150 7 64 1 0
152 6 63 2 1
154 6 64 2 0
156 6 64 1 1
158 5 64 2 1
160 7 63 0 2
162 7 64 0 1
164 5 66 1 0
166 6 66 0 0
168 5 66 1 0
170 6 66 0 0
172 5 66 1 0
174 5 66 0 1
176 5 67 0 0
178 5 67 0 0
180 5 67 0 0
182 4 66 1 1
184 5 67 0 0
186 5 66 0 0
188 5 66 0 1
190 3 67 1 1
192 3 67 1 1
194 4 67 0 1
196 3 67 1 0
198 4 67 0 0
200 5 66 0 1
202 4 67 1 0
204 4 66 1 1
206 6 65 0 1
208 6 65 0 1
210 5 66 0 2
212 6 69 0 0
214 5 68 0 1
216 5 69 0 0
218 5 67 0 1
220 4 68 1 0
222 4 67 1 1
224 4 68 1 1
226 4 68 0 0
228 3 67 1 1
230 3 66 1 1
232 4 67 0 0
234 3 66 1 0
236 3 65 0 0
238 2 64 1 1
240 3 65 0 0
242 2 66 0 0
244 3 65 0 1
246 3 66 0 1
248 4 67 0 1
250 4 67 0 1
252 2 67 2 0
254 4 68 0 0
256 4 68 0 0
258 3 68 0 0
260 3 68 0 0
262 2 68 0 0
264 3 68 0 0
266 3 68 0 0
268 1 68 1 1
270 1 69 0 0
272 2 69 0 0
274 2 66 0 3
276 2 69 1 0
278 3 68 1 1
280 3 68 2 1
282 5 68 0 1
284 3 69 2 0
286 5 68 1 1
288 6 69 0 0
290 3 69 3 0
292 4 68 2 1
294 6 69 1 0
296 7 69 0 0
298 5 69 1 0
300 6 69 0 0
302 4 69 1 1
304 5 70 0 0
306 4 70 1 0
308 5 70 0 0
310 5 70 0 0
312 5 67 0 2
314 5 68 0 1
316 4 69 1 0
318 5 69 0 0
320 5 69 0 0
322 5 68 0 1
324 5 69 0 0
326 3 70 0 0
328 3 70 0 0
330 3 69 1 1
332 4 70 0 0
334 2 70 1 0
336 2 71 0 0
338 2 71 0 0
340 2 71 0 0
342 2 70 0 1
344 2 71 0 0
346 1 71 1 0
348 1 70 1 0
350 2 67 0 3
