0 72 0 0 0
2 71 0 0 0
4.00004 72 0 0 0
6 70 0 1 0
8 69 0 2 0
10 70 0 1 0
12 71 0 0 0
14 70 0 2 0
16 71 0 0 0
18 69 0 2 0
20 69 0 0 0
22 68 0 0 0
24 68 0 0 0
26 68 0 0 0
28 68 0 0 0
30 68 0 0 0
32 67 0 1 0
34 67 0 2 0
36 69 0 0 0
38 68 0 0 0
40 69 0 0 0
42 69 0 0 0
44 70 0 0 0
46 67 0 2 0
48 70 0 0 0
50 70 0 0 0
52 67 0 1 0
54 68 0 0 0
56 67 0 0 0
58 66 0 1 0
60 66 0 1 0
62 65 0 2 0
64 66 0 1 0
66 65 0 4 0
68 69 0 1 0
70 68 0 1 0
72 69 0 1 0
74 69 0 1 0
76 69 0 0 0
78 69 0 0 0
80 66 0 2 0
82 67 0 1 0
84 68 0 0 0
86 67 0 1 0
88 67 1 1 0
90 67 1 1 0
92 68 1 0 0
94 68 1 0 0
96 64 0 4 0
98 66 0 2 0
100 68 0 0 0
102 68 0 0 0
104 68 0 2 0
106 69 0 1 0
108 69 0 0 0
110 68 0 1 1
112 69 1 0 0
114 69 1 0 1
116 69 0 0 2
118 68 2 0 0
120 68 2 0 0
122 67 1 1 0
124 68 1 0 1
126 67 1 0 0
128 67 2 0 0
130 67 2 0 0
132 67 2 0 0
134 67 2 0 0
136 67 2 0 1
138 67 4 0 0
140 67 4 0 0
142 68 3 0 1
144 67 3 1 1
146 69 4 0 0
148 69 3 0 1
150 69 5 0 0
152 69 3 0 2
154 68 4 0 0
156 67 4 1 0
158 69 4 0 0
160 69 4 0 0
162 68 2 0 2
164 67 4 1 0
166 68 3 0 1
168 68 4 0 0
170 66 4 2 0
172 68 4 0 0
174 68 5 0 0
176 68 5 0 0
178 68 4 1 1
180 67 4 2 0
182 68 3 1 1
184 68 4 0 0
186 67 3 2 1
188 68 4 1 0
190 68 4 0 0
192 69 3 0 0
194 69 3 0 1
196 69 4 0 0
198 68 4 1 1
200 68 5 1 0
202 68 4 1 0
204 69 4 0 1
206 69 4 0 0
208 69 4 0 0
210 69 4 0 0
212 69 4 0 0
214 69 3 0 1
216 68 4 1 0
218 69 4 0 0
220 69 4 0 0
222 68 4 1 0
224 67 4 1 0
226 68 4 0 0
228 68 5 0 0
230 68 5 0 0
232 68 4 0 1
234 67 5 1 0
236 68 4 0 0
238 68 5 0 0
240 68 5 0 1
242 67 6 1 0
244 66 5 2 1
246 68 5 0 0
248 67 6 1 0
250 67 6 0 0
252 67 5 1 1
254 68 5 0 1
256 67 6 1 0
258 68 5 0 1
260 68 7 0 0
262 67 6 1 0
264 67 5 1 1
266 66 5 2 1
268 66 6 1 0
270 66 7 1 0
272 65 7 2 0
274 65 7 1 0
276 65 7 1 0
278 65 7 1 0
280 65 7 1 0
282 65 7 1 0
284 64 7 1 0
286 65 7 0 0
288 65 7 0 0
290 64 7 1 0
292 63 7 1 0
294 64 7 0 0
296 64 7 0 0
298 63 7 1 0
300 64 7 0 0
302 63 7 1 0
304 63 7 1 0
306 63 7 1 0
308 62 7 1 0
310 62 7 1 0
312 63 7 0 0
314 62 7 1 0
316 63 7 0 0
318 62 7 1 0
320 63 7 1 0
322 64 7 0 0
324 63 7 0 0
326 63 7 0 0
328 63 7 0 0
330 63 7 0 0
332 63 8 0 0
334 62 7 2 1
336 63 8 1 0
338 63 8 0 0
340 63 8 0 0
342 63 8 0 0
344 62 8 1 0
346 63 8 0 0
348 62 8 1 0
350 63 8 0 0
