0 63 0 0 0
2 63 0 1 0
4.00004 63 0 1 0
6 64 0 0 0
8 64 0 0 0
10 64 0 0 0
12 65 0 0 0
14 65 0 1 0
16 65 0 0 0
18 65 0 1 0
20 66 0 1 0
22 67 0 0 0
24 66 0 2 0
26 68 0 1 0
28 69 0 0 0
30 67 0 1 0
32 68 0 0 0
34 65 0 3 0
36 68 0 0 0
38 67 0 1 0
40 66 0 2 0
42 67 0 1 0
44 66 0 2 0
46 68 0 0 0
48 68 0 0 0
50 68 0 0 0
52 66 0 1 0
54 65 0 2 0
56 66 0 1 0
58 67 0 0 0
60 66 0 0 0
62 66 0 1 0
64 67 0 0 0
66 67 0 0 0
68 67 0 0 0
70 65 0 2 0
72 67 0 0 0
74 66 0 1 0
76 67 0 0 0
78 67 0 0 0
80 67 0 1 0
82 68 0 0 0
84 66 0 2 0
86 66 0 2 0
88 68 0 0 0
90 66 0 2 0
92 68 0 0 0
94 68 0 0 0
96 67 0 0 0
98 66 0 1 0
100 65 0 2 0
102 67 0 0 0
104 67 0 0 0
106 66 0 1 0
108 67 0 0 0
110 66 0 1 0
112 66 0 1 0
114 67 0 0 0
116 66 0 1 0
118 65 0 1 0
120 66 0 0 0
122 65 0 1 0
124 66 0 0 0
126 66 0 0 0
128 64 0 1 0
130 66 0 0 0
132 65 1 1 0
134 65 1 1 0
136 66 1 0 0
138 66 1 0 0
140 66 1 0 0
142 65 1 1 0
144 63 1 1 0
146 64 1 0 0
148 64 1 0 0
150 64 1 0 0
152 65 1 0 0
154 64 1 0 0
156 64 1 0 0
158 64 1 0 0
160 64 1 0 0
162 64 1 0 0
164 64 1 0 0
166 63 1 0 0
168 63 1 0 0
170 63 1 2 0
172 65 1 0 0
174 65 1 0 0
176 64 1 2 0
178 65 1 0 0
180 64 1 0 0
182 63 1 1 0
184 64 1 1 0
186 65 1 0 0
188 64 1 1 0
190 65 1 0 0
192 65 1 0 0
194 64 1 1 0
196 64 1 1 0
198 62 1 3 0
200 65 1 0 0
202 65 0 0 1
204 65 1 0 0
206 63 1 2 0
208 66 1 0 0
210 65 1 0 0
212 65 1 0 0
214 66 1 0 0
216 66 0 0 0
218 64 0 0 0
220 64 0 0 0
222 64 0 1 0
224 65 0 0 0
226 63 0 1 0
228 63 1 1 0
230 64 0 0 1
232 64 1 0 0
234 64 1 0 0
236 62 0 2 1
238 62 1 1 0
240 63 1 0 0
242 64 1 0 0
244 64 1 0 0
246 64 1 1 0
248 65 1 0 0
250 65 1 0 0
252 65 1 0 0
254 64 1 1 0
256 64 1 1 0
258 65 1 0 0
260 64 1 1 0
262 65 1 0 0
264 65 1 0 0
266 64 1 0 0
268 63 2 1 0
270 62 2 2 0
272 63 1 1 1
274 63 2 1 0
276 63 1 1 1
278 64 2 0 0
280 64 2 0 0
282 61 1 2 0
284 63 1 0 0
286 62 1 1 0
288 63 1 0 0
290 61 1 2 0
292 63 1 0 0
294 62 1 1 0
296 63 1 0 0
298 63 1 0 0
300 63 1 0 0
302 61 2 2 0
304 63 4 0 0
306 63 3 0 0
308 62 3 1 0
310 63 4 0 0
312 61 2 2 1
314 62 3 1 0
316 63 4 0 0
318 63 4 0 0
320 62 4 1 0
322 62 4 1 0
324 62 3 0 1
326 62 4 0 1
328 60 4 2 1
330 60 5 2 0
332 62 4 0 1
334 62 5 0 0
336 62 5 0 0
338 62 5 0 0
340 62 5 0 0
342 62 5 0 0
344 62 5 0 0
346 62 5 0 0
348 62 3 0 2
350 61 6 1 0
