0 57 0 0 0
2 57 0 0 0
4.00004 57 0 0 0
6 56 0 1 0
8 55 0 1 0
10 55 0 0 0
12 53 0 2 0
14 56 0 0 0
16 55 0 1 0
18 55 0 0 0
20 56 0 0 0
22 55 0 1 0
24 56 0 0 0
26 57 0 0 0
28 57 0 0 0
30 55 0 1 0
32 54 0 2 0
34 56 0 1 0
36 56 0 0 0
38 55 0 1 0
40 56 0 0 0
42 56 0 0 0
44 54 0 2 0
46 55 0 0 0
48 54 0 1 0
50 55 0 0 0
52 54 0 1 0
54 55 0 0 0
56 54 0 1 0
58 55 0 0 0
60 55 0 0 0
62 55 0 0 0
64 55 0 0 0
66 54 0 1 0
68 56 0 0 0
70 57 0 0 0
72 58 0 0 0
74 56 0 1 0
76 56 0 1 0
78 57 0 0 0
80 56 0 1 0
82 57 0 1 0
84 58 0 0 0
86 60 0 0 0
88 59 0 1 0
90 61 0 0 0
92 60 0 0 0
94 61 0 0 0
96 59 0 2 0
98 60 0 1 0
100 60 0 0 0
102 59 0 1 0
104 59 1 1 0
106 59 1 1 0
108 60 1 0 0
110 60 1 0 0
112 60 1 0 0
114 60 1 0 0
116 60 0 0 1
118 60 1 0 0
120 59 1 1 0
122 60 2 0 1
124 60 2 0 0
126 60 2 0 0
128 59 1 0 1
130 59 2 0 0
132 59 2 0 0
134 59 2 0 0
136 58 2 1 0
138 59 2 0 0
140 59 2 0 0
142 58 1 1 1
144 59 2 0 0
146 59 2 0 0
148 59 2 0 0
150 59 2 0 0
152 59 2 0 0
154 59 2 0 0
156 58 2 1 0
158 59 2 0 0
160 59 2 0 0
162 59 1 0 0
164 59 1 0 0
166 59 1 0 0
168 58 1 1 0
170 58 1 1 0
172 58 1 1 0
174 59 1 0 0
176 59 1 0 0
178 58 1 0 0
180 59 1 0 0
182 59 1 0 1
184 59 1 1 0
186 58 1 1 0
188 58 1 1 0
190 59 2 0 0
192 59 2 0 0
194 58 2 0 0
196 58 2 0 0
198 58 3 0 0
200 58 3 0 0
202 57 3 1 1
204 57 3 1 0
206 59 2 0 2
208 59 4 0 1
210 59 4 0 1
212 58 5 1 0
214 58 5 0 0
216 58 4 0 1
218 57 5 1 0
220 58 5 0 0
222 58 5 0 0
224 58 4 0 0
226 58 3 0 1
228 58 4 0 0
230 58 4 0 0
232 58 4 0 0
234 58 3 0 0
236 57 3 0 0
238 57 2 0 1
240 57 5 0 0
242 57 4 0 0
244 57 5 0 0
246 56 4 1 0
248 57 5 0 0
250 55 3 1 2
252 56 4 0 0
254 55 4 1 0
256 55 4 0 1
258 53 4 2 1
260 55 4 0 0
262 54 4 0 0
264 54 4 0 0
266 54 4 0 1
268 54 5 1 0
270 55 4 0 1
272 55 4 0 1
274 54 4 1 0
276 53 4 2 0
278 54 5 2 0
280 56 5 0 1
282 53 5 2 0
284 55 5 0 0
286 53 5 1 0
288 55 4 0 0
290 55 4 0 0
292 54 4 1 0
294 55 4 0 0
296 55 4 0 0
298 55 4 1 0
300 56 4 0 0
302 56 4 0 0
304 55 5 1 0
306 56 5 0 0
308 56 5 0 2
310 55 8 1 0
312 55 7 1 0
314 55 5 1 0
316 55 5 0 0
318 55 5 0 0
320 53 5 2 1
322 53 6 1 0
324 53 6 1 0
326 53 6 0 0
328 53 7 0 0
330 53 5 0 2
332 52 7 0 0
334 51 7 1 0
336 52 7 0 0
338 52 7 0 0
340 52 7 0 0
342 51 6 1 1
344 52 5 0 1
346 52 6 0 0
348 51 5 1 1
350 52 6 0 0
