0 68 0 0 0
2 67 0 2 0
4.00004 67 0 1 0
6 64 0 3 0
8 68 0 0 0
10 68 0 2 0
12 68 0 1 0
14 64 0 4 0
16 67 0 0 0
18 66 0 1 0
20 65 0 3 0
22 67 0 1 0
24 64 0 4 0
26 64 0 2 0
28 65 0 1 0
30 64 0 3 0
32 68 0 0 0
34 66 0 1 0
36 67 0 0 0
38 67 0 0 0
40 65 0 1 0
42 65 0 1 0
44 64 0 2 0
46 66 0 0 0
48 65 0 1 0
50 65 0 1 0
52 66 0 0 0
54 66 0 0 0
56 66 0 0 0
58 66 0 1 0
60 66 0 1 0
62 68 0 0 0
64 66 0 1 0
66 67 0 0 0
68 66 0 0 0
70 66 0 1 0
72 65 0 3 0
74 68 0 1 0
76 69 0 0 0
78 67 0 2 0
80 68 0 0 0
82 67 0 0 0
84 67 0 0 0
86 67 0 0 0
88 68 0 1 0
90 68 0 1 0
92 69 0 0 0
94 67 0 2 0
96 70 1 0 0
98 68 1 1 0
100 69 1 1 0
102 68 0 2 1
104 70 1 0 0
106 69 1 1 0
108 68 1 2 0
110 68 1 1 0
112 69 1 0 0
114 66 1 1 0
116 68 1 0 0
118 66 1 0 0
120 65 1 1 0
122 65 1 0 0
124 65 1 0 0
126 65 1 0 0
128 65 1 0 0
130 65 1 0 0
132 64 1 1 0
134 64 1 1 0
136 65 1 0 0
138 65 2 0 0
140 65 1 0 1
142 65 2 0 0
144 64 2 1 0
146 66 2 0 0
148 65 3 1 0
150 64 3 1 0
152 64 2 0 1
154 64 2 1 0
156 64 2 1 0
158 64 2 2 0
160 64 2 2 0
162 62 2 3 0
164 63 2 0 0
166 63 2 0 0
168 62 2 1 0
170 62 2 1 0
172 63 2 0 0
174 62 2 1 0
176 63 2 1 0
178 62 2 1 0
180 64 2 0 0
182 62 2 1 0
184 62 2 1 1
186 63 2 0 0
188 62 2 1 0
190 62 2 2 0
192 62 2 1 0
194 63 2 1 0
196 63 2 0 0
198 63 2 0 0
200 64 3 0 0
202 64 2 1 1
204 63 3 2 0
206 64 3 1 0
208 62 3 1 0
210 62 3 1 0
212 63 3 1 0
214 63 3 1 0
216 61 3 2 0
218 61 3 2 0
220 63 3 1 0
222 62 5 1 0
224 62 5 1 0
226 61 5 2 0
228 62 5 1 0
230 60 4 3 0
232 63 4 1 1
234 63 4 1 0
236 63 4 1 1
238 62 5 2 0
240 61 3 2 2
242 60 4 3 1
244 61 5 2 0
246 63 5 0 0
248 63 5 0 0
250 62 4 1 0
252 63 4 0 0
254 62 4 1 0
256 63 3 0 1
258 61 5 2 0
260 63 3 0 1
262 62 4 1 0
264 60 3 3 0
266 62 3 0 0
268 61 2 1 0
270 61 2 1 0
272 62 2 0 0
274 60 2 2 0
276 60 3 3 0
278 62 3 1 0
280 60 3 2 0
282 62 3 1 0
284 60 2 3 0
286 61 3 1 0
288 60 5 2 1
290 62 6 1 1
292 62 6 0 1
294 60 7 2 0
296 61 3 1 2
298 61 4 1 0
300 61 5 0 0
302 60 4 1 0
304 61 6 0 0
306 60 5 0 1
308 60 6 0 0
310 59 4 1 2
312 59 6 1 0
314 60 5 0 0
316 59 6 1 0
318 59 4 1 0
320 59 3 1 1
322 59 4 0 1
324 57 4 2 1
326 59 4 0 1
328 60 5 0 0
330 60 5 0 0
332 60 5 0 2
334 59 6 1 1
336 57 7 1 0
338 58 6 0 1
340 58 6 0 0
342 57 6 1 0
344 58 6 0 0
346 57 6 1 0
348 57 5 3 1
350 59 5 1 1
