0 77 0 0 0
2 75 0 1 0
4.00004 77 0 0 0
6 74 0 0 0
8 73 0 1 0
10 75 0 1 0
12 76 0 0 0
14 76 0 0 0
16 74 0 3 0
18 75 0 2 0
20 74 0 3 0
22 74 0 4 0
24 75 0 3 0
26 75 0 4 0
28 75 0 3 0
30 75 0 3 0
32 76 0 3 0
34 77 0 1 0
36 77 0 1 0
38 78 0 0 0
40 78 0 0 0
42 78 0 0 0
44 77 0 1 0
46 78 0 0 0
48 78 0 0 0
50 78 0 0 0
52 65 13 0 0
54 50 28 0 0
56 44 34 0 0
58 38 40 0 0
60 31 46 0 1
62 27 51 0 0
64 22 56 0 0
66 20 58 0 0
68 18 60 0 0
70 15 63 0 0
72 12 65 0 1
74 11 67 0 0
76 10 68 0 0
78 9 66 0 3
80 8 69 0 1
82 7 70 0 1
84 7 68 2 3
86 6 72 1 0
88 5 73 1 0
90 4 73 2 0
92 4 74 1 0
94 3 72 2 2
96 3 72 2 2
98 2 72 3 1
100 3 73 3 0
102 4 72 2 1
104 4 73 1 1
106 3 73 1 2
108 1 74 2 2
110 2 75 0 2
112 2 74 0 3
114 1 76 0 2
116 1 77 0 1
118 1 77 0 1
120 1 76 0 2
122 1 77 0 0
124 0 76 0 2
126 0 78 0 0
128 0 77 0 2
130 0 78 1 1
132 0 78 0 1
134 0 77 1 1
136 0 77 1 1
138 0 77 1 0
140 0 77 1 0
142 0 77 1 1
144 0 77 0 1
146 0 77 1 1
148 0 77 1 0
150 0 76 1 2
152 0 76 1 1
154 0 76 0 1
156 0 76 0 1
158 0 76 0 2
160 0 76 0 2
162 0 76 0 1
164 0 74 0 3
166 0 75 0 2
168 0 76 0 1
170 0 75 0 2
172 0 75 0 2
174 0 74 0 2
176 0 73 0 3
178 0 73 0 2
180 0 73 0 2
182 0 72 0 2
184 0 71 0 3
186 0 71 0 3
188 0 72 0 1
190 0 73 0 0
192 0 73 0 0
194 0 72 0 2
196 0 72 1 2
198 0 72 1 2
200 0 72 1 2
202 0 72 3 2
204 0 72 2 2
206 0 72 2 2
208 0 72 1 2
210 0 73 0 2
212 0 73 0 1
214 0 73 0 1
216 0 73 1 1
218 0 72 1 3
220 0 73 0 1
222 0 74 0 0
224 0 74 0 0
226 0 74 0 0
228 0 74 0 1
230 0 74 0 1
232 0 74 0 1
234 0 74 0 1
236 0 74 1 1
238 0 74 1 0
240 0 74 1 0
242 0 73 1 1
244 0 72 1 2
246 0 71 1 3
248 0 71 1 3
250 1 71 0 3
252 1 73 0 2
254 1 72 0 2
256 0 74 0 1
258 0 72 0 3
260 0 74 0 1
262 0 74 0 1
264 0 73 0 2
266 0 74 0 1
268 0 74 1 1
270 0 73 0 2
272 0 71 0 4
274 0 72 0 3
276 0 73 0 2
278 0 74 0 1
280 0 72 0 3
282 0 73 0 1
284 0 74 0 0
286 0 74 0 0
288 0 72 0 2
290 0 72 0 2
292 0 73 0 0
294 0 73 0 1
296 0 73 0 0
298 0 73 0 0
300 0 73 1 0
302 0 73 0 0
304 0 73 0 0
306 0 70 0 3
308 0 71 0 2
310 0 70 0 3
312 0 71 0 2
314 0 71 0 1
316 0 70 1 2
318 0 72 1 0
320 0 72 2 0
322 0 72 2 0
324 0 71 1 1
326 0 70 2 2
328 0 71 1 1
330 0 70 1 2
332 0 73 1 0
334 0 72 1 1
336 0 72 1 1
338 0 71 1 2
340 0 71 1 2
342 1 72 0 1
344 1 71 0 1
346 1 72 0 0
348 1 72 0 0
350 1 71 0 1
