0 73 0 0 0
2 72 0 0 0
4.00004 71 0 1 0
6 70 0 2 0
8 71 0 1 0
10 70 0 1 0
12 70 0 2 0
14 70 0 1 0
16 71 0 1 0
18 72 0 0 0
20 70 0 2 0
22 71 0 0 0
24 71 0 1 0
26 70 0 2 0
28 72 0 0 0
30 72 0 0 0
32 71 0 1 0
34 71 0 1 0
36 71 0 1 0
38 72 0 0 0
40 72 0 0 0
42 71 0 1 0
44 71 0 1 0
46 71 0 1 0
48 72 0 0 0
50 71 0 1 0
52 71 0 1 0
54 71 0 2 0
56 71 0 1 0
58 70 0 2 0
60 69 0 2 0
62 70 0 1 0
64 71 0 1 0
66 71 0 0 0
68 70 0 1 0
70 71 0 0 0
72 70 0 1 0
74 71 0 0 0
76 71 0 1 0
78 70 0 2 0
80 70 0 2 0
82 71 0 1 0
84 69 0 3 0
86 67 0 5 0
88 69 0 3 0
90 69 0 1 0
92 68 0 3 0
94 69 0 1 0
96 69 0 3 0
98 69 0 2 0
100 68 0 2 0
102 67 0 3 0
104 68 0 2 0
106 68 0 3 0
108 68 0 1 0
110 67 0 2 0
112 67 0 3 0
114 66 0 4 0
116 63 0 6 0
118 68 0 2 0
120 68 0 2 0
122 67 0 3 0
124 67 0 2 0
126 66 0 3 0
128 69 0 0 0
130 69 0 0 0
132 68 0 1 0
134 68 0 2 0
136 68 0 2 0
138 67 0 2 0
140 68 0 2 0
142 69 0 1 0
144 69 0 1 0
146 70 0 0 0
148 70 0 0 0
150 70 0 0 0
152 69 0 1 0
154 69 0 1 0
156 70 0 0 0
158 70 0 0 0
160 70 0 0 0
162 70 0 0 0
164 70 0 0 0
166 70 0 0 0
168 70 0 0 0
170 70 0 0 0
172 70 0 0 0
174 70 0 0 0
176 70 0 0 0
178 70 0 0 0
180 70 0 0 0
182 70 0 0 0
184 70 0 0 0
186 70 0 0 0
188 70 0 0 0
190 69 0 1 0
192 70 0 0 0
194 69 0 1 0
196 67 0 3 0
198 69 0 1 0
200 70 0 0 0
202 69 0 1 0
204 69 0 1 0
206 70 0 0 0
208 70 0 0 0
210 69 0 1 0
212 70 0 0 0
214 70 0 0 0
216 70 0 0 0
218 67 0 3 0
220 70 0 0 0
222 70 0 0 0
224 69 0 1 0
226 70 0 0 0
228 70 0 0 0
230 70 0 0 0
232 70 0 0 0
234 70 0 0 0
236 69 0 1 0
238 70 0 0 0
240 69 0 1 0
242 69 0 1 0
244 70 0 0 0
246 70 0 0 0
248 69 0 1 0
250 69 0 1 0
252 69 0 1 0
254 69 0 1 0
256 67 0 3 0
258 68 0 2 0
260 70 0 0 0
262 70 0 0 0
264 69 0 1 1
266 70 0 0 1
268 70 0 0 1
270 70 1 0 0
272 69 1 1 0
274 70 1 0 0
276 70 1 0 0
278 69 1 1 0
280 69 1 1 1
282 69 1 1 0
284 68 1 2 1
286 70 1 0 1
288 69 1 1 1
290 69 1 1 1
292 69 2 1 0
294 69 2 1 0
296 69 2 1 0
298 69 2 1 0
300 69 2 1 0
302 70 2 0 0
304 69 2 1 0
306 70 2 0 0
308 70 2 0 0
310 70 2 0 0
312 70 2 0 0
314 69 2 1 0
316 69 2 1 0
318 69 2 1 0
320 69 2 1 0
322 69 2 1 0
324 69 2 0 0
326 68 2 1 0
328 66 2 3 0
330 67 2 2 0
332 67 2 2 0
334 68 2 1 0
336 68 2 1 0
338 68 2 2 0
340 68 2 2 0
342 66 2 4 0
344 68 2 2 0
346 67 2 3 0
348 67 2 3 0
350 68 2 2 0
