0 77 0 0 0
2 76 0 0 0
4.00004 75 0 1 0
6 76 0 0 0
8 76 0 0 0
10 76 0 1 0
12 76 0 1 0
14 76 0 0 0
16 75 0 1 0
18 73 0 3 0
20 71 0 3 0
22 72 0 3 0
24 74 0 3 0
26 75 0 1 0
28 76 0 2 0
30 76 0 1 0
32 75 0 1 0
34 74 0 2 0
36 76 0 0 0
38 76 0 0 0
40 76 0 0 0
42 76 0 1 0
44 75 0 3 0
46 77 0 1 0
48 76 0 2 0
50 77 0 2 0
52 61 17 1 0
54 50 26 2 1
56 49 29 1 0
58 41 37 0 0
60 29 49 0 0
62 28 50 0 0
64 26 51 0 1
66 20 57 1 0
68 19 59 0 0
70 14 64 0 0
72 13 64 0 1
74 12 64 0 2
76 10 66 1 2
78 7 70 1 0
80 6 71 1 1
82 7 71 0 1
84 6 72 0 1
86 3 75 1 0
88 3 75 0 0
90 3 75 0 0
92 3 74 0 1
94 2 75 0 1
96 2 74 0 2
98 1 76 1 0
100 1 75 1 1
102 1 75 1 1
104 1 76 0 1
106 0 76 1 1
108 0 78 0 0
110 0 78 1 0
112 0 78 1 0
114 0 78 1 0
116 1 78 0 0
118 1 77 0 1
120 0 78 1 0
122 1 76 0 2
124 0 79 3 0
126 2 77 1 2
128 2 78 1 0
130 2 78 0 1
132 1 79 1 1
134 2 79 0 1
136 2 79 0 1
138 2 79 0 0
140 2 79 0 0
142 0 81 0 0
144 0 81 0 0
146 0 80 0 2
148 0 81 0 0
150 0 81 0 0
152 0 81 0 1
154 0 81 0 1
156 0 81 0 0
158 0 80 1 1
160 1 81 0 1
162 1 80 0 1
164 1 80 0 2
166 1 81 0 1
168 1 81 0 1
170 1 81 0 1
172 1 81 0 1
174 0 81 1 0
176 1 81 0 0
178 1 80 0 1
180 1 81 0 0
182 0 81 0 1
184 0 82 0 0
186 0 82 0 0
188 0 79 0 3
190 1 81 0 1
192 1 81 0 1
194 1 82 0 0
196 1 82 0 0
198 1 81 0 1
200 1 82 0 0
202 1 81 0 1
204 1 81 0 1
206 1 80 0 2
208 1 81 0 0
210 1 81 0 0
212 1 81 0 0
214 1 81 0 0
216 1 81 0 0
218 1 80 0 1
220 1 79 0 2
222 0 82 0 0
224 0 79 0 3
226 0 80 0 0
228 0 80 0 1
230 0 80 1 3
232 0 79 0 3
234 0 78 1 4
236 0 79 0 3
238 0 77 0 4
240 0 79 0 1
242 0 79 0 2
244 0 78 0 2
246 0 79 0 1
248 0 80 0 1
250 0 78 0 2
252 0 80 0 0
254 0 80 0 0
256 0 79 0 1
258 0 79 0 1
260 0 79 0 1
262 0 80 0 0
264 0 80 0 0
266 0 80 0 0
268 0 79 0 1
270 0 80 0 0
272 0 80 0 0
274 0 80 0 0
276 0 80 0 0
278 0 78 0 2
280 0 79 0 1
282 0 79 0 1
284 0 78 0 1
286 0 78 0 0
288 0 77 0 1
290 0 77 0 1
292 0 76 0 2
294 0 75 0 3
296 0 77 0 1
298 0 76 0 2
300 0 76 0 2
302 0 77 0 2
304 0 77 1 1
306 1 77 0 1
308 1 77 0 1
310 0 79 0 0
312 0 79 0 0
314 0 79 0 0
316 0 78 0 1
318 0 78 0 1
320 0 75 0 4
322 0 76 1 2
324 0 77 1 0
326 1 76 0 1
328 0 76 1 1
330 0 76 1 1
332 0 75 1 2
334 0 75 1 1
336 0 76 0 0
338 0 75 1 1
340 0 74 1 2
342 0 74 0 2
344 0 74 0 0
346 0 74 0 0
348 0 73 1 1
350 1 73 0 0
