0 59 0 0 0
2 62 0 0 0
4.00004 61 0 0 0
6 61 0 1 0
8 59 0 2 0
10 57 0 3 0
12 57 0 2 0
14 58 0 2 0
16 57 0 3 0
18 57 0 2 0
20 59 0 1 0
22 58 0 2 0
24 58 0 1 0
26 58 0 1 0
28 59 0 0 0
30 59 0 0 0
32 59 0 0 0
34 59 0 0 0
36 59 0 0 0
38 58 0 1 0
40 57 0 2 0
42 58 0 1 0
44 59 0 0 0
46 59 0 0 0
48 59 0 0 0
50 58 0 1 0
52 54 5 0 0
54 48 11 0 0
56 40 19 0 0
58 39 20 0 0
60 35 22 1 1
62 30 28 1 0
64 26 32 1 0
66 24 34 1 0
68 21 37 1 0
70 18 40 0 0
72 17 40 0 1
74 15 42 0 1
76 14 42 1 1
78 14 44 0 0
80 10 48 0 0
82 7 49 2 0
84 5 52 1 0
86 6 52 0 0
88 5 53 0 0
90 5 53 0 0
92 5 52 1 1
94 4 54 1 0
96 4 53 1 1
98 4 54 0 0
100 3 55 1 0
102 3 54 1 1
104 2 56 1 0
106 2 56 0 0
108 2 56 0 0
110 2 56 1 0
112 2 54 1 2
114 1 57 1 0
116 1 57 1 0
118 1 57 1 0
120 1 56 1 1
122 1 57 1 0
124 1 57 1 0
126 2 57 0 0
128 2 57 0 0
130 2 57 1 0
132 2 56 1 1
134 2 56 1 1
136 1 58 1 0
138 1 58 1 0
140 1 56 1 2
142 1 56 1 2
144 1 56 1 2
146 1 56 1 2
148 1 57 1 1
150 1 56 1 2
152 1 57 1 1
154 1 57 1 1
156 1 57 1 1
158 1 57 1 0
160 1 57 1 0
162 2 55 0 2
164 1 57 0 1
166 0 59 1 0
168 0 59 1 0
170 0 59 0 0
172 0 58 0 1
174 0 58 0 1
176 0 59 0 0
178 0 59 0 0
180 0 59 0 0
182 0 58 0 1
184 0 58 1 1
186 0 57 1 2
188 0 58 2 1
190 0 58 2 1
192 0 57 2 2
194 0 58 2 1
196 0 58 3 0
198 0 57 3 1
200 0 57 3 2
202 0 57 3 1
204 0 57 3 2
206 1 57 2 2
208 1 57 1 3
210 1 59 1 1
212 1 59 1 1
214 1 59 1 1
216 1 60 1 0
218 1 60 1 0
220 0 61 1 0
222 0 61 1 0
224 0 61 1 0
226 0 61 1 0
228 0 60 1 1
230 0 60 1 1
232 1 61 0 0
234 1 61 0 0
236 1 60 0 1
238 1 61 0 0
240 1 60 0 1
242 1 61 0 0
244 1 61 0 0
246 1 61 0 0
248 1 61 0 0
250 1 61 0 0
252 1 61 0 0
254 1 60 0 1
256 0 61 0 1
258 0 61 0 1
260 0 62 0 0
262 0 60 0 2
264 0 60 0 2
266 0 61 1 1
268 0 60 2 2
270 0 59 2 3
272 1 58 0 4
274 1 59 1 3
276 1 59 1 2
278 1 60 1 2
280 1 59 1 3
282 1 60 1 2
284 0 60 1 3
286 0 60 1 3
288 0 60 1 3
290 0 59 1 4
292 1 59 0 3
294 1 61 0 1
296 1 61 0 1
298 1 62 0 0
300 0 62 1 0
302 0 62 1 0
304 1 62 0 0
306 1 62 0 0
308 0 63 0 0
310 0 63 1 0
312 0 61 0 2
314 0 61 0 2
316 0 61 0 2
318 0 62 0 1
320 0 63 0 0
322 0 63 0 0
324 0 63 0 0
326 0 63 0 0
328 0 63 0 0
330 0 63 0 0
332 0 63 0 0
334 0 61 0 2
336 0 61 0 2
338 0 62 0 1
340 0 63 0 0
342 0 63 0 0
344 0 63 0 0
346 0 63 0 0
348 0 63 1 0
350 0 63 1 0
