0 74 0 0 0
2 74 0 0 0
4.00004 73 0 0 0
6 72 0 2 0
8 71 0 2 0
10 68 0 5 0
12 69 0 3 0
14 69 0 3 0
16 68 0 4 0
18 68 0 3 0
20 69 0 3 0
22 70 0 0 0
24 69 0 1 0
26 70 0 0 0
28 69 0 1 0
30 69 0 1 0
32 67 0 3 0
34 66 0 4 0
36 67 0 4 0
38 68 0 3 0
40 67 0 3 0
42 67 0 4 0
44 67 0 5 0
46 67 0 5 0
48 68 0 2 0
50 68 0 2 0
52 67 0 5 0
54 67 0 6 0
56 68 0 4 0
58 68 0 3 0
60 66 0 4 0
62 67 0 3 0
64 69 0 1 0
66 68 0 2 0
68 68 0 2 0
70 69 0 1 0
72 69 0 1 0
74 69 0 1 0
76 69 0 0 0
78 68 0 2 0
80 67 0 4 0
82 67 0 2 0
84 67 0 3 0
86 68 0 1 0
88 68 0 2 0
90 68 0 2 0
92 68 0 1 0
94 65 0 4 0
96 67 0 2 1
98 65 0 4 0
100 65 0 4 1
102 67 0 2 1
104 67 0 4 0
106 68 0 3 1
108 66 0 5 0
110 67 0 3 0
112 67 0 3 2
114 67 0 3 2
116 67 0 3 2
118 67 1 3 1
120 67 1 3 1
122 66 1 4 1
124 66 1 3 1
126 68 1 1 1
128 67 1 3 1
130 67 1 3 1
132 68 1 2 1
134 66 1 3 2
136 65 1 4 2
138 67 1 2 2
140 65 1 4 2
142 66 1 4 2
144 67 1 3 2
146 66 1 3 3
148 65 1 5 3
150 66 1 4 2
152 66 1 4 2
154 67 2 1 2
156 66 2 2 1
158 66 2 2 1
160 67 2 1 2
162 67 2 1 1
164 67 2 1 1
166 67 3 2 1
168 67 3 2 1
170 67 3 2 1
172 67 3 2 2
174 65 3 4 3
176 66 3 3 2
178 65 3 4 3
180 66 3 3 2
182 67 3 3 2
184 67 3 3 2
186 67 4 3 1
188 67 4 3 1
190 67 5 3 0
192 67 5 3 0
194 67 5 2 0
196 68 5 2 0
198 67 5 3 0
200 67 5 2 0
202 67 5 2 0
204 66 5 3 0
206 68 5 1 1
208 69 5 0 2
210 68 5 2 3
212 68 5 2 3
214 69 5 1 3
216 70 5 0 3
218 70 6 0 2
220 70 6 0 2
222 70 6 0 2
224 70 5 0 3
226 69 4 1 3
228 69 5 1 2
230 69 4 1 3
232 68 5 2 2
234 68 5 2 2
236 67 6 3 1
238 68 6 2 1
240 68 6 2 1
242 69 7 1 0
244 68 7 2 0
246 68 7 2 0
248 68 7 2 0
250 66 7 4 0
252 65 7 5 0
254 67 7 3 0
256 67 7 3 0
258 67 7 3 0
260 66 7 4 0
262 66 7 4 0
264 67 7 3 0
266 66 7 3 0
268 66 7 3 0
270 66 7 3 0
272 66 7 3 0
274 66 7 2 0
276 65 7 3 0
278 66 7 1 0
280 66 7 2 0
282 66 7 1 0
284 65 7 3 0
286 65 7 4 0
288 65 7 4 1
290 66 7 4 0
292 65 7 4 0
294 66 6 3 1
296 66 7 2 1
298 66 7 2 1
300 64 7 5 2
302 67 7 2 1
304 67 7 2 1
306 67 7 2 1
308 67 7 2 1
310 68 6 1 2
312 68 7 1 1
314 68 7 1 1
316 67 7 2 1
318 68 7 1 1
320 66 7 3 1
322 65 7 4 2
324 66 8 3 1
326 65 8 3 1
328 64 7 4 1
330 65 8 3 0
332 64 8 4 0
334 64 8 5 0
336 63 8 6 0
338 60 8 9 0
340 62 8 5 0
342 61 8 6 0
344 62 8 5 0
346 63 8 4 0
348 63 8 4 1
350 63 8 4 1
