0 3472 0 1528 0
2.0001 2059 1408 1525 8
4 1219 2251 1500 30
6.0001 764 2709 1470 57
8.0001 477 2981 1449 93
10.0001 325 3144 1403 128
12.0001 221 3226 1370 183
14.0001 166 3287 1330 217
16.0001 129 3333 1298 240
18.0001 106 3366 1262 266
20.0001 91 3385 1231 293
22.0001 90 3389 1191 330
24.0001 78 3403 1162 357
26.0001 63 3423 1134 380
28.0001 57 3421 1104 418
30.0001 63 3425 1068 444
32.0001 62 3405 1040 493
34 64 3401 1015 520
36 66 3395 983 556
38 56 3400 964 580
40 61 3401 933 605
42 53 3392 914 641
44 50 3388 894 668
46 55 3399 864 682
48 47 3403 850 700
50 52 3407 831 710
52 50 3409 808 733
54 44 3413 791 752
56 42 3401 769 788
58 41 3403 754 802
60 41 3387 738 834
62 50 3409 711 830
64 43 3413 690 854
66 33 3420 676 871
68 43 3411 646 900
70 36 3426 631 907
72 29 3457 616 898
74 27 3461 606 906
76 29 3460 594 917
78 37 3469 576 918
80 30 3468 566 936
82 32 3477 551 940
84 30 3481 541 948
86 28 3474 528 970
88 35 3485 508 972
90 20 3482 496 1002
92 24 3479 485 1012
94 26 3474 470 1030
96 28 3470 454 1048
98 25 3469 448 1058
100 22 3471 434 1073
