0 3370 0 1630 0
2.0001 1611 1757 1613 19
4 829 2559 1564 48
6.0001 429 2939 1531 101
8.0001 255 3104 1478 163
10.0001 163 3200 1436 201
12.0001 104 3264 1386 246
14.0001 82 3290 1336 292
16.0001 81 3281 1290 348
18.0001 76 3289 1247 388
20.0001 60 3318 1205 417
22.0001 58 3310 1174 458
24.0001 59 3300 1137 504
26.0001 62 3321 1091 526
28.0001 68 3320 1046 566
30.0001 52 3324 1021 603
32.0001 39 3319 994 648
34 42 3315 965 678
36 50 3314 928 708
38 44 3314 898 744
40 45 3321 865 769
42 37 3325 842 796
44 28 3305 825 842
46 35 3307 795 863
48 35 3297 772 896
50 34 3280 754 932
52 35 3281 727 957
54 35 3293 705 967
56 43 3274 677 1006
58 40 3289 654 1017
60 33 3299 632 1036
62 34 3285 615 1066
64 29 3292 599 1080
66 25 3291 580 1104
68 19 3294 562 1125
70 31 3309 533 1127
72 31 3288 514 1167
74 25 3304 498 1173
76 30 3310 474 1186
78 32 3305 453 1210
80 33 3313 431 1223
82 29 3341 414 1216
84 32 3329 397 1242
86 19 3345 388 1248
88 27 3342 370 1261
90 20 3341 357 1282
92 14 3349 348 1289
94 18 3350 338 1294
96 14 3344 329 1313
98 16 3347 317 1320
100 18 3355 306 1321
