0 2442 0 2558 0
2.0001 937 1482 2563 18
4 396 2034 2521 49
6.0001 177 2248 2476 99
8.0001 99 2320 2442 139
10.0001 65 2348 2401 186
12.0001 51 2353 2363 233
14.0001 47 2351 2331 271
16.0001 42 2344 2303 311
18.0001 42 2346 2260 352
20.0001 44 2341 2214 401
22.0001 42 2340 2186 432
24.0001 48 2348 2142 462
26.0001 51 2344 2104 501
28.0001 57 2352 2062 529
30.0001 45 2363 2028 564
32.0001 50 2363 1988 599
34 47 2353 1957 643
36 45 2349 1921 685
38 37 2347 1896 720
40 32 2362 1863 743
42 43 2348 1830 779
44 30 2367 1807 796
46 38 2347 1772 843
48 38 2335 1745 882
50 43 2326 1707 924
52 53 2320 1666 961
54 52 2327 1633 988
56 48 2352 1588 1012
58 49 2352 1550 1049
60 37 2366 1523 1074
62 29 2371 1502 1098
64 28 2373 1475 1124
66 27 2374 1449 1150
68 27 2379 1425 1169
70 21 2381 1407 1191
72 34 2375 1371 1220
74 27 2375 1350 1248
76 32 2376 1321 1271
78 29 2396 1300 1275
80 36 2398 1268 1298
82 33 2398 1250 1319
84 34 2420 1220 1326
86 40 2424 1195 1341
88 38 2440 1169 1353
90 30 2456 1145 1369
92 25 2450 1129 1396
94 22 2458 1110 1410
96 21 2460 1093 1426
98 20 2462 1073 1445
100 26 2458 1049 1467
