0 2285 0 2715 0
2.0001 461 1823 2702 14
4 136 2164 2658 42
6.0001 62 2237 2616 85
8.0001 54 2252 2574 120
10.0001 42 2269 2533 156
12.0001 58 2263 2481 198
14.0001 51 2255 2446 248
16.0001 34 2274 2406 286
18.0001 35 2274 2367 324
20.0001 31 2287 2335 347
22.0001 40 2280 2294 386
24.0001 40 2283 2262 415
26.0001 48 2268 2226 458
28.0001 29 2277 2203 491
30.0001 28 2275 2182 515
32.0001 45 2258 2138 559
34 34 2255 2110 601
36 37 2260 2079 624
38 37 2245 2049 669
40 34 2251 2017 698
42 36 2262 1983 719
44 32 2265 1958 745
46 36 2262 1921 781
48 36 2292 1889 783
50 34 2285 1860 821
52 39 2294 1827 840
54 27 2286 1810 877
56 31 2281 1783 905
58 28 2287 1758 927
60 30 2276 1729 965
62 23 2274 1716 987
64 19 2260 1694 1027
66 32 2250 1662 1056
68 25 2253 1641 1081
70 25 2256 1615 1104
72 15 2282 1595 1108
74 21 2278 1576 1125
76 22 2275 1553 1150
78 26 2275 1530 1169
80 27 2270 1500 1203
82 14 2288 1486 1212
84 20 2289 1457 1234
86 23 2285 1434 1258
88 22 2279 1413 1286
90 28 2278 1392 1302
92 19 2294 1377 1310
94 24 2305 1356 1315
96 21 2307 1340 1332
98 23 2297 1324 1356
100 22 2298 1304 1376
