0 2544 0 2456 0
2.0001 952 1583 2454 11
4 372 2164 2434 30
6.0001 154 2381 2415 50
8.0001 91 2452 2387 70
10.0001 65 2479 2361 95
12.0001 54 2494 2333 119
14.0001 52 2500 2303 145
16.0001 49 2507 2268 176
18.0001 43 2503 2246 208
20.0001 32 2516 2218 234
22.0001 45 2510 2186 259
24.0001 34 2522 2171 273
26.0001 31 2524 2154 291
28.0001 43 2528 2117 312
30.0001 39 2535 2094 332
32.0001 45 2540 2060 355
34 25 2552 2046 377
36 26 2559 2019 396
38 30 2557 1999 414
40 29 2560 1979 432
42 34 2560 1957 449
44 29 2560 1946 465
46 26 2546 1931 497
48 20 2553 1920 507
50 24 2540 1900 536
52 27 2552 1883 538
54 28 2566 1862 544
56 27 2569 1841 563
58 33 2567 1823 577
60 22 2566 1812 600
62 23 2570 1793 614
64 28 2562 1771 639
66 24 2558 1758 660
68 30 2547 1735 688
70 25 2554 1722 699
72 25 2543 1704 728
74 24 2544 1686 746
76 28 2552 1664 756
78 17 2549 1654 780
80 21 2543 1641 795
82 20 2550 1630 800
84 17 2557 1617 809
86 21 2547 1603 829
88 21 2535 1588 856
90 32 2533 1565 870
92 26 2538 1550 886
94 29 2532 1531 908
96 23 2545 1514 918
98 20 2539 1504 937
100 20 2531 1490 959
