0 3414 0 1586 0
2.0001 1660 1745 1585 10
4 852 2546 1548 54
6.0001 444 2955 1499 102
8.0001 264 3133 1447 156
10.0001 172 3225 1401 202
12.0001 124 3289 1351 236
14.0001 102 3315 1307 276
16.0001 84 3332 1264 320
18.0001 83 3351 1216 350
20.0001 76 3353 1173 398
22.0001 59 3357 1146 438
24.0001 63 3355 1107 475
26.0001 65 3367 1061 507
28.0001 60 3370 1021 549
30.0001 60 3366 979 595
32.0001 63 3367 938 632
34 50 3385 906 659
36 46 3373 878 703
38 46 3387 849 718
40 54 3383 813 750
42 45 3381 788 786
44 42 3368 763 827
46 44 3375 738 843
48 39 3368 724 869
50 43 3365 698 894
52 38 3369 675 918
54 34 3370 658 938
56 34 3378 639 949
58 38 3379 611 972
60 31 3381 595 993
62 34 3387 571 1008
64 23 3388 559 1030
66 19 3385 545 1051
68 16 3381 536 1067
70 31 3378 511 1080
72 25 3385 497 1093
74 14 3400 490 1096
76 15 3383 475 1127
78 15 3374 462 1149
80 13 3343 451 1193
82 20 3349 431 1200
84 23 3338 417 1222
86 24 3351 402 1223
88 24 3347 390 1239
90 21 3356 376 1247
92 19 3365 366 1250
94 14 3376 353 1257
96 13 3385 342 1260
98 14 3373 332 1281
100 11 3371 323 1295
