0 2530 0 2470 0
2.0001 1297 1223 2472 8
4 727 1792 2457 24
6.0001 399 2122 2436 43
8.0001 233 2281 2417 69
10.0001 133 2387 2399 81
12.0001 94 2417 2381 108
14.0001 82 2438 2350 130
16.0001 76 2456 2318 150
18.0001 68 2469 2297 166
20.0001 58 2473 2275 194
22.0001 49 2464 2262 225
24.0001 59 2455 2231 255
26.0001 59 2466 2207 268
28.0001 53 2474 2182 291
30.0001 39 2490 2167 304
32.0001 39 2500 2142 319
34 43 2492 2118 347
36 44 2496 2097 363
38 41 2501 2075 383
40 36 2498 2062 404
42 43 2493 2044 420
44 43 2480 2029 448
46 49 2473 2002 476
48 48 2481 1980 491
50 55 2469 1950 526
52 44 2491 1934 531
54 47 2499 1913 541
56 46 2504 1890 560
58 38 2502 1880 580
60 35 2512 1863 590
62 39 2513 1842 606
64 44 2508 1820 628
66 35 2520 1805 640
68 39 2515 1784 662
70 47 2515 1761 677
72 48 2514 1744 694
74 39 2520 1730 711
76 47 2523 1709 721
78 43 2534 1690 733
80 33 2535 1671 761
82 32 2547 1657 764
84 25 2547 1646 782
86 36 2528 1626 810
88 30 2524 1616 830
90 30 2534 1604 832
92 34 2530 1583 853
94 33 2532 1566 869
96 34 2529 1553 884
98 28 2527 1543 902
100 31 2529 1526 914
