0 2798 0 2202 0
2.0001 751 2040 2192 17
4 257 2527 2165 51
6.0001 106 2676 2125 93
8.0001 73 2711 2084 132
10.0001 48 2736 2057 159
12.0001 44 2732 2025 199
14.0001 48 2725 1984 243
16.0001 46 2732 1951 271
18.0001 49 2724 1912 315
20.0001 49 2735 1881 335
22.0001 44 2723 1844 389
24.0001 43 2722 1815 420
26.0001 46 2720 1777 457
28.0001 43 2724 1747 486
30.0001 46 2735 1707 512
32.0001 33 2719 1692 556
34 38 2718 1660 584
36 41 2723 1629 607
38 52 2724 1594 630
40 34 2741 1576 649
42 41 2733 1534 692
44 50 2733 1500 717
46 35 2756 1477 732
48 33 2744 1454 769
50 33 2737 1429 801
52 37 2734 1403 826
54 31 2737 1375 857
56 34 2744 1342 880
58 31 2746 1317 906
60 26 2736 1298 940
62 25 2741 1276 958
64 29 2729 1248 994
66 27 2744 1226 1003
68 30 2749 1201 1020
70 26 2750 1178 1046
72 35 2752 1150 1063
74 23 2745 1133 1099
76 32 2732 1105 1131
78 34 2739 1082 1145
80 31 2741 1066 1162
82 22 2750 1053 1175
84 28 2751 1033 1188
86 29 2755 1010 1206
88 28 2759 992 1221
90 32 2767 967 1234
92 35 2758 944 1263
94 19 2759 933 1289
96 25 2734 917 1324
98 26 2738 898 1338
100 28 2746 881 1345
