0 3089 0 1911 0
2.0001 1829 1266 1894 11
4 1067 2032 1875 26
6.0001 648 2443 1847 62
8.0001 387 2693 1822 98
10.0001 243 2834 1791 132
12.0001 175 2905 1753 167
14.0001 141 2968 1701 190
16.0001 117 2997 1668 218
18.0001 104 3012 1631 253
20.0001 85 3037 1593 285
22.0001 65 3061 1561 313
24.0001 67 3049 1531 353
26.0001 65 3050 1494 391
28.0001 64 3057 1464 415
30.0001 68 3062 1425 445
32.0001 62 3070 1388 480
34 55 3056 1368 521
36 56 3042 1343 559
38 54 3051 1320 575
40 56 3049 1298 597
42 53 3055 1275 617
44 57 3039 1250 654
46 59 3040 1225 676
48 44 3057 1202 697
50 57 3051 1172 720
52 52 3040 1154 754
54 56 3035 1125 784
56 57 3034 1102 807
58 48 3034 1086 832
60 41 3039 1066 854
62 36 3035 1047 882
64 30 3043 1028 899
66 36 3053 1005 906
68 37 3043 982 938
70 47 3051 952 950
72 45 3034 938 983
74 43 3044 920 993
76 47 3052 892 1009
78 51 3048 871 1030
80 50 3061 849 1040
82 48 3078 825 1049
84 50 3075 808 1067
86 49 3085 794 1072
88 48 3091 775 1086
90 40 3098 763 1099
92 39 3107 743 1111
94 34 3111 724 1131
96 29 3109 712 1150
98 31 3107 694 1168
100 28 3101 683 1188
