0 2973 0 2027 0
2.0001 1339 1631 2019 11
4 605 2362 2007 26
6.0001 293 2683 1974 50
8.0001 155 2821 1944 80
10.0001 100 2880 1913 107
12.0001 82 2906 1879 133
14.0001 70 2927 1839 164
16.0001 50 2938 1816 196
18.0001 44 2926 1795 235
20.0001 44 2922 1770 264
22.0001 39 2925 1739 297
24.0001 27 2916 1724 333
26.0001 36 2911 1697 356
28.0001 47 2908 1663 382
30.0001 36 2902 1644 418
32.0001 38 2903 1616 443
34 49 2894 1584 473
36 57 2876 1553 514
38 53 2885 1519 543
40 45 2889 1496 570
42 57 2895 1461 587
44 49 2893 1442 616
46 40 2917 1414 629
48 42 2908 1392 658
50 32 2923 1376 669
52 34 2927 1356 683
54 28 2927 1336 709
56 33 2934 1312 721
58 28 2944 1291 737
60 33 2931 1273 763
62 42 2924 1246 788
64 36 2934 1225 805
66 37 2917 1207 839
68 35 2934 1184 847
70 30 2939 1170 861
72 24 2948 1154 874
74 31 2942 1134 893
76 25 2941 1122 912
78 29 2945 1102 924
80 29 2946 1085 940
82 32 2941 1067 960
84 34 2947 1047 972
86 35 2953 1029 983
88 31 2955 1010 1004
90 30 2953 989 1028
92 28 2956 977 1039
94 35 2953 953 1059
96 31 2953 936 1080
98 22 2956 930 1092
100 24 2962 918 1096
