0 2999 0 2001 0
2.0001 1349 1649 1996 6
4 590 2422 1974 14
6.0001 284 2719 1961 36
8.0001 156 2836 1943 65
10.0001 85 2910 1924 81
12.0001 67 2918 1899 116
14.0001 52 2943 1873 132
16.0001 41 2960 1846 153
18.0001 37 2956 1824 183
20.0001 43 2957 1799 201
22.0001 39 2964 1777 220
24.0001 37 2958 1759 246
26.0001 37 2956 1736 271
28.0001 45 2953 1708 294
30.0001 41 2949 1690 320
32.0001 33 2964 1673 330
34 44 2958 1645 353
36 34 2963 1628 375
38 39 2957 1608 396
40 31 2964 1592 413
42 37 2964 1566 433
44 38 2956 1548 458
46 28 2961 1531 480
48 29 2971 1512 488
50 36 2971 1490 503
52 25 2981 1478 516
54 26 2974 1464 536
56 22 2961 1449 568
58 30 2969 1427 574
60 30 2976 1412 582
62 25 2965 1401 609
64 14 2965 1392 629
66 21 2953 1377 649
68 24 2948 1361 667
70 30 2967 1336 667
72 25 2963 1330 682
74 28 2971 1307 694
76 24 2970 1298 708
78 21 2962 1290 727
80 26 2966 1272 736
82 26 2965 1255 754
84 21 2953 1245 781
86 28 2953 1225 794
88 33 2954 1203 810
90 30 2968 1192 810
92 29 2966 1178 827
94 37 2973 1150 840
96 26 2974 1144 856
98 25 2982 1130 863
100 26 2981 1121 872
