0 3364 0 1636 0
2.0001 1633 1726 1633 8
4 833 2546 1569 52
6.0001 419 2943 1536 102
8.0001 247 3126 1482 145
10.0001 144 3243 1430 183
12.0001 98 3284 1385 233
14.0001 87 3304 1337 272
16.0001 76 3304 1291 329
18.0001 60 3314 1255 371
20.0001 71 3312 1208 409
22.0001 69 3315 1170 446
24.0001 71 3309 1129 491
26.0001 60 3321 1095 524
28.0001 48 3313 1068 571
30.0001 43 3319 1033 605
32.0001 51 3326 995 628
34 47 3327 963 663
36 46 3313 934 707
38 55 3315 897 733
40 40 3300 879 781
42 49 3301 849 801
44 56 3298 819 827
46 51 3305 790 854
48 44 3329 767 860
50 38 3332 746 884
52 41 3327 720 912
54 35 3329 700 936
56 41 3362 670 927
58 27 3374 650 949
60 29 3361 626 984
62 35 3370 606 989
64 35 3379 586 1000
66 32 3371 568 1029
68 27 3386 551 1036
70 24 3400 528 1048
72 24 3398 510 1068
74 20 3389 500 1091
76 18 3384 489 1109
78 23 3371 474 1132
80 20 3382 460 1138
82 22 3381 445 1152
84 19 3391 431 1159
86 19 3399 412 1170
88 28 3397 394 1181
90 20 3404 383 1193
92 20 3396 367 1217
94 15 3400 353 1232
96 21 3399 337 1243
98 13 3394 327 1266
100 18 3417 315 1250
