0 997 0 0 0 0 0
2 931 0 0 66 0 0
4.00004 932 0 0 67 0 0
6 922 0 0 70 0 0
8 910 0 0 89 0 0
10 932 0 0 66 0 0
12 932 0 0 70 0 0
14 929 0 0 72 0 0
16 918 0 0 85 0 0
18 918 0 0 83 0 0
20 914 0 0 90 0 0
22 923 0 0 83 0 0
24 923 0 0 67 0 0
26 932 0 0 61 0 0
28 929 0 0 74 0 0
30 939 0 0 64 0 0
32 937 0 0 71 0 0
34 935 0 0 63 0 0
36 932 0 0 75 0 0
38 934 0 0 80 0 0
40 942 0 0 63 0 0
42 924 0 0 76 0 0
44 931 0 0 70 0 0
46 932 0 0 84 0 0
48 934 0 0 77 0 0
50 953 0 0 68 0 0
52 917 0 24 68 10 0
54 912 0 44 50 19 0
56 879 0 58 58 22 0
58 879 0 69 39 44 0
60 844 0 91 59 25 0
62 837 0 101 44 37 0
64 832 0 114 38 41 0
66 830 0 118 31 43 0
68 802 0 147 44 37 0
70 778 0 153 47 42 0
72 769 0 157 33 43 0
74 746 0 202 40 30 0
76 731 0 186 39 50 0
78 718 0 197 32 57 0
80 714 0 213 26 51 0
82 697 0 242 31 44 0
84 693 0 230 26 59 0
86 667 0 247 41 49 0
88 662 0 251 33 55 0
90 655 0 280 26 40 0
92 647 0 287 30 44 0
94 641 0 282 23 40 0
96 618 0 286 37 51 0
98 595 0 322 42 34 0
100 598 0 319 30 51 0
102 594 0 325 27 54 0
104 593 0 343 18 41 0
106 576 0 364 25 45 0
108 561 0 362 28 52 0
110 552 0 372 25 43 0
112 548 0 378 21 49 0
114 540 0 390 20 48 0
116 532 0 397 24 57 0
118 521 0 416 27 49 0
120 515 0 421 28 49 0
122 512 0 411 24 67 0
124 500 0 427 25 55 0
126 500 0 431 18 38 0
128 490 0 440 22 52 0
130 484 0 459 22 48 0
132 477 0 453 21 60 0
134 469 0 472 21 49 0
136 462 0 475 19 47 0
138 448 0 471 24 50 0
140 436 0 489 24 55 0
142 434 0 485 22 65 0
144 423 0 494 26 58 0
146 412 0 495 28 56 0
148 409 0 512 17 57 0
150 403 0 510 12 70 0
152 397 0 520 14 70 0
154 384 0 520 18 73 0
156 385 0 544 15 52 0
158 383 0 556 9 62 0
160 372 0 565 11 59 0
162 366 0 565 12 64 0
164 355 0 566 17 70 0
166 359 0 564 11 69 0
168 357 0 581 11 64 0
170 351 0 595 15 58 0
172 351 0 603 13 55 0
174 336 0 602 19 66 0
176 333 0 609 19 68 0
178 327 0 597 19 61 0
180 326 0 622 16 44 0
182 316 0 628 17 63 0
184 316 0 640 14 57 0
186 310 0 627 11 59 0
188 295 0 636 20 67 0
190 300 0 651 10 68 0
192 294 0 674 9 54 0
194 284 0 680 12 60 0
196 280 0 680 11 70 0
198 275 0 673 10 71 0
200 273 0 689 8 63 0
