0 1024 0 0 0 0 0
2 946 30 0 47 0 0
4.00004 934 40 0 42 0 0
6 928 38 0 61 0 0
8 921 48 0 48 0 0
10 921 58 0 47 0 0
12 930 38 0 51 0 0
14 925 44 0 53 0 0
16 938 39 0 62 0 0
18 936 36 0 48 0 0
20 925 46 0 51 0 0
22 898 52 0 54 0 0
24 902 49 0 51 0 0
26 891 55 0 60 0 0
28 892 49 0 52 0 0
30 882 65 0 50 0 0
32 899 61 0 56 0 0
34 913 59 0 55 0 0
36 926 43 0 53 0 0
38 921 43 0 55 0 0
40 905 52 0 60 0 0
42 897 58 0 61 0 0
44 906 49 0 67 0 0
46 902 54 0 64 0 0
48 891 53 0 69 0 0
50 896 47 0 68 0 0
52 853 0 100 15 35 0
54 821 1 136 9 37 0
56 768 0 180 17 51 0
58 732 2 222 15 44 0
60 695 0 267 8 50 0
62 665 0 311 11 40 0
64 624 1 334 10 42 0
66 584 0 377 14 49 0
68 544 0 415 14 64 0
70 512 0 428 9 63 0
72 477 0 471 10 56 0
74 459 0 475 8 53 0
76 438 0 495 4 41 0
78 414 1 515 8 51 0
80 386 0 537 8 53 0
82 370 0 577 4 48 0
84 359 0 573 7 59 0
86 340 0 597 5 51 0
88 323 0 610 10 50 0
90 312 0 626 3 53 0
92 301 0 628 4 58 0
94 283 0 634 8 59 0
96 278 1 660 2 45 0
98 264 0 660 9 49 0
100 252 0 686 10 52 0
102 237 0 691 4 58 0
104 221 0 729 5 48 0
106 209 0 745 6 45 0
108 202 0 749 1 50 0
110 193 0 757 4 52 0
112 188 0 769 3 44 0
114 181 1 781 2 40 0
116 175 0 778 4 50 0
118 163 0 790 4 59 0
120 159 0 777 5 65 0
122 152 0 812 0 50 0
124 142 0 808 2 54 0
126 139 0 817 1 57 0
128 132 0 812 6 46 0
130 119 0 832 1 59 0
132 111 0 830 7 56 0
134 111 0 826 3 49 0
136 107 0 838 2 47 0
138 99 0 848 5 47 0
140 95 0 840 5 44 0
142 93 0 853 1 51 0
144 91 0 862 1 46 0
146 86 0 859 2 45 0
148 86 0 851 1 57 0
150 76 0 881 1 53 0
152 72 0 878 2 63 0
154 69 0 896 3 45 0
156 68 0 878 0 53 0
158 65 0 886 2 62 0
160 63 0 893 3 53 0
162 57 0 896 5 54 0
164 56 0 901 0 68 0
166 50 0 903 2 75 0
168 50 0 917 2 53 0
170 47 0 932 3 64 0
172 45 0 948 1 47 0
174 44 0 943 2 55 0
176 41 0 948 1 59 0
178 40 0 944 1 58 0
180 36 0 948 2 56 0
182 32 0 927 0 58 0
184 31 0 920 0 64 0
186 30 0 935 0 52 0
188 29 0 931 2 48 0
190 26 0 912 2 59 0
192 23 0 912 1 49 0
194 22 0 932 1 39 0
196 20 0 922 1 61 0
198 18 0 937 0 61 0
200 16 0 941 0 54 0
