0 1293 0 0 0 0 0
2 1209 33 0 40 0 0
4.00004 1193 48 0 51 0 0
6 1185 51 0 37 0 0
8 1177 50 0 46 0 0
10 1161 39 0 54 0 0
12 1170 48 0 51 0 0
14 1172 35 0 58 0 0
16 1169 47 0 46 0 0
18 1171 35 0 53 0 0
20 1151 44 0 41 0 0
22 1143 42 0 50 0 0
24 1143 41 0 40 0 0
26 1131 41 0 48 0 0
28 1126 44 0 49 0 0
30 1140 36 0 40 0 0
32 1145 41 0 46 0 0
34 1136 36 0 40 0 0
36 1125 43 0 55 0 0
38 1127 46 0 51 0 0
40 1126 44 0 43 0 0
42 1117 38 0 47 0 0
44 1103 38 0 57 0 0
46 1093 51 0 44 0 0
48 1080 43 0 52 0 0
50 1081 36 0 57 0 0
52 1044 0 90 18 24 0
54 1009 0 121 17 33 0
56 976 0 153 13 28 0
58 945 0 186 10 34 0
60 907 0 209 14 37 0
62 865 0 251 16 40 0
64 837 0 280 11 24 0
66 812 1 304 7 26 0
68 778 0 315 11 36 0
70 748 0 337 9 48 0
72 719 1 362 9 48 0
74 692 0 402 8 37 0
76 659 0 436 12 40 0
78 631 0 456 9 45 0
80 611 0 467 12 33 0
82 585 0 506 8 29 0
84 568 0 512 7 35 0
86 548 0 540 8 38 0
88 527 0 537 11 47 0
90 510 0 572 4 30 0
92 488 0 579 10 42 0
94 473 0 592 5 44 0
96 454 0 613 4 44 0
98 437 0 634 6 41 0
100 425 0 668 6 32 0
102 408 0 677 2 41 0
104 394 0 714 6 26 0
106 378 0 717 4 42 0
108 362 0 719 4 48 0
110 358 0 735 2 46 0
112 342 0 761 10 33 0
114 326 0 755 6 44 0
116 318 0 777 2 36 0
118 309 0 777 3 43 0
120 295 0 786 11 31 0
122 288 0 790 3 44 0
124 275 0 783 3 40 0
126 264 0 801 5 43 0
128 249 0 821 5 41 0
130 238 0 814 5 43 0
132 232 0 827 3 51 0
134 221 0 840 3 50 0
136 213 0 848 1 43 0
138 203 0 846 4 55 0
140 194 0 879 7 37 0
142 188 0 860 1 43 0
144 177 1 863 5 46 0
146 170 0 877 2 48 0
148 165 0 886 1 46 0
150 160 0 906 5 32 0
152 151 0 911 3 40 0
154 147 0 907 0 44 0
156 135 0 917 4 42 0
158 129 0 948 1 35 0
160 119 0 940 2 38 0
162 116 0 938 4 54 0
164 113 0 934 1 44 0
166 105 0 941 2 46 0
168 103 0 940 1 44 0
170 98 1 956 1 32 0
172 93 0 943 1 44 0
174 90 0 952 0 40 0
176 87 0 952 2 38 0
178 82 0 954 1 46 0
180 78 0 957 2 45 0
182 76 0 962 2 34 0
184 75 0 960 1 39 0
186 73 0 943 1 60 0
188 70 0 946 2 50 0
190 69 0 951 0 53 0
192 66 0 955 1 49 0
194 62 0 970 1 43 0
196 61 0 950 0 49 0
198 59 0 960 2 54 0
200 57 0 957 0 50 0
