0 872 0 0 0 0 0
2 806 0 0 68 0 0
4.00004 801 0 0 82 0 0
6 816 0 0 67 0 0
8 801 0 0 78 0 0
10 800 0 0 96 0 0
12 814 0 0 84 0 0
14 799 0 0 93 0 0
16 808 0 0 90 0 0
18 804 0 0 81 0 0
20 797 0 0 90 0 0
22 815 0 0 71 0 0
24 815 0 0 79 0 0
26 813 0 0 94 0 0
28 809 0 0 97 0 0
30 818 0 0 89 0 0
32 830 0 0 81 0 0
34 841 0 0 91 0 0
36 835 0 0 88 0 0
38 826 0 0 106 0 0
40 838 0 0 102 0 0
42 846 0 0 91 0 0
44 847 0 0 105 0 0
46 847 0 0 97 0 0
48 853 0 0 93 0 0
50 867 0 0 92 0 0
52 841 0 32 80 23 0
54 823 0 53 64 29 0
56 788 0 62 71 46 0
58 779 0 89 53 47 0
60 758 0 109 56 39 0
62 730 0 117 64 47 0
64 717 0 160 48 44 0
66 704 0 182 43 45 0
68 684 0 200 45 53 0
70 674 0 219 41 55 0
72 664 0 236 38 54 0
74 646 0 257 40 50 0
76 640 0 271 36 50 0
78 621 0 282 41 53 0
80 604 0 281 44 73 0
82 569 0 324 59 48 0
84 580 0 335 41 60 0
86 562 0 335 45 68 0
88 553 0 354 44 60 0
90 544 0 368 41 74 0
92 527 0 375 43 71 0
94 528 0 399 29 58 0
96 507 0 408 34 68 0
98 511 0 443 22 51 0
100 483 0 439 31 66 0
102 476 0 460 27 64 0
104 464 0 468 26 75 0
106 466 0 494 12 54 0
108 438 0 483 35 70 0
110 431 0 509 33 56 0
112 424 0 520 29 58 0
114 419 0 510 23 76 0
116 418 0 524 17 68 0
118 393 0 509 36 86 0
120 388 0 545 30 66 0
122 379 0 533 28 67 0
124 377 0 530 22 80 0
126 371 0 558 20 59 0
128 362 0 552 22 72 0
130 359 0 556 20 69 0
132 351 0 571 22 73 0
134 344 0 586 20 65 0
136 335 0 587 22 73 0
138 321 0 598 29 75 0
140 320 0 600 21 83 0
142 322 0 594 11 91 0
144 316 0 615 15 67 0
146 295 0 609 25 74 0
148 290 0 632 24 69 0
150 287 0 644 17 67 0
152 274 0 652 23 71 0
154 274 0 644 18 90 0
156 264 0 681 20 73 0
158 262 0 675 16 78 0
160 257 0 695 18 74 0
162 249 0 697 23 72 0
164 242 0 700 20 88 0
166 246 0 721 12 85 0
168 243 0 716 7 86 0
170 223 0 716 21 95 0
172 227 0 722 13 90 0
174 224 0 726 12 104 0
176 213 0 747 20 87 0
178 209 0 718 16 107 0
180 204 0 745 13 90 0
182 195 0 749 20 87 0
184 190 0 751 22 92 0
186 202 0 764 10 86 0
188 193 0 758 11 97 0
190 191 0 748 7 110 0
192 182 0 752 10 100 0
194 172 0 764 16 94 0
196 177 0 769 7 98 0
198 169 0 767 9 104 0
200 162 0 773 10 110 0
