0 1214 0 0 0 0 0
2 1142 7 0 44 0 17
4.00004 1136 10 0 43 0 23
6 1124 15 0 49 0 20
8 1129 12 0 53 0 11
10 1134 8 0 47 0 20
12 1134 12 0 51 0 11
14 1125 14 0 54 0 16
16 1134 11 0 44 0 17
18 1126 6 0 42 0 17
20 1126 11 0 40 0 17
22 1122 12 0 46 0 20
24 1115 14 0 50 0 19
26 1117 19 0 51 0 16
28 1151 7 0 42 0 10
30 1124 8 0 45 0 24
32 1145 7 0 35 0 18
34 1113 12 0 64 0 16
36 1125 9 0 49 0 20
38 1118 9 0 59 0 15
40 1124 11 0 50 0 23
42 1131 13 0 49 0 26
44 1132 6 0 53 0 28
46 1132 5 0 65 0 19
48 1123 12 0 50 0 28
50 1135 11 0 43 0 25
52 1034 0 102 20 49 0
54 1001 0 136 22 42 0
56 978 0 152 21 58 0
58 948 0 188 22 44 0
60 932 0 177 21 60 0
62 925 0 207 15 39 0
64 895 0 232 22 44 0
66 877 0 264 24 39 0
68 857 0 275 16 46 0
70 843 0 290 13 50 0
72 817 0 307 18 51 0
74 800 0 328 15 52 0
76 782 0 341 13 56 0
78 760 0 358 15 54 0
80 736 0 403 13 38 0
82 713 0 407 15 56 0
84 700 0 431 17 45 0
86 690 0 451 9 42 2
88 669 0 465 11 50 0
90 650 0 471 14 64 0
92 636 0 517 8 45 0
94 619 0 519 11 54 0
96 609 0 530 9 55 0
98 581 0 544 16 65 1
100 564 0 569 15 58 0
102 552 0 581 12 60 1
104 520 0 614 21 44 0
106 512 0 619 13 57 1
108 491 0 628 13 61 0
110 470 0 642 18 54 0
112 474 0 654 8 61 0
114 454 0 697 6 44 0
116 439 0 693 5 63 0
118 428 0 690 12 64 0
120 409 0 701 16 66 0
122 406 0 727 8 63 0
124 393 0 751 6 49 0
126 386 0 740 7 51 0
128 379 0 752 1 57 0
130 368 1 766 9 63 0
132 363 0 778 6 52 0
134 352 0 788 7 53 0
136 337 0 780 13 68 0
138 336 0 794 5 62 0
140 321 0 812 9 52 0
142 314 0 803 7 66 0
144 304 0 803 4 70 0
146 294 0 817 10 67 0
148 294 0 830 4 68 0
150 279 0 847 6 61 0
152 265 0 843 10 64 0
154 263 0 854 8 67 0
156 257 0 862 5 52 0
158 249 0 854 5 60 0
160 240 0 877 8 45 0
162 237 0 862 3 61 0
164 233 0 866 3 59 0
166 224 0 861 5 71 0
168 225 0 889 4 59 0
170 218 0 894 6 57 0
172 213 0 899 2 59 0
174 207 0 904 2 65 0
176 204 0 907 0 59 0
178 200 0 923 2 52 0
180 190 0 923 3 60 0
182 184 0 938 2 58 0
184 175 0 927 5 74 0
186 172 0 961 4 48 0
188 167 0 962 4 52 0
190 163 0 949 2 64 0
192 160 0 948 3 67 0
194 159 0 953 4 64 0
196 156 0 960 4 55 0
198 154 0 964 3 65 0
200 149 0 962 2 64 0
