0 999 0 0 0 0 0
2 915 16 0 55 0 13
4.00004 908 14 0 57 0 26
6 899 12 0 59 0 20
8 904 17 0 52 0 23
10 904 12 0 56 0 26
12 902 18 0 55 0 23
14 897 15 0 60 0 23
16 895 19 0 61 0 25
18 903 11 0 62 0 24
20 913 14 0 45 0 23
22 896 14 0 57 0 21
24 887 24 0 67 0 22
26 893 14 0 51 0 21
28 904 11 0 52 0 19
30 919 13 0 44 0 23
32 907 22 0 44 0 17
34 906 19 0 52 0 11
36 905 13 0 60 0 15
38 897 16 0 57 0 27
40 891 16 0 73 0 14
42 891 18 0 56 0 24
44 895 14 0 55 0 27
46 893 24 0 52 0 26
48 899 10 0 46 0 25
50 882 15 0 56 0 25
52 792 0 113 22 43 0
54 760 0 154 17 44 0
56 716 0 171 34 54 0
58 694 0 226 21 46 0
60 673 0 233 20 68 0
62 652 0 270 14 65 0
64 622 0 294 13 62 0
66 597 0 313 23 66 0
68 575 0 326 20 73 0
70 565 0 347 14 76 0
72 540 0 370 12 75 1
74 522 0 400 12 63 0
76 509 0 407 11 61 0
78 494 0 446 9 54 0
80 462 0 448 26 63 0
82 456 0 475 7 60 0
84 440 0 487 8 79 0
86 417 0 516 13 69 0
88 402 0 525 8 86 0
90 377 0 563 18 58 0
92 357 0 568 21 62 0
94 346 0 559 11 83 0
96 333 0 576 11 68 0
98 321 0 600 15 69 0
100 313 0 592 11 85 0
102 300 0 611 10 74 1
104 288 0 626 10 83 0
106 283 0 631 7 82 0
108 270 0 653 14 64 0
110 269 0 658 6 73 0
112 254 0 674 6 78 0
114 245 0 690 5 74 0
116 235 0 714 13 68 0
118 229 0 715 4 77 0
120 226 0 694 8 92 0
122 211 0 734 9 65 0
124 205 0 726 8 74 0
126 195 0 737 7 84 0
128 186 0 744 4 79 0
130 177 0 757 6 79 0
132 172 1 772 7 75 0
134 162 0 779 9 72 0
136 154 0 784 9 88 0
138 156 0 781 4 90 0
140 149 0 785 5 87 0
142 149 0 791 4 71 0
144 139 0 783 6 88 0
146 130 0 804 9 78 0
148 126 0 815 5 75 0
150 120 0 817 4 76 0
152 115 0 811 6 89 0
154 110 0 814 10 91 0
156 106 0 840 6 73 0
158 97 0 860 4 76 0
160 91 0 851 5 82 0
162 86 0 857 8 75 0
164 86 0 868 1 80 0
166 82 0 863 4 86 0
168 77 0 876 7 80 0
170 80 0 883 2 77 0
172 75 0 890 8 76 0
174 74 0 900 5 66 0
176 73 0 891 0 73 0
178 70 0 898 2 82 0
180 65 0 901 4 79 0
182 61 0 904 5 76 0
184 60 0 901 3 85 0
186 63 0 903 0 80 0
188 62 0 903 1 92 0
190 60 0 912 1 67 0
192 57 0 912 1 74 0
194 53 0 898 3 94 0
196 53 0 927 2 73 0
198 47 0 919 2 75 0
200 48 0 923 1 79 0
