0 909 0 0 0 0 0
2 834 0 0 79 0 0
4.00004 820 0 0 90 0 0
6 839 0 0 76 0 0
8 841 0 0 74 0 0
10 828 0 0 87 0 0
12 838 0 0 81 0 0
14 848 0 0 79 0 0
16 850 0 0 83 0 0
18 845 0 0 86 0 0
20 846 0 0 82 0 0
22 842 0 0 86 0 0
24 843 0 0 84 0 0
26 832 0 0 89 0 0
28 850 0 0 72 0 0
30 827 0 0 98 0 0
32 844 0 0 79 0 0
34 841 0 0 88 0 0
36 844 0 0 82 0 0
38 830 0 0 92 0 0
40 823 0 0 100 0 0
42 829 0 0 89 0 0
44 833 0 0 80 0 0
46 804 0 0 106 0 0
48 823 0 0 87 0 0
50 822 0 0 89 0 0
52 800 0 26 82 10 0
54 775 0 41 70 29 0
56 771 0 56 49 34 0
58 742 0 69 62 40 0
60 737 0 86 44 50 0
62 704 0 109 62 35 0
64 695 0 120 51 48 0
66 678 0 135 46 43 0
68 677 0 161 38 45 0
70 652 0 187 50 43 0
72 641 0 198 49 39 0
74 639 0 198 36 37 0
76 626 0 203 37 54 0
78 614 0 233 41 50 0
80 602 0 244 41 40 0
82 597 0 241 37 57 0
84 579 0 249 46 59 0
86 576 0 269 38 54 0
88 552 0 275 56 52 0
90 557 0 286 38 56 0
92 527 0 284 50 63 0
94 526 0 294 40 65 0
96 518 0 313 39 57 0
98 499 0 324 40 59 0
100 489 0 333 39 61 0
102 477 0 352 34 56 0
104 467 0 376 35 46 0
106 455 0 383 38 50 0
108 452 0 386 25 54 0
110 437 0 396 29 48 0
112 430 0 401 32 67 0
114 431 0 420 22 54 0
116 405 0 421 37 71 0
118 398 0 458 36 54 0
120 401 0 456 26 57 0
122 389 0 465 29 66 0
124 382 0 471 27 64 0
126 368 0 476 30 61 0
128 372 0 503 22 51 0
130 353 0 485 32 82 0
132 356 0 496 27 65 0
134 348 0 513 22 53 0
136 342 0 506 19 61 0
138 338 0 511 18 61 0
140 327 0 517 19 57 0
142 316 0 529 21 58 0
144 307 0 522 21 69 0
146 304 0 544 18 56 0
148 303 0 543 13 69 0
150 293 0 557 20 66 0
152 286 0 556 20 82 0
154 277 0 566 20 75 0
156 278 0 556 14 74 0
158 264 0 564 23 64 0
160 263 0 578 19 72 0
162 249 0 569 28 75 0
164 250 0 588 18 79 0
166 240 0 579 22 92 0
168 244 0 609 13 73 0
170 238 0 594 15 91 0
172 237 0 618 11 75 0
174 233 0 620 13 91 0
176 231 0 638 13 72 0
178 224 0 636 15 78 0
180 218 0 636 17 76 0
182 215 0 655 15 77 0
184 211 0 643 16 82 0
186 217 0 646 7 75 0
188 204 0 649 17 74 0
190 199 0 656 13 76 0
192 194 0 653 16 84 0
194 190 0 661 15 67 0
196 196 0 668 6 69 0
198 189 0 667 12 75 0
200 179 0 683 18 66 0
