0 1185 0 0 0 0 0
2 1121 9 0 38 0 19
4.00004 1110 5 0 49 0 19
6 1099 9 0 40 0 24
8 1100 4 0 41 0 25
10 1112 4 0 37 0 15
12 1080 2 0 58 0 23
14 1097 5 0 40 0 28
16 1095 4 0 48 0 19
18 1083 8 0 45 0 23
20 1079 9 0 45 0 17
22 1084 8 0 41 0 19
24 1091 4 0 41 0 10
26 1073 7 0 41 0 22
28 1066 1 0 53 0 19
30 1074 3 0 47 0 24
32 1079 4 0 42 0 20
34 1071 8 0 41 0 28
36 1069 5 0 43 0 18
38 1067 5 0 38 0 22
40 1055 3 0 52 0 20
42 1062 2 0 31 0 31
44 1063 8 0 39 0 15
46 1068 5 0 41 0 17
48 1048 7 0 47 0 22
50 1051 3 0 45 0 20
52 997 0 61 14 56 1
54 957 0 105 15 56 0
56 915 0 135 19 55 0
58 890 0 164 10 67 0
60 852 0 190 16 61 0
62 832 0 230 14 40 1
64 805 0 227 14 61 0
66 782 0 265 12 50 0
68 751 0 283 14 57 0
70 720 0 297 24 59 0
72 706 0 313 12 67 0
74 686 0 337 16 45 0
76 664 0 362 10 58 0
78 636 0 386 13 52 0
80 610 0 397 19 52 0
82 596 0 422 12 41 0
84 575 0 430 15 46 1
86 560 0 443 8 63 0
88 539 0 471 9 66 0
90 515 0 476 12 52 1
92 507 0 497 13 51 0
94 493 0 505 5 58 0
96 474 0 513 7 62 0
98 461 0 529 8 59 0
100 445 0 539 8 65 0
102 432 0 564 6 54 0
104 422 0 577 2 61 0
106 406 1 583 7 65 0
108 398 0 614 5 50 1
110 375 0 602 11 65 0
112 364 0 624 12 59 0
114 359 0 610 6 67 0
116 352 0 645 6 50 0
118 345 0 648 5 61 0
120 336 0 658 4 64 0
122 316 0 672 9 63 1
124 306 0 682 11 62 0
126 298 0 694 5 62 0
128 286 0 708 7 42 1
130 286 0 711 1 64 0
132 275 0 729 3 59 0
134 262 0 738 5 54 1
136 262 0 743 1 56 0
138 250 0 739 3 60 0
140 241 0 730 4 73 0
142 228 0 760 4 66 0
144 213 0 757 6 77 0
146 207 0 776 8 70 1
148 197 0 799 5 62 0
150 194 0 804 4 57 0
152 187 0 801 5 58 0
154 185 0 807 3 59 0
156 183 0 807 1 69 0
158 176 0 808 2 63 0
160 172 0 822 5 44 0
162 169 0 809 2 60 0
164 165 0 818 2 51 0
166 159 0 821 1 56 0
168 156 0 811 1 62 0
170 152 0 823 4 48 0
172 146 0 818 2 58 0
174 136 0 819 6 59 0
176 136 0 823 6 57 0
178 130 0 840 6 53 0
180 124 0 845 6 59 0
182 124 0 839 3 62 0
184 120 0 845 2 56 0
186 116 0 834 3 62 0
188 105 0 841 2 71 0
190 104 0 824 1 88 0
192 101 0 851 1 52 1
194 95 0 826 5 81 0
196 97 0 837 0 63 0
198 94 0 843 1 66 0
200 87 0 852 1 60 0
