0 1245 0 0 0 0 0
2 1152 47 0 56 0 0
4.00004 1152 32 0 56 0 0
6 1145 38 0 55 0 0
8 1131 49 0 63 0 0
10 1126 48 0 69 0 0
12 1120 54 0 62 0 0
14 1126 64 0 52 0 0
16 1123 52 0 63 0 0
18 1088 60 0 86 0 0
20 1112 63 0 61 0 0
22 1120 53 0 52 0 0
24 1110 63 0 59 0 0
26 1115 49 0 69 0 0
28 1114 57 0 72 0 0
30 1136 54 0 61 0 0
32 1122 55 0 71 0 0
34 1125 54 0 63 0 0
36 1109 60 0 66 0 0
38 1131 48 0 69 0 0
40 1134 56 0 60 0 0
42 1132 58 0 49 0 0
44 1121 57 0 61 0 0
46 1128 56 0 69 0 0
48 1136 57 0 52 0 0
50 1119 53 0 67 0 0
52 1042 0 120 29 42 0
54 1001 1 163 20 40 0
56 968 0 203 20 36 0
58 923 0 243 17 50 0
60 880 0 291 17 47 0
62 842 1 326 8 62 0
64 789 0 364 22 62 0
66 751 0 410 13 51 0
68 720 0 440 6 48 0
70 675 0 476 19 57 0
72 643 2 523 10 49 0
74 613 0 538 8 58 0
76 579 0 593 8 55 0
78 556 1 626 11 37 0
80 529 0 638 7 54 0
82 499 0 665 8 59 0
84 469 1 685 13 58 0
86 437 0 719 11 65 0
88 416 0 747 8 53 0
90 398 0 794 5 46 0
92 383 0 800 5 57 0
94 361 0 819 6 69 0
96 342 0 832 11 57 0
98 321 0 837 6 58 0
100 304 0 858 3 69 0
102 287 0 878 5 53 0
104 279 0 873 6 71 0
106 263 0 912 4 57 0
108 250 0 920 3 68 0
110 239 0 929 4 59 0
112 234 0 930 1 65 0
114 217 0 942 4 76 0
116 206 1 957 4 70 0
118 185 0 978 6 69 0
120 175 0 991 6 63 0
122 170 0 1019 2 53 0
124 163 0 1019 4 53 0
126 155 0 1030 2 75 0
128 145 0 1049 2 60 0
130 137 0 1058 2 64 0
132 125 1 1064 2 67 0
134 118 0 1085 1 67 0
136 115 0 1093 5 60 0
138 110 0 1096 2 63 0
140 104 0 1116 5 52 0
142 103 0 1118 2 58 0
144 99 0 1118 2 60 0
146 95 0 1120 2 53 0
148 89 0 1120 2 74 0
150 83 0 1135 0 65 0
152 79 0 1140 1 62 0
154 74 0 1146 2 64 0
156 71 0 1145 1 62 0
158 68 0 1131 0 74 0
160 61 0 1150 3 54 0
162 59 0 1144 2 64 0
164 56 0 1165 0 62 0
166 54 0 1175 0 64 0
168 48 0 1175 2 66 0
170 46 0 1199 0 54 0
172 44 0 1209 2 48 0
174 43 0 1197 1 70 0
176 42 0 1222 0 63 0
178 38 0 1201 3 90 0
180 36 0 1200 1 70 0
182 34 0 1209 1 71 0
184 32 0 1191 1 72 0
186 30 0 1203 1 67 0
188 27 0 1195 0 75 0
190 25 0 1191 0 67 0
192 24 0 1197 1 60 0
194 22 0 1193 1 72 0
196 21 0 1199 0 76 0
198 18 0 1236 1 55 0
200 18 0 1213 0 70 0
