0 1066 0 0 0 0 0
2 961 0 0 103 0 0
4.00004 965 0 0 87 0 0
6 953 0 0 111 0 0
8 959 0 0 106 0 0
10 950 0 0 105 0 0
12 961 0 0 91 0 0
14 965 0 0 85 0 0
16 962 0 0 93 0 0
18 946 0 0 103 0 0
20 959 0 0 91 0 0
22 959 0 0 94 0 0
24 969 0 0 72 0 0
26 966 0 0 87 0 0
28 980 0 0 86 0 0
30 964 0 0 96 0 0
32 953 0 0 104 0 0
34 971 0 0 94 0 0
36 957 0 0 101 0 0
38 956 0 0 108 0 0
40 972 0 0 87 0 0
42 982 0 0 80 0 0
44 983 0 0 74 0 0
46 964 0 0 92 0 0
48 967 0 0 82 0 0
50 971 0 0 81 0 0
52 962 0 8 86 5 0
54 952 0 20 75 12 0
56 949 0 32 72 16 0
58 933 0 33 78 17 0
60 921 0 44 80 21 0
62 906 0 44 78 34 0
64 893 0 58 78 30 0
66 905 0 63 55 38 0
68 892 0 78 57 23 0
70 881 0 71 56 25 0
72 869 0 76 61 31 0
74 857 0 96 64 34 0
76 855 0 103 56 35 0
78 849 0 109 48 38 0
80 836 0 114 63 39 0
82 817 0 128 62 37 0
84 821 0 143 52 35 0
86 813 0 149 54 40 0
88 796 0 162 59 38 0
90 787 0 162 62 42 0
92 796 0 173 44 42 0
94 779 0 175 49 46 0
96 780 0 197 43 38 0
98 761 0 199 53 48 0
100 762 0 192 41 50 0
102 752 0 212 46 57 0
104 746 0 220 43 49 0
106 726 0 227 57 43 0
108 716 0 220 54 48 0
110 714 0 232 53 42 0
112 716 0 245 43 49 0
114 718 0 249 37 47 0
116 705 0 261 46 44 0
118 702 0 271 40 47 0
120 697 0 264 41 56 0
122 687 0 277 44 47 0
124 684 0 271 42 45 0
126 677 0 291 41 43 0
128 660 0 294 50 58 0
130 658 0 306 49 62 0
132 654 0 317 45 66 0
134 655 0 311 40 66 0
136 636 0 337 52 50 0
138 632 0 334 46 52 0
140 634 0 338 34 53 0
142 615 0 351 46 50 0
144 622 0 338 35 64 0
146 604 0 366 47 52 0
148 592 0 368 54 61 0
150 595 0 369 48 66 0
152 595 0 393 38 48 0
154 581 0 374 47 70 0
156 582 0 376 40 72 0
158 568 0 392 45 65 0
160 563 0 408 44 69 0
162 545 0 415 51 55 0
164 551 0 404 42 61 0
166 546 0 394 41 71 0
168 549 0 403 30 62 0
170 541 0 409 37 69 0
172 532 0 412 41 68 0
174 527 0 407 42 70 0
176 521 0 420 44 60 0
178 518 0 419 38 59 0
180 516 0 424 37 59 0
182 513 0 424 37 74 0
184 508 0 434 39 61 0
186 496 0 429 43 62 0
188 489 0 437 46 66 0
190 494 0 455 33 59 0
192 492 0 462 34 60 0
194 497 0 467 29 63 0
196 483 0 460 37 83 0
198 476 0 463 38 81 0
200 472 0 475 37 72 0
