0 1010 0 0 0 0 0
2 941 0 0 73 0 0
4.00004 902 0 0 102 0 0
6 917 0 0 89 0 0
8 918 0 0 94 0 0
10 903 0 0 107 0 1
12 915 1 0 101 0 0
14 947 0 0 76 0 1
16 912 1 0 106 0 0
18 908 0 0 102 0 0
20 937 0 0 81 0 0
22 919 0 0 102 0 0
24 922 0 0 89 0 0
26 930 0 0 88 0 0
28 943 0 0 98 0 0
30 950 0 0 94 0 0
32 926 0 0 100 0 0
34 941 0 0 95 0 0
36 944 0 0 88 0 0
38 938 0 0 96 0 0
40 941 0 0 106 0 0
42 947 0 0 98 0 0
44 944 0 0 91 0 0
46 945 0 0 93 0 0
48 946 0 0 81 0 0
50 929 0 0 100 0 0
52 919 0 23 68 11 0
54 886 0 45 81 24 0
56 858 0 67 77 28 0
58 857 0 90 49 33 0
60 825 0 93 56 31 0
62 810 0 106 61 39 0
64 799 0 119 53 49 0
66 789 0 131 49 41 0
68 764 0 157 61 42 0
70 760 0 177 44 40 0
72 732 0 187 58 47 0
74 723 0 209 47 46 0
76 695 0 223 60 46 0
78 701 0 246 39 47 0
80 686 0 257 43 43 0
82 676 0 265 40 45 0
84 664 0 257 37 68 0
86 652 0 292 40 57 0
88 632 0 304 41 55 0
90 628 0 315 32 57 0
92 614 0 350 40 31 0
94 598 0 326 44 62 0
96 581 0 323 52 71 0
98 583 0 372 34 45 0
100 578 0 372 31 45 0
102 567 0 378 33 55 0
104 547 0 386 49 57 0
106 538 0 397 48 51 0
108 536 0 414 39 55 0
110 537 0 431 29 53 0
112 511 0 430 45 63 0
114 518 0 432 23 77 0
116 493 0 450 33 65 0
118 491 0 467 27 76 0
120 492 0 469 22 71 0
122 479 0 486 30 67 0
124 478 0 492 26 59 0
126 466 0 491 31 72 0
128 465 0 508 28 56 0
130 456 0 511 29 63 0
132 447 0 517 30 64 0
134 445 0 511 24 63 0
136 432 0 507 30 71 0
138 423 0 526 31 52 0
140 409 0 523 34 67 0
142 406 0 541 28 60 0
144 400 0 532 27 75 0
146 389 0 531 32 75 0
148 387 0 549 28 60 0
150 372 0 549 34 75 0
152 372 0 548 26 83 0
154 367 0 552 28 75 0
156 362 0 569 24 77 0
158 361 0 570 20 73 0
160 351 0 582 20 71 0
162 335 0 579 29 68 0
164 327 0 597 32 63 0
166 325 0 595 24 74 0
168 312 0 603 32 74 0
170 312 0 606 26 79 0
172 311 0 616 21 76 0
174 302 0 644 22 64 0
176 300 0 637 16 79 0
178 287 0 638 19 85 0
180 273 0 655 27 84 0
182 278 0 662 17 70 0
184 263 0 670 28 75 0
186 266 0 672 18 84 0
188 262 0 669 16 88 0
190 254 0 680 18 83 0
192 249 0 699 21 61 0
194 246 0 679 22 86 0
196 241 0 678 21 81 0
198 244 0 693 11 84 0
200 230 0 692 22 87 0
