0 1185 0 0 0 0 0
2 1070 10 0 69 0 36
4.00004 1068 12 0 74 0 24
6 1066 17 0 66 0 32
8 1045 17 0 86 0 38
10 1036 18 0 85 0 36
12 1049 14 0 83 0 29
14 1034 15 0 89 0 36
16 1033 22 0 83 0 34
18 1022 20 0 96 0 38
20 1026 18 0 88 0 28
22 983 27 0 89 0 45
24 1000 18 0 86 0 36
26 1000 17 0 76 0 35
28 1000 25 0 73 0 33
30 996 16 0 79 0 37
32 988 17 0 76 0 41
34 996 14 0 77 0 35
36 999 13 0 76 0 43
38 988 11 0 81 0 45
40 966 23 0 78 0 36
42 968 13 0 85 0 31
44 977 12 0 82 0 41
46 966 17 0 79 0 37
48 981 21 0 76 0 25
50 979 14 0 63 0 39
52 863 0 129 34 74 0
54 826 0 158 20 96 0
56 776 0 188 25 110 0
58 731 0 239 21 96 0
60 701 0 247 26 105 0
62 667 0 283 23 100 0
64 637 0 323 15 107 0
66 608 0 359 20 103 0
68 572 0 394 18 105 0
70 548 1 416 14 108 0
72 509 0 444 24 103 0
74 490 0 470 17 111 0
76 469 0 499 13 109 0
78 447 0 508 9 116 0
80 419 0 543 18 94 0
82 402 0 547 14 108 0
84 378 0 569 15 106 0
86 362 1 592 12 119 0
88 346 0 602 10 121 0
90 325 0 644 12 109 0
92 303 1 646 13 134 0
94 286 0 663 9 140 1
96 275 0 682 7 109 0
98 262 1 679 11 114 0
100 249 0 688 8 123 0
102 234 0 721 8 102 0
104 227 0 735 4 107 0
106 213 0 743 11 106 0
108 203 0 732 8 107 0
110 196 0 748 9 97 0
112 188 0 739 4 113 0
114 177 0 760 6 112 0
116 170 0 750 4 114 0
118 153 0 767 11 104 0
120 149 0 769 4 108 0
122 144 0 788 2 106 0
124 137 0 776 6 108 0
126 131 0 786 2 106 0
128 123 0 803 5 105 1
130 120 0 810 2 109 0
132 114 0 804 3 132 0
134 104 0 823 6 114 0
136 97 0 819 5 110 0
138 88 0 831 4 115 0
140 83 0 832 2 115 0
142 77 0 829 5 130 0
144 73 0 846 7 108 0
146 68 0 842 6 111 0
148 64 0 851 1 100 0
150 65 0 856 2 108 0
152 64 0 847 1 124 0
154 57 0 880 1 111 0
156 58 0 866 2 121 0
158 54 0 869 0 116 0
160 51 0 860 2 131 0
162 48 0 850 3 126 0
164 43 0 852 2 123 1
166 43 0 856 0 118 0
168 39 0 869 3 104 0
170 40 0 848 1 122 0
172 38 0 849 4 117 0
174 36 0 856 1 104 0
176 37 0 849 1 116 0
178 33 0 848 2 100 0
180 32 0 835 2 124 0
182 28 0 853 2 110 0
184 29 0 849 1 118 0
186 29 0 850 3 123 0
188 29 0 866 0 99 0
190 28 0 856 1 101 0
192 26 0 857 0 103 0
194 25 0 870 0 79 0
196 23 0 858 0 98 0
198 22 0 865 1 113 0
200 21 0 841 1 134 0
