0 1100 0 0 0 0
2 1022 8 0 64 0
4.00004 1009 1 0 88 0
6 985 7 0 101 0
8 973 4 0 109 0
10 960 6 0 112 0
12 951 6 0 129 0
14 930 2 0 141 0
16 930 4 0 144 0
18 920 5 0 153 0
20 916 3 0 168 0
22 894 2 0 191 0
24 893 3 0 189 0
26 899 4 0 177 0
28 900 0 0 172 0
30 892 6 0 182 0
32 897 1 0 182 0
34 876 8 0 206 0
36 880 4 0 200 0
38 891 5 0 182 0
40 877 5 0 185 0
42 861 7 0 202 0
44 847 5 0 218 0
46 857 3 0 204 0
48 858 3 0 191 0
50 853 1 0 191 0
52 708 0 135 192 1
54 631 0 219 183 9
56 535 0 305 188 14
58 479 0 358 186 25
60 437 0 424 140 32
62 391 0 470 129 38
64 348 0 509 132 46
66 303 0 546 139 61
68 262 0 596 129 62
70 237 0 624 133 66
72 205 0 650 130 77
74 190 0 666 117 83
76 179 0 684 110 80
78 168 0 698 104 83
80 152 0 731 99 68
82 133 0 736 104 76
84 115 0 744 106 84
86 113 0 755 93 86
88 109 0 758 94 91
90 111 0 767 85 96
92 101 0 775 84 93
94 91 1 784 81 96
96 86 0 791 79 95
98 79 0 790 80 108
100 63 0 802 82 112
102 60 0 791 83 122
104 57 0 796 80 126
106 55 0 797 78 123
108 49 0 794 82 125
110 47 0 803 73 120
112 46 0 784 70 138
114 45 0 791 59 139
116 44 0 805 57 129
118 46 0 794 54 138
120 44 0 806 56 134
122 40 0 796 52 148
124 45 0 792 46 142
126 44 0 807 46 129
128 42 0 826 55 118
130 42 0 816 48 130
132 39 1 809 57 141
134 37 0 825 65 129
136 34 0 822 66 138
138 36 0 822 63 134
140 36 0 819 58 142
142 39 0 833 63 127
144 31 0 843 61 125
146 32 0 851 59 119
148 32 0 842 62 128
150 36 0 847 53 124
152 34 0 840 56 143
154 34 0 841 56 139
156 33 0 842 65 131
158 31 0 843 51 138
160 29 0 854 65 131
162 28 0 853 58 140
164 32 0 857 53 118
166 24 0 854 60 128
168 30 0 847 58 132
170 34 0 842 54 143
172 33 0 845 64 130
174 37 0 825 52 155
176 34 0 836 58 144
178 35 0 825 56 150
180 36 0 840 54 130
182 38 0 842 50 135
184 38 0 840 51 135
186 38 0 837 47 141
188 35 0 843 50 138
190 33 0 843 51 138
192 32 0 848 48 141
194 32 0 838 49 150
196 29 0 861 48 128
198 25 0 859 49 127
200 27 0 861 53 125
