0 1199 0 0 0 0
2 1099 5 0 94 0
4.00004 1066 8 0 129 0
6 1034 6 0 153 0
8 1017 6 0 166 0
10 1004 6 0 175 0
12 995 16 0 176 0
14 1000 12 0 167 0
16 1007 7 0 188 0
18 995 11 0 200 0
20 1006 7 0 194 0
22 1000 10 0 193 0
24 992 2 0 209 0
26 1002 5 0 207 0
28 994 9 0 199 0
30 1001 9 0 188 0
32 1003 7 0 185 0
34 987 5 0 206 0
36 984 6 0 203 0
38 991 8 0 204 0
40 980 12 0 202 0
42 998 7 0 193 0
44 987 7 0 203 0
46 986 10 0 190 0
48 977 6 0 202 0
50 986 7 0 196 0
52 789 0 193 184 5
54 649 0 320 184 17
56 561 0 425 165 28
58 461 1 509 162 38
60 405 0 580 156 49
62 347 0 632 148 56
64 300 0 665 124 77
66 261 0 691 119 87
68 224 0 718 117 100
70 205 0 741 95 102
72 192 0 746 91 109
74 179 0 768 88 111
76 153 1 795 101 100
78 149 0 809 79 100
80 122 0 834 79 95
82 110 0 828 77 125
84 108 0 831 82 121
86 112 0 831 61 128
88 99 0 844 79 116
90 93 0 844 83 117
92 93 0 837 76 137
94 82 0 823 73 163
96 78 0 846 70 141
98 65 0 865 68 135
100 59 0 869 69 140
102 58 0 875 61 138
104 55 0 896 63 117
106 60 0 889 59 126
108 64 0 881 51 129
110 67 1 868 46 143
112 63 0 887 52 141
114 63 0 889 47 125
116 66 0 874 51 142
118 66 0 859 42 151
120 65 0 869 49 152
122 60 0 868 52 154
124 66 0 872 43 154
126 54 0 880 60 144
128 62 0 881 52 148
130 57 0 884 45 146
132 56 0 883 50 147
134 45 0 890 55 138
136 45 0 900 45 131
138 40 0 911 53 129
140 50 0 903 49 128
142 56 0 902 49 126
144 52 0 899 54 131
146 51 0 887 51 153
148 51 0 886 36 160
150 43 0 899 41 162
152 39 0 911 49 148
154 38 0 894 47 160
156 44 0 878 51 167
158 42 0 902 38 147
160 45 0 914 32 138
162 42 0 897 37 159
164 41 0 903 45 149
166 44 0 915 44 135
168 39 0 900 54 150
170 43 0 876 37 172
172 41 0 867 46 180
174 42 0 887 42 159
176 36 0 887 42 174
178 31 0 896 48 162
180 36 0 893 27 170
182 44 0 872 22 191
184 40 0 883 32 175
186 39 0 899 39 166
188 42 0 914 34 154
190 42 0 899 39 167
192 43 0 907 30 145
194 37 0 912 31 145
196 33 0 904 38 150
198 33 0 891 35 174
200 33 0 881 36 172
