0 1095 0 0 0 0
2 980 9 0 102 0
4.00004 957 10 0 129 0
6 936 5 0 151 0
8 909 6 0 183 0
10 905 8 0 180 0
12 908 5 0 182 0
14 904 10 0 181 0
16 903 5 0 192 0
18 897 5 0 197 0
20 895 6 0 201 0
22 881 7 0 224 0
24 879 4 0 215 0
26 870 7 0 233 0
28 875 10 0 215 0
30 881 3 0 216 0
32 880 6 0 227 0
34 872 7 0 243 0
36 874 11 0 226 0
38 880 4 0 216 0
40 885 10 0 197 0
42 881 9 0 210 0
44 875 8 0 225 0
46 876 2 0 218 0
48 863 6 0 228 0
50 859 10 0 233 0
52 717 0 156 228 4
54 633 0 251 199 12
56 538 0 346 192 26
58 461 0 432 185 26
60 419 0 480 170 43
62 369 1 529 174 55
64 318 0 577 171 63
66 290 0 614 158 73
68 260 0 656 139 77
70 244 0 671 125 91
72 221 0 696 96 96
74 200 0 705 103 108
76 197 0 709 93 121
78 182 0 720 91 133
80 165 0 735 87 142
82 143 0 757 88 134
84 131 0 774 84 128
86 117 0 778 91 134
88 99 0 785 89 143
90 91 0 792 82 150
92 85 0 791 75 152
94 74 0 799 76 159
96 63 0 815 77 146
98 55 0 808 93 167
100 61 0 809 74 155
102 63 0 834 71 138
104 61 0 829 67 150
106 59 0 821 76 151
108 60 0 832 71 141
110 65 0 825 68 144
112 52 0 816 66 154
114 59 0 815 73 151
116 54 0 814 59 156
118 55 0 805 65 163
120 60 0 805 60 156
122 55 0 797 70 173
124 54 0 796 56 157
126 49 0 809 69 149
128 52 0 781 70 177
130 56 0 780 59 187
132 50 0 781 62 186
134 56 0 798 56 170
136 52 0 801 66 162
138 53 0 802 54 158
140 56 0 802 62 151
142 54 0 794 61 176
144 55 0 812 66 159
146 60 0 800 58 164
148 59 0 801 62 159
150 60 0 799 54 172
152 60 1 812 57 158
154 58 0 817 60 162
156 64 0 830 64 140
158 65 0 810 51 173
160 53 0 819 63 172
162 57 0 838 47 153
164 50 0 829 56 170
166 49 0 804 57 195
168 53 0 809 60 178
170 52 0 815 61 168
172 48 0 805 54 182
174 46 0 812 53 180
176 47 0 810 51 190
178 39 0 837 44 166
180 39 0 829 39 183
182 41 0 819 40 173
184 45 0 812 45 175
186 50 0 808 38 171
188 48 0 815 32 169
190 52 0 815 36 173
192 45 0 800 39 184
194 36 0 809 40 194
196 34 0 814 47 188
198 37 0 827 42 175
200 37 0 817 38 195
