0 1005 0 0 0 0
2 921 0 0 88 0
4.00004 892 0 0 112 0
6 864 0 0 144 0
8 846 0 0 156 0
10 837 0 0 170 0
12 812 0 0 193 0
14 811 0 0 194 0
16 791 0 0 209 0
18 802 0 0 199 0
20 791 0 0 207 0
22 782 0 0 206 0
24 780 0 0 222 0
26 784 0 0 206 0
28 772 0 0 228 0
30 760 0 0 240 0
32 762 0 0 225 0
34 782 0 0 196 0
36 779 0 0 210 0
38 786 0 0 214 0
40 774 0 0 234 0
42 767 0 0 233 0
44 769 0 0 223 0
46 787 0 0 217 0
48 784 0 0 219 0
50 784 0 0 214 0
52 776 0 0 219 0
54 771 0 0 233 1
56 768 0 0 230 0
58 759 0 1 229 7
60 755 0 1 221 11
62 752 0 2 206 12
64 758 0 3 191 19
66 759 0 5 186 15
68 755 0 8 190 15
70 765 0 10 174 20
72 754 0 12 199 26
74 753 0 16 184 31
76 765 0 17 165 33
78 757 0 21 161 35
80 744 0 24 165 38
82 743 0 26 163 46
84 747 0 37 151 48
86 741 0 40 142 57
88 726 0 49 147 62
90 703 0 61 167 54
92 717 0 73 150 57
94 701 0 74 158 59
96 677 0 87 179 56
98 683 0 94 151 49
100 677 0 94 159 71
102 689 0 108 135 62
104 675 0 110 143 65
106 653 0 120 150 70
108 663 0 127 134 72
110 653 0 132 136 77
112 644 0 148 142 78
114 648 0 154 117 83
116 634 0 159 139 85
118 622 0 167 136 87
120 612 0 176 140 91
122 619 0 179 123 84
124 631 0 191 118 97
126 611 0 198 121 94
128 614 0 206 110 90
130 602 0 209 124 83
132 597 0 211 124 89
134 591 0 223 124 82
136 604 0 223 99 93
138 587 0 236 119 91
140 592 0 233 98 106
142 568 0 246 118 83
144 554 0 252 118 84
146 558 0 253 108 99
148 545 0 251 108 115
150 541 0 257 114 103
152 520 0 255 123 114
154 514 0 263 116 110
156 513 0 274 100 115
158 498 0 286 119 98
160 487 0 296 114 96
162 481 0 286 124 114
164 471 0 285 125 114
166 478 0 304 110 103
168 472 0 295 103 130
170 464 0 293 99 148
172 467 0 311 95 138
174 457 0 315 100 137
176 449 0 320 102 131
178 450 0 318 107 139
180 443 0 335 114 118
182 435 0 350 114 128
184 434 0 350 102 137
186 442 0 358 90 143
188 446 0 357 86 147
190 436 0 357 84 147
192 430 0 363 86 153
194 422 0 364 91 144
196 411 0 379 90 137
198 407 0 394 92 126
200 409 0 394 87 123
