0 944 0 0 0 0
2 887 9 0 66 0
4.00004 872 5 0 91 0
6 839 7 0 122 0
8 817 8 0 153 0
10 831 4 0 136 0
12 809 3 0 151 0
14 792 11 0 161 0
16 803 1 0 169 0
18 792 5 0 181 0
20 783 4 0 197 0
22 769 7 0 211 0
24 759 4 0 221 0
26 753 8 0 231 0
28 756 9 0 224 0
30 762 6 0 216 0
32 760 9 0 215 0
34 761 15 0 216 0
36 767 7 0 211 0
38 759 11 0 208 0
40 754 9 0 230 0
42 760 5 0 213 0
44 743 4 0 239 0
46 761 6 0 225 0
48 749 7 0 233 0
50 746 8 0 232 0
52 564 1 182 236 3
54 474 0 292 226 7
56 382 0 385 194 22
58 322 0 452 171 32
60 252 0 515 169 40
62 203 0 571 150 55
64 165 1 601 143 76
66 136 0 629 145 85
68 114 0 651 148 87
70 96 0 671 124 79
72 93 0 675 132 91
74 85 0 675 129 110
76 70 0 701 126 101
78 67 0 688 113 119
80 62 0 681 124 142
82 61 0 685 110 142
84 47 0 690 106 149
86 46 0 689 108 158
88 40 0 693 98 164
90 44 0 703 99 139
92 41 1 710 94 151
94 45 0 710 85 156
96 38 0 726 81 147
98 36 0 720 83 152
100 30 0 712 89 160
102 30 0 711 91 152
104 28 0 706 83 163
106 34 0 710 87 162
108 34 0 703 88 170
110 36 0 712 82 150
112 36 0 714 90 152
114 33 0 712 81 155
116 27 0 709 71 166
118 33 0 718 71 162
120 25 0 720 74 159
122 27 0 721 73 160
124 28 0 714 69 173
126 33 0 712 72 168
128 37 0 720 71 159
130 33 0 711 82 175
132 33 0 703 69 186
134 29 0 712 74 181
136 32 0 703 68 187
138 34 0 720 71 181
140 33 0 730 70 171
142 27 0 721 79 179
144 28 0 733 69 181
146 30 0 743 70 173
148 29 0 739 77 175
150 30 0 741 72 162
152 27 0 742 71 162
154 27 0 750 65 150
156 28 0 746 68 154
158 32 0 752 60 151
160 26 0 752 69 161
162 22 0 756 65 155
164 23 0 748 62 168
166 15 0 757 74 168
168 18 0 745 70 177
170 17 0 744 76 187
172 20 0 748 74 179
174 19 0 750 79 165
176 23 0 754 75 163
178 36 0 762 70 164
180 35 0 763 69 160
182 33 0 771 69 157
184 31 0 744 74 182
186 35 0 746 70 179
188 38 0 738 67 191
190 30 0 749 68 187
192 33 0 767 61 162
194 28 0 765 61 163
196 30 0 772 62 157
198 25 0 769 65 167
200 28 0 762 65 186
