0 1030 0 0 0 0
2 954 0 0 62 0
4.00004 948 0 0 80 0
6 929 0 0 95 0
8 898 0 0 129 0
10 895 0 0 124 0
12 883 0 0 144 0
14 861 0 0 163 0
16 880 0 0 139 0
18 861 0 0 155 0
20 871 0 0 149 0
22 857 0 0 162 0
24 865 0 0 145 0
26 862 0 0 161 0
28 853 0 0 174 0
30 851 0 0 168 0
32 847 0 0 172 0
34 850 0 0 170 0
36 849 0 0 173 0
38 834 0 0 184 0
40 858 0 0 162 0
42 867 0 0 153 0
44 861 0 0 161 0
46 856 0 0 168 0
48 859 0 0 168 0
50 862 0 0 167 0
52 857 0 0 168 0
54 871 0 0 157 0
56 867 0 0 163 0
58 861 0 0 174 1
60 855 0 0 188 3
62 857 0 0 175 3
64 873 0 0 155 7
66 884 0 0 147 11
68 846 0 0 177 9
70 838 0 2 186 14
72 843 0 2 181 18
74 835 0 1 186 20
76 842 0 5 167 20
78 836 0 6 170 28
80 851 0 13 149 20
82 844 0 15 159 22
84 824 0 15 171 27
86 821 0 16 162 27
88 833 0 19 149 25
90 831 0 23 154 26
92 840 0 27 137 23
94 813 0 26 164 33
96 811 0 29 162 34
98 812 0 33 154 36
100 806 0 36 138 35
102 795 0 41 145 33
104 797 0 42 146 35
106 787 0 50 152 32
108 792 0 52 140 43
110 788 0 54 140 43
112 792 0 60 131 42
114 797 0 64 123 42
116 791 0 67 122 46
118 789 0 71 115 48
120 796 0 77 99 41
122 778 0 82 123 47
124 772 0 87 128 50
126 767 0 84 127 63
128 773 0 90 126 60
130 754 0 99 134 54
132 761 0 98 120 61
134 756 0 106 124 60
136 752 0 113 124 58
138 741 0 113 127 61
140 758 0 114 116 64
142 754 0 112 110 71
144 754 0 116 107 70
146 761 0 120 96 72
148 750 0 116 99 85
150 726 0 125 127 72
152 731 0 131 120 72
154 722 0 140 114 61
156 728 0 142 107 63
158 731 0 152 95 52
160 731 0 154 92 56
162 726 0 160 87 60
164 712 0 162 93 62
166 696 0 166 111 66
168 693 0 167 110 72
170 696 0 175 101 65
172 684 0 174 111 68
174 689 0 177 103 72
176 676 0 185 110 68
178 668 0 185 109 75
180 668 0 191 103 72
182 676 0 192 97 72
184 662 0 196 102 70
186 668 0 199 96 73
188 659 0 201 101 74
190 644 0 203 109 80
192 646 0 206 102 80
194 647 0 206 99 87
196 650 0 215 97 80
198 651 0 221 97 82
200 646 0 212 95 101
