0 1053 0 0 0 0
2 978 9 0 55 0
4.00004 943 10 0 88 0
6 933 6 0 109 0
8 902 10 0 140 0
10 877 7 0 165 0
12 868 9 0 165 0
14 854 10 0 181 0
16 831 12 0 200 0
18 816 6 0 230 0
20 813 8 0 223 0
22 809 4 0 232 0
24 798 8 0 232 0
26 805 8 0 231 0
28 804 3 0 228 0
30 809 5 0 213 0
32 802 4 0 222 0
34 786 8 0 233 0
36 789 8 0 226 0
38 786 7 0 229 0
40 785 2 0 242 0
42 777 5 0 252 0
44 762 4 0 259 0
46 748 4 0 290 0
48 738 10 0 289 0
50 732 6 0 302 0
52 588 0 145 307 3
54 491 0 239 314 8
56 411 0 330 292 22
58 338 0 398 296 33
60 313 0 440 264 44
62 267 0 482 248 61
64 227 0 526 239 66
66 202 0 546 217 78
68 185 0 570 205 85
70 158 0 603 206 80
72 137 0 615 204 101
74 126 0 621 186 117
76 122 0 629 179 119
78 109 0 622 180 136
80 103 0 633 167 141
82 93 0 646 154 146
84 91 0 648 158 151
86 82 0 648 137 158
88 75 0 660 134 153
90 70 0 663 135 163
92 64 0 679 126 152
94 58 0 687 131 153
96 58 0 690 117 160
98 49 0 688 138 182
100 39 0 699 125 182
102 41 0 690 118 190
104 41 0 695 117 192
106 37 0 705 116 187
108 33 0 697 125 199
110 29 0 702 129 201
112 33 0 700 121 200
114 40 0 706 106 198
116 43 0 697 108 200
118 38 0 717 102 188
120 42 0 720 94 192
122 43 0 718 102 201
124 37 0 726 100 203
126 37 0 720 99 202
128 33 0 730 98 181
130 32 0 723 105 197
132 28 0 743 113 182
134 30 0 739 108 187
136 35 0 746 100 173
138 35 0 734 102 191
140 41 0 738 87 190
142 36 0 731 81 199
144 35 0 737 84 191
146 34 0 736 79 202
148 32 0 722 89 215
150 32 0 728 84 211
152 31 0 751 90 185
154 28 0 736 90 216
156 30 0 731 85 229
158 28 0 748 81 208
160 23 0 761 83 205
162 26 0 745 85 220
164 29 0 736 95 222
166 30 0 752 85 210
168 26 0 758 82 205
170 27 0 741 86 205
172 27 0 737 88 219
174 23 0 739 88 228
176 21 0 734 83 227
178 20 0 735 77 227
180 22 0 722 79 240
182 18 0 721 89 234
184 20 0 719 88 241
186 19 0 708 85 246
188 19 0 713 77 235
190 19 0 711 78 229
192 19 0 716 78 222
194 29 0 712 69 224
196 28 0 712 66 228
198 25 0 705 70 231
200 24 0 707 75 238
