0 952 0 0 0 0
2 874 0 0 68 0
4.00004 884 0 0 70 0
6 906 0 0 56 0
8 892 0 0 67 0
10 893 0 0 76 0
12 895 0 0 61 0
14 895 0 0 72 0
16 894 0 0 72 0
18 906 0 0 64 0
20 899 0 0 77 0
22 888 0 0 86 0
24 886 0 0 94 0
26 891 0 0 98 0
28 914 0 0 76 0
30 922 0 0 71 0
32 906 0 0 81 0
34 898 0 0 93 0
36 925 0 0 69 0
38 919 0 0 77 0
40 913 0 0 77 0
42 921 0 0 71 0
44 912 0 0 75 0
46 918 0 0 73 0
48 915 0 0 82 0
50 912 0 0 97 0
52 930 0 0 78 0
54 940 0 0 79 1
56 919 0 0 81 1
58 926 0 1 84 1
60 921 0 2 81 4
62 932 0 3 77 6
64 932 0 12 62 4
66 913 0 18 69 7
68 919 0 21 59 10
70 909 0 29 61 7
72 896 0 35 68 10
74 902 0 39 58 10
76 881 0 43 73 10
78 872 0 49 60 23
80 872 0 58 61 19
82 874 0 61 60 26
84 871 0 74 55 15
86 861 0 77 57 19
88 842 0 78 71 30
90 845 0 94 65 25
92 842 0 107 62 18
94 832 0 116 55 26
96 825 0 131 53 21
98 820 0 127 46 31
100 809 0 138 54 26
102 794 0 146 54 20
104 800 0 143 47 28
106 801 0 158 42 26
108 796 0 170 48 30
110 791 0 175 53 38
112 776 0 175 61 37
114 772 0 179 51 29
116 771 0 189 50 23
118 741 0 188 64 38
120 750 0 199 55 29
122 748 0 212 55 27
124 732 0 208 54 40
126 729 0 216 53 31
128 721 0 225 45 32
130 723 0 233 44 29
132 717 0 239 44 36
134 721 0 252 42 36
136 718 0 260 38 28
138 697 0 259 55 38
140 706 0 280 36 30
142 685 0 280 54 34
144 689 0 285 44 38
146 684 0 296 42 35
148 664 0 301 54 36
150 662 0 303 41 30
152 650 0 310 53 37
154 663 0 323 42 33
156 639 0 330 56 34
158 646 0 329 41 33
160 651 0 326 29 39
162 621 0 327 47 48
164 622 0 341 43 44
166 615 0 361 42 41
168 613 0 356 35 55
170 615 0 380 36 47
172 610 0 384 42 50
174 617 0 380 29 52
176 607 0 394 33 46
178 598 0 388 35 56
180 590 0 392 36 55
182 595 0 405 35 41
184 588 0 406 37 41
186 576 0 412 37 35
188 571 0 408 34 54
190 566 0 419 40 41
192 566 0 413 35 50
194 557 0 424 45 45
196 565 0 423 28 41
198 550 0 432 31 43
200 543 0 446 34 48
