0 888 0 0 0 0
2 813 0 0 73 0
4.00004 812 0 0 92 0
6 814 0 0 73 0
8 831 0 0 71 0
10 817 0 0 95 0
12 826 0 0 88 0
14 815 0 0 105 0
16 844 0 0 87 0
18 830 0 0 101 0
20 856 0 0 86 0
22 847 0 0 97 0
24 867 0 0 79 0
26 863 0 0 88 0
28 869 0 0 91 0
30 881 0 0 80 0
32 872 0 0 80 0
34 878 0 0 82 0
36 878 0 0 100 0
38 883 0 0 99 0
40 899 0 0 87 0
42 888 0 0 97 0
44 888 0 0 88 0
46 889 0 0 87 0
48 886 0 0 83 0
50 887 0 0 86 0
52 868 0 0 101 0
54 865 0 0 104 0
56 903 0 1 76 0
58 883 0 6 97 1
60 892 0 1 87 3
62 892 0 7 82 0
64 865 0 5 99 1
66 872 0 7 87 4
68 849 0 14 102 4
70 862 0 16 88 7
72 844 0 18 85 10
74 842 0 33 89 5
76 840 0 26 87 12
78 847 0 41 67 7
80 830 0 36 78 11
82 832 0 49 68 17
84 816 0 57 70 12
86 807 0 62 78 21
88 781 0 83 89 10
90 772 0 74 86 21
92 759 0 83 88 19
94 772 0 89 65 32
96 761 0 101 75 30
98 747 0 111 78 30
100 750 0 124 67 31
102 731 0 142 74 27
104 731 0 135 61 43
106 719 0 151 73 32
108 706 0 163 79 26
110 705 0 168 70 31
112 695 0 175 68 35
114 700 0 186 53 32
116 694 0 199 58 28
118 675 0 195 56 38
120 667 0 217 69 49
122 652 0 225 64 42
124 662 0 240 50 38
126 656 0 254 54 50
128 654 0 258 46 50
130 647 0 263 53 54
132 638 0 278 53 38
134 632 0 282 57 45
136 623 0 289 56 35
138 627 0 294 46 36
140 621 0 296 47 53
142 611 0 321 54 34
144 605 0 294 50 64
146 607 0 310 45 39
148 593 0 313 46 45
150 579 0 337 42 41
152 588 0 325 39 58
154 574 0 332 52 51
156 577 0 337 46 55
158 567 0 339 54 49
160 566 0 341 49 52
162 546 0 358 50 55
164 549 0 364 46 46
166 555 0 357 39 56
168 543 0 360 48 47
170 531 0 383 45 47
172 533 0 370 33 48
174 529 0 396 40 40
176 524 0 399 39 44
178 516 0 405 36 44
180 504 0 404 40 47
182 493 0 408 41 54
184 490 0 417 42 52
186 480 0 425 41 59
188 473 0 435 39 39
190 472 0 436 36 50
192 466 0 424 31 58
194 459 0 445 35 41
196 456 0 431 39 53
198 436 0 445 40 62
200 437 0 455 42 53
