0 1024 0 0 0 0
2 975 1 0 51 0
4.00004 976 6 0 51 0
6 990 2 0 45 0
8 977 6 0 60 0
10 968 4 0 63 0
12 957 4 0 75 0
14 950 14 0 53 0
16 968 8 0 52 0
18 969 4 0 60 0
20 971 6 0 54 0
22 967 7 0 53 0
24 959 6 0 59 0
26 938 12 0 64 0
28 956 5 0 53 0
30 966 3 0 50 0
32 963 5 0 52 0
34 956 4 0 63 0
36 968 8 0 44 0
38 948 6 0 56 0
40 953 10 0 61 0
42 965 5 0 60 0
44 946 7 0 58 0
46 947 5 0 57 0
48 949 6 0 74 0
50 952 6 0 58 0
52 792 0 154 57 1
54 682 1 257 67 0
56 612 0 325 54 8
58 537 0 400 56 7
60 506 0 442 35 17
62 440 0 504 47 10
64 370 0 563 40 19
66 323 0 605 44 18
68 297 0 639 31 16
70 268 0 656 40 20
72 246 0 676 36 22
74 241 0 683 26 31
76 212 0 700 29 34
78 186 0 728 22 23
80 179 0 735 19 28
82 167 1 757 18 27
84 164 0 763 19 29
86 161 0 761 22 37
88 156 0 778 16 25
90 150 0 781 10 21
92 129 0 782 34 33
94 134 0 781 28 31
96 129 0 792 30 30
98 127 0 809 25 24
100 125 0 802 23 31
102 124 0 813 16 33
104 120 1 808 22 47
106 124 1 811 17 44
108 104 0 821 25 39
110 113 0 830 18 40
112 115 0 824 17 45
114 113 0 823 16 45
116 102 0 829 20 48
118 100 0 835 13 37
120 106 0 829 11 48
122 96 1 844 16 44
124 102 0 836 11 41
126 101 0 835 16 40
128 93 0 827 20 41
130 106 0 835 11 41
132 104 1 841 19 45
134 93 0 839 23 50
136 100 0 853 15 43
138 98 0 854 13 34
140 94 0 844 21 50
142 88 0 870 17 40
144 85 0 878 9 38
146 82 0 853 12 55
148 76 0 863 13 40
150 73 0 849 13 46
152 64 1 857 13 45
154 63 0 853 18 50
156 76 0 857 12 45
158 67 0 860 7 48
160 60 0 842 12 65
162 58 0 839 8 57
164 59 0 850 10 43
166 59 0 849 13 54
168 57 0 839 9 52
170 60 0 867 10 40
172 73 0 858 5 54
174 70 0 858 7 50
176 74 0 835 11 46
178 68 0 845 13 40
180 63 0 841 15 52
182 63 0 849 8 39
184 64 0 863 12 35
186 67 0 859 10 47
188 62 0 868 8 32
190 66 0 869 8 43
192 62 0 871 7 37
194 58 0 880 11 37
196 64 0 860 11 47
198 60 0 856 7 55
200 62 0 850 13 51
