0 1040 0 0 0 0
2 935 4 0 100 0
4.00004 962 3 0 79 0
6 952 6 0 95 0
8 955 8 0 102 0
10 947 6 0 104 0
12 962 8 0 97 0
14 935 6 0 112 0
16 933 7 0 114 0
18 935 4 0 113 0
20 935 6 0 103 0
22 934 3 0 112 0
24 944 7 0 103 0
26 956 9 0 81 0
28 947 7 0 95 0
30 939 8 0 99 0
32 949 6 0 89 0
34 962 6 0 83 0
36 957 5 0 82 0
38 957 5 0 78 0
40 962 2 0 82 0
42 953 5 0 87 0
44 928 12 0 103 0
46 943 8 0 102 0
48 943 5 0 97 0
50 947 3 0 93 0
52 777 0 171 93 3
54 692 0 282 76 6
56 597 0 372 81 9
58 520 0 451 79 12
60 465 0 496 79 23
62 424 0 550 68 26
64 375 1 607 62 30
66 330 0 656 60 29
68 307 0 675 60 38
70 265 0 702 60 47
72 239 0 731 65 40
74 221 0 766 51 37
76 188 0 776 55 50
78 187 0 778 51 52
80 178 0 793 46 52
82 163 0 791 40 59
84 137 0 823 56 40
86 151 1 834 34 36
88 141 0 820 51 61
90 138 0 828 48 60
92 142 0 840 40 54
94 139 0 849 38 57
96 124 0 852 51 62
98 120 0 857 40 61
100 118 0 859 38 65
102 117 0 865 40 59
104 117 0 860 31 62
106 121 0 865 28 59
108 113 0 870 37 67
110 109 0 874 30 63
112 111 0 870 36 65
114 99 0 876 37 71
116 102 0 891 32 58
118 97 0 883 34 68
120 101 0 874 32 73
122 96 0 894 30 62
124 92 0 895 26 71
126 79 0 910 29 64
128 84 0 900 24 69
130 88 0 912 28 61
132 99 0 896 23 74
134 79 0 910 35 67
136 76 0 919 38 58
138 80 0 925 34 54
140 85 0 897 29 77
142 85 0 912 18 78
144 93 0 910 20 73
146 84 0 926 33 53
148 83 0 925 28 56
150 86 0 913 30 76
152 81 0 907 38 81
154 75 0 916 30 75
156 74 0 908 28 81
158 70 0 919 34 78
160 69 0 915 30 78
162 77 0 933 26 67
164 70 0 932 33 74
166 79 0 928 22 72
168 75 0 928 27 73
170 80 0 931 24 83
172 72 0 937 23 70
174 76 0 943 18 67
176 59 0 936 28 72
178 73 0 922 24 83
180 76 0 937 23 73
182 76 0 925 27 80
184 74 0 935 33 78
186 76 0 926 25 79
188 83 0 930 21 74
190 72 0 933 26 69
192 70 0 929 23 81
194 71 0 930 24 74
196 64 0 932 26 67
198 74 0 936 25 67
200 81 0 940 15 68
