0 956 0 0 0 0
2 877 0 0 76 0
4.00004 882 0 0 69 0
6 890 0 0 77 0
8 888 0 0 75 0
10 885 0 0 77 0
12 861 0 0 95 0
14 861 0 0 97 0
16 869 0 0 90 0
18 887 0 0 76 0
20 878 0 0 81 0
22 882 0 0 82 0
24 899 0 0 74 0
26 897 0 0 77 0
28 903 0 0 68 0
30 913 0 0 63 0
32 903 0 0 81 0
34 890 0 0 86 0
36 887 0 0 85 0
38 895 0 0 84 0
40 896 0 0 86 0
42 888 0 0 80 0
44 867 0 0 95 0
46 879 0 0 90 0
48 870 0 0 88 0
50 873 0 0 84 0
52 880 0 0 76 0
54 876 0 0 92 0
56 884 0 0 77 2
58 882 0 1 80 0
60 887 0 3 84 2
62 879 0 4 85 3
64 876 0 7 84 7
66 860 0 7 86 11
68 862 0 12 75 9
70 853 0 13 83 10
72 843 0 22 77 7
74 837 0 27 72 12
76 815 0 32 82 15
78 825 0 29 70 17
80 820 0 39 71 13
82 811 0 47 68 17
84 801 0 53 66 25
86 793 0 59 61 19
88 793 0 71 57 25
90 791 0 78 59 17
92 772 0 85 59 16
94 763 0 94 53 16
96 755 0 104 54 23
98 745 0 105 51 30
100 737 0 123 53 25
102 724 0 128 52 22
104 716 0 132 66 26
106 715 0 146 60 21
108 698 0 155 65 24
110 692 0 162 56 23
112 685 0 169 50 25
114 667 0 174 57 34
116 654 0 176 68 33
118 652 0 178 57 35
120 643 0 180 56 37
122 636 0 176 53 36
124 630 0 190 64 39
126 627 0 213 47 37
128 621 0 211 42 35
130 590 0 215 57 39
132 593 0 225 56 35
134 595 0 231 46 36
136 574 0 248 53 31
138 568 0 248 49 32
140 576 0 248 41 37
142 583 0 254 33 40
144 566 0 268 49 31
146 566 0 276 37 38
148 559 0 283 43 37
150 560 0 280 44 45
152 544 0 299 48 35
154 535 0 287 53 46
156 543 0 310 43 35
158 522 0 302 51 50
160 531 0 308 36 60
162 510 0 315 51 50
164 510 0 334 40 47
166 516 0 338 36 46
168 508 0 343 34 52
170 503 0 355 33 48
172 498 0 366 30 42
174 489 0 371 34 53
176 491 0 372 30 51
178 457 0 386 45 47
180 464 0 386 32 46
182 467 0 393 27 47
184 454 0 395 37 55
186 462 0 412 26 44
188 453 0 409 30 55
190 453 0 411 34 53
192 440 0 421 36 38
194 436 0 417 37 46
196 447 0 412 22 52
198 438 0 423 31 52
200 430 0 430 32 49
