0 1003 0 0 0 0
2 955 0 0 52 0
4.00004 959 0 0 58 0
6 951 0 0 65 0
8 972 0 0 52 0
10 969 0 0 56 0
12 966 0 0 57 0
14 967 0 0 50 0
16 976 0 0 51 0
18 984 0 0 60 0
20 982 0 0 47 0
22 974 0 0 55 0
24 982 0 0 49 0
26 983 0 0 51 0
28 976 0 0 54 0
30 968 0 0 52 0
32 970 0 0 54 0
34 958 0 0 62 0
36 965 0 0 54 0
38 969 0 0 55 0
40 958 0 0 65 0
42 974 0 0 52 0
44 965 0 0 59 0
46 969 0 0 59 0
48 975 0 0 50 0
50 978 0 0 53 0
52 974 0 0 55 0
54 965 0 0 68 0
56 978 0 0 51 0
58 995 0 1 47 2
60 987 0 2 58 0
62 969 0 4 75 1
64 988 0 5 58 3
66 970 0 6 55 2
68 965 0 6 60 5
70 980 0 9 43 4
72 981 0 13 43 1
74 964 0 15 63 5
76 963 0 16 55 10
78 954 0 25 52 9
80 957 0 28 44 8
82 939 0 32 58 12
84 950 0 32 40 10
86 946 0 49 40 10
88 933 0 54 45 9
90 940 0 56 35 11
92 941 0 62 36 15
94 937 0 68 31 19
96 927 0 74 34 15
98 918 0 77 49 17
100 930 0 88 26 9
102 922 0 82 31 18
104 912 0 97 45 15
106 896 0 101 57 16
108 901 0 107 40 12
110 888 0 118 38 10
112 879 0 125 45 11
114 881 0 127 36 21
116 874 0 139 38 22
118 870 0 139 37 21
120 865 0 146 36 22
122 856 0 156 35 15
124 853 0 165 36 20
126 851 0 169 36 16
128 830 0 162 45 19
130 844 0 178 34 8
132 826 0 175 35 9
134 821 0 177 38 16
136 815 0 188 39 17
138 817 0 190 27 15
140 804 0 192 36 20
142 801 0 198 34 19
144 795 0 209 38 27
146 784 0 226 40 22
148 782 0 228 35 18
150 780 0 235 31 16
152 772 0 227 33 20
154 770 0 236 35 18
156 755 0 239 44 18
158 772 0 234 19 23
160 750 0 244 33 21
162 744 0 250 29 25
164 724 0 260 39 18
166 724 0 264 35 26
168 719 0 266 34 24
170 721 0 276 36 21
172 717 0 286 31 23
174 719 0 273 20 23
176 697 0 281 33 27
178 691 0 288 22 22
180 687 0 289 31 30
182 672 0 292 39 24
184 676 0 299 32 17
186 678 0 284 23 28
188 673 0 301 23 19
190 666 0 294 21 25
192 666 0 305 20 21
194 650 0 305 31 28
196 645 0 315 30 20
198 647 0 317 24 25
200 645 0 329 24 17
