0 941 0 0 0 0
2 890 0 0 51 0
4.00004 903 0 0 47 0
6 883 0 0 63 0
8 894 0 0 49 0
10 901 0 0 59 0
12 903 0 0 58 0
14 898 0 0 60 0
16 897 0 0 63 0
18 924 0 0 55 0
20 921 0 0 60 0
22 925 0 0 53 0
24 927 0 0 58 0
26 935 0 0 45 0
28 926 0 0 56 0
30 920 0 0 69 0
32 945 0 0 49 0
34 937 0 0 58 0
36 932 0 0 66 0
38 948 0 0 53 0
40 953 0 0 53 0
42 947 0 0 60 0
44 941 0 0 64 0
46 933 0 0 76 0
48 937 0 0 61 0
50 934 0 0 59 0
52 946 0 0 55 0
54 950 0 0 55 0
56 951 0 0 54 0
58 934 0 0 72 1
60 945 0 1 58 3
62 938 0 3 63 0
64 938 0 3 57 3
66 938 0 4 56 1
68 931 0 6 50 5
70 936 0 9 48 4
72 939 0 10 46 7
74 932 0 16 45 9
76 927 0 26 56 12
78 931 0 32 46 8
80 929 0 33 37 11
82 918 0 39 44 15
84 915 0 46 41 22
86 911 0 62 42 12
88 892 0 61 50 16
90 899 0 75 37 11
92 883 0 82 48 9
94 877 0 84 45 15
96 883 0 93 31 19
98 883 0 97 39 19
100 877 0 94 31 23
102 868 0 111 36 15
104 854 0 114 48 17
106 863 0 121 32 14
108 856 0 112 34 26
110 849 0 128 37 15
112 848 0 141 37 17
114 847 0 140 31 25
116 824 0 146 39 20
118 814 0 156 48 24
120 823 0 156 35 20
122 812 0 160 43 26
124 822 0 168 34 25
126 807 0 176 40 20
128 802 0 191 38 18
130 805 0 190 30 21
132 789 0 189 39 31
134 789 0 208 36 16
136 794 0 210 35 22
138 786 0 216 33 20
140 776 0 222 37 22
142 777 0 219 39 32
144 767 0 235 34 26
146 762 0 243 43 33
148 760 0 246 29 33
150 746 0 249 36 36
152 755 0 252 33 33
154 765 0 264 19 23
156 735 0 273 42 26
158 738 0 275 26 26
160 720 0 278 37 37
162 727 0 290 26 32
164 714 0 297 32 38
166 715 0 306 30 36
168 702 0 304 33 35
170 693 0 309 35 29
172 697 0 320 28 26
174 697 0 318 27 32
176 690 0 325 33 31
178 687 0 341 32 29
180 675 0 344 38 31
182 676 0 353 37 41
184 665 0 371 32 29
186 667 0 366 30 45
188 667 0 373 34 34
190 663 0 379 35 29
192 660 0 379 34 31
194 656 0 381 31 42
196 660 0 383 37 27
198 664 0 386 29 30
200 645 0 395 39 33
