0 805 0 0 0 0
2 733 0 0 65 0
4.00004 732 0 0 74 0
6 735 0 0 64 0
8 732 0 0 73 0
10 741 0 0 54 0
12 745 0 0 73 0
14 747 0 0 82 0
16 741 0 0 70 0
18 747 0 0 57 0
20 752 0 0 58 0
22 756 0 0 70 0
24 735 0 0 68 0
26 753 0 0 65 0
28 740 0 0 66 0
30 741 0 0 60 0
32 762 0 0 54 0
34 758 0 0 61 0
36 755 0 0 53 0
38 765 0 0 46 0
40 739 0 0 65 0
42 745 0 0 57 0
44 761 0 0 59 0
46 744 0 0 59 0
48 745 0 0 70 0
50 763 0 0 54 0
52 746 0 1 65 0
54 749 0 2 59 1
56 749 0 5 63 2
58 746 0 10 64 2
60 743 0 16 51 4
62 730 0 19 56 13
64 718 0 43 54 13
66 739 0 46 33 10
68 711 0 62 45 17
70 700 0 71 54 12
72 684 0 91 54 8
74 676 0 87 47 14
76 658 0 91 54 23
78 660 0 103 33 13
80 635 0 115 45 18
82 616 0 136 49 13
84 613 0 138 36 27
86 609 0 153 43 24
88 595 0 170 37 22
90 573 0 178 38 31
92 577 0 213 33 24
94 560 0 217 35 30
96 542 0 244 33 23
98 532 0 242 45 28
100 524 0 253 28 23
102 512 0 252 25 30
104 500 0 264 27 29
106 497 0 278 22 34
108 469 0 298 38 32
110 468 0 310 32 38
112 466 0 302 32 41
114 457 0 316 32 36
116 440 0 330 35 35
118 431 0 333 33 38
120 424 0 344 28 25
122 421 0 344 19 41
124 408 0 349 26 45
126 412 0 371 17 31
128 399 0 377 30 37
130 393 0 379 14 45
132 377 0 391 24 41
134 365 0 397 25 40
136 361 0 418 16 35
138 355 0 410 17 51
140 351 0 415 19 41
142 343 0 430 23 37
144 336 0 437 23 43
146 336 0 447 20 40
148 332 0 442 19 40
150 324 0 442 20 38
152 312 0 435 24 48
154 307 0 452 22 39
156 305 0 452 19 48
158 296 0 454 19 39
160 293 0 446 16 46
162 289 0 450 19 41
164 286 0 452 15 49
166 275 0 461 20 43
168 267 0 472 27 41
170 259 0 473 20 44
172 257 0 492 17 40
174 254 0 485 18 47
176 255 0 506 18 49
178 247 0 500 14 47
180 231 0 520 20 48
182 234 0 511 12 60
184 223 0 513 20 59
186 227 0 524 13 48
188 211 0 533 23 43
190 219 0 531 12 44
192 211 0 528 16 71
194 204 0 558 13 44
196 188 0 552 25 58
198 197 0 546 12 68
200 199 0 578 11 46
