0 1147 0 0 0 0
2 1082 4 0 53 0
4.00004 1058 5 0 66 0
6 1049 6 0 73 0
8 1052 7 0 75 0
10 1043 5 0 87 0
12 1052 4 0 77 0
14 1029 5 0 95 0
16 1024 8 0 93 0
18 1044 6 0 80 0
20 1031 5 0 97 0
22 1037 4 0 89 0
24 1005 6 0 105 0
26 1024 7 0 82 0
28 1029 8 0 76 0
30 1019 3 0 92 0
32 1018 7 0 77 0
34 1033 7 0 70 0
36 1020 7 0 92 0
38 1016 6 0 87 0
40 1019 5 0 83 0
42 1007 6 0 90 0
44 1002 1 0 94 0
46 982 7 0 108 0
48 993 6 0 98 0
50 1015 2 0 89 0
52 870 0 142 79 1
54 767 0 247 71 4
56 696 1 329 70 8
58 616 0 419 69 14
60 561 0 486 52 18
62 471 0 560 63 19
64 435 0 604 61 24
66 421 0 631 42 29
68 364 0 672 55 29
70 329 1 697 55 29
72 307 0 733 46 41
74 281 0 761 49 32
76 272 0 766 44 41
78 246 0 795 48 42
80 233 0 804 39 46
82 214 0 832 32 41
84 194 0 854 33 39
86 183 0 851 33 56
88 173 0 866 19 47
90 160 0 887 19 49
92 147 0 878 25 62
94 128 0 887 31 60
96 124 0 900 25 43
98 113 0 910 20 51
100 106 0 918 19 54
102 102 0 908 24 68
104 105 0 916 28 54
106 100 0 932 15 49
108 86 0 925 18 54
110 82 0 919 20 54
112 74 0 911 21 62
114 72 0 916 24 57
116 77 0 917 16 62
118 74 0 927 22 53
120 74 0 920 26 57
122 77 0 905 27 68
124 77 0 904 20 73
126 80 0 901 16 72
128 74 0 921 18 58
130 79 0 906 20 69
132 72 0 921 22 62
134 79 0 924 20 57
136 77 0 924 16 65
138 81 0 919 18 68
140 76 0 919 13 64
142 76 0 922 13 65
144 78 0 925 16 62
146 76 0 938 10 56
148 65 0 928 12 59
150 63 0 939 16 56
152 67 0 937 15 52
154 66 0 918 20 69
156 65 0 921 12 60
158 63 0 923 10 57
160 59 0 922 14 61
162 55 0 927 16 62
164 62 0 926 14 60
166 64 0 915 14 69
168 53 0 914 20 79
170 55 0 932 16 62
172 60 0 922 14 74
174 50 0 940 18 57
176 56 0 937 17 64
178 57 0 923 16 65
180 53 1 932 18 60
182 53 0 929 17 63
184 49 0 937 16 57
186 53 0 925 18 64
188 56 0 936 17 62
190 52 0 935 18 58
192 56 0 936 16 52
194 50 0 945 17 55
196 49 0 927 25 66
198 58 0 915 14 81
200 57 0 927 20 65
