0 1091 0 0 0 0
2 1003 0 0 82 0
4.00004 1008 0 0 78 0
6 1005 0 0 73 0
8 1016 0 0 66 0
10 1018 0 0 59 0
12 992 0 0 83 0
14 1006 0 0 76 0
16 987 0 0 85 0
18 993 0 0 66 0
20 986 0 0 75 0
22 982 0 0 76 0
24 994 0 0 79 0
26 985 0 0 93 0
28 985 0 0 88 0
30 994 0 0 78 0
32 975 0 0 85 0
34 988 0 0 84 0
36 990 0 0 71 0
38 982 0 0 78 0
40 971 0 0 93 0
42 977 0 0 93 0
44 990 0 0 73 0
46 989 0 0 89 0
48 984 0 0 92 0
50 980 0 0 98 0
52 992 0 0 83 0
54 986 0 0 80 0
56 979 0 0 81 0
58 984 0 0 86 2
60 973 0 1 100 3
62 982 0 5 81 4
64 982 0 11 73 4
66 985 0 13 69 8
68 972 0 17 65 8
70 962 0 25 69 6
72 971 0 31 61 11
74 953 0 37 71 12
76 945 0 43 66 6
78 933 0 50 73 11
80 944 0 60 67 7
82 927 0 57 75 7
84 919 0 61 75 18
86 919 0 72 59 12
88 907 0 76 64 19
90 898 0 79 61 22
92 898 0 91 63 16
94 890 0 97 65 23
96 885 0 111 60 18
98 875 0 117 74 25
100 875 0 137 53 13
102 870 0 132 52 29
104 859 0 137 57 27
106 852 0 161 62 18
108 830 0 157 65 23
110 830 0 171 66 22
112 821 0 176 65 25
114 820 0 184 62 24
116 826 0 198 46 26
118 804 0 195 63 37
120 795 0 207 52 29
122 801 0 208 40 27
124 786 0 220 49 38
126 776 0 232 56 25
128 762 0 233 57 30
130 762 0 248 56 31
132 755 0 239 54 39
134 764 0 242 38 48
136 736 0 252 64 42
138 730 0 256 64 43
140 725 0 265 65 36
142 720 0 266 61 39
144 725 0 287 49 23
146 710 0 273 49 40
148 699 0 275 45 47
150 698 0 280 50 46
152 698 0 281 45 44
154 691 0 289 50 40
156 683 0 295 46 34
158 681 0 295 47 41
160 680 0 313 41 39
162 671 0 320 46 35
164 652 0 328 43 32
166 653 0 326 38 41
168 633 0 338 52 39
170 638 0 348 41 32
172 640 0 332 34 43
174 636 0 351 35 37
176 627 0 356 40 26
178 621 0 354 41 35
180 618 0 352 35 43
182 617 0 368 39 30
184 623 0 363 21 41
186 608 0 376 34 34
188 595 0 389 43 32
190 580 0 392 50 40
192 585 0 401 40 40
194 582 0 411 31 41
196 575 0 407 39 45
198 566 0 422 39 36
200 559 0 429 46 39
