0 30 0 0 0
2 28 0 0 0
4.00004 28 0 0 0
6 28 0 0 0
8 29 0 0 0
10 29 0 0 0
12 29 0 0 0
14 29 0 0 0
16 27 0 0 0
18 27 1 0 0
20 27 1 0 0
22 28 1 0 1
24 27 1 1 0
26 26 1 1 0
28 27 1 0 0
30 27 1 0 0
32 27 1 0 0
34 27 1 1 0
36 28 1 0 0
38 28 1 0 0
40 28 1 1 0
42 28 2 1 0
44 29 3 0 0
46 29 3 0 0
48 29 3 0 0
50 29 3 0 0
52 29 4 0 0
54 29 4 0 0
56 29 4 0 0
58 29 5 0 0
60 28 5 1 0
62 29 6 0 0
64 28 8 0 0
66 28 8 0 0
68 28 8 0 0
70 27 8 0 0
72 25 9 1 0
74 25 9 0 0
76 25 9 0 0
78 25 10 0 0
80 25 10 0 0
82 25 10 0 0
84 25 10 0 0
86 25 9 0 0
88 25 10 0 0
90 25 10 0 0
92 24 9 0 1
94 23 10 1 0
96 23 9 1 0
98 24 9 0 0
100 24 9 0 0
102 24 9 0 0
104 24 9 0 1
106 24 10 0 0
108 24 11 0 0
110 24 11 0 0
112 23 11 0 0
114 24 12 0 0
116 24 12 0 0
118 24 12 0 0
120 24 12 0 0
122 24 12 0 0
124 25 12 0 0
126 25 12 0 0
128 25 11 0 0
130 25 11 0 0
132 24 11 0 0
134 24 11 0 0
136 24 12 0 0
138 23 12 1 0
140 24 10 0 1
142 24 10 0 0
144 24 10 0 1
146 24 10 0 0
148 24 10 0 0
150 24 10 0 1
152 24 11 0 0
154 24 11 0 0
156 23 11 0 0
158 22 11 0 0
160 22 11 0 0
162 21 11 0 1
164 20 12 1 0
166 20 12 0 0
168 20 12 0 0
170 20 11 0 0
172 20 11 0 0
174 20 11 0 0
176 19 11 0 1
178 19 11 0 0
180 19 13 0 0
182 19 14 0 0
184 18 14 0 0
186 18 15 0 0
188 18 15 0 1
190 17 16 1 0
192 16 16 0 0
194 16 15 0 0
196 16 14 0 0
198 16 14 0 0
200 16 14 0 0
202 16 14 0 0
204 15 14 0 0
206 15 14 0 0
208 15 13 0 1
210 14 14 1 0
