0 28 0 0 0
2 28 0 0 0
4.00004 28 0 0 0
6 27 0 0 0
8 28 0 0 0
10 28 0 0 0
12 28 0 0 0
14 27 0 0 0
16 27 0 0 0
18 27 0 0 0
20 26 0 0 0
22 26 0 0 0
24 26 0 2 0
26 27 0 0 0
28 27 0 0 0
30 28 0 0 0
32 27 0 0 0
34 28 0 0 0
36 28 1 1 0
38 29 1 0 0
40 29 1 0 0
42 29 1 0 0
44 29 0 0 1
46 29 0 0 0
48 27 0 0 1
50 27 0 0 0
52 27 2 0 0
54 27 3 0 0
56 25 3 2 0
58 27 3 0 0
60 25 3 0 0
62 23 3 1 0
64 24 3 0 0
66 23 4 0 1
68 23 5 0 0
70 22 5 0 0
72 22 5 0 0
74 22 3 0 1
76 22 4 0 0
78 22 4 0 0
80 22 4 0 0
82 22 4 0 0
84 22 4 0 0
86 22 4 0 0
88 22 4 0 0
90 22 4 0 0
92 22 5 0 0
94 22 4 0 1
96 22 5 0 0
98 21 5 0 0
100 20 6 0 0
102 20 5 0 0
104 20 5 0 0
106 20 5 0 0
108 20 5 0 0
110 20 5 0 0
112 20 6 0 0
114 20 7 0 1
116 20 9 0 0
118 20 9 0 0
120 20 8 0 1
122 20 8 0 0
124 20 8 0 0
126 20 7 0 0
128 20 7 0 0
130 20 7 0 0
132 20 6 0 1
134 19 7 0 0
136 18 8 0 1
138 18 9 0 0
140 18 9 0 1
142 18 10 0 0
144 17 10 0 0
146 17 10 0 0
148 17 10 0 0
150 16 10 1 0
152 17 10 0 0
154 17 10 0 0
156 17 9 0 1
158 17 10 0 0
160 17 10 0 0
162 16 10 1 0
164 17 10 0 0
166 16 10 0 0
168 15 9 0 0
170 15 10 0 1
172 15 12 0 0
174 14 12 0 0
176 14 12 0 0
178 14 11 0 0
180 13 11 0 0
182 12 11 0 1
184 12 13 0 0
186 12 12 0 0
188 11 13 1 0
190 12 12 0 0
192 12 12 0 0
194 12 12 0 0
196 12 12 0 0
198 11 14 1 0
200 12 13 0 0
202 12 12 0 1
204 12 15 0 0
206 12 14 0 1
208 12 13 0 0
210 12 12 0 0
