0 120 0 0 0
2 121 0 0 0
4.00004 121 0 0 0
6 121 0 0 0
8 121 0 0 0
10 120 0 0 0
12 109 11 0 0
14 95 25 0 0
16 87 32 0 1
18 76 43 0 1
20 69 52 0 0
22 62 59 0 0
24 61 60 0 0
26 59 62 0 0
28 54 66 0 1
30 50 70 0 1
32 48 72 1 0
34 46 75 0 0
36 39 82 0 0
38 35 86 0 0
40 30 88 0 1
42 26 92 0 0
44 22 96 0 0
46 20 98 0 0
48 19 99 0 0
50 18 100 0 0
52 17 101 0 0
54 14 104 0 0
56 14 102 1 1
58 13 104 0 0
60 14 104 0 0
62 14 104 0 0
64 14 103 0 1
66 14 103 1 0
68 11 104 0 0
70 10 104 0 0
72 11 104 0 0
74 9 106 1 0
76 9 106 0 1
78 8 108 0 0
80 7 109 1 0
82 9 108 0 0
84 9 108 0 0
86 9 109 0 0
88 8 110 0 0
90 8 110 0 0
92 7 110 0 0
94 8 109 1 0
96 5 112 0 0
98 5 111 1 1
100 6 112 0 0
102 3 114 0 0
104 3 115 0 0
106 3 115 0 0
108 3 115 0 0
110 3 115 0 0
112 3 115 0 0
114 3 114 0 1
116 3 115 0 0
118 3 115 0 0
120 3 114 0 0
122 3 114 0 0
124 4 114 0 0
126 4 114 0 0
128 4 114 0 0
130 3 114 0 0
132 3 114 0 0
134 3 114 0 0
136 3 114 0 1
138 2 117 0 0
140 2 117 0 0
142 2 117 0 0
144 3 118 0 0
146 3 118 0 0
148 3 118 0 0
150 2 120 0 0
152 2 120 0 0
154 2 120 0 0
156 2 120 0 0
158 2 120 0 0
160 2 120 0 0
162 2 120 0 0
164 2 120 0 0
166 2 120 0 0
168 3 120 0 0
170 3 118 0 1
172 3 119 0 0
174 3 119 0 0
176 3 117 0 0
178 2 118 0 0
180 2 117 0 1
182 2 118 0 0
184 2 118 0 0
186 1 119 0 0
188 1 119 0 0
190 1 118 0 0
192 1 118 0 0
194 1 118 0 0
196 1 120 1 0
198 2 119 0 0
200 1 120 0 0
202 1 120 1 0
204 2 121 0 0
206 2 121 0 0
208 2 120 0 0
210 2 121 0 0
