0 75 0 2661
2 65 11 2672
4.00004 62 14 2670
6 61 14 2672
8 61 14 2697
10 56 15 2685
12 57 15 2664
14 55 15 2688
16 50 20 2691
18 47 24 2712
20 46 26 2718
22 46 27 2696
24 46 28 2674
26 37 37 2701
28 38 37 2678
30 39 37 2664
32 38 38 2673
34 39 38 2656
36 39 38 2669
38 40 38 2667
40 38 38 2664
42 36 40 2659
44 37 40 2648
46 38 40 2649
48 38 38 2628
50 42 37 2616
52 43 37 2623
54 41 35 2604
56 40 35 2623
58 41 35 2629
60 41 37 2616
62 39 38 2613
64 42 38 2603
66 40 38 2624
68 38 40 2630
70 37 39 2620
72 38 39 2620
74 41 39 2628
76 39 41 2620
78 38 43 2621
80 40 42 2617
82 41 41 2628
84 39 41 2637
86 41 41 2646
88 40 42 2638
90 41 42 2642
92 44 42 2635
94 42 42 2628
96 42 38 2628
98 40 42 2628
100 38 41 2625
102 40 39 2625
104 43 37 2626
106 41 41 2626
108 42 43 2630
110 44 42 2627
112 46 44 2623
114 48 46 2618
116 45 48 2622
118 42 45 2617
120 42 44 2617
122 43 46 2623
124 44 46 2624
126 43 45 2629
128 40 47 2637
130 41 48 2634
132 41 44 2633
134 40 47 2633
136 39 47 2632
138 37 45 2633
140 35 47 2630
142 39 47 2633
144 39 47 2631
146 40 47 2634
148 42 46 2632
150 41 47 2628
152 41 43 2628
154 38 42 2628
156 39 43 2629
158 37 41 2631
160 38 37 2631
162 39 41 2630
164 39 43 2631
166 39 43 2628
168 37 44 2628
170 39 46 2642
172 40 46 2641
174 41 44 2642
176 37 50 2640
178 41 51 2637
180 41 48 2637
182 38 45 2639
184 42 40 2640
186 41 43 2640
188 39 45 2642
190 37 44 2642
192 38 43 2644
194 39 43 2643
196 37 42 2645
198 36 39 2647
200 33 37 2647
202 32 36 2643
204 34 36 2643
206 37 35 2650
208 36 36 2652
210 31 34 2654
212 34 37 2654
214 31 34 2651
216 33 33 2655
218 33 36 2655
220 32 39 2656
222 27 35 2650
224 28 35 2652
226 30 35 2651
228 28 37 2651
230 29 38 2644
232 35 38 2635
234 34 35 2639
236 36 37 2638
238 31 40 2637
240 34 39 2636
242 33 35 2634
244 34 37 2639
246 33 38 2636
248 31 39 2644
250 29 38 2642
252 28 38 2639
254 32 37 2633
256 28 39 2634
258 30 39 2633
260 29 40 2633
262 35 42 2636
264 31 43 2634
266 30 42 2630
268 30 42 2633
270 32 38 2631
272 29 34 2629
274 30 33 2628
276 29 30 2630
278 30 33 2628
280 33 32 2629
282 36 31 2629
284 29 33 2631
286 30 34 2631
288 30 33 2633
290 28 33 2636
292 32 32 2635
294 30 34 2635
296 29 35 2634
298 32 35 2635
300 28 33 2635
