0 98 0 2849
2 95 3 2868
4.00004 94 3 2856
6 94 3 2826
8 93 4 2855
10 91 6 2868
12 91 6 2881
14 90 6 2876
16 91 7 2885
18 87 7 2885
20 87 7 2894
22 91 6 2892
24 89 7 2894
26 98 7 2896
28 96 8 2896
30 95 8 2896
32 92 8 2898
34 90 8 2898
36 88 8 2897
38 82 7 2897
40 84 8 2896
42 83 9 2890
44 81 9 2890
46 89 11 2890
48 92 11 2887
50 92 10 2887
52 92 10 2887
54 89 10 2887
56 85 11 2887
58 91 11 2886
60 97 11 2887
62 96 12 2887
64 99 12 2888
66 101 12 2888
68 100 13 2890
70 96 13 2890
72 93 12 2889
74 86 13 2888
76 88 12 2886
78 89 13 2888
80 91 12 2888
82 96 12 2888
84 103 11 2888
86 99 12 2889
88 98 12 2890
90 103 13 2891
92 103 13 2894
94 106 15 2894
96 107 14 2896
98 103 13 2893
100 102 13 2892
102 100 15 2892
104 99 14 2892
106 95 14 2891
108 96 15 2891
110 99 15 2891
112 99 17 2889
114 95 18 2889
116 97 18 2888
118 94 18 2884
120 94 18 2886
122 98 17 2887
124 103 17 2886
126 100 17 2886
128 102 17 2887
130 102 17 2887
132 96 17 2890
134 98 14 2890
136 96 15 2892
138 98 13 2893
140 98 14 2893
142 96 16 2892
144 91 15 2894
146 88 15 2894
148 88 14 2894
150 84 16 2894
152 83 16 2894
154 85 17 2894
156 85 18 2894
158 87 17 2894
160 88 17 2894
162 84 17 2894
164 81 17 2894
166 80 16 2895
168 78 15 2896
170 73 17 2896
172 75 18 2896
174 69 17 2896
176 68 20 2897
178 65 18 2897
180 66 18 2898
182 70 17 2895
184 67 18 2894
186 69 17 2894
188 62 16 2894
190 61 17 2894
192 54 19 2894
194 55 16 2894
196 55 16 2894
198 61 16 2894
200 62 15 2894
202 54 15 2894
204 58 17 2892
206 66 15 2892
208 65 14 2892
210 65 14 2892
212 65 14 2892
214 68 14 2889
216 65 13 2889
218 62 12 2888
220 59 12 2888
222 55 11 2889
224 55 10 2890
226 52 11 2889
228 54 12 2888
230 54 11 2888
232 54 11 2888
234 52 11 2888
236 47 11 2887
238 47 13 2888
240 46 13 2888
242 48 13 2887
244 46 13 2887
246 50 13 2887
248 52 12 2887
250 56 14 2886
252 54 12 2886
254 53 12 2885
256 49 15 2884
258 45 15 2883
260 45 17 2882
262 51 15 2882
264 52 16 2882
266 51 18 2882
268 53 17 2882
270 52 16 2880
272 57 15 2880
274 58 15 2880
276 49 16 2879
278 50 13 2879
280 53 15 2879
282 54 15 2879
284 54 17 2878
286 55 15 2877
288 53 15 2878
290 52 13 2876
292 49 11 2878
294 56 13 2878
296 60 15 2879
298 54 15 2879
300 59 15 2879
