0 64 0 2336
2 64 0 2324
4.00004 65 0 2312
6 65 0 2328
8 65 0 2301
10 65 0 2292
12 66 0 2271
14 64 0 2270
16 62 0 2276
18 60 0 2261
20 61 0 2274
22 63 0 2259
24 63 0 2262
26 63 0 2251
28 64 0 2295
30 60 0 2302
32 59 0 2302
34 60 0 2287
36 60 0 2285
38 61 0 2309
40 61 0 2315
42 61 1 2302
44 62 1 2269
46 63 1 2267
48 63 0 2278
50 66 0 2270
52 64 0 2274
54 62 0 2286
56 66 0 2269
58 64 0 2297
60 64 0 2300
62 66 0 2296
64 66 0 2301
66 65 0 2320
68 66 1 2296
70 66 1 2284
72 62 1 2312
74 60 1 2292
76 60 1 2320
78 60 1 2314
80 60 1 2311
82 61 1 2327
84 63 1 2276
86 63 1 2270
88 63 2 2253
90 58 2 2263
92 63 2 2263
94 64 2 2276
96 64 3 2262
98 65 3 2277
100 63 3 2277
102 64 5 2284
104 61 6 2292
106 58 5 2301
108 60 4 2286
110 59 5 2295
112 61 5 2292
114 63 5 2303
116 66 4 2297
118 65 5 2301
120 67 5 2306
122 69 5 2311
124 68 5 2311
126 64 4 2310
128 64 3 2306
130 63 6 2306
132 63 5 2297
134 60 5 2299
136 57 5 2304
138 55 4 2303
140 56 4 2299
142 50 3 2298
144 48 4 2301
146 52 5 2313
148 48 4 2311
150 55 5 2307
152 53 4 2311
154 53 5 2306
156 53 6 2309
158 56 6 2307
160 61 6 2309
162 59 6 2308
164 57 6 2294
166 56 5 2302
168 56 6 2306
170 58 7 2310
172 55 7 2312
174 54 7 2313
176 55 7 2311
178 55 7 2312
180 58 9 2311
182 53 8 2311
184 57 7 2311
186 55 8 2306
188 54 8 2304
190 57 10 2307
192 62 11 2305
194 62 11 2305
196 58 10 2304
198 51 7 2313
200 53 9 2311
202 46 10 2308
204 51 8 2308
206 56 9 2309
208 46 10 2310
210 53 11 2307
212 56 11 2307
214 57 11 2310
216 59 11 2312
218 61 11 2313
220 58 10 2311
222 60 10 2310
224 58 11 2308
226 63 13 2306
228 61 13 2306
230 61 15 2306
232 53 16 2305
234 60 14 2304
236 58 11 2303
238 56 11 2304
240 64 13 2304
242 60 11 2307
244 62 12 2304
246 64 14 2304
248 64 14 2304
250 62 14 2301
252 63 15 2303
254 63 16 2298
256 61 16 2297
258 63 17 2296
260 64 16 2297
262 68 17 2292
264 69 16 2296
266 71 15 2294
268 68 14 2293
270 62 14 2293
272 66 14 2293
274 71 14 2293
276 68 17 2293
278 65 20 2297
280 61 20 2295
282 62 19 2294
284 63 19 2296
286 62 19 2295
288 62 20 2293
290 62 20 2295
292 61 20 2291
294 59 22 2294
296 55 19 2296
298 62 16 2296
300 65 14 2296
