0 80 0 2507
2 74 5 2509
4.00004 71 7 2505
6 70 10 2503
8 69 11 2518
10 67 13 2507
12 66 13 2516
14 67 13 2518
16 67 14 2514
18 66 14 2526
20 66 14 2492
22 66 15 2508
24 66 15 2488
26 65 15 2485
28 67 15 2502
30 67 15 2518
32 66 15 2503
34 68 15 2505
36 67 13 2520
38 73 13 2506
40 75 12 2515
42 77 12 2500
44 77 13 2498
46 77 10 2497
48 77 10 2500
50 80 10 2492
52 82 10 2493
54 85 10 2493
56 85 12 2487
58 83 13 2484
60 80 10 2486
62 76 11 2485
64 81 10 2485
66 83 10 2488
68 78 10 2493
70 71 12 2496
72 74 11 2499
74 79 11 2496
76 78 12 2505
78 73 11 2516
80 72 11 2508
82 77 11 2507
84 75 14 2509
86 74 12 2507
88 68 11 2507
90 68 10 2507
92 74 10 2510
94 72 13 2508
96 76 14 2513
98 73 14 2510
100 71 16 2511
102 76 14 2508
104 76 14 2510
106 76 13 2507
108 77 14 2508
110 75 15 2512
112 68 17 2510
114 67 20 2508
116 65 20 2510
118 70 22 2510
120 69 22 2504
122 65 24 2507
124 60 22 2508
126 59 21 2508
128 60 19 2507
130 59 20 2504
132 61 22 2500
134 61 20 2501
136 56 23 2499
138 60 23 2493
140 54 24 2493
142 56 22 2496
144 55 26 2484
146 55 26 2496
148 54 25 2493
150 50 26 2489
152 45 24 2486
154 51 24 2487
156 53 23 2487
158 49 22 2490
160 48 22 2498
162 45 21 2498
164 45 22 2499
166 44 22 2497
168 47 21 2503
170 50 21 2500
172 51 23 2493
174 49 22 2493
176 54 22 2496
178 54 23 2494
180 51 24 2493
182 51 24 2495
184 52 24 2495
186 51 22 2495
188 53 22 2486
190 53 22 2489
192 53 23 2492
194 54 24 2489
196 56 23 2482
198 60 23 2485
200 60 24 2479
202 60 26 2477
204 58 27 2475
206 57 29 2480
208 59 28 2476
210 57 27 2473
212 58 24 2468
214 54 18 2468
216 56 18 2466
218 55 19 2469
220 56 21 2467
222 56 22 2470
224 58 24 2474
226 59 22 2477
228 60 22 2476
230 59 22 2476
232 58 27 2476
234 56 29 2480
236 57 27 2481
238 57 27 2483
240 56 27 2484
242 57 29 2478
244 56 32 2478
246 63 33 2477
248 64 31 2477
250 63 28 2475
252 67 25 2474
254 65 25 2477
256 67 25 2478
258 65 23 2479
260 63 24 2481
262 62 21 2483
264 64 22 2481
266 60 25 2481
268 61 26 2480
270 62 28 2479
272 60 28 2478
274 59 28 2474
276 57 26 2481
278 57 29 2481
280 58 31 2477
282 56 32 2476
284 58 32 2475
286 58 31 2476
288 57 28 2475
290 56 32 2474
292 54 32 2473
294 55 29 2474
296 57 28 2473
298 57 30 2478
300 57 30 2473
