0 69 0 2399
2 69 0 2381
4.00004 69 0 2398
6 69 0 2378
8 69 0 2326
10 69 0 2322
12 70 0 2336
14 68 0 2324
16 67 0 2334
18 67 0 2342
20 71 0 2351
22 72 0 2342
24 73 0 2342
26 73 0 2346
28 68 0 2342
30 68 1 2344
32 68 1 2326
34 69 1 2338
36 68 2 2339
38 68 2 2339
40 70 1 2343
42 67 1 2343
44 65 1 2359
46 65 1 2366
48 65 1 2388
50 65 1 2364
52 65 1 2355
54 65 1 2367
56 66 1 2368
58 64 4 2359
60 64 7 2368
62 63 7 2361
64 66 7 2355
66 64 7 2372
68 61 7 2368
70 64 8 2362
72 56 7 2353
74 55 7 2348
76 54 8 2349
78 54 6 2332
80 55 8 2338
82 57 9 2343
84 59 10 2342
86 58 10 2345
88 59 10 2343
90 60 12 2340
92 60 12 2337
94 59 10 2339
96 54 11 2339
98 56 12 2333
100 55 12 2336
102 56 13 2342
104 56 13 2346
106 54 13 2345
108 54 11 2354
110 57 11 2346
112 58 10 2343
114 55 9 2345
116 55 10 2344
118 55 11 2345
120 57 11 2335
122 58 11 2346
124 55 9 2346
126 56 9 2357
128 55 10 2347
130 55 10 2347
132 57 11 2340
134 54 11 2340
136 52 12 2351
138 50 10 2361
140 49 12 2361
142 49 12 2369
144 50 12 2371
146 54 10 2370
148 56 11 2375
150 54 10 2362
152 55 13 2370
154 49 10 2372
156 44 11 2372
158 44 13 2372
160 45 15 2362
162 49 14 2363
164 46 14 2373
166 48 15 2380
168 44 12 2385
170 44 12 2385
172 44 13 2385
174 44 13 2383
176 41 12 2386
178 41 12 2388
180 42 10 2384
182 39 11 2385
184 40 12 2379
186 41 11 2380
188 47 11 2383
190 47 11 2383
192 46 12 2387
194 49 15 2390
196 44 14 2390
198 46 13 2391
200 44 12 2395
202 44 13 2391
204 43 13 2396
206 46 15 2387
208 45 16 2394
210 48 20 2387
212 48 22 2375
214 53 21 2370
216 51 22 2370
218 50 23 2369
220 51 23 2358
222 45 24 2354
224 46 24 2353
226 43 26 2357
228 44 26 2349
230 50 26 2353
232 48 27 2346
234 51 28 2349
236 52 26 2349
238 51 25 2350
240 46 29 2347
242 43 29 2352
244 43 29 2353
246 46 28 2358
248 47 27 2361
250 46 26 2362
252 42 26 2366
254 44 24 2364
256 43 26 2353
258 47 28 2350
260 46 31 2360
262 44 30 2360
264 47 33 2346
266 47 32 2342
268 49 34 2335
270 49 35 2339
272 49 31 2343
274 50 30 2338
276 49 30 2341
278 51 31 2341
280 53 31 2336
282 51 28 2342
284 48 26 2333
286 46 24 2342
288 45 27 2343
290 44 28 2329
292 38 25 2335
294 40 24 2335
296 43 23 2333
298 45 26 2329
300 46 28 2337
