0 70 0 2373
2 70 0 2369
4.00004 68 0 2374
6 68 0 2394
8 70 0 2372
10 72 0 2362
12 72 0 2361
14 72 0 2391
16 73 0 2374
18 73 0 2357
20 69 0 2387
22 67 0 2402
24 65 0 2381
26 65 0 2399
28 66 0 2399
30 67 0 2377
32 68 0 2371
34 68 0 2379
36 68 0 2390
38 68 0 2374
40 70 0 2370
42 70 0 2380
44 71 0 2368
46 73 0 2374
48 72 0 2395
50 74 1 2398
52 73 1 2382
54 74 1 2389
56 74 1 2385
58 75 1 2382
60 76 1 2383
62 76 1 2376
64 76 1 2374
66 74 2 2372
68 72 2 2396
70 73 2 2396
72 75 2 2391
74 74 2 2400
76 74 2 2392
78 72 2 2379
80 71 2 2378
82 69 1 2375
84 68 1 2376
86 67 2 2369
88 70 2 2357
90 70 2 2359
92 72 1 2359
94 72 2 2353
96 73 1 2361
98 77 2 2356
100 80 2 2360
102 79 1 2356
104 80 1 2363
106 78 1 2353
108 77 1 2367
110 77 1 2362
112 79 1 2362
114 74 2 2345
116 77 2 2347
118 72 2 2346
120 75 2 2354
122 78 2 2353
124 74 3 2356
126 71 3 2362
128 72 3 2361
130 75 4 2360
132 75 4 2353
134 78 4 2348
136 77 4 2347
138 78 4 2351
140 73 4 2345
142 75 4 2344
144 67 4 2352
146 67 5 2351
148 69 4 2348
150 64 4 2346
152 68 4 2357
154 63 4 2358
156 59 4 2364
158 60 4 2371
160 63 4 2375
162 64 4 2383
164 60 4 2383
166 54 4 2379
168 51 4 2379
170 51 4 2384
172 54 4 2379
174 53 4 2382
176 54 4 2385
178 56 4 2383
180 61 3 2383
182 61 3 2385
184 59 3 2386
186 59 4 2387
188 63 5 2397
190 62 5 2392
192 62 6 2393
194 71 6 2388
196 69 6 2389
198 69 4 2386
200 66 4 2383
202 63 5 2389
204 57 4 2395
206 54 4 2398
208 52 3 2401
210 48 2 2403
212 47 0 2406
214 45 1 2398
216 44 0 2399
218 45 2 2404
220 46 2 2397
222 44 3 2410
224 48 5 2411
226 47 5 2403
228 49 5 2401
230 53 5 2402
232 54 4 2403
234 54 6 2395
236 52 8 2387
238 56 7 2396
240 56 8 2392
242 56 8 2386
244 55 9 2393
246 55 8 2398
248 59 6 2395
250 54 6 2402
252 51 7 2399
254 51 9 2405
256 51 10 2405
258 50 10 2412
260 47 10 2411
262 50 10 2407
264 49 9 2405
266 50 10 2399
268 53 12 2399
270 55 12 2404
272 53 12 2414
274 53 11 2418
276 53 11 2406
278 51 11 2399
280 46 14 2398
282 47 14 2399
284 46 14 2400
286 44 12 2396
288 43 9 2401
290 40 8 2403
292 43 10 2395
294 46 9 2399
296 47 10 2403
298 45 10 2404
300 39 10 2403
