0 67 0 2374
2 66 0 2381
4.00004 66 0 2366
6 66 0 2387
8 66 0 2382
10 68 0 2364
12 67 0 2377
14 68 0 2342
16 71 0 2312
18 70 0 2321
20 71 0 2339
22 73 0 2348
24 70 0 2351
26 68 0 2344
28 68 0 2351
30 66 0 2362
32 73 0 2339
34 70 0 2354
36 74 0 2330
38 73 0 2350
40 73 1 2353
42 74 0 2365
44 73 1 2364
46 74 1 2363
48 77 1 2377
50 77 1 2367
52 75 1 2360
54 71 0 2356
56 69 1 2354
58 69 1 2359
60 70 1 2375
62 63 2 2381
64 71 2 2373
66 71 1 2372
68 69 1 2370
70 69 1 2369
72 71 2 2370
74 71 1 2373
76 75 2 2367
78 80 3 2361
80 82 2 2355
82 84 3 2353
84 85 3 2361
86 85 3 2364
88 89 4 2363
90 88 5 2369
92 87 5 2362
94 86 5 2366
96 86 5 2365
98 89 5 2362
100 90 4 2361
102 86 4 2360
104 82 3 2360
106 78 3 2358
108 73 4 2356
110 71 3 2353
112 70 3 2352
114 66 5 2352
116 69 5 2350
118 72 5 2349
120 71 7 2353
122 63 7 2346
124 63 9 2345
126 61 9 2345
128 60 9 2349
130 62 10 2347
132 63 10 2349
134 61 10 2349
136 65 12 2348
138 61 12 2348
140 62 12 2350
142 60 11 2350
144 59 11 2345
146 61 14 2343
148 60 16 2343
150 58 14 2339
152 59 15 2343
154 54 17 2346
156 54 18 2345
158 57 15 2345
160 64 15 2344
162 60 15 2340
164 62 15 2335
166 65 12 2333
168 63 12 2336
170 60 12 2335
172 57 13 2342
174 58 13 2344
176 56 14 2347
178 59 13 2342
180 60 12 2348
182 58 11 2349
184 55 11 2352
186 55 10 2347
188 60 9 2349
190 64 9 2353
192 62 9 2348
194 65 9 2348
196 61 10 2351
198 59 8 2353
200 56 11 2354
202 52 11 2356
204 52 9 2354
206 52 8 2347
208 53 12 2346
210 55 16 2341
212 53 18 2342
214 53 17 2341
216 53 15 2343
218 52 14 2345
220 45 13 2342
222 53 14 2342
224 55 12 2346
226 57 14 2347
228 57 12 2348
230 57 12 2355
232 57 15 2358
234 57 17 2357
236 55 21 2358
238 54 20 2355
240 54 20 2354
242 55 20 2353
244 56 21 2353
246 56 20 2350
248 50 19 2353
250 48 19 2352
252 52 19 2352
254 49 20 2356
256 49 18 2366
258 48 17 2375
260 50 18 2378
262 49 18 2362
264 49 17 2366
266 52 18 2365
268 56 21 2363
270 62 22 2361
272 59 21 2355
274 60 24 2356
276 58 23 2357
278 57 23 2354
280 60 21 2351
282 57 19 2353
284 56 16 2352
286 56 21 2350
288 54 22 2356
290 55 24 2357
292 53 24 2353
294 59 23 2353
296 57 24 2353
298 59 25 2351
300 61 25 2355
