0 85 0 3086
2 75 10 3084
4.00004 70 15 3085
6 71 16 3054
8 71 16 3059
10 71 16 3058
12 69 18 3039
14 68 18 3023
16 68 18 3020
18 68 17 2998
20 69 18 3011
22 69 18 3023
24 67 20 3017
26 68 20 3012
28 70 20 3004
30 69 21 3022
32 65 24 3029
34 66 24 3032
36 65 25 3032
38 65 25 3046
40 64 25 3067
42 62 25 3066
44 59 25 3061
46 61 25 3063
48 61 25 3056
50 64 25 3061
52 63 25 3054
54 69 25 3039
56 73 23 3037
58 67 21 3029
60 66 19 3034
62 68 19 3034
64 66 20 3032
66 68 18 3029
68 66 18 3030
70 71 18 3033
72 68 21 3035
74 68 22 3035
76 65 22 3035
78 65 21 3039
80 69 23 3038
82 77 22 3039
84 79 23 3039
86 77 23 3040
88 72 27 3038
90 73 26 3035
92 76 28 3033
94 77 29 3032
96 73 32 3029
98 76 32 3027
100 77 32 3027
102 75 33 3026
104 72 33 3028
106 76 32 3026
108 74 31 3027
110 74 31 3031
112 75 31 3029
114 75 31 3033
116 78 32 3034
118 80 32 3032
120 82 33 3026
122 78 33 3034
124 81 32 3035
126 82 29 3035
128 78 30 3040
130 77 32 3040
132 72 32 3039
134 71 34 3035
136 63 33 3035
138 66 33 3041
140 65 31 3040
142 71 32 3040
144 62 31 3040
146 65 31 3044
148 60 30 3043
150 60 30 3040
152 58 31 3038
154 57 29 3037
156 62 29 3031
158 60 31 3035
160 65 29 3035
162 61 29 3035
164 60 29 3035
166 57 31 3034
168 54 31 3035
170 52 31 3035
172 52 32 3034
174 49 30 3034
176 52 32 3032
178 53 31 3026
180 54 33 3024
182 54 33 3025
184 53 34 3025
186 57 37 3021
188 54 35 3021
190 52 33 3019
192 53 36 3018
194 54 36 3016
196 55 36 3017
198 55 35 3016
200 58 34 3011
202 62 39 3010
204 61 39 3013
206 60 41 3012
208 61 41 3013
210 60 43 3013
212 60 43 3012
214 58 43 3017
216 57 40 3019
218 59 37 3018
220 60 38 3019
222 62 38 3015
224 58 37 3013
226 59 41 3012
228 56 41 3006
230 54 43 3006
232 55 42 3006
234 54 44 3009
236 53 46 3011
238 47 50 3009
240 46 50 3005
242 49 49 3005
244 46 51 3004
246 44 51 3005
248 48 50 3007
250 44 46 3006
252 49 47 3007
254 50 46 3009
256 50 43 3009
258 52 39 3008
260 49 40 3009
262 48 41 3007
264 50 39 3009
266 52 40 3006
268 50 41 3003
270 46 45 2999
272 47 45 3000
274 48 45 3003
276 48 44 3000
278 49 45 3005
280 48 44 3006
282 49 42 3009
284 48 43 3008
286 47 42 3010
288 43 47 3008
290 41 44 3001
292 38 43 3002
294 39 44 3001
296 35 40 2999
298 34 41 2998
300 33 41 2996
