0 74 0 2215
2 75 0 2174
4.00004 75 0 2191
6 75 0 2180
8 75 0 2174
10 75 0 2214
12 75 0 2223
14 75 0 2226
16 75 0 2246
18 75 0 2207
20 75 0 2231
22 75 0 2204
24 75 0 2202
26 75 0 2177
28 75 0 2180
30 75 0 2188
32 75 0 2187
34 75 0 2171
36 75 0 2183
38 75 0 2193
40 75 0 2182
42 75 0 2160
44 75 0 2159
46 75 0 2117
48 75 0 2158
50 75 0 2151
52 75 0 2165
54 75 0 2141
56 75 0 2143
58 72 0 2157
60 72 0 2163
62 72 0 2174
64 72 0 2132
66 72 0 2171
68 71 0 2162
70 70 0 2170
72 70 0 2150
74 71 0 2150
76 70 0 2127
78 70 0 2126
80 69 0 2146
82 69 0 2166
84 69 0 2162
86 69 0 2149
88 69 0 2170
90 69 0 2189
92 69 0 2199
94 69 0 2199
96 69 0 2179
98 69 0 2217
100 69 0 2222
102 69 0 2227
104 69 0 2261
106 70 0 2233
108 70 0 2220
110 70 0 2225
112 70 0 2207
114 70 0 2204
116 69 0 2224
118 69 0 2205
120 69 0 2217
122 69 0 2220
124 69 0 2232
126 69 0 2197
128 69 0 2195
130 69 0 2227
132 69 0 2233
134 69 0 2249
136 69 0 2235
138 69 0 2192
140 69 0 2203
142 69 0 2202
144 69 1 2181
146 69 1 2160
148 69 1 2176
150 69 1 2188
152 69 1 2170
154 69 2 2128
156 69 2 2145
158 70 2 2145
160 70 2 2150
162 70 2 2197
164 70 2 2187
166 70 2 2162
168 70 2 2171
170 69 2 2166
172 68 2 2184
174 69 2 2164
176 69 2 2208
178 69 2 2195
180 69 2 2182
182 69 2 2214
184 69 2 2178
186 69 2 2195
188 69 2 2199
190 69 2 2220
192 69 2 2198
194 69 2 2207
196 69 2 2206
198 69 2 2204
200 69 2 2202
202 69 2 2174
204 69 2 2155
206 69 2 2188
208 69 3 2199
210 68 3 2211
212 68 3 2213
214 68 3 2172
216 68 3 2197
218 68 3 2193
220 68 3 2189
222 68 3 2198
224 68 3 2210
226 68 3 2213
228 68 3 2221
230 68 3 2181
232 68 3 2185
234 68 3 2195
236 68 3 2190
238 68 3 2187
240 67 3 2177
242 67 4 2193
244 67 4 2181
246 67 4 2208
248 67 4 2200
250 67 4 2219
252 67 4 2224
254 67 4 2204
256 67 4 2196
258 67 4 2165
260 67 4 2152
262 67 4 2197
264 67 4 2176
266 66 4 2192
268 64 4 2175
270 64 4 2182
272 64 4 2177
274 64 4 2179
276 64 4 2178
278 64 4 2217
280 64 4 2204
282 64 4 2165
284 64 4 2178
286 64 4 2188
288 64 4 2182
290 64 4 2184
292 64 4 2204
294 65 4 2201
296 64 4 2232
298 64 4 2224
300 64 4 2233
