0 85 0 2603
2 84 1 2617
4.00004 85 1 2609
6 83 2 2597
8 83 2 2581
10 83 2 2594
12 86 2 2570
14 87 2 2570
16 87 2 2605
18 87 2 2631
20 88 2 2616
22 88 2 2624
24 88 2 2604
26 89 2 2637
28 89 2 2604
30 89 2 2607
32 89 2 2597
34 88 2 2630
36 88 2 2646
38 84 2 2642
40 83 2 2624
42 83 2 2625
44 83 2 2619
46 82 2 2630
48 82 2 2629
50 81 2 2603
52 80 2 2606
54 80 2 2622
56 80 2 2621
58 78 4 2628
60 78 4 2603
62 78 4 2645
64 78 4 2643
66 78 4 2648
68 77 4 2636
70 77 4 2648
72 76 5 2636
74 76 5 2603
76 79 5 2598
78 81 5 2590
80 82 5 2587
82 78 6 2607
84 80 6 2568
86 80 6 2589
88 80 6 2596
90 80 6 2608
92 80 6 2608
94 80 6 2644
96 81 6 2597
98 81 6 2591
100 81 6 2580
102 82 6 2557
104 82 6 2577
106 84 6 2592
108 84 6 2559
110 82 6 2540
112 81 6 2589
114 84 6 2540
116 84 6 2539
118 83 6 2537
120 81 6 2571
122 81 6 2563
124 81 6 2543
126 81 6 2591
128 81 6 2585
130 81 6 2581
132 82 6 2576
134 82 6 2588
136 82 6 2573
138 82 6 2583
140 81 7 2600
142 81 7 2584
144 81 7 2563
146 81 7 2597
148 81 7 2582
150 81 7 2582
152 81 7 2555
154 81 8 2559
156 81 9 2549
158 81 9 2568
160 81 9 2574
162 81 9 2564
164 81 9 2563
166 81 9 2550
168 81 9 2579
170 81 9 2585
172 80 9 2577
174 81 9 2577
176 81 9 2577
178 81 9 2538
180 81 9 2563
182 81 9 2561
184 82 9 2567
186 82 9 2571
188 82 9 2525
190 81 10 2558
192 82 10 2530
194 82 10 2532
196 82 10 2553
198 82 10 2538
200 82 10 2577
202 82 10 2570
204 81 11 2550
206 80 12 2536
208 80 12 2530
210 80 12 2528
212 80 12 2558
214 81 12 2561
216 80 13 2556
218 80 13 2524
220 80 13 2557
222 80 13 2566
224 82 13 2533
226 81 14 2521
228 82 14 2524
230 82 14 2533
232 82 14 2519
234 81 14 2534
236 81 14 2531
238 81 14 2522
240 80 14 2542
242 81 14 2540
244 79 16 2553
246 79 16 2543
248 79 16 2537
250 79 16 2553
252 79 16 2545
254 79 16 2538
256 79 16 2542
258 79 16 2539
260 79 16 2523
262 79 16 2528
264 79 16 2557
266 79 16 2554
268 78 16 2541
270 78 16 2520
272 78 16 2521
274 76 16 2565
276 79 16 2567
278 80 16 2553
280 80 16 2536
282 80 16 2528
284 80 16 2539
286 82 16 2508
288 81 16 2506
290 81 15 2533
292 82 15 2520
294 82 16 2516
296 82 16 2517
298 81 16 2517
300 83 16 2535
