0 78 0 2541
2 78 0 2522
4.00004 78 0 2519
6 77 0 2500
8 75 0 2535
10 74 0 2526
12 75 0 2512
14 72 0 2510
16 73 0 2529
18 72 0 2538
20 73 0 2537
22 71 0 2547
24 69 0 2525
26 68 0 2533
28 68 0 2543
30 67 0 2532
32 68 1 2539
34 69 3 2539
36 67 2 2538
38 72 2 2540
40 74 3 2544
42 70 5 2546
44 75 6 2546
46 77 6 2546
48 77 9 2549
50 77 9 2548
52 78 9 2549
54 83 10 2549
56 84 10 2550
58 85 9 2552
60 80 8 2551
62 78 7 2550
64 73 6 2549
66 71 5 2549
68 79 11 2549
70 83 11 2550
72 81 14 2549
74 81 13 2549
76 77 14 2547
78 80 16 2548
80 79 14 2549
82 71 16 2551
84 77 14 2552
86 76 11 2553
88 79 13 2549
90 78 15 2549
92 79 16 2546
94 81 15 2546
96 79 15 2547
98 76 18 2546
100 74 18 2546
102 79 17 2547
104 72 15 2550
106 75 13 2550
108 77 15 2550
110 72 14 2551
112 76 14 2552
114 77 16 2552
116 76 17 2552
118 77 17 2552
120 72 17 2552
122 76 18 2554
124 77 18 2559
126 76 18 2559
128 74 17 2559
130 69 17 2558
132 72 18 2559
134 73 20 2559
136 75 21 2562
138 70 19 2562
140 75 19 2557
142 73 17 2557
144 69 22 2555
146 66 20 2558
148 64 20 2556
150 65 20 2556
152 61 18 2556
154 61 16 2556
156 65 17 2556
158 64 20 2556
160 66 21 2557
162 63 22 2557
164 68 23 2557
166 71 24 2558
168 70 23 2557
170 66 22 2559
172 68 24 2558
174 63 24 2558
176 63 25 2558
178 59 24 2560
180 59 23 2560
182 57 22 2560
184 60 24 2560
186 61 24 2559
188 63 23 2559
190 68 25 2559
192 67 24 2564
194 64 22 2562
196 64 20 2560
198 66 23 2561
200 63 22 2560
202 59 21 2565
204 60 20 2563
206 61 22 2564
208 60 20 2564
210 62 21 2565
212 59 23 2564
214 62 25 2562
216 64 22 2556
218 63 26 2556
220 59 26 2556
222 54 26 2556
224 52 26 2559
226 57 26 2557
228 61 25 2556
230 56 24 2559
232 54 23 2559
234 51 23 2558
236 45 23 2559
238 45 25 2557
240 46 19 2556
242 43 20 2555
244 45 19 2557
246 46 19 2557
248 41 18 2556
250 42 17 2556
252 43 19 2553
254 39 18 2555
256 39 18 2553
258 39 21 2553
260 42 23 2553
262 39 21 2554
264 45 22 2554
266 51 23 2555
268 48 23 2553
270 50 26 2555
272 47 25 2556
274 49 25 2555
276 55 25 2554
278 59 24 2555
280 54 25 2555
282 53 27 2555
284 51 23 2555
286 50 26 2553
288 45 28 2553
290 44 25 2553
292 44 25 2553
294 46 22 2552
296 44 22 2552
298 47 22 2549
300 48 25 2549
