0 64 0 2323
2 64 0 2313
4.00004 64 0 2336
6 64 0 2320
8 64 0 2313
10 62 0 2291
12 62 0 2322
14 62 0 2333
16 62 0 2332
18 62 0 2319
20 62 0 2338
22 62 0 2308
24 62 0 2310
26 63 0 2299
28 63 0 2325
30 63 0 2308
32 63 0 2306
34 64 0 2293
36 65 0 2325
38 65 0 2316
40 63 0 2325
42 59 0 2322
44 59 0 2327
46 59 0 2356
48 59 0 2372
50 59 0 2334
52 59 0 2331
54 59 0 2352
56 59 0 2360
58 59 0 2346
60 59 0 2307
62 58 0 2326
64 59 1 2317
66 61 1 2316
68 61 1 2330
70 60 1 2324
72 57 1 2349
74 56 1 2376
76 57 1 2341
78 58 1 2340
80 59 1 2325
82 60 2 2320
84 54 2 2307
86 53 3 2290
88 53 3 2308
90 52 3 2302
92 53 3 2302
94 56 3 2286
96 57 3 2304
98 59 4 2312
100 56 5 2314
102 54 4 2346
104 52 5 2338
106 54 5 2331
108 52 5 2331
110 56 6 2315
112 54 6 2326
114 52 7 2331
116 50 8 2329
118 52 7 2323
120 55 7 2322
122 51 6 2339
124 53 6 2341
126 51 8 2336
128 54 8 2339
130 51 8 2342
132 54 7 2344
134 55 7 2344
136 52 7 2347
138 54 7 2350
140 52 8 2349
142 55 8 2351
144 52 8 2352
146 53 10 2346
148 51 9 2341
150 49 8 2338
152 46 10 2337
154 48 10 2341
156 51 11 2341
158 54 12 2344
160 55 11 2343
162 51 11 2345
164 47 12 2344
166 48 14 2344
168 43 15 2347
170 45 15 2342
172 42 13 2338
174 44 15 2354
176 47 14 2353
178 48 16 2355
180 46 16 2358
182 47 15 2326
184 49 15 2313
186 49 16 2325
188 56 17 2318
190 58 17 2318
192 60 17 2316
194 59 19 2329
196 58 18 2321
198 56 18 2321
200 52 16 2324
202 53 16 2321
204 54 16 2324
206 59 16 2311
208 56 15 2326
210 58 15 2328
212 61 16 2332
214 61 17 2330
216 63 15 2329
218 61 14 2329
220 62 16 2328
222 62 17 2329
224 65 19 2324
226 63 22 2322
228 60 20 2322
230 62 19 2328
232 58 19 2330
234 61 20 2328
236 62 16 2325
238 58 16 2326
240 56 17 2322
242 59 14 2324
244 57 16 2328
246 60 18 2324
248 57 18 2326
250 56 18 2330
252 54 19 2334
254 60 19 2334
256 60 19 2336
258 61 18 2335
260 61 19 2339
262 58 19 2337
264 58 18 2335
266 53 15 2337
268 51 18 2339
270 49 21 2337
272 47 20 2339
274 49 21 2341
276 48 16 2341
278 43 17 2339
280 42 18 2341
282 42 17 2340
284 40 15 2338
286 40 15 2339
288 35 13 2338
290 33 14 2342
292 35 12 2338
294 39 12 2339
296 40 12 2336
298 38 12 2338
300 35 13 2337
