0 83 0 2626
2 77 7 2619
4.00004 77 7 2634
6 77 7 2613
8 76 8 2618
10 74 8 2636
12 75 8 2623
14 74 8 2658
16 71 8 2688
18 72 8 2679
20 71 8 2661
22 67 10 2652
24 70 10 2649
26 72 10 2656
28 72 10 2649
30 74 10 2638
32 67 10 2661
34 69 11 2646
36 65 11 2670
38 66 11 2650
40 66 10 2647
42 65 11 2635
44 66 10 2636
46 65 10 2637
48 62 10 2623
50 62 10 2633
52 63 11 2640
54 67 12 2644
56 69 11 2646
58 69 11 2641
60 67 12 2625
62 74 11 2619
64 65 12 2627
66 63 15 2628
68 65 15 2630
70 65 15 2631
72 63 14 2630
74 62 16 2627
76 56 17 2633
78 47 20 2639
80 43 23 2645
82 39 24 2647
84 38 24 2639
86 37 25 2636
88 33 24 2637
90 34 23 2631
92 35 23 2638
94 36 23 2634
96 36 23 2635
98 32 24 2638
100 29 27 2639
102 31 29 2640
104 35 30 2640
106 39 30 2642
108 44 29 2644
110 46 30 2647
112 46 31 2648
114 50 29 2648
116 47 29 2650
118 44 29 2651
120 45 27 2647
122 53 27 2654
124 53 25 2655
126 55 25 2655
128 56 25 2651
130 54 24 2653
132 52 25 2651
134 54 25 2651
136 49 24 2652
138 53 24 2652
140 52 24 2650
142 54 25 2650
144 54 26 2655
146 49 26 2657
148 50 24 2657
150 52 26 2661
152 50 26 2657
154 55 24 2654
156 55 23 2655
158 52 26 2655
160 45 26 2656
162 49 26 2660
164 47 26 2665
166 44 29 2667
168 46 29 2664
170 49 29 2665
172 51 29 2658
174 50 29 2656
176 52 28 2653
178 49 29 2658
180 48 30 2652
182 50 31 2651
184 53 31 2648
186 53 32 2653
188 48 33 2651
190 44 33 2647
192 46 33 2652
194 43 33 2652
196 47 32 2649
198 48 35 2647
200 51 32 2646
202 55 32 2644
204 55 34 2646
206 55 35 2653
208 54 31 2654
210 52 27 2659
212 54 25 2658
214 54 26 2659
216 54 28 2657
218 55 29 2655
220 62 30 2658
222 54 29 2658
224 52 31 2654
226 50 29 2653
228 50 31 2652
230 50 31 2645
232 48 30 2642
234 48 28 2643
236 50 24 2642
238 51 25 2645
240 51 25 2646
242 50 25 2647
244 48 25 2647
246 48 26 2650
248 54 27 2647
250 56 27 2648
252 51 28 2648
254 54 27 2644
256 53 30 2634
258 54 31 2625
260 52 30 2622
262 51 32 2638
264 50 34 2634
266 47 33 2635
268 43 30 2637
270 37 29 2639
272 40 30 2645
274 39 27 2644
276 41 28 2643
278 42 28 2646
280 39 30 2649
282 42 32 2647
284 43 35 2648
286 43 30 2650
288 45 29 2644
290 44 27 2643
292 46 27 2647
294 40 28 2647
296 42 27 2647
298 40 26 2649
300 38 26 2645
