0 82 0 3050
2 75 6 3053
4.00004 75 6 3073
6 76 6 3020
8 75 6 3033
10 76 6 3034
12 74 6 3051
14 74 6 3050
16 75 6 3041
18 73 6 3042
20 70 6 3039
22 70 6 3028
24 70 6 3014
26 70 6 3031
28 72 6 3051
30 72 6 3063
32 74 6 3067
34 74 6 3064
36 70 6 3079
38 76 6 3085
40 76 6 3084
42 80 7 3086
44 85 8 3087
46 81 8 3087
48 79 8 3087
50 79 8 3087
52 81 8 3091
54 79 8 3090
56 83 8 3094
58 82 8 3093
60 87 8 3096
62 82 8 3097
64 83 8 3096
66 74 8 3096
68 68 8 3095
70 70 8 3092
72 69 8 3092
74 69 8 3089
76 74 8 3094
78 76 8 3094
80 78 8 3092
82 76 8 3095
84 77 8 3096
86 84 8 3096
88 83 8 3097
90 82 8 3097
92 78 8 3097
94 78 8 3096
96 78 8 3095
98 76 8 3095
100 85 8 3094
102 89 9 3095
104 90 9 3095
106 92 9 3096
108 91 9 3100
110 87 9 3102
112 78 9 3102
114 83 9 3102
116 89 9 3102
118 90 10 3102
120 86 10 3102
122 94 10 3102
124 93 10 3099
126 97 10 3100
128 96 10 3109
130 94 10 3101
132 92 10 3102
134 93 10 3104
136 94 10 3104
138 94 10 3105
140 93 10 3103
142 94 10 3105
144 92 10 3103
146 91 10 3103
148 88 10 3101
150 90 10 3103
152 89 10 3102
154 85 10 3100
156 82 10 3101
158 87 10 3101
160 89 10 3101
162 92 10 3102
164 94 10 3103
166 91 10 3104
168 93 10 3106
170 94 10 3105
172 88 10 3106
174 86 10 3105
176 87 10 3108
178 81 10 3108
180 81 10 3108
182 78 10 3109
184 81 10 3109
186 84 10 3110
188 80 11 3110
190 82 11 3112
192 83 11 3111
194 83 11 3109
196 80 11 3109
198 82 11 3108
200 81 11 3108
202 76 11 3105
204 83 11 3105
206 80 11 3104
208 79 11 3105
210 86 11 3103
212 92 11 3102
214 91 11 3101
216 91 11 3101
218 86 11 3101
220 88 11 3101
222 97 11 3099
224 96 12 3098
226 97 12 3099
228 92 12 3101
230 87 12 3100
232 85 12 3102
234 80 12 3102
236 84 12 3102
238 82 12 3102
240 85 12 3102
242 82 12 3102
244 79 12 3100
246 84 12 3101
248 85 12 3099
250 84 12 3098
252 92 12 3097
254 91 12 3098
256 91 12 3097
258 87 12 3092
260 85 12 3091
262 76 12 3091
264 79 12 3092
266 80 12 3090
268 74 12 3090
270 79 12 3090
272 84 12 3090
274 88 12 3090
276 83 12 3087
278 88 12 3087
280 87 12 3088
282 89 12 3086
284 88 12 3078
286 86 12 3081
288 84 12 3081
290 84 12 3079
292 82 12 3078
294 78 12 3080
296 73 12 3080
298 79 12 3080
300 82 12 3080
