0 85 0 2761
2 79 6 2787
4.00004 79 6 2772
6 79 6 2755
8 78 7 2724
10 76 9 2747
12 78 9 2737
14 71 10 2745
16 71 11 2741
18 71 12 2752
20 66 14 2756
22 67 14 2750
24 66 14 2745
26 69 15 2742
28 68 17 2718
30 71 18 2738
32 70 18 2739
34 69 17 2735
36 65 18 2740
38 66 20 2737
40 49 34 2745
42 48 37 2745
44 43 41 2745
46 39 41 2748
48 31 44 2749
50 30 45 2755
52 27 46 2755
54 31 46 2756
56 31 47 2758
58 32 47 2759
60 37 47 2764
62 34 47 2771
64 36 47 2776
66 38 47 2787
68 33 47 2789
70 33 47 2789
72 35 47 2800
74 37 48 2794
76 38 48 2789
78 41 48 2786
80 37 48 2792
82 37 48 2783
84 30 49 2783
86 35 49 2780
88 34 49 2778
90 31 52 2791
92 32 52 2789
94 32 53 2790
96 31 52 2789
98 35 52 2792
100 31 51 2794
102 30 52 2779
104 31 53 2778
106 27 54 2775
108 25 53 2780
110 24 52 2782
112 23 51 2783
114 27 53 2789
116 23 50 2785
118 26 50 2789
120 26 50 2792
122 26 52 2795
124 26 53 2796
126 24 53 2807
128 21 53 2819
130 24 53 2807
132 27 56 2807
134 22 56 2811
136 20 55 2812
138 20 54 2809
140 18 54 2800
142 18 54 2799
144 22 54 2798
146 27 52 2799
148 34 53 2802
150 29 53 2801
152 21 52 2795
154 26 52 2797
156 22 53 2799
158 25 53 2801
160 26 55 2798
162 26 55 2798
164 27 54 2788
166 24 55 2780
168 25 55 2776
170 23 55 2779
172 27 55 2778
174 28 56 2779
176 32 55 2783
178 34 55 2791
180 32 55 2795
182 31 54 2800
184 27 54 2806
186 28 55 2790
188 27 55 2787
190 28 54 2793
192 30 55 2796
194 31 55 2799
196 31 54 2793
198 25 55 2794
200 23 56 2793
202 28 56 2787
204 27 56 2789
206 26 56 2790
208 28 55 2789
210 31 57 2783
212 29 57 2779
214 30 58 2774
216 29 57 2774
218 34 58 2775
220 32 55 2778
222 29 55 2766
224 30 57 2769
226 27 59 2770
228 31 60 2773
230 26 59 2776
232 31 59 2776
234 27 61 2776
236 29 59 2777
238 34 59 2776
240 37 59 2777
242 33 60 2778
244 34 59 2779
246 38 60 2770
248 39 60 2770
250 42 60 2770
252 33 59 2770
254 35 58 2769
256 38 58 2764
258 35 58 2763
260 35 56 2763
262 39 58 2759
264 38 56 2769
266 38 57 2770
268 38 57 2769
270 40 58 2771
272 37 57 2767
274 36 58 2765
276 39 61 2766
278 39 61 2768
280 37 61 2767
282 38 62 2765
284 40 62 2767
286 35 62 2764
288 32 59 2765
290 34 61 2763
292 34 61 2763
294 33 62 2762
296 38 64 2762
298 40 64 2760
300 38 64 2758
