0 83 0 2334
2 77 5 2340
4.00004 76 6 2323
6 76 6 2329
8 77 6 2346
10 73 10 2318
12 73 10 2294
14 72 11 2294
16 71 12 2284
18 69 13 2284
20 69 13 2286
22 69 13 2269
24 69 13 2274
26 68 14 2255
28 68 15 2250
30 66 17 2263
32 65 18 2294
34 64 19 2279
36 63 20 2272
38 63 20 2299
40 63 20 2291
42 58 25 2295
44 56 27 2288
46 54 30 2282
48 51 32 2274
50 51 33 2279
52 46 36 2277
54 45 37 2288
56 45 37 2259
58 45 37 2237
60 47 37 2234
62 48 37 2241
64 47 38 2221
66 46 39 2223
68 45 39 2226
70 46 39 2206
72 45 39 2210
74 42 39 2209
76 44 38 2218
78 40 38 2221
80 43 38 2246
82 42 37 2244
84 40 37 2235
86 39 36 2254
88 39 36 2254
90 39 36 2281
92 37 36 2273
94 35 35 2278
96 36 36 2263
98 38 36 2252
100 38 36 2262
102 37 37 2238
104 37 37 2221
106 37 35 2229
108 36 36 2234
110 35 35 2228
112 34 37 2228
114 34 39 2230
116 37 40 2245
118 35 38 2264
120 35 38 2251
122 35 38 2258
124 38 37 2264
126 37 38 2261
128 35 35 2251
130 33 36 2235
132 32 35 2238
134 31 36 2257
136 33 34 2251
138 31 36 2241
140 30 37 2257
142 30 40 2252
144 28 39 2250
146 29 40 2245
148 30 39 2227
150 27 37 2226
152 28 37 2246
154 29 38 2245
156 29 40 2245
158 31 41 2248
160 32 41 2244
162 32 40 2249
164 36 41 2252
166 40 39 2250
168 41 41 2241
170 41 42 2250
172 42 43 2255
174 43 43 2262
176 43 41 2265
178 43 40 2251
180 44 36 2251
182 43 37 2248
184 41 38 2255
186 41 39 2254
188 44 39 2253
190 46 40 2259
192 47 38 2270
194 46 38 2272
196 46 35 2275
198 42 32 2286
200 46 31 2286
202 45 32 2292
204 45 35 2284
206 44 34 2302
208 39 35 2293
210 41 35 2292
212 42 34 2292
214 43 36 2300
216 46 37 2291
218 47 39 2290
220 48 40 2279
222 51 41 2277
224 51 43 2283
226 47 41 2285
228 48 40 2293
230 50 40 2292
232 49 41 2295
234 46 40 2298
236 46 39 2291
238 49 40 2295
240 45 40 2296
242 47 39 2289
244 47 36 2301
246 48 36 2310
248 51 38 2291
250 50 39 2276
252 50 37 2281
254 50 35 2282
256 48 34 2281
258 45 36 2294
260 44 37 2297
262 43 35 2294
264 46 36 2292
266 48 36 2294
268 46 36 2296
270 42 33 2291
272 38 38 2293
274 41 38 2292
276 44 40 2293
278 44 40 2292
280 42 39 2295
282 43 39 2292
284 42 40 2288
286 40 38 2289
288 41 36 2292
290 43 37 2275
292 43 35 2278
294 43 36 2278
296 43 39 2279
298 42 41 2275
300 43 39 2269
