0 73 0 2777
2 63 9 2807
4.00004 63 11 2810
6 58 16 2782
8 53 20 2806
10 51 22 2823
12 51 22 2798
14 48 25 2806
16 45 28 2821
18 44 29 2836
20 41 30 2812
22 43 30 2827
24 43 30 2809
26 45 30 2847
28 46 30 2842
30 46 30 2839
32 40 31 2876
34 38 31 2860
36 36 33 2875
38 36 33 2842
40 35 34 2845
42 37 34 2862
44 34 33 2872
46 34 34 2875
48 34 34 2858
50 33 32 2882
52 36 34 2878
54 38 33 2862
56 38 34 2858
58 40 34 2858
60 43 31 2855
62 39 32 2858
64 36 32 2885
66 37 31 2895
68 42 30 2898
70 39 31 2894
72 37 33 2892
74 38 32 2875
76 36 32 2878
78 36 31 2876
80 36 31 2883
82 34 31 2876
84 33 33 2889
86 33 34 2887
88 35 37 2893
90 32 38 2897
92 33 37 2888
94 32 36 2881
96 33 37 2883
98 30 40 2879
100 29 40 2872
102 28 40 2876
104 27 38 2885
106 28 37 2872
108 28 38 2883
110 27 39 2899
112 30 39 2892
114 30 39 2900
116 29 38 2897
118 27 38 2908
120 26 37 2910
122 27 35 2908
124 24 34 2921
126 25 34 2926
128 28 34 2944
130 24 34 2946
132 24 34 2939
134 25 35 2926
136 25 36 2923
138 24 37 2939
140 25 37 2918
142 27 37 2922
144 23 37 2945
146 23 37 2941
148 22 38 2939
150 20 39 2941
152 18 39 2942
154 22 35 2944
156 21 36 2939
158 22 35 2943
160 26 35 2942
162 26 36 2946
164 25 34 2931
166 27 35 2938
168 25 33 2938
170 23 34 2946
172 22 35 2935
174 19 36 2942
176 19 34 2946
178 20 37 2936
180 23 36 2942
182 24 37 2937
184 22 38 2942
186 19 40 2942
188 17 41 2945
190 19 40 2931
192 17 41 2928
194 20 43 2928
196 16 43 2927
198 15 40 2928
200 19 42 2929
202 23 40 2930
204 21 39 2929
206 22 40 2925
208 25 40 2926
210 22 39 2935
212 22 37 2941
214 23 35 2941
216 25 37 2938
218 25 37 2939
220 24 38 2934
222 22 40 2927
224 24 39 2934
226 25 40 2933
228 24 41 2931
230 23 43 2930
232 21 43 2930
234 20 41 2918
236 19 41 2926
238 19 39 2924
240 17 42 2926
242 15 42 2922
244 12 38 2931
246 11 36 2931
248 11 36 2932
250 14 38 2932
252 15 38 2933
254 17 39 2935
256 17 40 2931
258 17 38 2930
260 18 38 2933
262 18 38 2934
264 20 36 2935
266 19 37 2933
268 20 39 2923
270 18 40 2933
272 22 38 2936
274 18 38 2939
276 21 38 2938
278 20 39 2936
280 19 37 2938
282 17 39 2938
284 22 37 2936
286 25 38 2937
288 26 38 2937
290 24 38 2938
292 28 36 2937
294 32 36 2934
296 30 35 2928
298 32 33 2931
300 34 34 2930
