0 58 0 1938
2 59 0 1928
4.00004 59 0 1929
6 60 0 1929
8 61 0 1928
10 58 0 1936
12 58 0 1949
14 58 0 1931
16 58 0 1936
18 56 0 1936
20 55 0 1936
22 54 0 1971
24 54 0 1971
26 54 0 1988
28 54 0 1994
30 49 0 1994
32 50 0 2001
34 50 0 1996
36 47 0 1998
38 49 0 1997
40 51 1 2009
42 54 0 2009
44 51 0 2006
46 56 0 2007
48 56 1 2006
50 53 1 2004
52 49 1 1997
54 48 0 1997
56 47 3 2005
58 48 2 2003
60 50 2 2001
62 49 4 2003
64 47 5 2004
66 40 5 2010
68 39 4 2008
70 44 4 2008
72 45 5 2007
74 44 5 2008
76 44 5 2006
78 41 5 2008
80 44 5 2007
82 47 5 2009
84 46 5 2009
86 44 6 2012
88 43 5 2008
90 47 6 2006
92 46 8 2010
94 44 6 2010
96 46 7 2004
98 45 10 2004
100 43 9 2007
102 42 11 2010
104 42 10 2010
106 36 9 2013
108 38 10 2013
110 45 12 2012
112 48 10 2011
114 50 11 2013
116 54 15 2014
118 53 13 2017
120 51 13 2017
122 54 15 2015
124 52 15 2014
126 50 15 2013
128 47 13 2014
130 43 14 2015
132 39 15 2016
134 37 14 2020
136 37 16 2018
138 40 16 2020
140 42 14 2022
142 46 15 2020
144 45 12 2022
146 43 12 2023
148 42 14 2019
150 42 15 2018
152 42 14 2018
154 39 16 2019
156 40 16 2020
158 37 17 2019
160 37 18 2017
162 35 17 2016
164 38 16 2014
166 38 22 2014
168 35 22 2009
170 39 23 2010
172 37 22 2013
174 38 26 2007
176 39 23 2007
178 38 25 2006
180 38 24 2006
182 36 21 2003
184 35 22 2003
186 39 21 2002
188 40 21 2005
190 37 21 2002
192 39 18 2004
194 40 19 2005
196 39 22 2002
198 37 23 2002
200 39 25 2001
202 40 26 2000
204 38 22 2002
206 41 23 2002
208 37 25 2002
210 33 24 2003
212 34 24 2003
214 37 22 1997
216 32 21 1995
218 31 21 1998
220 25 22 1996
222 27 25 1997
224 28 24 1999
226 27 23 1999
228 26 26 2000
230 24 27 1999
232 21 24 1997
234 24 28 1997
236 25 29 1998
238 24 26 1997
240 24 26 2000
242 25 24 1999
244 23 26 1997
246 19 27 1996
248 21 29 1996
250 24 30 1995
252 23 30 1992
254 23 32 1991
256 20 30 1993
258 22 29 1992
260 22 29 1991
262 23 29 1995
264 20 31 1995
266 20 34 1996
268 23 32 1999
270 24 30 2002
272 26 28 2004
274 29 31 2001
276 26 32 2001
278 27 32 2001
280 27 34 1999
282 27 32 2000
284 26 32 2003
286 29 36 2004
288 30 34 2003
290 32 34 2008
292 33 35 2007
294 34 33 2009
296 34 25 2008
298 32 25 2005
300 33 27 2006
