0 76 0 2508
2 69 6 2503
4.00004 68 6 2499
6 68 6 2493
8 69 6 2517
10 70 6 2529
12 70 6 2535
14 69 7 2529
16 67 8 2537
18 66 8 2537
20 65 8 2537
22 66 8 2552
24 65 8 2532
26 66 8 2545
28 69 8 2536
30 69 8 2503
32 70 8 2534
34 68 9 2565
36 70 10 2549
38 66 11 2526
40 65 11 2509
42 64 11 2503
44 63 11 2512
46 62 11 2527
48 61 11 2534
50 61 11 2524
52 59 12 2527
54 63 12 2494
56 64 12 2495
58 63 12 2490
60 63 13 2494
62 63 13 2485
64 62 13 2494
66 62 13 2495
68 61 13 2505
70 61 13 2512
72 59 13 2481
74 58 13 2510
76 62 13 2513
78 62 13 2534
80 60 13 2536
82 60 14 2538
84 59 14 2544
86 53 14 2531
88 52 14 2551
90 55 14 2576
92 55 14 2591
94 52 15 2572
96 55 15 2572
98 51 16 2586
100 50 16 2578
102 50 16 2566
104 50 16 2543
106 50 16 2552
108 51 16 2566
110 51 17 2545
112 50 17 2542
114 50 17 2542
116 50 17 2541
118 50 17 2550
120 50 17 2567
122 49 18 2574
124 46 20 2571
126 46 20 2544
128 45 21 2576
130 45 21 2549
132 45 21 2531
134 45 21 2527
136 43 21 2526
138 43 21 2529
140 43 21 2555
142 43 21 2560
144 42 21 2555
146 44 21 2531
148 43 21 2555
150 44 21 2555
152 44 21 2564
154 44 21 2516
156 43 21 2529
158 42 21 2521
160 42 21 2524
162 41 21 2536
164 39 22 2538
166 41 22 2538
168 42 22 2557
170 41 22 2549
172 43 23 2525
174 43 23 2542
176 45 23 2533
178 39 23 2533
180 45 23 2542
182 47 23 2525
184 48 23 2521
186 50 23 2504
188 49 23 2514
190 44 23 2519
192 49 23 2525
194 52 23 2514
196 52 23 2509
198 55 23 2504
200 53 23 2519
202 53 23 2517
204 50 24 2518
206 49 24 2525
208 47 24 2528
210 51 24 2534
212 52 24 2537
214 56 23 2549
216 57 23 2535
218 57 23 2557
220 56 23 2552
222 57 23 2575
224 56 25 2566
226 54 25 2583
228 54 25 2564
230 52 25 2572
232 52 25 2565
234 53 25 2561
236 55 26 2552
238 54 26 2556
240 53 26 2563
242 54 26 2550
244 54 26 2574
246 52 26 2568
248 51 25 2561
250 47 25 2545
252 49 25 2547
254 45 25 2546
256 43 26 2540
258 42 26 2550
260 41 26 2557
262 40 26 2550
264 44 27 2556
266 46 26 2534
268 43 26 2535
270 44 27 2527
272 47 27 2537
274 45 27 2552
276 46 26 2547
278 44 25 2549
280 42 25 2549
282 39 26 2546
284 45 26 2548
286 49 26 2550
288 46 26 2555
290 45 26 2552
292 44 26 2551
294 44 26 2548
296 44 26 2549
298 46 25 2551
300 44 25 2551
