0 92 0 2919
2 85 7 2911
4.00004 65 26 2897
6 63 29 2883
8 61 31 2881
10 59 33 2876
12 56 35 2845
14 56 35 2815
16 57 36 2830
18 56 36 2844
20 57 34 2847
22 57 33 2840
24 57 32 2821
26 57 35 2826
28 60 35 2809
30 60 33 2824
32 59 34 2820
34 61 34 2817
36 61 32 2832
38 58 33 2824
40 59 34 2825
42 57 33 2814
44 57 29 2807
46 56 28 2805
48 55 30 2806
50 56 29 2812
52 54 27 2818
54 54 32 2810
56 51 32 2822
58 51 31 2815
60 49 29 2821
62 46 27 2831
64 46 26 2831
66 44 27 2827
68 45 27 2829
70 45 31 2826
72 48 30 2809
74 47 29 2828
76 48 31 2828
78 49 33 2824
80 50 32 2829
82 51 33 2825
84 49 40 2820
86 49 37 2824
88 45 38 2837
90 47 38 2847
92 46 38 2852
94 46 36 2848
96 41 39 2852
98 41 40 2854
100 37 40 2861
102 37 39 2860
104 39 39 2860
106 37 39 2865
108 36 38 2863
110 37 38 2861
112 35 36 2864
114 36 34 2863
116 35 35 2863
118 36 34 2862
120 33 35 2867
122 34 35 2863
124 35 39 2864
126 36 38 2864
128 37 39 2872
130 39 41 2876
132 34 44 2870
134 35 44 2875
136 30 45 2875
138 34 45 2873
140 37 44 2869
142 33 46 2871
144 36 48 2876
146 35 48 2875
148 34 48 2878
150 31 49 2878
152 35 49 2879
154 33 48 2878
156 31 51 2880
158 34 51 2881
160 35 52 2886
162 37 51 2888
164 38 48 2888
166 39 45 2885
168 39 49 2886
170 35 47 2885
172 35 49 2888
174 29 49 2891
176 31 47 2890
178 32 44 2886
180 33 45 2881
182 37 50 2877
184 35 52 2876
186 38 48 2880
188 39 49 2878
190 38 50 2876
192 41 48 2876
194 41 47 2876
196 38 50 2880
198 39 50 2872
200 42 53 2871
202 42 52 2871
204 44 52 2869
206 41 54 2869
208 39 53 2870
210 41 52 2872
212 42 54 2872
214 42 56 2872
216 42 55 2872
218 43 55 2871
220 47 53 2867
222 49 49 2868
224 48 50 2862
226 44 51 2866
228 44 48 2866
230 46 48 2866
232 45 47 2868
234 42 50 2864
236 41 50 2864
238 42 51 2862
240 45 52 2862
242 43 48 2862
244 46 49 2858
246 43 45 2855
248 41 47 2856
250 41 50 2849
252 43 51 2848
254 43 51 2852
256 41 52 2853
258 41 53 2851
260 39 56 2847
262 38 57 2846
264 38 59 2849
266 39 59 2846
268 39 56 2842
270 39 56 2836
272 41 58 2832
274 40 57 2839
276 38 58 2839
278 39 56 2837
280 40 55 2841
282 39 56 2840
284 39 55 2836
286 38 55 2829
288 40 55 2833
290 38 55 2835
292 41 57 2834
294 34 53 2836
296 32 52 2834
298 35 50 2834
300 38 50 2831
