0 55 0 1967
2 55 0 1994
4.00004 56 0 1990
6 54 0 2004
8 54 0 2020
10 54 0 2016
12 54 0 2005
14 54 0 1999
16 54 0 1985
18 54 0 1997
20 54 0 1974
22 54 0 1974
24 53 0 1978
26 53 0 1969
28 52 0 1984
30 52 0 1990
32 51 0 1986
34 50 0 2005
36 54 0 1991
38 56 0 1961
40 54 0 1958
42 52 0 1962
44 49 0 1964
46 52 0 1961
48 51 0 1961
50 51 0 1963
52 47 0 1964
54 45 0 1970
56 49 0 1967
58 50 0 1974
60 50 0 1966
62 51 0 1977
64 58 0 1974
66 56 0 1971
68 55 0 1970
70 57 0 1975
72 54 0 1974
74 55 0 1983
76 52 0 1980
78 52 0 1981
80 54 0 1980
82 53 0 1979
84 53 2 1974
86 51 2 1973
88 53 3 1973
90 50 3 1977
92 51 2 1978
94 44 2 1978
96 50 2 1973
98 54 2 1971
100 53 3 1976
102 56 3 1974
104 51 3 1975
106 53 3 1977
108 59 2 1976
110 61 2 1976
112 62 2 1977
114 61 2 1982
116 62 2 1979
118 61 3 1978
120 55 3 1978
122 58 3 1980
124 51 2 1979
126 45 2 1981
128 48 2 1981
130 47 3 1984
132 49 3 1983
134 54 3 1982
136 56 3 1986
138 56 3 1988
140 58 3 1987
142 59 3 1987
144 55 2 1991
146 48 2 1994
148 48 2 1993
150 52 2 1987
152 56 2 1983
154 54 2 1984
156 49 1 1986
158 51 2 1986
160 54 1 1987
162 48 2 1987
164 46 2 1989
166 46 2 1995
168 47 2 1995
170 45 2 1998
172 44 2 1997
174 41 2 2004
176 37 1 2004
178 33 2 1999
180 31 1 2000
182 29 2 2000
184 36 2 1999
186 39 2 2004
188 38 2 2003
190 41 1 2000
192 36 1 2003
194 40 0 2006
196 38 1 2004
198 38 1 2004
200 34 1 1997
202 36 1 1999
204 36 2 1999
206 28 2 1995
208 30 2 1996
210 35 3 1995
212 34 3 1994
214 36 3 1993
216 39 3 1991
218 38 2 1991
220 41 2 1987
222 45 3 1986
224 48 4 1985
226 52 4 1985
228 49 4 1987
230 44 3 1988
232 43 4 1988
234 42 1 1992
236 40 3 1994
238 39 1 1994
240 45 1 1993
242 48 1 1995
244 41 1 2000
246 36 2 2002
248 32 2 2004
250 33 2 2001
252 35 2 2001
254 35 2 2001
256 30 1 1996
258 37 2 1998
260 39 2 1998
262 40 2 1999
264 38 3 2000
266 38 2 2000
268 37 2 2001
270 34 2 2001
272 38 2 2002
274 35 2 2003
276 35 1 1996
278 35 1 2000
280 39 1 1995
282 41 2 1992
284 47 2 1993
286 49 2 1988
288 46 2 1989
290 51 2 1989
292 47 3 1989
294 46 3 2001
296 45 2 2002
298 41 2 2000
300 36 2 2001
