0 65 0 2511
2 62 0 2493
4.00004 61 0 2527
6 60 0 2538
8 60 0 2527
10 59 0 2536
12 60 0 2532
14 60 0 2555
16 60 0 2560
18 60 0 2562
20 59 0 2582
22 59 0 2592
24 59 0 2557
26 59 0 2567
28 58 0 2565
30 58 0 2559
32 59 0 2561
34 59 0 2567
36 61 0 2543
38 61 0 2546
40 60 0 2530
42 57 0 2549
44 59 0 2564
46 61 0 2544
48 61 0 2553
50 57 0 2588
52 58 0 2565
54 54 0 2560
56 54 0 2562
58 56 0 2571
60 55 0 2578
62 55 0 2574
64 55 0 2556
66 55 0 2557
68 55 0 2568
70 50 0 2587
72 50 0 2581
74 46 0 2580
76 46 0 2571
78 47 0 2571
80 46 0 2565
82 48 0 2567
84 46 1 2565
86 46 1 2587
88 44 2 2586
90 44 2 2595
92 43 3 2604
94 47 3 2609
96 49 3 2601
98 51 4 2590
100 48 4 2598
102 46 4 2607
104 45 4 2610
106 47 3 2608
108 47 3 2590
110 48 3 2605
112 45 2 2614
114 45 2 2597
116 45 2 2617
118 44 2 2617
120 45 3 2613
122 44 5 2590
124 40 5 2605
126 42 4 2601
128 44 4 2590
130 44 5 2584
132 45 5 2584
134 43 5 2584
136 40 6 2585
138 41 6 2589
140 40 6 2594
142 43 6 2611
144 42 7 2613
146 42 5 2597
148 41 6 2596
150 44 8 2587
152 43 9 2592
154 42 10 2588
156 42 12 2595
158 46 11 2577
160 45 12 2582
162 47 14 2577
164 50 14 2571
166 48 14 2572
168 49 14 2560
170 49 14 2560
172 46 14 2569
174 49 14 2568
176 49 14 2580
178 46 12 2582
180 48 13 2581
182 43 13 2590
184 46 13 2573
186 48 12 2568
188 50 11 2565
190 51 11 2557
192 50 10 2555
194 49 9 2562
196 50 10 2571
198 47 7 2574
200 45 10 2580
202 47 11 2573
204 47 10 2573
206 47 9 2592
208 48 9 2591
210 47 9 2582
212 49 9 2592
214 47 10 2600
216 44 11 2597
218 47 12 2574
220 45 13 2592
222 44 12 2596
224 42 12 2598
226 38 12 2592
228 37 12 2590
230 36 12 2597
232 34 12 2601
234 32 14 2618
236 34 16 2593
238 34 16 2618
240 33 16 2628
242 36 17 2636
244 37 18 2634
246 38 19 2633
248 39 17 2632
250 35 15 2637
252 34 14 2635
254 32 15 2631
256 28 18 2623
258 30 18 2621
260 32 19 2620
262 32 20 2620
264 33 20 2627
266 33 18 2625
268 33 17 2621
270 33 18 2613
272 31 20 2611
274 34 22 2602
276 36 19 2611
278 37 18 2621
280 36 17 2613
282 34 18 2610
284 36 18 2606
286 33 18 2604
288 32 16 2615
290 32 13 2612
292 32 14 2619
294 28 17 2610
296 26 16 2604
298 27 16 2605
300 22 14 2611
