0 83 0 0 0
2 80 0 0 0
4.00004 82 0 0 0
6 78 0 3 0
8 79 0 1 0
10 78 0 3 0
12 74 0 5 0
14 73 0 6 0
16 72 0 7 0
18 71 0 8 0
20 72 0 7 0
22 73 0 6 0
24 75 0 4 0
26 74 0 3 0
28 74 0 5 0
30 74 0 6 0
32 73 0 6 0
34 73 0 6 0
36 72 0 8 0
38 71 0 9 0
40 71 0 9 0
42 71 0 8 0
44 70 0 8 0
46 71 0 7 0
48 70 0 8 0
50 70 0 8 0
52 59 11 8 0
54 48 23 6 0
56 41 30 8 0
58 35 37 7 1
60 31 41 9 0
62 29 42 7 3
64 22 49 4 4
66 19 52 4 4
68 15 59 4 2
70 15 58 2 4
72 12 62 1 3
74 10 62 2 4
76 7 66 1 4
78 7 65 1 6
80 3 72 3 2
82 2 71 3 4
84 2 68 2 8
86 1 70 5 7
88 1 72 4 4
90 1 71 4 6
92 1 71 4 4
94 1 74 4 1
96 2 74 2 1
98 1 74 2 3
100 1 74 2 2
102 1 74 1 3
104 1 72 1 6
106 1 71 2 7
108 0 70 2 9
110 0 73 1 5
112 0 74 2 4
114 0 71 2 7
116 0 71 2 6
118 0 74 2 3
120 0 76 2 1
122 0 76 3 1
124 0 75 3 2
126 0 74 3 3
128 0 75 2 2
130 1 76 0 1
132 0 77 1 1
134 0 76 2 2
136 0 76 2 2
138 0 76 3 2
140 0 72 3 6
142 0 75 2 3
144 0 74 2 4
146 0 72 2 6
148 0 71 3 6
150 0 71 2 6
152 0 71 3 6
154 0 69 3 9
156 0 67 3 11
158 0 66 3 9
160 0 65 3 11
162 0 66 3 10
164 0 66 4 10
166 1 68 3 9
168 1 65 3 12
170 1 69 3 8
172 1 68 3 9
174 1 68 3 9
176 1 69 3 7
178 1 70 3 6
180 1 70 4 6
182 1 71 3 5
184 1 71 3 5
186 1 72 3 4
188 0 73 3 4
190 0 72 3 5
192 0 71 3 6
194 0 70 3 7
196 1 71 2 6
198 1 73 2 4
200 2 74 0 3
202 2 75 0 2
204 2 75 1 2
206 2 76 1 1
208 1 75 1 2
210 1 75 1 3
212 1 76 1 1
214 1 75 1 2
216 2 73 0 4
218 2 75 0 2
220 2 73 1 5
222 2 74 1 4
224 2 75 1 2
226 2 73 1 4
228 2 71 1 6
230 1 72 1 6
232 1 71 0 7
234 1 69 0 10
236 1 72 2 6
238 1 70 1 8
240 1 72 1 5
242 1 72 1 6
244 0 71 1 7
246 0 72 1 5
248 0 73 1 5
250 0 71 1 8
252 0 72 2 7
254 0 71 1 7
256 0 72 2 6
258 0 71 1 6
260 0 71 1 6
262 0 73 2 4
264 0 74 2 3
266 0 73 2 4
268 0 72 2 5
270 0 69 3 6
272 0 72 2 4
274 0 69 2 8
276 0 71 1 6
278 0 71 1 6
280 0 72 0 4
282 0 72 1 4
284 0 72 0 5
286 0 72 1 3
288 0 72 0 3
290 0 69 1 7
292 0 71 1 4
294 0 69 0 7
296 0 70 1 6
298 0 71 1 5
300 0 69 1 8
302 0 70 1 7
304 0 70 3 7
306 0 71 3 6
308 0 71 2 5
310 0 67 3 9
312 0 70 4 7
314 1 72 4 4
316 1 69 2 8
318 0 72 2 5
320 0 72 2 5
322 0 73 2 4
324 0 72 2 5
326 0 72 1 5
328 0 70 1 7
330 0 72 2 5
332 0 72 1 5
334 0 70 1 6
336 0 70 2 6
338 0 68 1 8
340 0 68 2 8
342 0 70 1 6
344 0 70 1 6
346 1 67 1 8
348 1 69 1 7
350 0 67 1 9
