0 73 0 0 0
2 69 0 3 0
4.00004 71 0 2 0
6 72 0 2 0
8 73 0 1 0
10 73 0 1 0
12 71 0 3 0
14 72 0 2 0
16 70 0 5 0
18 70 0 5 0
20 68 0 6 0
22 69 0 3 0
24 68 0 4 0
26 67 0 4 0
28 69 0 3 0
30 68 0 3 0
32 67 0 4 0
34 69 0 3 0
36 70 0 2 0
38 68 0 4 0
40 67 0 5 0
42 68 0 3 0
44 70 0 1 0
46 70 0 1 0
48 70 0 1 0
50 68 0 2 0
52 69 0 1 0
54 69 0 1 0
56 68 0 3 0
58 67 0 3 0
60 64 0 6 0
62 65 0 5 0
64 66 0 2 0
66 66 0 2 0
68 66 0 3 0
70 65 0 4 0
72 66 0 4 0
74 61 0 9 0
76 63 0 4 0
78 65 0 3 0
80 62 0 5 0
82 63 0 5 2
84 64 0 2 3
86 64 0 4 2
88 62 1 5 2
90 64 2 5 0
92 62 2 7 0
94 65 2 4 0
96 65 2 4 0
98 67 2 2 0
100 67 2 2 0
102 63 2 5 0
104 66 1 3 1
106 66 1 3 1
108 66 1 2 2
110 67 1 0 2
112 67 1 1 2
114 65 1 2 0
116 66 0 1 2
118 65 1 1 2
120 66 1 0 2
122 65 1 1 1
124 65 1 1 2
126 66 2 0 0
128 66 2 0 1
130 66 2 0 2
132 65 2 1 2
134 64 2 2 2
136 64 3 1 3
138 65 3 1 2
140 61 3 5 2
142 62 3 4 2
144 60 4 6 0
146 57 4 9 1
148 59 4 5 0
150 60 4 4 1
152 61 4 3 1
154 59 5 4 0
156 61 4 2 2
158 60 5 3 0
160 59 5 6 1
162 60 5 3 1
164 59 5 2 1
166 57 6 6 1
168 60 6 3 1
170 60 6 3 1
172 61 6 2 0
174 61 5 1 3
176 60 6 2 1
178 61 6 1 1
180 60 6 3 2
182 60 6 3 2
184 60 5 3 3
186 61 6 2 3
188 59 6 4 0
190 58 5 5 1
192 59 4 4 4
194 58 5 4 3
196 60 5 2 2
198 61 6 1 2
200 61 6 1 2
202 59 6 3 2
204 61 7 1 2
206 62 7 0 3
208 62 8 0 1
210 62 8 0 1
212 62 8 0 2
214 60 8 2 1
216 61 8 1 1
218 61 9 1 0
220 60 9 2 0
222 61 8 1 2
224 59 8 2 2
226 58 7 4 3
228 59 8 3 1
230 59 7 3 2
232 59 7 3 2
234 59 8 3 1
236 60 8 1 1
238 60 8 1 0
240 60 8 1 3
242 60 8 2 2
244 61 8 1 2
246 60 8 2 3
248 60 6 2 4
250 60 7 2 3
252 61 7 1 4
254 62 8 0 3
256 62 8 0 2
258 59 8 3 3
260 61 8 1 2
262 59 8 3 4
264 60 8 1 5
266 59 10 2 3
268 60 10 1 2
270 60 11 1 1
272 58 11 3 2
274 61 10 0 2
276 60 10 1 3
278 60 11 1 1
280 58 11 3 1
282 60 10 1 2
284 60 10 1 4
286 59 10 2 3
288 60 10 1 3
290 58 10 3 1
292 59 10 2 3
294 59 10 2 4
296 59 11 2 2
298 60 11 1 1
300 58 11 3 0
302 58 11 1 0
304 59 11 1 0
306 58 11 2 0
308 58 11 2 0
310 58 11 2 0
312 57 10 3 1
314 58 9 1 2
316 58 9 2 3
318 56 9 2 4
320 57 10 3 4
322 56 11 3 3
324 56 11 3 3
326 56 10 3 3
328 57 11 1 2
330 57 11 1 2
332 57 12 1 0
334 57 12 1 1
336 56 12 2 1
338 57 12 2 2
340 57 12 3 2
342 57 12 3 2
344 57 12 2 1
346 57 12 2 1
348 58 12 1 1
350 58 12 1 1
