0 59 0 0 0
2 59 0 0 0
4.00004 59 0 1 0
6 59 0 1 0
8 59 0 1 0
10 56 0 4 0
12 57 0 3 0
14 54 0 7 0
16 52 0 7 0
18 56 0 2 0
20 57 0 1 0
22 57 0 1 0
24 55 0 4 0
26 56 0 3 0
28 55 0 4 0
30 55 0 2 0
32 57 0 0 0
34 57 0 2 0
36 56 0 2 0
38 56 0 4 0
40 56 0 1 0
42 54 0 4 0
44 55 0 5 0
46 55 0 6 0
48 54 0 6 0
50 56 0 4 0
52 55 0 5 0
54 55 0 5 0
56 55 0 5 0
58 56 0 4 0
60 58 0 2 0
62 56 0 5 0
64 55 0 4 0
66 55 0 3 0
68 54 0 5 1
70 56 0 3 1
72 55 0 4 1
74 54 0 7 1
76 54 0 7 1
78 52 0 9 2
80 54 0 6 2
82 55 1 6 2
84 55 2 5 1
86 55 3 5 0
88 55 3 4 0
90 55 3 4 0
92 55 3 4 0
94 56 3 2 0
96 56 3 2 0
98 56 3 3 0
100 56 3 3 1
102 54 3 4 0
104 55 3 2 1
106 55 3 2 2
108 52 3 5 1
110 53 3 4 1
112 54 3 2 1
114 53 3 4 1
116 54 3 3 1
118 53 4 5 0
120 53 4 4 1
122 53 4 4 1
124 54 3 2 2
126 55 4 1 1
128 56 4 0 1
130 56 5 0 0
132 56 5 0 0
134 56 5 0 1
136 56 5 0 1
138 55 5 1 1
140 55 5 1 1
142 54 5 2 1
144 54 5 2 1
146 55 6 0 0
148 54 5 1 1
150 55 6 1 0
152 55 6 1 0
154 54 6 2 1
156 54 6 2 1
158 53 6 3 1
160 55 6 1 1
162 55 6 1 1
164 54 6 2 0
166 54 6 1 0
168 53 5 2 1
170 54 6 1 0
172 52 6 2 0
174 53 6 0 0
176 53 6 0 0
178 53 6 0 3
180 52 6 1 3
182 52 5 1 4
184 51 8 2 1
186 52 7 1 2
188 52 8 1 1
190 52 9 1 0
192 51 9 1 1
194 52 9 0 0
196 51 8 1 1
198 51 8 1 2
200 51 8 1 3
202 51 8 1 2
204 51 9 0 2
206 50 9 1 2
208 50 9 1 2
210 49 9 2 1
212 47 9 4 1
214 47 9 4 2
216 48 10 2 1
218 48 10 2 1
220 48 10 1 1
222 48 10 1 1
224 48 11 0 0
226 48 11 0 1
228 46 11 2 0
230 45 11 3 1
232 44 11 4 0
234 45 11 2 1
236 45 12 2 0
238 46 12 2 0
240 48 12 0 0
242 47 12 1 0
244 46 11 2 1
246 46 11 2 1
248 46 10 2 3
250 45 10 3 2
252 47 10 1 3
254 46 10 2 2
256 44 10 3 1
258 43 10 5 1
260 43 10 4 2
262 42 10 3 1
264 42 10 4 1
266 39 10 6 1
268 38 10 6 1
270 38 9 7 2
272 36 9 7 1
274 40 9 3 1
276 40 9 3 2
278 42 9 3 2
280 42 10 3 0
282 43 10 2 0
284 43 9 3 1
286 41 10 4 0
288 42 10 4 0
290 41 10 5 0
292 42 10 3 0
294 42 10 3 0
296 41 10 4 0
298 42 9 2 1
300 42 10 1 0
302 42 10 2 0
304 42 10 1 0
306 42 10 2 0
308 42 10 2 0
310 43 10 1 0
312 42 10 1 0
314 42 10 1 0
316 41 9 3 1
318 42 9 2 1
320 43 10 0 1
322 43 10 0 1
324 43 11 0 0
326 42 11 1 0
328 42 11 1 0
330 43 11 0 0
332 42 11 1 1
334 43 11 0 1
336 42 11 1 2
338 42 11 1 3
340 43 11 0 2
342 42 11 1 3
344 43 12 1 0
346 43 12 1 1
348 42 12 2 1
350 42 12 2 2
