0 85 0 0 0
2 83 0 1 0
4.00004 82 0 2 0
6 81 0 4 0
8 80 0 4 0
10 79 0 4 0
12 78 0 6 0
14 75 0 5 0
16 77 0 2 0
18 76 0 6 0
20 75 0 7 0
22 76 0 6 0
24 76 0 3 0
26 77 0 4 0
28 75 0 8 0
30 76 0 7 0
32 79 0 3 0
34 80 0 0 0
36 81 0 2 0
38 80 0 5 0
40 80 0 4 0
42 81 0 3 0
44 81 0 4 0
46 82 0 3 0
48 82 0 2 0
50 81 0 4 0
52 68 13 4 0
54 60 20 5 0
56 55 27 3 0
58 51 31 2 0
60 45 37 1 0
62 32 50 2 0
64 27 53 4 2
66 26 54 1 2
68 21 61 1 0
70 16 60 3 5
72 16 63 5 1
74 14 65 5 1
76 12 66 4 2
78 11 69 3 1
80 9 70 4 2
82 8 73 1 0
84 8 73 2 2
86 6 75 1 3
88 7 74 1 4
90 4 76 1 3
92 2 79 0 3
94 2 76 1 6
96 1 75 2 8
98 1 78 0 4
100 1 78 2 3
102 1 79 1 2
104 1 79 2 2
106 1 79 3 3
108 3 79 0 3
110 2 79 0 2
112 2 78 1 3
114 2 78 0 3
116 2 78 0 3
118 1 80 0 1
120 1 80 0 2
122 1 79 0 3
124 1 77 0 5
126 1 78 0 4
128 1 80 0 2
130 0 82 1 1
132 0 82 1 1
134 1 82 1 1
136 1 82 1 1
138 1 81 2 3
140 1 81 2 3
142 1 83 1 2
144 1 82 0 1
146 1 79 1 6
148 1 80 1 3
150 1 78 1 5
152 1 78 1 4
154 0 80 1 3
156 0 80 0 1
158 0 78 1 4
160 0 80 1 2
162 0 80 1 1
164 0 80 1 1
166 0 79 0 3
168 0 79 0 3
170 0 80 0 2
172 0 80 1 2
174 0 79 1 2
176 0 79 1 2
178 0 78 0 4
180 0 77 1 5
182 0 77 1 5
184 0 75 0 7
186 0 78 0 3
188 0 79 0 2
190 0 78 1 2
192 0 78 2 2
194 0 79 2 1
196 0 79 2 1
198 0 78 2 1
200 0 77 1 2
202 0 78 1 2
204 1 76 1 4
206 0 76 1 5
208 0 76 2 4
210 0 76 2 5
212 0 77 2 4
214 0 77 2 4
216 1 77 1 2
218 2 76 1 3
220 2 74 0 4
222 2 75 1 3
224 1 76 0 3
226 1 77 0 1
228 1 77 1 1
230 1 77 0 3
232 1 77 0 2
234 1 76 2 4
236 1 74 1 6
238 2 75 1 4
240 2 74 0 5
242 2 77 1 1
244 2 76 1 2
246 2 76 2 2
248 2 77 2 1
250 2 77 1 2
252 2 75 1 4
254 2 76 2 2
256 3 76 1 3
258 3 76 1 3
260 3 79 1 0
262 3 80 0 0
264 2 79 1 2
266 2 79 0 2
268 2 80 2 1
270 3 77 1 4
272 4 79 1 2
274 2 80 1 2
276 3 80 0 2
278 3 80 0 2
280 2 81 0 3
282 2 80 1 4
284 1 78 0 8
286 1 82 0 4
288 0 86 1 2
290 0 86 2 2
292 0 85 0 3
294 0 84 1 4
296 0 83 0 5
298 0 87 3 1
300 0 86 3 2
302 0 88 3 0
304 0 88 2 0
306 1 87 1 1
308 1 87 1 1
310 1 82 1 7
312 1 87 3 2
314 1 87 4 1
316 1 84 3 5
318 1 84 2 5
320 1 86 3 2
322 1 85 5 2
324 1 86 3 1
326 1 87 2 0
328 2 87 0 0
330 1 87 1 1
332 0 85 0 4
334 0 86 1 3
336 0 87 0 2
338 0 87 0 3
340 0 86 0 3
342 0 86 0 3
344 0 87 0 3
346 0 87 0 2
348 0 87 0 2
350 0 87 0 2
