0 66 0 0 0
2 65 0 1 0
4.00004 65 0 1 0
6 62 0 5 0
8 62 0 4 0
10 64 0 3 0
12 66 0 2 0
14 63 0 3 0
16 59 0 7 0
18 58 0 7 0
20 59 0 6 0
22 60 0 5 0
24 59 0 7 0
26 61 0 5 0
28 59 0 7 0
30 58 0 7 0
32 58 0 6 0
34 60 0 7 0
36 59 0 6 0
38 59 0 7 0
40 57 0 9 0
42 59 0 7 0
44 58 0 8 0
46 58 0 8 0
48 60 0 6 0
50 60 0 5 0
52 60 0 4 0
54 60 0 6 0
56 62 0 4 0
58 61 0 5 0
60 59 0 6 0
62 59 0 6 0
64 60 0 6 0
66 59 0 6 1
68 59 0 5 1
70 60 0 4 1
72 61 0 4 3
74 61 0 3 3
76 62 0 3 3
78 61 0 3 2
80 56 0 9 3
82 59 0 6 2
84 58 1 6 1
86 59 1 6 2
88 56 1 10 3
90 54 1 11 3
92 56 1 8 4
94 57 3 6 1
96 55 3 8 1
98 56 3 6 1
100 55 2 8 3
102 56 3 6 3
104 56 3 4 3
106 57 3 5 5
108 54 3 7 5
110 55 4 7 3
112 56 4 7 5
114 54 4 8 5
116 57 5 3 4
118 58 6 4 2
120 57 6 5 3
122 56 6 4 3
124 56 7 5 3
126 56 7 5 3
128 55 7 6 3
130 56 7 5 3
132 56 6 5 4
134 56 7 5 3
136 57 7 4 3
138 56 8 5 2
140 57 8 3 2
142 58 9 3 2
144 55 9 5 1
146 56 9 4 1
148 56 8 4 2
150 52 9 8 2
152 56 9 4 3
154 57 9 3 2
156 58 8 1 4
158 57 8 4 4
160 56 8 5 5
162 59 8 0 5
164 59 8 1 5
166 59 8 2 5
168 56 9 3 4
170 57 9 2 4
172 57 9 3 4
174 58 9 3 3
176 56 9 4 4
178 58 11 2 1
180 57 11 4 1
182 57 11 4 3
184 55 11 5 3
186 55 11 6 4
188 55 11 5 3
190 55 11 5 3
192 53 11 7 3
194 53 11 7 1
196 55 11 5 3
198 55 11 4 3
200 56 11 3 2
202 56 11 3 2
204 56 12 4 2
206 55 13 4 2
208 56 12 4 2
210 57 12 2 4
212 54 12 5 2
214 54 12 6 3
216 51 12 9 3
218 51 12 8 4
220 53 13 6 2
222 52 13 7 3
224 54 13 5 2
226 53 13 6 2
228 52 13 7 2
230 51 13 8 4
232 52 13 7 2
234 54 13 6 3
236 53 13 7 3
238 53 13 7 4
240 52 13 8 4
242 53 14 7 3
244 51 13 9 4
246 51 13 9 4
248 53 14 7 4
250 55 13 5 7
252 55 14 4 6
254 55 14 4 4
256 55 14 5 5
258 54 14 5 5
260 52 15 7 5
262 53 16 6 2
264 55 15 4 3
266 55 15 5 3
268 57 15 1 4
270 56 15 3 3
272 55 15 4 4
274 54 14 5 5
276 54 15 4 4
278 53 15 6 3
280 54 14 4 6
282 50 12 8 7
284 53 13 5 6
286 53 14 4 5
288 53 15 4 4
290 54 16 4 1
292 55 16 1 3
294 53 16 4 3
296 51 14 5 4
298 52 15 4 4
300 52 15 5 4
302 50 15 5 3
304 50 16 5 3
306 50 15 4 4
308 50 15 4 4
310 50 15 3 4
312 51 15 4 6
314 51 15 6 5
316 48 14 10 7
318 48 14 10 6
320 48 13 7 7
322 50 14 5 6
324 48 15 6 6
326 51 15 3 4
328 49 15 6 6
330 50 15 5 5
332 48 14 7 5
334 46 17 8 5
336 47 16 6 3
338 46 16 7 5
340 48 15 5 8
342 49 15 3 8
344 49 16 3 6
346 47 15 5 7
348 47 17 6 6
350 45 16 8 7
