0 70 0 0 0
2 70 0 0 0
4.00004 69 0 1 0
6 69 0 2 0
8 69 0 2 0
10 68 0 2 0
12 70 0 2 0
14 68 0 2 0
16 67 0 3 0
18 66 0 3 0
20 64 0 6 0
22 64 0 6 0
24 61 0 9 0
26 65 0 7 0
28 67 0 3 0
30 67 0 5 0
32 66 0 7 0
34 66 0 4 0
36 67 0 4 0
38 66 0 4 0
40 66 0 3 0
42 63 0 7 0
44 62 0 8 0
46 62 0 9 0
48 62 0 9 0
50 61 0 9 0
52 45 17 8 0
54 38 25 6 0
56 29 32 8 0
58 24 38 5 0
60 19 42 6 0
62 20 42 4 1
64 13 49 4 1
66 10 51 3 2
68 8 54 3 2
70 5 59 1 1
72 5 58 1 3
74 3 62 1 0
76 1 63 1 2
78 1 63 0 2
80 0 63 1 2
82 1 64 1 1
84 2 63 0 1
86 2 62 0 3
88 2 62 0 2
90 1 62 0 3
92 1 63 0 2
94 0 62 0 4
96 0 63 0 3
98 0 65 0 1
100 0 66 1 0
102 0 66 1 0
104 0 66 1 0
106 0 64 1 2
108 0 63 1 3
110 0 64 1 2
112 0 62 1 4
114 1 59 0 7
116 1 63 0 3
118 1 59 1 7
120 1 60 1 5
122 1 60 1 5
124 1 59 1 6
126 1 60 1 5
128 2 59 1 5
130 2 60 1 5
132 1 63 1 3
134 1 61 2 5
136 1 62 1 4
138 1 63 2 3
140 0 62 2 5
142 0 61 3 6
144 0 63 3 3
146 0 63 3 3
148 0 62 4 3
150 0 62 5 3
152 0 62 1 3
154 0 65 4 0
156 0 65 4 0
158 1 64 4 1
160 1 65 5 0
162 1 62 5 3
164 2 60 5 5
166 2 64 2 2
168 3 63 2 3
170 1 63 3 4
172 2 63 2 4
174 0 66 2 2
176 0 65 1 3
178 0 65 2 3
180 0 64 2 2
182 0 64 0 3
184 0 63 1 4
186 0 63 2 4
188 0 64 2 3
190 0 62 3 6
192 0 63 2 5
194 1 61 0 7
196 1 64 0 4
198 1 62 0 6
200 0 65 0 4
202 0 65 0 4
204 0 65 0 4
206 0 62 1 7
208 0 63 1 5
210 0 65 1 3
212 0 63 1 4
214 0 62 1 6
216 1 59 0 9
218 1 59 0 9
220 1 59 0 9
222 0 61 0 8
224 0 61 0 8
226 0 60 0 9
228 0 58 1 9
230 0 62 1 5
232 0 62 1 8
234 0 62 1 6
236 0 59 1 7
238 0 58 1 8
240 0 60 1 7
242 0 62 1 4
244 0 63 1 4
246 1 63 0 4
248 1 63 0 4
250 1 61 0 6
252 1 64 0 3
254 1 63 0 2
256 1 63 1 2
258 1 64 1 2
260 1 63 1 4
262 1 62 2 4
264 1 62 1 4
266 1 62 1 4
268 1 62 3 4
270 1 64 1 3
272 1 63 2 5
274 0 61 3 6
276 1 62 2 5
278 1 62 2 5
280 1 62 2 6
282 2 61 1 7
284 3 63 0 5
286 2 61 0 8
288 2 61 0 8
290 2 59 1 10
292 2 60 1 9
294 2 61 1 7
296 2 59 2 8
298 1 64 2 4
300 0 64 2 6
302 0 68 1 1
304 0 68 2 1
306 0 65 0 4
308 0 63 0 6
310 0 68 0 1
312 0 67 2 2
314 0 65 2 4
316 1 65 1 4
318 1 65 1 4
320 0 65 1 4
322 0 66 2 5
324 0 65 2 5
326 0 66 2 4
328 0 65 2 5
330 0 67 1 3
332 0 64 1 5
334 1 64 0 5
336 0 65 0 5
338 0 65 2 5
340 0 65 1 4
342 0 63 2 6
344 0 64 2 5
346 0 63 2 3
348 0 63 2 4
350 0 63 2 3
