0 83 0 0 0
2 83 0 2 0
4.00004 78 0 5 0
6 79 0 5 0
8 81 0 1 0
10 81 0 1 0
12 81 0 1 0
14 82 0 2 0
16 81 0 2 0
18 79 0 3 0
20 79 0 6 0
22 79 0 5 0
24 77 0 6 0
26 80 0 4 0
28 76 0 8 0
30 78 0 6 0
32 79 0 5 0
34 79 0 5 0
36 78 0 7 0
38 81 0 4 0
40 81 0 3 0
42 81 0 3 0
44 80 0 4 0
46 80 0 4 0
48 79 0 6 0
50 80 0 5 0
52 75 6 5 0
54 65 17 4 0
56 54 27 5 1
58 45 35 6 1
60 39 44 4 0
62 36 48 2 1
64 29 53 4 1
66 27 57 3 0
68 24 60 3 0
70 19 62 5 0
72 19 62 5 0
74 14 66 5 1
76 15 69 1 1
78 12 73 3 0
80 11 73 2 1
82 11 72 2 2
84 8 75 1 2
86 2 77 3 4
88 3 77 2 4
90 2 78 2 5
92 2 77 3 5
94 1 79 3 4
96 1 81 3 2
98 1 79 4 4
100 1 80 2 3
102 1 78 5 5
104 1 80 4 3
106 0 80 5 4
108 0 81 4 3
110 1 81 4 4
112 2 81 4 4
114 3 80 2 5
116 2 79 3 6
118 2 79 3 5
120 2 80 3 4
122 2 81 1 3
124 2 81 2 3
126 2 80 3 5
128 1 80 3 5
130 0 81 3 4
132 0 82 3 3
134 0 80 3 7
136 1 81 3 5
138 1 81 3 5
140 1 81 1 6
142 1 80 1 8
144 1 81 1 6
146 1 83 2 3
148 1 82 2 3
150 1 80 2 5
152 0 80 2 6
154 0 82 2 5
156 0 84 2 3
158 1 85 2 2
160 0 83 3 5
162 0 83 3 5
164 0 86 2 2
166 0 86 1 2
168 0 86 1 2
170 0 87 1 1
172 0 85 0 3
174 0 84 0 3
176 0 84 2 3
178 0 85 1 3
180 0 85 1 3
182 0 85 1 2
184 0 83 2 4
186 0 80 2 7
188 0 80 3 6
190 0 78 3 7
192 0 78 3 8
194 0 79 3 5
196 0 79 2 5
198 0 81 1 2
200 0 78 2 5
202 0 79 2 4
204 0 79 2 4
206 0 79 1 4
208 0 78 1 4
210 0 79 0 4
212 0 79 0 4
214 0 73 1 9
216 0 78 0 4
218 0 79 1 2
220 0 80 1 2
222 0 80 1 2
224 0 79 0 3
226 0 78 0 5
228 0 79 0 4
230 0 78 0 5
232 0 77 1 6
234 0 76 2 7
236 0 78 1 5
238 0 78 2 5
240 0 77 2 5
242 0 77 2 6
244 1 80 1 2
246 2 79 0 3
248 2 79 0 3
250 1 77 1 5
252 2 78 0 4
254 1 80 1 2
256 0 78 2 3
258 0 76 3 5
260 2 77 0 5
262 2 77 0 5
264 2 77 1 5
266 2 77 1 4
268 1 78 0 4
270 1 78 1 4
272 2 76 0 6
274 2 78 0 3
276 1 79 0 2
278 1 78 0 4
280 1 79 0 2
282 1 80 0 1
284 1 78 0 3
286 1 77 2 4
288 1 78 1 4
290 1 78 3 2
292 0 77 3 5
294 0 77 1 5
296 0 78 3 4
298 0 78 1 3
300 0 78 2 3
302 0 76 4 5
304 0 77 3 3
306 0 80 3 0
308 1 80 2 1
310 1 80 3 1
312 1 80 4 1
314 1 79 4 2
316 1 79 4 2
318 2 78 4 3
320 2 77 3 4
322 2 74 3 7
324 2 76 3 6
326 2 74 4 7
328 1 77 5 6
330 1 77 4 5
332 1 78 2 4
334 1 79 0 2
336 1 79 0 2
338 1 79 0 3
340 1 78 2 3
342 0 79 1 4
344 0 79 1 4
346 0 79 0 4
348 0 80 1 3
350 0 82 2 1
