0 292 0 0 0 0 509
2 254 0 0 21 0 498
4.00004 230 0 0 19 0 483
6 205 0 0 13 0 502
8 199 0 0 8 0 488
10 185 0 0 11 0 491
12 181 0 0 6 0 484
14 166 0 0 11 0 486
16 163 0 0 11 0 511
18 154 0 0 7 0 497
20 139 0 0 8 0 503
22 131 0 0 10 0 500
24 128 0 0 14 0 509
26 133 0 0 8 0 509
28 136 0 0 4 0 489
30 132 0 0 9 0 507
32 125 0 0 9 0 509
34 129 0 0 6 0 507
36 136 0 0 11 0 486
38 139 0 0 4 0 506
40 139 0 0 7 0 507
42 126 0 0 10 0 510
44 124 0 0 8 0 516
46 130 0 0 6 0 500
48 126 0 0 5 0 488
50 121 0 0 9 0 497
52 116 0 0 10 0 504
54 127 0 1 7 0 499
56 115 0 6 7 1 501
58 116 0 10 6 3 507
60 105 0 11 10 5 495
62 101 0 17 6 1 487
64 92 0 23 9 2 486
66 90 0 24 0 1 494
68 89 0 26 3 4 503
70 78 0 34 2 3 494
72 72 0 39 3 4 491
74 61 0 48 6 3 512
76 60 0 52 7 5 505
78 58 0 57 6 2 485
80 53 0 58 3 5 492
82 45 0 68 1 2 506
84 40 0 68 1 6 484
86 40 0 70 2 2 484
88 38 0 72 2 5 494
90 34 0 79 2 4 494
92 33 0 72 2 5 492
94 30 0 82 1 4 514
96 31 0 79 1 3 495
98 27 0 79 2 4 492
100 26 0 83 0 1 472
102 26 0 82 0 5 493
104 22 0 85 3 14 490
106 22 0 87 0 10 488
108 21 0 97 0 3 499
110 19 0 93 0 6 488
112 16 0 101 1 9 510
114 16 0 94 0 12 496
116 16 0 98 0 9 519
118 15 0 97 0 5 501
120 13 0 87 0 13 496
122 12 0 91 1 3 503
124 8 0 91 1 7 492
126 6 0 95 0 9 505
128 5 0 90 1 15 507
130 5 0 93 0 5 508
132 4 0 95 0 5 492
134 5 0 94 0 4 501
136 4 0 96 0 4 496
138 4 0 96 0 5 497
140 4 0 92 1 8 501
142 5 0 99 0 6 516
144 5 0 101 0 6 501
146 3 0 111 0 5 508
148 3 0 125 0 5 497
150 2 0 120 2 10 508
152 3 0 114 0 6 478
154 2 0 121 1 7 472
156 2 0 128 0 10 506
158 2 0 124 0 9 502
160 3 0 120 0 4 501
162 2 0 115 0 11 501
164 2 0 126 0 8 493
166 2 0 136 0 6 489
168 2 0 134 0 7 497
170 2 0 132 0 9 502
172 2 0 123 0 8 494
174 1 0 128 0 5 524
176 1 0 124 0 7 508
178 1 0 132 0 5 497
180 1 0 135 0 8 507
182 0 0 133 0 10 524
184 0 0 146 0 4 482
186 0 0 132 0 10 490
188 0 0 141 0 9 504
190 0 0 129 0 9 493
192 0 0 129 0 4 509
194 0 0 130 0 7 504
196 0 0 125 0 2 508
198 0 0 121 0 10 495
200 0 0 117 0 7 495
