0 1423 0 0 0 0 516
2 1402 3 0 12 0 502
4.00004 1377 9 0 11 0 504
6 1374 2 0 18 0 498
8 1354 8 0 13 0 493
10 1345 6 0 14 0 496
12 1338 5 0 10 0 501
14 1334 9 0 6 0 489
16 1322 7 0 13 0 500
18 1303 7 0 15 0 486
20 1300 3 0 19 0 504
22 1285 14 0 16 0 501
24 1282 5 0 8 0 509
26 1269 11 0 10 0 476
28 1271 7 0 14 0 482
30 1260 6 0 17 0 497
32 1259 5 0 7 0 484
34 1255 7 0 7 0 511
36 1273 7 0 9 0 482
38 1257 8 0 15 0 510
40 1247 6 0 13 0 486
42 1247 5 0 13 0 505
44 1251 5 0 10 0 506
46 1249 4 0 14 0 489
48 1244 3 0 8 0 500
50 1241 6 0 13 0 487
52 1099 0 151 8 0 485
54 1006 0 242 8 0 504
56 919 0 322 8 2 496
58 847 1 388 9 3 492
60 754 1 468 11 3 506
62 697 0 531 11 2 493
64 652 0 578 3 6 506
66 586 0 632 4 2 487
68 534 1 677 4 3 511
70 509 0 705 7 1 495
72 459 0 741 6 5 506
74 438 0 764 7 4 504
76 409 0 773 6 7 483
78 380 0 799 9 9 498
80 357 0 837 3 3 497
82 347 0 855 5 6 502
84 328 0 871 6 5 516
86 297 0 893 6 5 506
88 279 0 912 4 6 517
90 258 0 923 1 8 490
92 243 0 936 2 11 498
94 210 0 967 6 6 511
96 213 0 969 4 7 512
98 208 1 979 3 9 500
100 205 0 984 6 5 507
102 195 0 989 6 8 506
104 190 0 997 6 9 507
106 175 0 1009 4 8 480
108 174 1 1021 5 7 502
110 170 0 1021 3 10 505
112 167 0 1016 3 6 500
114 166 0 1019 4 5 507
116 153 0 1033 3 8 500
118 150 0 1033 2 6 498
120 141 0 1038 2 13 480
122 136 0 1047 2 7 495
124 138 0 1056 3 7 496
126 134 0 1060 3 6 503
128 134 1 1066 1 7 509
130 124 0 1067 3 7 497
132 123 0 1061 5 14 501
134 122 0 1061 4 11 500
136 113 0 1067 5 12 506
138 113 0 1063 3 7 496
140 106 0 1076 4 6 498
142 110 1 1069 2 7 496
144 108 0 1072 3 6 482
146 105 0 1060 0 10 504
148 104 0 1064 2 10 499
150 100 0 1075 0 6 483
152 95 0 1068 1 13 490
154 97 0 1074 2 12 490
156 96 0 1078 0 8 502
158 89 0 1067 2 12 506
160 88 0 1078 0 6 487
162 87 0 1080 2 7 516
164 87 0 1091 2 9 506
166 85 0 1084 4 10 498
168 81 0 1085 2 9 507
170 73 0 1086 1 12 496
172 67 0 1095 3 12 486
174 68 0 1087 1 11 496
176 70 0 1090 1 7 511
178 69 0 1100 0 15 499
180 62 0 1099 0 10 496
182 62 0 1105 4 11 496
184 60 0 1117 0 7 500
186 58 0 1112 1 9 518
188 57 0 1112 0 4 513
190 60 0 1101 2 11 516
192 65 0 1098 1 9 502
194 64 0 1095 1 10 493
196 58 0 1102 3 8 489
198 54 0 1093 1 9 490
200 52 0 1088 2 10 492
