0 485 0 0 0 0 516
2 461 0 0 26 0 499
4.00004 467 0 0 18 0 497
6 459 0 0 30 0 496
8 469 0 0 22 0 497
10 469 0 0 24 0 494
12 458 0 0 29 0 504
14 464 0 0 22 0 501
16 468 0 0 18 0 499
18 463 0 0 20 0 507
20 459 0 0 30 0 505
22 463 0 0 22 0 478
24 455 0 0 31 0 483
26 471 0 0 19 0 481
28 461 0 0 31 0 503
30 473 0 0 27 0 499
32 480 0 0 18 0 507
34 476 0 0 29 0 507
36 478 0 0 27 0 511
38 470 0 0 27 0 502
40 475 0 0 26 0 497
42 479 0 0 18 0 489
44 468 0 0 15 0 498
46 468 0 0 23 0 510
48 467 0 0 24 0 505
50 475 0 0 20 0 505
52 463 0 0 31 0 482
54 469 0 4 25 0 494
56 473 0 6 23 0 510
58 470 0 9 19 0 484
60 451 0 10 32 1 512
62 451 0 17 24 0 517
64 437 0 18 22 3 488
66 435 0 31 20 3 504
68 420 0 37 27 0 500
70 419 0 45 23 3 488
72 418 0 51 17 3 498
74 409 0 62 20 3 508
76 407 0 71 11 8 503
78 396 0 78 16 5 494
80 379 0 86 21 5 522
82 372 0 86 21 10 508
84 362 0 97 22 7 499
86 355 0 98 21 6 530
88 347 0 106 20 9 497
90 348 0 116 17 10 493
92 343 0 128 16 8 505
94 341 0 139 11 11 481
96 331 0 151 13 7 510
98 323 0 160 15 6 492
100 315 0 164 18 11 506
102 318 0 169 7 13 504
104 307 0 186 12 10 498
106 294 0 192 16 6 502
108 281 0 188 15 14 514
110 278 0 192 14 17 496
112 265 0 205 16 12 476
114 266 0 210 12 16 493
116 256 0 224 12 12 515
118 251 0 235 10 10 508
120 243 0 234 11 17 493
122 233 0 240 12 17 488
124 228 0 249 9 8 496
126 222 0 255 14 9 493
128 221 0 254 8 13 502
130 215 0 251 12 16 484
132 208 0 263 13 14 494
134 212 0 268 8 14 508
136 199 0 270 13 19 494
138 195 0 285 11 10 505
140 194 0 283 7 15 501
142 192 0 293 9 11 500
144 176 0 300 15 14 498
146 175 0 304 7 18 501
148 173 0 316 7 17 513
150 165 0 321 9 11 507
152 164 0 321 6 13 493
154 160 0 322 8 17 494
156 148 0 328 10 11 488
158 145 0 319 11 21 517
160 147 0 322 5 18 498
162 137 0 321 7 16 503
164 136 0 320 6 12 500
166 135 0 324 5 15 500
168 130 0 314 7 19 494
170 125 0 313 7 22 499
172 126 0 322 4 14 509
174 123 0 321 4 19 494
176 121 0 330 3 17 506
178 115 0 341 6 17 513
180 117 0 345 5 15 514
182 114 0 347 5 20 494
184 105 0 345 10 23 501
186 108 0 358 5 17 506
188 109 0 359 2 16 493
190 109 0 361 0 16 503
192 99 0 353 6 23 516
194 98 0 367 3 11 504
196 96 0 367 4 15 511
198 94 0 356 6 20 525
200 96 0 361 3 17 497
