0 1399 0 0 0 0 491
2 1349 12 0 29 0 503
4.00004 1350 8 0 23 0 479
6 1347 5 0 25 0 501
8 1348 10 0 17 0 515
10 1333 9 0 28 0 492
12 1342 6 0 22 0 520
14 1332 9 0 27 0 494
16 1331 8 0 18 0 511
18 1312 13 0 21 0 507
20 1323 6 0 24 0 517
22 1327 7 0 17 0 503
24 1313 9 0 24 0 473
26 1313 14 0 15 0 492
28 1319 9 0 15 0 501
30 1321 5 0 14 0 493
32 1312 8 0 24 0 505
34 1314 5 0 19 0 504
36 1312 4 0 25 0 488
38 1306 7 0 25 0 506
40 1302 5 0 31 0 507
42 1308 4 0 20 0 515
44 1311 11 0 17 0 479
46 1315 5 0 23 0 514
48 1303 9 0 27 0 488
50 1321 9 0 15 0 513
52 1143 0 183 12 1 489
54 1020 1 297 15 3 483
56 916 0 394 16 2 496
58 830 0 471 14 6 496
60 750 0 551 14 6 482
62 680 0 626 15 7 531
64 615 0 688 15 8 503
66 550 1 750 13 11 485
68 504 0 799 8 11 500
70 448 0 864 10 5 477
72 404 0 903 5 15 504
74 354 0 945 8 14 495
76 318 0 982 6 13 504
78 293 0 1012 7 13 516
80 281 0 1027 1 13 498
82 253 0 1033 8 20 505
84 235 0 1061 1 15 488
86 213 0 1072 6 22 472
88 195 0 1086 6 12 499
90 182 0 1090 8 21 507
92 168 0 1110 5 15 526
94 153 0 1115 5 23 517
96 152 0 1128 2 16 499
98 140 0 1132 3 19 485
100 128 1 1153 2 18 503
102 125 0 1161 3 15 480
104 120 0 1159 5 21 509
106 107 0 1166 2 24 506
108 96 0 1168 2 23 510
110 92 0 1178 1 17 493
112 80 0 1197 3 9 464
114 73 0 1193 4 17 508
116 65 0 1187 3 25 506
118 67 0 1197 0 14 489
120 59 0 1195 0 19 505
122 61 0 1181 3 26 504
124 62 0 1192 2 8 498
126 60 0 1178 1 24 501
128 65 0 1173 1 17 510
130 66 0 1176 1 16 501
132 65 0 1183 0 11 511
134 65 0 1174 3 17 505
136 64 0 1181 2 10 511
138 67 0 1161 1 28 501
140 64 0 1178 2 17 509
142 65 0 1179 1 23 494
144 62 0 1182 1 22 502
146 53 0 1189 6 17 494
148 52 0 1196 4 18 495
150 48 0 1202 3 16 485
152 45 0 1200 2 20 496
154 43 0 1186 2 30 508
156 48 0 1186 3 19 506
158 51 0 1186 4 24 483
160 57 0 1187 0 17 497
162 50 0 1189 1 16 506
164 54 0 1165 1 28 503
166 50 0 1168 1 16 503
168 49 0 1152 0 23 506
170 47 0 1144 0 19 504
172 46 0 1147 3 15 490
174 45 0 1147 2 19 486
176 47 0 1153 0 17 506
178 49 0 1143 3 21 482
180 47 0 1148 0 16 508
182 49 0 1144 0 19 483
184 42 0 1149 2 14 488
186 44 0 1138 1 21 508
188 47 0 1139 2 19 480
190 44 0 1138 2 27 504
192 42 0 1154 3 17 499
194 46 0 1154 1 23 505
196 43 0 1148 1 32 505
198 39 0 1157 3 21 506
200 43 0 1160 1 21 477
