0 1251 0 0 0 0 495
2 1219 6 0 21 0 509
4.00004 1208 11 0 24 0 508
6 1198 14 0 13 0 498
8 1189 12 0 18 0 502
10 1177 9 0 22 0 498
12 1168 8 0 22 0 488
14 1165 8 0 12 0 501
16 1142 7 0 24 0 498
18 1140 13 0 8 0 506
20 1131 8 0 22 0 504
22 1138 7 0 9 0 495
24 1117 11 0 19 0 507
26 1122 14 0 10 0 479
28 1101 5 0 25 0 496
30 1099 8 0 12 0 517
32 1090 4 0 11 0 487
34 1075 7 0 14 0 502
36 1071 11 0 13 0 487
38 1065 7 0 19 0 497
40 1069 5 0 15 0 501
42 1057 4 0 12 0 501
44 1058 7 0 5 0 498
46 1043 4 0 16 0 500
48 1038 10 0 16 0 495
50 1034 10 0 22 0 511
52 890 0 153 15 1 499
54 805 0 233 9 2 508
56 701 0 331 12 4 506
58 614 0 413 13 4 489
60 531 1 484 14 2 488
62 463 1 545 12 8 492
64 421 0 588 10 10 501
66 380 0 627 7 8 494
68 346 0 653 3 9 500
70 321 0 674 3 8 505
72 291 0 691 6 10 522
74 249 1 730 6 9 484
76 232 0 741 12 9 518
78 213 1 760 8 10 491
80 189 0 784 4 5 494
82 170 0 794 5 14 493
84 155 0 804 4 17 503
86 152 0 819 3 7 516
88 148 0 812 8 13 492
90 134 1 827 4 9 503
92 126 1 831 1 11 501
94 110 0 833 3 13 504
96 103 0 839 2 11 497
98 98 0 842 3 15 499
100 105 1 842 4 14 502
102 112 0 841 2 11 503
104 105 0 842 2 13 502
106 98 0 856 3 5 491
108 97 0 861 2 14 499
110 83 0 862 3 6 492
112 75 0 866 3 16 511
114 72 0 869 0 11 499
116 74 0 861 4 11 508
118 75 0 867 2 10 522
120 74 0 867 3 7 495
122 73 0 868 0 6 517
124 72 0 855 1 16 496
126 65 0 847 2 10 486
128 62 0 843 2 14 492
130 64 0 842 2 13 485
132 57 0 848 1 9 500
134 52 0 852 2 11 519
136 53 0 854 2 14 496
138 56 0 852 0 9 498
140 49 0 856 4 13 502
142 53 1 861 1 9 521
144 49 0 857 4 13 510
146 39 0 876 2 9 482
148 49 0 864 3 13 509
150 54 0 865 0 9 519
152 48 0 872 2 11 512
154 43 0 877 5 13 501
156 45 0 883 4 13 498
158 48 0 868 2 17 492
160 43 0 878 1 15 493
162 46 0 874 2 11 500
164 43 1 859 4 21 489
166 40 0 863 1 13 493
168 37 0 854 2 16 511
170 30 0 866 2 8 510
172 35 0 862 1 9 502
174 31 0 859 0 8 492
176 35 0 858 1 9 502
178 33 0 857 2 9 493
180 28 0 855 0 12 495
182 28 0 853 4 12 500
184 31 0 855 1 7 507
186 25 0 855 2 9 504
188 36 0 857 0 16 512
190 42 0 844 2 18 490
192 40 0 839 1 10 477
194 40 0 845 1 13 492
196 42 0 840 1 12 490
198 45 0 843 3 15 515
200 48 0 848 0 13 503
