0 1225 0 0 0 0 482
2 1206 11 0 19 0 495
4.00004 1224 5 0 19 0 485
6 1241 8 0 17 0 519
8 1268 2 0 18 0 493
10 1290 4 0 24 0 508
12 1305 8 0 17 0 501
14 1312 8 0 27 0 493
16 1333 9 0 21 0 501
18 1352 5 0 18 0 509
20 1354 8 0 29 0 503
22 1346 13 0 25 0 498
24 1366 6 0 21 0 504
26 1377 9 0 22 0 483
28 1400 7 0 20 0 496
30 1405 9 0 24 0 508
32 1405 9 0 18 0 518
34 1418 3 0 19 0 513
36 1424 6 0 19 0 504
38 1430 7 0 19 0 505
40 1437 8 0 16 0 493
42 1452 5 0 20 0 505
44 1448 9 0 24 0 522
46 1468 5 0 18 0 498
48 1438 10 0 37 0 487
50 1461 6 0 20 0 507
52 1266 1 209 19 6 501
54 1132 0 341 19 2 496
56 1016 3 459 18 5 476
58 921 0 549 17 5 481
60 833 0 630 13 11 518
62 754 0 735 11 3 497
64 680 0 810 10 11 521
66 620 0 869 16 23 512
68 568 0 925 5 15 507
70 511 0 986 14 17 494
72 457 0 1045 13 15 496
74 426 0 1080 11 13 492
76 396 0 1115 8 19 498
78 369 0 1140 10 18 484
80 342 0 1169 11 17 484
82 324 0 1177 4 19 495
84 304 1 1206 6 16 491
86 283 0 1240 3 12 513
88 271 0 1241 5 17 511
90 260 0 1257 3 19 500
92 240 0 1284 5 13 488
94 220 0 1290 7 22 498
96 218 0 1296 6 19 506
98 205 0 1310 3 20 501
100 184 0 1328 5 20 503
102 178 0 1323 3 31 497
104 164 0 1351 7 20 502
106 162 0 1364 2 14 482
108 148 0 1380 6 12 489
110 141 0 1382 1 16 493
112 128 0 1394 1 17 494
114 117 0 1399 4 28 509
116 110 0 1421 2 21 503
118 107 0 1427 8 19 492
120 101 0 1438 3 18 503
122 95 0 1440 2 15 518
124 90 0 1420 2 21 502
126 87 0 1430 0 21 495
128 74 1 1433 2 25 487
130 68 0 1436 4 25 493
132 64 0 1438 0 23 495
134 60 0 1438 3 27 510
136 54 1 1449 0 20 498
138 51 1 1441 3 26 494
140 52 0 1452 4 18 507
142 59 0 1467 0 15 502
144 57 0 1462 3 16 510
146 55 0 1463 1 22 501
148 52 0 1464 1 18 509
150 46 0 1451 0 28 481
152 42 0 1471 3 22 495
154 44 0 1486 0 20 493
156 42 0 1491 0 24 509
158 39 0 1494 1 23 503
160 36 0 1506 0 19 506
162 38 0 1498 1 23 508
164 34 0 1498 0 21 482
166 35 0 1491 0 27 507
168 31 0 1493 1 22 503
170 32 0 1486 1 25 510
172 31 0 1488 1 23 510
174 30 0 1502 1 19 505
176 30 0 1498 2 28 501
178 31 0 1503 1 19 514
180 30 0 1510 1 10 508
182 31 0 1495 0 26 508
184 31 0 1499 0 23 486
186 31 0 1505 1 21 522
188 33 0 1504 1 28 485
190 28 0 1492 1 26 492
192 26 0 1487 2 29 499
194 22 0 1498 1 21 492
196 21 0 1501 1 23 499
198 20 0 1510 0 17 498
200 20 0 1509 1 15 490
