0 1119 0 0 0 0
2 1040 10 0 69 0
4.00004 1016 9 0 86 0
6 986 10 0 118 0
8 991 8 0 113 0
10 975 5 0 131 0
12 959 9 0 127 0
14 949 15 0 147 0
16 954 6 0 149 0
18 955 8 0 152 0
20 965 6 0 151 0
22 962 10 0 143 0
24 958 4 0 157 0
26 964 10 0 145 0
28 965 5 0 160 0
30 969 2 0 159 0
32 973 5 0 146 0
34 962 9 0 164 0
36 972 4 0 148 0
38 971 8 0 155 0
40 959 8 0 167 0
42 946 8 0 188 0
44 951 4 0 164 0
46 942 4 0 178 0
48 952 4 0 162 0
50 947 13 0 154 0
52 789 0 178 144 4
54 648 0 303 150 18
56 550 0 418 139 15
58 477 0 498 128 28
60 394 1 584 127 28
62 324 0 630 128 46
64 285 1 673 116 51
66 258 0 700 98 63
68 221 0 739 111 62
70 209 0 751 94 70
72 185 0 786 100 65
74 182 0 814 79 68
76 168 0 835 65 72
78 145 0 862 59 60
80 125 0 863 60 81
82 115 0 870 66 82
84 96 0 884 67 90
86 93 0 892 71 89
88 87 0 903 63 88
90 82 0 897 65 97
92 80 0 909 57 96
94 80 0 914 63 94
96 79 0 912 54 92
98 78 0 915 52 97
100 68 1 922 56 106
102 65 0 919 52 107
104 60 0 925 50 105
106 53 0 935 54 110
108 54 0 929 58 108
110 61 0 939 46 100
112 60 0 931 52 113
114 63 1 942 46 112
116 60 0 949 44 103
118 54 0 964 40 89
120 54 0 961 39 101
122 53 0 960 36 98
124 48 0 953 36 104
126 42 0 963 48 102
128 39 1 962 40 98
130 33 0 964 53 99
132 34 0 953 56 101
134 38 0 945 41 105
136 40 0 943 40 112
138 42 0 936 54 110
140 48 0 938 40 121
142 45 0 948 42 111
144 44 0 951 40 118
146 46 0 942 39 125
148 44 0 956 39 104
150 44 0 956 31 108
152 44 0 943 33 117
154 36 1 958 36 98
156 37 0 941 42 126
158 42 0 941 40 124
160 39 0 943 39 125
162 48 0 958 35 110
164 42 0 960 34 113
166 46 0 949 31 129
168 40 0 948 32 128
170 46 0 951 23 124
172 35 0 963 34 115
174 33 0 958 37 132
176 31 0 965 37 116
178 33 0 959 34 132
180 34 0 960 32 128
182 35 0 954 28 131
184 30 0 958 32 131
186 27 0 960 25 133
188 33 0 957 30 131
190 27 0 952 35 130
192 24 0 965 33 109
194 22 0 964 36 132
196 24 0 952 28 129
198 26 0 952 36 119
200 25 0 945 33 121
