0 1104 0 0 0 0
2 998 9 0 110 0
4.00004 957 9 0 153 0
6 941 11 0 159 0
8 911 5 0 192 0
10 888 8 0 219 0
12 874 9 0 238 0
14 858 4 0 258 0
16 841 8 0 277 0
18 851 5 0 270 0
20 843 7 0 272 0
22 848 6 0 257 0
24 821 7 0 290 0
26 808 6 0 295 0
28 817 4 0 290 0
30 795 9 0 309 0
32 792 9 0 313 0
34 811 3 0 288 0
36 809 7 0 278 0
38 797 6 0 297 0
40 783 10 0 317 0
42 791 5 0 303 0
44 790 8 0 285 0
46 781 4 0 299 0
48 763 3 0 324 0
50 758 11 0 313 0
52 576 0 171 335 7
54 472 0 284 313 14
56 398 0 359 286 35
58 323 0 432 264 49
60 260 0 469 254 78
62 234 0 512 234 81
64 211 0 529 217 107
66 169 0 578 214 106
68 133 0 594 224 124
70 123 0 617 205 125
72 112 0 623 185 143
74 106 0 622 169 159
76 109 0 625 157 160
78 83 0 646 152 156
80 76 0 660 150 159
82 62 0 659 152 175
84 59 0 657 141 183
86 60 0 667 142 188
88 51 0 668 154 189
90 49 0 655 148 208
92 50 0 650 140 214
94 47 0 664 142 210
96 48 0 674 139 202
98 52 0 681 129 194
100 55 0 682 133 189
102 55 0 700 118 174
104 55 0 703 114 183
106 47 0 714 108 177
108 47 1 719 104 180
110 43 0 720 101 177
112 41 0 724 96 175
114 41 0 716 92 185
116 35 0 725 94 186
118 38 0 712 96 198
120 31 0 710 103 203
122 32 0 702 98 216
124 38 0 721 90 199
126 37 0 710 96 197
128 43 0 714 91 202
130 40 0 694 89 224
132 43 0 691 85 220
134 35 1 693 90 207
136 40 0 673 92 228
138 41 0 676 81 228
140 39 0 667 94 228
142 40 0 679 99 218
144 37 0 687 97 223
146 37 0 698 94 212
148 35 0 694 84 224
150 34 0 718 85 201
152 36 0 713 83 209
154 35 0 702 85 223
156 37 0 709 86 222
158 40 0 713 79 214
160 31 0 731 76 221
162 32 0 739 80 205
164 28 0 732 77 226
166 26 0 729 73 225
168 27 0 716 69 236
170 29 0 716 70 226
172 28 0 709 74 232
174 24 0 721 68 211
176 28 0 717 63 219
178 29 0 704 63 230
180 24 0 715 58 221
182 19 0 725 67 218
184 19 0 718 72 229
186 24 0 706 68 247
188 21 0 724 65 208
190 18 0 714 75 224
192 20 1 721 73 216
194 19 0 724 80 205
196 21 0 710 76 217
198 26 0 714 80 220
200 24 0 722 82 211
