0 1327 0 0 0 0
2 1241 5 0 75 0
4.00004 1216 3 0 97 0
6 1184 5 0 124 0
8 1179 6 0 103 0
10 1168 9 0 122 0
12 1160 5 0 128 0
14 1150 3 0 134 0
16 1146 2 0 134 0
18 1140 2 0 131 0
20 1127 7 0 137 0
22 1113 6 0 139 0
24 1111 4 0 139 0
26 1108 6 0 138 0
28 1113 6 0 131 0
30 1086 4 0 134 0
32 1086 7 0 136 0
34 1093 6 0 107 0
36 1080 5 0 123 0
38 1082 2 0 122 0
40 1074 7 0 111 0
42 1056 8 0 132 0
44 1052 5 0 137 0
46 1060 4 0 122 0
48 1053 4 0 121 0
50 1048 7 0 131 0
52 903 1 144 128 1
54 817 0 228 122 5
56 742 0 309 115 8
58 662 1 370 118 18
60 600 0 431 105 24
62 554 0 481 101 26
64 524 0 528 78 29
66 475 1 568 60 36
68 423 0 600 78 44
70 384 0 626 76 43
72 356 0 658 80 43
74 348 0 680 56 54
76 314 0 705 68 51
78 281 0 709 80 73
80 264 0 722 69 73
82 241 0 760 58 66
84 227 0 777 56 68
86 211 0 801 65 64
88 205 1 801 58 68
90 177 0 811 64 77
92 165 0 833 58 70
94 158 0 839 56 72
96 150 0 850 58 73
98 153 0 847 46 78
100 152 0 841 45 96
102 145 0 849 37 84
104 140 0 851 36 81
106 123 0 877 39 63
108 127 0 863 41 76
110 121 1 863 41 67
112 112 1 868 45 78
114 118 0 882 45 69
116 117 0 870 37 86
118 106 0 879 39 78
120 95 0 885 34 85
122 89 0 881 32 81
124 86 0 894 35 73
126 87 0 881 33 108
128 87 0 877 36 92
130 90 0 881 33 91
132 85 1 885 39 83
134 84 0 897 33 69
136 78 0 892 27 92
138 76 0 879 31 83
140 71 0 881 35 87
142 71 0 881 36 90
144 72 0 877 36 92
146 74 0 872 38 98
148 82 0 888 28 77
150 78 0 893 36 81
152 80 0 878 24 95
154 74 0 876 36 94
156 72 0 881 31 85
158 66 0 870 30 93
160 62 0 865 27 95
162 64 0 869 30 94
164 65 0 863 28 93
166 73 0 859 21 95
168 65 0 870 23 85
170 67 0 857 27 109
172 65 0 871 26 85
174 60 0 877 31 86
176 57 0 876 32 86
178 52 0 866 25 88
180 58 0 876 30 81
182 62 1 862 25 89
184 51 0 864 33 82
186 52 0 858 31 103
188 57 0 862 28 91
190 59 0 855 29 91
192 66 0 868 34 87
194 57 0 874 31 94
196 65 0 878 25 83
198 55 0 864 24 108
200 58 0 883 23 90
