0 1062 0 0 0 0
2 983 0 0 78 0
4.00004 966 0 0 91 0
6 947 0 0 112 0
8 951 0 0 112 0
10 932 0 0 140 0
12 936 0 0 124 0
14 944 0 0 128 0
16 935 0 0 134 0
18 945 0 0 124 0
20 933 0 0 145 0
22 944 0 0 129 0
24 953 0 0 134 0
26 946 0 0 147 0
28 942 0 0 148 0
30 944 0 0 150 0
32 948 0 0 133 0
34 963 0 0 108 0
36 957 0 0 124 0
38 946 0 0 134 0
40 951 0 0 135 0
42 961 0 0 128 0
44 944 0 0 142 0
46 935 0 0 150 0
48 926 0 0 143 0
50 936 0 0 147 0
52 936 0 0 148 0
54 927 0 0 142 0
56 934 0 0 143 2
58 938 0 0 129 5
60 940 0 2 124 10
62 937 0 8 128 16
64 939 0 9 125 17
66 930 0 15 122 15
68 927 0 18 122 20
70 918 0 15 122 30
72 920 0 22 125 36
74 908 0 30 124 40
76 896 0 29 114 45
78 881 0 41 129 46
80 883 0 49 115 42
82 877 0 57 115 52
84 861 0 66 112 47
86 846 0 76 116 45
88 859 0 83 89 49
90 832 0 96 105 44
92 835 0 99 101 46
94 818 0 107 108 53
96 821 0 123 91 51
98 821 0 134 79 47
100 808 0 138 87 66
102 807 0 151 80 54
104 794 0 157 89 62
106 784 0 161 87 66
108 775 0 178 83 67
110 774 0 185 77 67
112 765 0 190 76 74
114 750 0 195 81 75
116 741 0 205 84 72
118 733 0 205 73 77
120 714 0 213 91 89
122 722 0 226 75 86
124 695 0 239 93 69
126 675 0 247 110 85
128 683 0 264 86 72
130 678 0 271 77 70
132 669 0 276 90 68
134 681 0 280 72 68
136 663 0 291 85 67
138 651 0 305 88 55
140 648 0 295 86 76
142 644 0 301 76 75
144 632 0 317 80 72
146 623 0 307 74 79
148 612 0 314 81 83
150 600 0 329 84 71
152 598 0 344 68 77
154 596 0 339 71 95
156 586 0 342 74 85
158 580 0 354 66 79
160 572 0 368 68 76
162 559 0 360 65 94
164 559 0 372 67 78
166 540 0 377 73 92
168 539 0 384 64 89
170 539 0 399 55 70
172 526 0 396 67 92
174 523 0 408 67 73
176 524 0 406 50 75
178 504 0 405 69 82
180 490 0 404 72 92
182 497 0 418 54 76
184 490 0 411 58 97
186 491 0 425 56 92
188 481 0 436 58 91
190 473 0 448 64 66
192 486 0 437 44 106
194 476 0 444 50 102
196 470 0 456 51 101
198 453 0 471 57 89
200 461 0 471 45 107
