0 1128 0 0 0 0 0
2 1032 10 0 84 0 4
4.00004 1012 8 0 108 0 9
6 1013 2 0 110 0 12
8 989 0 0 135 0 10
10 993 0 0 116 0 15
12 982 0 0 135 0 16
14 954 0 0 155 0 25
16 954 0 0 158 0 28
18 964 0 0 155 0 18
20 966 0 0 148 0 26
22 966 0 0 142 0 22
24 961 0 0 155 0 16
26 939 0 0 171 0 24
28 931 0 0 168 0 27
30 937 0 0 166 0 28
32 933 0 0 160 0 21
34 934 0 0 171 0 25
36 931 0 0 164 0 23
38 938 0 0 168 0 21
40 929 0 0 165 0 43
42 936 0 0 175 0 24
44 932 0 0 172 0 25
46 926 0 0 178 0 28
48 927 0 0 177 0 30
50 926 0 0 175 0 36
52 918 0 3 108 108 0
54 905 0 30 80 119 0
56 876 0 55 76 126 0
58 846 0 72 67 134 0
60 817 0 98 71 129 0
62 806 0 112 67 136 0
64 779 0 131 76 140 0
66 763 0 155 59 147 0
68 729 0 182 69 140 0
70 725 0 202 55 135 0
72 709 0 227 49 134 0
74 678 0 245 66 147 0
76 678 0 271 43 134 2
78 665 0 285 39 138 0
80 644 0 294 49 125 0
82 625 0 307 55 131 0
84 619 0 320 43 139 0
86 595 0 344 49 147 0
88 585 0 362 44 133 0
90 573 0 373 43 147 0
92 544 0 384 57 150 0
94 527 0 389 59 168 0
96 521 0 413 50 148 0
98 515 0 414 40 164 0
100 507 0 428 37 163 0
102 495 0 450 38 158 0
104 485 0 466 35 159 0
106 476 0 470 35 155 0
108 460 0 488 37 151 0
110 454 0 503 32 136 0
112 437 0 513 36 150 0
114 428 0 520 33 154 0
116 419 0 532 31 155 0
118 405 0 544 38 165 0
120 394 0 559 37 155 1
122 384 0 569 30 156 0
124 373 0 569 29 172 0
126 361 0 582 34 162 0
128 359 0 586 27 151 0
130 341 0 602 38 157 0
132 335 0 604 34 163 0
134 336 0 627 25 136 0
136 316 0 632 30 148 0
138 307 0 642 34 144 0
140 302 0 634 29 146 0
142 290 0 628 32 161 0
144 281 0 642 33 153 0
146 283 0 641 18 165 0
148 275 0 649 14 178 0
150 262 0 662 23 169 0
152 255 0 682 24 148 0
154 251 0 689 19 160 0
156 246 0 688 17 162 0
158 233 0 679 25 186 0
160 231 0 689 17 176 0
162 228 0 679 17 194 0
164 222 0 687 20 199 0
166 219 0 705 19 191 0
168 220 0 717 17 171 0
170 214 0 715 20 185 0
172 215 0 721 16 166 0
174 215 0 719 12 190 0
176 210 0 734 13 186 0
178 213 0 738 6 184 0
180 202 0 738 15 178 0
182 190 0 746 23 182 0
184 187 0 753 20 188 0
186 184 0 763 18 177 0
188 183 0 767 18 172 0
190 180 0 760 14 187 0
192 173 0 769 18 192 0
194 171 0 768 16 189 0
196 166 0 783 13 181 0
198 164 0 773 9 194 0
200 155 0 772 13 190 0
