0 1071 0 0 0 0 0
2 960 12 0 83 0 0
4.00004 927 7 0 110 0 1
6 919 11 0 124 0 3
8 903 4 0 138 0 5
10 880 6 0 154 0 5
12 858 5 0 167 0 7
14 860 2 0 171 0 10
16 843 3 0 182 0 11
18 839 1 0 193 0 12
20 838 1 0 192 0 7
22 839 0 0 201 0 12
24 823 0 0 217 0 15
26 815 0 0 231 0 12
28 801 0 0 241 0 10
30 812 0 0 239 0 12
32 796 0 0 253 0 13
34 790 0 0 254 0 17
36 786 0 0 267 0 21
38 795 0 0 253 0 21
40 782 0 0 269 0 18
42 771 0 0 277 0 18
44 760 0 0 298 0 18
46 751 0 0 287 0 26
48 769 0 0 272 0 18
50 751 0 0 296 0 18
52 784 0 0 205 74 0
54 770 0 0 196 94 0
56 758 0 4 188 98 1
58 753 0 5 178 131 0
60 766 0 12 153 125 0
62 756 0 22 144 123 0
64 740 0 27 146 125 1
66 735 0 32 139 150 0
68 718 0 36 151 148 0
70 716 0 43 141 152 0
72 699 0 50 140 160 0
74 706 0 59 123 163 0
76 707 0 62 112 173 0
78 690 0 67 121 174 0
80 681 0 82 111 165 0
82 667 0 84 120 162 0
84 663 0 93 119 168 0
86 634 0 98 139 182 0
88 632 0 110 125 184 0
90 630 0 117 116 182 0
92 611 0 116 126 193 0
94 605 0 125 123 194 0
96 603 0 130 116 195 0
98 588 0 148 119 187 0
100 586 0 152 113 198 0
102 575 0 170 107 197 1
104 555 0 169 124 212 0
106 560 0 180 109 214 0
108 547 0 187 109 207 0
110 536 0 186 115 215 0
112 530 0 195 109 213 0
114 516 0 204 114 202 0
116 511 0 206 112 217 0
118 516 0 221 97 203 0
120 508 0 237 99 195 0
122 506 0 245 95 190 0
124 502 0 248 92 192 0
126 498 0 237 85 226 0
128 492 0 252 88 204 0
130 491 0 259 82 202 0
132 490 0 269 78 193 0
134 473 0 271 87 200 0
136 456 0 277 101 208 0
138 455 0 283 93 204 0
140 451 0 290 91 195 0
142 445 0 299 92 215 0
144 439 0 293 91 213 0
146 433 0 305 91 205 0
148 440 0 303 75 214 0
150 439 0 320 69 204 0
152 430 0 331 75 203 0
154 427 0 331 73 203 0
156 420 0 338 72 201 0
158 414 0 335 74 211 0
160 413 0 329 69 222 0
162 399 0 334 77 223 0
164 389 0 335 81 224 0
166 381 0 342 84 222 0
168 376 0 340 82 224 0
170 385 0 354 71 241 0
172 372 0 368 78 220 0
174 367 0 373 76 236 0
176 364 0 387 71 216 0
178 361 0 401 69 221 0
180 354 0 401 68 219 0
182 357 0 393 58 235 0
184 345 0 408 66 239 0
186 337 0 398 69 238 0
188 336 0 416 65 226 0
190 335 0 413 61 233 0
192 326 0 413 63 241 0
194 323 0 419 62 236 0
196 321 0 419 52 261 0
198 327 0 431 45 248 0
200 312 0 422 53 275 0
