0 1009 0 0 0 0 0
2 936 16 0 81 0 0
4.00004 886 8 0 128 0 4
6 870 4 0 138 0 8
8 856 5 0 152 0 13
10 853 1 0 153 0 9
12 844 1 0 167 0 6
14 827 0 0 176 0 14
16 822 0 0 183 0 16
18 817 1 0 199 0 22
20 823 0 0 196 0 13
22 811 0 0 216 0 18
24 801 0 0 220 0 20
26 795 0 0 234 0 18
28 807 1 0 219 0 21
30 803 0 0 214 0 17
32 779 0 0 219 0 20
34 793 0 0 212 0 23
36 795 0 0 206 0 24
38 803 0 0 192 0 19
40 796 0 0 203 0 15
42 790 0 0 215 0 14
44 776 0 0 223 0 14
46 782 0 0 233 0 10
48 785 0 0 219 0 25
50 779 0 0 221 0 21
52 778 0 0 159 75 1
54 802 0 3 114 89 0
56 793 0 9 104 106 0
58 777 0 15 96 127 0
60 759 0 19 105 120 0
62 746 0 40 106 126 0
64 731 0 42 105 136 0
66 722 0 59 104 132 0
68 707 0 74 104 134 0
70 702 0 88 97 127 1
72 701 0 104 83 124 0
74 688 0 112 84 150 0
76 670 0 120 87 147 1
78 660 0 132 80 140 0
80 644 0 148 86 144 0
82 643 0 162 70 151 0
84 625 0 175 78 128 0
86 617 0 177 73 148 0
88 595 0 187 82 149 0
90 577 0 191 91 162 0
92 575 0 204 76 164 0
94 569 0 213 71 178 0
96 551 0 220 78 173 0
98 542 0 232 69 165 0
100 528 0 241 71 171 0
102 511 0 257 78 167 0
104 503 0 270 76 171 0
106 508 0 277 59 185 0
108 480 0 278 83 194 0
110 468 0 292 79 203 0
112 462 0 289 70 207 0
114 460 0 307 60 197 0
116 456 0 311 61 205 0
118 441 0 320 65 195 0
120 435 0 328 62 195 0
122 422 0 342 68 190 0
124 413 0 357 67 199 0
126 422 0 365 48 198 0
128 422 0 384 40 182 0
130 407 0 387 50 188 0
132 397 0 391 52 194 1
134 395 0 411 47 179 0
136 390 0 419 42 193 0
138 382 0 426 39 195 0
140 370 0 427 47 192 0
142 362 0 429 49 205 0
144 350 0 441 55 195 0
146 352 0 451 40 191 0
148 351 0 459 38 186 0
150 351 0 450 36 209 0
152 339 0 466 42 207 0
154 322 0 468 53 204 0
156 314 0 476 51 200 0
158 309 0 487 47 194 0
160 304 0 488 41 204 0
162 308 0 499 34 184 0
164 299 0 498 37 197 0
166 292 0 499 36 204 0
168 288 0 512 35 198 0
170 284 0 498 31 221 0
172 278 0 507 29 226 0
174 273 0 517 29 218 0
176 273 0 527 25 211 0
178 267 0 530 26 214 0
180 260 0 542 29 185 0
182 256 0 547 28 188 0
184 247 0 537 32 197 0
186 238 0 560 37 192 0
188 239 0 549 34 206 0
190 236 0 549 31 202 0
192 233 0 545 27 219 0
194 228 0 557 28 209 0
196 218 0 563 34 216 0
198 214 0 572 28 211 0
200 212 0 562 26 217 0
