0 1272 0 0 0 0 0
2 1190 5 0 77 0 8
4.00004 1166 0 0 100 0 17
6 1149 0 0 115 0 19
8 1143 0 0 111 0 17
10 1130 0 0 117 0 29
12 1140 0 0 113 0 25
14 1146 0 0 111 0 25
16 1153 0 0 108 0 21
18 1146 0 0 116 0 25
20 1141 0 0 112 0 34
22 1143 0 0 112 0 27
24 1139 0 0 118 0 19
26 1130 0 0 137 0 24
28 1140 0 0 108 0 31
30 1128 0 0 132 0 20
32 1138 0 0 112 0 21
34 1123 0 0 125 0 17
36 1128 0 0 129 0 27
38 1129 0 0 140 0 24
40 1128 0 0 121 0 35
42 1132 0 0 137 0 22
44 1141 0 0 132 0 22
46 1138 0 0 146 0 16
48 1156 0 0 118 0 21
50 1157 0 0 118 0 24
52 1138 0 7 67 88 0
54 1110 0 25 62 93 0
56 1087 0 52 59 83 0
58 1052 0 76 65 99 0
60 1023 0 101 64 92 0
62 1009 0 127 57 102 1
64 996 0 159 46 96 1
66 977 0 176 40 111 0
68 950 0 195 49 103 0
70 936 0 222 44 98 0
72 918 0 253 41 96 0
74 897 0 266 43 94 1
76 860 0 286 46 94 0
78 842 0 307 40 105 0
80 825 0 328 32 112 0
82 800 0 333 37 110 1
84 784 0 354 34 119 0
86 761 0 373 44 113 0
88 742 0 397 40 110 0
90 717 0 420 38 104 0
92 692 0 447 38 112 0
94 676 0 470 36 109 0
96 644 0 477 51 116 0
98 640 0 508 31 107 0
100 637 0 521 22 113 0
102 611 0 541 36 103 0
104 608 0 557 26 100 0
106 587 0 576 29 103 0
108 565 0 593 38 100 0
110 555 0 612 28 95 0
112 544 0 615 25 116 0
114 528 0 613 29 129 0
116 500 0 616 41 136 0
118 485 0 629 39 147 0
120 477 0 650 24 147 0
122 470 0 654 21 151 0
124 455 0 678 23 137 0
126 446 0 671 19 148 0
128 432 0 682 20 162 0
130 416 0 703 27 133 0
132 400 0 701 24 158 0
134 399 0 728 16 128 0
136 380 0 738 24 131 0
138 374 0 748 16 132 0
140 370 0 751 13 132 0
142 356 0 762 19 129 0
144 356 0 764 12 132 0
146 342 0 779 17 128 0
148 334 0 786 19 135 0
150 325 0 781 16 141 0
152 313 0 782 18 153 0
154 308 0 800 16 130 0
156 304 0 806 17 140 0
158 299 0 814 14 130 0
160 284 0 808 20 142 0
162 275 0 804 21 147 0
164 270 0 812 15 147 0
166 262 0 838 15 144 0
168 255 0 846 16 151 0
170 248 0 861 15 135 0
172 242 0 874 11 127 0
174 235 0 873 11 143 0
176 222 0 879 16 126 0
178 222 0 885 8 133 0
180 213 0 873 12 155 0
182 210 0 891 9 137 0
184 199 0 879 13 145 0
186 194 0 885 13 156 0
188 191 0 883 8 152 0
190 184 0 902 8 137 0
192 179 0 902 9 149 0
194 177 0 898 5 160 0
196 173 0 904 6 167 0
198 172 0 911 5 156 0
200 163 0 929 10 126 0
