0 1140 0 0 0 0 0
2 1042 9 0 88 0 3
4.00004 1004 2 0 126 0 6
6 977 3 0 144 0 15
8 970 1 0 148 0 20
10 958 0 0 157 0 20
12 948 0 0 159 0 18
14 938 0 0 171 0 23
16 924 0 0 179 0 26
18 910 0 0 196 0 23
20 898 0 0 204 0 24
22 901 0 0 189 0 34
24 887 0 0 205 0 34
26 886 0 0 213 0 39
28 884 0 0 204 0 29
30 867 0 0 226 0 35
32 859 0 0 227 0 23
34 870 0 0 227 0 18
36 889 0 0 194 0 19
38 892 0 0 205 0 20
40 877 0 0 212 0 27
42 869 0 0 216 0 26
44 864 0 0 204 0 28
46 866 0 0 208 0 24
48 874 0 0 215 0 19
50 881 0 0 192 0 27
52 870 0 3 131 85 0
54 859 0 17 92 133 0
56 843 0 28 83 145 0
58 828 0 40 75 161 0
60 794 0 59 86 148 0
62 771 0 82 86 152 0
64 741 0 100 84 162 0
66 728 0 116 77 157 0
68 712 0 145 67 136 0
70 693 0 159 72 121 0
72 681 0 178 62 131 0
74 659 0 191 59 150 0
76 645 0 205 57 144 0
78 626 0 218 62 147 0
80 617 0 234 48 162 0
82 593 0 240 60 165 0
84 576 0 255 57 174 0
86 561 0 283 57 170 0
88 551 0 295 52 158 0
90 537 0 311 54 145 0
92 533 0 323 44 152 0
94 528 0 342 41 143 0
96 507 0 345 50 140 0
98 492 0 365 52 141 0
100 486 0 378 48 152 0
102 456 0 384 60 169 0
104 447 0 394 50 175 1
106 433 0 396 51 188 0
108 424 0 421 44 169 0
110 413 0 424 40 173 1
112 394 0 425 51 182 0
114 393 0 431 37 189 0
116 370 0 438 47 196 0
118 353 0 453 49 187 0
120 349 0 472 34 182 0
122 333 0 485 42 182 0
124 328 0 489 38 173 1
126 322 0 499 34 182 0
128 313 0 507 32 194 0
130 311 0 525 25 186 0
132 286 0 528 42 167 0
134 283 0 525 38 174 0
136 268 0 514 38 188 0
138 266 0 534 30 200 0
140 252 0 549 30 198 0
142 245 0 552 29 200 0
144 231 0 580 33 173 0
146 231 0 575 23 184 0
148 221 0 572 22 200 0
150 212 0 576 23 209 0
152 209 0 578 20 206 0
154 204 0 580 21 216 0
156 192 0 599 26 199 0
158 190 0 612 20 195 0
160 189 0 610 15 184 0
162 181 0 610 17 182 0
164 170 0 617 22 175 0
166 168 0 611 21 192 0
168 170 0 613 14 201 0
170 161 0 623 17 192 0
172 161 0 629 10 198 0
174 149 0 637 15 193 0
176 146 0 644 15 190 0
178 142 0 655 12 186 0
180 141 0 655 10 199 0
182 141 0 655 7 204 0
184 136 0 647 6 222 0
186 134 0 662 6 200 0
188 128 0 669 11 187 0
190 122 0 671 12 211 0
192 118 0 681 14 190 0
194 127 0 682 3 192 0
196 118 0 686 11 196 0
198 119 0 691 8 181 0
200 116 0 691 9 205 0
