0 914 0 0 0 0 0
2 868 6 0 43 0 0
4.00004 869 4 0 55 0 3
6 858 1 0 66 0 3
8 861 0 0 68 0 8
10 857 0 0 77 0 3
12 849 0 0 86 0 7
14 848 0 0 84 0 15
16 841 0 0 90 0 14
18 848 0 0 85 0 14
20 849 0 0 91 0 14
22 844 0 0 97 0 15
24 848 0 0 100 0 6
26 847 0 0 100 0 10
28 847 0 0 97 0 13
30 838 0 0 106 0 9
32 849 0 0 97 0 13
34 843 0 0 99 0 8
36 838 0 0 102 0 24
38 830 0 0 119 0 17
40 852 0 0 105 0 10
42 860 0 0 98 0 15
44 867 0 0 92 0 11
46 858 0 0 104 0 12
48 877 0 0 90 0 12
50 875 0 0 87 0 15
52 871 0 0 57 55 0
54 863 0 15 43 62 0
56 851 0 24 31 67 0
58 830 0 34 41 78 0
60 822 0 44 41 76 0
62 805 0 54 45 77 1
64 797 0 75 41 72 0
66 786 0 86 42 75 0
68 778 0 96 40 70 0
70 778 0 105 26 76 0
72 765 0 121 33 69 0
74 758 0 125 29 83 0
76 744 0 139 37 80 0
78 737 0 151 33 79 0
80 723 0 155 35 93 0
82 711 0 179 42 67 0
84 708 0 192 35 72 0
86 703 0 199 27 81 0
88 688 0 212 31 75 0
90 683 0 220 25 86 0
92 669 0 230 31 77 0
94 657 0 240 33 80 0
96 654 0 249 26 93 0
98 642 0 262 28 74 0
100 634 0 281 26 77 0
102 630 0 286 20 93 0
104 616 0 300 26 90 0
106 619 0 317 19 77 0
108 610 0 313 24 85 0
110 596 0 320 33 85 0
112 583 0 331 34 92 0
114 584 0 347 26 83 0
116 568 0 357 36 81 0
118 559 0 357 34 87 0
120 549 0 375 34 81 0
122 541 0 379 35 79 0
124 531 0 386 33 87 0
126 519 0 394 32 99 0
128 503 0 401 35 104 0
130 501 0 407 28 101 0
132 489 0 431 32 84 0
134 487 0 434 25 90 0
136 483 0 445 20 82 0
138 476 0 453 23 89 0
140 459 0 458 35 92 1
142 457 0 467 28 94 0
144 459 0 481 21 82 0
146 448 0 485 25 93 0
148 443 0 485 22 97 0
150 436 0 498 20 94 0
152 429 0 496 22 100 0
154 422 0 503 22 99 0
156 417 0 502 23 100 0
158 416 0 512 19 101 0
160 405 0 516 22 110 0
162 398 0 522 26 122 0
164 393 0 537 24 111 0
166 395 0 538 17 111 0
168 395 0 541 12 118 0
170 386 0 554 17 111 0
172 374 0 571 25 93 0
174 379 0 569 11 103 0
176 369 0 575 14 97 0
178 360 0 582 18 94 0
180 351 0 597 19 87 0
182 349 0 600 14 96 0
184 348 0 609 11 93 0
186 341 0 608 15 96 0
188 337 0 622 14 90 0
190 335 0 615 15 97 0
192 327 0 616 16 108 0
194 323 0 621 16 100 0
196 319 0 646 18 86 0
198 304 0 647 22 93 0
200 302 0 642 16 105 0
