0 1091 0 0 0 0 0
2 989 7 0 71 0 0
4.00004 957 11 0 103 0 3
6 921 7 0 144 0 8
8 904 3 0 151 0 16
10 917 2 0 149 0 16
12 900 1 0 166 0 15
14 887 0 0 177 0 19
16 878 0 0 183 0 18
18 872 0 0 178 0 11
20 860 0 0 182 0 26
22 849 0 0 187 0 19
24 840 1 0 200 0 18
26 839 0 0 193 0 21
28 842 0 0 184 0 26
30 845 0 0 193 0 28
32 845 0 0 218 0 19
34 833 0 0 214 0 25
36 826 0 0 229 0 20
38 831 0 0 223 0 32
40 846 0 0 222 0 18
42 852 0 0 216 0 13
44 858 0 0 198 0 31
46 856 0 0 190 0 29
48 855 0 0 191 0 25
50 866 0 0 197 0 16
52 868 0 1 142 76 0
54 877 0 6 107 102 0
56 861 0 12 98 117 0
58 848 0 24 89 124 0
60 824 0 38 93 142 0
62 818 0 52 89 123 0
64 808 0 60 82 136 0
66 786 0 68 89 140 0
68 775 0 72 86 148 0
70 766 0 82 83 154 0
72 753 0 85 90 160 0
74 744 0 103 86 133 0
76 726 0 121 93 134 1
78 708 0 122 101 157 0
80 707 0 132 90 149 0
82 697 0 149 88 140 0
84 683 0 158 88 165 0
86 674 0 165 86 160 0
88 670 0 178 76 163 0
90 654 0 183 84 158 0
92 644 0 195 81 161 0
94 634 0 203 71 161 0
96 613 0 213 79 173 0
98 605 0 220 78 189 0
100 597 0 237 77 178 0
102 583 0 248 76 180 0
104 574 0 266 68 172 0
106 558 0 275 73 165 0
108 547 0 281 70 167 0
110 538 0 276 68 176 0
112 531 0 288 60 193 0
114 518 0 307 60 191 0
116 504 0 311 66 186 0
118 500 0 324 59 196 0
120 503 0 329 47 201 0
122 480 0 347 59 192 0
124 474 0 346 58 186 0
126 467 0 354 59 187 0
128 454 0 369 65 184 0
130 452 0 374 56 186 0
132 449 0 391 51 174 0
134 439 0 405 45 179 0
136 430 0 412 44 170 0
138 418 0 418 47 175 0
140 411 0 416 43 194 0
142 398 0 428 48 181 0
144 394 0 434 49 182 0
146 392 0 446 47 181 0
148 382 0 447 52 185 0
150 375 0 461 54 164 0
152 367 0 463 50 166 0
154 375 0 468 34 176 0
156 369 0 464 36 190 0
158 361 0 472 39 191 0
160 364 0 473 34 192 0
162 352 0 485 40 198 0
164 341 0 487 45 196 0
166 339 0 494 42 194 0
168 332 0 508 46 181 0
170 334 0 508 35 189 0
172 328 0 509 36 187 0
174 319 0 518 38 188 0
176 319 0 524 29 192 0
178 311 0 527 32 193 0
180 309 0 532 32 211 0
182 300 0 537 33 211 0
184 301 0 547 27 212 0
186 298 0 545 27 203 0
188 288 0 552 33 199 0
190 289 0 552 23 218 0
192 280 0 563 29 204 0
194 276 0 563 29 210 0
196 269 0 572 33 195 0
198 263 0 575 36 201 0
200 256 0 582 39 206 0
