0 1125 0 0 0 0 0
2 1053 12 0 58 0 4
4.00004 1026 3 0 79 0 8
6 1004 1 0 114 0 12
8 979 1 0 125 0 21
10 991 0 0 108 0 23
12 973 0 0 119 0 18
14 999 0 0 94 0 11
16 967 0 0 122 0 27
18 982 0 0 111 0 15
20 981 0 0 113 0 18
22 977 0 0 115 0 25
24 964 0 0 123 0 22
26 980 0 0 115 0 15
28 973 0 0 124 0 14
30 963 0 0 117 0 20
32 970 0 0 106 0 32
34 962 0 0 118 0 22
36 983 0 0 115 0 14
38 971 0 0 121 0 23
40 962 0 0 138 0 17
42 962 0 0 132 0 19
44 956 0 0 135 0 21
46 959 0 0 129 0 24
48 958 0 0 127 0 21
50 958 0 0 137 0 19
52 959 0 3 85 78 0
54 949 0 19 64 85 0
56 943 0 33 52 92 0
58 921 0 59 52 94 0
60 912 0 71 44 92 0
62 879 0 87 66 102 0
64 858 0 103 60 101 0
66 845 0 120 61 93 0
68 836 0 135 53 104 0
70 816 0 149 57 114 0
72 805 0 164 53 114 0
74 786 0 179 53 116 0
76 754 0 201 64 106 0
78 751 0 209 49 123 0
80 744 0 225 40 125 0
82 726 0 242 41 128 0
84 715 0 253 35 114 0
86 686 0 275 47 124 0
88 681 0 282 41 130 0
90 667 0 294 42 138 0
92 649 0 305 47 130 0
94 640 0 321 40 123 0
96 631 0 343 36 122 0
98 624 0 357 34 118 0
100 594 0 371 57 121 0
102 592 0 386 41 112 0
104 580 0 398 41 133 0
106 567 0 413 38 113 0
108 557 0 424 37 119 0
110 551 0 433 31 121 0
112 541 0 448 32 130 0
114 529 0 453 38 132 0
116 520 0 470 35 110 0
118 512 0 480 33 117 0
120 507 0 484 24 127 0
122 480 0 492 43 125 1
124 473 0 499 38 124 0
126 465 0 508 35 128 0
128 459 0 511 29 136 0
130 450 0 502 30 152 0
132 445 0 521 27 134 0
134 435 0 530 25 141 0
136 435 0 530 17 163 0
138 419 0 541 26 160 0
140 413 0 542 27 160 0
142 406 0 579 23 122 0
144 399 0 580 24 137 0
146 386 0 591 30 134 0
148 392 0 590 17 132 0
150 382 0 596 24 133 0
152 379 0 608 24 118 0
154 371 0 611 21 128 0
156 358 0 618 23 130 0
158 346 0 632 23 126 0
160 351 0 635 13 128 0
162 343 0 636 17 137 0
164 327 0 639 27 136 0
166 331 0 636 17 146 0
168 319 0 649 23 145 0
170 306 0 658 28 111 0
172 302 0 654 23 128 0
174 303 0 662 16 138 0
176 298 0 667 17 128 0
178 286 0 677 23 123 0
180 283 0 670 18 124 0
182 280 0 678 17 129 0
184 275 0 681 16 144 0
186 274 0 675 11 155 0
188 265 0 685 15 155 0
190 249 0 692 26 147 0
192 248 0 688 23 152 0
194 243 0 696 23 156 0
196 241 0 714 16 137 0
198 244 0 717 7 132 0
200 240 0 717 9 147 0
