0 1199 0 0 0 0 0
2 1089 19 0 81 0 1
4.00004 1076 12 0 103 0 2
6 1037 4 0 142 0 5
8 1018 2 0 158 0 17
10 985 2 0 183 0 15
12 963 1 0 205 0 14
14 941 0 0 216 0 18
16 947 0 0 205 0 20
18 930 0 0 225 0 22
20 917 0 0 224 0 23
22 935 0 0 200 0 22
24 912 0 0 225 0 26
26 921 0 0 202 0 19
28 911 0 0 216 0 24
30 911 0 0 213 0 24
32 913 0 0 210 0 26
34 909 0 0 208 0 23
36 886 0 0 239 0 23
38 888 0 0 235 0 19
40 891 0 0 226 0 30
42 866 0 0 241 0 29
44 874 0 0 221 0 24
46 892 0 0 201 0 20
48 892 0 0 216 0 25
50 892 0 0 218 0 26
52 903 0 1 139 103 0
54 888 0 8 120 111 1
56 865 0 14 120 134 0
58 860 0 29 101 140 0
60 822 0 34 121 152 0
62 805 0 54 118 135 0
64 797 0 66 104 141 0
66 777 0 75 104 163 0
68 780 0 96 84 162 0
70 758 0 111 91 158 0
72 743 0 124 85 164 0
74 728 0 140 93 155 0
76 717 0 160 88 155 0
78 704 0 168 88 165 0
80 690 0 190 81 164 0
82 674 0 194 78 180 0
84 665 0 218 79 163 0
86 648 0 222 84 182 0
88 641 0 232 80 167 0
90 634 0 248 76 166 0
92 624 0 254 73 177 0
94 626 0 267 62 176 0
96 607 0 285 73 148 0
98 605 0 295 63 154 0
100 589 0 304 67 149 0
102 597 0 302 51 167 0
104 577 0 311 64 156 0
106 572 0 322 57 155 0
108 550 0 332 69 163 0
110 551 0 329 60 173 0
112 534 0 338 69 174 0
114 526 0 353 67 176 0
116 523 0 353 59 176 0
118 514 0 377 47 175 0
120 489 0 374 67 172 1
122 474 0 375 71 188 0
124 475 0 380 60 190 0
126 470 0 396 51 194 0
128 461 0 411 48 187 0
130 452 0 419 50 184 0
132 438 0 425 56 193 0
134 419 0 421 69 219 0
136 417 0 433 53 210 0
138 405 0 436 52 222 0
140 389 0 442 59 231 0
142 373 0 454 64 216 0
144 375 0 469 52 227 0
146 372 0 464 43 224 0
148 359 0 489 42 208 0
150 345 0 480 52 229 0
152 334 0 500 52 225 0
154 331 0 511 46 223 0
156 316 0 511 50 233 0
158 315 0 515 40 241 0
160 309 0 541 37 216 0
162 304 0 535 39 230 0
164 298 0 533 38 242 0
166 300 0 553 33 221 0
168 298 0 560 30 216 0
170 293 0 574 30 211 0
172 288 0 584 27 226 0
174 275 0 593 35 214 0
176 279 0 588 28 214 0
178 276 0 603 27 197 0
180 271 0 595 26 209 0
182 270 0 595 21 209 0
184 257 0 592 27 222 0
186 249 0 600 29 216 0
188 241 0 607 30 208 0
190 238 0 608 26 221 0
192 232 0 603 26 225 0
194 226 0 622 25 224 0
196 229 0 617 19 243 0
198 224 0 630 24 222 0
200 220 0 632 25 227 0
