0 1131 0 0 0 0 0
2 1065 19 0 54 0 0
4.00004 1055 5 0 74 0 3
6 1028 4 0 99 0 3
8 1012 2 0 107 0 6
10 1007 1 0 118 0 10
12 999 0 0 124 0 10
14 1002 0 0 125 0 14
16 992 0 0 137 0 12
18 980 0 0 140 0 8
20 962 0 0 152 0 13
22 984 0 0 123 0 12
24 966 0 0 141 0 9
26 968 0 0 137 0 15
28 962 0 0 142 0 10
30 960 0 0 136 0 18
32 941 0 0 172 0 16
34 942 0 0 168 0 19
36 944 0 0 168 0 9
38 933 0 0 175 0 14
40 942 0 0 171 0 16
42 943 0 0 174 0 12
44 959 0 0 154 0 21
46 961 0 0 145 0 17
48 947 0 0 149 0 18
50 952 0 0 158 0 11
52 953 0 0 110 54 0
54 948 0 3 94 75 0
56 950 0 11 73 80 0
58 917 0 23 90 92 0
60 921 0 33 75 89 0
62 910 0 46 67 112 0
64 893 0 56 75 100 2
66 892 0 68 68 104 0
68 887 0 79 58 112 0
70 872 0 93 65 99 0
72 865 0 109 59 109 0
74 863 0 119 48 103 0
76 845 0 123 58 104 0
78 831 0 133 63 102 0
80 822 0 140 61 100 0
82 798 0 160 71 103 0
84 789 0 167 71 106 0
86 789 0 174 57 108 0
88 774 0 190 63 102 0
90 767 0 197 59 110 0
92 751 0 206 62 116 0
94 733 0 215 69 112 0
96 727 0 223 57 123 0
98 711 0 233 60 116 0
100 706 0 240 55 112 0
102 697 0 248 55 113 0
104 710 0 255 34 110 0
106 691 0 256 49 123 0
108 684 0 260 52 127 0
110 679 0 276 41 122 0
112 666 0 285 49 115 0
114 663 0 297 46 115 0
116 659 0 303 42 119 0
118 652 0 313 45 105 0
120 645 0 324 46 113 0
122 636 0 326 48 109 0
124 631 0 325 41 124 0
126 614 0 328 49 131 0
128 604 0 333 47 139 0
130 584 0 344 62 138 0
132 576 0 357 61 131 0
134 566 0 370 63 131 0
136 564 0 366 53 136 0
138 556 0 381 53 125 0
140 554 0 385 48 124 0
142 544 0 386 52 121 0
144 542 0 388 47 138 0
146 524 0 401 56 138 0
148 523 0 408 48 138 0
150 513 0 412 48 141 0
152 510 0 423 42 140 0
154 500 0 435 47 129 0
156 492 0 434 49 139 0
158 487 0 439 47 136 0
160 486 0 449 39 132 0
162 479 0 448 43 138 0
164 474 0 456 43 136 0
166 466 0 457 43 149 0
168 459 0 467 42 139 0
170 453 0 474 36 143 0
172 449 0 485 31 137 0
174 434 0 484 44 134 0
176 431 0 482 37 142 0
178 428 0 485 38 150 0
180 424 0 497 34 149 0
182 419 0 495 35 158 0
184 416 0 504 34 142 0
186 409 0 515 36 147 0
188 407 0 521 31 135 0
190 408 0 515 23 154 0
192 399 0 522 27 137 0
194 388 0 537 34 140 0
196 378 0 541 35 135 0
198 378 0 539 31 139 0
200 371 0 546 35 133 0
