0 1105 0 0 0 0 0
2 997 12 0 97 0 0
4.00004 989 7 0 108 0 2
6 955 6 0 133 0 8
8 925 6 0 180 0 3
10 912 3 0 201 0 7
12 900 0 0 207 0 14
14 905 3 0 193 0 20
16 889 1 0 202 0 15
18 888 1 0 202 0 18
20 880 0 0 220 0 12
22 882 0 0 211 0 12
24 885 2 0 212 0 9
26 864 0 0 225 0 19
28 858 0 0 236 0 19
30 849 0 0 234 0 19
32 845 0 0 232 0 21
34 848 0 0 240 0 16
36 828 0 0 255 0 19
38 811 0 0 273 0 15
40 799 0 0 269 0 23
42 795 0 0 261 0 26
44 797 0 0 256 0 27
46 815 0 0 229 0 24
48 806 0 0 240 0 28
50 813 0 0 227 0 26
52 790 0 1 190 88 0
54 783 0 2 169 112 0
56 786 0 7 140 140 1
58 772 0 15 135 152 0
60 755 0 23 137 167 0
62 746 0 41 128 170 0
64 745 0 46 113 181 0
66 743 0 57 96 185 0
68 724 0 71 97 183 0
70 700 0 81 104 196 0
72 689 0 96 101 197 0
74 662 0 108 111 201 0
76 671 0 132 89 194 0
78 647 0 156 104 171 0
80 634 0 175 102 159 0
82 620 0 179 110 168 0
84 611 0 185 101 173 2
86 596 0 193 101 179 0
88 596 0 200 93 171 0
90 602 0 210 78 177 0
92 580 0 221 85 186 0
94 569 0 227 86 207 0
96 560 0 241 90 191 0
98 532 0 241 98 204 0
100 516 0 246 104 206 0
102 506 0 263 108 202 0
104 509 0 277 95 189 0
106 494 0 280 92 206 0
108 480 0 282 93 219 0
110 486 0 291 72 217 0
112 475 0 301 69 213 0
114 468 0 303 65 222 0
116 449 0 314 76 216 0
118 443 0 324 71 231 0
120 428 0 330 73 234 0
122 427 0 350 70 211 0
124 426 0 351 64 214 0
126 409 0 344 72 230 0
128 406 0 348 72 238 0
130 400 0 364 68 231 0
132 389 0 368 70 230 0
134 395 0 375 53 237 0
136 375 0 377 63 229 0
138 375 0 381 53 243 0
140 368 0 383 51 245 1
142 362 0 388 51 234 0
144 352 0 392 55 233 0
146 350 0 396 48 246 0
148 342 0 408 53 237 0
150 336 0 409 53 236 0
152 323 0 407 61 241 0
154 320 0 417 56 238 0
156 311 0 415 55 247 0
158 304 0 432 55 235 0
160 301 0 436 55 228 0
162 295 0 441 55 236 0
164 294 0 454 43 219 0
166 285 0 456 46 227 0
168 282 0 462 45 233 0
170 272 0 472 49 219 0
172 260 0 473 54 242 0
174 259 0 492 45 217 0
176 257 0 495 42 219 0
178 258 0 485 36 251 0
180 264 0 501 25 232 0
182 238 0 504 47 234 0
184 244 0 503 34 230 0
186 238 0 506 35 249 0
188 239 0 502 32 251 0
190 225 0 508 41 243 0
192 226 0 506 36 255 0
194 216 0 528 43 237 0
196 218 0 525 34 249 0
198 212 0 531 34 253 0
200 203 0 532 38 255 0
