0 1162 0 0 0 0 0
2 1106 2 0 45 0 8
4.00004 1093 1 0 66 0 11
6 1081 2 0 79 0 15
8 1062 0 0 93 0 21
10 1084 0 0 75 0 15
12 1065 0 0 97 0 18
14 1061 0 0 91 0 22
16 1058 0 0 98 0 12
18 1046 0 0 110 0 22
20 1046 0 0 103 0 42
22 1049 0 0 105 0 26
24 1040 0 0 123 0 23
26 1044 0 0 111 0 24
28 1044 0 0 119 0 24
30 1055 0 0 115 0 24
32 1041 0 0 118 0 33
34 1051 0 0 117 0 22
36 1059 0 0 116 0 19
38 1076 0 0 103 0 27
40 1094 0 0 90 0 16
42 1097 0 0 85 0 21
44 1079 0 0 120 0 17
46 1086 0 0 99 0 18
48 1094 0 0 90 0 25
50 1091 0 0 101 0 22
52 1072 0 17 45 72 0
54 1050 0 51 36 73 1
56 1021 0 72 37 72 0
58 1001 0 101 33 64 0
60 972 0 115 43 69 0
62 958 0 138 27 73 0
64 928 0 160 30 85 0
66 910 0 194 26 90 0
68 883 0 221 28 88 0
70 855 0 244 37 88 0
72 831 0 280 38 74 0
74 826 0 297 25 77 0
76 808 0 308 30 92 0
78 778 0 314 32 103 0
80 775 0 350 22 90 0
82 763 0 363 25 93 0
84 744 0 368 25 99 0
86 734 0 374 19 82 0
88 706 0 385 27 100 0
90 694 0 405 24 100 0
92 670 0 428 30 93 0
94 649 0 433 35 95 0
96 642 0 459 18 95 0
98 621 0 479 28 91 0
100 611 0 489 21 102 0
102 598 0 508 21 94 0
104 577 0 515 24 111 0
106 562 0 528 21 114 0
108 559 0 549 16 111 0
110 542 0 572 18 101 0
112 536 0 596 20 95 0
114 527 0 612 15 94 0
116 519 0 617 11 105 0
118 505 0 618 11 113 0
120 493 0 637 16 92 0
122 478 0 646 12 109 0
124 469 0 654 12 116 0
126 458 0 658 16 118 0
128 452 0 676 13 102 0
130 436 0 687 11 104 0
132 421 0 675 12 115 0
134 411 0 694 13 108 0
136 400 0 707 14 93 0
138 393 0 719 11 93 0
140 381 0 721 15 100 0
142 376 0 735 11 90 0
144 368 0 741 11 101 0
146 359 0 748 11 99 0
148 351 0 754 11 98 0
150 344 0 756 11 106 0
152 333 0 761 13 111 0
154 327 0 777 8 107 0
156 310 0 781 13 106 0
158 294 0 792 13 114 0
160 284 0 800 13 120 0
162 282 0 815 8 131 0
164 274 0 840 9 117 0
166 260 0 839 14 116 0
168 256 0 856 9 119 0
170 246 0 874 11 99 0
172 243 0 859 9 123 0
174 233 0 870 12 129 0
176 229 0 890 10 103 0
178 223 0 898 9 101 0
180 214 0 897 13 97 0
182 208 0 903 9 118 0
184 203 0 903 9 119 0
186 200 0 907 5 109 0
188 194 0 909 8 108 0
190 183 0 915 11 108 0
192 180 0 906 7 126 0
194 177 0 906 6 121 0
196 175 0 919 6 110 0
198 169 0 919 6 108 0
200 169 0 933 4 109 0
