0 1174 0 0 0 0 0
2 1125 10 0 38 0 0
4.00004 1112 10 0 52 0 2
6 1105 4 0 73 0 3
8 1092 6 0 81 0 9
10 1076 2 0 96 0 8
12 1071 0 0 99 0 5
14 1071 0 0 98 0 14
16 1056 0 0 125 0 9
18 1057 0 0 111 0 11
20 1050 0 0 122 0 13
22 1036 0 0 145 0 13
24 1043 0 0 134 0 10
26 1044 0 0 136 0 10
28 1053 0 0 128 0 17
30 1043 0 0 135 0 14
32 1038 0 0 145 0 15
34 1034 0 0 141 0 17
36 1035 0 0 145 0 14
38 1037 0 0 146 0 18
40 1026 0 0 158 0 13
42 1023 0 0 166 0 15
44 1030 0 0 161 0 16
46 1038 0 0 150 0 25
48 1048 0 0 150 0 13
50 1029 0 0 161 0 11
52 1047 0 0 97 62 0
54 1041 0 2 88 77 0
56 1034 0 13 79 75 0
58 1037 0 15 64 90 0
60 1016 0 25 72 85 0
62 1007 0 33 68 95 0
64 1002 0 43 67 102 0
66 988 0 54 69 105 0
68 976 0 59 71 106 0
70 971 0 72 64 106 0
72 971 0 84 56 100 0
74 947 0 93 69 109 0
76 942 0 99 63 108 0
78 933 0 108 63 102 0
80 927 0 116 64 110 0
82 913 0 128 65 112 0
84 905 0 137 68 113 0
86 897 0 151 66 103 0
88 880 0 164 73 94 0
90 876 0 175 71 98 0
92 870 0 186 66 105 0
94 865 0 195 58 111 1
96 864 0 202 50 117 0
98 854 0 207 53 112 0
100 856 0 219 46 115 0
102 848 0 222 46 114 0
104 831 0 227 59 112 0
106 828 0 238 58 109 0
108 825 0 247 53 96 0
110 807 0 247 60 108 0
112 807 0 264 51 98 0
114 811 0 263 42 107 0
116 808 0 275 37 102 0
118 794 0 277 45 97 0
120 786 0 285 48 103 0
122 776 0 293 49 100 0
124 757 0 291 62 92 0
126 747 0 297 67 111 0
128 742 0 312 60 101 0
130 737 0 311 53 117 0
132 733 0 316 53 113 0
134 727 0 314 53 122 0
136 726 0 321 46 117 0
138 720 0 317 44 139 0
140 713 0 329 45 124 0
142 697 0 334 55 127 0
144 686 0 339 59 121 0
146 691 0 348 48 121 0
148 682 0 356 50 122 0
150 680 0 354 46 132 0
152 671 0 362 47 124 0
154 668 0 365 44 126 0
156 670 0 376 35 126 0
158 665 0 382 35 124 0
160 653 0 393 44 125 0
162 653 0 403 37 123 0
164 655 0 406 31 121 0
166 651 0 417 33 125 0
168 645 0 415 35 132 0
170 634 0 423 42 122 0
172 624 0 434 45 120 0
174 619 0 426 39 143 0
176 612 0 426 42 146 0
178 602 0 448 48 126 0
180 601 0 463 41 113 0
182 591 0 458 45 132 0
184 584 0 464 44 133 0
186 576 0 478 46 125 0
188 565 0 480 50 134 0
190 561 0 485 50 137 0
192 551 0 496 51 126 0
194 555 0 498 37 143 1
196 550 0 502 37 129 0
198 535 0 520 46 113 0
200 531 0 527 43 108 0
