0 875 0 0 0 0 0
2 828 0 0 45 0 0
4.00004 813 0 0 55 0 0
6 811 0 0 65 0 0
8 824 0 0 54 0 0
10 829 0 0 52 0 0
12 817 0 0 54 0 0
14 818 0 0 53 0 0
16 836 0 0 53 0 0
18 826 0 0 62 0 0
20 824 0 0 70 0 0
22 821 0 0 67 0 0
24 828 0 0 58 0 0
26 842 0 0 56 0 0
28 838 0 0 63 0 0
30 847 0 0 51 0 0
32 852 0 0 44 0 0
34 846 0 0 49 0 0
36 833 0 0 62 0 0
38 839 0 0 57 0 0
40 847 0 0 54 0 0
42 856 0 0 49 0 0
44 846 0 0 61 0 0
46 847 0 0 55 0 0
48 863 0 0 52 0 0
50 870 0 0 59 0 0
52 849 0 5 74 2 0
54 869 0 11 33 7 0
56 854 0 18 41 9 0
58 845 0 32 34 10 0
60 841 0 43 33 13 0
62 836 0 44 26 25 0
64 813 0 61 33 21 0
66 798 0 71 38 24 0
68 788 0 77 40 24 0
70 783 0 95 34 22 0
72 766 0 97 36 32 0
74 763 0 112 33 24 0
76 764 0 121 23 24 0
78 748 0 133 29 22 0
80 728 0 141 37 19 0
82 731 0 144 28 24 0
84 704 0 146 50 37 0
86 718 0 155 25 36 0
88 707 0 170 30 28 0
90 695 0 174 33 38 0
92 678 0 185 44 41 0
94 682 0 204 32 31 0
96 680 0 222 27 28 0
98 675 0 221 31 29 0
100 666 0 236 36 31 0
102 658 0 235 33 36 0
104 662 0 242 19 33 0
106 642 0 258 29 24 0
108 648 0 257 15 45 0
110 631 0 263 26 48 0
112 622 0 287 30 25 0
114 605 0 290 33 23 0
116 603 0 289 32 36 0
118 594 0 299 34 26 0
120 597 0 311 29 32 0
122 584 0 304 33 37 0
124 576 0 307 35 46 0
126 581 0 314 22 45 0
128 576 0 323 22 44 0
130 559 0 340 28 44 0
132 553 0 354 29 27 0
134 537 0 364 27 33 0
136 535 0 369 22 30 0
138 535 0 377 25 31 0
140 528 0 383 23 39 0
142 532 0 385 15 40 0
144 515 0 398 25 31 0
146 521 0 395 17 41 0
148 518 0 409 15 38 0
150 498 0 417 30 32 0
152 509 0 415 14 39 0
154 502 0 418 22 46 0
156 503 0 434 18 32 0
158 491 0 434 23 44 0
160 491 0 445 21 31 0
162 484 0 445 21 36 0
164 478 0 451 22 42 0
166 475 0 463 19 32 0
168 471 0 461 21 36 0
170 462 0 466 23 37 0
172 467 0 468 12 49 0
174 458 0 471 16 56 0
176 448 0 486 25 39 0
178 458 0 492 16 49 0
180 446 0 489 21 35 0
182 442 0 496 22 31 0
184 442 0 496 17 38 0
186 438 0 500 21 51 0
188 440 0 503 14 51 0
190 434 0 513 15 39 0
192 426 0 508 21 50 0
194 419 0 507 22 53 0
196 403 0 519 24 39 0
198 398 0 520 27 38 0
200 391 0 518 22 43 0
