0 1147 0 0 0 0 0
2 1069 1 0 47 0 25
4.00004 1050 10 0 51 0 26
6 1057 12 0 44 0 24
8 1034 18 0 61 0 27
10 1022 12 0 68 0 30
12 1025 11 0 59 0 27
14 1021 12 0 51 0 27
16 1021 15 0 44 0 29
18 1012 11 0 58 0 31
20 1010 17 0 51 0 29
22 1003 19 0 49 0 30
24 990 12 0 67 0 31
26 1003 12 0 65 0 22
28 1002 14 0 62 0 27
30 1013 10 0 58 0 28
32 1020 7 0 55 0 21
34 1005 13 0 56 0 29
36 1009 8 0 50 0 25
38 1002 7 0 47 0 24
40 987 11 0 38 0 32
42 989 15 0 47 0 17
44 998 8 0 56 0 18
46 986 8 0 57 0 28
48 977 12 0 64 0 28
50 994 8 0 49 0 24
52 858 0 151 11 63 0
54 739 0 257 15 57 0
56 664 0 333 13 70 0
58 590 1 399 14 56 2
60 526 0 448 14 73 0
62 462 0 498 11 91 0
64 415 0 564 11 67 1
66 366 0 599 11 74 0
68 331 0 640 1 79 0
70 285 0 689 6 76 0
72 253 0 728 14 77 0
74 231 0 749 5 81 1
76 211 0 772 4 60 0
78 187 0 797 10 67 0
80 167 0 809 8 70 0
82 143 0 841 7 62 0
84 118 0 845 14 84 0
86 116 0 854 6 80 0
88 97 0 880 7 68 0
90 90 0 895 3 74 0
92 77 0 896 8 80 0
94 67 0 901 11 77 0
96 60 0 918 4 68 0
98 53 0 919 8 73 0
100 52 0 917 8 80 0
102 52 0 930 5 65 0
104 43 0 910 6 79 0
106 42 0 925 10 67 0
108 40 0 920 4 83 0
110 35 0 923 5 77 0
112 27 0 943 11 69 0
114 26 0 946 5 83 0
116 21 0 949 5 73 0
118 21 0 950 4 72 0
120 21 0 951 10 72 0
122 19 0 950 5 79 0
124 15 0 939 13 82 0
126 17 0 950 8 67 0
128 15 0 952 5 79 0
130 14 0 951 11 84 0
132 14 0 950 3 79 0
134 11 0 967 6 66 0
136 13 0 963 5 64 0
138 8 0 951 5 70 0
140 6 0 936 5 90 0
142 8 0 930 4 85 0
144 11 0 946 5 67 0
146 8 0 945 6 75 0
148 8 0 941 2 84 0
150 8 0 964 3 64 0
152 5 0 942 2 89 0
154 8 0 951 5 65 0
156 7 0 945 3 75 0
158 6 0 943 4 79 0
160 8 0 936 4 90 0
162 9 0 961 7 71 0
164 10 0 934 7 91 0
166 9 0 950 3 73 0
168 3 0 962 2 77 0
170 4 0 962 2 68 0
172 5 0 949 2 70 0
174 5 0 937 6 85 0
176 9 0 959 3 63 0
178 4 0 958 5 71 0
180 4 0 955 1 73 0
182 2 0 943 0 91 0
184 3 1 955 1 67 0
186 3 0 953 1 82 0
188 2 0 955 4 63 0
190 3 0 973 4 57 0
192 4 0 975 2 60 0
194 3 1 978 3 59 0
196 2 0 963 2 62 0
198 6 0 953 9 77 0
200 8 0 948 4 79 0
