0 833 0 0 0 0 0
2 781 0 0 57 0 0
4.00004 785 0 0 46 0 0
6 787 0 0 61 0 0
8 791 0 0 52 0 0
10 773 0 0 65 0 0
12 770 0 0 70 0 0
14 788 0 0 68 0 0
16 780 0 0 71 0 0
18 768 0 0 70 0 0
20 781 0 0 67 0 0
22 770 0 0 66 0 0
24 777 0 0 86 0 0
26 789 0 0 70 0 0
28 802 0 0 68 0 0
30 785 0 0 80 0 0
32 779 0 0 63 0 0
34 772 0 0 63 0 0
36 775 0 0 63 0 0
38 765 0 0 72 0 0
40 784 0 0 55 0 0
42 769 0 0 67 0 0
44 758 0 0 67 0 0
46 767 0 0 70 0 0
48 773 0 0 63 0 0
50 792 0 0 71 0 0
52 750 0 24 66 10 0
54 737 0 49 42 28 0
56 724 0 86 41 28 0
58 702 0 111 38 33 0
60 690 0 132 28 30 0
62 652 0 153 36 28 0
64 631 0 171 35 40 0
66 606 0 203 40 46 0
68 601 0 219 18 38 0
70 571 0 231 35 44 0
72 554 0 259 31 37 0
74 528 0 279 32 26 0
76 509 0 287 26 39 0
78 500 0 304 26 44 0
80 481 0 324 29 38 0
82 454 0 339 36 35 0
84 456 0 337 24 42 0
86 431 0 364 27 42 0
88 420 0 363 26 55 0
90 402 0 381 17 54 0
92 386 0 409 18 53 0
94 364 0 427 21 44 0
96 360 0 428 13 39 0
98 355 0 442 15 58 0
100 339 0 462 21 43 0
102 336 0 478 18 44 0
104 324 0 487 14 44 0
106 309 0 495 16 45 0
108 301 0 508 13 50 0
110 288 0 505 15 53 0
112 275 0 525 13 48 0
114 261 0 532 18 51 0
116 258 0 535 14 49 0
118 250 0 548 10 59 0
120 232 0 552 21 56 0
122 226 0 552 15 60 0
124 212 0 544 16 55 0
126 205 0 570 16 37 0
128 204 0 554 7 60 0
130 185 0 565 18 56 0
132 182 0 587 6 55 0
134 174 0 599 8 42 0
136 170 0 615 5 44 0
138 164 0 622 8 46 0
140 160 0 604 8 72 0
142 150 0 621 9 50 0
144 141 0 633 11 54 0
146 134 0 642 12 60 0
148 137 0 642 7 54 0
150 132 0 651 6 56 0
152 127 0 654 6 47 0
154 125 0 641 5 56 0
156 123 0 636 6 66 0
158 114 0 649 6 56 0
160 112 0 644 8 65 0
162 110 0 648 2 66 0
164 108 0 654 5 58 0
166 102 0 662 10 54 0
168 100 0 650 7 51 0
170 94 0 663 6 49 0
172 96 0 660 2 67 0
174 86 0 664 8 76 0
176 84 0 654 5 75 0
178 80 0 663 3 75 0
180 75 0 666 4 63 0
182 73 0 675 2 66 0
184 69 0 688 6 58 0
186 68 0 687 5 70 0
188 68 0 680 5 70 0
190 63 0 674 3 65 0
192 64 0 685 2 61 0
194 60 0 688 2 47 0
196 60 0 694 2 59 0
198 61 0 685 1 67 0
200 55 0 689 6 61 0
