0 1171 0 0 0 0 0
2 1081 26 0 57 0 9
4.00004 1076 24 0 61 0 10
6 1070 28 0 59 0 13
8 1068 17 0 54 0 9
10 1065 21 0 65 0 9
12 1066 22 0 69 0 11
14 1063 26 0 84 0 7
16 1058 23 0 83 0 16
18 1053 26 0 74 0 21
20 1038 32 0 75 0 15
22 1048 14 0 75 0 23
24 1052 31 0 71 0 14
26 1037 23 0 80 0 14
28 1058 34 0 74 0 9
30 1057 30 0 67 0 20
32 1054 27 0 76 0 20
34 1061 25 0 78 0 11
36 1056 28 0 74 0 15
38 1054 26 0 75 0 16
40 1048 26 0 77 0 10
42 1050 29 0 66 0 9
44 1026 30 0 80 0 12
46 1038 24 0 67 0 15
48 1031 27 0 63 0 20
50 1041 25 0 78 0 10
52 944 0 123 35 47 0
54 881 0 194 27 54 0
56 817 0 242 24 56 0
58 760 0 295 23 65 1
60 699 0 360 22 62 0
62 668 0 402 13 64 0
64 622 0 439 21 65 1
66 583 0 486 18 69 0
68 557 0 499 19 87 1
70 511 0 566 16 58 0
72 481 0 582 13 81 0
74 445 0 622 15 70 0
76 412 0 634 16 79 0
78 385 0 679 13 63 0
80 358 0 700 10 80 0
82 340 0 717 12 91 0
84 322 0 730 7 89 0
86 300 0 761 15 73 0
88 284 0 772 15 75 0
90 277 0 769 12 77 0
92 261 0 783 14 87 0
94 249 0 810 17 79 0
96 237 0 812 15 101 0
98 218 1 857 14 68 0
100 205 0 874 15 70 0
102 194 0 883 6 71 0
104 190 0 875 7 81 0
106 172 1 884 13 84 0
108 168 1 894 6 80 0
110 157 0 894 20 79 0
112 148 0 902 6 76 0
114 135 0 918 7 83 1
116 128 0 936 7 65 0
118 116 0 946 8 82 0
120 109 0 935 9 91 0
122 104 0 966 9 69 0
124 98 0 959 12 86 0
126 95 0 956 10 90 0
128 83 0 972 10 74 0
130 83 0 960 10 93 0
132 78 0 976 10 85 0
134 76 0 987 3 77 0
136 75 0 993 6 71 0
138 69 0 985 5 92 0
140 67 0 992 12 81 0
142 69 0 1000 5 88 0
144 57 0 1017 7 77 0
146 52 0 1017 7 75 0
148 47 0 1018 6 86 0
150 50 0 1006 6 83 0
152 49 0 1007 5 99 0
154 44 0 1023 5 76 0
156 43 0 1030 8 82 0
158 44 0 1045 8 70 0
160 38 0 1025 5 86 0
162 35 0 1045 9 69 0
164 37 0 1027 8 75 0
166 41 0 1039 3 72 0
168 27 0 1046 10 83 0
170 24 0 1059 5 82 0
172 27 0 1072 7 70 0
174 24 0 1057 6 78 0
176 18 0 1077 5 69 0
178 26 0 1084 9 65 0
180 27 0 1077 5 69 0
182 25 0 1071 6 82 0
184 24 0 1071 11 81 0
186 25 0 1072 3 90 0
188 22 0 1066 4 94 0
190 21 0 1087 7 72 0
192 24 0 1076 4 75 0
194 19 0 1074 6 77 0
196 19 0 1092 5 69 0
198 18 0 1071 4 82 0
200 20 0 1052 3 101 0
