0 841 0 0 0 0 0
2 792 0 0 52 0 0
4.00004 786 0 0 58 0 0
6 780 0 0 62 0 0
8 762 0 0 66 0 0
10 774 0 0 59 0 0
12 751 0 0 80 0 0
14 764 0 0 65 0 0
16 747 0 0 59 0 0
18 739 0 0 73 0 0
20 750 0 0 66 0 0
22 760 0 0 72 0 0
24 745 0 0 87 0 0
26 763 0 0 61 0 0
28 761 0 0 64 0 0
30 771 0 0 66 0 0
32 762 0 0 72 0 0
34 756 0 0 74 0 0
36 770 0 0 66 0 0
38 757 0 0 66 0 0
40 750 0 0 68 0 0
42 760 0 0 58 0 0
44 756 0 0 81 0 0
46 794 0 0 62 0 0
48 780 0 0 63 0 0
50 794 0 0 52 0 0
52 758 0 21 48 14 0
54 729 0 55 43 21 0
56 710 0 66 34 21 0
58 674 0 84 43 19 0
60 653 0 108 35 31 0
62 622 0 137 35 24 0
64 606 0 150 31 32 0
66 594 0 165 25 38 0
68 566 0 191 31 25 0
70 538 0 211 42 24 0
72 538 0 219 24 32 0
74 511 0 217 32 47 0
76 501 0 258 27 47 0
78 492 0 287 21 25 0
80 473 0 294 27 41 0
82 462 0 296 28 42 0
84 439 0 315 29 41 0
86 426 0 324 26 36 0
88 418 0 334 24 46 0
90 398 0 344 20 41 0
92 386 0 347 16 50 0
94 373 0 365 17 49 0
96 349 0 382 26 45 0
98 337 0 386 24 38 0
100 340 0 401 13 43 0
102 326 0 417 17 40 0
104 318 0 417 20 48 0
106 302 0 439 19 39 0
108 287 0 451 17 43 0
110 284 0 455 17 50 0
112 267 0 468 17 52 0
114 257 0 471 19 54 0
116 243 0 479 16 59 0
118 238 0 494 11 49 0
120 232 0 519 9 35 0
122 216 0 513 20 50 0
124 217 0 521 11 56 0
126 207 0 539 15 59 0
128 204 0 562 14 44 0
130 202 0 570 9 47 0
132 191 0 570 11 54 0
134 184 0 561 16 65 0
136 181 0 575 10 52 0
138 175 0 592 8 49 0
140 170 0 604 7 45 0
142 163 0 598 10 48 0
144 164 0 604 6 60 0
146 157 0 608 6 52 0
148 148 0 607 5 51 0
150 139 0 618 9 54 0
152 138 0 607 5 60 0
154 131 0 636 7 43 0
156 128 0 618 3 51 0
158 126 0 620 4 56 0
160 112 0 631 11 55 0
162 111 0 629 7 64 0
164 106 0 645 4 63 0
166 95 0 645 9 68 0
168 96 0 664 5 62 0
170 92 0 668 6 53 0
172 90 0 669 5 51 0
174 88 0 658 3 58 0
176 83 0 668 6 57 0
178 84 0 685 5 44 0
180 81 0 666 6 62 0
182 81 0 660 5 51 0
184 81 0 666 3 49 0
186 72 0 670 6 59 0
188 76 0 658 2 65 0
190 74 0 660 1 60 0
192 73 0 665 2 54 0
194 70 0 678 2 70 0
196 65 0 693 6 63 0
198 66 0 683 3 65 0
200 61 0 692 4 64 0
