0 979 0 0 0 0 0
2 892 0 0 79 0 0
4.00004 881 0 0 78 0 0
6 869 0 0 94 0 0
8 877 0 0 87 0 0
10 879 0 0 74 0 0
12 883 0 0 75 0 0
14 889 0 0 85 0 0
16 881 0 0 89 0 0
18 897 0 0 77 0 0
20 883 0 0 92 0 0
22 900 0 0 81 0 0
24 904 0 0 98 0 0
26 887 0 0 104 0 0
28 896 0 0 98 0 0
30 896 0 0 99 0 0
32 900 0 0 86 0 0
34 883 0 0 102 0 0
36 889 0 0 89 0 0
38 878 0 0 98 0 0
40 895 0 0 90 0 0
42 871 0 0 102 0 0
44 906 0 0 87 0 0
46 901 0 0 81 0 0
48 879 0 0 96 0 0
50 895 0 0 91 0 0
52 888 0 3 98 3 0
54 876 0 16 96 10 0
56 878 0 27 79 8 0
58 840 0 39 91 13 0
60 836 0 54 75 15 0
62 816 0 62 82 23 0
64 812 0 79 71 24 0
66 823 0 79 51 30 0
68 787 0 106 70 29 0
70 782 0 116 62 40 0
72 767 0 138 59 40 0
74 754 0 147 68 37 0
76 741 0 151 64 38 0
78 721 0 166 77 30 0
80 730 0 172 57 30 0
82 723 0 180 46 41 0
84 696 0 192 64 43 0
86 700 0 213 54 40 0
88 687 0 222 54 42 0
90 665 0 231 65 39 0
92 671 0 252 51 34 0
94 668 0 257 44 42 0
96 657 0 278 44 54 0
98 631 0 274 53 57 0
100 629 0 289 51 49 0
102 631 0 293 44 46 0
104 619 0 301 46 57 0
106 609 0 302 51 58 0
108 616 0 328 45 49 0
110 592 0 331 55 59 0
112 584 0 350 48 44 0
114 576 0 341 47 56 0
116 547 0 364 56 56 0
118 553 0 364 42 53 0
120 555 0 378 32 51 0
122 541 0 384 42 50 0
124 539 0 399 37 56 0
126 538 0 403 35 54 0
128 524 0 416 49 44 0
130 518 0 405 46 57 0
132 519 0 414 41 58 0
134 504 0 435 43 39 0
136 515 0 427 25 45 0
138 496 0 434 37 45 0
140 486 0 441 35 55 0
142 478 0 442 39 62 0
144 464 0 463 43 57 0
146 459 0 448 47 72 0
148 462 0 472 36 57 0
150 447 0 475 36 61 0
152 443 0 462 35 76 0
154 429 0 466 41 75 0
156 428 0 494 37 47 0
158 418 0 497 41 59 0
160 414 0 504 44 75 0
162 409 0 505 34 72 0
164 413 0 520 27 58 0
166 397 0 526 31 63 0
168 387 0 522 38 68 0
170 391 0 518 29 79 0
172 390 0 549 19 59 0
174 377 0 534 31 74 0
176 370 0 546 30 72 0
178 364 0 553 29 72 0
180 359 0 558 31 69 0
182 351 0 563 30 73 0
184 349 0 581 23 57 0
186 348 0 572 24 70 0
188 344 0 576 19 68 0
190 330 0 586 28 62 0
192 321 0 585 33 69 0
194 326 0 601 27 65 0
196 333 0 598 17 79 0
198 326 0 595 19 73 0
200 311 0 606 27 74 0
