0 1051 0 0 0 0 0
2 1007 7 0 12 0 26
4.00004 1000 5 0 12 0 30
6 972 6 0 23 0 32
8 957 5 0 18 0 48
10 948 7 0 21 0 45
12 957 7 0 20 0 41
14 956 5 0 24 0 40
16 948 12 0 31 0 33
18 972 5 0 18 0 38
20 961 3 0 28 0 34
22 952 7 0 18 0 47
24 954 8 0 27 0 29
26 967 8 0 18 0 37
28 949 8 0 21 0 37
30 959 6 0 22 0 30
32 941 11 0 26 0 39
34 957 8 0 24 0 37
36 949 6 0 19 0 34
38 945 1 0 27 0 38
40 958 5 0 19 0 32
42 936 9 0 34 0 37
44 955 7 0 17 0 35
46 948 8 0 23 0 35
48 946 4 0 29 0 35
50 952 6 0 22 0 33
52 778 0 183 2 41 0
54 691 0 258 8 56 0
56 607 0 347 2 49 1
58 521 0 430 4 73 0
60 447 0 507 5 65 0
62 393 0 558 1 60 0
64 343 0 608 4 53 0
66 306 0 625 8 60 0
68 274 0 675 4 48 0
70 249 0 698 7 46 0
72 225 0 733 1 51 0
74 195 0 769 2 47 0
76 173 0 775 4 48 0
78 153 0 793 1 48 0
80 136 0 820 2 63 0
82 118 0 836 4 53 0
84 116 0 866 3 50 0
86 101 1 877 3 48 0
88 88 0 880 4 55 0
90 74 0 898 1 59 0
92 65 0 910 2 46 0
94 59 0 914 3 49 0
96 53 1 911 1 45 0
98 53 0 891 3 55 0
100 47 0 887 3 67 0
102 46 0 912 0 56 0
104 40 0 909 2 61 0
106 43 0 911 0 50 0
108 31 0 920 3 50 0
110 31 0 921 3 52 0
112 27 0 919 1 66 0
114 22 0 928 1 64 1
116 17 0 928 0 59 0
118 15 0 938 2 58 0
120 14 0 941 1 55 0
122 12 0 951 2 39 0
124 14 0 931 0 52 1
126 12 0 941 2 68 0
128 11 0 948 1 50 0
130 8 0 941 0 50 0
132 11 0 936 2 51 0
134 8 1 926 0 70 0
136 7 0 931 1 53 0
138 7 0 915 1 58 0
140 6 0 930 1 56 0
142 3 0 934 1 59 0
144 3 0 951 0 64 0
146 4 0 961 2 57 0
148 4 0 961 1 45 0
150 1 0 955 3 64 0
152 2 0 954 1 57 0
154 1 0 961 2 56 0
156 1 0 944 0 67 0
158 2 0 973 0 61 0
160 0 0 978 2 49 0
162 0 0 975 1 52 0
164 1 0 962 1 57 0
166 2 0 945 2 72 0
168 0 0 966 0 56 0
170 3 0 977 0 45 0
172 3 0 955 0 59 0
174 0 0 958 2 65 0
176 2 0 950 1 74 0
178 1 0 953 0 56 0
180 0 0 962 0 55 0
182 2 0 948 3 74 0
184 0 0 965 0 72 0
186 1 0 975 1 50 0
188 1 0 960 0 54 0
190 0 0 959 1 55 0
192 1 0 966 0 52 0
194 0 0 959 0 58 0
196 1 0 974 1 51 0
198 1 0 962 0 40 0
200 1 0 948 0 63 0
