0 888 0 0 0 0 0
2 841 0 0 43 0 0
4.00004 831 0 0 49 0 0
6 833 0 0 54 0 0
8 828 0 0 54 0 0
10 841 0 0 60 0 0
12 849 0 0 44 0 0
14 857 0 0 35 0 0
16 853 0 0 49 0 0
18 841 0 0 57 0 0
20 850 0 0 49 0 0
22 851 0 0 54 0 0
24 826 0 0 60 0 0
26 835 0 0 52 0 0
28 852 0 0 58 0 0
30 839 0 0 62 0 0
32 846 0 0 53 0 0
34 849 0 0 53 0 0
36 850 0 0 49 0 0
38 855 0 0 65 0 0
40 857 0 0 52 0 0
42 862 0 0 59 0 0
44 847 0 0 51 0 0
46 817 0 0 65 0 0
48 842 0 0 51 0 0
50 845 0 0 54 0 0
52 823 0 20 35 8 0
54 790 0 37 37 26 0
56 766 0 65 35 19 0
58 734 0 76 42 20 0
60 718 0 95 31 23 0
62 694 0 127 33 21 0
64 667 0 142 33 19 0
66 661 0 164 19 24 0
68 639 0 189 26 23 0
70 623 0 202 27 27 0
72 611 0 213 20 38 0
74 595 0 231 16 37 0
76 585 0 268 13 17 0
78 562 0 271 22 41 0
80 551 0 283 15 36 0
82 523 0 296 24 46 0
84 515 0 314 22 35 0
86 504 0 327 20 39 0
88 494 0 344 19 29 0
90 479 0 351 16 42 0
92 462 0 355 15 42 0
94 457 0 379 11 38 0
96 444 0 377 14 52 0
98 416 0 407 21 39 0
100 406 0 415 14 39 0
102 393 0 429 10 46 0
104 383 0 450 16 38 0
106 375 0 450 13 38 0
108 356 0 446 19 40 0
110 349 0 466 17 36 0
112 340 0 478 14 41 0
114 335 0 491 12 42 0
116 327 0 500 15 41 0
118 318 0 502 12 41 0
120 308 0 523 13 29 0
122 304 0 522 9 35 0
124 291 0 526 9 43 0
126 285 0 522 11 46 0
128 277 0 546 13 40 0
130 261 0 552 15 40 0
132 250 0 552 17 46 0
134 250 0 555 4 51 0
136 240 0 571 5 42 0
138 232 0 581 9 38 0
140 226 0 598 8 37 0
142 215 0 595 10 42 0
144 207 0 607 14 42 0
146 199 0 602 19 50 0
148 203 0 610 7 47 0
150 192 0 611 10 47 0
152 185 0 621 10 39 0
154 179 0 634 6 47 0
156 177 0 633 4 49 0
158 166 0 640 10 46 0
160 165 0 660 5 39 0
162 154 0 669 10 55 0
164 157 0 667 5 54 0
166 157 0 682 3 52 0
168 152 0 684 7 45 0
170 154 0 683 3 46 0
172 149 0 684 4 48 0
174 145 0 677 2 52 0
176 142 0 697 2 35 0
178 136 0 685 6 62 0
180 131 0 696 6 44 0
182 127 0 691 5 54 0
184 122 0 695 4 51 0
186 119 0 714 5 53 0
188 116 0 720 2 44 0
190 110 0 707 4 51 0
192 106 0 699 4 65 0
194 103 0 717 4 54 0
196 100 0 731 5 54 0
198 100 0 725 3 54 0
200 100 0 733 2 60 0
