0 1055 0 0 0 0 0
2 959 19 0 76 0 3
4.00004 957 19 0 72 0 3
6 941 21 0 82 0 5
8 945 26 0 80 0 4
10 931 31 0 86 0 5
12 924 35 0 92 0 4
14 936 37 0 83 0 5
16 951 34 0 85 0 3
18 950 37 0 78 0 6
20 941 38 0 86 0 4
22 946 37 0 80 0 4
24 953 35 0 83 0 4
26 948 30 0 80 0 5
28 956 27 0 85 0 2
30 954 32 0 68 0 6
32 941 37 0 77 0 6
34 952 35 0 74 0 6
36 953 31 0 79 0 4
38 928 43 0 82 0 5
40 937 27 0 84 0 5
42 927 35 0 90 0 7
44 924 39 0 92 0 3
46 928 32 0 86 0 5
48 913 28 0 116 0 2
50 932 26 0 96 0 2
52 864 0 83 60 46 0
54 811 1 144 41 54 0
56 767 0 190 41 53 0
58 723 1 233 34 60 0
60 688 0 270 28 69 0
62 664 0 311 21 56 0
64 628 0 350 24 57 0
66 600 0 380 18 56 0
68 568 0 402 24 73 0
70 542 0 439 23 68 0
72 525 0 456 27 70 0
74 489 1 480 22 76 0
76 457 0 525 15 67 0
78 425 0 539 18 74 0
80 390 0 577 15 62 0
82 378 0 589 19 75 0
84 363 0 601 23 76 1
86 343 0 620 20 82 0
88 322 0 649 21 65 0
90 312 0 644 19 85 0
92 304 0 672 14 79 0
94 289 0 684 15 84 0
96 271 0 705 16 78 0
98 255 0 712 19 87 0
100 239 0 738 16 82 0
102 223 0 755 18 76 0
104 212 0 774 10 71 0
106 203 0 768 19 88 0
108 195 0 795 15 66 0
110 185 0 788 10 93 0
112 176 0 796 18 80 0
114 171 0 806 14 69 0
116 170 0 824 12 60 0
118 153 0 832 13 76 0
120 147 0 847 11 73 0
122 149 0 844 13 84 0
124 129 0 856 17 83 0
126 132 0 858 16 80 0
128 126 0 870 15 76 0
130 123 0 874 7 83 0
132 113 0 882 12 88 0
134 111 0 886 7 87 0
136 101 0 891 5 86 0
138 93 0 900 9 69 0
140 89 0 884 14 89 0
142 95 0 895 9 73 0
144 91 0 891 8 82 0
146 86 0 897 9 75 0
148 79 0 918 8 66 0
150 71 0 913 10 85 0
152 68 0 912 6 84 0
154 64 0 912 6 79 0
156 62 0 913 6 81 0
158 62 0 926 12 74 0
160 62 0 924 3 77 0
162 58 0 935 9 73 0
164 51 0 931 17 83 0
166 51 0 940 15 72 0
168 47 0 923 16 92 0
170 53 0 945 13 71 0
172 54 0 939 12 75 0
174 52 0 960 10 63 0
176 53 0 957 6 62 0
178 50 0 933 9 90 0
180 49 0 957 6 66 0
182 43 0 945 7 73 0
184 39 0 939 11 77 0
186 38 0 955 10 74 0
188 35 0 941 11 87 0
190 39 0 933 8 86 0
192 33 0 938 6 89 0
194 33 0 941 12 75 0
196 35 0 947 9 78 0
198 31 0 948 9 84 0
200 32 0 961 9 79 0
