0 4074 0 926 0
2.0001 3581 515 849 55
4 3149 924 772 155
6.0001 2753 1285 735 227
8.0001 2483 1583 631 303
10.0001 2177 1852 590 381
12.0001 1941 2061 522 476
14.0001 1716 2282 484 517
16.0001 1546 2465 412 577
18.0001 1401 2657 349 593
20.0001 1287 2819 285 608
22.0001 1119 2995 278 608
24.0001 993 3030 252 725
26.0001 894 3155 219 732
28.0001 801 3241 200 758
30.0001 716 3291 173 820
32.0001 637 3405 157 801
34 575 3436 139 850
36 499 3507 135 858
38 449 3650 114 786
40 385 3677 106 832
42 337 3699 99 865
44 306 3716 86 892
46 264 3792 83 861
48 240 3830 62 868
50 201 3833 66 900
52 185 3834 58 923
54 169 3882 39 910
56 134 3930 51 885
58 140 3948 27 885
60 117 3896 30 957
62 98 3991 29 882
64 84 3979 28 909
66 76 3997 20 906
68 64 4048 21 867
70 56 3988 21 935
72 49 4017 22 912
74 47 3999 14 940
76 41 4011 8 940
78 34 3995 9 962
80 33 4002 8 957
82 32 3977 7 984
84 26 4044 7 923
86 28 4035 3 933
88 22 4026 6 946
90 18 4008 5 969
92 18 4059 3 920
94 15 4083 4 898
96 16 4068 1 915
98 14 4070 1 915
100 11 4055 3 931
