0 4075 0 925 0
2.0001 3566 514 870 50
4 3138 869 846 147
6.0001 2823 1242 714 221
8.0001 2505 1551 650 294
10.0001 2256 1771 563 410
12.0001 1973 2086 508 433
14.0001 1761 2289 454 496
16.0001 1575 2448 405 572
18.0001 1418 2624 360 598
20.0001 1270 2761 297 672
22.0001 1079 2954 314 653
24.0001 1004 2995 260 741
26.0001 891 3075 241 793
28.0001 802 3187 216 794
30.0001 736 3258 191 815
32.0001 662 3342 175 821
34 599 3464 148 789
36 517 3539 154 790
38 473 3556 126 845
40 430 3634 94 842
42 384 3678 90 848
44 333 3711 88 868
46 298 3733 73 896
48 263 3755 66 916
50 242 3775 51 932
52 193 3861 64 882
54 185 3881 47 887
56 151 3867 43 939
58 139 3879 34 948
60 118 3937 33 912
62 104 3932 29 935
64 93 3946 24 937
66 90 3928 13 969
68 67 3963 24 946
70 58 3984 27 931
72 61 3925 14 1000
74 51 3977 13 959
76 43 3982 12 963
78 38 4000 8 954
80 34 4004 10 952
82 34 4043 7 916
84 26 3993 7 974
86 21 3982 8 989
88 20 4020 4 956
90 14 4071 7 908
92 14 4039 3 944
94 10 4019 4 967
96 9 4014 3 974
98 10 4042 1 947
100 10 4060 1 929
