0 4004 0 996 0
2.0001 3492 499 948 61
4 3152 886 825 137
6.0001 2819 1236 737 208
8.0001 2499 1556 657 288
10.0001 2244 1822 566 368
12.0001 2009 1973 530 488
14.0001 1814 2206 448 532
16.0001 1601 2451 416 532
18.0001 1419 2581 371 629
20.0001 1281 2768 337 614
22.0001 1137 2875 305 683
24.0001 1018 3086 269 627
26.0001 915 3143 216 726
28.0001 799 3235 193 773
30.0001 727 3294 161 818
32.0001 634 3439 161 766
34 569 3495 135 801
36 495 3534 125 846
38 427 3616 111 846
40 392 3646 91 871
42 341 3697 83 879
44 309 3725 79 887
46 288 3752 62 898
48 252 3798 60 890
50 222 3813 64 901
52 189 3811 66 934
54 188 3853 43 916
56 155 3896 49 900
58 144 3904 44 908
60 142 3858 28 972
62 114 3900 40 946
64 111 3897 31 961
66 105 3944 28 923
68 81 3942 32 945
70 84 3920 17 979
72 76 3940 14 970
74 63 3950 19 968
76 61 3968 17 954
78 57 3984 14 945
80 54 3975 13 958
82 47 4013 12 928
84 47 4022 7 924
86 38 4046 11 905
88 34 4057 7 902
90 29 4019 6 946
92 26 3980 7 987
94 24 4034 8 934
96 24 4004 4 968
98 19 4009 6 966
100 15 4055 8 922
