0 4081 0 919 0
2.0001 3583 494 867 56
4 3148 848 837 167
6.0001 2794 1227 741 238
8.0001 2473 1534 658 335
10.0001 2193 1809 616 382
12.0001 1950 2067 553 430
14.0001 1773 2216 477 534
16.0001 1609 2426 404 561
18.0001 1433 2615 357 595
20.0001 1231 2765 368 636
22.0001 1143 2891 287 679
24.0001 1021 3007 247 725
26.0001 868 3176 254 702
28.0001 800 3292 192 716
30.0001 724 3354 176 746
32.0001 647 3411 143 799
34 535 3515 148 802
36 460 3580 144 816
38 428 3655 103 814
40 367 3668 109 856
42 333 3628 96 943
44 298 3728 86 888
46 277 3800 73 850
48 250 3794 62 894
50 213 3872 61 854
52 207 3829 44 919
54 180 3818 44 958
56 162 3883 37 918
58 145 3886 29 940
60 130 3926 27 917
62 106 3944 23 927
64 87 3929 29 955
66 88 3929 16 967
68 77 3969 16 938
70 63 3970 19 948
72 62 3992 16 930
74 54 3969 15 962
76 42 4007 20 931
78 41 4047 10 902
80 35 3982 11 972
82 29 4043 12 916
84 25 4038 13 924
86 23 4028 9 940
88 23 4006 5 966
90 13 3991 11 985
92 19 3993 3 985
94 13 4013 6 968
96 9 4054 7 930
98 11 4000 3 986
100 8 3981 4 1007
