0 4049 0 951 0
2.0001 3600 448 892 60
4 3163 834 864 139
6.0001 2884 1151 702 263
8.0001 2528 1496 661 315
10.0001 2297 1761 555 387
12.0001 2053 1993 523 431
14.0001 1793 2247 477 483
16.0001 1573 2464 447 516
18.0001 1391 2581 399 629
20.0001 1290 2779 324 607
22.0001 1121 2875 296 708
24.0001 984 3004 260 752
26.0001 881 3159 224 736
28.0001 766 3257 215 762
30.0001 699 3315 176 810
32.0001 629 3435 154 782
34 560 3476 136 828
36 497 3538 132 833
38 444 3572 120 864
40 397 3640 108 855
42 348 3679 101 872
44 324 3706 78 892
46 289 3791 66 854
48 258 3801 58 883
50 228 3824 54 894
52 203 3850 44 903
54 181 3828 44 946
56 161 3873 40 926
58 136 3921 43 900
60 128 3961 28 883
62 107 3925 37 931
64 97 3945 32 926
66 100 3949 18 933
68 85 3976 18 921
70 67 3983 20 930
72 57 3986 22 935
74 53 3968 18 961
76 55 3988 9 948
78 47 4050 10 893
80 43 4015 10 932
82 34 4002 13 951
84 33 4000 11 956
86 32 4011 9 948
88 31 3988 8 973
90 27 4021 7 945
92 22 4049 7 922
94 19 3954 3 1024
96 12 4014 3 971
98 11 4015 2 972
100 10 4026 3 961
