0 4019 0 981 0
2.0001 3595 466 872 67
4 3192 882 773 153
6.0001 2816 1227 715 242
8.0001 2568 1502 619 311
10.0001 2250 1808 574 368
12.0001 2023 2053 512 412
14.0001 1755 2266 511 468
16.0001 1609 2418 425 548
18.0001 1478 2584 372 566
20.0001 1345 2730 313 611
22.0001 1179 2874 293 654
24.0001 1081 2977 243 699
26.0001 933 3114 255 698
28.0001 845 3219 227 709
30.0001 747 3217 209 827
32.0001 670 3340 169 821
34 613 3478 134 775
36 534 3485 133 848
38 494 3554 107 845
40 417 3636 126 821
42 382 3659 96 863
44 340 3716 84 860
46 292 3768 81 859
48 258 3784 76 882
50 246 3804 60 890
52 224 3804 48 924
54 207 3826 42 925
56 178 3850 48 924
58 165 3905 42 888
60 148 3911 38 903
62 132 3905 38 925
64 119 3913 38 930
66 107 3919 32 942
68 98 3927 25 950
70 84 3919 26 971
72 78 3948 21 953
74 74 3990 16 920
76 63 3968 22 947
78 60 3987 15 938
80 56 3970 12 962
82 48 4039 15 898
84 46 4040 13 901
86 37 4002 12 949
88 41 4037 6 916
90 32 4071 7 890
92 25 4020 10 945
94 22 4009 7 962
96 20 4042 7 931
98 19 4056 6 919
100 15 4040 8 937
