0 1090 0 0 0 0
2 1034 4 0 39 0
4.00004 1021 8 0 44 0
6 1018 5 0 54 0
8 997 10 0 63 0
10 997 4 0 69 0
12 981 6 0 77 0
14 971 6 0 85 0
16 963 3 0 90 0
18 967 8 0 69 0
20 971 6 0 77 0
22 974 4 0 76 0
24 972 7 0 73 0
26 984 4 0 66 0
28 977 2 0 84 0
30 982 7 0 78 0
32 973 6 0 89 0
34 983 6 0 79 0
36 966 6 0 74 0
38 964 6 0 81 0
40 960 11 0 86 0
42 962 6 0 80 0
44 951 4 0 88 0
46 965 7 0 69 0
48 954 3 0 83 0
50 954 5 0 73 0
52 796 1 145 93 1
54 702 0 247 74 8
56 622 1 324 66 13
58 538 0 408 79 9
60 477 0 473 63 15
62 420 0 525 58 19
64 373 1 572 64 18
66 327 1 622 61 20
68 298 0 668 51 18
70 271 0 690 38 29
72 241 0 714 40 36
74 213 0 746 35 37
76 182 0 771 46 41
78 169 1 797 35 39
80 154 0 815 39 39
82 146 0 822 39 44
84 137 0 829 29 50
86 120 0 859 29 36
88 102 0 864 35 51
90 97 0 870 25 47
92 87 0 878 25 47
94 77 0 881 27 55
96 70 0 901 24 42
98 68 0 909 18 36
100 69 0 899 24 46
102 58 0 916 21 34
104 54 0 911 29 46
106 44 0 918 25 43
108 45 0 920 26 43
110 47 0 906 28 59
112 49 0 905 30 56
114 47 0 911 30 50
116 48 0 908 30 59
118 49 0 910 22 53
120 53 0 924 18 42
122 55 0 911 19 49
124 53 0 903 17 56
126 54 0 900 24 58
128 53 0 893 18 61
130 49 0 891 24 58
132 51 0 904 15 53
134 45 0 901 21 66
136 45 0 907 17 57
138 41 0 909 11 59
140 38 0 906 16 62
142 33 0 916 16 49
144 35 0 915 19 58
146 30 0 897 18 72
148 29 0 901 25 61
150 29 0 897 23 70
152 32 0 889 16 67
154 33 0 891 17 66
156 34 0 892 17 59
158 30 0 900 21 45
160 31 0 889 12 59
162 29 0 892 9 57
164 26 0 880 14 68
166 28 0 892 12 57
168 28 0 885 10 68
170 26 0 888 9 69
172 27 0 889 14 57
174 25 0 896 18 56
176 26 1 891 15 56
178 34 0 885 18 65
180 33 0 889 22 60
182 36 0 891 19 49
184 30 0 892 28 50
186 34 0 894 15 50
188 35 0 893 8 57
190 28 0 903 14 48
192 28 1 902 13 51
194 29 0 902 12 50
196 29 0 903 16 58
198 32 0 898 10 72
200 24 0 911 16 52
