0 743 0 0 0 0
2 713 0 0 30 0
4.00004 703 0 0 38 0
6 707 0 0 44 0
8 698 0 0 48 0
10 708 0 0 42 0
12 707 0 0 53 0
14 707 0 0 43 0
16 714 0 0 43 0
18 716 0 0 49 0
20 720 0 0 45 0
22 718 0 0 43 0
24 717 0 0 54 0
26 728 0 0 47 0
28 729 0 0 55 0
30 733 0 0 50 0
32 733 0 0 54 0
34 738 0 0 52 0
36 725 0 0 70 0
38 727 0 0 75 0
40 728 0 0 72 0
42 746 0 0 48 0
44 740 0 0 59 0
46 742 0 0 51 0
48 747 0 0 52 0
50 748 0 0 55 0
52 743 0 0 55 0
54 745 0 0 51 0
56 739 0 0 49 1
58 728 0 2 61 1
60 730 0 3 47 2
62 725 0 3 51 3
64 724 0 3 50 4
66 709 0 3 61 8
68 701 0 8 66 3
70 702 0 9 66 8
72 709 0 12 49 5
74 713 0 13 37 8
76 711 0 15 42 10
78 699 0 21 45 9
80 702 0 25 41 15
82 696 0 31 41 15
84 689 0 36 43 17
86 692 0 36 39 29
88 690 0 40 32 10
90 680 0 46 41 16
92 675 0 48 41 27
94 664 0 57 47 17
96 664 0 64 42 19
98 665 0 75 38 20
100 651 0 77 50 25
102 651 0 87 41 18
104 649 0 94 41 16
106 646 0 94 36 26
108 645 0 100 34 29
110 638 0 112 35 18
112 632 0 115 42 14
114 628 0 117 37 20
116 629 0 119 30 21
118 617 0 123 35 21
120 622 0 128 26 28
122 604 0 135 41 21
124 613 0 147 29 21
126 609 0 150 29 21
128 595 0 158 36 20
130 594 0 159 30 23
132 587 0 165 35 26
134 587 0 171 28 24
136 577 0 170 32 34
138 577 0 181 32 27
140 572 0 180 26 34
142 564 0 182 31 30
144 556 0 190 30 30
146 556 0 201 32 22
148 547 0 199 31 24
150 541 0 204 34 27
152 547 0 212 27 24
154 545 0 218 25 34
156 540 0 219 28 37
158 545 0 229 21 31
160 535 0 234 30 29
162 529 0 243 35 22
164 532 0 249 28 22
166 530 0 247 23 27
168 525 0 250 25 37
170 518 0 261 33 32
172 520 0 262 23 29
174 513 0 266 29 35
176 504 0 276 35 21
178 504 0 271 28 35
180 502 0 282 30 25
182 491 0 277 34 33
184 500 0 286 24 30
186 494 0 292 22 27
188 486 0 297 26 31
190 471 0 300 30 30
192 471 0 304 32 29
194 477 0 306 21 30
196 468 0 301 26 38
198 468 0 308 21 33
200 469 0 306 19 35
