0 1028 0 0 0 0
2 986 6 0 32 0
4.00004 981 7 0 42 0
6 969 8 0 44 0
8 959 1 0 63 0
10 955 6 0 62 0
12 958 4 0 63 0
14 960 4 0 58 0
16 960 5 0 51 0
18 958 3 0 61 0
20 958 7 0 59 0
22 944 6 0 66 0
24 955 5 0 58 0
26 953 5 0 60 0
28 949 2 0 77 0
30 942 8 0 76 0
32 945 3 0 74 0
34 940 6 0 70 0
36 944 7 0 63 0
38 942 4 0 76 0
40 948 5 0 71 0
42 951 5 0 67 0
44 955 5 0 54 0
46 958 3 0 61 0
48 958 4 0 50 0
50 958 2 0 53 0
52 830 1 130 55 1
54 718 0 232 62 5
56 635 1 303 66 12
58 581 0 366 61 10
60 515 0 425 64 21
62 455 0 489 56 19
64 396 0 542 52 23
66 342 1 597 42 23
68 293 0 646 51 24
70 254 0 687 40 28
72 228 0 715 39 29
74 209 0 731 33 31
76 191 0 751 20 36
78 174 0 774 26 21
80 152 0 772 26 42
82 137 0 807 21 23
84 127 0 820 21 24
86 112 0 829 26 27
88 108 0 834 32 36
90 95 0 845 29 35
92 99 0 852 23 32
94 97 1 853 17 39
96 87 0 866 17 34
98 73 0 872 19 43
100 64 0 896 25 28
102 59 0 893 20 37
104 54 1 888 19 48
106 49 0 895 18 48
108 45 0 896 21 50
110 48 0 897 16 48
112 46 0 898 13 50
114 44 0 903 17 43
116 41 0 905 17 43
118 40 0 904 17 43
120 33 0 904 22 42
122 35 0 904 22 50
124 38 0 900 19 47
126 38 0 903 20 43
128 35 0 896 22 53
130 35 0 903 24 45
132 39 0 902 23 51
134 40 0 901 21 46
136 43 0 891 15 60
138 41 0 903 17 46
140 40 0 908 14 44
142 37 0 903 13 51
144 35 0 912 16 43
146 32 0 921 14 38
148 36 0 918 11 37
150 33 0 916 11 45
152 34 0 912 15 40
154 36 0 917 14 39
156 37 0 913 11 42
158 38 0 906 8 51
160 37 0 909 11 46
162 32 0 906 15 49
164 36 0 912 10 46
166 32 0 908 12 45
168 30 0 905 17 48
170 34 0 910 17 41
172 30 0 909 21 38
174 33 0 898 26 50
176 39 0 898 17 48
178 30 0 907 17 45
180 31 0 905 14 48
182 28 0 903 21 50
184 29 0 902 12 49
186 30 0 908 20 44
188 28 0 902 16 49
190 27 0 914 10 46
192 28 0 907 7 48
194 18 0 900 13 58
196 18 0 904 20 50
198 22 0 904 15 51
200 21 0 910 10 48
