0 836 0 0 0 0
2 781 0 0 51 0
4.00004 760 0 0 81 0
6 740 0 0 97 0
8 733 0 0 103 0
10 724 0 0 113 0
12 703 0 0 134 0
14 712 0 0 131 0
16 724 0 0 116 0
18 722 0 0 113 0
20 723 0 0 116 0
22 702 0 0 126 0
24 692 0 0 136 0
26 700 0 0 131 0
28 692 0 0 123 0
30 694 0 0 130 0
32 692 0 0 135 0
34 690 0 0 141 0
36 686 0 0 146 0
38 670 0 0 160 0
40 677 0 0 151 0
42 665 0 0 168 0
44 675 0 0 164 0
46 687 0 0 149 0
48 691 0 0 135 0
50 676 0 0 143 0
52 686 0 0 132 0
54 675 0 0 137 0
56 675 0 0 133 0
58 667 0 0 137 0
60 678 0 0 131 1
62 673 0 0 133 4
64 681 0 0 123 1
66 685 0 0 119 6
68 679 0 0 136 9
70 698 0 2 110 9
72 689 0 2 117 12
74 698 0 4 110 13
76 687 0 5 110 17
78 678 0 7 122 23
80 687 0 11 113 19
82 671 0 12 133 20
84 663 0 14 135 19
86 684 0 13 102 31
88 685 0 14 98 31
90 673 0 17 107 34
92 667 0 23 106 28
94 667 0 26 102 28
96 662 0 24 108 34
98 664 0 27 100 34
100 668 0 33 90 28
102 668 0 36 88 33
104 653 0 38 104 38
106 667 0 44 89 38
108 654 0 46 98 42
110 657 0 50 96 40
112 644 0 49 101 42
114 649 0 50 96 54
116 645 0 52 90 56
118 649 0 55 88 65
120 650 0 65 81 57
122 644 0 69 83 54
124 627 0 74 100 43
126 626 0 78 94 41
128 617 0 81 104 49
130 609 0 88 104 44
132 596 0 93 110 47
134 594 0 91 102 56
136 604 0 100 94 49
138 612 0 104 81 44
140 604 0 100 82 48
142 597 0 105 84 50
144 595 0 109 91 52
146 584 0 113 98 55
148 572 0 113 100 53
150 562 0 115 103 54
152 558 0 118 110 48
154 559 0 120 97 57
156 554 0 125 96 56
158 543 0 134 100 54
160 542 0 137 99 50
162 541 0 143 92 47
164 539 0 143 99 46
166 545 0 145 91 48
168 537 0 149 95 51
170 529 0 150 91 57
172 532 0 161 92 50
174 516 0 166 96 56
176 534 0 169 78 59
178 531 0 172 75 63
180 515 0 175 85 55
182 507 0 183 87 54
184 507 0 183 85 59
186 509 0 185 77 55
188 498 0 190 85 51
190 498 0 190 86 50
192 493 0 191 85 57
194 495 0 200 80 64
196 488 0 201 82 63
198 495 0 213 70 58
200 480 0 208 83 63
