0 828 0 0 0 0
2 768 0 0 55 0
4.00004 756 0 0 64 0
6 748 0 0 73 0
8 741 0 0 93 0
10 730 0 0 101 0
12 728 0 0 100 0
14 726 0 0 102 0
16 713 0 0 113 0
18 725 0 0 101 0
20 731 0 0 106 0
22 727 0 0 105 0
24 730 0 0 98 0
26 726 0 0 105 0
28 731 0 0 98 0
30 728 0 0 104 0
32 728 0 0 108 0
34 733 0 0 93 0
36 726 0 0 103 0
38 732 0 0 96 0
40 742 0 0 97 0
42 735 0 0 107 0
44 736 0 0 110 0
46 734 0 0 102 0
48 744 0 0 104 0
50 738 0 0 106 0
52 730 0 0 110 0
54 727 0 0 108 0
56 730 0 0 113 0
58 729 0 0 113 2
60 730 0 0 117 5
62 742 0 1 99 7
64 752 0 5 86 5
66 739 0 7 105 10
68 745 0 8 78 13
70 731 0 12 98 12
72 731 0 15 99 12
74 726 0 17 98 12
76 725 0 19 91 20
78 711 0 24 94 25
80 714 0 30 94 25
82 719 0 38 84 25
84 703 0 46 95 23
86 710 0 54 84 27
88 710 0 56 79 38
90 713 0 62 71 35
92 695 0 74 82 31
94 708 0 78 69 36
96 703 0 88 77 31
98 708 0 93 65 40
100 695 0 107 71 28
102 691 0 114 70 27
104 691 0 120 63 37
106 685 0 121 64 31
108 684 0 125 54 30
110 675 0 127 64 29
112 664 0 128 66 31
114 661 0 132 63 41
116 662 0 137 58 49
118 665 0 151 55 41
120 644 0 165 69 30
122 646 0 163 64 44
124 631 0 168 68 35
126 626 0 174 65 30
128 618 0 179 64 33
130 623 0 180 57 37
132 622 0 179 55 47
134 619 0 188 56 46
136 611 0 186 65 54
138 609 0 202 54 44
140 596 0 212 71 39
142 597 0 204 63 53
144 589 0 215 63 48
146 578 0 222 68 43
148 579 0 220 62 49
150 571 0 226 65 55
152 576 0 238 55 36
154 571 0 242 54 41
156 564 0 247 58 52
158 561 0 261 55 35
160 552 0 263 57 48
162 549 0 269 49 49
164 548 0 278 52 42
166 542 0 274 59 49
168 540 0 274 57 44
170 535 0 281 54 50
172 535 0 282 61 56
174 529 0 284 59 55
176 529 0 293 55 50
178 524 0 289 57 64
180 532 0 284 52 74
182 534 0 288 44 64
184 521 0 306 56 53
186 517 0 300 60 59
188 521 0 299 49 66
190 525 0 315 46 55
192 518 0 313 51 60
194 511 0 321 56 59
196 507 0 322 45 58
198 502 0 326 51 63
200 488 0 329 62 55
