0 1725 0 0 0 0 489
2 1691 6 0 50 0 518
4.00004 1701 7 0 40 0 503
6 1701 11 0 50 0 507
8 1717 12 0 33 0 486
10 1705 6 0 43 0 487
12 1692 10 0 47 0 521
14 1700 13 0 46 0 491
16 1714 16 0 38 0 492
18 1735 7 0 50 0 496
20 1744 13 0 38 0 486
22 1751 8 0 40 0 494
24 1738 11 0 35 0 505
26 1741 10 0 33 0 528
28 1737 8 0 32 0 510
30 1723 12 0 48 0 494
32 1738 9 0 41 0 504
34 1740 12 0 45 0 488
36 1739 15 0 47 0 501
38 1742 15 0 34 0 494
40 1759 7 0 40 0 490
42 1747 13 0 46 0 495
44 1751 16 0 47 0 479
46 1757 11 0 46 0 504
48 1772 7 0 34 0 489
50 1785 5 0 33 0 502
52 1550 1 227 35 2 528
54 1366 0 417 31 5 514
56 1205 0 575 35 8 504
58 1075 1 707 25 14 483
60 986 1 812 25 11 508
62 901 1 895 21 15 502
64 819 2 967 32 14 521
66 727 0 1058 29 21 504
68 672 0 1120 19 24 492
70 603 0 1193 10 22 478
72 541 0 1236 16 24 495
74 506 0 1286 8 23 485
76 441 0 1328 12 32 488
78 413 0 1358 10 27 500
80 376 0 1384 12 26 500
82 333 0 1430 14 21 490
84 308 0 1458 9 28 518
86 276 1 1469 9 37 493
88 261 0 1501 5 28 491
90 244 0 1512 5 28 518
92 235 1 1532 3 29 503
94 215 0 1556 5 35 506
96 195 0 1583 4 37 503
98 173 0 1600 7 38 507
100 152 0 1614 6 35 495
102 141 0 1625 3 33 491
104 124 1 1638 6 36 498
106 110 0 1637 2 40 485
108 106 0 1644 2 50 526
110 101 0 1670 2 33 507
112 92 0 1661 4 39 493
114 86 1 1668 3 37 483
116 83 0 1678 1 41 488
118 75 0 1677 2 40 478
120 70 0 1671 3 33 476
122 65 0 1689 2 41 491
124 57 0 1699 1 42 505
126 54 0 1699 2 41 511
128 47 0 1702 4 49 517
130 43 0 1723 2 29 509
132 40 0 1717 1 41 508
134 38 0 1741 3 39 486
136 40 0 1727 2 32 493
138 38 0 1725 0 51 505
140 36 0 1720 0 34 504
142 31 0 1713 4 40 517
144 30 0 1735 0 39 508
146 28 0 1740 0 38 509
148 22 0 1743 0 53 499
150 19 0 1757 0 39 507
152 19 0 1753 0 44 494
154 16 0 1759 1 36 513
156 15 0 1744 0 42 496
158 14 0 1747 0 39 502
160 12 0 1733 0 43 501
162 10 0 1746 1 44 502
164 9 0 1745 0 44 510
166 9 0 1720 0 46 514
168 9 0 1743 0 40 496
170 8 0 1735 1 45 503
172 9 0 1750 0 46 510
174 6 1 1757 1 39 490
176 8 0 1760 0 38 498
178 5 0 1751 0 41 499
180 4 0 1747 0 39 511
182 4 0 1766 0 44 499
184 4 0 1767 0 39 496
186 4 0 1773 0 42 496
188 5 0 1777 0 30 501
190 5 0 1769 1 40 496
192 5 0 1761 0 46 508
194 6 0 1765 0 51 500
196 5 0 1761 0 45 489
198 6 0 1785 0 46 487
200 5 0 1777 0 42 511
