0 511 0 0 0 0 490
2 469 0 0 54 0 503
4.00004 491 0 0 38 0 494
6 487 0 0 46 0 481
8 495 0 0 43 0 488
10 494 0 0 55 0 488
12 502 0 0 54 0 498
14 503 0 0 56 0 518
16 515 0 0 48 0 504
18 505 0 0 60 0 509
20 524 0 0 47 0 494
22 515 0 0 51 0 504
24 516 0 0 51 0 506
26 512 0 0 63 0 496
28 524 0 0 57 0 503
30 541 0 0 45 0 510
32 519 0 0 73 0 512
34 533 0 0 65 0 494
36 554 0 0 48 0 512
38 541 0 0 62 0 495
40 546 0 0 54 0 503
42 534 0 0 66 0 496
44 537 0 0 58 0 492
46 550 0 0 44 0 487
48 551 0 0 55 0 492
50 554 1 0 58 0 493
52 550 0 1 72 0 500
54 569 0 1 50 0 481
56 557 0 10 66 1 502
58 567 0 19 68 0 498
60 559 0 26 60 3 506
62 554 0 34 56 5 503
64 541 0 38 62 7 491
66 549 0 52 45 5 500
68 529 0 54 65 9 523
70 524 0 72 57 4 499
72 521 0 76 52 3 497
74 504 0 77 58 9 495
76 487 0 83 66 10 499
78 484 0 88 56 9 486
80 493 0 98 42 12 507
82 470 0 101 54 19 500
84 465 0 115 55 9 503
86 462 0 118 52 19 496
88 448 0 120 50 17 494
90 448 0 129 37 20 490
92 431 0 148 44 17 498
94 422 0 159 44 24 493
96 409 0 172 50 21 506
98 412 0 176 43 23 520
100 398 0 189 38 26 502
102 381 0 202 45 25 501
104 382 0 214 40 23 502
106 377 0 231 37 24 502
108 366 0 235 39 30 498
110 357 0 243 38 23 496
112 355 0 245 32 31 507
114 344 0 267 38 26 508
116 341 0 267 33 39 511
118 324 0 279 43 32 498
120 319 0 280 39 34 524
122 316 0 299 32 24 494
124 313 0 306 26 34 489
126 311 0 304 27 43 508
128 310 0 316 24 37 492
130 298 0 321 26 38 521
132 288 0 324 28 44 524
134 288 0 333 23 44 496
136 263 0 349 44 35 493
138 265 0 354 34 36 499
140 271 0 363 25 32 499
142 260 0 360 22 40 492
144 242 0 363 31 43 493
146 247 0 371 24 38 496
148 239 0 379 23 32 501
150 230 0 379 26 37 506
152 223 0 378 31 37 527
154 224 0 374 23 37 493
156 217 0 382 24 40 490
158 211 0 366 28 62 494
160 211 0 393 22 45 493
162 212 0 392 19 46 516
164 211 0 405 16 37 519
166 203 0 409 20 42 512
168 198 0 416 22 44 503
170 198 0 439 20 36 499
172 199 0 440 18 50 487
174 180 0 455 31 37 495
176 177 0 455 29 43 520
178 184 0 444 17 62 488
180 182 0 464 14 51 496
182 176 0 452 17 60 498
184 173 0 474 18 42 500
186 170 0 473 19 47 492
188 167 0 479 21 51 485
190 163 0 495 22 38 498
192 161 0 495 19 45 522
194 165 0 484 11 58 497
196 153 0 486 20 58 509
198 155 0 478 12 58 492
200 147 0 483 19 52 496
