0 1522 0 0 0 0 495
2 1450 11 0 53 0 512
4.00004 1464 11 0 39 0 498
6 1467 5 0 45 0 486
8 1457 7 0 48 0 525
10 1450 8 0 50 0 524
12 1462 5 0 43 0 496
14 1460 7 0 42 0 514
16 1465 9 0 39 0 493
18 1461 8 0 47 0 506
20 1473 5 0 39 0 506
22 1457 6 0 47 0 506
24 1448 11 0 59 0 517
26 1470 7 0 50 0 477
28 1462 7 0 51 0 512
30 1453 12 0 56 0 501
32 1465 8 0 55 0 494
34 1468 9 0 57 0 499
36 1482 5 0 41 0 517
38 1460 12 0 51 0 493
40 1457 10 0 53 0 501
42 1458 9 0 52 0 504
44 1459 7 0 61 0 511
46 1462 8 0 48 0 496
48 1464 6 0 57 0 491
50 1456 10 0 58 0 501
52 1283 1 182 52 4 505
54 1171 0 306 33 6 500
56 1056 0 415 34 10 508
58 920 1 545 41 12 478
60 837 0 632 32 18 485
62 752 0 711 34 22 497
64 695 0 782 17 23 502
66 627 0 836 25 28 510
68 581 0 887 21 30 515
70 526 0 945 19 31 503
72 475 0 991 20 33 488
74 431 0 1016 23 44 487
76 406 0 1041 16 45 502
78 358 0 1101 19 31 506
80 325 0 1128 23 37 499
82 309 0 1157 15 39 494
84 281 0 1197 16 33 498
86 261 0 1207 12 45 506
88 232 0 1236 12 41 493
90 223 0 1264 8 33 515
92 196 0 1277 11 41 500
94 186 0 1285 4 42 494
96 172 0 1280 8 50 501
98 159 0 1289 10 52 508
100 153 0 1310 9 41 496
102 136 0 1318 11 41 483
104 135 0 1324 2 43 493
106 119 0 1342 5 42 509
108 110 0 1351 7 41 506
110 101 0 1359 5 37 487
112 99 0 1342 8 53 496
114 94 0 1358 7 43 507
116 91 0 1377 6 28 508
118 89 0 1367 4 45 525
120 80 0 1373 5 43 530
122 75 0 1369 6 48 480
124 78 0 1377 3 46 508
126 79 0 1365 4 61 531
128 79 0 1391 6 41 514
130 76 0 1392 5 47 495
132 72 0 1394 4 47 500
134 67 0 1396 7 47 485
136 69 0 1402 3 51 484
138 63 0 1425 8 32 491
140 66 0 1417 3 41 474
142 64 0 1412 3 47 505
144 68 0 1413 5 44 512
146 65 0 1419 2 46 499
148 60 0 1421 4 44 511
150 58 1 1414 0 52 505
152 58 0 1425 3 38 499
154 63 0 1416 0 46 502
156 51 0 1400 4 61 494
158 53 0 1420 1 48 503
160 49 0 1426 3 46 517
162 41 0 1427 3 47 502
164 39 0 1432 3 40 507
166 38 0 1424 4 48 499
168 41 0 1423 1 53 512
170 44 0 1425 1 45 511
172 40 0 1404 3 67 491
174 40 0 1405 4 55 505
176 36 0 1422 5 45 518
178 35 0 1413 1 53 510
180 31 0 1415 2 43 484
182 29 0 1401 3 56 501
184 35 0 1411 5 42 514
186 33 0 1404 3 52 502
188 36 0 1416 0 37 496
190 29 0 1403 5 54 512
192 32 0 1410 3 49 486
194 33 0 1413 1 42 500
196 32 1 1403 4 46 523
198 34 0 1407 3 39 494
200 37 0 1402 1 39 485
