0 110 0 0 0 52
2 106 0 3 0 56
4.00004 110 0 0 0 60
6 108 0 2 0 53
8 107 0 3 0 48
10 108 0 2 0 43
12 91 16 3 0 44
14 80 26 4 0 62
16 79 30 0 1 44
18 69 40 1 0 47
20 62 44 3 1 46
22 59 51 0 0 50
24 55 51 2 2 60
26 53 55 0 2 50
28 48 59 1 2 56
30 45 63 1 1 49
32 43 65 1 1 54
34 38 68 1 3 49
36 31 74 3 2 51
38 32 77 1 1 49
40 32 78 0 1 62
42 30 79 0 2 50
44 25 83 0 3 54
46 22 82 0 7 51
48 20 91 0 0 49
50 19 91 1 0 55
52 15 93 1 2 53
54 13 94 0 4 39
56 10 96 1 4 50
58 10 95 1 5 45
60 9 99 0 3 45
62 8 99 0 4 50
64 8 96 0 7 48
66 8 101 0 2 53
68 7 104 0 0 48
70 7 102 0 2 59
72 7 103 0 0 47
74 6 104 0 0 43
76 6 101 0 3 39
78 6 102 0 2 42
80 5 104 0 1 52
82 5 101 0 4 55
84 4 103 0 3 65
86 3 104 0 3 50
88 3 103 0 4 44
90 2 107 0 1 53
92 3 106 0 2 47
94 3 104 0 4 54
96 3 104 0 4 49
98 3 106 0 2 56
100 2 107 0 2 55
102 2 108 0 1 45
104 2 106 0 3 52
106 2 103 0 6 51
108 2 107 0 2 52
110 1 109 0 1 54
112 1 108 0 2 51
114 1 104 0 6 53
116 1 108 0 2 54
118 1 106 0 4 37
120 1 108 0 2 47
122 1 106 0 4 45
124 1 108 0 2 56
126 1 107 0 3 52
128 1 109 0 1 53
130 0 109 0 2 52
132 0 110 0 1 45
134 0 110 0 1 60
136 0 109 0 2 52
138 0 108 0 3 54
140 0 109 0 2 42
142 0 108 0 3 46
144 0 108 0 3 45
146 0 110 0 1 43
148 0 110 0 1 53
150 0 108 0 3 55
152 0 108 0 3 50
154 0 107 0 4 50
156 0 109 0 2 46
158 0 108 0 3 57
160 0 109 0 2 53
162 0 109 0 2 45
164 0 110 0 1 47
166 0 108 0 3 54
168 0 105 0 6 49
170 0 111 0 0 54
172 0 109 0 2 53
174 0 108 0 3 52
176 0 107 0 4 50
178 0 109 0 2 47
180 0 110 0 1 49
182 0 109 0 2 47
184 0 110 0 1 56
186 0 111 0 0 53
188 0 109 0 2 59
190 0 110 0 1 44
192 0 111 0 0 59
194 0 108 0 3 49
196 0 109 0 2 53
198 0 108 0 3 49
200 0 108 0 3 47
202 0 110 0 1 48
204 0 110 0 1 46
206 0 109 0 2 51
208 0 110 0 1 51
210 0 107 0 4 43
