0 40 0 0 0 48
2 38 0 3 0 44
4.00004 37 0 3 0 40
6 40 0 0 0 47
8 36 0 4 0 52
10 37 0 3 0 57
12 36 0 4 0 56
14 39 0 1 0 38
16 37 0 3 0 56
18 37 0 3 0 53
20 35 0 5 0 54
22 39 0 1 0 50
24 37 0 3 0 40
26 39 0 1 0 50
28 36 0 4 0 44
30 38 0 2 0 51
32 40 0 0 0 46
34 38 0 2 0 51
36 38 0 2 0 49
38 37 0 2 0 51
40 38 0 1 0 38
42 38 0 1 0 50
44 38 0 1 0 46
46 38 0 1 0 49
48 37 0 2 0 51
50 39 0 0 0 45
52 38 0 1 0 47
54 36 0 3 0 61
56 38 0 1 0 50
58 36 0 3 0 55
60 36 0 3 0 55
62 36 0 3 0 50
64 37 0 2 0 52
66 36 0 3 0 47
68 39 0 0 0 52
70 36 0 3 0 41
72 34 1 5 0 53
74 38 1 1 0 57
76 35 0 4 1 61
78 34 1 5 0 58
80 36 1 3 0 48
82 37 1 2 0 45
84 38 1 1 0 35
86 38 1 1 0 50
88 36 1 3 0 56
90 38 1 1 0 47
92 36 1 2 0 53
94 36 1 2 0 46
96 36 1 2 0 51
98 37 1 1 0 44
100 36 1 2 0 45
102 36 1 2 0 55
104 34 0 4 1 48
106 37 1 1 0 49
108 34 1 4 0 48
110 35 1 3 0 46
112 36 1 2 0 49
114 35 1 3 0 47
116 36 1 2 0 46
118 37 1 1 0 63
120 37 1 1 0 53
122 34 1 4 0 55
124 34 1 4 0 44
126 36 1 2 0 48
128 36 1 2 0 47
130 35 1 3 0 48
132 38 1 0 0 55
134 36 1 2 0 40
136 37 1 1 0 48
138 37 1 1 0 46
140 35 1 3 0 58
142 36 1 2 0 54
144 36 1 2 0 55
146 37 1 1 0 57
148 37 1 1 0 47
150 38 1 0 0 45
152 35 1 3 0 50
154 37 1 1 0 50
156 36 1 2 0 54
158 36 1 2 0 43
160 35 1 3 0 47
162 38 0 0 1 55
164 36 1 2 0 53
166 35 1 3 0 46
168 37 1 1 0 51
170 37 1 1 0 46
172 36 1 2 0 47
174 36 1 2 0 48
176 38 1 0 0 50
178 38 1 0 0 53
180 35 1 3 0 51
182 38 0 0 1 53
184 38 1 0 0 44
186 33 1 5 0 47
188 35 1 3 0 41
190 35 1 3 0 56
192 37 1 1 0 41
194 35 1 3 0 51
196 35 1 3 0 47
198 37 1 1 0 51
200 34 1 4 0 53
202 37 1 1 0 52
204 35 0 3 1 54
206 36 1 2 0 49
208 34 0 4 1 49
210 37 1 1 0 57
