0 115 0 0 0 52
2 113 0 2 0 54
4.00004 113 0 2 0 55
6 114 0 1 0 46
8 113 0 3 0 41
10 115 0 1 0 54
12 99 13 4 0 55
14 94 19 2 1 51
16 83 31 2 0 43
18 74 39 1 2 58
20 68 46 2 0 56
22 59 55 2 0 47
24 57 58 2 0 47
26 55 61 0 1 54
28 49 63 2 3 58
30 44 71 2 0 52
32 41 73 4 0 45
34 42 74 0 2 41
36 38 78 1 1 48
38 36 79 0 3 47
40 33 84 0 1 60
42 29 88 1 0 41
44 28 89 0 1 48
46 26 92 2 0 42
48 25 92 2 1 42
50 24 90 1 5 42
52 20 98 1 1 47
54 15 100 1 2 51
56 14 98 0 4 38
58 14 100 0 2 53
60 13 100 0 3 46
62 12 100 1 3 41
64 12 103 0 1 44
66 10 104 0 2 47
68 8 108 0 0 48
70 7 107 0 2 45
72 7 106 0 3 48
74 7 107 0 2 46
76 7 106 0 3 42
78 6 105 0 4 52
80 6 108 1 1 55
82 6 108 0 2 46
84 6 106 0 4 49
86 5 107 0 4 43
88 4 112 0 0 48
90 4 107 0 5 45
92 4 109 0 3 48
94 5 107 0 5 46
96 5 110 0 2 47
98 4 112 1 1 55
100 4 113 0 2 38
102 4 111 0 3 51
104 4 111 0 2 44
106 4 110 0 4 55
108 4 112 0 2 47
110 5 112 0 2 51
112 4 114 0 1 58
114 4 113 0 2 52
116 4 113 0 2 58
118 4 111 0 4 52
120 4 115 0 0 55
122 4 114 0 1 58
124 4 113 0 2 54
126 4 110 0 5 46
128 3 112 0 3 41
130 3 112 0 3 43
132 3 113 0 3 58
134 3 114 0 2 45
136 3 110 0 6 44
138 3 114 0 1 49
140 3 114 0 1 50
142 2 114 0 2 50
144 1 117 0 0 52
146 1 115 0 2 49
148 1 113 0 4 53
150 1 113 0 4 58
152 1 115 1 2 51
154 2 116 0 1 53
156 2 113 0 4 41
158 2 115 0 2 51
160 2 117 0 0 57
162 2 116 0 1 42
164 2 115 0 2 38
166 3 117 0 0 48
168 3 114 0 3 41
170 3 115 0 2 51
172 2 118 0 0 44
174 2 117 0 1 58
176 1 117 0 2 56
178 2 118 0 1 49
180 2 118 0 1 52
182 2 117 0 2 42
184 1 117 0 3 55
186 1 118 0 2 47
188 1 118 0 2 51
190 2 120 0 0 49
192 1 119 1 1 48
194 2 117 0 3 57
196 1 119 0 1 58
198 1 118 0 2 50
200 1 118 0 2 54
202 0 120 0 1 50
204 0 118 0 2 54
206 0 119 0 2 44
208 0 119 0 2 57
210 0 119 0 2 54
