0 32 0 0 0 52
2 27 0 3 0 56
4.00004 28 0 2 0 49
6 26 0 4 0 44
8 24 0 6 0 55
10 28 0 2 0 47
12 30 0 0 0 46
14 27 0 3 0 52
16 31 0 0 0 53
18 30 0 1 0 50
20 29 0 2 0 55
22 29 0 2 0 47
24 31 0 0 0 43
26 28 0 3 0 58
28 27 0 4 0 51
30 27 0 4 0 49
32 28 0 3 0 50
34 30 0 1 0 57
36 28 0 3 0 50
38 28 0 3 0 55
40 27 0 4 0 43
42 30 0 1 0 55
44 31 0 0 0 54
46 31 0 0 0 49
48 30 0 1 0 39
50 29 0 2 0 48
52 27 0 4 0 49
54 29 0 2 0 49
56 27 0 4 0 50
58 31 0 0 0 58
60 29 0 2 0 44
62 29 0 2 0 43
64 30 0 1 0 50
66 29 0 2 0 47
68 28 0 3 0 46
70 31 0 0 0 59
72 28 0 3 0 48
74 29 0 2 0 45
76 30 0 1 0 41
78 30 0 1 0 46
80 28 0 3 0 53
82 25 0 6 0 48
84 30 0 1 0 46
86 28 0 3 0 53
88 28 0 3 0 51
90 26 0 5 0 54
92 29 0 2 0 52
94 26 0 5 0 52
96 30 0 1 0 52
98 30 0 1 0 47
100 26 0 5 0 55
102 29 0 2 0 57
104 29 0 2 0 49
106 28 0 3 0 55
108 31 0 0 0 42
110 26 0 5 0 47
112 30 0 1 0 49
114 30 0 1 0 50
116 30 0 1 0 44
118 29 0 2 0 49
120 29 0 2 0 58
122 31 0 0 0 37
124 30 0 1 0 49
126 30 0 1 0 38
128 30 0 1 0 57
130 29 0 2 0 51
132 28 0 3 0 43
134 28 0 3 0 56
136 28 0 3 0 51
138 28 0 3 0 46
140 29 0 2 0 45
142 29 0 2 0 51
144 28 0 3 0 45
146 28 0 3 0 52
148 27 0 4 0 59
150 28 0 3 0 52
152 28 0 3 0 50
154 30 0 1 0 52
156 30 0 1 0 49
158 29 0 2 0 49
160 28 0 3 0 55
162 31 0 0 0 49
164 29 0 2 0 54
166 29 0 2 0 54
168 26 0 5 0 54
170 29 0 2 0 53
172 28 0 2 0 51
174 30 0 0 0 52
176 29 0 1 0 48
178 28 0 2 0 49
180 25 0 5 0 44
182 26 0 4 0 58
184 28 0 2 0 52
186 27 0 3 0 46
188 25 0 5 0 50
190 26 0 4 0 49
192 26 0 4 0 52
194 25 0 5 0 51
196 27 0 3 0 46
198 27 0 3 0 40
200 28 0 2 0 49
202 28 0 2 0 49
204 28 0 2 0 54
206 27 0 3 0 49
208 30 0 0 0 50
210 28 0 2 1 52
