0 49 0 0 0 56
2 50 0 0 0 48
4.00004 49 0 1 0 47
6 43 0 6 0 46
8 45 0 4 0 50
10 41 0 8 0 46
12 44 0 5 0 54
14 47 0 2 0 51
16 45 0 4 0 45
18 46 0 3 0 47
20 48 0 1 0 48
22 47 0 2 0 45
24 47 0 1 0 46
26 43 0 5 0 44
28 48 0 0 0 41
30 46 0 2 0 48
32 45 0 3 0 38
34 44 0 3 0 56
36 43 0 4 0 49
38 43 0 4 0 52
40 46 0 1 0 49
42 45 0 2 0 47
44 40 0 7 0 45
46 41 0 5 0 56
48 45 0 1 0 55
50 44 0 1 1 45
52 41 1 4 0 51
54 42 1 2 0 46
56 41 1 3 0 45
58 43 1 1 0 49
60 42 1 2 1 54
62 40 1 3 1 51
64 42 2 1 0 49
66 41 2 2 0 56
68 40 2 3 0 46
70 43 2 0 0 57
72 39 2 4 0 40
74 39 2 4 0 56
76 41 3 2 0 52
78 41 3 2 0 50
80 38 4 6 0 54
82 42 4 2 1 43
84 42 5 2 0 54
86 40 4 4 1 39
88 40 5 4 0 51
90 42 5 2 0 50
92 42 4 2 1 48
94 42 5 2 0 42
96 39 5 5 0 49
98 38 6 5 1 46
100 42 6 1 0 47
102 40 5 2 2 51
104 39 6 2 1 49
106 41 7 0 0 47
108 36 6 4 1 57
110 39 4 1 3 50
112 38 8 2 0 42
114 38 9 2 0 43
116 35 9 5 0 51
118 37 9 2 0 56
120 37 6 1 2 63
122 37 7 1 1 53
124 35 8 2 0 52
126 35 7 3 2 43
128 34 9 4 0 58
130 33 8 5 2 47
132 33 10 4 0 43
134 33 9 4 1 49
136 35 11 2 0 61
138 33 10 4 1 58
140 35 11 1 0 49
142 33 11 3 0 38
144 35 11 1 0 52
146 31 11 5 0 52
148 35 10 1 1 54
150 36 10 0 0 49
152 35 10 1 0 60
154 35 9 1 1 48
156 33 10 2 0 45
158 33 10 2 0 46
160 33 10 2 0 56
162 34 10 1 1 54
164 34 11 1 0 51
166 32 10 3 1 41
168 29 10 6 1 48
170 31 10 4 1 42
172 31 11 4 0 58
174 31 11 3 0 57
176 29 9 5 2 40
178 31 10 3 1 49
180 30 10 4 1 51
182 33 11 1 0 53
184 31 10 3 1 49
186 33 10 1 1 51
188 30 10 3 1 52
190 27 11 6 0 53
192 28 11 5 0 50
194 30 11 3 0 50
196 30 10 3 2 57
198 31 14 2 0 58
200 31 13 2 1 50
202 32 14 1 0 46
204 28 14 5 0 44
206 30 13 3 1 49
208 31 14 2 0 44
210 30 16 3 0 51
