0 111 0 0 0 47
2 109 0 2 0 52
4.00004 110 0 1 0 51
6 109 0 2 0 50
8 109 0 2 0 56
10 109 0 2 0 51
12 97 11 3 0 47
14 92 17 1 1 49
16 85 24 2 0 56
18 81 30 0 0 49
20 69 38 4 0 48
22 69 40 1 1 46
24 60 49 2 0 54
26 59 51 1 0 50
28 53 58 0 0 54
30 53 57 0 1 52
32 48 63 0 0 50
34 42 69 0 0 55
36 38 71 0 2 56
38 35 75 1 0 56
40 31 78 2 0 46
42 31 78 1 1 53
44 31 80 0 0 53
46 25 85 1 0 44
48 24 86 0 1 51
50 21 87 2 1 49
52 22 87 0 2 57
54 21 86 1 3 50
56 23 88 0 1 51
58 20 90 2 0 41
60 20 90 1 1 49
62 20 92 0 0 53
64 19 91 0 2 46
66 17 94 2 0 51
68 18 95 0 0 56
70 17 95 0 1 51
72 15 97 0 1 51
74 14 98 0 1 55
76 15 97 0 2 59
78 13 100 0 1 51
80 11 101 0 2 41
82 9 102 2 1 50
84 10 103 0 1 56
86 9 105 0 0 55
88 8 103 1 2 52
90 9 102 0 3 47
92 9 105 0 0 51
94 8 102 0 4 45
96 7 105 1 1 47
98 6 108 0 0 48
100 6 107 0 1 48
102 6 107 0 1 58
104 4 109 0 1 47
106 3 109 1 2 44
108 4 109 0 2 55
110 3 109 1 2 47
112 3 111 0 1 47
114 2 110 0 3 42
116 2 110 0 3 45
118 2 112 0 1 52
120 2 109 0 4 43
122 2 111 0 2 52
124 2 112 0 1 49
126 1 111 0 3 51
128 1 113 0 1 47
130 1 114 0 0 50
132 1 111 0 3 52
134 1 112 0 2 44
136 1 111 0 3 47
138 1 112 0 2 54
140 1 113 0 1 51
142 1 112 0 2 52
144 1 111 0 3 49
146 1 112 0 2 51
148 1 113 0 1 54
150 1 113 0 1 56
152 0 111 0 4 45
154 0 114 0 1 49
156 0 113 0 2 49
158 0 115 0 0 48
160 0 115 0 0 55
162 0 113 0 2 58
164 0 112 0 3 45
166 0 113 0 2 49
168 0 115 0 0 51
170 0 115 0 0 53
172 0 111 0 4 57
174 0 113 0 2 54
176 0 114 0 1 47
178 0 112 0 3 54
180 0 114 0 1 51
182 0 114 0 1 40
184 0 113 0 2 53
186 0 112 0 3 46
188 0 112 0 3 49
190 0 112 0 3 50
192 0 112 0 3 49
194 0 115 0 0 45
196 0 112 0 3 52
198 0 113 0 2 46
200 0 113 0 2 47
202 0 115 0 0 53
204 0 115 0 0 55
206 0 113 0 2 42
208 0 112 0 3 46
210 0 112 0 3 52
