0 1077 0 0 0 0 0
2 987 0 0 95 0 0
4.00004 988 0 0 91 0 0
6 984 0 0 97 0 0
8 979 0 0 85 0 0
10 973 0 0 104 0 0
12 982 0 0 96 0 0
14 983 0 0 92 0 0
16 976 0 0 103 0 0
18 958 0 0 115 0 0
20 970 0 0 106 0 0
22 988 0 0 90 0 0
24 992 0 0 89 0 0
26 978 0 0 95 0 0
28 981 0 0 89 0 0
30 972 0 0 88 0 0
32 972 0 0 97 0 0
34 966 0 0 88 0 0
36 955 0 0 102 0 0
38 963 0 0 100 0 0
40 964 0 0 97 0 0
42 948 0 0 107 0 0
44 957 0 0 106 0 0
46 963 0 0 102 0 0
48 962 0 0 91 0 0
50 961 0 0 93 0 0
52 958 0 4 92 3 0
54 942 0 5 90 11 0
56 935 0 19 96 8 0
58 923 0 28 97 14 0
60 927 0 26 83 25 0
62 916 0 45 73 19 0
64 920 0 55 64 18 0
66 915 0 59 67 25 0
68 906 0 77 68 27 0
70 899 0 83 63 24 0
72 889 0 88 69 31 0
74 891 0 102 60 23 0
76 871 0 102 78 33 0
78 863 0 112 73 27 0
80 855 0 115 74 35 0
82 850 0 119 63 27 0
84 847 0 125 58 30 0
86 823 0 130 77 35 0
88 823 0 124 68 45 0
90 812 0 151 73 42 0
92 828 0 164 56 32 0
94 811 0 164 57 38 0
96 805 0 166 58 47 0
98 802 0 179 56 42 0
100 790 0 184 60 43 0
102 774 0 198 73 41 0
104 790 0 198 50 39 0
106 773 0 191 60 46 0
108 756 0 214 75 39 0
110 764 0 203 51 50 0
112 759 0 225 56 37 0
114 749 0 229 60 31 0
116 746 0 233 57 39 0
118 740 0 241 53 37 0
120 732 0 240 50 43 0
122 731 0 244 48 52 0
124 713 0 245 54 47 0
126 711 0 256 49 50 0
128 698 0 269 56 44 0
130 688 0 264 60 52 0
132 695 0 292 50 37 0
134 685 0 274 57 52 0
136 686 0 290 53 44 0
138 681 0 286 46 54 0
140 673 0 303 47 44 0
142 674 0 303 44 55 0
144 658 0 299 50 54 0
146 661 0 310 43 49 0
148 648 0 320 45 49 0
150 650 0 320 46 59 0
152 645 0 318 43 62 0
154 644 0 345 42 48 0
156 645 0 348 38 48 0
158 639 0 353 37 49 0
160 626 0 355 45 54 0
162 630 0 361 37 46 0
164 625 0 364 39 50 0
166 610 0 372 47 45 0
168 592 0 381 58 48 0
170 614 0 374 29 64 0
172 603 0 378 39 60 0
174 602 0 394 30 48 0
176 595 0 406 34 47 0
178 585 0 403 40 59 0
180 579 0 392 41 66 0
182 574 0 407 40 63 0
184 572 0 409 38 60 0
186 563 0 429 44 41 0
188 571 0 423 30 52 0
190 554 0 423 40 50 0
192 553 0 439 33 42 0
194 548 0 434 34 60 0
196 538 0 433 39 56 0
198 544 0 437 35 57 0
200 539 0 441 39 57 0
