0 1067 0 0 0 0 0
2 1011 0 0 62 0 0
4.00004 1017 0 0 53 0 0
6 1027 0 0 54 0 0
8 1045 0 0 49 0 0
10 1039 0 0 55 0 0
12 1027 0 0 63 0 0
14 1035 0 0 62 0 0
16 1037 0 0 54 0 0
18 1011 0 0 74 0 0
20 1017 0 0 69 0 0
22 1021 0 0 67 0 0
24 1029 0 0 60 0 0
26 1036 0 0 52 0 0
28 1035 0 0 55 0 0
30 1034 0 0 64 0 0
32 1036 0 0 62 0 0
34 1036 0 0 75 0 0
36 1028 0 0 67 0 0
38 1070 0 0 51 0 0
40 1030 0 0 79 0 0
42 1050 0 0 47 0 0
44 1039 0 0 62 0 0
46 1043 0 0 61 0 0
48 1044 0 0 67 0 0
50 1040 0 0 69 0 0
52 1043 0 2 61 2 0
54 1029 0 10 64 10 0
56 1015 0 33 58 7 0
58 1031 0 39 33 17 0
60 1021 0 54 39 14 0
62 996 0 57 50 15 0
64 996 0 64 39 20 0
66 972 0 86 39 13 0
68 965 0 89 34 19 0
70 949 0 90 50 26 0
72 946 0 112 39 23 0
74 951 0 120 25 20 0
76 934 0 123 34 20 0
78 926 0 131 37 21 0
80 912 0 144 40 16 0
82 905 0 140 39 27 0
84 904 0 144 31 35 0
86 878 0 160 36 27 0
88 873 0 172 34 21 0
90 866 0 171 35 26 0
92 867 0 185 31 25 0
94 862 0 201 27 29 0
96 843 0 202 37 33 0
98 842 0 204 32 35 0
100 830 0 222 30 28 0
102 832 0 228 21 31 0
104 817 0 232 30 34 0
106 809 0 231 24 32 0
108 787 0 242 36 26 0
110 795 0 250 24 25 0
112 774 0 258 37 36 0
114 771 0 276 29 24 0
116 765 0 282 30 30 0
118 756 0 289 38 33 0
120 761 0 294 20 42 0
122 747 0 314 30 32 0
124 742 0 294 23 45 0
126 731 0 332 25 26 0
128 730 0 332 24 37 0
130 725 0 336 23 40 0
132 713 0 342 28 40 0
134 710 0 344 24 42 0
136 699 0 360 29 37 0
138 702 0 350 21 35 0
140 702 0 364 19 43 0
142 689 0 375 28 32 0
144 680 0 393 30 28 0
146 674 0 394 23 33 0
148 659 0 396 26 41 0
150 656 0 422 26 22 0
152 652 0 413 27 31 0
154 647 0 426 20 31 0
156 640 0 429 24 31 0
158 628 0 441 23 37 0
160 616 0 451 27 34 0
162 614 0 454 22 41 0
164 609 0 467 23 33 0
166 604 0 468 19 41 0
168 597 0 467 20 49 0
170 591 0 488 23 37 0
172 585 0 489 20 28 0
174 589 0 492 15 41 0
176 571 0 489 26 41 0
178 573 0 508 17 42 0
180 559 0 511 22 46 0
182 563 0 516 14 47 0
184 552 0 534 21 41 0
186 545 0 542 22 45 0
188 545 0 543 18 44 0
190 536 0 559 20 44 0
192 536 0 570 13 43 0
194 517 0 575 23 37 0
196 522 0 578 16 41 0
198 513 0 582 21 43 0
200 515 0 583 15 39 0
