0 987 0 0 0 0 0
2 870 30 0 70 0 15
4.00004 864 36 0 72 0 15
6 872 25 0 64 0 19
8 880 29 0 61 0 24
10 867 36 0 77 0 14
12 871 25 0 77 0 23
14 879 30 0 75 0 12
16 875 36 0 67 0 17
18 884 32 0 68 0 21
20 875 41 0 65 0 20
22 871 28 0 90 0 20
24 868 35 0 85 0 18
26 881 33 0 67 0 21
28 886 31 0 65 0 15
30 875 29 0 66 0 11
32 870 33 0 60 0 24
34 871 30 0 64 0 15
36 863 33 0 60 0 21
38 872 40 0 55 0 18
40 867 33 0 77 0 25
42 887 21 0 67 0 9
44 876 32 0 59 0 22
46 882 29 0 71 0 14
48 884 22 0 69 0 15
50 868 27 0 62 0 19
52 815 0 90 23 63 0
54 778 0 130 22 60 1
56 730 0 172 24 73 0
58 686 0 221 19 63 0
60 646 0 257 14 62 0
62 604 0 303 19 63 0
64 568 0 323 13 78 0
66 538 0 347 13 82 0
68 509 0 375 14 93 0
70 482 0 407 8 89 0
72 454 0 430 14 100 0
74 425 0 483 18 71 0
76 401 1 513 10 77 0
78 379 0 523 11 80 0
80 364 0 547 7 78 0
82 346 0 561 7 86 0
84 330 0 580 8 84 0
86 312 1 596 6 92 0
88 298 0 614 8 86 0
90 286 0 635 6 81 0
92 271 0 643 4 89 0
94 253 0 651 9 82 0
96 239 0 653 9 76 0
98 226 0 655 8 89 0
100 206 0 691 11 77 0
102 198 0 687 11 76 0
104 193 0 690 3 79 0
106 176 0 715 6 66 0
108 166 0 710 4 84 0
110 161 0 728 5 71 0
112 147 0 726 2 90 0
114 138 0 741 3 80 0
116 130 0 751 4 82 0
118 124 0 766 5 77 0
120 117 0 766 7 84 0
122 105 0 781 8 77 0
124 103 0 770 5 83 0
126 98 0 775 6 89 0
128 94 0 784 2 85 0
130 93 0 771 4 96 0
132 86 0 764 3 93 0
134 82 0 780 4 79 0
136 77 0 782 2 79 0
138 72 0 787 8 88 0
140 70 0 772 6 106 0
142 64 0 804 2 85 0
144 62 0 805 2 89 0
146 51 0 809 2 90 0
148 53 0 819 3 79 0
150 48 0 817 4 90 0
152 50 0 820 0 78 0
154 44 0 823 5 85 0
156 41 0 846 7 74 0
158 43 0 825 5 88 0
160 36 0 838 5 85 0
162 36 0 828 5 93 0
164 39 0 837 4 82 0
166 35 0 855 7 76 0
168 34 0 856 2 92 0
170 29 0 863 2 87 0
172 30 0 848 2 96 0
174 30 0 865 8 85 0
176 29 0 848 3 94 0
178 29 0 846 3 98 0
180 25 0 841 3 95 0
182 25 0 835 1 94 0
184 22 0 854 2 73 0
186 23 0 829 4 90 0
188 19 0 852 4 72 0
190 16 0 833 3 92 0
192 18 0 832 2 82 0
194 17 0 831 2 90 0
196 15 0 834 1 101 0
198 20 0 836 0 89 0
200 15 0 830 3 99 0
