0 1130 0 0 0 0 0
2 1081 0 0 60 0 0
4.00004 1078 0 0 69 0 0
6 1090 0 0 44 0 0
8 1087 0 0 50 0 0
10 1088 0 0 57 0 0
12 1082 0 0 54 0 0
14 1069 0 0 57 0 0
16 1067 0 0 58 0 0
18 1075 0 0 55 0 0
20 1077 0 0 55 0 0
22 1066 0 0 63 0 0
24 1069 0 0 57 0 0
26 1069 0 0 52 0 0
28 1062 0 0 60 0 0
30 1062 0 0 56 0 0
32 1081 0 0 49 0 0
34 1077 0 0 49 0 0
36 1070 0 0 48 0 0
38 1071 0 0 53 0 0
40 1072 0 0 49 0 0
42 1073 0 0 57 0 0
44 1063 0 0 53 0 0
46 1063 0 0 60 0 0
48 1067 0 0 44 0 0
50 1059 0 0 45 0 0
52 1052 0 2 49 3 0
54 1035 0 7 51 6 0
56 1033 0 19 44 6 0
58 1023 0 29 43 16 0
60 1030 0 31 34 17 0
62 1014 0 41 45 18 0
64 1005 0 57 39 12 0
66 996 0 70 37 13 0
68 987 0 75 41 18 0
70 958 0 75 53 18 0
72 953 0 83 48 17 0
74 941 0 91 45 17 0
76 941 0 104 34 15 0
78 928 0 108 37 20 0
80 916 0 110 42 25 0
82 916 0 114 38 26 0
84 910 0 123 36 26 0
86 912 0 140 30 22 0
88 896 0 148 37 26 0
90 892 0 158 32 19 0
92 883 0 170 31 15 0
94 869 0 176 36 19 0
96 867 0 175 31 24 0
98 857 0 184 38 19 0
100 862 0 185 27 28 0
102 824 0 195 53 22 0
104 836 0 205 30 24 0
106 822 0 211 36 30 0
108 814 0 230 36 19 0
110 801 0 227 37 23 0
112 796 0 233 30 25 0
114 790 0 242 33 34 0
116 785 0 246 31 28 0
118 775 0 264 30 25 0
120 771 0 258 35 29 0
122 764 0 271 30 28 0
124 766 0 280 24 27 0
126 764 0 283 22 27 0
128 738 0 287 43 27 0
130 743 0 302 32 32 0
132 739 0 308 28 32 0
134 722 0 320 35 27 0
136 730 0 327 21 30 0
138 714 0 329 30 34 0
140 694 0 338 38 29 0
142 697 0 346 22 29 0
144 701 0 359 15 24 0
146 682 0 354 27 25 0
148 677 0 345 32 38 0
150 669 0 366 20 28 0
152 668 0 363 19 28 0
154 661 0 379 19 24 0
156 658 0 376 20 20 0
158 652 0 372 22 41 0
160 653 0 379 15 36 0
162 639 0 389 23 30 0
164 638 0 386 25 26 0
166 639 0 397 20 26 0
168 628 0 395 24 33 0
170 619 0 408 25 27 0
172 611 0 408 24 26 0
174 608 0 421 24 25 0
176 602 0 417 21 28 0
178 597 0 408 19 33 0
180 584 0 421 30 35 0
182 585 0 432 18 27 0
184 572 0 427 25 36 0
186 569 0 443 20 33 0
188 564 0 444 19 31 0
190 565 0 450 14 30 0
192 555 0 455 17 32 0
194 548 0 454 23 29 0
196 541 0 467 19 30 0
198 536 0 468 23 32 0
200 536 0 479 19 25 0
