0 1023 0 0 0 0 0
2 916 12 0 76 0 14
4.00004 919 6 0 78 0 18
6 909 8 0 90 0 12
8 931 9 0 73 0 23
10 926 9 0 70 0 18
12 942 13 0 52 0 15
14 930 11 0 73 0 11
16 919 9 0 72 0 21
18 901 13 0 84 0 29
20 914 10 0 84 0 16
22 919 10 0 72 0 21
24 921 7 0 74 0 17
26 925 6 0 79 0 17
28 924 4 0 88 0 14
30 932 12 0 79 0 17
32 936 9 0 66 0 20
34 950 13 0 67 0 16
36 944 15 0 73 0 11
38 932 7 0 77 0 21
40 938 17 0 62 0 22
42 944 14 0 70 0 17
44 948 9 0 64 0 16
46 946 11 0 63 0 15
48 949 12 0 67 0 19
50 965 9 0 62 0 10
52 845 0 101 41 56 0
54 810 0 142 38 61 1
56 781 0 160 26 75 0
58 748 0 203 29 58 0
60 726 0 221 28 64 0
62 715 0 240 24 68 0
64 678 0 260 38 66 1
66 660 0 283 26 65 0
68 643 0 299 20 60 0
70 621 0 311 19 80 0
72 598 0 341 18 66 0
74 575 0 354 20 74 1
76 550 0 363 20 83 0
78 531 0 394 13 86 1
80 519 0 412 17 73 0
82 495 0 442 24 80 0
84 467 0 472 25 76 0
86 459 0 489 9 78 0
88 441 0 500 20 79 0
90 433 0 490 18 81 0
92 410 0 520 16 74 0
94 399 0 529 24 78 0
96 390 0 537 14 83 0
98 379 0 551 14 77 0
100 366 0 559 16 82 0
102 356 0 557 9 92 0
104 346 0 597 8 72 0
106 334 0 585 15 96 0
108 331 0 598 6 81 0
110 323 0 607 16 86 0
112 307 0 619 16 81 0
114 300 0 638 11 82 0
116 287 0 634 13 91 0
118 277 0 650 11 91 0
120 276 0 669 7 83 0
122 264 0 678 8 75 0
124 248 0 673 14 106 0
126 241 0 683 9 101 0
128 234 0 687 10 102 0
130 222 0 735 8 71 0
132 220 0 721 5 80 0
134 209 0 728 5 90 0
136 200 0 752 8 67 0
138 195 0 747 8 83 0
140 193 0 746 8 86 0
142 185 0 756 6 77 0
144 180 0 762 7 90 0
146 174 0 778 4 81 0
148 172 0 771 11 84 0
150 160 0 771 5 89 0
152 157 0 781 5 89 0
154 147 0 769 6 99 0
156 145 0 802 4 70 0
158 137 0 794 11 80 0
160 137 0 796 7 80 0
162 128 0 801 7 90 0
164 124 0 804 7 87 0
166 123 0 805 9 89 0
168 115 0 819 8 79 0
170 117 0 813 8 81 0
172 112 0 812 8 88 0
174 111 0 820 4 91 0
176 108 0 818 3 89 0
178 102 0 828 3 80 0
180 98 0 827 9 88 0
182 100 0 841 6 69 0
184 91 0 841 9 80 0
186 86 0 833 8 96 0
188 83 0 842 6 93 0
190 81 0 846 10 96 0
192 79 0 859 10 85 0
194 82 0 849 3 90 0
196 72 0 862 7 93 0
198 69 0 868 1 89 0
200 67 0 862 2 93 0
