0 927 0 0 0 0 0
2 849 20 0 55 0 4
4.00004 849 23 0 60 0 7
6 841 28 0 51 0 3
8 833 27 0 60 0 5
10 831 23 0 63 0 3
12 843 24 0 59 0 3
14 833 35 0 58 0 6
16 840 34 0 55 0 3
18 838 22 0 59 0 8
20 827 33 0 60 0 3
22 822 36 0 66 0 3
24 818 25 0 64 0 5
26 810 38 0 59 0 3
28 817 33 0 58 0 5
30 821 29 0 57 0 2
32 818 23 0 44 0 9
34 799 31 0 56 0 4
36 792 29 0 73 0 3
38 801 26 0 53 0 2
40 812 28 0 50 0 4
42 783 36 0 76 0 5
44 809 31 0 61 0 2
46 786 43 0 59 0 4
48 811 23 0 62 0 3
50 795 22 0 65 0 14
52 730 0 101 41 26 0
54 688 0 141 29 39 0
56 649 0 188 23 39 0
58 616 0 201 22 60 0
60 581 0 248 15 42 0
62 562 0 264 17 57 0
64 535 0 290 14 54 0
66 517 0 302 12 55 0
68 497 0 335 11 52 0
70 473 0 347 20 64 0
72 458 0 401 9 33 0
74 430 0 406 14 44 0
76 418 0 419 8 48 0
78 398 0 445 11 46 0
80 380 0 460 12 51 0
82 368 0 469 14 54 0
84 350 0 493 13 44 0
86 339 0 515 15 39 0
88 321 0 515 12 62 0
90 312 0 519 10 64 0
92 295 0 545 15 44 0
94 286 0 545 14 54 0
96 274 0 555 10 57 0
98 272 0 580 11 57 0
100 245 0 597 12 57 0
102 239 0 591 13 59 0
104 230 0 610 17 51 0
106 223 0 599 8 74 0
108 220 0 606 5 75 0
110 195 0 635 14 56 0
112 193 0 642 4 50 0
114 177 0 641 7 61 0
116 175 0 644 8 70 0
118 168 0 660 9 62 0
120 161 0 678 7 47 0
122 150 0 665 8 57 1
124 147 0 674 8 58 0
126 140 0 672 7 70 0
128 131 0 701 6 60 0
130 127 0 710 4 52 0
132 122 0 710 4 64 0
134 120 0 715 4 68 0
136 124 0 727 4 53 0
138 111 0 737 8 65 0
140 101 0 750 7 45 0
142 108 0 737 2 54 0
144 97 0 731 9 64 0
146 101 0 742 6 59 0
148 92 0 737 8 74 0
150 92 0 753 3 68 0
152 86 0 757 5 70 0
154 89 0 756 5 63 0
156 84 0 750 4 68 0
158 75 0 749 4 71 0
160 76 0 753 3 63 0
162 75 0 765 5 59 0
164 67 0 754 5 65 0
166 70 0 760 3 47 0
168 66 0 764 5 50 0
170 68 0 752 3 63 0
172 59 0 762 4 60 0
174 57 0 781 4 41 0
176 54 0 778 4 50 0
178 49 0 774 7 55 0
180 49 0 777 8 59 0
182 44 0 786 5 57 0
184 44 0 783 4 57 0
186 38 0 779 7 58 0
188 42 0 786 5 61 0
190 34 0 776 6 74 0
192 38 0 794 1 55 0
194 37 0 816 4 48 0
196 33 0 805 2 64 0
198 31 0 810 6 48 0
200 26 0 805 2 55 0
