0 1140 0 0 0 0 0
2 1063 0 0 73 0 0
4.00004 1054 0 0 71 0 0
6 1050 0 0 80 0 0
8 1046 0 0 88 0 0
10 1050 0 0 87 0 0
12 1043 0 0 87 0 0
14 1045 0 0 83 0 0
16 1040 0 0 78 0 0
18 1026 0 0 86 0 0
20 1032 0 0 80 0 0
22 1034 0 0 82 0 0
24 1021 0 0 98 0 0
26 1045 0 0 71 0 0
28 1036 0 0 79 0 0
30 1015 0 0 97 0 0
32 1033 0 0 76 0 0
34 1012 0 0 82 0 0
36 1013 0 0 93 0 0
38 1015 0 0 74 0 0
40 1009 0 0 89 0 0
42 1010 0 0 84 0 0
44 1013 0 0 89 0 0
46 1001 0 0 95 0 0
48 997 0 0 90 0 0
50 994 0 0 87 0 0
52 986 0 7 74 9 0
54 970 0 24 61 26 0
56 949 0 35 63 38 0
58 939 0 63 53 30 0
60 925 0 70 57 42 0
62 918 0 89 47 29 0
64 891 0 99 61 32 0
66 892 0 108 50 46 0
68 874 0 124 56 34 0
70 860 0 127 45 37 0
72 853 0 148 42 35 0
74 842 0 164 40 35 0
76 820 0 169 55 36 0
78 801 0 175 55 42 0
80 804 0 195 46 26 0
82 793 0 203 36 36 0
84 782 0 199 35 51 0
86 769 0 227 40 44 0
88 747 0 239 49 42 0
90 738 0 236 40 50 0
92 720 0 257 52 44 0
94 706 0 258 45 54 0
96 691 0 274 48 51 0
98 684 0 278 35 55 0
100 665 0 295 41 56 0
102 653 0 321 47 51 0
104 652 0 330 40 54 0
106 646 0 331 36 54 0
108 642 0 342 32 60 0
110 635 0 364 29 48 0
112 617 0 375 31 42 0
114 609 0 393 33 39 0
116 593 0 386 37 42 0
118 585 0 396 33 42 0
120 570 0 394 33 61 0
122 569 0 411 28 49 0
124 558 0 426 31 43 0
126 551 0 425 27 49 0
128 533 0 433 40 46 0
130 534 0 438 28 47 0
132 526 0 445 24 51 0
134 515 0 449 26 51 0
136 504 0 474 28 48 0
138 502 0 474 24 50 0
140 500 0 489 20 48 0
142 486 0 488 27 54 0
144 473 0 493 27 51 0
146 467 0 504 26 56 0
148 457 0 506 30 47 0
150 457 0 500 20 58 0
152 445 0 505 25 60 0
154 438 0 506 25 57 0
156 428 0 519 30 45 0
158 425 0 534 24 45 0
160 424 0 526 20 49 0
162 417 0 536 24 41 0
164 418 0 533 15 49 0
166 409 0 535 25 61 0
168 399 0 539 24 60 0
170 394 0 544 29 60 0
172 394 0 556 19 61 0
174 374 0 550 32 64 0
176 366 0 577 30 62 0
178 366 0 586 26 73 0
180 362 0 575 22 74 0
182 361 0 591 22 60 0
184 353 0 591 26 60 0
186 342 0 605 29 50 0
188 345 0 596 18 61 0
190 343 0 601 13 72 0
192 331 0 618 23 51 0
194 332 0 611 18 62 0
196 324 0 624 19 62 0
198 322 0 641 19 57 0
200 317 0 634 19 77 0
