0 1135 0 0 0 0 0
2 1082 0 0 55 0 0
4.00004 1084 0 0 55 0 0
6 1070 0 0 67 0 0
8 1062 0 0 65 0 0
10 1054 0 0 70 0 0
12 1051 0 0 68 0 0
14 1047 0 0 66 0 0
16 1033 0 0 71 0 0
18 1050 0 0 56 0 0
20 1036 0 0 74 0 0
22 1036 0 0 67 0 0
24 1038 0 0 73 0 0
26 1034 0 0 70 0 0
28 1025 0 0 78 0 0
30 1035 0 0 65 0 0
32 1030 0 0 70 0 0
34 1034 0 0 64 0 0
36 1025 0 0 70 0 0
38 1025 0 0 62 0 0
40 1015 0 0 61 0 0
42 1010 0 0 62 0 0
44 1012 0 0 71 0 0
46 1017 0 0 60 0 0
48 1014 0 0 65 0 0
50 1003 0 0 73 0 0
52 1014 0 6 52 5 0
54 1004 0 5 50 10 0
56 990 0 17 52 13 0
58 987 0 22 40 16 0
60 968 0 35 47 12 0
62 961 0 37 46 19 0
64 949 0 45 43 17 0
66 947 0 58 37 11 0
68 932 0 59 43 20 0
70 921 0 73 40 16 0
72 915 0 78 39 30 0
74 906 0 88 36 26 0
76 895 0 92 33 25 0
78 883 0 96 37 28 0
80 858 0 108 50 24 0
82 851 0 118 32 22 0
84 834 0 123 46 32 0
86 833 0 132 36 23 0
88 830 0 139 30 27 0
90 812 0 153 34 22 0
92 801 0 160 34 31 0
94 812 0 169 20 21 0
96 794 0 176 31 23 0
98 775 0 178 39 27 0
100 776 0 184 35 25 0
102 773 0 182 22 38 0
104 751 0 194 36 33 0
106 751 0 214 28 34 0
108 749 0 226 27 24 0
110 730 0 224 33 35 0
112 718 0 237 35 28 0
114 716 0 242 32 29 0
116 707 0 252 31 38 0
118 692 0 252 35 40 0
120 681 0 259 39 32 0
122 673 0 270 35 33 0
124 664 0 279 30 39 0
126 654 0 284 31 36 0
128 652 0 290 29 34 0
130 646 0 303 27 27 0
132 633 0 298 26 36 0
134 626 0 300 37 34 0
136 628 0 312 23 40 0
138 616 0 314 27 37 0
140 609 0 321 27 31 0
142 606 0 331 29 34 0
144 604 0 323 23 42 0
146 594 0 349 26 36 0
148 584 0 342 30 41 0
150 581 0 349 25 39 0
152 573 0 363 28 31 0
154 569 0 364 24 32 0
156 551 0 364 33 41 0
158 547 0 382 27 36 0
160 539 0 378 32 41 0
162 536 0 383 25 43 0
164 534 0 404 21 35 0
166 530 0 414 23 33 0
168 515 0 411 28 39 0
170 516 0 419 22 42 0
172 500 0 431 29 37 0
174 496 0 424 26 51 0
176 495 0 439 19 44 0
178 494 0 443 17 46 0
180 477 0 455 22 42 0
182 471 0 459 22 47 0
184 465 0 471 24 36 0
186 456 0 461 25 44 0
188 456 0 478 20 45 0
190 448 0 481 18 44 0
192 447 0 489 17 41 0
194 435 0 490 23 38 0
196 429 0 491 19 52 0
198 427 0 496 18 51 0
200 427 0 501 14 36 0
