0 985 0 0 0 0 0
2 872 34 0 79 0 5
4.00004 878 31 0 64 0 5
6 886 36 0 48 0 3
8 898 34 0 52 0 5
10 885 31 0 67 0 2
12 902 29 0 54 0 7
14 895 35 0 54 0 2
16 876 38 0 72 0 2
18 867 28 0 75 0 5
20 879 41 0 69 0 3
22 880 42 0 59 0 4
24 858 31 0 72 0 9
26 854 32 0 84 0 8
28 863 41 0 72 0 3
30 860 36 0 78 0 3
32 873 31 0 77 0 4
34 874 36 0 74 0 6
36 866 45 0 69 0 1
38 873 42 0 78 0 2
40 880 30 0 72 0 7
42 887 43 0 58 0 3
44 879 30 0 70 0 3
46 873 40 0 72 0 3
48 888 41 0 53 0 3
50 896 19 0 63 0 11
52 807 0 110 37 42 0
54 766 0 142 41 49 0
56 714 0 191 22 63 0
58 696 0 226 20 48 0
60 671 0 255 24 60 0
62 642 0 292 20 51 0
64 601 1 312 20 66 0
66 566 0 352 28 69 0
68 534 1 388 19 63 0
70 521 0 412 20 50 0
72 501 0 417 16 68 0
74 482 1 444 11 53 0
76 460 0 457 16 64 0
78 433 0 468 18 70 0
80 426 0 510 11 58 0
82 408 0 517 6 59 0
84 396 1 526 10 65 0
86 383 0 556 17 61 0
88 368 1 589 13 53 0
90 342 0 604 12 75 0
92 335 0 594 13 79 0
94 319 0 644 7 61 0
96 303 0 642 7 70 0
98 292 0 639 12 75 0
100 275 0 666 8 73 0
102 257 0 687 18 63 0
104 256 0 682 9 67 0
106 250 0 711 8 64 0
108 236 0 716 6 73 0
110 228 0 740 5 61 0
112 220 0 750 9 59 0
114 206 0 759 6 78 1
116 204 0 759 5 61 0
118 198 0 767 5 70 0
120 184 0 767 7 78 0
122 180 0 765 8 90 0
124 170 0 794 6 70 0
126 168 0 790 8 76 0
128 161 0 788 6 71 1
130 151 0 815 8 67 0
132 149 0 818 7 69 0
134 145 0 805 8 77 0
136 143 0 823 3 80 0
138 132 0 829 5 74 0
140 128 0 813 8 79 1
142 130 0 833 4 75 0
144 119 0 836 9 65 0
146 119 0 845 3 59 0
148 111 0 837 6 73 0
150 105 0 858 6 62 0
152 104 0 858 3 71 0
154 96 0 850 11 82 0
156 100 0 862 4 73 0
158 91 0 878 5 47 0
160 88 0 857 7 68 0
162 83 0 856 5 87 0
164 86 0 859 3 71 0
166 81 0 855 7 64 0
168 82 0 856 4 68 0
170 80 0 861 4 71 0
172 76 0 871 8 61 0
174 70 0 866 7 67 0
176 62 0 874 7 84 0
178 60 0 872 7 84 0
180 62 0 904 7 60 0
182 60 0 882 4 84 0
184 63 0 883 5 73 0
186 60 0 893 8 74 0
188 56 0 897 4 72 0
190 52 0 886 9 67 0
192 44 0 875 9 75 1
194 49 0 890 3 59 0
196 46 0 879 5 80 0
198 46 0 908 5 63 0
200 47 0 886 5 76 0
