0 927 0 0 0 0 0
2 823 19 0 77 0 14
4.00004 817 12 0 77 0 18
6 815 24 0 78 0 12
8 820 27 0 80 0 12
10 841 26 0 58 0 22
12 821 21 0 88 0 21
14 817 21 0 88 0 25
16 816 31 0 82 0 23
18 830 31 0 84 0 21
20 817 34 0 83 0 15
22 849 30 0 80 0 16
24 812 30 0 100 0 28
26 809 34 0 99 0 28
28 815 27 0 102 0 31
30 813 36 0 102 0 28
32 828 29 0 88 0 24
34 816 27 0 109 0 26
36 819 41 0 99 0 29
38 834 41 0 102 0 22
40 853 39 0 84 0 28
42 850 38 0 95 0 30
44 873 30 0 81 0 20
46 862 27 0 98 0 23
48 859 27 0 99 0 30
50 854 30 0 100 0 27
52 778 0 132 38 82 0
54 728 0 176 24 85 0
56 674 1 216 22 93 0
58 632 1 272 19 86 0
60 600 0 301 19 103 0
62 566 1 338 16 102 0
64 520 0 388 27 88 0
66 490 0 405 20 112 0
68 463 0 439 14 119 0
70 440 1 463 11 118 0
72 423 0 502 10 99 0
74 400 0 528 13 99 0
76 386 0 543 10 100 0
78 367 0 545 10 97 0
80 350 0 574 13 100 0
82 318 0 599 21 124 0
84 309 0 626 8 103 0
86 286 0 650 6 97 0
88 264 0 674 9 111 0
90 248 0 680 7 117 0
92 229 0 688 11 127 0
94 215 0 711 9 118 0
96 208 0 716 3 116 0
98 200 0 729 5 109 0
100 183 0 749 8 105 0
102 168 0 738 8 114 0
104 161 0 762 9 103 0
106 154 0 771 9 96 0
108 147 0 775 4 116 0
110 141 0 811 3 95 0
112 126 0 800 8 121 1
114 116 0 827 6 101 0
116 111 0 831 4 111 0
118 103 0 824 10 115 0
120 97 0 835 6 114 0
122 92 0 829 7 119 0
124 86 0 834 7 119 0
126 79 0 834 7 129 0
128 75 0 860 5 110 0
130 70 0 851 7 136 0
132 78 0 866 3 116 0
134 70 0 890 6 112 0
136 67 0 899 6 97 0
138 64 0 901 3 106 0
140 57 0 903 5 121 0
142 52 0 920 6 127 0
144 45 0 935 6 104 0
146 44 0 916 2 130 0
148 44 0 924 6 120 0
150 38 0 929 5 124 0
152 37 0 950 2 101 0
154 31 0 937 3 125 0
156 33 0 936 4 118 0
158 30 0 934 3 129 0
160 30 0 933 2 125 0
162 29 0 918 2 124 0
164 26 0 942 3 107 0
166 20 0 954 4 107 0
168 16 0 958 6 111 0
170 16 0 957 0 109 0
172 17 0 944 2 116 1
174 15 0 951 0 111 0
176 12 0 917 3 130 0
178 13 0 923 2 132 0
180 10 0 927 1 129 0
182 9 0 937 1 120 0
184 11 0 934 4 116 0
186 7 0 935 3 124 0
188 8 0 924 0 110 0
190 7 0 903 2 140 0
192 7 0 931 4 113 0
194 9 0 938 3 113 0
196 8 0 927 1 125 0
198 9 0 929 3 121 0
200 9 0 933 0 129 0
