0 1067 0 0 0 0 0
2 982 18 0 62 0 2
4.00004 976 22 0 60 0 6
6 957 34 0 47 0 12
8 955 24 0 62 0 11
10 953 31 0 52 0 7
12 942 35 0 61 0 4
14 940 28 0 63 0 5
16 943 26 0 58 0 8
18 943 28 0 62 0 7
20 943 27 0 52 0 9
22 943 23 0 72 0 5
24 959 22 0 57 0 3
26 957 17 0 52 0 7
28 946 16 0 70 0 8
30 943 34 0 46 0 6
32 923 25 0 63 0 13
34 916 34 0 65 0 9
36 937 23 0 63 0 4
38 941 29 0 54 0 6
40 929 27 0 61 0 9
42 917 25 0 69 0 10
44 912 37 0 67 0 5
46 923 32 0 66 0 2
48 927 27 0 61 0 9
50 919 37 0 74 0 10
52 842 0 117 20 51 0
54 801 0 156 30 51 0
56 753 0 210 22 47 0
58 714 0 233 26 54 0
60 687 1 263 18 59 0
62 644 0 302 20 64 0
64 622 0 341 25 44 1
66 591 0 356 15 61 0
68 581 0 374 11 59 0
70 555 0 400 18 51 0
72 522 0 421 20 53 0
74 504 0 437 18 60 0
76 493 0 462 13 50 0
78 471 0 488 11 59 0
80 452 0 501 7 57 0
82 435 1 528 10 55 0
84 413 0 536 12 65 0
86 398 0 560 9 62 0
88 393 0 580 9 47 0
90 378 0 576 9 64 0
92 363 0 591 7 60 0
94 352 0 589 8 68 0
96 336 0 608 8 65 0
98 321 0 621 14 66 0
100 309 0 632 10 70 0
102 307 0 643 5 62 0
104 293 0 658 8 63 0
106 278 0 659 11 78 0
108 274 0 663 16 70 0
110 272 0 677 12 64 0
112 272 0 690 16 55 0
114 253 0 705 9 55 0
116 241 0 708 6 67 0
118 239 0 699 11 74 0
120 231 0 728 9 64 0
122 218 0 746 5 57 0
124 207 0 744 6 63 0
126 199 0 761 5 60 0
128 196 0 772 6 57 0
130 184 0 785 4 53 0
132 182 0 775 3 68 0
134 166 0 795 10 57 0
136 160 0 797 5 56 0
138 161 0 779 0 75 0
140 156 0 805 6 50 0
142 156 0 778 6 77 0
144 149 0 793 7 73 0
146 145 0 812 6 59 0
148 133 0 822 7 51 0
150 126 0 813 6 71 0
152 120 0 816 8 60 0
154 111 0 823 7 73 0
156 109 0 828 2 61 0
158 112 0 820 2 73 0
160 108 0 843 3 64 0
162 101 0 830 6 75 0
164 100 1 858 4 58 0
166 96 0 853 4 73 0
168 89 0 835 5 93 0
170 89 0 852 1 81 0
172 79 0 863 5 69 0
174 80 0 869 4 66 0
176 78 0 870 3 69 0
178 74 0 861 3 79 0
180 69 0 872 4 63 0
182 68 0 880 5 63 0
184 70 0 880 4 65 0
186 66 0 881 3 60 0
188 55 0 862 6 81 0
190 52 0 881 4 78 0
192 55 0 877 5 65 0
194 49 0 885 6 78 0
196 51 0 894 5 65 0
198 52 0 887 2 62 0
200 50 0 895 6 53 0
