0 104 0 0 0 36
2 105 0 0 0 25
4.00004 105 0 1 0 30
6 105 0 0 0 28
8 102 0 2 0 33
10 103 0 2 0 29
12 89 14 0 0 25
14 79 22 2 0 26
16 68 31 4 0 24
18 66 36 1 0 32
20 61 41 1 0 32
22 54 47 1 0 34
24 49 52 0 1 31
26 43 59 1 0 39
28 39 61 0 2 31
30 30 70 1 0 28
32 29 69 1 3 28
34 25 73 1 3 27
36 24 74 3 3 23
38 24 78 2 1 33
40 24 80 0 1 35
42 20 79 2 2 31
44 17 84 2 2 27
46 17 86 0 1 33
48 18 84 0 3 31
50 16 83 1 6 28
52 15 89 1 1 35
54 14 89 0 2 31
56 14 91 2 0 30
58 13 93 0 1 30
60 11 91 1 4 33
62 11 96 1 0 26
64 11 93 0 5 22
66 12 95 1 3 34
68 12 98 0 2 29
70 10 101 0 1 28
72 8 103 0 2 23
74 10 104 0 1 30
76 10 102 0 3 32
78 9 99 0 6 33
80 9 100 0 3 32
82 9 102 0 2 31
84 7 101 1 4 34
86 7 101 0 4 27
88 7 103 0 2 23
90 6 103 0 2 28
92 4 107 1 0 27
94 5 105 0 2 29
96 5 106 0 1 30
98 6 105 2 2 29
100 8 105 1 2 27
102 7 105 1 3 31
104 8 105 0 3 24
106 7 109 0 0 25
108 5 108 1 2 32
110 5 110 0 1 33
112 4 111 0 1 35
114 4 108 0 4 32
116 5 108 0 4 27
118 5 111 0 1 32
120 3 111 1 3 28
122 3 112 0 1 34
124 3 110 0 3 25
126 4 110 0 3 32
128 4 111 0 2 26
130 3 109 0 2 33
132 3 107 0 3 32
134 3 105 0 5 24
136 3 106 0 4 23
138 3 103 0 7 27
140 2 107 0 3 34
142 2 108 0 3 26
144 3 110 0 1 32
146 3 108 0 4 30
148 2 109 0 3 36
150 2 109 0 3 25
152 0 113 0 1 20
154 0 111 0 3 26
156 0 111 0 3 30
158 0 113 0 1 30
160 0 111 0 1 31
162 0 110 0 2 30
164 0 108 0 3 35
166 0 106 0 4 38
168 0 107 0 3 31
170 0 108 0 2 27
172 0 108 0 2 30
174 0 105 0 3 35
176 0 106 0 2 30
178 0 107 0 1 31
180 1 105 0 3 25
182 1 105 0 2 31
184 1 105 0 1 28
186 0 106 0 1 33
188 0 105 0 2 28
190 1 105 0 1 23
192 1 102 0 2 22
194 2 99 0 4 29
196 2 101 0 2 29
198 2 100 0 3 27
200 2 99 0 2 23
202 2 99 0 3 27
204 1 97 0 4 37
206 0 98 0 2 24
208 0 98 0 1 31
210 0 98 0 2 33
