0 46 0 0 0 24
2 44 0 1 0 35
4.00004 43 0 1 0 30
6 40 0 5 0 32
8 44 0 2 0 27
10 43 0 2 0 31
12 44 0 3 0 35
14 44 0 3 0 34
16 44 0 2 1 36
18 42 1 4 0 28
20 45 0 1 1 28
22 44 1 3 0 26
24 42 1 5 0 29
26 44 0 2 1 21
28 43 1 3 1 29
30 44 1 3 1 32
32 42 2 4 0 32
34 40 2 6 0 33
36 38 2 6 0 37
38 42 2 1 0 27
40 42 2 1 0 25
42 42 3 2 0 29
44 41 2 1 1 33
46 39 3 4 0 27
48 40 2 2 1 29
50 40 3 1 0 32
52 39 3 1 1 25
54 40 4 0 1 29
56 35 5 3 0 30
58 33 5 5 0 30
60 34 5 4 0 27
62 33 5 3 1 34
64 33 4 3 1 38
66 34 5 0 0 26
68 30 5 3 0 31
70 31 5 2 0 32
72 31 5 1 0 37
74 30 4 0 1 30
76 29 4 1 1 28
78 30 5 0 1 27
80 28 7 2 1 28
82 28 8 1 0 29
84 27 7 2 1 26
86 28 9 1 0 33
88 27 8 2 1 37
90 28 9 1 1 32
92 29 9 0 0 33
94 29 9 0 0 31
96 27 7 2 2 30
98 23 8 3 1 31
100 20 9 4 1 33
102 22 9 2 1 29
104 23 9 1 1 36
106 21 10 3 0 35
108 22 10 2 0 28
110 24 8 0 2 27
112 23 9 1 1 25
114 24 10 0 0 28
116 23 10 0 0 33
118 21 9 2 1 28
120 20 8 2 2 32
122 21 10 2 1 26
124 22 11 1 0 35
126 21 11 1 0 28
128 20 12 1 0 34
130 21 12 0 3 27
132 17 15 4 1 28
134 19 16 2 0 36
136 18 15 3 1 37
138 21 15 0 1 33
140 17 14 4 3 26
142 20 16 1 0 34
144 17 16 3 0 28
146 19 14 1 1 30
148 19 15 1 1 24
150 19 15 1 1 35
152 18 12 2 4 40
154 19 15 1 1 34
156 20 14 0 2 30
158 19 15 1 1 30
160 18 12 2 6 29
162 19 18 1 0 30
164 19 15 1 4 25
166 19 17 1 3 22
168 20 17 0 3 29
170 18 19 2 1 33
172 20 19 0 1 30
174 18 18 2 4 25
176 19 21 1 1 30
178 17 18 3 4 29
180 16 21 3 1 35
182 19 23 0 0 29
184 18 23 1 1 32
186 17 21 2 3 27
188 18 23 1 1 32
190 17 22 1 3 37
192 17 24 1 3 38
194 16 26 1 2 31
196 17 26 0 2 31
198 16 25 1 3 33
200 16 28 1 2 37
202 16 24 1 5 33
204 16 29 1 2 23
206 16 33 1 0 36
208 15 32 2 2 29
210 16 33 1 0 27
