0 111 0 0 0 23
2 107 0 4 0 29
4.00004 108 0 3 0 35
6 106 0 5 0 39
8 105 0 4 0 33
10 108 0 1 0 25
12 85 22 2 0 29
14 71 35 3 0 31
16 67 39 2 1 31
18 55 54 0 0 30
20 48 57 1 3 22
22 44 63 1 1 28
24 43 65 1 2 24
26 41 67 0 4 31
28 37 71 1 2 30
30 35 72 2 1 26
32 31 78 0 1 33
34 30 81 0 1 30
36 26 83 1 2 28
38 22 88 0 2 19
40 21 89 0 2 29
42 22 90 0 1 30
44 20 90 1 1 28
46 20 90 0 2 24
48 17 91 1 2 30
50 17 94 1 0 27
52 16 94 0 2 27
54 14 96 0 2 26
56 11 96 0 4 33
58 9 100 0 2 33
60 8 100 0 3 22
62 7 100 0 2 26
64 7 98 0 4 25
66 7 100 0 2 28
68 7 93 0 9 29
70 6 98 0 5 28
72 5 103 0 1 30
74 2 104 0 2 30
76 2 101 1 5 30
78 3 104 0 2 32
80 3 104 0 2 31
82 3 103 0 2 24
84 3 102 1 2 35
86 4 100 1 4 30
88 3 102 2 2 21
90 3 100 1 5 32
92 2 106 1 0 33
94 3 105 0 1 32
96 4 104 0 1 30
98 4 104 0 1 29
100 4 103 0 2 29
102 4 104 0 1 28
104 3 103 1 3 30
106 4 106 1 1 29
108 5 108 0 0 39
110 4 106 0 3 33
112 3 106 1 4 33
114 3 109 1 2 29
116 4 110 0 1 33
118 4 110 0 1 26
120 4 110 0 1 23
122 4 109 0 2 31
124 5 108 0 3 28
126 5 110 0 1 36
128 5 107 0 4 28
130 5 109 0 2 34
132 4 108 1 3 34
134 4 110 1 0 34
136 4 109 0 1 29
138 4 111 0 0 33
140 3 109 0 3 33
142 2 111 0 1 30
144 2 106 0 6 29
146 2 108 0 4 33
148 3 110 0 1 31
150 2 107 1 4 34
152 2 110 0 1 34
154 3 109 0 2 33
156 2 110 0 2 32
158 2 112 0 0 30
160 0 112 1 1 28
162 1 111 0 2 33
164 1 108 0 4 29
166 1 110 0 2 36
168 1 107 0 4 37
170 1 109 0 2 34
172 2 106 0 4 33
174 1 110 0 1 29
176 1 108 0 3 34
178 0 110 0 2 32
180 0 104 0 6 37
182 0 109 0 2 37
184 0 107 0 4 31
186 0 110 0 0 22
188 0 106 0 4 24
190 1 110 0 0 26
192 2 108 0 2 34
194 2 106 0 3 29
196 1 105 2 3 26
198 2 105 0 3 25
200 1 105 1 3 29
202 2 106 0 2 35
204 1 106 1 2 30
206 2 107 0 1 33
208 4 107 0 1 35
210 3 107 0 2 27
