0 4637 0 363 0
2.0001 3628 1009 307 55
4 2835 1747 263 155
6.0001 2267 2393 164 176
8.0001 1766 2909 139 186
10.0001 1346 3273 120 260
12.0001 1058 3589 84 269
14.0001 800 3843 68 289
16.0001 620 4014 46 319
18.0001 484 4124 43 349
20.0001 391 4277 24 308
22.0001 270 4291 39 400
24.0001 215 4428 18 339
26.0001 175 4470 10 345
28.0001 131 4506 13 350
30.0001 110 4546 8 336
32.0001 84 4560 8 348
34 67 4560 6 367
36 55 4600 7 338
38 44 4598 2 356
40 34 4613 1 352
42 22 4607 4 366
44 18 4602 4 376
46 18 4601 0 381
48 11 4624 1 364
50 9 4648 0 343
52 7 4630 0 363
54 3 4627 1 369
56 4 4655 0 341
58 4 4616 0 380
60 0 4624 1 375
62 1 4637 0 362
64 1 4640 0 359
66 1 4674 0 325
68 0 4636 0 364
70 0 4648 0 352
72 0 4648 0 352
74 0 4638 0 362
76 0 4657 0 343
78 0 4650 0 350
80 0 4649 0 351
82 0 4633 0 367
84 0 4623 0 377
86 0 4629 0 370
88 0 4674 0 326
90 0 4637 0 363
92 0 4622 0 378
94 0 4688 0 312
96 0 4654 0 346
98 0 4664 0 336
100 0 4635 0 365
