0 4438 0 562 0
2.0001 3394 1034 478 94
4 2634 1797 387 182
6.0001 1986 2420 321 273
8.0001 1533 2886 243 338
10.0001 1187 3196 200 417
12.0001 915 3506 146 433
14.0001 711 3686 115 488
16.0001 565 3849 87 499
18.0001 449 3978 72 501
20.0001 326 4090 55 529
22.0001 259 4188 39 514
24.0001 191 4201 31 577
26.0001 139 4291 25 545
28.0001 108 4313 22 557
30.0001 90 4337 10 563
32.0001 63 4343 14 580
34 52 4338 12 598
36 43 4341 5 611
38 34 4363 3 600
40 23 4369 1 607
42 12 4367 5 616
44 15 4400 1 584
46 12 4417 1 570
48 10 4389 2 598
50 11 4383 0 606
52 5 4377 2 616
54 4 4366 3 627
56 5 4406 2 587
58 6 4363 1 630
60 4 4402 0 593
62 3 4401 0 596
64 3 4415 0 582
66 1 4400 1 598
68 0 4389 1 610
70 1 4402 0 597
72 0 4407 1 592
74 0 4439 1 560
76 1 4429 0 570
78 1 4428 0 571
80 1 4417 0 582
82 1 4397 0 602
84 1 4398 0 601
86 1 4396 0 603
88 1 4390 0 609
90 1 4422 0 577
92 0 4429 0 571
94 0 4413 0 587
96 0 4426 0 574
98 0 4424 0 576
100 0 4383 0 617
