0 4104 0 896 0
2.0001 3329 775 816 80
4 2695 1412 684 209
6.0001 2240 1873 536 351
8.0001 1804 2312 470 414
10.0001 1523 2579 384 514
12.0001 1248 2869 301 582
14.0001 1020 3073 262 645
16.0001 829 3276 227 668
18.0001 691 3385 186 738
20.0001 567 3547 141 745
22.0001 468 3657 133 742
24.0001 400 3731 103 766
26.0001 333 3826 77 764
28.0001 264 3836 79 821
30.0001 235 3889 58 818
32.0001 190 3950 55 805
34 156 4045 41 758
36 134 3979 28 859
38 102 4023 28 847
40 87 4018 25 870
42 74 4120 17 789
44 59 4083 8 850
46 47 4103 6 844
48 32 4120 6 842
50 28 4132 3 837
52 22 4083 4 891
54 18 4103 2 877
56 10 4093 4 893
58 12 4103 0 885
60 9 4095 1 895
62 7 4100 0 893
64 6 4127 0 867
66 6 4114 0 880
68 3 4076 2 919
70 4 4144 0 852
72 3 4083 1 913
74 3 4153 0 844
76 3 4134 0 863
78 2 4146 0 852
80 2 4097 0 901
82 2 4158 0 840
84 1 4125 0 874
86 0 4118 1 881
88 0 4138 1 861
90 1 4166 0 833
92 0 4153 1 846
94 0 4135 1 864
96 1 4091 0 908
98 1 4163 0 836
100 1 4061 0 938
