0 4143 0 857 0
2.0001 3004 1133 751 112
4 2307 1820 581 292
6.0001 1762 2348 435 455
8.0001 1318 2799 337 546
10.0001 1000 3135 263 602
12.0001 770 3342 191 697
14.0001 570 3564 153 713
16.0001 443 3666 108 783
18.0001 323 3766 95 816
20.0001 246 3948 68 738
22.0001 183 3933 44 840
24.0001 133 3999 34 834
26.0001 105 4029 21 845
28.0001 81 4003 20 896
30.0001 68 4067 12 853
32.0001 46 4057 17 880
34 37 4067 10 886
36 30 4050 5 915
38 21 4125 7 847
40 10 4126 9 855
42 9 4118 6 867
44 9 4062 3 926
46 6 4100 4 890
48 5 4115 1 879
50 5 4087 0 908
52 1 4089 2 908
54 2 4129 0 869
56 1 4105 1 893
58 1 4068 1 930
60 1 4111 1 887
62 1 4076 0 923
64 1 4143 0 856
66 1 4094 0 905
68 0 4176 0 824
70 0 4121 0 879
72 0 4161 0 839
74 0 4152 0 848
76 0 4150 0 850
78 0 4095 0 905
80 0 4102 0 898
82 0 4151 0 849
84 0 4106 0 894
86 0 4135 0 865
88 0 4161 0 839
90 0 4097 0 903
92 0 4117 0 883
94 0 4112 0 888
96 0 4116 0 884
98 0 4118 0 882
100 0 4112 0 888
