0 4038 0 962 0
2.0001 3189 897 810 104
4 2527 1518 660 295
6.0001 1986 2086 527 401
8.0001 1577 2498 443 482
10.0001 1254 2825 348 573
12.0001 1015 3080 265 640
14.0001 803 3301 219 677
16.0001 664 3392 151 793
18.0001 522 3545 133 800
20.0001 434 3637 102 827
22.0001 352 3739 82 827
24.0001 277 3778 73 872
26.0001 235 3887 46 832
28.0001 162 3924 46 868
30.0001 132 3954 39 875
32.0001 104 3986 26 884
34 87 3982 19 912
36 65 4025 17 893
38 44 4058 22 876
40 38 4034 20 908
42 40 4056 10 894
44 27 4056 12 905
46 21 4023 13 943
48 20 4098 8 874
50 15 4076 6 903
52 14 4093 3 890
54 11 4083 0 906
56 7 4112 1 880
58 4 4074 1 921
60 4 4082 1 913
62 4 4077 0 919
64 2 4093 1 904
66 3 4066 0 931
68 2 4105 0 893
70 1 4142 0 857
72 1 4090 0 909
74 1 4142 0 857
76 1 4123 0 876
78 1 4079 0 920
80 1 4105 0 894
82 1 4021 0 978
84 1 4098 0 901
86 1 4065 0 934
88 1 4138 0 861
90 1 4104 0 895
92 1 4065 0 934
94 1 4112 0 887
96 0 4113 1 886
98 1 4093 0 906
100 0 4093 1 906
