0 3811 0 1189 0
2.0001 2793 1085 966 156
4 2104 1779 729 388
6.0001 1627 2274 542 557
8.0001 1222 2661 403 714
10.0001 882 2958 333 827
12.0001 694 3175 235 896
14.0001 534 3348 173 945
16.0001 402 3489 145 964
18.0001 313 3571 113 1003
20.0001 238 3627 89 1046
22.0001 167 3642 80 1111
24.0001 127 3735 56 1082
26.0001 113 3700 28 1159
28.0001 75 3769 26 1130
30.0001 58 3791 16 1135
32.0001 41 3807 18 1134
34 34 3887 12 1067
36 25 3847 9 1119
38 16 3852 10 1122
40 13 3851 6 1130
42 8 3826 6 1160
44 9 3828 1 1162
46 9 3872 1 1118
48 3 3863 2 1132
50 4 3884 0 1112
52 2 3865 0 1133
54 1 3891 1 1107
56 1 3911 1 1087
58 0 3838 0 1162
60 0 3886 0 1114
62 0 3800 0 1200
64 0 3878 0 1122
66 0 3834 0 1166
68 0 3882 0 1118
70 0 3867 0 1133
72 0 3859 0 1141
74 0 3874 0 1126
76 0 3842 0 1158
78 0 3845 0 1155
80 0 3829 0 1171
82 0 3787 0 1213
84 0 3877 0 1123
86 0 3862 0 1138
88 0 3851 0 1149
90 0 3876 0 1124
92 0 3843 0 1157
94 0 3842 0 1158
96 0 3869 0 1131
98 0 3811 0 1189
100 0 3821 0 1179
