0 4337 0 663 0
2.0001 3356 1030 523 91
4 2591 1738 462 209
6.0001 2048 2266 371 315
8.0001 1605 2763 275 357
10.0001 1254 3083 216 447
12.0001 991 3329 158 522
14.0001 784 3572 124 520
16.0001 596 3748 119 537
18.0001 499 3866 71 564
20.0001 395 3980 62 563
22.0001 301 4048 64 587
24.0001 249 4126 39 586
26.0001 191 4224 36 549
28.0001 151 4220 25 604
30.0001 124 4282 17 577
32.0001 97 4267 18 618
34 73 4313 15 599
36 43 4299 15 643
38 37 4382 5 576
40 24 4364 5 607
42 24 4322 4 650
44 18 4335 4 643
46 16 4375 2 607
48 11 4379 0 610
50 6 4377 1 616
52 4 4342 0 654
54 4 4396 0 600
56 4 4347 0 649
58 3 4382 0 615
60 3 4372 0 625
62 3 4388 0 609
64 1 4373 0 626
66 1 4344 0 655
68 1 4350 0 649
70 1 4357 0 642
72 0 4311 1 688
74 0 4333 1 666
76 1 4366 0 633
78 1 4372 0 627
80 1 4377 0 622
82 1 4378 0 621
84 1 4385 0 614
86 1 4362 0 637
88 0 4373 1 626
90 1 4380 0 619
92 1 4359 0 640
94 1 4376 0 623
96 1 4376 0 623
98 0 4337 0 663
100 0 4359 0 641
