0 4341 0 659 0
2.0001 3349 996 559 96
4 2615 1771 406 208
6.0001 2065 2296 329 310
8.0001 1598 2786 276 340
10.0001 1279 3109 188 424
12.0001 963 3346 183 508
14.0001 726 3618 151 505
16.0001 588 3785 87 540
18.0001 426 3974 85 515
20.0001 350 4026 52 572
22.0001 272 4090 49 589
24.0001 211 4109 35 645
26.0001 160 4207 28 605
28.0001 120 4248 22 610
30.0001 91 4305 16 588
32.0001 73 4299 12 616
34 59 4329 8 604
36 42 4321 2 635
38 31 4376 4 589
40 24 4388 3 585
42 14 4320 4 662
44 15 4356 2 627
46 12 4338 3 647
48 12 4384 0 604
50 7 4375 0 618
52 5 4367 0 628
54 4 4333 0 663
56 1 4325 1 673
58 2 4373 0 625
60 1 4399 1 599
62 1 4405 0 594
64 0 4365 0 635
66 0 4384 0 616
68 0 4350 0 650
70 0 4371 0 629
72 0 4384 0 616
74 0 4336 0 664
76 0 4352 0 648
78 0 4359 0 641
80 0 4398 0 602
82 0 4410 0 590
84 0 4373 0 627
86 0 4372 0 628
88 0 4341 0 659
90 0 4365 0 635
92 0 4393 0 607
94 0 4366 0 634
96 0 4346 0 654
98 0 4354 0 646
100 0 4364 0 636
