0 3836 0 1164 0
2.0001 2848 978 1005 169
4 2222 1549 824 405
6.0001 1725 2093 629 553
8.0001 1327 2516 506 651
10.0001 1030 2730 396 844
12.0001 813 2986 331 870
14.0001 645 3177 248 930
16.0001 510 3314 215 961
18.0001 413 3426 148 1013
20.0001 330 3476 106 1088
22.0001 236 3560 99 1105
24.0001 203 3674 65 1058
26.0001 143 3672 62 1123
28.0001 120 3657 49 1174
30.0001 99 3686 24 1191
32.0001 72 3705 26 1197
34 50 3704 29 1217
36 47 3752 15 1186
38 33 3782 15 1170
40 26 3832 12 1130
42 20 3809 11 1160
44 19 3786 10 1185
46 16 3754 7 1223
48 13 3755 5 1227
50 8 3764 4 1224
52 9 3808 2 1181
54 5 3772 5 1218
56 4 3790 4 1202
58 4 3773 2 1221
60 2 3786 2 1210
62 3 3786 0 1211
64 2 3815 0 1183
66 1 3787 1 1211
68 1 3766 0 1233
70 0 3846 0 1154
72 0 3807 0 1193
74 0 3736 0 1264
76 0 3812 0 1188
78 0 3783 0 1217
80 0 3752 0 1248
82 0 3791 0 1209
84 0 3777 0 1223
86 0 3727 0 1273
88 0 3766 0 1234
90 0 3759 0 1241
92 0 3809 0 1191
94 0 3779 0 1221
96 0 3742 0 1258
98 0 3782 0 1218
100 0 3785 0 1215
