0 4140 0 860 0
2.0001 3135 931 811 123
4 2493 1560 652 295
6.0001 1987 2094 490 429
8.0001 1526 2564 392 518
10.0001 1205 2884 287 624
12.0001 965 3110 253 672
14.0001 751 3324 201 724
16.0001 616 3478 156 750
18.0001 523 3546 116 815
20.0001 399 3679 100 822
22.0001 331 3764 64 841
24.0001 245 3866 63 826
26.0001 193 3854 53 900
28.0001 163 3939 38 860
30.0001 128 3971 34 867
32.0001 108 4009 26 857
34 94 3996 21 889
36 77 4025 11 887
38 60 4012 8 920
40 47 4081 12 860
42 36 4054 9 901
44 25 4043 9 923
46 22 4103 6 869
48 19 4106 5 870
50 17 4033 4 946
52 11 4051 6 932
54 9 4094 4 893
56 6 4078 2 914
58 5 4069 2 924
60 4 4080 1 915
62 4 4118 0 878
64 2 4079 1 918
66 2 4064 0 934
68 0 4106 1 893
70 0 4150 0 850
72 0 4066 0 934
74 0 4152 0 848
76 0 4087 0 913
78 0 4099 0 901
80 0 4019 0 981
82 0 4121 0 879
84 0 4138 0 862
86 0 4129 0 871
88 0 4068 0 932
90 0 4100 0 900
92 0 4082 0 918
94 0 4131 0 869
96 0 4131 0 869
98 0 4080 0 920
100 0 4105 0 895
