0 4405 0 595 0
2.0001 3402 1005 514 78
4 2654 1791 386 168
6.0001 2054 2362 324 260
8.0001 1590 2788 260 362
10.0001 1223 3160 222 395
12.0001 961 3444 143 452
14.0001 764 3654 103 479
16.0001 571 3852 101 476
18.0001 448 3955 70 527
20.0001 368 4064 40 528
22.0001 278 4138 36 548
24.0001 214 4140 26 620
26.0001 151 4255 19 575
28.0001 116 4293 18 573
30.0001 98 4350 12 540
32.0001 72 4324 13 591
34 61 4367 4 568
36 42 4375 7 576
38 34 4393 3 570
40 22 4370 3 605
42 17 4445 2 536
44 13 4436 2 549
46 9 4372 1 618
48 8 4391 2 599
50 5 4441 1 553
52 4 4431 0 565
54 2 4385 1 612
56 2 4420 0 578
58 2 4409 0 589
60 1 4380 1 618
62 1 4400 1 598
64 1 4437 1 561
66 2 4392 0 606
68 1 4397 1 601
70 0 4420 1 579
72 1 4401 0 598
74 0 4431 0 569
76 0 4417 0 582
78 0 4385 0 615
80 0 4413 0 587
82 0 4412 0 588
84 0 4408 0 592
86 0 4432 0 568
88 0 4409 0 591
90 0 4421 0 579
92 0 4441 0 559
94 0 4398 0 602
96 0 4422 0 578
98 0 4424 0 576
100 0 4441 0 559
