0 3940 0 1060 0
2.0001 2779 1174 904 142
4 2017 1903 711 369
6.0001 1511 2440 497 552
8.0001 1112 2831 369 688
10.0001 834 3164 279 723
12.0001 597 3339 201 863
14.0001 450 3480 158 912
16.0001 335 3618 105 942
18.0001 254 3721 67 958
20.0001 159 3808 57 976
22.0001 120 3845 50 985
24.0001 95 3862 37 1006
26.0001 77 3913 26 984
28.0001 59 3910 21 1010
30.0001 48 3934 13 1005
32.0001 40 3924 11 1025
34 32 3920 6 1042
36 24 3942 5 1029
38 15 3927 1 1057
40 10 3962 3 1025
42 8 3915 2 1075
44 7 3929 1 1063
46 4 3972 0 1024
48 0 3983 2 1015
50 2 3913 0 1085
52 1 3944 0 1055
54 0 3933 0 1067
56 0 3936 0 1064
58 0 3933 0 1067
60 0 3948 0 1052
62 0 3971 0 1029
64 0 3976 0 1024
66 0 3949 0 1051
68 0 3901 0 1099
70 0 3924 0 1076
72 0 3911 0 1089
74 0 3957 0 1043
76 0 3911 0 1089
78 0 3905 0 1095
80 0 3903 0 1097
82 0 3901 0 1099
84 0 3905 0 1095
86 0 3916 0 1084
88 0 3971 0 1029
90 0 4012 0 988
92 0 3900 0 1100
94 0 3953 0 1047
96 0 3922 0 1078
98 0 3992 0 1008
100 0 3968 0 1032
