0 4441 0 559 0
2.0001 3337 1111 458 94
4 2487 1917 399 197
6.0001 1941 2486 261 312
8.0001 1467 2982 218 333
10.0001 1120 3293 133 454
12.0001 850 3577 102 471
14.0001 654 3738 76 532
16.0001 488 3958 51 503
18.0001 365 4044 49 542
20.0001 280 4171 34 515
22.0001 215 4214 22 549
24.0001 174 4243 20 563
26.0001 126 4312 21 541
28.0001 101 4306 9 584
30.0001 72 4330 12 586
32.0001 60 4365 6 569
34 50 4386 4 560
36 36 4412 6 546
38 31 4405 4 560
40 24 4411 6 559
42 23 4373 3 601
44 21 4438 2 539
46 17 4421 1 561
48 15 4415 2 568
50 10 4390 0 600
52 8 4407 2 583
54 6 4430 0 564
56 5 4419 0 576
58 5 4419 0 576
60 5 4409 0 586
62 4 4416 0 580
64 2 4413 1 584
66 2 4403 0 595
68 1 4426 0 573
70 1 4418 0 581
72 1 4436 0 563
74 1 4430 0 569
76 0 4422 0 578
78 0 4433 0 567
80 0 4419 0 581
82 0 4406 0 594
84 0 4434 0 566
86 0 4398 0 602
88 0 4437 0 563
90 0 4426 0 574
92 0 4489 0 511
94 0 4447 0 553
96 0 4394 0 606
98 0 4451 0 549
100 0 4420 0 580
