0 4096 0 904 0
2.0001 3052 970 850 128
4 2369 1699 665 267
6.0001 1834 2255 505 406
8.0001 1449 2632 404 515
10.0001 1105 2943 330 622
12.0001 899 3197 243 661
14.0001 676 3399 195 730
16.0001 543 3485 139 833
18.0001 417 3630 116 837
20.0001 333 3753 91 823
22.0001 240 3815 79 866
24.0001 199 3883 58 860
26.0001 144 3910 52 894
28.0001 121 3917 34 928
30.0001 97 3885 26 992
32.0001 77 3969 18 936
34 64 3942 13 981
36 45 4026 13 916
38 37 4042 11 910
40 25 3971 10 994
42 18 4000 5 977
44 17 3990 0 993
46 11 4027 1 961
48 7 4065 2 926
50 8 4027 0 965
52 7 4026 1 966
54 5 3990 1 1004
56 2 4030 3 965
58 3 4056 1 940
60 2 4064 1 933
62 3 4113 0 884
64 1 4011 1 987
66 1 4029 0 970
68 1 4064 0 935
70 1 4063 0 936
72 1 4096 0 903
74 1 4078 0 921
76 1 4031 0 968
78 1 4082 0 917
80 1 4030 0 969
82 1 4053 0 946
84 1 4057 0 942
86 0 4058 0 942
88 0 4012 0 988
90 0 4061 0 939
92 0 4101 0 899
94 0 4045 0 955
96 0 4079 0 921
98 0 4055 0 945
100 0 4038 0 962
