0 1016 0 0 0 0 0
2 1011 0 0 1 0 0
4.00004 1012 0 0 0 0 0
6 1009 0 0 3 0 0
8 1011 0 0 0 0 0
10 1015 0 0 0 0 0
12 1015 0 0 0 0 0
14 1006 0 0 4 0 0
16 1006 0 0 3 0 0
18 1007 0 0 0 0 0
20 1000 0 0 2 0 0
22 1006 0 0 0 0 0
24 1008 0 0 0 0 0
26 1003 0 0 0 0 0
28 1004 0 0 4 0 0
30 1010 0 0 1 0 0
32 1013 0 0 2 0 0
34 1016 0 0 1 0 0
36 1022 0 0 0 0 0
38 1025 0 0 2 0 0
40 1016 0 0 0 0 0
42 1014 0 0 3 0 0
44 1022 0 0 0 0 0
46 1018 0 0 1 0 0
48 1019 0 0 3 0 0
50 1017 0 0 1 0 0
52 1016 0 3 0 0 0
54 1005 0 13 1 0 0
56 1002 0 17 0 0 0
58 996 0 26 1 0 0
60 993 0 35 0 1 0
62 984 0 41 0 0 0
64 975 0 51 2 0 0
66 971 0 56 2 0 0
68 961 0 60 4 0 0
70 959 0 68 0 0 0
72 952 0 72 0 0 0
74 944 0 76 1 1 0
76 937 0 83 0 1 0
78 926 0 90 2 0 0
80 921 0 98 1 1 0
82 915 0 103 2 0 0
84 911 0 111 0 2 0
86 908 0 116 1 1 0
88 900 0 124 1 1 0
90 897 0 132 2 0 0
92 894 0 136 0 0 0
94 888 0 138 0 1 0
96 882 0 139 0 1 0
98 872 0 146 3 1 0
100 868 0 149 1 1 0
102 860 0 150 1 3 0
104 858 0 158 0 0 0
106 851 0 162 1 1 0
108 845 0 165 0 2 0
110 838 0 171 1 1 0
112 829 0 169 1 2 0
114 821 0 176 2 2 0
116 817 0 186 0 0 0
118 811 0 190 1 3 0
120 802 0 197 3 1 0
122 796 0 201 1 1 0
124 791 0 199 1 1 0
126 784 0 210 1 3 0
128 775 0 219 2 1 0
130 770 0 232 0 0 0
132 764 0 242 2 0 0
134 759 0 246 0 1 0
136 753 0 255 0 3 0
138 748 0 259 1 2 0
140 742 0 265 0 4 0
142 735 0 273 2 0 0
144 733 0 278 0 1 0
146 732 0 281 0 1 0
148 724 0 288 1 0 0
150 716 0 292 3 2 0
152 715 0 298 1 2 0
154 710 0 308 1 1 0
156 707 0 314 2 1 0
158 700 0 321 1 0 0
160 698 0 323 0 0 0
162 692 0 325 1 1 0
164 693 0 327 0 3 0
166 688 0 328 2 2 0
168 684 0 328 2 2 0
170 682 0 333 1 1 0
172 676 0 339 1 0 0
174 676 0 344 0 1 0
176 672 0 351 0 1 0
178 669 0 353 2 0 0
180 664 0 359 0 0 0
182 658 0 364 4 0 0
184 654 0 371 1 2 0
186 651 0 375 0 0 0
188 647 0 381 3 1 0
190 645 0 389 1 0 0
192 639 0 400 1 1 0
194 633 0 400 2 0 0
196 629 0 402 0 2 0
198 629 0 411 1 1 0
200 626 0 414 1 3 0
