0 1033 0 0 0 0 0
2 1039 0 0 0 0 0
4.00004 1040 0 0 0 0 0
6 1042 0 0 1 0 0
8 1039 0 0 4 0 0
10 1039 0 0 4 0 0
12 1038 0 0 1 0 0
14 1038 0 0 2 0 0
16 1037 0 0 0 0 0
18 1029 0 0 2 0 0
20 1033 0 0 1 0 0
22 1030 0 0 0 0 0
24 1028 0 0 0 0 0
26 1023 0 0 2 0 0
28 1019 0 0 1 0 0
30 1016 0 0 3 0 0
32 1017 0 0 5 0 0
34 1017 0 0 3 0 0
36 1017 0 0 1 0 0
38 1015 0 0 4 0 0
40 1014 0 0 1 0 0
42 1014 0 0 0 0 0
44 1012 0 0 3 0 0
46 1012 0 0 2 0 0
48 1011 0 0 0 0 0
50 1015 0 0 4 0 0
52 999 0 6 2 0 0
54 993 0 11 1 0 0
56 981 0 20 2 2 0
58 972 0 26 1 2 0
60 966 0 34 1 0 0
62 956 0 37 1 2 0
64 946 0 46 2 0 0
66 942 0 52 2 1 0
68 938 0 53 0 1 0
70 931 0 60 0 0 0
72 926 0 65 0 1 0
74 919 0 71 2 2 0
76 915 0 80 2 0 0
78 907 0 85 3 0 0
80 898 0 90 3 2 0
82 887 0 103 1 1 0
84 882 0 108 1 0 0
86 874 0 114 2 1 0
88 872 0 121 0 1 0
90 866 0 128 0 2 0
92 856 0 133 0 0 0
94 849 0 137 0 1 0
96 847 0 137 0 1 0
98 837 0 141 1 0 0
100 835 0 147 0 1 0
102 831 0 156 0 0 0
104 828 0 165 0 0 0
106 822 0 179 3 1 0
108 818 0 187 3 3 0
110 812 0 195 3 4 0
112 810 0 204 1 0 0
114 801 0 205 3 1 0
116 796 0 211 2 0 0
118 789 0 216 2 0 0
120 781 0 218 1 1 0
122 771 0 226 2 2 0
124 766 0 233 3 2 0
126 762 0 239 0 1 0
128 759 0 240 1 1 0
130 757 0 250 0 1 0
132 753 0 254 0 0 0
134 745 0 257 1 0 0
136 741 0 259 1 1 0
138 737 0 265 2 2 0
140 733 0 274 1 1 0
142 729 0 279 0 2 0
144 726 0 284 0 1 0
146 717 0 292 1 0 0
148 714 0 294 2 0 0
150 713 0 299 0 3 0
152 707 0 305 1 0 0
154 702 0 309 1 0 0
156 695 0 311 2 1 0
158 690 0 313 2 0 0
160 690 0 315 0 1 0
162 687 0 315 0 2 0
164 679 0 319 5 2 0
166 677 0 321 0 1 0
168 676 0 327 1 4 0
170 672 0 334 0 1 0
172 666 0 339 2 2 0
174 663 0 344 0 0 0
176 661 0 354 1 1 0
178 657 0 362 1 1 0
180 650 0 369 1 1 0
182 644 0 371 1 1 0
184 642 0 375 0 1 0
186 636 0 385 1 2 0
188 629 0 392 2 1 0
190 624 0 398 1 1 0
192 616 0 405 2 0 0
194 607 0 407 0 2 0
196 599 0 411 1 4 0
198 597 0 419 0 0 0
200 594 0 418 1 1 0
