0 1103 0 0 0 0 0
2 1092 0 0 1 0 0
4.00004 1092 0 0 2 0 0
6 1086 0 0 2 0 0
8 1080 0 0 5 0 0
10 1083 0 0 2 0 0
12 1086 0 0 2 0 0
14 1091 0 0 0 0 0
16 1089 0 0 2 0 0
18 1087 0 0 0 0 0
20 1079 0 0 3 0 0
22 1076 0 0 4 0 0
24 1078 0 0 4 0 0
26 1078 0 0 3 0 0
28 1083 0 0 1 0 0
30 1081 0 0 2 0 0
32 1078 0 0 1 0 0
34 1073 0 0 4 0 0
36 1077 0 0 4 0 0
38 1072 0 0 1 0 0
40 1071 0 0 3 0 0
42 1075 0 0 3 0 0
44 1068 0 0 0 0 0
46 1068 0 0 2 0 0
48 1076 0 0 2 0 0
50 1078 0 0 0 0 0
52 1072 0 10 1 1 0
54 1062 0 16 2 2 0
56 1053 0 23 2 2 0
58 1049 0 34 0 2 0
60 1034 0 41 5 2 0
62 1032 0 46 1 0 0
64 1023 0 53 1 5 0
66 1015 0 59 1 1 0
68 1007 0 70 2 1 0
70 1003 0 74 0 1 0
72 997 0 83 2 1 0
74 986 0 88 0 1 0
76 976 0 93 0 2 0
78 971 0 96 2 3 0
80 967 0 108 0 0 0
82 960 0 111 3 1 0
84 953 0 113 2 0 0
86 945 0 121 0 6 0
88 939 0 137 0 0 0
90 930 0 144 0 1 0
92 926 0 155 1 0 0
94 917 0 161 1 0 0
96 909 0 172 2 1 0
98 906 0 184 2 0 0
100 899 0 191 1 1 0
102 895 0 200 1 0 0
104 889 0 211 1 2 0
106 875 0 216 3 3 0
108 870 0 220 1 0 0
110 859 0 227 2 1 0
112 857 0 233 1 2 0
114 852 0 237 1 1 0
116 846 0 249 1 0 0
118 844 0 258 0 1 0
120 839 0 264 1 0 0
122 830 0 272 1 3 0
124 821 0 279 1 2 0
126 820 0 287 0 1 0
128 814 0 292 1 1 0
130 807 0 293 0 0 0
132 802 0 293 1 0 0
134 798 0 297 1 1 0
136 793 0 301 0 2 0
138 786 0 311 3 1 0
140 778 0 315 2 0 0
142 771 0 323 3 2 0
144 770 0 330 0 1 0
146 764 0 335 1 0 0
148 761 0 341 0 1 0
150 754 0 348 1 0 0
152 746 0 348 0 0 0
154 739 0 355 1 1 0
156 731 0 353 0 3 0
158 729 0 361 0 2 0
160 725 0 371 0 2 0
162 717 0 374 1 0 0
164 706 0 372 2 1 0
166 701 0 380 1 0 0
168 702 0 383 0 1 0
170 694 0 381 6 2 0
172 695 0 384 1 1 0
174 688 0 386 2 1 0
176 686 0 391 0 2 0
178 678 0 394 3 2 0
180 672 0 393 0 2 0
182 671 0 402 0 1 0
184 666 0 408 0 2 0
186 658 0 414 1 0 0
188 655 0 421 0 1 0
190 652 0 423 0 3 0
192 650 0 428 1 0 0
194 646 0 432 0 0 0
196 640 0 434 1 2 0
198 636 0 436 0 1 0
200 633 0 440 0 2 0
