0 948 0 0 0 0 0
2 948 0 0 2 0 0
4.00004 952 0 0 0 0 0
6 954 0 0 2 0 0
8 951 0 0 5 0 0
10 954 0 0 2 0 0
12 953 0 0 2 0 0
14 948 0 0 2 0 0
16 950 0 0 1 0 0
18 956 0 0 1 0 0
20 958 0 0 2 0 0
22 961 0 0 2 0 0
24 962 0 0 0 0 0
26 963 0 0 1 0 0
28 960 0 0 2 0 0
30 963 0 0 3 0 0
32 960 0 0 1 0 0
34 956 0 0 1 0 0
36 956 0 0 3 0 0
38 957 0 0 2 0 0
40 959 0 0 3 0 0
42 964 0 0 2 0 0
44 958 0 0 1 0 0
46 955 0 0 4 0 0
48 956 0 0 2 0 0
50 953 0 0 1 0 0
52 956 0 5 0 2 0
54 950 0 10 4 0 0
56 950 0 13 1 0 0
58 944 0 17 1 1 0
60 937 0 24 1 1 0
62 932 0 29 0 0 0
64 926 0 37 0 0 0
66 919 0 43 1 0 0
68 911 0 48 2 2 0
70 909 0 54 0 0 0
72 904 0 56 0 1 0
74 901 0 62 0 1 0
76 896 0 65 3 1 0
78 888 0 71 1 0 0
80 886 0 76 0 0 0
82 884 0 80 1 0 0
84 878 0 83 3 0 0
86 873 0 89 1 0 0
88 869 0 91 0 1 0
90 863 0 96 1 0 0
92 860 0 97 0 0 0
94 857 0 102 0 0 0
96 855 0 108 0 2 0
98 847 0 115 4 0 0
100 843 0 118 0 0 0
102 837 0 121 2 0 0
104 837 0 123 0 2 0
106 829 0 129 0 2 0
108 825 0 134 1 1 0
110 820 0 140 1 0 0
112 813 0 145 2 2 0
114 811 0 147 0 0 0
116 808 0 150 0 1 0
118 807 0 158 1 0 0
120 808 0 163 0 3 0
122 806 0 170 0 0 0
124 804 0 172 1 2 0
126 798 0 176 2 2 0
128 797 0 174 0 0 0
130 793 0 174 3 1 0
132 788 0 180 1 0 0
134 786 0 186 0 2 0
136 778 0 192 0 0 0
138 774 0 199 2 1 0
140 771 0 204 1 0 0
142 770 0 204 0 1 0
144 765 0 206 0 1 0
146 758 0 210 2 2 0
148 752 0 220 0 0 0
150 749 0 223 1 1 0
152 743 0 228 1 0 0
154 735 0 233 2 1 0
156 733 0 231 0 2 0
158 728 0 234 1 2 0
160 723 0 236 1 1 0
162 720 0 242 2 2 0
164 714 0 244 1 0 0
166 703 0 245 0 0 0
168 698 0 248 1 0 0
170 696 0 250 0 1 0
172 694 0 252 1 0 0
174 691 0 257 0 0 0
176 684 0 257 2 0 0
178 684 0 260 0 1 0
180 682 0 267 0 0 0
182 677 0 269 1 0 0
184 675 0 270 0 0 0
186 668 0 271 0 2 0
188 666 0 273 0 0 0
190 661 0 278 1 0 0
192 660 0 280 1 1 0
194 649 0 285 3 1 0
196 649 0 287 1 1 0
198 646 0 291 0 0 0
200 644 0 294 1 0 0
