0 758 0 0 0 0 0
2 707 43 0 4 0 0
4.00004 697 52 0 0 0 0
6 692 53 0 2 0 0
8 693 44 0 4 0 0
10 688 51 0 1 0 0
12 689 40 0 2 0 0
14 685 40 0 3 0 0
16 678 46 0 1 0 0
18 669 51 0 3 0 0
20 673 45 0 4 0 0
22 689 33 0 0 0 0
24 676 45 0 1 0 0
26 669 46 0 7 0 0
28 664 44 0 6 0 0
30 671 39 0 1 0 0
32 667 38 0 0 0 0
34 653 47 0 1 0 0
36 661 39 0 4 0 0
38 657 49 0 4 0 0
40 662 45 0 1 0 0
42 667 43 0 2 0 0
44 662 36 0 2 0 0
46 655 45 0 2 0 0
48 658 41 0 0 0 0
50 662 42 0 2 0 0
52 481 0 225 1 1 0
54 411 0 291 0 3 0
56 349 0 362 0 1 0
58 305 0 409 0 4 0
60 253 0 460 1 0 0
62 217 0 492 0 4 0
64 184 0 525 0 3 0
66 158 0 549 0 2 0
68 134 0 570 0 2 0
70 113 0 580 1 1 0
72 84 0 609 1 1 0
74 72 0 623 0 0 0
76 60 0 637 0 1 0
78 51 0 645 3 2 0
80 42 0 654 1 0 0
82 33 0 664 0 1 0
84 25 0 677 1 1 0
86 23 0 680 0 4 0
88 20 0 684 0 1 0
90 16 0 686 0 1 0
92 16 0 693 1 1 0
94 11 0 702 0 1 0
96 8 0 696 1 2 0
98 6 0 696 0 1 0
100 6 0 697 1 1 0
102 6 0 698 0 1 0
104 5 0 699 1 0 0
106 5 0 700 0 2 0
108 3 0 707 0 1 0
110 1 0 711 0 1 0
112 2 0 709 0 2 0
114 1 0 703 0 4 0
116 1 0 704 0 0 0
118 1 0 700 0 2 0
120 1 0 699 0 0 0
122 0 0 695 0 0 0
124 0 0 689 1 0 0
126 1 0 687 0 1 0
128 1 0 685 0 4 0
130 0 0 687 0 0 0
132 0 0 686 0 2 0
134 0 0 689 1 2 0
136 0 0 692 0 5 0
138 1 0 688 0 3 0
140 0 0 685 1 1 0
142 0 0 684 0 2 0
144 0 0 682 0 0 0
146 1 0 680 0 1 0
148 0 0 676 0 2 0
150 0 0 676 0 2 0
152 0 0 676 0 3 0
154 0 0 682 0 0 0
156 1 0 679 1 3 0
158 0 0 677 0 3 0
160 0 0 676 0 2 0
162 0 0 674 0 0 0
164 2 0 673 0 1 0
166 1 0 675 0 2 0
168 1 0 672 0 0 0
170 1 0 672 0 2 0
172 0 0 675 0 2 0
174 0 0 677 0 0 0
176 0 0 672 0 3 0
178 0 0 676 1 1 0
180 0 0 682 0 3 0
182 1 0 686 0 1 0
184 0 0 684 0 1 0
186 1 0 681 1 1 0
188 1 0 682 0 0 0
190 0 0 681 0 3 0
192 1 0 678 0 3 0
194 1 0 684 1 2 0
196 0 0 691 0 1 0
198 1 0 685 1 4 0
200 1 0 684 1 2 0
