0 1034 0 0 0 0 0
2 1034 0 0 3 0 0
4.00004 1029 0 0 4 0 0
6 1038 0 0 1 0 0
8 1042 0 0 0 0 0
10 1044 0 0 2 0 0
12 1037 0 0 3 0 0
14 1036 0 0 3 0 0
16 1043 0 0 2 0 0
18 1050 0 0 1 0 0
20 1051 0 0 3 0 0
22 1051 0 0 1 0 0
24 1050 0 0 1 0 0
26 1046 0 0 2 0 0
28 1048 0 0 2 0 0
30 1048 0 0 2 0 0
32 1049 0 0 1 0 0
34 1044 0 0 3 0 0
36 1048 0 0 3 0 0
38 1045 0 0 5 0 0
40 1052 0 0 2 0 0
42 1050 0 0 2 0 0
44 1051 0 0 1 0 0
46 1051 0 0 2 0 0
48 1047 0 0 2 0 0
50 1057 0 0 0 0 0
52 1053 0 5 3 0 0
54 1042 0 11 3 0 0
56 1037 0 14 1 0 0
58 1030 0 24 3 0 0
60 1019 0 30 1 1 0
62 1014 0 35 1 0 0
64 1006 0 41 0 0 0
66 1000 0 49 2 0 0
68 994 0 54 3 0 0
70 984 0 64 2 1 0
72 979 0 72 0 0 0
74 971 0 80 1 1 0
76 964 0 88 1 2 0
78 955 0 95 2 1 0
80 953 0 103 1 0 0
82 947 0 115 2 2 0
84 936 0 120 1 1 0
86 930 0 130 0 1 0
88 915 0 135 1 1 0
90 908 0 140 3 2 0
92 904 0 144 1 1 0
94 896 0 151 2 1 0
96 889 0 161 1 0 0
98 881 0 163 0 2 0
100 876 0 171 1 1 0
102 868 0 176 0 0 0
104 862 0 177 1 0 0
106 854 0 181 1 1 0
108 850 0 188 1 1 0
110 841 0 193 2 2 0
112 837 0 195 2 1 0
114 827 0 195 0 0 0
116 816 0 201 3 0 0
118 811 0 206 3 1 0
120 806 0 210 1 1 0
122 800 0 213 2 1 0
124 797 0 226 1 0 0
126 791 0 226 1 1 0
128 783 0 228 1 1 0
130 775 0 233 1 0 0
132 770 0 233 0 1 0
134 760 0 239 4 2 0
136 758 0 244 2 1 0
138 758 0 247 1 0 0
140 756 0 252 1 1 0
142 750 0 256 0 3 0
144 744 0 262 1 0 0
146 743 0 262 0 1 0
148 734 0 269 0 2 0
150 733 0 273 0 1 0
152 730 0 277 0 0 0
154 721 0 282 1 2 0
156 713 0 285 0 2 0
158 710 0 289 0 1 0
160 705 0 293 1 0 0
162 698 0 303 0 2 0
164 691 0 302 1 1 0
166 684 0 303 0 1 0
168 675 0 306 0 2 0
170 671 0 311 1 2 0
172 668 0 311 0 2 0
174 662 0 317 2 0 0
176 655 0 317 1 2 0
178 650 0 324 2 0 0
180 647 0 327 1 2 0
182 642 0 337 2 1 0
184 641 0 342 0 0 0
186 639 0 345 0 1 0
188 636 0 352 1 0 0
190 631 0 358 2 2 0
192 622 0 366 3 0 0
194 622 0 372 0 1 0
196 619 0 378 0 2 0
198 617 0 383 1 0 0
200 614 0 390 0 3 0
