0 930 0 0 0 0 0
2 904 31 0 2 0 0
4.00004 906 34 0 1 0 0
6 905 36 0 0 0 0
8 895 43 0 2 0 0
10 905 29 0 1 0 0
12 910 22 0 1 0 0
14 885 41 0 2 0 0
16 886 39 0 3 0 0
18 891 33 0 2 0 0
20 895 30 0 3 0 0
22 882 42 0 1 0 0
24 883 42 0 2 0 0
26 890 32 0 2 0 0
28 865 52 0 5 0 0
30 889 27 0 2 0 0
32 883 36 0 1 0 0
34 888 30 0 0 0 0
36 888 32 0 0 0 0
38 882 34 0 2 0 0
40 881 29 0 2 0 0
42 872 36 0 0 0 0
44 875 34 0 1 0 0
46 881 31 0 0 0 0
48 873 33 0 0 0 0
50 877 27 0 1 0 0
52 721 0 183 1 0 0
54 648 0 252 0 1 0
56 598 0 300 1 1 0
58 550 0 345 0 1 0
60 505 0 387 1 0 0
62 469 2 422 2 2 0
64 434 0 459 0 1 0
66 391 0 501 1 1 0
68 346 1 545 0 4 0
70 318 0 572 1 1 0
72 290 1 598 1 1 0
74 262 0 623 0 1 0
76 248 0 637 0 1 0
78 218 0 664 0 1 0
80 198 0 683 0 1 0
82 186 1 695 0 2 0
84 175 0 706 0 2 0
86 163 0 721 0 0 0
88 155 0 730 2 0 0
90 145 0 743 0 2 0
92 130 0 754 0 0 0
94 128 0 755 0 1 0
96 122 1 765 0 0 0
98 109 0 778 0 1 0
100 99 0 792 1 0 0
102 93 0 797 0 2 0
104 88 0 807 0 0 0
106 82 0 812 1 1 0
108 73 0 822 0 1 0
110 72 0 825 0 3 0
112 65 0 832 0 2 0
114 59 0 833 1 0 0
116 56 0 840 0 2 0
118 52 0 843 0 2 0
120 51 0 843 0 2 0
122 51 0 847 1 0 0
124 41 0 857 0 1 0
126 38 0 861 0 1 0
128 35 0 863 0 0 0
130 35 0 866 1 3 0
132 30 0 875 0 1 0
134 27 0 876 0 1 0
136 24 0 879 1 1 0
138 24 0 880 1 0 0
140 25 0 880 0 0 0
142 24 0 885 1 1 0
144 20 0 889 0 0 0
146 21 0 890 0 1 0
148 18 0 890 1 1 0
150 22 0 885 2 1 0
152 14 0 890 0 1 0
154 15 0 888 0 0 0
156 16 0 889 0 0 0
158 12 0 890 0 0 0
160 13 0 882 0 2 0
162 10 0 883 1 2 0
164 8 0 883 1 2 0
166 11 0 878 1 5 0
168 14 0 882 0 0 0
170 8 0 888 0 0 0
172 10 0 886 0 1 0
174 6 0 884 0 2 0
176 7 0 884 2 1 0
178 8 0 881 0 0 0
180 9 0 878 1 2 0
182 7 0 885 0 1 0
184 5 0 894 0 2 0
186 7 0 893 0 1 0
188 6 0 892 0 0 0
190 5 0 897 0 2 0
192 5 0 898 0 1 0
194 3 0 899 0 1 0
196 3 0 897 0 0 0
198 3 0 899 0 4 0
200 4 0 903 0 2 0
