0 858 0 0 0 0 0
2 842 20 0 0 0 0
4.00004 843 19 0 0 0 0
6 841 22 0 0 0 0
8 832 30 0 0 0 0
10 832 23 0 3 0 0
12 830 27 0 1 0 0
14 834 22 0 3 0 0
16 832 24 0 2 0 0
18 833 18 0 1 0 0
20 825 29 0 1 0 0
22 824 28 0 1 0 0
24 822 25 0 1 0 0
26 825 24 0 1 0 0
28 813 35 0 2 0 0
30 824 26 0 1 0 0
32 817 29 0 1 0 0
34 826 22 0 0 0 0
36 819 28 0 1 0 0
38 823 23 0 1 0 0
40 824 22 0 2 0 0
42 830 22 0 2 0 0
44 832 20 0 3 0 0
46 821 31 0 2 0 0
48 826 27 0 1 0 0
50 827 22 0 2 0 0
52 703 0 144 0 1 0
54 656 0 190 0 0 0
56 603 1 243 0 0 0
58 552 0 294 1 1 0
60 511 1 336 0 2 0
62 482 0 369 0 0 0
64 452 0 398 0 1 0
66 416 0 435 0 0 0
68 398 0 448 0 1 0
70 374 0 475 0 0 0
72 349 0 499 0 0 0
74 318 0 531 0 0 0
76 291 0 558 0 0 0
78 270 0 579 0 0 0
80 246 0 600 0 1 0
82 226 0 617 0 1 0
84 202 0 639 0 1 0
86 191 0 654 1 0 0
88 177 0 668 0 0 0
90 164 0 680 0 2 0
92 159 0 684 0 0 0
94 144 0 698 1 2 0
96 134 0 709 0 0 0
98 124 0 716 1 2 0
100 114 0 733 0 0 0
102 109 0 737 0 1 0
104 101 0 741 0 1 0
106 98 0 742 0 1 0
108 90 0 753 1 0 0
110 78 0 762 0 1 0
112 76 0 768 1 1 0
114 65 0 777 0 2 0
116 61 0 777 0 2 0
118 54 0 782 1 3 0
120 54 0 789 1 0 0
122 47 0 791 0 1 0
124 39 0 799 0 0 0
126 35 0 803 0 0 0
128 31 0 805 0 3 0
130 30 0 807 0 0 0
132 27 0 800 0 3 0
134 24 0 800 0 2 0
136 25 0 798 1 2 0
138 23 0 802 0 2 0
140 23 0 811 3 0 0
142 21 0 817 1 2 0
144 22 0 819 1 1 0
146 20 0 818 0 2 0
148 17 0 822 0 1 0
150 13 0 823 0 1 0
152 12 0 826 0 1 0
154 12 0 828 1 1 0
156 10 0 828 2 2 0
158 10 0 836 0 0 0
160 10 0 838 0 0 0
162 9 0 837 0 1 0
164 10 0 842 0 1 0
166 8 0 844 0 0 0
168 6 0 845 0 0 0
170 6 0 840 0 0 0
172 8 0 848 0 0 0
174 3 0 855 0 0 0
176 5 0 852 0 3 0
178 3 0 854 0 1 0
180 2 0 849 0 1 0
182 1 0 847 0 0 0
184 1 0 842 0 2 0
186 2 0 844 0 0 0
188 2 0 848 0 0 0
190 1 0 847 0 4 0
192 1 0 849 0 2 0
194 1 0 845 0 0 0
196 4 0 847 0 0 0
198 1 0 852 0 1 0
200 3 0 849 1 1 0
