0 1264 0 0 0 0
2 1180 8 0 76 0
4.00004 1178 8 0 82 0
6 1167 5 0 79 0
8 1181 5 0 63 0
10 1165 5 0 77 0
12 1160 4 0 74 0
14 1134 6 0 93 0
16 1132 5 0 80 0
18 1125 5 0 71 0
20 1136 2 0 71 0
22 1125 6 0 80 0
24 1127 5 0 69 0
26 1105 5 0 86 0
28 1118 2 0 77 0
30 1098 7 0 79 0
32 1097 6 0 83 0
34 1118 1 0 57 0
36 1097 5 0 76 0
38 1069 8 0 91 0
40 1095 2 0 81 0
42 1080 5 0 81 0
44 1058 5 0 91 0
46 1056 8 0 83 0
48 1046 5 0 80 0
50 1045 6 0 81 0
52 904 0 147 97 0
54 843 0 213 74 5
56 770 0 271 73 14
58 683 1 348 72 9
60 626 1 401 71 13
62 587 0 447 54 16
64 517 0 495 54 23
66 497 0 515 46 34
68 458 0 564 54 20
70 433 0 572 54 43
72 396 0 614 51 28
74 360 0 632 43 34
76 344 0 650 50 36
78 330 0 671 49 36
80 313 0 696 37 39
82 300 0 718 37 33
84 283 0 716 31 39
86 264 0 736 37 47
88 249 0 750 30 50
90 227 0 762 36 51
92 228 0 763 28 47
94 220 0 776 37 47
96 222 0 795 29 35
98 226 1 793 24 41
100 198 0 797 38 58
102 206 1 813 21 46
104 185 0 830 32 46
106 184 0 842 38 35
108 180 0 831 30 53
110 168 0 834 26 57
112 176 0 830 28 49
114 176 0 840 28 50
116 172 1 854 20 42
118 156 0 838 27 53
120 156 0 847 25 54
122 150 0 854 29 46
124 151 0 835 32 65
126 156 0 845 31 60
128 158 0 855 29 56
130 142 0 842 35 72
132 152 0 862 24 52
134 139 0 859 28 63
136 142 0 862 28 56
138 151 0 870 15 54
140 131 0 869 25 58
142 137 0 860 23 56
144 125 0 864 23 57
146 132 1 869 14 56
148 125 0 868 25 57
150 130 0 879 25 55
152 125 0 884 14 54
154 126 0 883 16 57
156 125 0 874 23 56
158 124 0 864 9 78
160 116 0 896 17 52
162 103 0 899 23 56
164 102 0 902 14 50
166 102 0 906 17 60
168 105 0 912 15 54
170 100 0 909 21 49
172 100 0 911 19 54
174 95 0 905 16 56
176 89 0 896 20 60
178 81 0 912 18 58
180 79 0 915 18 51
182 87 0 901 13 65
184 81 0 928 13 51
186 79 0 929 14 49
188 80 0 932 10 54
190 73 0 931 15 67
192 72 0 949 15 51
194 71 0 946 15 60
196 66 0 942 16 61
198 74 0 947 13 66
200 72 1 948 17 74
