0 1031 0 0 0 0
2 955 6 0 68 0
4.00004 935 7 0 75 0
6 936 3 0 82 0
8 930 7 0 79 0
10 924 6 0 79 0
12 928 4 0 93 0
14 933 10 0 82 0
16 926 3 0 91 0
18 931 7 0 93 0
20 950 7 0 80 0
22 935 6 0 82 0
24 914 5 0 109 0
26 921 4 0 100 0
28 924 4 0 107 0
30 944 3 0 81 0
32 932 2 0 95 0
34 915 8 0 104 0
36 930 3 0 93 0
38 940 2 0 83 0
40 936 5 0 85 0
42 919 1 0 112 0
44 906 3 0 116 0
46 899 6 0 114 0
48 915 5 0 74 0
50 893 6 0 87 0
52 750 0 145 107 3
54 669 0 233 84 11
56 602 0 311 74 12
58 516 0 387 77 17
60 473 0 442 71 23
62 423 0 486 57 32
64 367 1 532 67 32
66 341 0 572 66 28
68 293 0 607 72 40
70 277 0 633 61 38
72 260 1 654 60 49
74 250 0 668 38 44
76 234 0 689 49 45
78 220 0 702 53 50
80 213 0 715 49 58
82 191 0 735 46 56
84 178 0 731 39 57
86 169 0 740 33 53
88 159 0 753 37 40
90 152 0 753 35 52
92 131 0 750 44 54
94 135 0 745 49 51
96 135 0 743 33 59
98 133 0 747 27 65
100 114 0 746 45 73
102 129 0 753 42 55
104 124 0 748 31 69
106 129 0 754 29 56
108 127 0 769 31 56
110 117 0 774 36 59
112 108 0 777 32 65
114 113 0 784 17 65
116 110 0 784 35 56
118 111 0 780 36 61
120 106 0 788 31 62
122 104 0 793 33 64
124 103 0 790 31 65
126 99 0 789 25 78
128 99 0 804 25 49
130 99 0 805 27 64
132 89 0 795 26 67
134 86 0 803 20 64
136 89 0 800 30 75
138 97 0 795 22 68
140 102 0 805 21 64
142 94 0 790 27 74
144 96 0 798 23 65
146 102 0 810 24 53
148 101 0 809 25 66
150 111 0 803 20 64
152 113 0 807 23 72
154 100 0 820 24 64
156 97 0 816 19 72
158 100 0 810 19 84
160 93 0 810 20 71
162 93 0 810 16 80
164 87 0 819 22 75
166 79 0 810 23 74
168 76 0 823 15 67
170 77 0 818 18 77
172 66 0 821 21 71
174 69 0 839 13 66
176 69 0 835 19 61
178 64 0 824 25 87
180 69 0 821 17 77
182 68 0 838 12 67
184 56 0 833 28 80
186 56 0 832 19 81
188 60 0 843 19 80
190 54 0 858 18 85
192 56 0 861 12 69
194 56 0 871 10 85
196 49 0 859 18 78
198 46 0 852 8 82
200 56 0 856 11 75
