0 1164 0 0 0 0
2 1037 5 0 115 0
4.00004 1055 6 0 111 0
6 1048 11 0 123 0
8 1044 8 0 126 0
10 1040 7 0 130 0
12 1065 8 0 119 0
14 1062 11 0 122 0
16 1049 6 0 123 0
18 1036 7 0 148 0
20 1034 8 0 138 0
22 1033 3 0 136 0
24 1040 13 0 113 0
26 1025 11 0 133 0
28 1015 10 0 138 0
30 1038 12 0 113 0
32 1044 4 0 133 0
34 1014 7 0 150 0
36 1026 7 0 137 0
38 1014 6 0 139 0
40 1015 9 0 139 0
42 1036 4 0 119 0
44 1037 7 0 125 0
46 1035 6 0 130 0
48 1023 7 0 139 0
50 1041 6 0 119 0
52 846 0 186 133 1
54 714 1 322 119 11
56 603 1 424 116 18
58 517 0 513 102 25
60 464 0 570 109 29
62 409 2 631 89 38
64 332 0 676 105 64
66 302 1 721 81 53
68 273 1 747 83 60
70 256 0 767 75 62
72 224 0 791 90 65
74 203 0 816 80 76
76 206 0 832 71 60
78 200 1 841 54 84
80 169 0 863 55 72
82 153 0 882 47 67
84 143 0 889 64 71
86 135 0 890 52 76
88 131 0 902 54 66
90 119 0 899 57 94
92 119 0 900 50 86
94 122 0 911 44 79
96 116 0 925 50 74
98 116 0 914 37 97
100 106 0 935 51 87
102 94 0 952 53 74
104 106 1 943 50 77
106 100 0 951 53 75
108 92 0 935 60 93
110 112 0 931 46 96
112 111 2 931 44 101
114 98 0 941 53 108
116 110 0 952 44 83
118 101 0 955 43 93
120 95 0 969 41 80
122 96 0 960 38 98
124 86 0 971 38 99
126 96 0 986 34 92
128 89 0 981 37 88
130 86 0 966 26 108
132 73 0 989 37 95
134 71 0 978 36 100
136 74 0 969 28 110
138 67 0 986 30 89
140 73 0 965 28 108
142 73 0 994 34 88
144 68 0 992 27 87
146 68 0 985 34 91
148 62 0 964 39 118
150 65 0 971 25 126
152 63 0 980 31 115
154 61 0 983 26 95
156 55 0 981 35 121
158 54 0 975 38 106
160 62 0 959 37 124
162 63 0 970 45 106
164 60 0 981 37 108
166 57 0 989 40 104
168 65 0 976 34 106
170 59 0 957 42 121
172 59 0 971 42 103
174 59 0 969 28 98
176 73 0 959 27 100
178 69 0 970 31 96
180 68 0 958 33 119
182 63 0 989 26 111
184 56 0 971 28 122
186 59 0 955 29 123
188 57 0 987 19 95
190 61 0 979 27 112
192 50 1 997 26 109
194 53 0 1010 21 108
196 43 0 998 31 115
198 42 0 1011 36 94
200 50 0 998 22 112
