0 1068 0 0 0 0
2 961 0 0 116 0
4.00004 938 0 0 142 0
6 903 0 0 150 0
8 890 0 0 157 0
10 896 0 0 170 0
12 886 0 0 177 0
14 877 0 0 186 0
16 863 0 0 193 0
18 860 0 0 196 0
20 874 0 0 186 0
22 858 0 0 191 0
24 856 0 0 189 0
26 893 0 0 173 0
28 849 0 0 214 0
30 864 0 0 177 0
32 852 0 0 189 0
34 880 0 0 188 0
36 882 0 0 191 0
38 878 0 0 178 0
40 861 0 0 183 0
42 850 0 0 191 0
44 857 0 0 184 0
46 857 0 0 190 0
48 853 0 0 202 0
50 879 0 0 167 0
52 870 0 0 192 0
54 852 0 0 188 0
56 839 0 1 204 1
58 841 0 1 181 2
60 820 0 0 185 5
62 838 0 9 173 7
64 825 0 10 179 12
66 834 0 17 161 6
68 832 0 19 153 17
70 803 0 25 157 26
72 802 0 32 159 26
74 811 0 41 140 30
76 785 0 46 166 41
78 787 0 66 161 30
80 779 0 61 140 43
82 765 0 77 150 42
84 766 0 91 155 40
86 746 0 102 165 42
88 744 0 95 127 56
90 732 0 101 115 47
92 726 0 120 120 51
94 707 0 130 129 55
96 691 0 138 127 58
98 666 0 147 133 48
100 654 0 157 130 59
102 646 0 171 124 57
104 638 0 176 120 72
106 612 0 187 129 60
108 611 0 213 129 63
110 614 0 214 128 70
112 602 0 216 116 80
114 583 0 229 111 77
116 579 0 243 103 74
118 568 0 252 103 83
120 559 0 255 109 93
122 542 0 270 114 89
124 548 0 278 117 93
126 524 0 299 116 76
128 531 0 307 102 77
130 498 0 294 119 97
132 492 0 314 111 101
134 485 0 314 112 101
136 500 0 310 82 124
138 493 0 335 87 104
140 492 0 344 95 119
142 498 0 340 74 122
144 495 0 366 84 111
146 481 0 378 83 113
148 476 0 391 83 103
150 471 0 404 77 94
152 461 0 407 85 116
154 459 0 415 82 106
156 463 0 421 84 118
158 447 0 431 91 113
160 450 0 443 70 111
162 439 0 437 71 122
164 437 0 447 72 120
166 418 0 451 75 125
168 411 0 467 80 113
170 395 0 457 87 123
172 397 0 460 68 120
174 399 0 481 58 104
176 386 0 473 64 117
178 382 0 451 69 136
180 393 0 465 55 137
182 368 0 477 68 123
184 358 0 487 73 131
186 358 0 516 67 115
188 352 0 503 65 128
190 340 0 523 63 125
192 343 0 515 58 133
194 330 0 518 60 132
196 339 0 525 52 146
198 332 0 545 48 136
200 323 0 558 50 126
