0 45 0 0 0
2 43 0 1 0
4.00004 44 0 0 0
6 44 0 0 0
8 44 0 0 0
10 44 0 0 0
12 44 0 0 0
14 44 0 0 0
16 44 0 0 0
18 43 1 1 0
20 43 1 1 0
22 44 1 0 0
24 44 1 0 0
26 44 1 0 0
28 44 1 0 0
30 44 1 0 0
32 43 1 1 0
34 44 1 0 0
36 44 1 0 0
38 43 1 1 0
40 43 1 0 0
42 42 2 1 0
44 42 2 0 0
46 42 2 0 0
48 42 2 0 0
50 42 2 0 0
52 41 2 1 0
54 42 2 0 0
56 42 2 0 0
58 41 2 0 0
60 41 2 0 0
62 41 2 0 0
64 41 2 0 0
66 40 2 1 0
68 39 2 1 0
70 40 2 0 0
72 39 2 0 0
74 38 3 1 0
76 39 3 0 0
78 39 3 0 0
80 39 3 0 0
82 39 3 0 0
84 39 3 0 0
86 39 3 0 0
88 39 3 0 0
90 38 4 1 0
92 39 4 0 0
94 39 4 0 0
96 39 4 0 0
98 39 4 0 0
100 39 4 0 0
102 39 5 0 0
104 39 5 0 0
106 39 5 0 0
108 38 5 0 0
110 37 5 1 0
112 37 6 1 0
114 38 6 0 0
116 38 6 0 0
118 37 6 0 0
120 37 7 0 0
122 36 7 1 0
124 37 7 0 0
126 36 8 0 0
128 36 9 0 0
130 36 9 0 0
132 36 9 0 0
134 36 9 0 1
136 36 10 0 0
138 36 10 0 0
140 36 10 0 0
142 36 10 0 0
144 36 10 0 0
146 35 10 0 0
148 35 10 0 0
150 35 10 0 0
152 35 10 0 0
154 35 10 0 0
156 35 10 0 0
158 35 10 0 1
160 33 11 0 0
162 33 12 0 0
164 33 12 0 0
166 33 12 0 0
168 33 13 0 0
170 33 14 0 0
172 32 14 0 0
174 32 14 0 0
176 32 14 0 0
178 32 15 0 0
180 32 16 0 0
182 32 15 0 1
184 31 16 1 0
186 31 16 1 0
188 31 16 0 0
190 31 16 0 1
192 31 16 0 0
194 31 16 0 0
196 30 17 1 0
198 31 17 0 0
200 31 17 0 0
202 31 17 0 0
204 31 17 0 0
206 31 16 0 0
208 31 16 0 0
210 30 16 0 0
