0 965 0 0 0 0 0
2 970 0 0 0 0 3
4.00004 970 0 0 0 0 1
6 967 0 0 0 0 2
8 967 0 0 0 0 4
10 968 0 0 0 0 2
12 967 0 0 0 0 2
14 973 0 0 0 0 2
16 975 0 0 0 0 4
18 984 0 0 0 0 1
20 984 0 0 0 0 3
22 985 0 0 0 0 1
24 988 0 0 0 0 0
26 988 0 0 0 0 0
28 992 0 0 0 0 0
30 990 0 0 0 0 3
32 985 0 0 0 0 2
34 990 0 0 0 0 5
36 997 0 0 0 0 2
38 994 0 0 0 0 2
40 996 0 0 0 0 2
42 992 0 0 0 0 3
44 993 0 0 0 0 3
46 995 0 0 0 0 4
48 1000 0 0 0 0 2
50 1004 0 0 0 0 3
52 947 0 55 0 1 0
54 899 0 102 0 2 2
56 868 0 140 0 2 0
58 840 0 175 0 0 0
60 801 0 208 0 1 0
62 777 0 236 0 5 0
64 745 0 271 0 2 0
66 723 0 291 0 0 0
68 698 0 313 0 0 0
70 664 0 345 0 1 0
72 645 0 366 0 0 0
74 619 0 387 0 2 0
76 597 0 407 0 2 0
78 580 0 418 0 3 0
80 566 0 435 0 1 0
82 543 0 464 0 2 0
84 521 0 490 0 4 0
86 504 0 508 0 2 0
88 487 0 524 0 4 0
90 471 0 545 0 1 0
92 448 0 561 0 1 1
94 435 0 575 0 2 0
96 419 0 589 0 2 1
98 406 0 595 0 2 0
100 393 0 608 0 2 1
102 381 0 620 0 1 0
104 368 0 633 0 1 0
106 355 0 641 0 3 0
108 342 0 655 0 1 0
110 328 0 667 0 2 0
112 321 0 677 0 1 0
114 307 0 689 0 2 0
116 297 0 696 0 3 0
118 291 0 704 0 1 0
120 277 0 719 0 3 0
122 267 0 729 0 3 0
124 262 0 740 0 0 0
126 256 0 744 0 1 0
128 247 0 752 0 5 0
130 236 0 766 0 4 0
132 225 0 783 0 1 0
134 211 0 799 0 2 0
136 202 0 809 0 1 0
138 196 0 824 0 2 0
140 189 0 822 0 5 0
142 179 0 835 0 6 0
144 172 0 850 0 3 0
146 162 0 861 0 3 0
148 156 0 869 0 2 0
150 149 0 873 0 1 0
152 147 0 868 0 1 0
154 145 0 875 0 1 0
156 142 0 879 0 3 0
158 139 0 889 0 1 0
160 135 0 887 0 1 0
162 132 0 891 0 3 0
164 130 0 892 0 5 0
166 128 0 891 0 2 0
168 122 0 888 0 2 0
170 121 0 890 0 3 0
172 119 0 888 0 2 0
174 112 0 889 0 1 0
176 109 0 890 0 2 0
178 102 0 903 0 1 0
180 100 0 906 0 1 0
182 96 0 905 0 3 0
184 91 0 906 0 2 0
186 86 0 904 0 3 0
188 84 0 905 0 1 0
190 79 0 912 0 3 0
192 77 0 912 0 5 0
194 74 0 914 0 4 0
196 70 0 922 0 1 0
198 67 0 924 0 2 0
200 65 0 931 0 4 0
