0 1071 0 0 0 0 0
2 1070 0 0 0 0 3
4.00004 1064 0 0 0 0 2
6 1059 0 0 0 0 2
8 1058 0 0 0 0 1
10 1050 0 0 0 0 2
12 1053 0 0 0 0 0
14 1049 0 0 0 0 1
16 1048 0 0 0 0 2
18 1049 0 0 0 0 1
20 1048 0 0 0 0 1
22 1046 0 0 0 0 1
24 1049 0 0 0 0 0
26 1041 0 0 0 0 2
28 1040 0 0 0 0 2
30 1038 0 0 0 0 1
32 1036 0 0 0 0 0
34 1039 0 0 0 0 1
36 1034 0 0 0 0 1
38 1030 0 0 0 0 1
40 1024 0 0 0 0 2
42 1026 0 0 0 0 1
44 1020 0 0 0 0 2
46 1014 0 0 0 0 6
48 1015 0 0 0 0 1
50 1015 0 0 0 0 0
52 973 0 42 0 2 0
54 940 0 74 0 1 0
56 908 0 107 0 1 0
58 882 0 131 0 2 0
60 844 0 164 0 3 0
62 814 0 196 0 1 0
64 783 0 230 0 0 0
66 753 0 258 0 1 0
68 726 0 284 0 0 0
70 706 0 303 0 0 0
72 683 0 326 0 1 0
74 661 0 349 0 0 0
76 639 0 371 0 2 0
78 623 0 386 0 0 0
80 602 0 406 0 0 0
82 577 0 430 0 1 0
84 550 0 456 0 2 0
86 531 0 474 0 1 0
88 515 0 491 0 0 0
90 500 0 506 0 0 0
92 486 0 522 0 0 0
94 463 0 539 0 5 0
96 447 0 555 0 0 0
98 430 0 570 0 2 0
100 417 0 584 0 1 0
102 406 0 599 0 2 0
104 398 0 606 0 2 0
106 381 0 620 0 2 0
108 367 0 633 0 0 0
110 350 0 648 0 2 0
112 334 0 655 0 5 0
114 324 0 663 0 1 0
116 307 0 676 0 4 0
118 296 0 687 0 3 0
120 285 0 701 0 1 0
122 270 0 715 0 2 0
124 263 0 717 0 2 0
126 254 0 724 0 1 0
128 249 0 722 0 1 0
130 240 0 731 0 1 0
132 232 0 735 0 3 0
134 226 0 744 0 0 0
136 219 0 750 0 3 0
138 210 0 761 0 1 0
140 199 0 765 0 2 0
142 193 0 769 0 1 0
144 186 0 774 0 2 0
146 178 0 784 0 0 0
148 173 0 786 0 1 0
150 167 0 796 0 1 0
152 162 0 796 0 2 0
154 156 0 803 0 1 0
156 150 0 807 0 1 0
158 148 0 809 0 1 0
160 143 0 807 0 2 0
162 135 0 806 0 2 0
164 131 0 812 0 2 0
166 128 0 818 0 3 0
168 126 0 824 0 2 0
170 122 0 826 0 1 0
172 119 0 830 0 6 0
174 115 0 837 0 2 0
176 110 0 842 0 1 0
178 109 0 840 0 3 0
180 105 0 845 0 1 0
182 101 0 847 0 0 0
184 97 0 849 0 2 0
186 95 0 856 0 1 0
188 89 0 867 0 2 0
190 86 0 868 0 2 0
192 84 0 871 0 2 0
194 82 0 875 0 1 0
196 79 0 876 0 0 0
198 76 0 875 0 1 0
200 74 0 878 0 0 0
