0 903 0 0 0 0 0
2 906 0 0 0 0 2
4.00004 905 0 0 0 0 3
6 910 0 0 0 0 1
8 911 0 0 0 0 0
10 915 0 0 0 0 2
12 916 0 0 0 0 1
14 917 0 0 0 0 0
16 921 0 0 0 0 1
18 919 0 0 0 0 1
20 922 0 0 0 0 1
22 922 0 0 0 0 1
24 923 0 0 0 0 1
26 924 0 0 0 0 1
28 923 0 0 0 0 3
30 920 0 0 0 0 0
32 918 0 0 0 0 2
34 921 0 0 0 0 0
36 918 0 0 0 0 2
38 920 0 0 0 0 1
40 918 0 0 0 0 0
42 916 0 0 0 0 1
44 915 0 0 0 0 2
46 909 0 0 0 0 0
48 903 0 0 0 0 1
50 901 0 0 0 0 4
52 868 0 35 0 1 0
54 841 0 59 0 2 0
56 811 0 83 0 2 0
58 792 0 107 0 1 0
60 768 0 135 0 0 0
62 747 0 159 0 0 0
64 727 0 175 0 5 0
66 708 0 198 0 1 0
68 690 0 214 0 1 0
70 668 0 238 0 0 0
72 648 0 256 0 1 0
74 630 0 275 0 1 0
76 614 0 290 0 0 0
78 593 0 313 0 2 0
80 578 0 333 0 3 0
82 561 0 350 0 2 0
84 547 0 359 0 2 0
86 533 0 376 0 1 0
88 522 0 388 0 1 0
90 503 0 406 0 0 0
92 486 0 418 0 1 0
94 474 0 431 0 3 0
96 456 0 452 0 3 0
98 438 0 476 0 0 0
100 424 0 485 0 0 0
102 413 0 498 0 3 0
104 404 0 503 0 3 1
106 392 0 519 0 2 0
108 381 0 529 0 1 0
110 372 0 545 0 2 0
112 361 0 563 0 1 0
114 346 0 573 0 3 1
116 331 0 586 0 1 0
118 324 0 593 0 1 0
120 316 0 601 0 1 0
122 307 0 604 0 2 1
124 303 0 609 0 2 0
126 296 0 615 0 2 0
128 288 0 626 0 0 0
130 285 0 631 0 1 0
132 276 0 638 0 2 0
134 274 0 637 0 2 0
136 265 0 643 0 0 0
138 260 0 646 0 2 0
140 252 0 657 0 0 0
142 243 0 666 0 1 0
144 237 0 669 0 2 0
146 225 0 678 0 3 0
148 216 0 690 0 0 0
150 213 0 693 0 1 0
152 207 0 694 0 1 0
154 204 0 700 0 1 0
156 201 0 706 0 0 0
158 195 0 715 0 2 0
160 189 0 719 0 2 0
162 187 0 720 0 1 0
164 182 0 720 0 2 1
166 177 0 725 0 1 0
168 173 0 730 0 1 0
170 170 0 733 0 0 0
172 165 0 741 0 2 0
174 163 0 741 0 2 0
176 159 0 744 0 1 0
178 153 0 746 0 2 0
180 149 0 750 0 0 0
182 141 0 749 0 1 0
184 138 0 751 0 1 0
186 131 0 756 0 0 0
188 128 0 753 0 5 0
190 127 0 761 0 0 0
192 124 0 764 0 4 0
194 121 0 766 0 2 0
196 118 0 772 0 1 0
198 114 0 775 0 2 0
200 109 0 782 0 1 0
