0 36 0 0 0
2 36 0 0 0
4.00004 35 0 1 0
6 35 0 0 0
8 35 0 0 0
10 35 0 0 0
12 35 0 0 0
14 35 0 0 0
16 34 0 0 0
18 34 0 0 1
20 34 1 0 0
22 34 1 0 0
24 34 1 0 0
26 34 1 0 0
28 33 3 1 0
30 33 3 1 0
32 33 4 0 0
34 33 4 0 0
36 33 4 0 0
38 33 4 0 0
40 33 5 0 0
42 33 5 0 0
44 33 5 0 0
46 33 5 0 0
48 33 5 0 0
50 33 5 0 0
52 32 5 1 0
54 33 5 0 0
56 33 5 0 0
58 32 6 0 0
60 32 7 0 0
62 32 7 0 0
64 32 7 0 0
66 31 7 1 0
68 31 7 0 0
70 31 7 0 0
72 31 8 0 0
74 31 8 0 0
76 31 10 0 0
78 30 10 0 1
80 31 10 0 0
82 31 10 0 0
84 31 10 0 0
86 30 11 0 1
88 30 11 0 0
90 30 11 0 0
92 29 11 0 0
94 28 11 0 0
96 28 10 0 1
98 28 11 0 0
100 27 11 1 0
102 27 11 1 0
104 27 11 0 0
106 27 11 0 0
108 25 11 0 1
110 25 12 0 0
112 24 13 1 0
114 25 13 0 0
116 25 12 0 1
118 25 13 0 0
120 24 13 0 0
122 24 13 0 0
124 24 13 0 0
126 24 13 0 0
128 23 15 0 0
130 22 15 1 0
132 23 15 0 0
134 22 15 1 0
136 23 16 0 0
138 23 16 0 0
140 23 17 0 0
142 22 17 1 0
144 22 17 0 0
146 22 16 0 0
148 22 17 0 0
150 21 17 0 0
152 21 17 0 0
154 21 17 0 0
156 21 17 0 0
158 21 17 0 0
160 21 17 0 0
162 21 16 0 1
164 21 18 0 0
166 21 18 0 0
168 21 18 0 0
170 21 19 0 0
172 21 19 0 0
174 21 19 0 0
176 21 19 0 0
178 21 19 0 0
180 21 20 0 0
182 21 20 0 0
184 21 20 0 0
186 21 19 0 1
188 21 20 0 0
190 21 21 0 0
192 20 21 1 0
194 20 19 0 1
196 20 20 0 0
198 20 20 0 0
200 20 20 0 0
202 20 20 0 0
204 20 19 0 1
206 20 19 0 0
208 20 19 0 0
210 20 19 0 0
