0 36 0 0 0
2 37 0 0 0
4.00004 37 0 0 0
6 35 0 0 0
8 35 0 0 0
10 34 0 0 0
12 35 0 1 0
14 36 0 0 0
16 36 0 0 0
18 38 0 0 0
20 38 0 0 0
22 38 1 0 0
24 38 1 0 0
26 37 1 0 0
28 37 1 0 0
30 37 1 0 0
32 35 1 2 0
34 37 1 0 0
36 36 1 0 0
38 36 1 0 0
40 36 1 0 0
42 36 1 0 0
44 36 1 0 0
46 36 1 1 0
48 36 1 0 0
50 36 1 0 1
52 36 1 0 0
54 36 1 1 0
56 37 2 0 0
58 37 2 0 0
60 37 2 0 0
62 37 3 0 0
64 37 4 0 0
66 37 4 0 0
68 36 4 0 0
70 36 4 0 0
72 36 4 0 0
74 35 4 0 0
76 35 4 0 0
78 34 5 0 0
80 32 7 1 0
82 33 7 0 0
84 32 8 0 0
86 31 8 0 0
88 31 8 0 0
90 31 8 0 0
92 31 10 0 0
94 31 10 0 0
96 31 10 0 0
98 31 9 0 1
100 31 9 0 1
102 31 10 0 0
104 29 10 0 0
106 29 10 0 0
108 28 10 1 0
110 29 9 0 0
112 28 9 1 0
114 28 9 0 0
116 28 9 0 0
118 28 9 0 0
120 28 10 0 0
122 28 10 0 0
124 26 10 0 0
126 26 12 0 0
128 26 12 0 0
130 26 13 0 0
132 26 15 0 0
134 24 16 2 0
136 26 16 0 0
138 26 16 0 0
140 26 16 0 0
142 26 16 0 0
144 26 16 0 0
146 25 17 0 0
148 24 16 1 1
150 25 16 0 0
152 25 16 0 0
154 25 16 0 0
156 25 17 0 0
158 24 17 0 0
160 24 17 0 0
162 22 17 2 0
164 22 16 1 0
166 21 16 1 0
168 22 16 0 0
170 22 16 0 0
172 22 15 0 1
174 21 15 1 1
176 22 16 0 0
178 22 17 0 0
180 21 17 0 0
182 21 17 0 0
184 21 16 0 0
186 21 16 0 0
188 21 15 0 1
190 21 17 0 0
192 21 17 0 0
194 21 18 0 1
196 21 19 0 0
198 21 19 0 0
200 20 19 1 0
202 21 18 0 1
204 21 18 0 0
206 21 18 0 0
208 20 18 0 0
210 20 18 0 0
