0 48 0 0 0
2 47 0 0 0
4.00004 47 0 0 0
6 47 0 0 0
8 47 0 0 0
10 47 0 0 0
12 45 0 1 0
14 45 0 0 0
16 45 0 0 0
18 45 0 0 0
20 45 0 0 0
22 45 0 0 0
24 45 0 0 0
26 45 1 0 0
28 45 1 0 0
30 45 1 0 0
32 45 1 0 0
34 45 1 0 0
36 45 1 0 0
38 45 1 0 0
40 45 1 0 0
42 45 1 0 0
44 44 1 1 0
46 45 1 0 0
48 44 1 1 0
50 44 1 0 0
52 44 1 0 0
54 44 1 0 0
56 44 1 0 0
58 45 1 0 0
60 45 1 0 0
62 45 1 0 0
64 45 1 0 0
66 45 1 0 0
68 45 1 0 0
70 45 1 0 0
72 44 1 1 0
74 44 1 0 0
76 44 1 0 0
78 45 1 0 0
80 45 1 0 0
82 44 1 0 0
84 44 2 1 0
86 44 3 0 0
88 44 3 0 0
90 44 3 0 0
92 43 3 1 0
94 44 3 0 0
96 43 2 0 1
98 42 2 1 0
100 42 2 0 0
102 42 3 0 0
104 42 3 0 0
106 42 4 0 0
108 42 5 0 0
110 41 5 0 0
112 40 5 1 0
114 41 5 0 0
116 41 5 0 0
118 41 5 0 0
120 40 5 0 0
122 40 4 0 0
124 40 4 0 0
126 40 4 0 0
128 40 4 0 0
130 40 4 0 0
132 40 4 0 0
134 39 4 1 0
136 40 4 0 0
138 40 4 0 0
140 40 4 0 0
142 38 4 0 0
144 38 4 0 0
146 38 5 0 0
148 38 5 0 0
150 38 6 0 0
152 37 6 0 0
154 37 6 0 0
156 37 6 0 0
158 37 6 0 0
160 36 6 1 0
162 37 6 0 0
164 37 6 0 0
166 37 6 0 0
168 37 6 0 0
170 37 6 0 0
172 37 6 0 0
174 37 6 0 0
176 37 6 0 0
178 37 6 0 0
180 36 7 0 0
182 36 7 0 0
184 37 7 0 0
186 37 7 0 0
188 37 7 0 0
190 37 7 0 0
192 37 7 0 0
194 37 7 0 0
196 37 7 0 0
198 36 7 1 0
200 35 7 0 0
202 35 7 0 0
204 34 7 0 0
206 34 7 0 0
208 34 7 0 0
210 34 7 0 0
