0 101 0 0 0
2 99 0 1 0
4.00004 98 0 0 0
6 98 0 0 0
8 98 0 0 0
10 98 0 1 0
12 2 94 1 0
14 1 96 0 0
16 0 95 0 1
18 0 95 0 0
20 0 95 0 0
22 0 94 0 1
24 0 95 0 0
26 0 95 0 0
28 0 95 0 0
30 1 94 0 0
32 0 95 0 0
34 0 95 0 0
36 0 96 0 0
38 0 96 0 0
40 0 96 0 0
42 0 96 0 0
44 0 96 0 0
46 0 96 0 0
48 0 96 0 0
50 0 96 1 0
52 1 95 0 0
54 0 96 0 0
56 0 96 0 0
58 0 94 0 1
60 0 94 1 0
62 0 94 0 0
64 0 96 0 0
66 0 95 0 0
68 0 95 0 0
70 0 95 0 0
72 0 95 0 0
74 0 95 0 0
76 0 95 0 0
78 0 95 0 0
80 0 95 0 0
82 0 95 0 1
84 0 95 0 0
86 0 95 0 0
88 0 95 0 0
90 0 95 1 0
92 0 96 0 0
94 0 96 0 0
96 0 96 0 0
98 0 96 0 0
100 0 95 0 1
102 0 96 0 0
104 0 96 0 0
106 1 95 0 0
108 0 96 0 0
110 0 96 0 0
112 0 97 0 0
114 0 97 0 0
116 0 97 0 0
118 0 97 0 0
120 0 96 0 0
122 0 96 0 0
124 0 96 0 0
126 0 96 0 0
128 0 97 1 0
130 0 97 0 0
132 0 97 0 0
134 0 97 0 0
136 0 97 0 0
138 0 96 0 0
140 0 96 0 0
142 0 96 0 0
144 0 96 0 0
146 0 94 0 0
148 0 93 0 1
150 0 94 0 0
152 0 94 0 0
154 0 94 0 1
156 0 94 0 1
158 0 95 0 0
160 0 95 0 0
162 0 95 0 0
164 0 96 0 0
166 0 96 0 0
168 0 96 0 0
170 0 96 0 0
172 1 96 0 0
174 0 98 0 0
176 0 97 0 1
178 0 98 0 0
180 0 97 0 1
182 0 97 0 0
184 0 97 0 0
186 0 97 0 0
188 0 97 0 0
190 0 97 0 0
192 0 96 0 1
194 0 97 0 0
196 0 97 0 0
198 0 97 0 0
200 0 97 0 0
202 0 97 0 0
204 0 98 0 0
206 1 97 0 1
208 0 97 0 1
210 0 98 0 0
