0 876 0 0 0 0 0
2 792 8 0 59 0 9
4.00004 786 17 0 53 0 15
6 786 12 0 61 0 15
8 791 18 0 53 0 18
10 788 11 0 65 0 15
12 788 15 0 56 0 16
14 795 14 0 55 0 8
16 797 12 0 51 0 15
18 795 17 0 51 0 18
20 787 12 0 58 0 11
22 782 20 0 57 0 12
24 780 23 0 56 0 16
26 792 7 0 43 0 22
28 782 17 0 63 0 12
30 786 16 0 47 0 15
32 767 17 0 68 0 17
34 767 15 0 68 0 16
36 777 12 0 54 0 17
38 779 22 0 67 0 11
40 784 15 0 58 0 12
42 786 15 0 65 0 16
44 791 18 0 65 0 17
46 789 20 0 67 0 18
48 796 12 0 72 0 16
50 802 22 0 58 0 10
52 770 0 36 37 52 0
54 730 0 74 40 50 0
56 713 0 92 32 51 0
58 689 0 118 25 63 0
60 654 0 148 38 63 0
62 632 0 187 33 45 0
64 613 0 210 28 52 0
66 587 0 225 28 55 0
68 567 0 249 25 61 1
70 545 0 272 22 62 0
72 513 0 295 29 62 0
74 508 0 298 16 69 0
76 494 0 319 18 45 0
78 473 0 329 21 63 1
80 462 0 343 16 62 1
82 451 0 367 13 69 0
84 438 0 374 14 70 0
86 414 0 402 18 77 0
88 407 0 424 12 68 0
90 383 0 446 21 61 0
92 380 0 464 13 65 0
94 362 0 466 16 66 0
96 352 0 482 12 64 0
98 337 0 503 14 52 0
100 328 0 516 15 55 0
102 310 0 501 16 75 1
104 302 0 543 10 54 1
106 291 0 534 8 79 1
108 286 0 539 10 68 0
110 273 0 566 13 59 0
112 261 0 562 8 68 0
114 257 0 577 7 65 0
116 247 0 588 7 67 0
118 233 0 592 12 69 0
120 229 0 595 8 74 0
122 224 0 614 6 61 0
124 209 0 619 12 58 0
126 202 0 616 7 78 0
128 195 0 632 9 76 0
130 189 0 631 10 79 0
132 180 0 638 10 76 0
134 175 0 645 10 76 0
136 168 0 658 8 70 0
138 166 0 663 3 68 0
140 158 0 652 9 82 0
142 151 0 666 7 75 0
144 148 0 655 5 95 0
146 140 0 681 8 70 1
148 139 0 675 4 78 0
150 131 0 682 7 73 0
152 129 0 690 5 72 0
154 125 0 695 6 73 0
156 122 0 692 5 85 0
158 119 0 698 3 86 0
160 114 0 722 6 73 0
162 111 0 727 5 75 0
164 107 0 731 6 70 0
166 104 0 731 2 73 0
168 97 0 743 6 64 0
170 98 0 737 4 73 0
172 99 0 741 2 70 0
174 95 0 739 4 66 0
176 94 0 722 3 77 0
178 88 0 726 2 72 0
180 82 0 733 7 64 0
182 77 0 740 6 67 0
184 76 0 731 4 77 0
186 75 0 734 2 82 0
188 72 0 741 3 73 0
190 72 0 741 3 74 0
192 68 0 746 3 77 0
194 66 0 739 1 81 0
196 66 0 756 1 65 0
198 62 0 743 4 79 0
200 60 0 743 2 89 0
