0 1201 0 0 0 0 0
2 1181 0 0 20 0 0
4.00004 1160 0 0 41 0 0
6 1153 0 0 52 0 0
8 1156 0 0 46 0 0
10 1162 0 0 46 0 0
12 1160 0 0 50 0 0
14 1158 0 0 49 0 0
16 1153 0 0 55 0 0
18 1171 0 0 45 0 0
20 1167 0 0 50 0 0
22 1159 0 0 59 0 0
24 1162 0 0 55 0 0
26 1164 0 0 56 0 0
28 1163 0 0 50 0 0
30 1162 0 0 57 0 0
32 1175 0 0 46 0 0
34 1169 0 0 61 0 0
36 1169 0 0 55 0 0
38 1178 0 0 46 0 0
40 1177 0 0 51 0 0
42 1175 0 0 54 0 0
44 1158 0 0 62 0 0
46 1165 0 0 54 0 0
48 1170 0 0 48 0 0
50 1168 0 0 53 0 0
52 1121 0 32 32 27 0
54 1096 0 80 11 27 0
56 1063 0 100 21 29 0
58 1039 0 133 19 28 0
60 1013 0 158 22 37 0
62 992 0 177 16 29 0
64 963 0 211 18 23 0
66 950 0 227 13 31 0
68 930 0 250 14 27 0
70 913 0 272 15 30 0
72 891 0 290 18 37 0
74 865 0 303 20 35 0
76 845 0 322 19 38 0
78 834 0 356 10 33 0
80 809 0 374 16 35 0
82 783 0 401 16 36 0
84 760 0 410 16 27 0
86 745 0 429 13 28 0
88 722 0 450 17 34 0
90 703 0 479 13 30 0
92 686 0 473 12 44 0
94 667 0 491 12 41 0
96 655 0 527 11 29 0
98 643 0 524 10 39 0
100 632 0 547 12 33 0
102 611 0 579 15 32 0
104 587 0 575 16 44 0
106 578 0 596 10 39 0
108 564 0 621 8 31 0
110 549 0 630 11 45 0
112 542 0 637 11 50 0
114 533 0 642 8 41 0
116 521 0 652 6 50 0
118 506 0 682 15 34 0
120 495 0 681 11 51 0
122 479 0 683 8 45 0
124 466 0 708 9 40 0
126 461 0 725 1 39 0
128 449 0 727 5 42 0
130 432 0 738 14 49 0
132 423 0 746 8 45 0
134 419 0 752 4 33 0
136 408 0 771 5 34 0
138 398 0 776 5 42 0
140 385 0 785 10 56 0
142 376 0 793 7 55 0
144 370 0 799 7 44 0
146 360 0 800 4 43 0
148 351 0 815 5 55 0
150 339 0 836 7 44 0
152 326 0 832 9 46 0
154 322 0 842 7 42 0
156 311 0 854 10 41 0
158 309 0 867 6 34 0
160 298 0 865 8 54 0
162 291 0 891 6 44 0
164 280 0 885 8 43 0
166 279 0 900 3 38 0
168 266 0 895 7 42 0
170 261 0 908 6 46 0
172 253 0 901 10 57 0
174 253 0 926 5 44 0
176 248 0 937 2 45 0
178 239 0 944 5 56 0
180 231 0 951 7 42 0
182 230 0 953 6 43 0
184 219 0 966 3 46 0
186 212 0 965 4 45 0
188 210 0 959 3 52 0
190 210 0 968 0 48 0
192 204 0 985 3 41 0
194 201 0 984 1 46 0
196 195 0 998 5 44 0
198 185 0 987 9 50 0
200 187 0 1003 1 50 0
