0 1028 0 0 0 0 0
2 966 0 0 75 0 0
4.00004 988 0 0 53 0 0
6 978 0 0 67 0 0
8 982 0 0 62 0 0
10 970 0 0 84 0 0
12 988 0 0 71 0 0
14 980 0 0 74 0 0
16 970 0 0 80 0 0
18 980 0 0 77 0 0
20 965 0 0 79 0 0
22 961 0 0 67 0 0
24 956 0 0 74 0 0
26 964 0 0 83 0 0
28 975 0 0 67 0 0
30 985 0 0 62 0 0
32 990 0 0 61 0 0
34 964 0 0 86 0 0
36 982 0 0 75 0 0
38 997 0 0 58 0 0
40 979 0 0 71 0 0
42 975 0 0 75 0 0
44 961 0 0 80 0 0
46 979 0 0 55 0 0
48 966 0 0 67 0 0
50 962 0 0 93 0 0
52 976 0 16 52 11 0
54 947 0 51 48 12 0
56 920 0 63 49 23 0
58 915 0 72 38 24 0
60 895 0 83 39 25 0
62 878 0 96 38 23 0
64 858 0 103 41 33 0
66 853 0 121 36 32 0
68 842 0 132 30 27 0
70 825 0 155 32 28 0
72 819 0 160 26 34 0
74 790 0 171 41 41 0
76 778 0 194 42 43 0
78 776 0 211 30 36 0
80 762 0 224 33 40 0
82 755 0 227 29 53 0
84 743 0 247 35 35 0
86 730 0 246 38 31 0
88 729 0 254 29 38 0
90 714 0 258 33 46 0
92 697 0 264 37 45 0
94 689 0 283 32 44 0
96 676 0 284 28 47 0
98 663 0 313 30 37 0
100 653 0 311 34 43 0
102 647 0 318 30 51 0
104 644 0 334 26 48 0
106 630 0 349 23 41 0
108 622 0 350 26 45 0
110 619 0 357 22 37 0
112 607 0 364 26 39 0
114 604 0 367 21 43 0
116 587 0 380 26 53 0
118 578 0 392 24 55 0
120 567 0 417 28 39 0
122 562 0 411 24 52 0
124 555 0 432 24 41 0
126 552 0 423 19 42 0
128 533 0 431 30 45 0
130 531 0 446 21 47 0
132 522 0 460 25 54 0
134 512 0 453 26 59 0
136 513 0 473 17 50 0
138 497 0 489 24 33 0
140 489 0 485 27 58 0
142 492 0 500 14 55 0
144 482 0 500 18 50 0
146 476 0 499 12 65 0
148 467 0 524 16 52 0
150 463 0 521 12 51 0
152 450 0 523 20 47 0
154 447 0 531 20 47 0
156 444 0 535 17 45 0
158 433 0 544 18 50 0
160 430 0 552 17 56 0
162 426 0 564 15 52 0
164 417 0 558 19 53 0
166 415 0 567 20 49 0
168 413 0 586 19 52 0
170 400 0 575 24 75 0
172 394 0 596 23 61 0
174 392 0 599 17 66 0
176 391 0 612 14 54 0
178 381 0 620 19 55 0
180 369 0 609 21 56 0
182 368 0 620 18 49 0
184 367 0 637 13 52 0
186 362 0 629 11 62 0
188 360 0 643 10 61 0
190 350 0 641 14 53 0
192 344 0 629 13 69 0
194 340 0 647 15 49 0
196 340 0 654 13 51 0
198 342 0 656 8 43 0
200 325 0 652 20 48 0
