0 1022 0 0 0 0 0
2 971 0 0 64 0 0
4.00004 956 0 0 79 0 0
6 960 0 0 77 0 0
8 939 0 0 102 0 0
10 951 0 0 85 0 0
12 952 0 0 91 0 0
14 963 0 0 84 0 0
16 972 0 0 81 0 0
18 986 0 0 67 0 0
20 969 0 0 94 0 0
22 961 0 0 88 0 0
24 967 0 0 64 0 0
26 970 0 0 66 0 0
28 944 0 0 88 0 0
30 949 0 0 74 0 0
32 934 0 0 81 0 0
34 952 0 0 79 0 0
36 950 0 0 75 0 0
38 944 0 0 76 0 0
40 934 0 0 85 0 0
42 927 0 0 81 0 0
44 946 0 0 65 0 0
46 926 0 0 87 0 0
48 927 0 0 93 0 0
50 948 0 0 73 0 0
52 898 0 20 72 10 0
54 889 0 48 49 22 0
56 869 0 66 52 30 0
58 850 0 88 52 23 0
60 845 0 98 45 35 0
62 829 0 115 41 36 0
64 814 0 143 43 36 0
66 805 0 144 37 35 0
68 789 0 158 41 39 0
70 792 0 179 28 31 0
72 762 0 203 40 34 0
74 757 0 203 32 46 0
76 726 0 222 45 33 0
78 706 0 219 45 44 0
80 698 0 234 36 33 0
82 683 0 252 38 45 0
84 662 0 259 39 52 0
86 645 0 280 42 44 0
88 633 0 285 38 55 0
90 627 0 312 27 48 0
92 610 0 321 32 49 0
94 595 0 331 32 42 0
96 584 0 350 29 42 0
98 561 0 352 40 58 0
100 560 0 366 32 50 0
102 551 0 375 30 51 0
104 542 0 374 34 59 0
106 538 0 393 22 45 0
108 523 0 396 31 56 0
110 517 0 391 25 61 0
112 509 0 401 24 50 0
114 500 0 425 26 35 0
116 486 0 441 31 42 0
118 482 0 430 24 48 0
120 460 0 442 39 60 0
122 463 0 462 22 56 0
124 458 0 457 19 62 0
126 447 0 474 20 56 0
128 442 0 488 24 61 0
130 435 0 493 23 57 0
132 420 0 497 28 60 0
134 416 0 509 21 58 0
136 405 0 510 23 51 0
138 394 0 504 27 59 0
140 392 0 523 18 54 0
142 388 0 531 18 50 0
144 383 0 515 16 78 0
146 374 0 557 19 61 0
148 364 0 546 21 72 0
150 359 0 551 18 62 0
152 357 0 565 16 60 0
154 351 0 576 20 63 0
156 342 0 587 21 60 0
158 332 0 587 24 61 0
160 327 0 584 24 60 0
162 329 0 593 16 50 0
164 313 0 609 26 49 0
166 312 0 600 21 67 0
168 315 0 607 14 69 0
170 308 0 618 18 70 0
172 299 0 614 23 66 0
174 300 0 645 14 57 0
176 295 0 655 16 60 0
178 288 0 653 16 78 0
180 291 0 674 12 60 0
182 288 0 666 12 67 0
184 282 0 676 13 67 0
186 278 0 688 15 59 0
188 280 0 698 10 52 0
190 274 0 680 12 66 0
192 267 0 674 17 78 0
194 272 0 690 7 66 0
196 254 0 684 16 74 0
198 251 0 666 15 86 0
200 248 0 689 17 74 0
