0 1147 0 0 0 0 0
2 1054 0 0 84 0 0
4.00004 1036 0 0 94 0 0
6 1027 0 0 106 0 0
8 1017 0 0 109 0 0
10 1026 0 0 100 0 0
12 1020 0 0 110 0 0
14 1021 0 0 98 0 0
16 1019 0 0 102 0 0
18 1008 0 0 108 0 0
20 1007 0 0 107 0 0
22 1012 0 0 105 0 0
24 1022 0 0 105 0 0
26 993 0 0 112 0 0
28 995 0 0 122 0 0
30 990 0 0 115 0 0
32 990 0 0 128 0 0
34 984 0 0 121 0 0
36 981 0 0 135 0 0
38 995 0 0 123 0 0
40 997 0 0 106 0 0
42 988 0 0 115 0 0
44 977 0 0 121 0 0
46 980 0 0 126 0 0
48 981 0 0 121 0 0
50 966 0 0 125 0 0
52 939 0 34 75 38 0
54 904 0 67 70 49 0
56 882 0 87 59 62 0
58 855 0 110 57 75 0
60 836 0 144 48 84 0
62 794 0 166 63 64 0
64 777 0 185 48 68 0
66 748 0 210 56 74 0
68 725 0 236 56 79 0
70 715 0 253 43 68 0
72 710 0 270 36 76 0
74 684 0 292 44 68 0
76 668 0 296 42 76 0
78 652 0 311 39 72 0
80 615 0 335 59 65 0
82 618 0 346 37 84 0
84 602 0 353 30 85 0
86 581 0 367 35 96 0
88 569 0 385 32 84 0
90 552 0 395 33 88 0
92 534 0 402 38 90 0
94 520 0 434 34 74 0
96 507 0 423 34 100 0
98 494 0 450 31 90 0
100 479 0 469 33 72 0
102 465 0 471 31 91 0
104 448 0 490 36 89 0
106 445 0 505 27 86 0
108 432 0 491 23 92 0
110 414 0 520 24 78 0
112 402 0 532 21 94 0
114 386 0 555 23 84 0
116 371 0 569 27 97 0
118 368 0 576 21 85 0
120 358 0 575 23 106 0
122 347 0 605 25 88 0
124 340 0 603 23 101 0
126 331 0 627 24 103 0
128 330 0 621 18 101 0
130 311 0 599 26 113 0
132 319 0 631 15 85 0
134 308 0 629 22 107 0
136 307 0 632 13 111 0
138 294 0 641 16 97 0
140 280 0 647 24 95 0
142 284 0 650 11 108 0
144 271 0 669 20 92 0
146 275 0 669 8 109 0
148 266 0 679 10 101 0
150 256 0 685 15 90 0
152 250 0 663 18 111 0
154 248 0 677 12 118 0
156 246 0 694 10 101 0
158 238 0 698 9 105 0
160 225 0 688 14 114 0
162 220 0 704 13 103 0
164 213 0 714 16 92 0
166 202 0 730 20 86 0
168 201 0 727 15 97 0
170 197 0 703 14 106 0
172 194 0 706 9 108 0
174 190 0 714 9 95 0
176 185 0 717 10 108 0
178 183 0 722 9 106 0
180 180 0 734 9 110 0
182 171 0 718 10 104 0
184 171 0 742 7 112 0
186 158 0 745 15 114 0
188 162 0 755 5 109 0
190 152 0 756 8 118 0
192 149 0 765 6 99 0
194 139 0 766 13 102 0
196 137 0 765 8 101 0
198 134 0 770 6 108 0
200 129 0 761 9 108 0
