0 980 0 0 0 0 0
2 860 37 0 70 0 0
4.00004 842 36 0 93 0 0
6 839 45 0 90 0 0
8 840 45 0 83 0 0
10 842 52 0 77 0 0
12 836 51 0 83 0 0
14 835 44 0 93 0 0
16 849 38 0 87 0 0
18 834 45 0 95 0 0
20 827 49 0 92 0 0
22 820 51 0 99 0 0
24 823 57 0 89 0 0
26 828 46 0 92 0 0
28 831 56 0 90 0 0
30 831 46 0 100 0 0
32 832 51 0 102 0 0
34 845 53 0 82 0 0
36 833 46 0 96 0 0
38 841 50 0 97 0 0
40 843 50 0 89 0 0
42 851 51 0 82 0 0
44 854 47 0 90 0 0
46 851 61 0 81 0 0
48 878 42 0 91 0 0
50 886 32 0 93 0 0
52 820 1 88 58 44 0
54 803 0 126 40 45 0
56 759 0 141 43 64 0
58 737 0 177 33 52 0
60 711 0 203 38 58 0
62 680 0 231 34 62 0
64 671 0 240 19 61 0
66 635 0 268 34 57 0
68 619 1 278 28 65 0
70 606 0 304 28 65 0
72 585 0 322 34 62 0
74 572 0 338 24 62 0
76 551 1 359 25 59 0
78 535 0 381 24 61 0
80 517 0 397 25 76 0
82 497 0 422 25 71 0
84 485 0 430 26 66 0
86 474 0 449 22 66 0
88 460 0 467 20 67 0
90 440 0 492 22 67 0
92 432 0 513 17 63 0
94 409 1 521 21 78 0
96 402 0 521 19 80 0
98 394 0 544 17 59 0
100 374 1 545 24 64 0
102 362 0 555 19 84 0
104 350 0 548 16 75 0
106 338 0 562 15 84 0
108 327 0 580 13 88 0
110 317 0 586 13 83 0
112 298 0 594 19 74 0
114 296 0 609 16 65 0
116 285 0 619 12 57 0
118 276 0 611 15 81 0
120 271 0 629 16 79 0
122 266 0 638 10 77 0
124 257 0 629 14 84 0
126 248 0 645 11 78 0
128 239 0 651 13 82 0
130 224 0 675 21 75 0
132 224 0 677 10 91 0
134 211 0 677 14 101 0
136 209 0 708 7 84 0
138 204 0 691 7 98 0
140 193 0 691 11 109 0
142 185 0 703 13 97 0
144 186 0 730 6 74 0
146 180 0 720 7 86 0
148 174 0 729 7 80 0
150 161 0 731 16 93 0
152 163 0 729 6 87 0
154 156 0 747 10 82 0
156 152 0 750 8 84 0
158 142 0 763 10 89 0
160 141 0 756 6 91 0
162 139 0 767 3 83 0
164 136 0 772 5 90 0
166 131 0 773 4 95 0
168 127 0 781 4 86 0
170 124 0 795 4 81 0
172 118 0 786 8 91 0
174 117 0 788 5 98 0
176 106 0 808 6 103 0
178 107 0 799 4 97 0
180 107 0 826 2 89 0
182 103 0 826 4 78 0
184 99 0 832 7 85 0
186 98 0 817 3 97 0
188 95 0 823 5 74 0
190 90 1 823 4 92 0
192 88 0 840 1 91 0
194 86 0 844 5 86 0
196 81 0 850 4 86 0
198 79 0 859 3 88 0
200 69 1 841 8 105 0
