0 1023 0 0 0 0 0
2 935 38 0 56 0 0
4.00004 924 54 0 61 0 0
6 933 33 0 63 0 0
8 917 51 0 71 0 0
10 931 34 0 77 0 0
12 928 46 0 75 0 0
14 954 34 0 56 0 0
16 949 37 0 56 0 0
18 928 37 0 65 0 0
20 932 29 0 65 0 0
22 920 35 0 63 0 0
24 933 42 0 60 0 0
26 925 42 0 82 0 0
28 940 44 0 59 0 0
30 930 31 0 80 0 0
32 939 39 0 64 0 0
34 934 42 0 65 0 0
36 931 31 0 59 0 0
38 921 41 0 59 0 0
40 934 39 0 50 0 0
42 910 39 0 68 0 0
44 908 40 0 61 0 0
46 922 30 0 71 0 0
48 925 48 0 67 0 0
50 939 41 0 49 0 0
52 883 0 88 24 32 0
54 851 0 108 27 36 0
56 826 0 120 29 33 0
58 806 0 142 25 34 0
60 789 0 149 21 42 0
62 784 0 160 15 42 0
64 760 0 180 23 42 0
66 745 0 212 19 35 0
68 727 0 228 23 44 0
70 708 0 224 22 52 0
72 689 0 256 27 43 0
74 679 0 267 16 46 0
76 669 0 279 13 48 0
78 654 0 291 19 42 0
80 636 0 307 16 40 0
82 623 0 329 10 38 0
84 605 0 332 18 39 0
86 596 0 349 18 44 0
88 581 0 362 17 39 0
90 566 0 372 18 48 0
92 555 0 375 14 44 0
94 536 0 395 12 56 0
96 522 0 399 15 48 0
98 514 0 420 14 48 0
100 507 0 427 15 49 0
102 501 0 432 12 58 0
104 488 0 428 14 53 0
106 476 0 445 16 53 0
108 470 0 455 11 52 0
110 468 1 469 7 52 0
112 457 0 475 14 56 0
114 448 0 492 12 47 0
116 434 0 504 12 54 0
118 425 0 507 8 45 0
120 418 1 507 8 58 0
122 401 0 531 11 53 0
124 394 0 538 10 46 0
126 382 0 528 13 62 0
128 380 0 526 11 55 0
130 376 0 531 9 44 0
132 362 0 550 13 49 0
134 358 0 561 8 50 0
136 347 0 574 9 44 0
138 337 0 590 12 47 0
140 334 0 589 6 62 0
142 320 0 585 12 66 0
144 320 0 606 8 52 0
146 304 0 610 11 62 0
148 301 0 625 5 59 0
150 294 0 626 9 53 0
152 286 0 621 10 65 0
154 285 0 633 7 45 0
156 285 0 649 5 46 0
158 280 0 646 4 57 0
160 272 0 652 6 52 0
162 262 0 664 14 48 0
164 262 0 659 8 63 0
166 253 0 678 8 50 0
168 249 1 679 10 49 0
170 246 0 668 6 56 0
172 242 0 680 5 53 0
174 234 0 688 9 57 0
176 227 0 702 7 60 0
178 214 0 690 12 51 0
180 212 0 691 8 63 0
182 209 0 689 8 65 0
184 205 0 709 5 62 0
186 203 0 729 4 57 0
188 200 0 732 3 67 0
190 192 0 738 5 61 0
192 188 0 746 5 55 0
194 185 0 738 5 60 0
196 184 0 754 3 63 0
198 182 0 763 1 65 0
200 174 0 750 7 68 0
