0 499 0 0 0 0 685
2 443 0 0 21 0 715
4.00004 427 0 0 13 0 720
6 407 0 0 26 0 696
8 416 0 0 9 0 717
10 389 0 0 15 0 684
12 383 0 0 19 0 706
14 376 0 0 13 0 701
16 345 0 0 16 0 704
18 349 0 0 10 0 689
20 338 0 0 11 0 695
22 327 0 0 12 0 709
24 323 0 0 10 0 698
26 315 0 0 10 0 700
28 295 0 0 9 0 701
30 284 0 0 9 0 701
32 282 0 0 7 0 712
34 284 0 0 10 0 695
36 275 0 0 7 0 690
38 274 0 0 13 0 688
40 272 0 0 6 0 681
42 249 0 0 5 0 708
44 242 0 0 4 0 724
46 228 0 0 7 0 686
48 227 0 0 9 0 705
50 218 0 0 9 0 709
52 203 0 0 12 0 691
54 208 0 3 9 0 735
56 213 0 8 8 0 679
58 206 0 13 14 0 711
60 201 0 20 5 3 715
62 190 0 34 2 0 675
64 178 0 32 5 5 693
66 170 0 37 5 5 722
68 157 0 46 10 1 684
70 152 0 46 6 3 728
72 148 0 59 6 2 700
74 141 0 66 4 3 686
76 134 0 74 0 3 738
78 122 0 78 1 3 706
80 116 0 90 1 2 673
82 105 0 94 4 3 711
84 105 0 99 4 1 709
86 100 0 101 3 3 709
88 92 0 108 2 4 664
90 82 0 111 4 6 713
92 79 0 120 0 4 690
94 72 0 133 1 6 692
96 65 0 133 4 4 710
98 67 0 139 1 2 689
100 64 0 139 2 6 702
102 64 0 144 1 6 710
104 60 0 148 0 8 706
106 54 0 157 2 8 669
108 52 0 166 1 4 692
110 50 0 167 1 6 696
112 45 0 165 2 8 716
114 43 0 179 0 4 710
116 36 0 183 3 5 700
118 34 0 183 3 8 679
120 31 0 186 1 3 693
122 30 0 195 0 4 712
124 27 0 195 0 4 700
126 23 0 201 1 5 699
128 22 0 197 0 4 701
130 17 0 197 1 5 695
132 15 0 192 1 5 696
134 15 0 191 0 5 719
136 14 0 193 0 2 697
138 13 0 195 0 4 659
140 12 0 203 1 4 684
142 11 0 201 0 4 700
144 12 0 202 0 9 713
146 10 0 197 0 9 699
148 11 0 198 0 6 690
150 10 0 191 0 9 688
152 8 0 194 0 13 685
154 5 0 194 1 4 702
156 6 0 195 0 4 709
158 6 0 198 0 10 684
160 5 0 185 1 12 703
162 6 0 180 0 10 705
164 6 0 187 0 6 695
166 6 0 204 0 5 711
168 6 0 197 0 10 697
170 5 0 207 0 6 709
172 4 0 204 1 12 711
174 6 0 212 0 3 693
176 5 0 204 0 12 696
178 5 0 209 0 6 711
180 5 0 201 0 7 710
182 5 0 206 0 6 694
184 5 0 201 0 4 704
186 5 0 212 0 5 680
188 5 0 214 0 7 695
190 5 0 213 0 7 713
192 4 0 210 1 10 688
194 5 0 202 0 8 710
196 5 0 209 0 6 685
198 5 0 202 0 13 725
200 5 0 205 0 12 688
