0 1408 0 0 0 0 706
2 1363 5 0 18 0 708
4.00004 1347 6 0 14 0 694
6 1327 8 0 20 0 705
8 1302 10 0 13 0 707
10 1296 7 0 11 0 696
12 1285 9 0 14 0 700
14 1261 8 0 23 0 671
16 1246 7 0 13 0 675
18 1236 11 0 10 0 711
20 1241 7 0 10 0 720
22 1218 9 0 13 0 716
24 1208 8 0 9 0 688
26 1197 11 0 23 0 711
28 1198 7 0 12 0 699
30 1211 6 0 16 0 731
32 1203 7 0 18 0 688
34 1206 8 0 19 0 663
36 1210 6 0 7 0 692
38 1203 7 0 13 0 706
40 1195 4 0 12 0 682
42 1188 10 0 15 0 706
44 1184 8 0 16 0 693
46 1203 7 0 9 0 707
48 1208 7 0 8 0 699
50 1196 11 0 15 0 687
52 1049 1 165 14 0 696
54 907 0 297 10 1 711
56 806 0 384 13 1 671
58 727 1 466 13 2 687
60 645 0 537 8 4 715
62 584 0 587 7 6 691
64 531 0 640 4 6 695
66 488 1 690 8 6 714
68 440 0 732 9 11 700
70 428 1 744 5 6 698
72 390 0 779 9 3 710
74 371 0 787 4 8 687
76 346 0 817 10 2 645
78 316 2 840 8 6 712
80 279 0 868 4 9 705
82 270 0 881 6 8 683
84 254 0 899 10 6 710
86 248 0 903 2 8 693
88 232 0 915 5 5 712
90 230 0 929 5 10 690
92 212 0 948 5 9 732
94 207 0 940 7 14 687
96 210 0 961 4 11 679
98 204 0 968 2 9 716
100 185 0 965 4 10 729
102 178 0 975 2 10 701
104 170 0 981 1 6 688
106 167 0 975 2 11 707
108 155 0 994 1 8 718
110 146 0 996 5 10 724
112 143 0 1009 3 8 711
114 150 0 1009 2 12 675
116 142 0 1027 1 7 693
118 132 0 1038 3 6 690
120 130 1 1045 1 4 689
122 115 0 1040 3 15 720
124 119 0 1051 4 11 709
126 105 0 1057 2 11 720
128 104 0 1057 6 13 712
130 101 0 1055 1 8 687
132 103 0 1049 4 6 694
134 95 0 1061 2 16 698
136 90 0 1059 0 12 694
138 87 0 1057 2 8 687
140 89 0 1059 2 10 706
142 86 0 1051 5 14 711
144 79 0 1060 1 14 712
146 73 0 1067 3 12 711
148 69 0 1060 4 14 678
150 71 0 1070 2 11 714
152 60 0 1076 0 7 710
154 58 0 1067 1 12 690
156 59 0 1063 0 4 704
158 61 0 1055 2 12 691
160 53 0 1065 1 5 701
162 58 0 1053 0 10 724
164 54 0 1060 1 8 712
166 48 0 1058 1 14 696
168 39 0 1055 1 17 686
170 43 0 1067 1 13 708
172 41 0 1065 1 16 697
174 44 0 1085 0 9 683
176 42 0 1076 0 12 695
178 39 0 1058 0 14 671
180 30 0 1080 5 9 720
182 37 0 1083 2 6 691
184 34 0 1081 2 12 686
186 33 0 1080 1 15 722
188 33 0 1093 1 14 712
190 31 0 1080 1 25 701
192 33 0 1086 2 18 685
194 32 0 1087 1 13 687
196 32 0 1067 0 12 701
198 29 0 1080 0 11 724
200 28 0 1078 0 11 709
