0 490 0 0 0 0 711
2 470 0 0 18 0 693
4.00004 486 0 0 16 0 693
6 463 0 0 32 0 701
8 478 0 0 20 0 709
10 482 0 0 25 0 696
12 471 0 0 30 0 706
14 477 0 0 28 0 712
16 479 0 0 26 0 688
18 472 0 0 26 0 673
20 469 0 0 25 0 676
22 469 0 0 26 0 721
24 459 0 0 32 0 713
26 473 0 0 19 0 719
28 471 0 0 21 0 714
30 467 0 0 23 0 681
32 466 0 0 23 0 702
34 472 0 0 23 0 696
36 490 0 0 17 0 700
38 482 0 0 20 0 709
40 465 0 0 29 0 672
42 474 0 0 26 0 712
44 470 0 0 24 0 697
46 469 0 0 27 0 700
48 484 0 0 16 0 696
50 482 0 0 22 0 707
52 474 0 0 28 0 671
54 470 0 1 22 0 700
56 468 0 3 23 0 686
58 469 0 6 17 1 702
60 463 0 15 18 1 710
62 456 0 13 25 3 693
64 447 0 20 23 0 683
66 440 0 22 23 4 688
68 439 0 25 25 3 671
70 433 0 30 25 7 680
72 421 0 41 27 3 702
74 413 0 49 29 0 702
76 410 0 54 17 4 691
78 407 0 63 17 3 704
80 405 0 71 13 2 722
82 395 0 85 15 5 688
84 379 0 92 22 5 708
86 378 0 103 16 3 715
88 371 0 110 15 6 690
90 352 0 111 22 7 712
92 351 0 126 15 7 719
94 344 0 133 19 7 716
96 336 0 139 18 8 702
98 332 0 145 15 10 689
100 332 0 157 11 7 721
102 323 0 164 13 7 693
104 321 0 171 11 4 728
106 311 0 176 14 7 744
108 307 0 175 10 8 682
110 289 0 179 23 15 702
112 288 0 195 14 10 699
114 280 0 202 14 14 700
116 272 0 208 12 11 713
118 270 0 217 11 6 677
120 262 0 210 11 12 724
122 251 0 214 11 12 682
124 252 0 223 7 11 727
126 235 0 225 15 14 690
128 234 0 237 15 11 710
130 232 0 239 13 11 703
132 227 0 248 12 11 698
134 222 0 250 8 13 690
136 221 0 269 4 11 684
138 212 0 273 9 10 706
140 213 0 275 5 12 682
142 202 0 274 13 19 713
144 201 0 279 9 9 705
146 194 0 285 13 11 672
148 191 0 285 13 14 703
150 189 0 283 12 21 686
152 184 0 289 9 17 686
154 178 0 290 11 17 687
156 177 0 297 9 15 687
158 176 0 301 7 17 704
160 173 0 302 3 16 701
162 165 0 304 11 16 687
164 169 0 302 5 14 697
166 163 0 305 7 15 739
168 157 0 308 10 11 673
170 156 0 311 4 12 707
172 153 0 309 5 15 674
174 146 0 318 8 17 722
176 141 0 324 11 17 692
178 144 0 321 5 22 696
180 140 0 326 6 22 702
182 138 0 338 8 16 705
184 134 0 336 11 15 695
186 137 0 341 7 21 684
188 135 0 346 5 17 697
190 134 0 356 5 12 715
192 133 0 358 4 15 703
194 132 0 373 2 8 698
196 128 0 361 4 19 713
198 128 0 370 4 16 717
200 120 0 355 6 28 711
