0 69 0 0 0
2 69 0 0 0
4.00004 69 0 0 0
6 69 0 0 0
8 69 0 0 0
10 69 0 0 0
12 64 5 0 0
14 57 12 0 0
16 51 19 0 0
18 43 27 0 0
20 40 30 0 0
22 35 35 0 0
24 34 36 0 0
26 30 40 0 0
28 24 46 0 0
30 21 49 0 0
32 19 51 0 0
34 15 55 0 0
36 13 57 0 0
38 10 60 0 0
40 10 60 0 0
42 8 62 0 0
44 7 63 0 0
46 7 63 0 0
48 7 63 0 0
50 6 64 0 0
52 6 64 0 0
54 5 65 0 0
56 4 66 0 0
58 3 67 0 0
60 2 68 0 0
62 1 69 0 0
64 1 68 0 0
66 0 69 0 0
68 0 69 0 0
70 0 69 0 0
72 0 69 0 0
74 0 69 1 0
76 1 69 0 0
78 1 69 0 0
80 1 69 0 0
82 1 69 0 0
84 1 69 0 0
86 1 69 0 0
88 1 69 0 0
90 1 69 0 0
92 1 69 0 0
94 1 69 0 0
96 1 69 0 0
98 1 69 0 0
100 1 69 0 0
102 1 69 0 0
104 1 69 0 0
106 0 70 0 0
108 0 70 0 0
110 0 70 0 0
112 0 70 0 0
114 0 70 0 0
116 0 70 0 0
118 0 70 0 0
120 0 70 0 0
122 0 70 0 0
124 0 70 1 0
126 1 70 0 0
128 1 69 0 0
130 1 69 0 0
132 0 69 0 0
134 0 69 0 0
136 0 69 0 0
138 0 69 0 0
140 0 69 0 0
142 0 69 0 0
144 0 69 0 0
146 0 69 0 0
148 1 69 0 0
150 1 68 0 0
152 1 68 0 0
154 1 68 0 0
156 1 68 0 0
158 1 68 0 0
160 1 68 0 0
162 1 68 0 0
164 1 68 0 0
166 1 68 0 0
168 1 68 0 0
170 1 68 0 0
172 1 68 0 0
174 1 68 0 0
176 0 69 0 0
178 0 69 0 0
180 0 69 0 0
182 0 69 0 0
184 0 68 0 0
186 0 68 0 0
188 0 68 0 0
190 0 68 0 0
192 0 68 0 0
194 0 68 0 0
196 0 68 0 0
198 0 68 0 0
200 0 68 0 0
202 0 68 0 0
204 0 68 0 0
206 0 68 0 0
208 0 67 0 0
210 0 66 0 0
