0 75 0 0 0
2 74 0 0 0
4.00004 74 0 0 0
6 74 0 0 0
8 74 0 0 0
10 74 0 0 0
12 74 0 0 0
14 74 0 0 0
16 74 0 0 0
18 74 0 0 0
20 74 0 0 0
22 74 0 0 0
24 74 1 0 0
26 74 1 0 0
28 74 1 0 0
30 74 1 0 0
32 74 1 0 0
34 74 1 0 0
36 74 1 0 0
38 74 1 0 0
40 74 1 0 0
42 74 1 0 0
44 74 3 0 0
46 74 3 0 0
48 73 2 0 0
50 73 2 1 0
52 74 2 0 0
54 74 2 0 0
56 74 2 0 0
58 74 2 0 0
60 74 2 0 0
62 74 2 0 0
64 74 2 0 0
66 74 2 0 0
68 74 2 1 0
70 75 2 0 0
72 75 2 0 0
74 75 2 0 0
76 75 2 0 0
78 75 2 0 0
80 75 2 0 0
82 74 2 0 0
84 74 2 0 0
86 74 2 0 0
88 74 2 0 0
90 74 2 0 0
92 74 2 0 0
94 74 2 0 0
96 74 2 0 0
98 74 2 0 0
100 74 2 0 0
102 74 2 0 0
104 74 2 0 0
106 74 2 0 0
108 74 2 0 0
110 74 2 0 0
112 74 2 0 0
114 73 2 0 0
116 73 2 0 0
118 73 2 0 0
120 73 2 0 0
122 73 2 0 0
124 73 2 0 0
126 73 2 0 0
128 73 2 0 0
130 73 2 0 0
132 72 2 0 0
134 72 2 0 0
136 72 2 0 0
138 72 2 0 0
140 72 2 0 0
142 72 2 0 0
144 72 2 0 0
146 71 2 0 0
148 71 2 0 0
150 71 2 0 0
152 71 2 0 0
154 71 2 0 0
156 71 2 0 0
158 71 2 0 0
160 71 2 0 0
162 71 2 0 0
164 71 2 0 0
166 71 2 0 0
168 71 2 0 0
170 71 2 0 0
172 71 2 0 0
174 71 2 0 0
176 71 2 0 0
178 71 2 0 0
180 71 2 0 0
182 71 2 0 0
184 71 2 0 0
186 71 2 0 0
188 70 2 1 0
190 71 3 0 0
192 71 3 0 0
194 71 3 0 0
196 71 3 0 0
198 71 3 0 0
200 71 3 0 0
202 71 3 0 0
204 71 3 0 0
206 71 3 0 0
208 71 3 0 0
210 71 3 0 0
