0 68 0 0 0
2 66 0 0 0
4.00004 66 0 0 0
6 66 0 0 0
8 66 0 0 0
10 66 0 0 0
12 54 12 0 0
14 46 20 0 0
16 43 23 0 0
18 34 32 0 0
20 28 38 0 0
22 21 45 0 0
24 19 47 0 0
26 17 49 0 0
28 14 52 0 0
30 13 52 0 0
32 11 54 0 0
34 10 55 0 0
36 10 55 0 0
38 7 58 0 0
40 6 59 0 0
42 5 61 0 0
44 5 61 1 0
46 4 62 0 0
48 4 62 0 0
50 4 62 0 0
52 3 63 0 0
54 2 64 0 0
56 1 65 0 0
58 1 65 0 0
60 2 65 0 0
62 2 65 0 0
64 1 65 1 0
66 1 66 0 0
68 1 66 0 0
70 1 66 0 0
72 1 66 0 0
74 1 66 0 0
76 1 66 0 0
78 1 66 0 0
80 1 66 0 0
82 1 66 0 0
84 2 66 0 0
86 2 66 0 0
88 1 67 0 0
90 1 67 0 0
92 1 66 0 0
94 1 67 0 0
96 1 67 0 0
98 1 67 0 0
100 1 67 0 0
102 0 67 0 0
104 0 67 0 0
106 0 67 0 0
108 0 67 0 0
110 1 67 0 0
112 2 67 0 0
114 2 67 0 0
116 1 68 0 0
118 1 68 0 0
120 1 68 0 0
122 1 68 0 0
124 1 68 0 0
126 1 68 0 0
128 1 67 0 0
130 1 67 0 0
132 1 67 0 0
134 1 67 0 0
136 1 67 0 0
138 1 68 0 0
140 1 68 0 0
142 1 68 0 0
144 1 68 0 0
146 1 68 0 0
148 0 69 0 0
150 0 69 0 0
152 0 69 0 0
154 0 69 0 0
156 0 69 0 0
158 0 69 0 0
160 0 69 0 0
162 0 69 0 0
164 0 68 0 0
166 0 68 0 0
168 0 68 0 0
170 0 68 0 0
172 0 68 0 0
174 0 68 0 0
176 0 68 0 0
178 0 68 0 0
180 0 68 0 0
182 0 68 0 0
184 0 68 0 0
186 0 67 0 0
188 0 67 0 0
190 0 67 0 0
192 0 67 0 0
194 0 67 0 0
196 0 67 0 0
198 0 67 0 0
200 0 67 0 0
202 0 67 0 0
204 0 67 0 0
206 0 67 0 0
208 0 67 0 0
210 0 67 0 0
