0 70 0 0 0
2 70 0 0 0
4.00004 70 0 0 0
6 70 0 0 0
8 70 0 0 0
10 70 0 0 0
12 70 0 0 0
14 70 0 0 0
16 70 0 0 0
18 70 0 0 0
20 70 0 0 0
22 69 0 1 0
24 70 0 0 0
26 70 0 0 0
28 70 0 0 0
30 70 0 0 0
32 70 0 0 0
34 69 0 0 0
36 69 0 0 0
38 69 0 0 0
40 69 0 0 0
42 69 0 0 0
44 69 0 0 0
46 69 0 0 0
48 69 0 0 0
50 69 0 0 0
52 69 0 0 0
54 69 0 0 0
56 69 0 0 0
58 69 0 0 0
60 69 0 0 0
62 69 0 0 0
64 69 0 0 0
66 69 0 0 0
68 69 0 0 0
70 69 0 0 0
72 69 0 0 0
74 69 0 0 0
76 68 0 0 0
78 69 0 0 0
80 68 0 1 0
82 69 0 0 0
84 69 0 0 0
86 69 0 0 0
88 69 0 0 0
90 69 0 0 0
92 69 0 0 0
94 69 0 0 0
96 69 0 0 0
98 69 0 0 0
100 69 1 0 0
102 69 1 0 0
104 69 1 0 0
106 69 1 0 0
108 68 1 0 0
110 68 1 0 0
112 68 1 0 0
114 68 1 0 0
116 67 1 0 0
118 67 1 0 0
120 68 1 0 0
122 68 2 0 0
124 68 2 0 0
126 68 2 0 0
128 68 2 0 0
130 68 2 0 0
132 68 2 0 0
134 67 2 0 0
136 67 2 0 0
138 67 2 0 0
140 67 3 0 0
142 67 3 0 0
144 67 3 0 0
146 67 3 0 0
148 67 3 0 0
150 67 3 0 0
152 67 3 0 0
154 67 3 0 0
156 67 3 0 0
158 67 3 0 0
160 67 3 0 0
162 67 3 0 0
164 67 3 0 0
166 67 3 0 0
168 67 3 0 0
170 67 4 0 0
172 67 4 0 0
174 67 4 0 0
176 67 4 0 0
178 67 4 0 0
180 66 4 0 0
182 66 4 0 0
184 66 4 0 0
186 66 4 0 0
188 66 4 0 0
190 66 4 0 0
192 66 4 0 0
194 66 4 0 0
196 66 4 0 0
198 66 4 0 0
200 66 4 0 0
202 66 4 0 0
204 66 4 0 0
206 66 4 0 0
208 66 4 0 0
210 66 4 0 0
