0 73 0 0 0
2 73 0 0 0
4.00004 73 0 0 0
6 73 0 0 0
8 73 0 0 0
10 73 0 0 0
12 72 0 0 0
14 72 0 0 0
16 72 0 1 0
18 73 0 0 0
20 73 0 0 0
22 72 0 0 0
24 72 0 0 0
26 72 0 0 0
28 72 0 0 0
30 72 0 0 0
32 72 0 0 0
34 72 0 0 0
36 72 0 0 0
38 72 0 0 0
40 72 0 0 0
42 72 0 0 0
44 72 0 0 0
46 72 0 0 0
48 72 0 0 0
50 72 0 0 0
52 72 0 0 0
54 72 0 0 0
56 72 0 0 0
58 72 0 0 0
60 72 0 0 0
62 72 0 0 0
64 72 0 0 0
66 72 0 0 0
68 72 0 0 0
70 72 0 0 0
72 72 0 0 0
74 71 0 0 0
76 70 0 0 0
78 70 0 0 0
80 70 0 0 0
82 70 0 0 0
84 70 0 0 0
86 70 0 0 0
88 70 0 0 0
90 70 0 0 0
92 69 0 0 0
94 69 0 0 0
96 70 0 0 0
98 70 0 0 0
100 70 1 0 0
102 70 1 0 0
104 70 1 0 0
106 70 1 0 0
108 70 1 0 0
110 70 1 0 0
112 70 1 0 0
114 70 1 0 0
116 69 1 0 0
118 69 1 0 0
120 69 1 0 0
122 69 1 0 0
124 69 1 0 0
126 69 1 0 0
128 68 1 0 0
130 68 1 0 0
132 68 1 0 0
134 68 1 0 0
136 68 1 0 0
138 68 1 0 0
140 68 1 0 0
142 68 1 0 0
144 68 1 0 0
146 68 1 0 0
148 68 1 0 0
150 68 1 0 0
152 68 1 0 0
154 68 2 0 0
156 68 2 0 0
158 68 2 0 0
160 67 2 0 0
162 67 2 0 0
164 67 2 0 0
166 67 2 0 0
168 67 2 0 0
170 67 2 0 0
172 67 2 0 0
174 67 2 0 0
176 67 2 0 0
178 67 3 0 0
180 67 3 0 0
182 66 3 0 0
184 66 3 0 0
186 66 3 0 0
188 66 4 0 0
190 66 4 0 0
192 66 4 0 0
194 66 4 0 0
196 66 4 0 0
198 66 4 0 0
200 66 4 0 0
202 66 4 0 0
204 66 4 0 0
206 66 4 0 0
208 66 4 0 0
210 66 4 0 0
