0 62 0 0 0
2 62 0 0 0
4.00004 62 0 0 0
6 62 0 0 0
8 62 0 0 0
10 62 0 0 0
12 62 0 0 0
14 62 0 0 0
16 62 0 0 0
18 62 0 0 0
20 62 0 0 0
22 62 0 0 0
24 62 0 0 0
26 62 0 0 0
28 62 0 0 1
30 62 1 0 0
32 62 1 0 0
34 62 1 0 0
36 62 1 0 0
38 62 1 0 0
40 61 1 0 0
42 61 1 0 0
44 61 1 0 0
46 60 1 0 0
48 60 1 0 0
50 60 2 0 0
52 60 2 0 0
54 60 2 0 1
56 60 3 0 0
58 60 5 0 0
60 60 5 0 0
62 60 5 0 0
64 60 5 0 0
66 60 5 0 0
68 60 5 0 0
70 60 5 0 0
72 60 5 0 0
74 60 5 0 0
76 60 5 0 0
78 60 5 0 0
80 60 6 0 0
82 59 7 0 0
84 59 7 0 0
86 59 7 0 0
88 59 6 0 0
90 59 6 0 0
92 59 6 0 0
94 59 6 0 0
96 59 6 0 0
98 59 7 0 0
100 59 7 0 0
102 59 7 0 0
104 59 7 0 0
106 59 7 0 0
108 59 7 0 0
110 59 7 0 0
112 59 7 0 0
114 59 7 0 0
116 59 7 0 0
118 59 6 0 0
120 59 6 0 0
122 59 6 0 0
124 59 6 0 0
126 59 6 0 0
128 59 6 0 0
130 59 6 0 0
132 58 6 1 0
134 59 6 0 0
136 59 6 0 0
138 59 6 0 0
140 58 6 0 0
142 58 6 0 0
144 57 6 1 0
146 57 6 0 0
148 57 6 0 0
150 57 6 0 0
152 57 6 0 0
154 57 6 0 0
156 57 6 0 0
158 57 6 0 0
160 57 6 0 0
162 57 6 0 0
164 57 6 0 0
166 57 7 0 0
168 57 7 0 0
170 57 7 0 0
172 56 7 1 0
174 56 7 0 0
176 56 7 0 0
178 56 7 0 0
180 56 7 0 0
182 56 7 0 0
184 56 7 0 0
186 56 7 0 0
188 56 7 0 0
190 56 7 0 0
192 56 7 0 0
194 56 7 0 0
196 56 8 0 0
198 56 8 0 0
200 56 8 0 0
202 56 8 0 0
204 56 8 0 0
206 56 8 0 0
208 56 8 0 0
210 56 8 0 0
