0 490 0 0 0 0
2 488 0 0 4 0
4.00004 500 0 0 3 0
6 503 0 0 3 0
8 502 0 0 6 0
10 507 0 0 2 0
12 512 0 0 1 0
14 516 0 0 0 0
16 518 0 0 0 0
18 525 0 0 0 0
20 524 0 0 2 0
22 523 0 0 1 0
24 528 0 0 2 0
26 532 0 0 4 0
28 533 0 0 2 0
30 531 0 0 2 0
32 535 0 0 2 0
34 528 0 0 2 0
36 530 0 0 3 0
38 531 0 0 4 0
40 531 0 0 2 0
42 536 0 0 4 0
44 537 0 0 3 0
46 537 0 0 0 0
48 537 0 0 1 0
50 536 0 0 1 0
52 532 0 0 3 1
54 541 0 3 2 1
56 538 0 6 3 0
58 536 0 13 1 0
60 530 0 14 2 0
62 523 0 16 1 1
64 524 0 21 2 2
66 525 0 27 0 0
68 523 0 31 1 1
70 521 0 36 4 0
72 524 0 40 0 0
74 513 0 49 3 0
76 514 0 53 2 2
78 506 0 58 1 0
80 505 0 58 1 1
82 505 0 59 0 2
84 497 0 68 2 0
86 494 0 69 2 1
88 489 0 78 3 0
90 490 0 80 1 0
92 487 0 83 0 1
94 479 0 83 0 0
96 476 0 87 1 2
98 471 0 98 1 1
100 465 0 107 3 0
102 461 0 109 1 0
104 457 0 113 0 0
106 454 0 117 2 3
108 445 0 132 3 0
110 440 0 137 2 2
112 436 0 139 0 2
114 430 0 147 2 1
116 426 0 153 3 2
118 424 0 152 2 1
120 423 0 158 2 1
122 422 0 163 0 2
124 421 0 169 1 1
126 419 0 174 0 1
128 413 0 182 0 0
130 406 0 183 1 0
132 402 0 185 0 2
134 398 0 193 1 0
136 396 0 194 1 3
138 389 0 201 4 3
140 389 0 206 0 0
142 384 0 209 1 2
144 380 0 215 2 4
146 379 0 218 1 2
148 375 0 218 2 3
150 368 0 225 1 0
152 365 0 225 1 2
154 363 0 224 0 2
156 360 0 230 0 2
158 354 0 236 1 1
160 354 0 236 0 0
162 353 0 233 0 2
164 351 0 239 1 0
166 348 0 244 0 1
168 342 0 243 1 3
170 343 0 249 0 3
172 338 0 252 2 1
174 332 0 254 2 1
176 331 0 257 1 2
178 327 0 262 2 0
180 324 0 264 2 1
182 322 0 266 2 1
184 321 0 272 1 3
186 322 0 279 0 1
188 320 0 287 0 1
190 315 0 290 2 1
192 315 0 292 1 1
194 311 0 299 1 0
196 310 0 300 0 2
198 308 0 310 0 3
200 298 0 313 1 2
