0 1395 0 0 0 0
2 1393 8 0 1 0
4.00004 1390 9 0 2 0
6 1380 12 0 2 0
8 1384 8 0 2 0
10 1385 6 0 3 0
12 1380 9 0 3 0
14 1385 8 0 1 0
16 1384 7 0 3 0
18 1383 4 0 4 0
20 1381 8 0 7 0
22 1383 12 0 3 0
24 1386 8 0 0 0
26 1378 11 0 4 0
28 1377 9 0 7 0
30 1386 5 0 2 0
32 1384 6 0 1 0
34 1385 5 0 2 0
36 1386 7 0 0 0
38 1379 9 0 4 0
40 1383 5 0 2 0
42 1382 9 0 1 0
44 1384 8 0 3 0
46 1388 5 0 3 0
48 1383 3 0 6 0
50 1379 8 0 4 0
52 1207 2 180 1 0
54 1070 0 318 1 0
56 960 0 430 0 0
58 856 0 527 4 2
60 782 0 606 2 0
62 671 0 716 0 0
64 607 0 776 2 0
66 550 0 837 1 0
68 504 0 886 1 3
70 453 0 943 1 1
72 421 0 973 0 3
74 377 0 1014 2 2
76 349 1 1040 0 0
78 306 1 1082 0 3
80 285 0 1104 1 1
82 254 0 1134 2 1
84 238 0 1150 0 2
86 216 0 1171 2 1
88 201 1 1190 3 2
90 190 0 1200 0 5
92 171 0 1219 2 2
94 162 0 1229 1 0
96 149 0 1239 1 4
98 144 0 1251 1 0
100 132 0 1271 0 4
102 128 0 1279 2 5
104 117 0 1293 1 1
106 109 0 1300 0 2
108 105 0 1311 0 2
110 92 0 1323 0 0
112 93 0 1321 1 2
114 87 0 1332 0 1
116 79 0 1335 1 1
118 76 0 1347 1 0
120 70 0 1349 0 2
122 73 0 1343 0 6
124 67 0 1352 0 0
126 64 0 1357 0 1
128 62 1 1360 0 4
130 57 0 1373 0 0
132 57 0 1366 2 5
134 57 0 1365 0 2
136 51 0 1368 0 4
138 48 0 1370 0 0
140 44 0 1379 0 1
142 36 0 1384 0 0
144 36 0 1380 0 5
146 38 0 1380 0 2
148 44 0 1377 0 0
150 42 0 1373 0 3
152 37 0 1372 1 1
154 33 0 1369 0 5
156 34 0 1366 1 5
158 30 0 1369 0 2
160 27 0 1373 0 4
162 27 0 1375 0 2
164 28 0 1370 0 0
166 25 0 1374 0 1
168 24 0 1375 0 2
170 24 0 1373 0 2
172 22 0 1373 1 0
174 23 0 1371 0 3
176 29 0 1374 1 1
178 31 0 1368 0 3
180 33 0 1372 1 2
182 29 0 1370 0 2
184 28 0 1374 1 1
186 24 0 1379 1 2
188 22 0 1374 0 1
190 23 0 1373 0 2
192 25 0 1371 2 1
194 21 0 1376 0 2
196 25 0 1378 0 1
198 25 0 1377 1 2
200 25 0 1376 1 2
