0 1427 0 0 0 0
2 1415 7 0 4 0
4.00004 1412 9 0 2 0
6 1415 6 0 1 0
8 1411 9 0 2 0
10 1406 14 0 4 0
12 1421 5 0 2 0
14 1419 6 0 5 0
16 1419 4 0 2 0
18 1412 14 0 3 0
20 1422 3 0 3 0
22 1419 10 0 0 0
24 1415 15 0 1 0
26 1430 4 0 3 0
28 1420 10 0 1 0
30 1427 8 0 1 0
32 1427 9 0 4 0
34 1426 9 0 7 0
36 1441 3 0 2 0
38 1445 7 0 1 0
40 1429 8 0 2 0
42 1430 6 0 1 0
44 1427 3 0 3 0
46 1422 6 0 6 0
48 1422 7 0 3 0
50 1421 5 0 4 0
52 1257 0 171 2 0
54 1110 1 314 6 1
56 991 0 440 4 1
58 873 0 565 0 0
60 777 0 654 1 1
62 686 0 741 0 0
64 625 1 799 1 2
66 548 1 874 3 1
68 488 0 936 2 0
70 435 0 992 2 0
72 390 0 1039 2 0
74 356 0 1071 2 1
76 316 1 1109 1 1
78 289 0 1144 1 0
80 267 0 1164 2 0
82 249 0 1180 1 1
84 228 0 1201 2 3
86 207 0 1226 2 2
88 189 0 1248 2 2
90 175 0 1270 0 2
92 154 0 1289 0 3
94 145 0 1301 2 0
96 139 0 1313 1 1
98 127 0 1327 0 2
100 113 0 1341 0 1
102 100 0 1350 0 3
104 103 0 1351 0 1
106 99 0 1359 1 0
108 87 0 1364 1 3
110 81 0 1371 0 3
112 73 0 1380 0 0
114 57 1 1392 1 1
116 55 0 1390 1 4
118 56 0 1392 0 0
120 53 0 1394 3 0
122 54 0 1388 0 1
124 48 1 1388 1 2
126 47 0 1390 0 0
128 48 0 1387 1 2
130 44 0 1382 0 3
132 36 0 1389 0 2
134 38 0 1385 0 0
136 34 0 1388 0 2
138 38 0 1384 0 0
140 36 0 1380 0 2
142 35 0 1381 0 1
144 33 0 1379 0 1
146 32 0 1375 0 4
148 34 0 1373 0 3
150 37 0 1370 0 3
152 35 0 1370 0 2
154 32 1 1374 1 1
156 37 0 1370 1 4
158 34 0 1374 1 3
160 32 0 1373 1 2
162 36 0 1376 0 2
164 36 0 1376 0 1
166 30 0 1376 0 4
168 30 0 1375 0 1
170 29 0 1376 0 2
172 27 0 1382 0 0
174 25 0 1380 1 4
176 25 0 1381 0 2
178 22 0 1380 0 7
180 25 0 1384 1 2
182 28 0 1380 0 3
184 26 0 1381 0 2
186 30 0 1378 0 2
188 25 0 1377 0 5
190 25 0 1380 0 2
192 22 0 1383 1 1
194 21 0 1382 0 1
196 19 0 1379 0 2
198 13 0 1385 0 0
200 10 0 1387 0 1
