0 662 0 0 0 0
2 652 0 0 6 0
4.00004 664 0 0 5 0
6 660 0 0 6 0
8 666 0 0 2 0
10 661 0 0 5 0
12 665 0 0 6 0
14 664 0 0 4 0
16 664 0 0 4 0
18 661 0 0 7 0
20 662 0 0 5 0
22 662 0 0 2 0
24 660 0 0 5 0
26 653 0 0 5 0
28 658 0 0 0 0
30 653 0 0 4 0
32 658 0 0 3 0
34 652 0 0 4 0
36 652 0 0 4 0
38 654 0 0 1 0
40 655 0 0 2 0
42 649 0 0 5 0
44 642 0 0 7 0
46 634 0 0 4 0
48 640 0 0 4 0
50 642 0 0 5 0
52 644 0 0 3 0
54 644 0 0 3 0
56 629 0 5 6 0
58 626 0 6 2 0
60 620 0 11 3 0
62 619 0 12 0 1
64 615 0 13 3 0
66 612 0 17 2 0
68 611 0 21 0 0
70 612 0 24 0 1
72 601 0 28 1 0
74 589 0 32 5 1
76 590 0 37 3 1
78 583 0 41 3 0
80 577 0 49 4 0
82 572 0 53 2 2
84 566 0 56 4 0
86 563 0 61 2 0
88 553 0 62 3 0
90 545 0 64 1 0
92 540 0 67 1 0
94 537 0 72 3 0
96 534 0 76 2 1
98 530 0 79 1 0
100 525 0 85 2 0
102 522 0 88 1 0
104 516 0 93 5 0
106 505 0 97 5 1
108 503 0 107 1 1
110 499 0 112 2 3
112 496 0 117 3 2
114 493 0 124 1 3
116 491 0 134 0 2
118 480 0 141 3 2
120 480 0 149 2 1
122 477 0 152 4 3
124 474 0 156 4 0
126 471 0 160 2 0
128 469 0 167 1 0
130 468 0 175 0 1
132 463 0 181 2 1
134 459 0 183 3 3
136 459 0 192 0 2
138 455 0 195 0 1
140 449 0 203 3 1
142 446 0 210 3 3
144 439 0 217 4 1
146 433 0 223 4 0
148 430 0 230 1 2
150 426 0 233 1 2
152 417 0 238 6 6
154 410 0 249 6 0
156 408 0 256 1 1
158 405 0 252 1 3
160 399 0 264 2 2
162 397 0 264 3 3
164 396 0 268 2 1
166 394 0 271 0 0
168 388 0 272 1 3
170 385 0 278 1 0
172 381 0 280 1 2
174 378 0 284 3 0
176 374 0 284 5 0
178 366 0 285 4 3
180 365 0 288 0 3
182 357 0 295 2 5
184 352 0 301 1 3
186 350 0 302 0 3
188 350 0 304 0 3
190 344 0 311 2 2
192 339 0 312 5 2
194 337 0 313 2 2
196 333 0 317 1 2
198 326 0 321 2 1
200 323 0 325 3 2
