0 544 0 0 0 0
2 547 0 0 5 0
4.00004 550 0 0 1 0
6 549 0 0 0 0
8 553 0 0 2 0
10 553 0 0 3 0
12 550 0 0 1 0
14 550 0 0 1 0
16 555 0 0 2 0
18 555 0 0 5 0
20 549 0 0 5 0
22 551 0 0 2 0
24 545 0 0 3 0
26 543 0 0 4 0
28 542 0 0 0 0
30 544 0 0 2 0
32 540 0 0 4 0
34 530 0 0 3 0
36 530 0 0 2 0
38 534 0 0 2 0
40 536 0 0 3 0
42 532 0 0 2 0
44 528 0 0 6 0
46 531 0 0 5 0
48 531 0 0 5 0
50 536 0 0 2 0
52 535 0 0 2 0
54 541 0 0 1 1
56 538 0 5 2 0
58 538 0 6 2 0
60 530 0 13 1 0
62 524 0 15 3 0
64 518 0 17 0 0
66 515 0 20 3 0
68 508 0 27 2 0
70 508 0 37 0 0
72 510 0 42 2 1
74 503 0 44 1 2
76 497 0 52 1 1
78 490 0 58 1 0
80 485 0 59 2 2
82 481 0 67 1 1
84 475 0 70 2 2
86 472 0 81 3 1
88 464 0 89 1 1
90 458 0 95 1 0
92 452 0 98 2 2
94 440 0 110 3 1
96 440 0 114 0 1
98 433 0 115 2 2
100 430 0 120 2 0
102 421 0 127 2 1
104 422 0 133 0 0
106 415 0 138 1 1
108 412 0 140 0 2
110 400 0 138 4 3
112 402 0 142 0 2
114 396 0 152 2 1
116 391 0 156 3 4
118 380 0 160 5 1
120 378 0 167 0 1
122 375 0 173 0 0
124 373 0 176 0 2
126 364 0 183 3 1
128 360 0 187 3 2
130 357 0 193 2 1
132 349 0 199 3 0
134 345 0 211 3 1
136 343 0 213 1 1
138 336 0 219 3 1
140 331 0 218 2 3
142 330 0 222 1 2
144 329 0 225 1 2
146 324 0 227 3 1
148 318 0 235 2 0
150 313 0 238 3 1
152 308 0 240 2 0
154 303 0 242 1 1
156 294 0 243 2 1
158 289 0 247 1 1
160 283 0 247 0 1
162 278 0 245 1 1
164 275 0 249 1 2
166 273 0 247 1 3
168 269 0 253 0 0
170 264 0 257 1 0
172 261 0 265 1 0
174 258 0 264 0 2
176 255 0 265 0 1
178 253 0 277 0 0
180 252 0 276 0 2
182 249 0 275 1 1
184 246 0 281 1 3
186 241 0 283 2 0
188 238 0 286 0 0
190 230 0 284 2 1
192 230 0 289 1 2
194 228 0 291 0 3
196 226 0 299 0 1
198 220 0 305 1 2
200 218 0 309 0 1
