0 505 0 0 0 0
2 495 0 0 3 0
4.00004 498 0 0 1 0
6 506 0 0 0 0
8 504 0 0 2 0
10 506 0 0 0 0
12 502 0 0 6 0
14 505 0 0 1 0
16 506 0 0 0 0
18 508 0 0 1 0
20 501 0 0 3 0
22 501 0 0 1 0
24 503 0 0 3 0
26 505 0 0 2 0
28 506 0 0 1 0
30 504 0 0 3 0
32 505 0 0 4 0
34 506 0 0 2 0
36 503 0 0 4 0
38 506 0 0 2 0
40 507 0 0 3 0
42 507 0 0 1 0
44 503 0 0 2 0
46 497 0 0 7 0
48 503 0 0 5 0
50 509 0 0 0 0
52 504 0 0 6 0
54 508 0 0 2 1
56 507 0 1 2 0
58 505 0 5 1 0
60 498 0 8 4 0
62 496 0 13 4 0
64 493 0 16 5 1
66 491 0 19 2 0
68 483 0 21 2 0
70 478 0 23 1 0
72 475 0 25 3 0
74 475 0 29 1 0
76 475 0 33 1 1
78 468 0 36 3 1
80 461 0 45 3 0
82 459 0 50 0 0
84 452 0 55 3 0
86 446 0 62 1 1
88 437 0 65 1 0
90 435 0 69 1 0
92 431 0 71 2 2
94 428 0 78 1 1
96 420 0 83 4 0
98 413 0 90 1 0
100 402 0 86 3 2
102 396 0 87 2 1
104 387 0 98 3 0
106 384 0 99 2 4
108 375 0 103 3 1
110 375 0 107 1 2
112 369 0 112 1 1
114 368 0 112 0 0
116 364 0 116 0 4
118 357 0 118 0 1
120 354 0 122 1 2
122 351 0 127 0 0
124 347 0 131 2 1
126 343 0 133 0 2
128 335 0 132 5 1
130 335 0 133 0 2
132 329 0 139 1 1
134 328 0 144 0 4
136 325 0 149 1 2
138 324 0 156 1 1
140 320 0 156 0 0
142 318 0 160 1 1
144 315 0 163 1 0
146 308 0 169 3 0
148 304 0 174 0 1
150 304 0 176 0 2
152 301 0 185 1 2
154 300 0 189 1 3
156 297 0 194 1 2
158 296 0 200 2 1
160 295 0 200 0 1
162 290 0 204 0 2
164 287 0 213 1 1
166 285 0 212 0 3
168 280 0 216 3 0
170 279 0 220 0 2
172 275 0 226 1 2
174 270 0 228 1 4
176 263 0 231 0 1
178 257 0 233 4 4
180 253 0 234 2 3
182 254 0 242 0 3
184 249 0 244 1 2
186 247 0 244 1 2
188 245 0 254 2 2
190 240 0 256 4 2
192 239 0 259 0 3
194 236 0 264 1 0
196 232 0 264 0 0
198 229 0 263 1 2
200 229 0 265 0 2
