0 99 0 0 0 101
2 99 0 1 0 96
4.00004 94 0 6 0 99
6 97 0 3 0 111
8 97 0 3 0 103
10 99 0 1 0 103
12 86 13 1 0 95
14 76 23 1 0 99
16 68 30 2 0 97
18 66 33 1 0 88
20 62 38 0 0 105
22 56 44 0 0 105
24 50 49 0 1 96
26 47 52 0 1 101
28 44 56 0 0 91
30 43 56 0 1 90
32 38 61 1 0 99
34 36 63 0 1 112
36 34 65 0 1 98
38 31 67 0 2 101
40 25 71 2 2 104
42 24 69 1 6 92
44 22 77 1 0 100
46 18 80 0 2 103
48 17 80 1 2 88
50 16 81 2 1 88
52 17 83 0 0 94
54 15 83 0 2 86
56 15 83 0 2 109
58 15 83 0 2 109
60 13 87 0 0 107
62 12 87 0 1 106
64 12 86 0 2 98
66 11 89 0 0 90
68 10 88 0 2 107
70 9 90 1 0 95
72 8 91 0 1 98
74 8 89 0 3 101
76 8 92 0 0 103
78 8 90 0 2 99
80 8 92 0 0 105
82 6 93 1 0 100
84 7 92 0 1 114
86 5 90 1 4 109
88 5 94 0 1 101
90 4 95 0 1 98
92 4 95 0 1 92
94 2 95 0 3 85
96 1 97 0 2 96
98 1 98 0 1 105
100 1 97 0 2 95
102 0 98 0 2 111
104 0 96 0 4 101
106 0 98 0 2 94
108 0 97 0 3 113
110 0 99 0 1 100
112 0 98 0 2 99
114 0 98 0 2 103
116 0 98 0 2 93
118 0 100 0 0 96
120 0 98 0 2 107
122 0 100 0 0 106
124 0 99 0 1 107
126 0 95 0 5 92
128 0 98 0 2 102
130 0 98 0 2 90
132 0 95 0 5 100
134 0 96 0 4 90
136 0 98 0 2 100
138 0 96 0 4 100
140 0 97 0 3 103
142 0 98 0 2 93
144 0 97 0 3 102
146 0 95 0 5 108
148 0 97 0 3 101
150 0 100 0 0 83
152 0 97 0 3 97
154 0 99 0 1 92
156 0 99 0 1 100
158 0 97 0 3 95
160 0 98 0 2 87
162 0 98 0 2 108
164 0 98 0 2 105
166 0 100 0 0 96
168 0 97 0 3 112
170 0 96 0 4 100
172 0 98 0 2 106
174 0 100 0 0 98
176 0 97 0 3 95
178 0 98 0 2 83
180 0 99 0 1 114
182 0 97 0 3 100
184 0 99 0 1 98
186 0 98 0 2 83
188 0 99 0 1 109
190 0 97 0 3 94
192 0 99 0 1 101
194 0 99 0 1 106
196 0 100 0 0 93
198 0 98 0 2 116
200 0 98 0 2 111
202 0 96 0 4 106
204 0 97 0 3 104
206 0 98 0 2 100
208 0 96 0 4 100
210 0 94 0 6 96
