0 127 0 0 0 94
2 126 0 0 0 112
4.00004 123 0 3 0 95
6 123 0 3 0 93
8 124 0 2 0 103
10 125 0 1 0 88
12 111 12 3 0 105
14 104 21 1 0 108
16 94 29 2 1 94
18 85 36 5 0 111
20 85 38 1 2 95
22 77 47 2 0 100
24 73 52 1 0 98
26 70 55 0 1 97
28 65 58 1 2 105
30 60 65 0 1 101
32 55 71 0 0 95
34 47 77 1 1 93
36 46 80 0 0 101
38 40 84 0 2 104
40 36 90 0 0 92
42 32 93 0 1 105
44 30 96 0 0 114
46 27 97 1 1 102
48 25 101 0 0 102
50 21 103 1 1 100
52 19 105 1 1 100
54 18 106 0 2 99
56 14 110 1 1 96
58 14 112 0 0 94
60 13 109 1 3 106
62 12 108 2 4 99
64 13 109 0 4 99
66 12 114 0 0 94
68 9 114 1 2 93
70 9 114 0 3 105
72 9 115 0 2 100
74 6 118 1 1 89
76 6 118 1 1 97
78 6 120 0 0 102
80 6 120 0 0 101
82 5 118 0 3 111
84 4 117 1 4 99
86 5 116 0 5 100
88 5 118 0 3 103
90 3 120 0 3 100
92 3 117 0 6 89
94 2 124 0 0 97
96 2 121 0 3 91
98 2 118 0 6 103
100 2 121 0 3 101
102 2 120 0 4 104
104 2 124 0 0 107
106 2 121 0 3 99
108 2 121 0 3 97
110 2 122 0 2 104
112 2 120 0 4 111
114 2 123 0 1 107
116 2 121 0 3 92
118 2 123 0 1 107
120 2 122 0 2 103
122 1 123 0 2 98
124 1 124 0 1 88
126 1 124 0 1 104
128 1 124 0 1 109
130 1 120 0 5 110
132 1 121 0 4 95
134 1 120 0 5 103
136 1 120 0 5 100
138 1 121 0 4 101
140 1 124 0 1 98
142 1 124 0 1 91
144 1 123 0 2 91
146 1 123 0 2 108
148 1 121 0 4 96
150 1 123 0 2 100
152 1 123 0 2 87
154 0 125 0 1 105
156 0 124 0 2 86
158 0 125 0 1 98
160 0 124 0 2 104
162 0 124 0 2 93
164 0 122 0 4 93
166 0 123 0 3 94
168 0 123 0 3 103
170 0 124 0 2 86
172 0 121 0 5 111
174 0 122 0 4 105
176 0 119 0 7 80
178 0 123 0 3 84
180 0 125 0 1 98
182 0 120 0 6 99
184 0 122 0 4 104
186 0 120 0 6 90
188 0 121 0 5 109
190 0 125 0 1 104
192 0 120 0 6 96
194 0 122 0 4 78
196 0 124 0 2 91
198 0 123 0 3 100
200 0 123 0 3 110
202 0 124 0 2 101
204 0 125 0 1 105
206 0 125 0 1 104
208 0 125 0 1 108
210 0 125 0 1 115
