0 116 0 0 0 101
2 116 0 2 0 100
4.00004 117 0 1 0 95
6 116 0 2 0 98
8 117 0 1 0 100
10 117 0 1 0 116
12 103 12 3 0 109
14 99 16 3 0 114
16 93 22 3 0 103
18 89 26 3 0 119
20 82 32 2 2 84
22 80 36 2 0 108
24 77 39 0 2 111
26 67 51 0 0 97
28 65 52 0 1 117
30 58 58 2 0 105
32 54 61 2 1 102
34 52 66 0 0 112
36 50 68 0 0 87
38 41 76 1 0 107
40 37 78 0 3 103
42 35 82 0 1 99
44 29 89 0 0 115
46 28 89 0 1 88
48 26 91 0 1 115
50 23 94 0 1 102
52 22 94 1 1 104
54 22 94 0 2 84
56 19 98 0 1 104
58 19 98 0 1 101
60 15 102 1 0 94
62 15 103 0 0 99
64 13 101 2 2 102
66 13 105 0 0 88
68 10 106 0 2 110
70 8 107 1 2 89
72 9 106 0 3 96
74 8 108 1 1 102
76 9 108 0 1 94
78 8 109 0 1 96
80 6 110 1 1 103
82 7 109 0 2 92
84 7 111 0 0 99
86 6 112 0 0 96
88 6 110 0 2 97
90 4 113 1 0 101
92 5 111 0 2 111
94 5 113 0 0 106
96 5 110 0 3 110
98 5 112 0 1 105
100 4 113 0 1 99
102 4 113 0 1 104
104 4 114 0 0 97
106 4 112 0 2 103
108 3 111 1 3 96
110 3 114 0 1 105
112 3 114 0 1 104
114 3 113 0 2 100
116 3 115 0 0 102
118 3 114 0 1 102
120 3 114 0 1 91
122 3 114 0 1 97
124 2 115 0 1 103
126 2 115 0 1 111
128 2 114 0 2 95
130 2 115 0 1 86
132 2 115 0 1 97
134 2 113 0 3 100
136 2 113 0 3 106
138 2 111 0 5 99
140 2 115 0 1 81
142 2 114 0 2 105
144 1 114 1 2 104
146 2 114 0 2 103
148 2 114 0 2 100
150 2 115 0 1 103
152 2 115 0 1 94
154 2 115 0 1 92
156 2 113 0 3 92
158 2 115 0 1 109
160 2 114 0 2 109
162 1 113 0 4 98
164 1 114 0 3 108
166 1 115 0 2 104
168 0 116 0 2 99
170 0 117 0 1 106
172 0 117 0 1 107
174 0 117 0 1 99
176 0 117 0 1 106
178 0 116 0 2 100
180 0 115 0 3 103
182 0 116 0 2 99
184 0 115 0 3 107
186 0 116 0 2 100
188 0 117 0 1 87
190 0 118 0 0 102
192 0 117 0 1 103
194 0 116 0 2 97
196 0 118 0 0 109
198 0 116 0 2 106
200 0 115 0 3 75
202 0 115 0 3 110
204 0 116 0 2 98
206 0 117 0 1 99
208 0 116 0 2 95
210 0 115 0 3 110
