0 51 0 0 0 99
2 46 0 4 0 104
4.00004 45 0 5 0 101
6 49 0 1 0 89
8 45 0 5 0 97
10 48 0 2 0 97
12 47 0 3 0 105
14 50 0 0 0 101
16 42 0 8 0 103
18 47 0 3 0 112
20 45 0 5 0 95
22 47 0 3 0 95
24 46 0 4 0 104
26 49 0 1 0 99
28 46 0 4 0 109
30 48 0 2 0 110
32 46 0 4 0 101
34 46 0 4 0 88
36 48 0 2 0 102
38 43 0 7 0 99
40 48 0 2 0 96
42 48 0 2 0 108
44 50 0 0 0 100
46 46 0 4 0 97
48 49 0 1 0 112
50 46 0 4 0 112
52 46 0 4 0 106
54 45 0 5 0 114
56 46 0 4 0 91
58 47 0 3 0 91
60 48 0 2 0 93
62 47 0 3 0 94
64 48 0 2 0 102
66 44 0 6 0 110
68 46 0 4 0 93
70 46 0 4 0 105
72 46 0 4 0 102
74 47 0 3 0 99
76 43 0 7 0 97
78 49 0 1 0 101
80 48 0 2 0 95
82 48 0 2 0 100
84 49 0 1 0 86
86 44 0 6 0 91
88 46 0 4 0 99
90 48 0 2 0 102
92 46 0 4 0 108
94 47 0 3 0 115
96 46 0 4 0 104
98 47 0 3 0 95
100 45 0 5 0 105
102 45 0 5 0 89
104 45 0 5 0 99
106 47 0 3 0 106
108 45 0 5 0 87
110 46 0 4 0 100
112 45 0 5 0 101
114 45 0 5 0 97
116 44 0 6 0 107
118 46 0 4 0 104
120 45 0 5 0 93
122 47 0 3 0 94
124 48 0 2 0 93
126 48 0 2 0 108
128 46 0 4 0 98
130 47 0 3 0 110
132 46 0 4 0 100
134 46 0 4 0 110
136 48 0 2 0 100
138 48 0 2 0 100
140 48 0 2 0 97
142 49 0 1 0 107
144 48 0 2 0 98
146 48 0 2 0 92
148 47 0 3 0 99
150 48 0 2 0 117
152 48 0 2 0 103
154 48 0 2 0 108
156 48 0 2 0 100
158 46 0 4 0 105
160 49 0 1 0 113
162 50 0 0 0 92
164 49 0 1 0 95
166 48 0 2 0 104
168 47 0 3 0 88
170 45 0 5 0 100
172 47 0 3 0 94
174 46 0 4 0 102
176 48 0 2 0 105
178 49 0 1 0 117
180 47 0 3 0 86
182 50 0 0 0 100
184 50 0 0 0 102
186 44 0 6 0 117
188 47 0 3 0 91
190 47 0 3 0 106
192 47 0 3 0 99
194 47 0 3 0 94
196 46 0 4 0 107
198 50 0 0 0 84
200 49 0 1 0 89
202 49 0 1 0 94
204 47 0 3 0 96
206 48 0 2 0 100
208 49 0 1 0 100
210 48 0 2 0 104
