0 43 0 0 0 113
2 37 0 5 0 106
4.00004 39 0 3 0 101
6 40 0 2 0 101
8 37 0 5 0 109
10 41 0 1 0 101
12 39 0 3 0 95
14 39 0 3 0 103
16 42 0 0 0 106
18 39 0 4 0 98
20 38 0 5 0 103
22 38 0 5 0 96
24 38 0 5 0 106
26 42 0 1 0 87
28 39 0 4 0 103
30 40 0 3 0 96
32 40 0 3 0 88
34 41 0 2 0 107
36 37 0 6 0 99
38 39 0 4 0 102
40 41 0 2 0 100
42 39 0 4 0 88
44 38 0 5 0 86
46 37 0 6 0 82
48 41 0 2 0 96
50 43 0 0 0 93
52 41 0 2 0 93
54 42 0 1 0 105
56 39 0 4 0 108
58 40 0 3 0 95
60 42 0 1 0 91
62 42 0 1 0 81
64 39 0 4 0 95
66 39 0 4 0 120
68 41 0 2 0 99
70 40 0 3 0 87
72 40 0 3 0 107
74 38 0 5 0 102
76 39 0 4 0 96
78 40 0 3 0 99
80 40 0 3 0 105
82 40 0 3 0 107
84 40 0 3 0 98
86 40 1 3 0 95
88 43 1 0 0 108
90 40 1 3 0 100
92 38 1 5 0 93
94 41 1 2 0 108
96 42 1 1 0 92
98 40 1 3 0 104
100 40 1 3 0 91
102 40 1 3 0 114
104 38 1 5 0 102
106 40 1 3 0 100
108 42 1 1 0 104
110 40 1 3 0 100
112 39 1 4 0 91
114 38 1 5 0 99
116 36 1 7 0 94
118 35 1 8 0 104
120 41 1 2 0 99
122 41 0 2 1 107
124 39 1 4 0 107
126 42 1 1 0 101
128 42 1 1 0 105
130 39 1 4 0 93
132 41 1 2 0 95
134 41 1 2 0 102
136 41 1 2 0 100
138 41 1 2 0 104
140 41 1 2 0 93
142 37 1 6 0 104
144 42 1 1 0 105
146 40 1 3 0 97
148 39 1 4 0 95
150 43 0 0 1 101
152 40 1 3 0 103
154 41 1 2 0 101
156 41 1 2 0 98
158 40 1 3 0 110
160 40 1 3 0 89
162 42 1 1 0 94
164 40 1 3 0 108
166 39 1 4 0 111
168 43 1 0 0 96
170 42 1 1 0 105
172 42 1 1 0 105
174 41 1 2 0 99
176 38 1 5 0 110
178 39 1 4 0 84
180 40 1 3 0 95
182 41 1 2 0 104
184 38 1 5 0 102
186 42 1 1 0 104
188 42 0 1 1 90
190 42 1 1 0 101
192 41 1 2 0 107
194 39 1 4 0 103
196 43 0 0 1 112
198 37 0 6 1 98
200 38 1 5 0 91
202 41 1 2 0 103
204 40 1 3 0 102
206 41 1 2 0 83
208 39 0 4 1 104
210 43 1 0 0 108
