0 38 0 0 0 97
2 34 0 3 0 90
4.00004 35 0 2 0 110
6 35 0 2 0 99
8 37 0 0 0 93
10 34 0 3 0 96
12 36 0 1 0 99
14 35 0 2 0 97
16 36 0 1 0 98
18 35 0 2 0 96
20 37 0 0 0 94
22 36 0 1 0 99
24 34 0 3 0 101
26 37 0 0 0 94
28 36 0 1 0 114
30 37 0 1 0 103
32 37 0 1 0 110
34 35 0 3 0 97
36 36 0 2 0 97
38 35 0 3 0 88
40 33 0 5 0 107
42 34 0 4 0 110
44 38 0 0 0 89
46 36 0 2 0 100
48 35 0 3 0 106
50 36 0 2 0 98
52 37 0 1 0 106
54 35 0 3 0 81
56 38 0 0 0 99
58 37 0 1 0 99
60 35 0 3 0 104
62 33 0 5 0 98
64 33 0 5 0 97
66 35 0 3 0 105
68 32 0 6 0 99
70 38 0 0 0 102
72 34 0 4 0 105
74 37 0 1 0 96
76 35 0 3 0 97
78 35 0 3 0 97
80 36 0 2 0 103
82 36 0 2 0 108
84 37 0 1 0 97
86 36 0 2 0 107
88 34 0 4 0 100
90 34 0 4 0 102
92 37 0 1 0 95
94 37 0 1 0 94
96 36 0 2 0 97
98 35 0 3 0 104
100 34 0 4 0 98
102 35 0 3 0 100
104 37 0 1 0 105
106 35 0 3 0 95
108 34 0 4 0 98
110 36 0 2 0 95
112 38 0 0 0 99
114 35 0 3 0 93
116 34 0 4 0 102
118 35 0 3 0 99
120 35 0 3 0 92
122 36 0 2 0 116
124 37 0 1 0 108
126 35 0 3 0 101
128 35 0 3 0 108
130 37 0 1 0 95
132 38 0 0 0 88
134 35 1 3 0 103
136 37 1 1 0 88
138 37 0 1 1 102
140 36 1 2 0 126
142 37 1 1 0 103
144 37 1 1 0 100
146 37 1 1 0 101
148 38 0 0 1 131
150 34 1 4 0 91
152 38 1 0 0 94
154 37 1 1 0 103
156 37 1 1 0 97
158 37 1 1 0 92
160 35 1 3 0 106
162 36 1 2 0 91
164 37 1 1 0 105
166 37 1 1 0 91
168 37 1 1 0 108
170 37 1 1 0 88
172 36 1 2 0 101
174 36 1 2 0 99
176 36 1 2 0 107
178 35 1 3 0 93
180 36 1 2 0 94
182 34 1 4 0 102
184 37 1 1 0 109
186 35 1 3 0 93
188 37 1 1 0 126
190 36 1 2 0 91
192 35 1 3 0 95
194 32 1 6 0 96
196 36 1 2 0 101
198 37 0 1 1 88
200 36 1 2 0 85
202 37 1 1 0 103
204 37 1 1 0 100
206 34 1 4 0 106
208 35 1 3 0 99
210 35 1 3 0 90
