0 1289 0 0 0 0 914
2 1251 4 0 15 0 914
4.00004 1253 9 0 11 0 914
6 1249 4 0 20 0 914
8 1241 9 0 18 0 914
10 1226 13 0 14 0 914
12 1233 12 0 14 0 914
14 1214 8 0 19 0 914
16 1204 3 0 17 0 914
18 1191 7 0 16 0 914
20 1197 5 0 15 0 914
22 1176 9 0 12 0 914
24 1176 7 0 24 0 914
26 1170 12 0 24 0 914
28 1176 6 0 23 0 914
30 1190 4 0 11 0 914
32 1165 12 0 17 0 914
34 1166 4 0 22 0 914
36 1186 7 0 19 0 914
38 1175 9 0 19 0 914
40 1156 11 0 21 0 914
42 1169 8 0 22 0 914
44 1187 3 0 16 0 914
46 1198 10 0 22 0 914
48 1204 5 0 23 0 914
50 1182 9 0 19 0 914
52 1012 1 179 19 1 914
54 915 1 283 8 0 914
56 805 0 386 14 6 914
58 721 0 462 14 2 914
60 651 0 522 12 6 914
62 590 0 576 12 5 914
64 544 0 631 12 3 914
66 492 0 684 11 12 914
68 445 0 748 5 6 914
70 398 1 768 11 15 914
72 358 0 803 11 4 914
74 319 1 831 4 11 914
76 303 0 851 8 10 914
78 280 1 883 5 11 914
80 265 0 910 6 15 914
82 250 1 939 5 11 914
84 235 0 952 1 10 914
86 225 1 961 7 17 914
88 223 0 965 6 7 914
90 214 0 972 7 9 914
92 206 0 974 8 11 914
94 199 0 985 4 10 914
96 191 0 997 4 13 914
98 181 0 1008 11 12 914
100 173 0 1010 6 14 914
102 163 0 1032 5 13 914
104 168 0 1033 2 14 914
106 155 0 1044 6 11 914
108 158 0 1031 3 12 914
110 147 0 1022 4 16 914
112 135 0 1032 2 12 914
114 138 0 1029 3 21 914
116 144 0 1048 1 15 914
118 135 0 1044 3 19 914
120 119 0 1058 3 14 914
122 105 0 1077 3 13 914
124 99 0 1096 4 13 914
126 94 0 1102 3 15 914
128 86 0 1102 3 14 914
130 89 0 1100 3 13 914
132 85 0 1097 2 17 914
134 82 0 1110 1 13 914
136 82 0 1119 1 12 914
138 79 1 1119 2 25 914
140 73 0 1130 4 18 914
142 81 0 1124 2 12 914
144 75 0 1120 3 13 914
146 70 0 1119 1 17 914
148 64 0 1122 1 16 914
150 64 0 1133 0 15 914
152 55 0 1139 0 19 914
154 53 0 1128 0 18 914
156 45 0 1137 3 15 914
158 43 0 1147 1 14 914
160 43 0 1162 3 10 914
162 44 0 1155 1 14 914
164 45 0 1151 3 10 914
166 42 0 1174 1 11 914
168 37 0 1168 3 10 914
170 35 0 1158 4 13 914
172 32 0 1149 0 16 914
174 34 0 1143 0 21 914
176 35 0 1138 3 19 914
178 30 0 1139 1 15 914
180 29 0 1134 0 15 914
182 24 0 1150 0 17 914
184 21 0 1148 0 18 914
186 23 0 1145 0 24 914
188 26 0 1162 1 15 914
190 24 0 1143 1 10 914
192 22 0 1139 2 16 914
194 25 0 1135 1 17 914
196 22 0 1131 0 18 914
198 16 0 1143 0 17 914
200 16 0 1147 2 16 914
