0 1613 0 0 0 0 905
2 1591 6 0 19 0 905
4.00004 1604 7 0 22 0 905
6 1623 9 0 21 0 905
8 1634 12 0 17 0 905
10 1653 7 0 18 0 905
12 1646 15 0 17 0 905
14 1640 5 0 21 0 905
16 1654 13 0 14 0 905
18 1655 13 0 16 0 905
20 1656 8 0 20 0 905
22 1649 8 0 28 0 905
24 1666 6 0 21 0 905
26 1672 11 0 25 0 905
28 1683 9 0 17 0 905
30 1682 6 0 20 0 905
32 1676 8 0 29 0 905
34 1680 10 0 22 0 905
36 1705 7 0 9 0 905
38 1701 10 0 14 0 905
40 1681 12 0 18 0 905
42 1678 12 0 21 0 905
44 1699 6 0 13 0 905
46 1696 12 0 26 0 905
48 1697 9 0 17 0 905
50 1699 8 0 20 0 905
52 1470 0 212 29 1 905
54 1332 0 355 10 2 905
56 1205 0 485 12 3 905
58 1079 0 603 15 6 905
60 979 1 708 12 11 905
62 895 0 803 17 5 905
64 813 1 892 10 7 905
66 751 0 961 11 7 905
68 686 0 1027 7 12 905
70 625 0 1108 12 6 905
72 570 0 1150 10 13 905
74 529 1 1184 10 14 905
76 485 0 1226 5 13 905
78 437 0 1271 5 15 905
80 378 0 1332 3 20 905
82 335 1 1370 6 15 905
84 307 0 1404 8 17 905
86 283 0 1442 5 10 905
88 258 0 1467 6 7 905
90 235 0 1480 5 15 905
92 215 0 1509 2 14 905
94 194 0 1530 8 12 905
96 177 0 1542 4 13 905
98 156 0 1554 4 16 905
100 145 0 1568 3 13 905
102 137 0 1570 1 21 905
104 128 0 1582 4 18 905
106 117 0 1599 1 13 905
108 106 0 1612 1 13 905
110 96 0 1600 0 21 905
112 87 0 1627 1 12 905
114 81 0 1631 1 14 905
116 73 0 1637 1 19 905
118 65 0 1633 1 21 905
120 62 0 1631 1 17 905
122 57 0 1633 1 19 905
124 51 0 1645 0 20 905
126 51 0 1645 1 16 905
128 40 0 1659 1 16 905
130 41 0 1664 1 16 905
132 36 0 1669 0 18 905
134 33 0 1679 0 17 905
136 30 0 1688 1 19 905
138 27 0 1680 2 18 905
140 28 0 1686 0 20 905
142 28 0 1686 0 23 905
144 21 1 1692 0 22 905
146 20 0 1688 0 21 905
148 23 0 1681 0 20 905
150 20 0 1693 0 12 905
152 19 0 1685 0 16 905
154 16 0 1687 1 18 905
156 15 0 1665 0 19 905
158 14 0 1645 0 36 905
160 12 0 1660 1 20 905
162 12 0 1672 0 17 905
164 12 0 1671 0 16 905
166 11 0 1658 0 28 905
168 10 0 1679 0 14 905
170 9 0 1687 0 15 905
172 11 0 1686 0 15 905
174 8 0 1676 0 23 905
176 7 0 1681 0 21 905
178 7 0 1682 0 12 905
180 7 0 1662 1 25 905
182 8 0 1670 0 16 905
184 6 0 1666 1 24 905
186 7 0 1680 0 26 905
188 7 0 1683 0 22 905
190 6 0 1690 0 21 905
192 5 0 1702 1 22 905
194 5 0 1707 0 19 905
196 5 0 1688 0 25 905
198 4 0 1688 0 22 905
200 4 0 1692 0 19 905
