0 1540 0 0 0 0 888
2 1494 11 0 16 0 888
4.00004 1496 8 0 11 0 888
6 1463 11 0 18 0 888
8 1453 10 0 12 0 888
10 1443 7 0 17 0 888
12 1443 6 0 19 0 888
14 1434 5 0 10 0 888
16 1414 6 0 11 0 888
18 1401 5 0 14 0 888
20 1389 3 0 17 0 888
22 1381 7 0 21 0 888
24 1391 9 0 18 0 888
26 1398 4 0 23 0 888
28 1392 11 0 30 0 888
30 1408 9 0 18 0 888
32 1418 2 0 19 0 888
34 1429 4 0 15 0 888
36 1417 8 0 18 0 888
38 1414 7 0 21 0 888
40 1422 7 0 14 0 888
42 1417 7 0 21 0 888
44 1404 8 0 9 0 888
46 1395 17 0 13 0 888
48 1401 9 0 10 0 888
50 1411 3 0 23 0 888
52 1245 0 174 9 0 888
54 1108 1 303 17 4 888
56 1008 2 417 15 1 888
58 905 1 511 17 4 888
60 823 0 595 19 4 888
62 735 0 662 18 3 888
64 699 0 720 8 6 888
66 643 0 761 11 6 888
68 593 0 809 13 9 888
70 545 0 835 9 13 888
72 508 0 865 11 5 888
74 457 0 901 15 13 888
76 442 0 937 6 2 888
78 412 0 963 10 10 888
80 393 0 987 6 7 888
82 369 0 1024 4 11 888
84 339 0 1034 7 17 888
86 305 0 1084 8 5 888
88 279 0 1105 6 15 888
90 258 0 1129 4 12 888
92 234 0 1138 1 11 888
94 214 0 1158 6 6 888
96 194 0 1158 5 15 888
98 198 0 1166 6 13 888
100 185 0 1169 5 15 888
102 165 0 1191 7 17 888
104 172 0 1174 2 21 888
106 172 0 1192 5 13 888
108 163 0 1182 7 17 888
110 156 0 1202 4 16 888
112 157 0 1199 3 10 888
114 154 0 1202 5 13 888
116 140 0 1210 3 13 888
118 137 0 1206 3 24 888
120 131 0 1218 4 12 888
122 117 0 1241 4 13 888
124 105 0 1245 3 21 888
126 92 0 1260 1 17 888
128 87 0 1267 0 13 888
130 87 0 1277 1 12 888
132 86 0 1273 1 20 888
134 77 0 1282 3 13 888
136 72 0 1264 3 18 888
138 68 0 1263 1 19 888
140 68 0 1279 3 14 888
142 68 0 1286 0 20 888
144 68 0 1288 1 15 888
146 71 0 1291 2 13 888
148 68 0 1276 2 15 888
150 62 0 1270 1 12 888
152 59 0 1272 1 14 888
154 59 0 1278 1 15 888
156 59 0 1284 1 16 888
158 52 0 1289 1 21 888
160 46 1 1289 0 22 888
162 42 0 1301 2 16 888
164 43 0 1300 1 19 888
166 37 0 1318 1 13 888
168 32 0 1325 2 21 888
170 29 0 1341 0 11 888
172 22 0 1349 0 13 888
174 28 0 1346 0 19 888
176 26 0 1351 0 16 888
178 24 0 1345 1 19 888
180 21 0 1351 2 14 888
182 23 0 1359 0 20 888
184 23 0 1359 1 13 888
186 22 0 1369 1 10 888
188 20 0 1363 1 9 888
190 17 0 1360 1 23 888
192 19 0 1358 0 21 888
194 14 0 1350 0 27 888
196 13 0 1352 0 21 888
198 12 0 1340 0 17 888
200 11 0 1331 0 21 888
