0 1404 0 0 0 0 901
2 1384 3 0 15 0 901
4.00004 1389 7 0 15 0 901
6 1377 13 0 21 0 901
8 1389 7 0 11 0 901
10 1371 9 0 17 0 901
12 1360 10 0 13 0 901
14 1368 5 0 23 0 901
16 1371 6 0 13 0 901
18 1373 10 0 20 0 901
20 1371 4 0 8 0 901
22 1387 9 0 15 0 901
24 1393 8 0 13 0 901
26 1397 9 0 14 0 901
28 1396 5 0 12 0 901
30 1411 4 0 8 0 901
32 1394 8 0 15 0 901
34 1399 12 0 12 0 901
36 1388 10 0 12 0 901
38 1365 11 0 18 0 901
40 1374 12 0 13 0 901
42 1385 7 0 13 0 901
44 1403 9 0 14 0 901
46 1393 15 0 12 0 901
48 1403 9 0 9 0 901
50 1390 7 0 19 0 901
52 1173 0 223 18 0 901
54 1026 0 360 14 2 901
56 919 0 468 10 2 901
58 805 4 571 13 6 901
60 739 1 659 10 5 901
62 675 0 728 10 6 901
64 606 0 788 6 7 901
66 557 0 836 8 3 901
68 505 0 887 7 5 901
70 452 0 941 6 6 901
72 417 0 977 5 12 901
74 377 0 1010 11 12 901
76 350 0 1043 7 8 901
78 322 0 1072 6 11 901
80 296 0 1102 7 10 901
82 276 0 1128 7 6 901
84 268 0 1144 6 9 901
86 244 0 1164 2 15 901
88 224 0 1188 4 14 901
90 203 0 1212 4 9 901
92 195 0 1211 3 14 901
94 185 0 1221 1 11 901
96 167 0 1232 9 14 901
98 170 0 1236 4 12 901
100 170 0 1247 3 5 901
102 147 0 1249 2 9 901
104 130 1 1260 3 17 901
106 124 0 1272 6 10 901
108 118 0 1277 4 15 901
110 107 0 1274 0 18 901
112 100 0 1287 3 9 901
114 89 0 1297 1 17 901
116 89 0 1288 2 16 901
118 80 0 1291 2 12 901
120 75 0 1294 3 15 901
122 74 0 1277 1 20 901
124 70 0 1270 2 22 901
126 66 0 1266 1 15 901
128 63 0 1278 1 10 901
130 64 0 1280 2 15 901
132 66 0 1290 1 14 901
134 62 0 1295 0 15 901
136 56 0 1297 0 10 901
138 54 0 1290 0 14 901
140 54 0 1293 1 15 901
142 53 0 1299 3 22 901
144 47 0 1311 0 22 901
146 42 0 1336 2 12 901
148 46 0 1337 0 19 901
150 43 0 1328 3 16 901
152 40 0 1329 1 8 901
154 38 0 1324 1 15 901
156 31 0 1326 0 11 901
158 30 0 1325 0 9 901
160 30 0 1325 1 15 901
162 28 0 1329 1 23 901
164 18 0 1338 0 19 901
166 17 0 1333 0 18 901
168 14 0 1342 0 17 901
170 20 0 1341 0 14 901
172 17 0 1333 2 11 901
174 19 0 1325 0 18 901
176 17 0 1314 1 26 901
178 16 0 1328 1 15 901
180 15 0 1327 1 24 901
182 16 0 1332 0 21 901
184 17 0 1344 0 12 901
186 16 0 1331 0 12 901
188 16 0 1335 0 13 901
190 16 0 1341 0 11 901
192 15 0 1328 0 16 901
194 14 0 1317 0 20 901
196 13 0 1322 1 16 901
198 10 0 1331 0 14 901
200 9 0 1319 0 16 901
