0 375 0 0 0 0 924
2 334 0 0 34 0 924
4.00004 333 0 0 21 0 924
6 317 0 0 18 0 924
8 280 0 0 25 0 924
10 248 0 0 27 0 924
12 234 0 0 21 0 924
14 234 1 0 24 0 924
16 224 1 0 21 0 924
18 209 1 0 15 0 924
20 197 0 0 23 0 924
22 196 0 0 32 0 924
24 205 1 0 21 0 924
26 206 1 0 23 0 924
28 219 1 0 25 0 924
30 232 1 0 16 0 924
32 216 1 0 13 0 924
34 214 1 0 19 0 924
36 195 0 0 17 0 924
38 192 0 0 22 0 924
40 194 1 0 24 0 924
42 192 1 0 13 0 924
44 206 0 0 16 0 924
46 203 0 0 24 0 924
48 203 0 0 20 0 924
50 201 0 0 18 0 924
52 199 0 0 20 0 924
54 191 0 8 19 0 924
56 194 0 16 19 1 924
58 186 0 22 14 3 924
60 175 0 30 14 5 924
62 174 0 35 12 5 924
64 161 0 50 15 7 924
66 148 0 61 8 10 924
68 133 0 66 3 7 924
70 105 0 85 13 12 924
72 107 0 94 3 17 924
74 109 0 108 7 14 924
76 89 0 116 11 12 924
78 82 0 109 7 10 924
80 64 0 115 4 11 924
82 65 0 111 3 7 924
84 67 0 129 4 14 924
86 61 0 125 6 13 924
88 62 0 126 2 16 924
90 57 0 144 4 10 924
92 54 0 136 1 12 924
94 52 0 157 2 9 924
96 43 0 160 5 13 924
98 42 0 161 1 19 924
100 42 0 154 2 17 924
102 33 0 170 2 13 924
104 36 0 154 1 16 924
106 31 0 166 2 14 924
108 31 0 175 3 16 924
110 30 0 187 0 13 924
112 26 0 180 0 20 924
114 22 0 173 0 23 924
116 19 0 186 3 11 924
118 21 0 190 1 20 924
120 23 0 198 2 14 924
122 14 0 186 5 24 924
124 15 0 181 0 22 924
126 15 0 187 0 18 924
128 16 0 194 0 20 924
130 14 0 179 1 23 924
132 14 0 181 1 16 924
134 12 0 188 0 18 924
136 8 0 190 1 20 924
138 10 0 201 3 17 924
140 8 0 187 3 17 924
142 10 0 179 0 22 924
144 11 0 172 0 23 924
146 8 0 172 1 11 924
148 8 0 158 1 20 924
150 7 0 177 0 26 924
152 8 0 184 0 20 924
154 7 0 183 0 18 924
156 4 0 204 0 18 924
158 3 0 205 0 15 924
160 2 0 194 0 19 924
162 2 0 198 0 19 924
164 1 0 222 0 18 924
166 0 0 225 0 16 924
168 0 0 211 0 27 924
170 0 0 213 0 16 924
172 0 0 219 0 17 924
174 0 0 216 0 22 924
176 0 0 216 0 23 924
178 0 0 233 0 17 924
180 0 0 242 0 16 924
182 1 0 238 0 25 924
184 1 0 221 0 21 924
186 0 0 209 1 17 924
188 0 0 187 0 19 924
190 0 0 182 0 19 924
192 0 0 182 0 23 924
194 0 0 195 0 19 924
196 0 0 196 0 18 924
198 0 0 198 0 17 924
200 0 0 180 0 16 924
