0 1415 0 0 0 0 942
2 1358 6 0 19 0 942
4.00004 1347 14 0 16 0 942
6 1334 4 0 17 0 942
8 1302 13 0 24 0 942
10 1288 8 0 21 0 942
12 1293 5 0 16 0 942
14 1277 11 0 12 0 942
16 1259 7 0 20 0 942
18 1250 9 0 26 0 942
20 1246 6 0 26 0 942
22 1236 5 0 19 0 942
24 1216 7 0 18 0 942
26 1205 10 0 11 0 942
28 1190 4 0 22 0 942
30 1201 5 0 13 0 942
32 1187 7 0 16 0 942
34 1180 8 0 17 0 942
36 1175 8 0 19 0 942
38 1175 6 0 11 0 942
40 1184 6 0 9 0 942
42 1170 8 0 20 0 942
44 1183 2 0 23 0 942
46 1179 9 0 19 0 942
48 1176 9 0 10 0 942
50 1172 1 0 16 0 942
52 1028 0 147 14 0 942
54 938 1 243 15 5 942
56 848 0 340 5 1 942
58 773 0 411 13 7 942
60 714 0 475 9 5 942
62 667 0 522 20 5 942
64 633 0 565 12 7 942
66 581 0 608 11 5 942
68 553 0 643 9 7 942
70 504 0 685 10 5 942
72 471 0 723 7 11 942
74 445 1 741 8 7 942
76 421 0 765 12 6 942
78 388 0 790 8 4 942
80 355 1 812 7 7 942
82 329 0 837 10 7 942
84 316 0 856 10 7 942
86 304 0 870 6 14 942
88 294 0 867 6 10 942
90 279 0 889 8 11 942
92 257 0 903 6 5 942
94 249 0 902 3 14 942
96 230 0 912 10 7 942
98 214 0 930 6 15 942
100 216 0 944 8 8 942
102 206 0 947 7 13 942
104 200 0 953 2 8 942
106 185 1 975 4 11 942
108 187 0 972 9 17 942
110 172 0 983 6 14 942
112 170 0 986 4 15 942
114 172 0 1000 4 9 942
116 169 0 995 4 14 942
118 164 0 1007 6 15 942
120 148 0 1001 4 10 942
122 152 0 996 2 14 942
124 149 0 1006 3 19 942
126 135 0 1008 4 12 942
128 128 0 1009 11 14 942
130 134 0 1004 2 18 942
132 132 0 1006 1 12 942
134 126 0 1006 6 20 942
136 115 0 1014 3 17 942
138 113 0 1017 5 13 942
140 116 1 1006 3 18 942
142 108 0 1020 2 10 942
144 113 0 1016 3 15 942
146 102 0 1031 2 16 942
148 94 0 1033 1 12 942
150 82 0 1027 2 16 942
152 84 0 1029 4 15 942
154 88 0 1026 0 16 942
156 82 0 1031 2 13 942
158 79 0 1023 2 27 942
160 81 0 1019 1 14 942
162 74 0 1022 2 20 942
164 73 0 1022 5 19 942
166 68 0 1026 1 16 942
168 61 0 1035 2 6 942
170 61 0 1030 2 16 942
172 56 0 1040 2 16 942
174 59 0 1048 0 10 942
176 54 0 1052 2 11 942
178 53 0 1034 1 14 942
180 44 0 1037 2 22 942
182 44 0 1050 3 8 942
184 47 0 1039 1 19 942
186 45 0 1040 1 17 942
188 43 1 1046 4 12 942
190 39 0 1050 4 12 942
192 39 0 1052 1 14 942
194 32 0 1051 2 18 942
196 30 0 1056 1 13 942
198 35 0 1056 2 17 942
200 35 0 1063 3 17 942
