0 100 0 0 0
2 95 0 3 0
4.00004 96 0 1 0
6 94 0 0 0
8 90 0 0 0
10 88 0 1 0
12 10 78 1 0
14 10 81 1 0
16 8 84 0 0
18 6 86 0 0
20 3 89 0 0
22 1 91 0 0
24 0 90 0 0
26 0 89 0 1
28 2 89 0 1
30 1 89 0 1
32 2 90 0 0
34 0 92 0 0
36 0 92 0 0
38 1 92 0 0
40 0 92 2 1
42 3 93 0 0
44 1 90 0 1
46 1 92 0 1
48 2 90 0 1
50 0 91 0 0
52 0 88 2 1
54 0 87 0 0
56 0 87 0 0
58 1 86 0 1
60 2 86 0 0
62 2 86 0 0
64 2 86 0 0
66 2 85 0 0
68 1 84 0 0
70 1 88 0 0
72 0 87 0 0
74 0 87 0 0
76 2 85 0 0
78 1 87 0 0
80 1 87 0 2
82 2 87 0 1
84 3 86 0 1
86 2 89 0 0
88 1 91 0 0
90 1 90 0 0
92 0 92 0 0
94 0 94 0 0
96 0 96 0 0
98 0 95 0 0
100 1 93 0 0
102 0 94 0 2
104 1 92 0 1
106 1 94 0 0
108 2 94 0 1
110 0 96 0 1
112 2 97 0 0
114 0 99 0 1
116 0 97 1 1
118 0 99 0 1
120 0 100 0 0
122 0 101 0 0
124 0 103 0 0
126 0 103 0 0
128 0 103 0 0
130 0 102 0 1
132 0 100 0 1
134 0 98 0 1
136 0 100 0 1
138 0 101 0 0
140 0 98 0 0
142 0 97 0 0
144 0 97 0 0
146 0 97 0 1
148 0 99 1 1
150 0 99 0 3
152 0 102 0 0
154 1 99 0 1
156 0 100 0 1
158 0 98 0 1
160 0 97 0 0
162 0 95 0 0
164 0 94 0 2
166 0 93 0 2
168 0 92 0 1
170 2 94 1 1
172 2 97 0 0
174 1 97 0 1
176 0 98 0 0
178 0 99 0 0
180 0 101 0 0
182 0 101 0 1
184 0 102 0 0
186 1 102 0 0
188 2 103 0 1
190 1 106 0 0
192 2 106 0 0
194 0 105 0 0
196 1 106 0 0
198 1 105 0 1
200 0 106 0 1
202 0 106 0 0
204 1 103 0 0
206 1 96 0 1
208 0 96 0 2
210 0 99 0 0
