0 103 0 0 0
2 101 0 0 0
4.00004 100 0 1 0
6 99 0 0 0
8 99 0 0 0
10 100 0 0 0
12 90 11 0 0
14 83 18 0 0
16 80 23 1 0
18 75 28 1 0
20 68 33 0 2
22 63 39 0 0
24 56 45 0 1
26 54 49 1 0
28 49 55 0 0
30 46 58 1 0
32 43 60 1 1
34 37 63 2 1
36 36 65 1 0
38 33 68 1 0
40 28 75 0 0
42 27 77 0 0
44 25 77 0 1
46 25 78 0 1
48 24 81 0 0
50 20 84 1 0
52 19 84 0 1
54 20 83 0 0
56 18 84 1 1
58 19 84 1 1
60 20 84 0 0
62 20 84 0 0
64 20 85 0 0
66 19 86 1 0
68 20 84 0 2
70 19 85 0 1
72 18 85 0 0
74 18 85 0 0
76 18 85 0 0
78 17 86 0 0
80 15 88 1 0
82 16 86 0 1
84 17 87 0 0
86 16 87 0 1
88 15 88 0 0
90 11 91 0 1
92 11 90 1 0
94 10 92 0 0
96 9 92 0 0
98 9 89 0 2
100 9 91 0 1
102 10 92 0 0
104 11 95 0 0
106 9 95 1 1
108 11 95 0 1
110 12 94 0 1
112 11 96 0 0
114 7 99 0 1
116 8 99 1 0
118 8 98 0 1
120 8 97 0 1
122 8 96 0 1
124 7 95 0 0
126 8 95 0 0
128 8 94 0 1
130 8 96 0 0
132 7 98 0 1
134 7 99 0 0
136 6 100 0 2
138 4 103 1 0
140 5 102 0 0
142 6 102 0 0
144 6 102 0 0
146 5 103 0 0
148 6 104 0 0
150 6 104 1 0
152 6 105 0 1
154 7 106 0 0
156 7 109 0 0
158 6 109 0 1
160 5 107 0 1
162 5 109 0 1
164 5 108 0 1
166 5 108 0 1
168 4 110 0 0
170 4 110 0 0
172 4 109 0 1
174 3 110 0 0
176 3 106 0 3
178 4 107 0 0
180 4 106 0 1
182 5 104 0 1
184 5 102 0 1
186 6 103 0 0
188 4 104 0 0
190 3 103 0 0
192 3 103 0 0
194 3 103 0 2
196 3 106 0 0
198 3 106 0 0
200 3 105 0 1
202 3 105 0 0
204 1 103 1 1
206 1 105 0 0
208 1 102 0 2
210 1 102 0 0
