0 106 0 0 0
2 112 0 0 0
4.00004 111 0 0 0
6 111 0 1 0
8 111 0 0 0
10 110 0 1 0
12 92 20 0 0
14 78 34 0 0
16 69 43 1 0
18 65 50 0 0
20 58 59 1 0
22 56 61 0 2
24 52 65 1 1
26 49 70 0 1
28 44 75 0 0
30 40 77 0 1
32 36 80 0 0
34 30 84 0 2
36 28 84 0 1
38 25 86 0 1
40 22 89 0 0
42 19 89 0 3
44 17 90 1 1
46 17 92 1 1
48 16 93 1 0
50 16 92 0 2
52 14 98 0 0
54 14 99 0 0
56 12 102 0 0
58 10 103 1 0
60 12 101 0 2
62 11 104 0 1
64 11 103 0 0
66 7 106 0 1
68 6 106 0 0
70 6 106 0 0
72 8 104 0 1
74 8 107 0 0
76 8 106 0 0
78 9 107 0 0
80 9 106 0 0
82 8 106 0 0
84 9 106 0 0
86 8 104 0 2
88 9 103 0 2
90 8 106 0 0
92 7 107 0 0
94 8 106 0 0
96 9 107 0 0
98 12 108 0 0
100 11 107 0 0
102 10 109 0 1
104 6 115 0 0
106 6 112 1 0
108 6 112 0 2
110 4 116 0 0
112 4 116 0 0
114 4 115 0 0
116 4 112 0 0
118 4 111 0 0
120 4 110 0 0
122 5 110 0 1
124 5 109 0 1
126 4 109 0 0
128 4 109 0 0
130 3 108 0 0
132 4 106 0 1
134 4 107 0 1
136 3 108 0 0
138 2 107 0 1
140 2 103 0 0
142 2 100 0 2
144 2 99 0 2
146 1 99 0 0
148 1 100 0 0
150 1 99 0 1
152 1 100 0 0
154 1 99 0 0
156 1 99 0 1
158 1 100 0 3
160 1 97 0 1
162 1 100 0 0
164 1 100 0 1
166 1 101 0 0
168 1 102 0 0
170 1 102 0 1
172 0 105 0 0
174 0 104 0 1
176 0 102 0 1
178 0 102 0 0
180 0 100 0 1
182 1 103 0 0
184 0 103 0 0
186 0 101 0 2
188 0 101 0 0
190 0 102 0 0
192 0 101 0 1
194 0 101 0 0
196 1 100 0 1
198 1 99 0 0
200 2 102 0 2
202 2 104 0 0
204 2 103 0 0
206 2 102 0 1
208 1 105 0 0
210 1 103 1 0
