0 101 0 0 0
2 99 0 0 0
4.00004 99 0 0 0
6 100 0 0 0
8 97 0 2 0
10 98 0 1 0
12 83 14 1 0
14 75 23 0 0
16 67 30 1 0
18 65 35 0 0
20 57 43 0 0
22 53 46 0 1
24 50 51 0 0
26 41 58 0 0
28 37 61 0 0
30 34 66 1 0
32 33 68 0 0
34 31 73 0 0
36 29 74 0 0
38 24 78 0 0
40 23 82 1 0
42 15 87 0 1
44 16 88 0 0
46 15 90 0 0
48 13 93 0 0
50 13 94 0 0
52 12 89 0 0
54 10 92 0 0
56 10 92 0 1
58 10 94 0 0
60 11 93 0 0
62 10 93 1 1
64 11 94 0 0
66 11 92 0 0
68 11 91 1 0
70 12 91 0 0
72 9 92 0 1
74 7 94 0 1
76 7 95 0 0
78 8 93 1 1
80 8 96 0 0
82 9 95 0 1
84 8 96 0 1
86 9 96 0 0
88 9 97 0 0
90 9 97 0 0
92 8 98 0 0
94 8 97 0 0
96 9 96 0 0
98 7 97 0 1
100 6 96 0 0
102 7 94 0 2
104 7 96 0 0
106 7 97 0 0
108 7 96 0 0
110 7 95 0 1
112 7 96 0 0
114 6 96 0 0
116 5 96 1 0
118 5 96 0 2
120 6 97 0 1
122 6 96 0 1
124 7 97 0 0
126 5 99 0 0
128 5 99 0 0
130 3 101 0 0
132 3 99 0 1
134 3 99 0 0
136 2 98 0 0
138 2 98 0 0
140 1 98 0 0
142 1 98 0 0
144 0 99 0 0
146 0 98 0 1
148 0 97 0 2
150 0 100 0 0
152 0 100 0 1
154 0 100 0 1
156 2 100 0 0
158 3 99 0 3
160 4 100 0 1
162 4 100 0 1
164 2 103 0 0
166 3 103 0 0
168 3 102 0 0
170 3 102 0 0
172 5 104 0 0
174 5 101 0 3
176 4 104 0 0
178 2 105 0 1
180 1 106 0 1
182 0 107 1 0
184 0 107 0 0
186 0 109 0 0
188 0 108 0 0
190 0 106 0 1
192 0 107 0 0
194 1 108 0 1
196 1 108 0 0
198 1 108 0 0
200 1 106 0 2
202 1 109 0 0
204 1 109 0 2
206 1 109 0 0
208 1 106 0 0
210 1 106 0 0
