0 105 0 0 0
2 105 0 0 0
4.00004 104 0 0 0
6 104 0 0 0
8 106 0 0 0
10 104 0 2 0
12 86 18 0 0
14 71 33 0 0
16 66 38 0 0
18 62 42 0 0
20 56 49 0 0
22 51 53 0 1
24 45 59 1 0
26 42 63 0 0
28 38 66 1 0
30 27 76 1 0
32 25 79 0 1
34 23 82 0 0
36 20 85 0 0
38 21 85 0 0
40 19 87 2 0
42 21 87 0 0
44 20 88 0 1
46 18 90 1 0
48 18 89 0 1
50 17 91 0 0
52 13 93 1 0
54 13 93 0 1
56 12 95 0 0
58 11 96 0 0
60 10 95 0 1
62 9 96 0 0
64 11 94 0 0
66 10 96 0 0
68 9 98 0 0
70 9 97 0 1
72 8 97 0 0
74 10 97 0 1
76 9 96 0 3
78 10 98 0 1
80 10 98 0 0
82 9 99 0 0
84 7 101 0 0
86 7 100 0 0
88 8 100 0 0
90 8 100 0 0
92 8 101 0 0
94 8 97 0 3
96 6 102 1 0
98 8 103 0 0
100 8 102 0 0
102 8 102 0 0
104 8 101 1 0
106 8 100 0 3
108 11 102 0 0
110 9 101 0 2
112 7 104 0 0
114 6 106 0 1
116 6 107 0 0
118 7 108 0 1
120 6 110 0 0
122 4 112 0 0
124 3 114 0 0
126 2 116 0 0
128 2 114 0 2
130 2 114 0 2
132 2 116 0 1
134 2 116 1 0
136 2 115 0 1
138 1 114 0 1
140 1 115 0 0
142 1 113 0 0
144 1 113 0 0
146 3 110 0 0
148 3 109 0 1
150 3 110 0 1
152 3 110 0 0
154 3 109 0 1
156 3 109 0 1
158 7 109 0 1
160 7 111 0 0
162 7 110 0 1
164 7 111 0 1
166 5 113 0 0
168 4 114 0 0
170 3 114 0 2
172 2 112 0 2
174 2 112 0 0
176 2 112 0 0
178 2 112 0 0
180 2 111 0 0
182 2 111 0 0
184 2 108 0 4
186 2 112 0 0
188 1 113 0 0
190 0 115 0 1
192 1 118 0 0
194 1 117 0 1
196 1 118 0 1
198 1 116 0 2
200 0 118 0 0
202 0 117 0 1
204 0 115 0 1
206 1 113 0 0
208 1 113 0 0
210 1 111 0 0
