0 90 0 0 0
2 90 0 0 0
4.00004 92 0 1 0
6 90 0 1 0
8 92 0 0 0
10 93 0 0 0
12 85 8 0 0
14 76 16 3 0
16 70 22 1 0
18 72 26 0 0
20 64 34 0 0
22 57 40 2 0
24 55 42 0 0
26 51 47 0 0
28 48 50 0 0
30 45 54 1 0
32 47 54 1 0
34 40 59 1 0
36 40 60 0 1
38 36 65 0 0
40 33 69 0 0
42 32 69 0 1
44 29 72 0 1
46 27 77 0 0
48 25 78 0 0
50 22 80 1 0
52 25 77 0 3
54 22 80 1 0
56 21 79 0 2
58 20 82 0 0
60 20 82 0 1
62 18 82 1 0
64 17 82 0 0
66 16 83 0 0
68 17 83 0 1
70 17 85 1 0
72 16 89 0 0
74 13 90 1 0
76 12 91 0 0
78 11 90 0 0
80 9 89 2 0
82 12 86 0 1
84 10 88 0 0
86 9 88 0 0
88 11 89 0 0
90 10 89 0 1
92 9 89 0 0
94 10 90 0 1
96 10 90 0 0
98 8 92 0 0
100 8 90 0 0
102 9 88 0 2
104 7 92 0 0
106 6 92 0 0
108 6 91 0 0
110 6 89 0 0
112 5 90 0 0
114 4 90 0 0
116 4 89 0 0
118 4 88 0 0
120 4 88 0 0
122 5 87 0 0
124 5 86 0 0
126 5 86 0 0
128 5 85 1 0
130 6 82 0 1
132 6 82 0 1
134 6 84 0 0
136 6 83 0 1
138 6 84 0 0
140 7 83 0 0
142 6 84 0 0
144 7 84 0 0
146 7 81 0 1
148 7 82 0 0
150 7 80 0 2
152 5 82 0 0
154 6 83 0 0
156 6 83 0 1
158 6 82 0 1
160 6 81 0 1
162 6 81 0 0
164 6 80 0 0
166 4 82 0 1
168 5 81 0 0
170 5 80 0 1
172 4 81 0 1
174 5 81 0 1
176 6 81 0 0
178 3 83 0 1
180 3 86 0 0
182 3 88 0 0
184 3 88 0 0
186 3 88 1 0
188 3 88 0 0
190 2 88 0 0
192 2 88 0 0
194 2 88 0 0
196 2 89 1 0
198 2 89 0 0
200 3 88 0 1
202 3 89 0 0
204 2 89 0 1
206 2 89 0 0
208 2 87 0 1
210 2 88 0 0
