0 106 0 0 0
2 106 0 1 0
4.00004 106 0 0 0
6 104 0 1 0
8 104 0 0 0
10 105 0 0 0
12 0 102 0 2
14 0 101 0 0
16 0 100 0 0
18 0 100 0 0
20 0 99 0 0
22 0 99 0 0
24 1 100 0 0
26 0 101 1 1
28 2 98 0 0
30 0 101 0 0
32 0 98 0 1
34 0 96 0 1
36 0 99 1 1
38 0 99 0 1
40 0 100 0 0
42 0 100 0 1
44 0 100 0 0
46 1 102 0 0
48 0 104 0 0
50 0 104 0 0
52 0 103 0 0
54 0 105 0 0
56 0 106 0 0
58 0 105 0 0
60 0 105 1 0
62 0 106 0 0
64 1 105 0 0
66 1 107 0 1
68 0 107 0 0
70 1 106 0 0
72 0 106 0 1
74 0 106 0 2
76 0 106 0 1
78 0 108 0 0
80 0 105 0 0
82 1 104 1 0
84 0 104 0 1
86 0 104 0 0
88 0 102 0 0
90 0 102 0 0
92 0 98 0 2
94 0 98 0 1
96 0 99 0 0
98 0 98 0 0
100 0 98 0 0
102 0 96 0 1
104 0 96 0 0
106 0 96 0 0
108 0 93 0 0
110 0 94 0 1
112 0 94 0 1
114 0 95 0 1
116 0 99 1 0
118 0 96 0 3
120 1 98 0 1
122 1 100 0 1
124 0 104 0 0
126 0 102 0 1
128 0 102 0 0
130 0 99 0 1
132 0 99 0 0
134 0 99 0 0
136 0 96 0 1
138 1 98 0 0
140 0 98 0 1
142 0 98 0 2
144 0 99 0 0
146 0 98 0 0
148 0 99 0 0
150 0 102 0 0
152 0 106 0 1
154 0 106 0 1
156 0 106 0 0
158 0 105 0 0
160 0 105 0 0
162 0 102 0 3
164 0 104 0 0
166 0 103 0 1
168 1 105 0 0
170 0 104 0 0
172 0 104 0 0
174 0 103 0 0
176 0 104 0 0
178 0 103 0 2
180 0 104 0 0
182 0 106 0 0
184 0 105 0 0
186 0 104 0 1
188 0 102 0 2
190 0 104 0 0
192 0 104 0 1
194 0 103 0 0
196 0 105 0 0
198 0 104 0 1
200 0 105 0 1
202 0 104 0 0
204 0 103 0 1
206 0 104 0 1
208 0 104 0 0
210 0 104 0 0
