0 4033 0 967 0
0.5001 3767 0 950 0
1.0001 3523 0 940 0
1.5001 3282 0 928 0
2.0001 3121 0 878 0
2.5 2927 0 844 0
3 2753 0 795 0
3.5 2609 0 747 0
4 2480 0 698 0
4.5 2368 0 650 0
5 2251 0 607 0
5.5 2109 0 571 0
6.0001 1976 0 547 0
6.5001 1869 0 522 0
7.0001 1757 0 504 0
7.5001 1690 0 448 0
8.0001 1622 0 412 0
8.5001 1524 0 399 0
9.0001 1437 0 377 0
9.5001 1371 0 352 0
10.0001 1278 0 339 0
10.5001 1233 0 310 0
11.0001 1156 0 306 0
11.5001 1095 0 285 0
12.0001 1047 0 272 0
12.5001 968 0 268 0
13.0001 898 0 267 0
13.5001 855 0 237 0
14.0001 828 0 215 0
14.5001 765 0 217 0
15.0001 741 0 199 0
15.5001 701 0 203 0
16.0001 673 0 189 0
16.5001 638 0 168 0
17.0001 616 0 139 0
17.5001 573 0 140 0
18.0001 546 0 129 0
18.5001 505 0 133 0
19.0001 457 0 136 0
19.5001 429 0 131 0
20.0001 395 0 137 0
20.5001 380 0 132 0
21.0001 369 0 116 0
21.5001 363 0 101 0
22.0001 338 0 96 0
22.5001 326 0 89 0
23.0001 295 0 93 0
23.5001 276 0 90 0
24.0001 252 0 95 0
24.5001 254 0 81 0
25.0001 232 0 79 0
25.5001 238 0 64 0
26.0001 236 0 49 0
26.5001 224 0 48 0
27.0001 210 0 50 0
27.5001 205 0 44 0
28.0001 180 0 50 0
28.5001 167 0 50 0
29.0001 155 0 49 0
29.5001 150 0 45 0
30.0001 143 0 42 0
30.5001 137 0 41 0
31.0001 138 0 30 0
31.5001 125 0 36 0
32.0001 111 0 44 0
32.5001 109 0 36 0
33.0001 101 0 31 0
33.5001 97 0 29 0
34 95 0 23 0
34.5 89 0 21 0
35 88 0 16 0
35.5 75 0 21 0
36 71 0 20 0
36.5 68 0 19 0
37 62 0 21 0
37.5 65 0 16 0
38 56 0 18 0
38.5 59 0 14 0
39 55 0 13 0
39.5 46 0 17 0
40 46 0 15 0
40.5 46 0 14 0
41 44 0 13 0
41.5 41 0 14 0
42 36 0 15 0
42.5 33 0 13 0
43 35 0 9 0
43.5 36 0 7 0
44 32 0 8 0
44.5 30 0 6 0
45 29 0 7 0
45.5 23 0 10 0
46 25 0 7 0
46.5 24 0 6 0
47 20 0 8 0
47.5 15 0 13 0
48 15 0 12 0
48.5 18 0 8 0
49 15 0 9 0
49.5 18 0 4 0
50 15 0 6 0
50.5 19 0 2 0
51 18 0 2 0
51.5 17 0 3 0
52 17 0 3 0
52.5 14 0 5 0
53 13 0 6 0
53.5 14 0 5 0
54 12 0 5 0
54.5 13 0 4 0
55 13 0 4 0
55.5 13 0 4 0
56 12 0 4 0
56.5 9 0 4 0
57 7 0 6 0
57.5 10 0 3 0
58 9 0 4 0
58.5 10 0 3 0
59 8 0 4 0
59.5 9 0 3 0
60 10 0 2 0
60.5 9 0 3 0
61 9 0 2 0
61.5 8 0 2 0
62 7 0 2 0
62.5 8 0 1 0
63 8 0 0 0
63.5 8 0 0 0
64 6 0 2 0
64.5 6 0 2 0
65 4 0 3 0
65.5 4 0 2 0
66 5 0 1 0
66.5 5 0 1 0
67 5 0 1 0
67.5 5 0 1 0
68 3 0 2 0
68.5 3 0 2 0
69 3 0 2 0
69.5 4 0 1 0
70 4 0 1 0
70.5 4 0 1 0
71 4 0 1 0
71.5 4 0 1 0
72 4 0 1 0
72.5 4 0 1 0
73 3 0 2 0
73.5 3 0 2 0
74 3 0 2 0
74.5 3 0 2 0
75 3 0 2 0
75.5 3 0 1 0
76 2 0 2 0
76.5 1 0 3 0
77 2 0 2 0
77.5 3 0 1 0
78 4 0 0 0
78.5 4 0 0 0
79 4 0 0 0
79.5 3 0 0 0
80 3 0 0 0
80.5 3 0 0 0
81 3 0 0 0
81.5 3 0 0 0
82 2 0 1 0
82.5 2 0 1 0
83 2 0 1 0
83.5 3 0 0 0
84 3 0 0 0
84.5 3 0 0 0
85 1 0 2 0
85.5 2 0 1 0
86 3 0 0 0
86.5 3 0 0 0
87 3 0 0 0
87.5 2 0 1 0
88 2 0 1 0
88.5 2 0 1 0
89 3 0 0 0
89.5 3 0 0 0
90 3 0 0 0
90.5 3 0 0 0
91 2 0 1 0
91.5 3 0 0 0
92 2 0 1 0
92.5 2 0 1 0
93 2 0 1 0
93.5 1 0 1 0
94 2 0 0 0
94.5 2 0 0 0
95 2 0 0 0
95.5 2 0 0 0
96 2 0 0 0
96.5 2 0 0 0
97 1 0 0 0
97.5 1 0 0 0
98 1 0 0 0
98.5 0 0 0 0
99 0 0 0 0
99.5 0 0 0 0
100 0 0 0 0
