0 4063 0 937 0
0.5001 3781 0 939 0
1.0001 3496 0 949 0
1.5001 3294 0 921 0
2.0001 3083 0 894 0
2.5 2906 0 850 0
3 2762 0 800 0
3.5 2606 0 768 0
4 2504 0 694 0
4.5 2345 0 667 0
5 2228 0 635 0
5.5 2079 0 631 0
6.0001 1992 0 590 0
6.5001 1881 0 551 0
7.0001 1801 0 497 0
7.5001 1737 0 457 0
8.0001 1623 0 452 0
8.5001 1517 0 434 0
9.0001 1446 0 410 0
9.5001 1339 0 396 0
10.0001 1293 0 346 0
10.5001 1211 0 332 0
11.0001 1134 0 327 0
11.5001 1075 0 301 0
12.0001 1010 0 296 0
12.5001 950 0 276 0
13.0001 897 0 258 0
13.5001 869 0 238 0
14.0001 834 0 218 0
14.5001 802 0 181 0
15.0001 723 0 201 0
15.5001 671 0 210 0
16.0001 634 0 202 0
16.5001 587 0 197 0
17.0001 572 0 180 0
17.5001 557 0 150 0
18.0001 519 0 150 0
18.5001 499 0 142 0
19.0001 485 0 125 0
19.5001 459 0 113 0
20.0001 428 0 114 0
20.5001 409 0 107 0
21.0001 391 0 93 0
21.5001 364 0 93 0
22.0001 330 0 94 0
22.5001 322 0 83 0
23.0001 310 0 73 0
23.5001 289 0 75 0
24.0001 272 0 72 0
24.5001 253 0 72 0
25.0001 230 0 80 0
25.5001 212 0 79 0
26.0001 194 0 77 0
26.5001 194 0 70 0
27.0001 190 0 57 0
27.5001 166 0 62 0
28.0001 166 0 54 0
28.5001 163 0 48 0
29.0001 148 0 46 0
29.5001 137 0 45 0
30.0001 132 0 38 0
30.5001 128 0 37 0
31.0001 130 0 32 0
31.5001 118 0 32 0
32.0001 116 0 30 0
32.5001 98 0 34 0
33.0001 89 0 37 0
33.5001 96 0 24 0
34 85 0 28 0
34.5 78 0 30 0
35 77 0 26 0
35.5 85 0 17 0
36 75 0 23 0
36.5 67 0 29 0
37 63 0 28 0
37.5 68 0 21 0
38 65 0 21 0
38.5 62 0 20 0
39 59 0 17 0
39.5 59 0 12 0
40 52 0 14 0
40.5 46 0 17 0
41 41 0 14 0
41.5 43 0 11 0
42 39 0 12 0
42.5 35 0 12 0
43 37 0 9 0
43.5 38 0 8 0
44 35 0 8 0
44.5 28 0 9 0
45 28 0 6 0
45.5 27 0 6 0
46 23 0 8 0
46.5 20 0 9 0
47 17 0 7 0
47.5 18 0 5 0
48 18 0 4 0
48.5 17 0 2 0
49 15 0 1 0
49.5 12 0 3 0
50 9 0 2 0
50.5 9 0 2 0
51 10 0 1 0
51.5 10 0 0 0
52 10 0 0 0
52.5 10 0 0 0
53 9 0 0 0
53.5 9 0 0 0
54 9 0 0 0
54.5 9 0 0 0
55 8 0 0 0
55.5 7 0 0 0
56 6 0 0 0
56.5 6 0 0 0
57 6 0 0 0
57.5 6 0 0 0
58 5 0 1 0
58.5 4 0 1 0
59 3 0 1 0
59.5 3 0 1 0
60 3 0 1 0
60.5 3 0 1 0
61 2 0 2 0
61.5 4 0 0 0
62 4 0 0 0
62.5 3 0 1 0
63 3 0 1 0
63.5 3 0 1 0
64 2 0 1 0
64.5 1 0 2 0
65 2 0 1 0
65.5 2 0 1 0
66 3 0 0 0
66.5 3 0 0 0
67 2 0 1 0
67.5 2 0 1 0
68 2 0 1 0
68.5 3 0 0 0
69 3 0 0 0
69.5 2 0 0 0
70 1 0 1 0
70.5 1 0 1 0
71 1 0 0 0
71.5 1 0 0 0
72 1 0 0 0
72.5 1 0 0 0
73 1 0 0 0
73.5 1 0 0 0
74 0 0 0 0
74.5 0 0 0 0
75 0 0 0 0
75.5 0 0 0 0
76 0 0 0 0
76.5 0 0 0 0
77 0 0 0 0
77.5 0 0 0 0
78 0 0 0 0
78.5 0 0 0 0
79 0 0 0 0
79.5 0 0 0 0
80 0 0 0 0
80.5 0 0 0 0
81 0 0 0 0
81.5 0 0 0 0
82 0 0 0 0
82.5 0 0 0 0
83 0 0 0 0
83.5 0 0 0 0
84 0 0 0 0
84.5 0 0 0 0
85 0 0 0 0
85.5 0 0 0 0
86 0 0 0 0
86.5 0 0 0 0
87 0 0 0 0
87.5 0 0 0 0
88 0 0 0 0
88.5 0 0 0 0
89 0 0 0 0
89.5 0 0 0 0
90 0 0 0 0
90.5 0 0 0 0
91 0 0 0 0
91.5 0 0 0 0
92 0 0 0 0
92.5 0 0 0 0
93 0 0 0 0
93.5 0 0 0 0
94 0 0 0 0
94.5 0 0 0 0
95 0 0 0 0
95.5 0 0 0 0
96 0 0 0 0
96.5 0 0 0 0
97 0 0 0 0
97.5 0 0 0 0
98 0 0 0 0
98.5 0 0 0 0
99 0 0 0 0
99.5 0 0 0 0
100 0 0 0 0
