0 4026 0 974 0
0.5001 3739 0 981 0
1.0001 3469 0 977 0
1.5001 3324 0 890 0
2.0001 3073 0 895 0
2.5 2908 0 863 0
3 2744 0 830 0
3.5 2640 0 751 0
4 2550 0 693 0
4.5 2431 0 647 0
5 2324 0 575 0
5.5 2217 0 525 0
6.0001 2034 0 557 0
6.5001 1906 0 535 0
7.0001 1780 0 533 0
7.5001 1700 0 502 0
8.0001 1628 0 455 0
8.5001 1554 0 416 0
9.0001 1490 0 387 0
9.5001 1385 0 393 0
10.0001 1343 0 341 0
10.5001 1236 0 356 0
11.0001 1187 0 330 0
11.5001 1129 0 311 0
12.0001 1055 0 312 0
12.5001 1015 0 289 0
13.0001 953 0 284 0
13.5001 897 0 275 0
14.0001 858 0 252 0
14.5001 818 0 239 0
15.0001 786 0 217 0
15.5001 727 0 224 0
16.0001 701 0 199 0
16.5001 656 0 193 0
17.0001 618 0 180 0
17.5001 594 0 176 0
18.0001 574 0 162 0
18.5001 547 0 153 0
19.0001 511 0 145 0
19.5001 502 0 131 0
20.0001 478 0 118 0
20.5001 448 0 118 0
21.0001 431 0 110 0
21.5001 396 0 110 0
22.0001 375 0 103 0
22.5001 365 0 90 0
23.0001 351 0 73 0
23.5001 315 0 81 0
24.0001 306 0 68 0
24.5001 286 0 70 0
25.0001 273 0 69 0
25.5001 241 0 82 0
26.0001 236 0 76 0
26.5001 232 0 61 0
27.0001 209 0 68 0
27.5001 199 0 70 0
28.0001 194 0 59 0
28.5001 189 0 52 0
29.0001 175 0 50 0
29.5001 169 0 44 0
30.0001 159 0 35 0
30.5001 149 0 32 0
31.0001 133 0 40 0
31.5001 136 0 30 0
32.0001 128 0 27 0
32.5001 114 0 32 0
33.0001 112 0 27 0
33.5001 104 0 29 0
34 96 0 30 0
34.5 94 0 28 0
35 90 0 24 0
35.5 85 0 23 0
36 88 0 15 0
36.5 75 0 21 0
37 71 0 19 0
37.5 64 0 21 0
38 60 0 22 0
38.5 58 0 21 0
39 53 0 19 0
39.5 51 0 17 0
40 51 0 14 0
40.5 51 0 11 0
41 48 0 7 0
41.5 42 0 8 0
42 35 0 11 0
42.5 35 0 8 0
43 34 0 6 0
43.5 34 0 6 0
44 32 0 6 0
44.5 31 0 5 0
45 28 0 5 0
45.5 27 0 4 0
46 19 0 8 0
46.5 17 0 6 0
47 16 0 4 0
47.5 17 0 2 0
48 16 0 2 0
48.5 12 0 4 0
49 9 0 3 0
49.5 10 0 2 0
50 9 0 3 0
50.5 12 0 0 0
51 9 0 1 0
51.5 10 0 0 0
52 7 0 2 0
52.5 6 0 2 0
53 5 0 2 0
53.5 5 0 2 0
54 4 0 3 0
54.5 3 0 4 0
55 5 0 2 0
55.5 6 0 1 0
56 7 0 0 0
56.5 6 0 1 0
57 5 0 2 0
57.5 4 0 3 0
58 5 0 2 0
58.5 5 0 1 0
59 5 0 1 0
59.5 3 0 2 0
60 2 0 3 0
60.5 4 0 1 0
61 4 0 0 0
61.5 3 0 1 0
62 3 0 1 0
62.5 2 0 2 0
63 2 0 2 0
63.5 2 0 2 0
64 2 0 2 0
64.5 3 0 1 0
65 3 0 1 0
65.5 3 0 1 0
66 3 0 1 0
66.5 3 0 1 0
67 3 0 1 0
67.5 4 0 0 0
68 3 0 1 0
68.5 2 0 2 0
69 3 0 1 0
69.5 3 0 1 0
70 3 0 1 0
70.5 2 0 2 0
71 3 0 1 0
71.5 3 0 1 0
72 1 0 2 0
72.5 1 0 2 0
73 2 0 1 0
73.5 2 0 1 0
74 2 0 1 0
74.5 1 0 1 0
75 1 0 1 0
75.5 1 0 1 0
76 2 0 0 0
76.5 2 0 0 0
77 2 0 0 0
77.5 1 0 1 0
78 1 0 1 0
78.5 1 0 1 0
79 1 0 1 0
79.5 2 0 0 0
80 1 0 1 0
80.5 1 0 1 0
81 2 0 0 0
81.5 2 0 0 0
82 2 0 0 0
82.5 1 0 0 0
83 1 0 0 0
83.5 1 0 0 0
84 0 0 1 0
84.5 1 0 0 0
85 1 0 0 0
85.5 1 0 0 0
86 1 0 0 0
86.5 1 0 0 0
87 0 0 0 0
87.5 0 0 0 0
88 0 0 0 0
88.5 0 0 0 0
89 0 0 0 0
89.5 0 0 0 0
90 0 0 0 0
90.5 0 0 0 0
91 0 0 0 0
91.5 0 0 0 0
92 0 0 0 0
92.5 0 0 0 0
93 0 0 0 0
93.5 0 0 0 0
94 0 0 0 0
94.5 0 0 0 0
95 0 0 0 0
95.5 0 0 0 0
96 0 0 0 0
96.5 0 0 0 0
97 0 0 0 0
97.5 0 0 0 0
98 0 0 0 0
98.5 0 0 0 0
99 0 0 0 0
99.5 0 0 0 0
100 0 0 0 0
