0 4041 0 959 0
0.5001 3832 0 913 0
1.0001 3622 0 873 0
1.5001 3441 0 816 0
2.0001 3162 0 858 0
2.5 2983 0 846 0
3 2860 0 773 0
3.5 2723 0 726 0
4 2577 0 698 0
4.5 2440 0 667 0
5 2294 0 627 0
5.5 2141 0 606 0
6.0001 2012 0 588 0
6.5001 1879 0 591 0
7.0001 1803 0 534 0
7.5001 1706 0 505 0
8.0001 1618 0 467 0
8.5001 1544 0 429 0
9.0001 1482 0 397 0
9.5001 1405 0 366 0
10.0001 1324 0 347 0
10.5001 1223 0 340 0
11.0001 1168 0 296 0
11.5001 1097 0 291 0
12.0001 1048 0 265 0
12.5001 1010 0 243 0
13.0001 966 0 227 0
13.5001 890 0 237 0
14.0001 841 0 233 0
14.5001 782 0 230 0
15.0001 741 0 222 0
15.5001 714 0 202 0
16.0001 698 0 176 0
16.5001 656 0 173 0
17.0001 603 0 171 0
17.5001 567 0 168 0
18.0001 561 0 154 0
18.5001 519 0 153 0
19.0001 490 0 150 0
19.5001 469 0 131 0
20.0001 436 0 124 0
20.5001 411 0 119 0
21.0001 394 0 110 0
21.5001 387 0 102 0
22.0001 350 0 99 0
22.5001 322 0 103 0
23.0001 307 0 89 0
23.5001 295 0 80 0
24.0001 282 0 76 0
24.5001 276 0 65 0
25.0001 251 0 75 0
25.5001 240 0 70 0
26.0001 244 0 56 0
26.5001 228 0 51 0
27.0001 214 0 46 0
27.5001 198 0 48 0
28.0001 191 0 48 0
28.5001 169 0 48 0
29.0001 162 0 50 0
29.5001 152 0 46 0
30.0001 147 0 41 0
30.5001 136 0 44 0
31.0001 134 0 37 0
31.5001 119 0 40 0
32.0001 120 0 34 0
32.5001 112 0 32 0
33.0001 108 0 29 0
33.5001 101 0 24 0
34 95 0 22 0
34.5 85 0 23 0
35 85 0 21 0
35.5 74 0 23 0
36 69 0 25 0
36.5 68 0 25 0
37 67 0 22 0
37.5 63 0 17 0
38 59 0 16 0
38.5 54 0 15 0
39 49 0 16 0
39.5 49 0 12 0
40 47 0 12 0
40.5 45 0 9 0
41 37 0 14 0
41.5 37 0 11 0
42 31 0 12 0
42.5 35 0 8 0
43 37 0 5 0
43.5 36 0 2 0
44 31 0 5 0
44.5 26 0 6 0
45 21 0 7 0
45.5 19 0 6 0
46 19 0 6 0
46.5 20 0 4 0
47 17 0 5 0
47.5 12 0 7 0
48 13 0 5 0
48.5 13 0 5 0
49 13 0 5 0
49.5 14 0 3 0
50 14 0 3 0
50.5 12 0 5 0
51 11 0 4 0
51.5 10 0 4 0
52 10 0 3 0
52.5 12 0 1 0
53 9 0 2 0
53.5 10 0 1 0
54 9 0 1 0
54.5 7 0 1 0
55 8 0 0 0
55.5 8 0 0 0
56 7 0 0 0
56.5 7 0 0 0
57 7 0 0 0
57.5 5 0 1 0
58 3 0 1 0
58.5 4 0 0 0
59 3 0 0 0
59.5 2 0 0 0
60 2 0 0 0
60.5 2 0 0 0
61 2 0 0 0
61.5 2 0 0 0
62 2 0 0 0
62.5 1 0 1 0
63 1 0 1 0
63.5 1 0 1 0
64 2 0 0 0
64.5 2 0 0 0
65 2 0 0 0
65.5 2 0 0 0
66 2 0 0 0
66.5 2 0 0 0
67 2 0 0 0
67.5 2 0 0 0
68 2 0 0 0
68.5 1 0 0 0
69 1 0 0 0
69.5 1 0 0 0
70 1 0 0 0
70.5 1 0 0 0
71 1 0 0 0
71.5 1 0 0 0
72 1 0 0 0
72.5 1 0 0 0
73 0 0 0 0
73.5 0 0 0 0
74 0 0 0 0
74.5 0 0 0 0
75 0 0 0 0
75.5 0 0 0 0
76 0 0 0 0
76.5 0 0 0 0
77 0 0 0 0
77.5 0 0 0 0
78 0 0 0 0
78.5 0 0 0 0
79 0 0 0 0
79.5 0 0 0 0
80 0 0 0 0
80.5 0 0 0 0
81 0 0 0 0
81.5 0 0 0 0
82 0 0 0 0
82.5 0 0 0 0
83 0 0 0 0
83.5 0 0 0 0
84 0 0 0 0
84.5 0 0 0 0
85 0 0 0 0
85.5 0 0 0 0
86 0 0 0 0
86.5 0 0 0 0
87 0 0 0 0
87.5 0 0 0 0
88 0 0 0 0
88.5 0 0 0 0
89 0 0 0 0
89.5 0 0 0 0
90 0 0 0 0
90.5 0 0 0 0
91 0 0 0 0
91.5 0 0 0 0
92 0 0 0 0
92.5 0 0 0 0
93 0 0 0 0
93.5 0 0 0 0
94 0 0 0 0
94.5 0 0 0 0
95 0 0 0 0
95.5 0 0 0 0
96 0 0 0 0
96.5 0 0 0 0
97 0 0 0 0
97.5 0 0 0 0
98 0 0 0 0
98.5 0 0 0 0
99 0 0 0 0
99.5 0 0 0 0
100 0 0 0 0
