0 4035 0 965 0
0.5001 3817 0 921 0
1.0001 3550 0 920 0
1.5001 3297 0 921 0
2.0001 3136 0 875 0
2.5 2983 0 818 0
3 2794 0 789 0
3.5 2696 0 707 0
4 2521 0 701 0
4.5 2381 0 652 0
5 2221 0 641 0
5.5 2102 0 637 0
6.0001 2024 0 547 0
6.5001 1902 0 527 0
7.0001 1784 0 502 0
7.5001 1698 0 465 0
8.0001 1632 0 436 0
8.5001 1547 0 427 0
9.0001 1468 0 398 0
9.5001 1386 0 367 0
10.0001 1276 0 362 0
10.5001 1184 0 369 0
11.0001 1161 0 322 0
11.5001 1132 0 287 0
12.0001 1049 0 286 0
12.5001 987 0 272 0
13.0001 958 0 242 0
13.5001 879 0 239 0
14.0001 827 0 234 0
14.5001 772 0 223 0
15.0001 744 0 207 0
15.5001 693 0 187 0
16.0001 657 0 184 0
16.5001 621 0 176 0
17.0001 580 0 167 0
17.5001 553 0 154 0
18.0001 530 0 138 0
18.5001 497 0 138 0
19.0001 469 0 140 0
19.5001 442 0 130 0
20.0001 426 0 120 0
20.5001 416 0 103 0
21.0001 397 0 93 0
21.5001 369 0 101 0
22.0001 352 0 95 0
22.5001 317 0 93 0
23.0001 311 0 86 0
23.5001 292 0 89 0
24.0001 283 0 80 0
24.5001 264 0 80 0
25.0001 252 0 74 0
25.5001 241 0 65 0
26.0001 232 0 58 0
26.5001 216 0 56 0
27.0001 208 0 52 0
27.5001 199 0 55 0
28.0001 201 0 43 0
28.5001 192 0 40 0
29.0001 170 0 41 0
29.5001 157 0 43 0
30.0001 152 0 36 0
30.5001 142 0 41 0
31.0001 136 0 36 0
31.5001 125 0 41 0
32.0001 120 0 34 0
32.5001 119 0 27 0
33.0001 114 0 22 0
33.5001 109 0 22 0
34 101 0 25 0
34.5 90 0 22 0
35 80 0 24 0
35.5 79 0 22 0
36 70 0 29 0
36.5 75 0 19 0
37 68 0 22 0
37.5 60 0 21 0
38 56 0 20 0
38.5 52 0 19 0
39 52 0 14 0
39.5 45 0 13 0
40 46 0 9 0
40.5 40 0 10 0
41 35 0 13 0
41.5 32 0 11 0
42 28 0 13 0
42.5 31 0 9 0
43 30 0 8 0
43.5 30 0 8 0
44 29 0 4 0
44.5 25 0 6 0
45 22 0 7 0
45.5 21 0 7 0
46 23 0 5 0
46.5 19 0 5 0
47 19 0 5 0
47.5 20 0 3 0
48 18 0 4 0
48.5 19 0 2 0
49 16 0 2 0
49.5 14 0 1 0
50 13 0 2 0
50.5 11 0 4 0
51 9 0 5 0
51.5 8 0 4 0
52 11 0 1 0
52.5 5 0 5 0
53 6 0 3 0
53.5 6 0 3 0
54 7 0 2 0
54.5 5 0 3 0
55 3 0 4 0
55.5 4 0 3 0
56 3 0 3 0
56.5 2 0 4 0
57 2 0 4 0
57.5 3 0 3 0
58 4 0 1 0
58.5 5 0 0 0
59 4 0 0 0
59.5 4 0 0 0
60 4 0 0 0
60.5 2 0 2 0
61 0 0 4 0
61.5 2 0 2 0
62 3 0 1 0
62.5 4 0 0 0
63 4 0 0 0
63.5 4 0 0 0
64 4 0 0 0
64.5 4 0 0 0
65 4 0 0 0
65.5 3 0 0 0
66 3 0 0 0
66.5 3 0 0 0
67 3 0 0 0
67.5 3 0 0 0
68 2 0 0 0
68.5 2 0 0 0
69 2 0 0 0
69.5 2 0 0 0
70 2 0 0 0
70.5 2 0 0 0
71 2 0 0 0
71.5 2 0 0 0
72 1 0 1 0
72.5 1 0 1 0
73 1 0 1 0
73.5 1 0 1 0
74 1 0 1 0
74.5 1 0 1 0
75 1 0 1 0
75.5 2 0 0 0
76 1 0 1 0
76.5 2 0 0 0
77 2 0 0 0
77.5 2 0 0 0
78 1 0 1 0
78.5 2 0 0 0
79 2 0 0 0
79.5 1 0 1 0
80 1 0 1 0
80.5 1 0 1 0
81 2 0 0 0
81.5 2 0 0 0
82 2 0 0 0
82.5 1 0 0 0
83 1 0 0 0
83.5 1 0 0 0
84 1 0 0 0
84.5 1 0 0 0
85 1 0 0 0
85.5 1 0 0 0
86 1 0 0 0
86.5 0 0 0 0
87 0 0 0 0
87.5 0 0 0 0
88 0 0 0 0
88.5 0 0 0 0
89 0 0 0 0
89.5 0 0 0 0
90 0 0 0 0
90.5 0 0 0 0
91 0 0 0 0
91.5 0 0 0 0
92 0 0 0 0
92.5 0 0 0 0
93 0 0 0 0
93.5 0 0 0 0
94 0 0 0 0
94.5 0 0 0 0
95 0 0 0 0
95.5 0 0 0 0
96 0 0 0 0
96.5 0 0 0 0
97 0 0 0 0
97.5 0 0 0 0
98 0 0 0 0
98.5 0 0 0 0
99 0 0 0 0
99.5 0 0 0 0
100 0 0 0 0
