0 4059 0 941 0
0.5001 3800 0 918 0
1.0001 3544 0 931 0
1.5001 3337 0 875 0
2.0001 3103 0 874 0
2.5 2918 0 835 0
3 2752 0 800 0
3.5 2661 0 734 0
4 2498 0 704 0
4.5 2368 0 663 0
5 2250 0 631 0
5.5 2119 0 617 0
6.0001 2002 0 579 0
6.5001 1908 0 523 0
7.0001 1798 0 511 0
7.5001 1673 0 498 0
8.0001 1584 0 462 0
8.5001 1502 0 438 0
9.0001 1422 0 412 0
9.5001 1348 0 402 0
10.0001 1310 0 338 0
10.5001 1257 0 312 0
11.0001 1171 0 318 0
11.5001 1102 0 309 0
12.0001 1030 0 301 0
12.5001 979 0 287 0
13.0001 920 0 272 0
13.5001 883 0 234 0
14.0001 835 0 227 0
14.5001 788 0 219 0
15.0001 746 0 196 0
15.5001 714 0 189 0
16.0001 675 0 172 0
16.5001 641 0 159 0
17.0001 609 0 152 0
17.5001 547 0 160 0
18.0001 507 0 161 0
18.5001 475 0 148 0
19.0001 443 0 138 0
19.5001 413 0 123 0
20.0001 393 0 109 0
20.5001 378 0 102 0
21.0001 362 0 94 0
21.5001 346 0 84 0
22.0001 331 0 78 0
22.5001 318 0 73 0
23.0001 278 0 76 0
23.5001 265 0 70 0
24.0001 250 0 61 0
24.5001 236 0 61 0
25.0001 216 0 67 0
25.5001 210 0 60 0
26.0001 205 0 53 0
26.5001 187 0 55 0
27.0001 169 0 59 0
27.5001 166 0 49 0
28.0001 161 0 42 0
28.5001 151 0 42 0
29.0001 143 0 39 0
29.5001 142 0 34 0
30.0001 137 0 32 0
30.5001 131 0 32 0
31.0001 121 0 33 0
31.5001 119 0 26 0
32.0001 116 0 22 0
32.5001 105 0 27 0
33.0001 102 0 24 0
33.5001 95 0 23 0
34 95 0 19 0
34.5 96 0 14 0
35 86 0 17 0
35.5 83 0 17 0
36 75 0 19 0
36.5 66 0 21 0
37 61 0 23 0
37.5 61 0 22 0
38 60 0 18 0
38.5 59 0 16 0
39 53 0 19 0
39.5 54 0 15 0
40 53 0 13 0
40.5 49 0 14 0
41 48 0 12 0
41.5 49 0 10 0
42 48 0 10 0
42.5 45 0 10 0
43 44 0 10 0
43.5 41 0 11 0
44 39 0 10 0
44.5 34 0 8 0
45 32 0 9 0
45.5 29 0 9 0
46 28 0 9 0
46.5 28 0 5 0
47 25 0 6 0
47.5 21 0 7 0
48 24 0 4 0
48.5 21 0 5 0
49 21 0 4 0
49.5 20 0 4 0
50 20 0 2 0
50.5 16 0 5 0
51 17 0 4 0
51.5 16 0 4 0
52 15 0 5 0
52.5 13 0 5 0
53 14 0 4 0
53.5 17 0 1 0
54 14 0 4 0
54.5 16 0 1 0
55 12 0 5 0
55.5 11 0 5 0
56 10 0 5 0
56.5 12 0 3 0
57 12 0 2 0
57.5 11 0 3 0
58 12 0 1 0
58.5 10 0 1 0
59 9 0 2 0
59.5 9 0 2 0
60 10 0 0 0
60.5 7 0 1 0
61 7 0 1 0
61.5 5 0 2 0
62 5 0 2 0
62.5 3 0 4 0
63 4 0 3 0
63.5 5 0 2 0
64 7 0 0 0
64.5 5 0 1 0
65 6 0 0 0
65.5 6 0 0 0
66 4 0 2 0
66.5 5 0 1 0
67 4 0 1 0
67.5 4 0 0 0
68 3 0 1 0
68.5 3 0 0 0
69 2 0 0 0
69.5 1 0 1 0
70 1 0 1 0
70.5 1 0 1 0
71 1 0 1 0
71.5 1 0 1 0
72 1 0 1 0
72.5 1 0 0 0
73 1 0 0 0
73.5 0 0 1 0
74 0 0 1 0
74.5 1 0 0 0
75 1 0 0 0
75.5 1 0 0 0
76 1 0 0 0
76.5 1 0 0 0
77 0 0 0 0
77.5 0 0 0 0
78 0 0 0 0
78.5 0 0 0 0
79 0 0 0 0
79.5 0 0 0 0
80 0 0 0 0
80.5 0 0 0 0
81 0 0 0 0
81.5 0 0 0 0
82 0 0 0 0
82.5 0 0 0 0
83 0 0 0 0
83.5 0 0 0 0
84 0 0 0 0
84.5 0 0 0 0
85 0 0 0 0
85.5 0 0 0 0
86 0 0 0 0
86.5 0 0 0 0
87 0 0 0 0
87.5 0 0 0 0
88 0 0 0 0
88.5 0 0 0 0
89 0 0 0 0
89.5 0 0 0 0
90 0 0 0 0
90.5 0 0 0 0
91 0 0 0 0
91.5 0 0 0 0
92 0 0 0 0
92.5 0 0 0 0
93 0 0 0 0
93.5 0 0 0 0
94 0 0 0 0
94.5 0 0 0 0
95 0 0 0 0
95.5 0 0 0 0
96 0 0 0 0
96.5 0 0 0 0
97 0 0 0 0
97.5 0 0 0 0
98 0 0 0 0
98.5 0 0 0 0
99 0 0 0 0
99.5 0 0 0 0
100 0 0 0 0
