0 4040 0 960 0
0.5001 3783 0 939 0
1.0001 3532 0 936 0
1.5001 3310 0 921 0
2.0001 3103 0 894 0
2.5 2957 0 824 0
3 2757 0 813 0
3.5 2606 0 768 0
4 2487 0 735 0
4.5 2415 0 646 0
5 2276 0 642 0
5.5 2210 0 573 0
6.0001 2116 0 529 0
6.5001 2012 0 509 0
7.0001 1888 0 493 0
7.5001 1801 0 464 0
8.0001 1692 0 458 0
8.5001 1633 0 427 0
9.0001 1551 0 402 0
9.5001 1441 0 405 0
10.0001 1350 0 400 0
10.5001 1266 0 388 0
11.0001 1204 0 360 0
11.5001 1154 0 334 0
12.0001 1097 0 304 0
12.5001 1027 0 306 0
13.0001 984 0 283 0
13.5001 922 0 273 0
14.0001 869 0 261 0
14.5001 814 0 249 0
15.0001 785 0 211 0
15.5001 747 0 199 0
16.0001 715 0 181 0
16.5001 667 0 181 0
17.0001 649 0 165 0
17.5001 614 0 143 0
18.0001 585 0 132 0
18.5001 542 0 136 0
19.0001 507 0 133 0
19.5001 470 0 140 0
20.0001 471 0 118 0
20.5001 433 0 118 0
21.0001 413 0 105 0
21.5001 378 0 108 0
22.0001 355 0 105 0
22.5001 340 0 100 0
23.0001 337 0 85 0
23.5001 327 0 73 0
24.0001 316 0 66 0
24.5001 293 0 63 0
25.0001 254 0 73 0
25.5001 230 0 67 0
26.0001 221 0 62 0
26.5001 217 0 59 0
27.0001 207 0 49 0
27.5001 186 0 52 0
28.0001 174 0 46 0
28.5001 165 0 49 0
29.0001 159 0 43 0
29.5001 159 0 37 0
30.0001 149 0 39 0
30.5001 144 0 39 0
31.0001 136 0 39 0
31.5001 130 0 37 0
32.0001 123 0 33 0
32.5001 112 0 32 0
33.0001 109 0 28 0
33.5001 103 0 26 0
34 95 0 27 0
34.5 89 0 27 0
35 82 0 23 0
35.5 78 0 25 0
36 78 0 22 0
36.5 76 0 18 0
37 72 0 18 0
37.5 67 0 17 0
38 61 0 17 0
38.5 55 0 20 0
39 54 0 18 0
39.5 46 0 24 0
40 49 0 19 0
40.5 46 0 19 0
41 44 0 17 0
41.5 38 0 16 0
42 33 0 20 0
42.5 30 0 22 0
43 31 0 18 0
43.5 35 0 13 0
44 34 0 10 0
44.5 31 0 10 0
45 30 0 11 0
45.5 30 0 8 0
46 26 0 10 0
46.5 26 0 9 0
47 26 0 7 0
47.5 23 0 8 0
48 22 0 4 0
48.5 22 0 3 0
49 16 0 8 0
49.5 18 0 6 0
50 16 0 8 0
50.5 14 0 7 0
51 10 0 9 0
51.5 13 0 6 0
52 13 0 5 0
52.5 11 0 7 0
53 13 0 5 0
53.5 13 0 4 0
54 8 0 7 0
54.5 11 0 4 0
55 8 0 6 0
55.5 8 0 5 0
56 8 0 5 0
56.5 10 0 2 0
57 8 0 1 0
57.5 4 0 4 0
58 3 0 4 0
58.5 4 0 3 0
59 6 0 1 0
59.5 6 0 1 0
60 5 0 2 0
60.5 6 0 1 0
61 6 0 1 0
61.5 5 0 2 0
62 5 0 2 0
62.5 5 0 2 0
63 7 0 0 0
63.5 5 0 0 0
64 4 0 1 0
64.5 4 0 1 0
65 4 0 1 0
65.5 4 0 1 0
66 4 0 0 0
66.5 4 0 0 0
67 4 0 0 0
67.5 4 0 0 0
68 4 0 0 0
68.5 3 0 1 0
69 1 0 3 0
69.5 1 0 3 0
70 2 0 2 0
70.5 2 0 2 0
71 1 0 3 0
71.5 2 0 2 0
72 1 0 3 0
72.5 0 0 4 0
73 2 0 2 0
73.5 3 0 1 0
74 3 0 1 0
74.5 4 0 0 0
75 3 0 1 0
75.5 4 0 0 0
76 4 0 0 0
76.5 4 0 0 0
77 3 0 1 0
77.5 3 0 0 0
78 3 0 0 0
78.5 3 0 0 0
79 2 0 0 0
79.5 1 0 1 0
80 1 0 1 0
80.5 1 0 1 0
81 2 0 0 0
81.5 2 0 0 0
82 2 0 0 0
82.5 2 0 0 0
83 2 0 0 0
83.5 2 0 0 0
84 2 0 0 0
84.5 2 0 0 0
85 2 0 0 0
85.5 2 0 0 0
86 2 0 0 0
86.5 1 0 1 0
87 1 0 1 0
87.5 0 0 2 0
88 2 0 0 0
88.5 1 0 1 0
89 1 0 1 0
89.5 2 0 0 0
90 2 0 0 0
90.5 2 0 0 0
91 1 0 0 0
91.5 1 0 0 0
92 1 0 0 0
92.5 1 0 0 0
93 1 0 0 0
93.5 1 0 0 0
94 1 0 0 0
94.5 1 0 0 0
95 0 0 0 0
95.5 0 0 0 0
96 0 0 0 0
96.5 0 0 0 0
97 0 0 0 0
97.5 0 0 0 0
98 0 0 0 0
98.5 0 0 0 0
99 0 0 0 0
99.5 0 0 0 0
100 0 0 0 0
