0 4029 0 971 0
0.5001 3749 0 1003 0
1.0001 3545 0 959 0
1.5001 3319 0 961 0
2.0001 3151 0 919 0
2.5 2999 0 861 0
3 2872 0 797 0
3.5 2740 0 760 0
4 2598 0 737 0
4.5 2448 0 697 0
5 2339 0 657 0
5.5 2245 0 611 0
6.0001 2118 0 575 0
6.5001 1990 0 565 0
7.0001 1892 0 522 0
7.5001 1792 0 498 0
8.0001 1681 0 495 0
8.5001 1622 0 436 0
9.0001 1532 0 428 0
9.5001 1454 0 401 0
10.0001 1389 0 375 0
10.5001 1293 0 379 0
11.0001 1218 0 362 0
11.5001 1174 0 333 0
12.0001 1130 0 306 0
12.5001 1079 0 275 0
13.0001 1038 0 255 0
13.5001 986 0 242 0
14.0001 910 0 248 0
14.5001 845 0 248 0
15.0001 807 0 228 0
15.5001 763 0 219 0
16.0001 732 0 199 0
16.5001 691 0 193 0
17.0001 665 0 175 0
17.5001 645 0 154 0
18.0001 608 0 157 0
18.5001 558 0 169 0
19.0001 527 0 163 0
19.5001 519 0 144 0
20.0001 491 0 142 0
20.5001 465 0 139 0
21.0001 449 0 119 0
21.5001 401 0 131 0
22.0001 392 0 111 0
22.5001 369 0 111 0
23.0001 353 0 96 0
23.5001 335 0 99 0
24.0001 335 0 84 0
24.5001 324 0 75 0
25.0001 297 0 80 0
25.5001 279 0 74 0
26.0001 273 0 65 0
26.5001 255 0 71 0
27.0001 246 0 65 0
27.5001 237 0 57 0
28.0001 216 0 64 0
28.5001 215 0 53 0
29.0001 188 0 62 0
29.5001 188 0 51 0
30.0001 177 0 47 0
30.5001 170 0 43 0
31.0001 155 0 44 0
31.5001 140 0 44 0
32.0001 127 0 50 0
32.5001 123 0 41 0
33.0001 122 0 33 0
33.5001 114 0 35 0
34 104 0 33 0
34.5 95 0 35 0
35 88 0 33 0
35.5 83 0 32 0
36 77 0 28 0
36.5 74 0 23 0
37 65 0 24 0
37.5 58 0 23 0
38 62 0 14 0
38.5 60 0 14 0
39 53 0 16 0
39.5 51 0 13 0
40 47 0 15 0
40.5 50 0 9 0
41 46 0 8 0
41.5 43 0 9 0
42 38 0 10 0
42.5 39 0 9 0
43 33 0 10 0
43.5 34 0 6 0
44 29 0 9 0
44.5 30 0 6 0
45 29 0 6 0
45.5 25 0 6 0
46 22 0 6 0
46.5 23 0 5 0
47 19 0 6 0
47.5 17 0 7 0
48 19 0 5 0
48.5 18 0 5 0
49 16 0 5 0
49.5 16 0 3 0
50 15 0 3 0
50.5 17 0 1 0
51 14 0 2 0
51.5 14 0 1 0
52 11 0 3 0
52.5 11 0 3 0
53 12 0 2 0
53.5 12 0 2 0
54 13 0 1 0
54.5 10 0 1 0
55 8 0 2 0
55.5 7 0 2 0
56 8 0 1 0
56.5 9 0 0 0
57 9 0 0 0
57.5 7 0 1 0
58 4 0 2 0
58.5 2 0 3 0
59 4 0 1 0
59.5 2 0 2 0
60 2 0 2 0
60.5 2 0 2 0
61 2 0 2 0
61.5 4 0 0 0
62 4 0 0 0
62.5 3 0 0 0
63 3 0 0 0
63.5 3 0 0 0
64 3 0 0 0
64.5 2 0 1 0
65 3 0 0 0
65.5 2 0 1 0
66 2 0 1 0
66.5 2 0 1 0
67 3 0 0 0
67.5 1 0 2 0
68 1 0 2 0
68.5 2 0 1 0
69 1 0 2 0
69.5 2 0 1 0
70 1 0 2 0
70.5 1 0 1 0
71 1 0 1 0
71.5 0 0 2 0
72 1 0 1 0
72.5 0 0 2 0
73 1 0 1 0
73.5 1 0 1 0
74 1 0 1 0
74.5 1 0 1 0
75 1 0 1 0
75.5 1 0 1 0
76 2 0 0 0
76.5 2 0 0 0
77 2 0 0 0
77.5 2 0 0 0
78 2 0 0 0
78.5 2 0 0 0
79 1 0 0 0
79.5 1 0 0 0
80 1 0 0 0
80.5 1 0 0 0
81 1 0 0 0
81.5 1 0 0 0
82 1 0 0 0
82.5 1 0 0 0
83 0 0 0 0
83.5 0 0 0 0
84 0 0 0 0
84.5 0 0 0 0
85 0 0 0 0
85.5 0 0 0 0
86 0 0 0 0
86.5 0 0 0 0
87 0 0 0 0
87.5 0 0 0 0
88 0 0 0 0
88.5 0 0 0 0
89 0 0 0 0
89.5 0 0 0 0
90 0 0 0 0
90.5 0 0 0 0
91 0 0 0 0
91.5 0 0 0 0
92 0 0 0 0
92.5 0 0 0 0
93 0 0 0 0
93.5 0 0 0 0
94 0 0 0 0
94.5 0 0 0 0
95 0 0 0 0
95.5 0 0 0 0
96 0 0 0 0
96.5 0 0 0 0
97 0 0 0 0
97.5 0 0 0 0
98 0 0 0 0
98.5 0 0 0 0
99 0 0 0 0
99.5 0 0 0 0
100 0 0 0 0
