0 4058 0 942 0
0.5001 3802 0 923 0
1.0001 3600 0 896 0
1.5001 3360 0 909 0
2.0001 3194 0 831 0
2.5 2987 0 822 0
3 2834 0 774 0
3.5 2698 0 705 0
4 2549 0 680 0
4.5 2392 0 664 0
5 2294 0 605 0
5.5 2169 0 566 0
6.0001 2067 0 530 0
6.5001 1950 0 510 0
7.0001 1849 0 474 0
7.5001 1746 0 457 0
8.0001 1630 0 447 0
8.5001 1546 0 416 0
9.0001 1469 0 390 0
9.5001 1376 0 391 0
10.0001 1326 0 353 0
10.5001 1261 0 337 0
11.0001 1168 0 349 0
11.5001 1115 0 304 0
12.0001 1046 0 308 0
12.5001 1012 0 283 0
13.0001 954 0 268 0
13.5001 917 0 239 0
14.0001 875 0 223 0
14.5001 799 0 238 0
15.0001 758 0 219 0
15.5001 714 0 219 0
16.0001 680 0 200 0
16.5001 645 0 182 0
17.0001 621 0 162 0
17.5001 565 0 178 0
18.0001 540 0 161 0
18.5001 512 0 150 0
19.0001 476 0 149 0
19.5001 463 0 127 0
20.0001 443 0 118 0
20.5001 428 0 105 0
21.0001 394 0 105 0
21.5001 371 0 101 0
22.0001 356 0 91 0
22.5001 330 0 96 0
23.0001 307 0 93 0
23.5001 289 0 91 0
24.0001 276 0 89 0
24.5001 269 0 77 0
25.0001 255 0 73 0
25.5001 247 0 68 0
26.0001 224 0 76 0
26.5001 224 0 59 0
27.0001 213 0 52 0
27.5001 201 0 54 0
28.0001 194 0 51 0
28.5001 182 0 48 0
29.0001 185 0 39 0
29.5001 169 0 48 0
30.0001 161 0 45 0
30.5001 155 0 40 0
31.0001 150 0 36 0
31.5001 130 0 46 0
32.0001 126 0 44 0
32.5001 119 0 41 0
33.0001 123 0 32 0
33.5001 120 0 27 0
34 115 0 26 0
34.5 112 0 24 0
35 104 0 25 0
35.5 97 0 25 0
36 91 0 23 0
36.5 86 0 23 0
37 82 0 20 0
37.5 76 0 20 0
38 69 0 25 0
38.5 63 0 26 0
39 54 0 27 0
39.5 51 0 27 0
40 51 0 22 0
40.5 54 0 18 0
41 57 0 14 0
41.5 49 0 15 0
42 48 0 11 0
42.5 45 0 10 0
43 40 0 13 0
43.5 38 0 14 0
44 31 0 17 0
44.5 36 0 11 0
45 36 0 10 0
45.5 35 0 9 0
46 30 0 11 0
46.5 32 0 8 0
47 29 0 8 0
47.5 30 0 5 0
48 27 0 7 0
48.5 22 0 8 0
49 22 0 7 0
49.5 23 0 4 0
50 23 0 4 0
50.5 21 0 5 0
51 19 0 4 0
51.5 18 0 4 0
52 17 0 3 0
52.5 17 0 2 0
53 18 0 1 0
53.5 18 0 1 0
54 15 0 2 0
54.5 13 0 3 0
55 15 0 1 0
55.5 13 0 2 0
56 14 0 1 0
56.5 11 0 3 0
57 9 0 5 0
57.5 9 0 3 0
58 7 0 3 0
58.5 7 0 3 0
59 7 0 3 0
59.5 5 0 5 0
60 8 0 2 0
60.5 8 0 2 0
61 7 0 2 0
61.5 5 0 2 0
62 6 0 1 0
62.5 4 0 2 0
63 6 0 0 0
63.5 5 0 1 0
64 6 0 0 0
64.5 6 0 0 0
65 6 0 0 0
65.5 5 0 1 0
66 5 0 1 0
66.5 4 0 1 0
67 3 0 1 0
67.5 3 0 1 0
68 3 0 1 0
68.5 2 0 1 0
69 2 0 1 0
69.5 2 0 1 0
70 2 0 1 0
70.5 1 0 1 0
71 1 0 1 0
71.5 1 0 1 0
72 0 0 2 0
72.5 1 0 1 0
73 0 0 2 0
73.5 0 0 1 0
74 0 0 1 0
74.5 1 0 0 0
75 0 0 0 0
75.5 0 0 0 0
76 0 0 0 0
76.5 0 0 0 0
77 0 0 0 0
77.5 0 0 0 0
78 0 0 0 0
78.5 0 0 0 0
79 0 0 0 0
79.5 0 0 0 0
80 0 0 0 0
80.5 0 0 0 0
81 0 0 0 0
81.5 0 0 0 0
82 0 0 0 0
82.5 0 0 0 0
83 0 0 0 0
83.5 0 0 0 0
84 0 0 0 0
84.5 0 0 0 0
85 0 0 0 0
85.5 0 0 0 0
86 0 0 0 0
86.5 0 0 0 0
87 0 0 0 0
87.5 0 0 0 0
88 0 0 0 0
88.5 0 0 0 0
89 0 0 0 0
89.5 0 0 0 0
90 0 0 0 0
90.5 0 0 0 0
91 0 0 0 0
91.5 0 0 0 0
92 0 0 0 0
92.5 0 0 0 0
93 0 0 0 0
93.5 0 0 0 0
94 0 0 0 0
94.5 0 0 0 0
95 0 0 0 0
95.5 0 0 0 0
96 0 0 0 0
96.5 0 0 0 0
97 0 0 0 0
97.5 0 0 0 0
98 0 0 0 0
98.5 0 0 0 0
99 0 0 0 0
99.5 0 0 0 0
100 0 0 0 0
