0 4075 0 925 0
0.5001 3818 0 897 0
1.0001 3539 0 911 0
1.5001 3327 0 890 0
2.0001 3105 0 870 0
2.5 2962 0 818 0
3 2814 0 799 0
3.5 2667 0 760 0
4 2510 0 712 0
4.5 2379 0 668 0
5 2281 0 594 0
5.5 2142 0 575 0
6.0001 2006 0 552 0
6.5001 1885 0 532 0
7.0001 1804 0 508 0
7.5001 1720 0 466 0
8.0001 1612 0 459 0
8.5001 1510 0 442 0
9.0001 1429 0 421 0
9.5001 1340 0 414 0
10.0001 1274 0 382 0
10.5001 1218 0 361 0
11.0001 1136 0 352 0
11.5001 1074 0 324 0
12.0001 1041 0 287 0
12.5001 977 0 278 0
13.0001 911 0 273 0
13.5001 872 0 259 0
14.0001 832 0 242 0
14.5001 772 0 233 0
15.0001 738 0 214 0
15.5001 709 0 193 0
16.0001 668 0 196 0
16.5001 638 0 187 0
17.0001 601 0 170 0
17.5001 583 0 154 0
18.0001 557 0 139 0
18.5001 533 0 126 0
19.0001 488 0 128 0
19.5001 452 0 131 0
20.0001 433 0 108 0
20.5001 398 0 125 0
21.0001 382 0 119 0
21.5001 370 0 114 0
22.0001 362 0 90 0
22.5001 360 0 75 0
23.0001 320 0 96 0
23.5001 312 0 87 0
24.0001 293 0 87 0
24.5001 269 0 87 0
25.0001 266 0 76 0
25.5001 256 0 71 0
26.0001 227 0 81 0
26.5001 221 0 69 0
27.0001 197 0 71 0
27.5001 186 0 68 0
28.0001 176 0 64 0
28.5001 167 0 63 0
29.0001 164 0 52 0
29.5001 163 0 42 0
30.0001 158 0 36 0
30.5001 151 0 36 0
31.0001 139 0 37 0
31.5001 132 0 34 0
32.0001 124 0 34 0
32.5001 114 0 31 0
33.0001 102 0 33 0
33.5001 94 0 29 0
34 90 0 30 0
34.5 89 0 29 0
35 88 0 25 0
35.5 85 0 23 0
36 85 0 16 0
36.5 82 0 16 0
37 66 0 23 0
37.5 72 0 16 0
38 61 0 20 0
38.5 57 0 18 0
39 51 0 21 0
39.5 54 0 13 0
40 48 0 14 0
40.5 46 0 13 0
41 44 0 10 0
41.5 41 0 10 0
42 39 0 9 0
42.5 35 0 11 0
43 33 0 8 0
43.5 29 0 9 0
44 29 0 8 0
44.5 29 0 5 0
45 25 0 8 0
45.5 27 0 5 0
46 25 0 6 0
46.5 25 0 5 0
47 24 0 5 0
47.5 24 0 5 0
48 20 0 7 0
48.5 21 0 3 0
49 21 0 3 0
49.5 17 0 4 0
50 15 0 5 0
50.5 15 0 3 0
51 14 0 3 0
51.5 10 0 6 0
52 8 0 6 0
52.5 9 0 4 0
53 10 0 3 0
53.5 11 0 1 0
54 9 0 3 0
54.5 10 0 1 0
55 6 0 2 0
55.5 6 0 2 0
56 6 0 1 0
56.5 5 0 2 0
57 6 0 1 0
57.5 5 0 1 0
58 4 0 1 0
58.5 3 0 2 0
59 5 0 0 0
59.5 3 0 2 0
60 4 0 1 0
60.5 4 0 1 0
61 4 0 0 0
61.5 2 0 2 0
62 3 0 1 0
62.5 4 0 0 0
63 3 0 0 0
63.5 2 0 0 0
64 2 0 0 0
64.5 2 0 0 0
65 2 0 0 0
65.5 2 0 0 0
66 2 0 0 0
66.5 2 0 0 0
67 1 0 0 0
67.5 1 0 0 0
68 1 0 0 0
68.5 1 0 0 0
69 1 0 0 0
69.5 1 0 0 0
70 1 0 0 0
70.5 1 0 0 0
71 0 0 0 0
71.5 0 0 0 0
72 0 0 0 0
72.5 0 0 0 0
73 0 0 0 0
73.5 0 0 0 0
74 0 0 0 0
74.5 0 0 0 0
75 0 0 0 0
75.5 0 0 0 0
76 0 0 0 0
76.5 0 0 0 0
77 0 0 0 0
77.5 0 0 0 0
78 0 0 0 0
78.5 0 0 0 0
79 0 0 0 0
79.5 0 0 0 0
80 0 0 0 0
80.5 0 0 0 0
81 0 0 0 0
81.5 0 0 0 0
82 0 0 0 0
82.5 0 0 0 0
83 0 0 0 0
83.5 0 0 0 0
84 0 0 0 0
84.5 0 0 0 0
85 0 0 0 0
85.5 0 0 0 0
86 0 0 0 0
86.5 0 0 0 0
87 0 0 0 0
87.5 0 0 0 0
88 0 0 0 0
88.5 0 0 0 0
89 0 0 0 0
89.5 0 0 0 0
90 0 0 0 0
90.5 0 0 0 0
91 0 0 0 0
91.5 0 0 0 0
92 0 0 0 0
92.5 0 0 0 0
93 0 0 0 0
93.5 0 0 0 0
94 0 0 0 0
94.5 0 0 0 0
95 0 0 0 0
95.5 0 0 0 0
96 0 0 0 0
96.5 0 0 0 0
97 0 0 0 0
97.5 0 0 0 0
98 0 0 0 0
98.5 0 0 0 0
99 0 0 0 0
99.5 0 0 0 0
100 0 0 0 0
