0 4031 0 969 0
0.5001 3774 0 936 0
1.0001 3571 0 912 0
1.5001 3308 0 904 0
2.0001 3111 0 861 0
2.5 2924 0 835 0
3 2767 0 791 0
3.5 2584 0 779 0
4 2472 0 720 0
4.5 2350 0 673 0
5 2251 0 637 0
5.5 2122 0 602 0
6.0001 2015 0 562 0
6.5001 1906 0 527 0
7.0001 1779 0 513 0
7.5001 1683 0 473 0
8.0001 1606 0 445 0
8.5001 1517 0 416 0
9.0001 1436 0 389 0
9.5001 1364 0 373 0
10.0001 1273 0 367 0
10.5001 1214 0 346 0
11.0001 1167 0 322 0
11.5001 1113 0 294 0
12.0001 1043 0 284 0
12.5001 998 0 260 0
13.0001 943 0 246 0
13.5001 900 0 230 0
14.0001 859 0 208 0
14.5001 820 0 196 0
15.0001 771 0 189 0
15.5001 724 0 196 0
16.0001 686 0 181 0
16.5001 667 0 163 0
17.0001 644 0 145 0
17.5001 604 0 143 0
18.0001 567 0 148 0
18.5001 544 0 138 0
19.0001 527 0 128 0
19.5001 493 0 133 0
20.0001 458 0 135 0
20.5001 440 0 113 0
21.0001 399 0 121 0
21.5001 372 0 114 0
22.0001 349 0 108 0
22.5001 351 0 94 0
23.0001 334 0 93 0
23.5001 340 0 74 0
24.0001 299 0 91 0
24.5001 294 0 80 0
25.0001 289 0 69 0
25.5001 275 0 67 0
26.0001 263 0 60 0
26.5001 242 0 60 0
27.0001 244 0 45 0
27.5001 223 0 50 0
28.0001 211 0 47 0
28.5001 201 0 43 0
29.0001 184 0 48 0
29.5001 173 0 50 0
30.0001 153 0 50 0
30.5001 146 0 51 0
31.0001 146 0 44 0
31.5001 138 0 40 0
32.0001 122 0 50 0
32.5001 115 0 51 0
33.0001 113 0 42 0
33.5001 109 0 38 0
34 104 0 37 0
34.5 96 0 40 0
35 89 0 39 0
35.5 93 0 30 0
36 94 0 23 0
36.5 90 0 24 0
37 85 0 21 0
37.5 76 0 19 0
38 70 0 19 0
38.5 67 0 19 0
39 72 0 11 0
39.5 61 0 17 0
40 58 0 15 0
40.5 58 0 13 0
41 53 0 14 0
41.5 48 0 15 0
42 43 0 18 0
42.5 37 0 20 0
43 31 0 18 0
43.5 32 0 16 0
44 32 0 13 0
44.5 30 0 11 0
45 28 0 12 0
45.5 26 0 11 0
46 29 0 8 0
46.5 27 0 8 0
47 27 0 8 0
47.5 25 0 7 0
48 19 0 11 0
48.5 25 0 4 0
49 24 0 4 0
49.5 23 0 5 0
50 24 0 3 0
50.5 20 0 7 0
51 22 0 4 0
51.5 22 0 3 0
52 23 0 2 0
52.5 20 0 4 0
53 20 0 4 0
53.5 20 0 4 0
54 18 0 6 0
54.5 17 0 6 0
55 13 0 8 0
55.5 16 0 5 0
56 18 0 3 0
56.5 18 0 3 0
57 16 0 5 0
57.5 15 0 5 0
58 14 0 5 0
58.5 15 0 3 0
59 13 0 5 0
59.5 13 0 4 0
60 16 0 1 0
60.5 13 0 2 0
61 14 0 1 0
61.5 12 0 2 0
62 11 0 2 0
62.5 9 0 2 0
63 9 0 2 0
63.5 7 0 2 0
64 9 0 0 0
64.5 6 0 3 0
65 9 0 0 0
65.5 9 0 0 0
66 5 0 3 0
66.5 6 0 1 0
67 7 0 0 0
67.5 7 0 0 0
68 6 0 0 0
68.5 5 0 0 0
69 5 0 0 0
69.5 5 0 0 0
70 4 0 1 0
70.5 2 0 3 0
71 2 0 3 0
71.5 4 0 1 0
72 5 0 0 0
72.5 3 0 0 0
73 3 0 0 0
73.5 2 0 1 0
74 2 0 1 0
74.5 2 0 1 0
75 3 0 0 0
75.5 2 0 0 0
76 2 0 0 0
76.5 2 0 0 0
77 1 0 1 0
77.5 1 0 1 0
78 2 0 0 0
78.5 1 0 1 0
79 1 0 1 0
79.5 1 0 1 0
80 1 0 1 0
80.5 2 0 0 0
81 2 0 0 0
81.5 2 0 0 0
82 2 0 0 0
82.5 2 0 0 0
83 1 0 1 0
83.5 2 0 0 0
84 2 0 0 0
84.5 2 0 0 0
85 2 0 0 0
85.5 1 0 1 0
86 2 0 0 0
86.5 1 0 1 0
87 0 0 2 0
87.5 0 0 2 0
88 1 0 1 0
88.5 2 0 0 0
89 2 0 0 0
89.5 2 0 0 0
90 2 0 0 0
90.5 2 0 0 0
91 2 0 0 0
91.5 2 0 0 0
92 2 0 0 0
92.5 2 0 0 0
93 1 0 0 0
93.5 1 0 0 0
94 1 0 0 0
94.5 1 0 0 0
95 0 0 0 0
95.5 0 0 0 0
96 0 0 0 0
96.5 0 0 0 0
97 0 0 0 0
97.5 0 0 0 0
98 0 0 0 0
98.5 0 0 0 0
99 0 0 0 0
99.5 0 0 0 0
100 0 0 0 0
