0 1210 0 0 0 0 0
2 1172 43 0 4 0 0
4.00004 1176 34 0 2 0 0
6 1183 40 0 5 0 0
8 1187 40 0 4 0 0
10 1185 45 0 5 0 0
12 1191 41 0 3 0 0
14 1194 34 0 9 0 0
16 1186 51 0 3 0 0
18 1191 45 0 4 0 0
20 1204 36 0 3 0 0
22 1192 48 0 5 0 0
24 1194 48 0 2 0 0
26 1198 43 0 2 0 0
28 1201 43 0 2 0 0
30 1203 40 0 2 0 0
32 1198 47 0 1 0 0
34 1205 45 0 5 0 0
36 1200 46 0 3 0 0
38 1212 46 0 4 0 0
40 1208 43 0 6 0 0
42 1214 38 0 5 0 0
44 1221 41 0 1 0 0
46 1217 48 0 7 0 0
48 1229 37 0 6 0 0
50 1211 52 0 5 0 0
52 1089 0 176 0 4 0
54 1023 0 243 1 1 0
56 940 0 333 0 5 0
58 876 1 395 2 3 0
60 808 0 467 0 5 0
62 764 0 514 0 5 0
64 719 1 558 0 3 0
66 683 0 581 0 5 0
68 648 0 613 1 3 0
70 611 0 649 1 4 0
72 580 0 675 2 3 0
74 541 0 719 1 2 0
76 509 0 747 0 2 0
78 476 1 776 2 4 0
80 439 0 811 0 3 0
82 418 0 828 0 1 0
84 384 0 859 0 3 0
86 368 0 872 0 3 0
88 343 0 893 0 4 0
90 319 0 916 1 3 0
92 299 0 935 0 2 0
94 279 0 959 1 1 0
96 264 0 974 0 2 0
98 247 0 989 0 3 0
100 228 0 1006 0 3 0
102 215 0 1009 0 4 0
104 203 0 1016 0 3 0
106 189 0 1038 2 1 0
108 181 0 1053 0 2 0
110 172 1 1074 0 3 0
112 160 0 1081 0 5 0
114 153 0 1094 0 1 0
116 138 0 1106 3 7 0
118 130 0 1119 0 5 0
120 123 0 1128 0 2 0
122 115 0 1133 0 4 0
124 107 0 1148 0 2 0
126 98 0 1152 2 6 0
128 89 0 1161 1 5 0
130 84 0 1172 1 1 0
132 79 1 1180 0 2 0
134 75 0 1194 0 2 0
136 66 0 1197 0 4 0
138 63 0 1200 1 3 0
140 58 0 1213 1 3 0
142 54 0 1213 1 3 0
144 52 0 1203 0 7 0
146 48 0 1221 0 3 0
148 47 0 1227 0 1 0
150 43 0 1226 0 3 0
152 40 0 1231 0 5 0
154 37 0 1236 0 5 0
156 37 0 1235 0 4 0
158 35 0 1236 0 4 0
160 32 0 1234 0 4 0
162 30 0 1248 0 5 0
164 27 0 1246 1 5 0
166 26 0 1250 0 3 0
168 25 1 1247 0 6 0
170 22 0 1238 1 5 0
172 20 0 1244 0 3 0
174 19 0 1239 1 6 0
176 19 0 1244 1 3 0
178 16 0 1244 0 3 0
180 15 0 1249 1 3 0
182 15 0 1253 0 1 0
184 13 0 1252 0 5 0
186 11 0 1258 0 4 0
188 11 0 1244 0 6 0
190 11 0 1239 1 3 0
192 11 0 1239 0 4 0
194 11 0 1237 1 5 0
196 9 0 1240 0 1 0
198 8 0 1245 0 11 0
200 8 0 1244 0 4 0
