0 894 0 0 0 0 0
2 890 0 0 2 0 0
4.00004 892 0 0 2 0 0
6 891 0 0 1 0 0
8 897 0 0 2 0 0
10 900 0 0 6 0 0
12 912 0 0 4 0 0
14 916 0 0 3 0 0
16 922 0 0 4 0 0
18 920 0 0 5 0 0
20 924 0 0 4 0 0
22 929 0 0 2 0 0
24 928 0 0 3 0 0
26 938 0 0 3 0 0
28 940 0 0 3 0 0
30 941 0 0 5 0 0
32 935 0 0 7 0 0
34 934 0 0 2 0 0
36 932 0 0 4 0 0
38 936 0 0 3 0 0
40 942 0 0 2 0 0
42 936 0 0 4 0 0
44 942 0 0 1 0 0
46 949 0 0 5 0 0
48 948 0 0 1 0 0
50 947 0 0 4 0 0
52 940 0 8 1 1 0
54 932 0 17 0 1 0
56 923 0 29 0 1 0
58 917 0 34 1 1 0
60 901 0 42 2 1 0
62 892 0 52 3 2 0
64 887 0 63 1 0 0
66 880 0 72 1 2 0
68 864 0 84 2 0 0
70 852 0 88 3 4 0
72 846 0 95 4 2 0
74 839 0 100 0 0 0
76 835 0 112 1 2 0
78 827 0 122 0 0 0
80 819 0 137 2 1 0
82 811 0 143 0 2 0
84 799 0 151 2 0 0
86 787 0 156 4 3 0
88 782 0 166 2 1 0
90 776 0 166 0 2 0
92 761 0 182 3 1 0
94 753 0 190 1 2 0
96 748 0 201 1 3 0
98 743 0 214 2 0 0
100 735 0 219 1 3 0
102 732 0 225 0 2 0
104 726 0 232 2 4 0
106 717 0 236 2 3 0
108 710 0 248 2 2 0
110 703 0 253 0 1 0
112 702 0 259 1 1 0
114 692 0 269 2 0 0
116 687 0 280 0 2 0
118 681 0 282 3 3 0
120 671 0 286 1 0 0
122 667 0 295 0 0 0
124 660 0 294 2 2 0
126 655 0 301 0 2 0
128 646 0 312 2 4 0
130 640 0 317 0 5 0
132 634 0 324 0 5 0
134 628 0 328 0 3 0
136 619 0 337 3 0 0
138 614 0 344 1 3 0
140 607 0 349 4 1 0
142 604 0 350 0 4 0
144 595 0 360 2 4 0
146 590 0 373 0 1 0
148 584 0 377 1 4 0
150 580 0 383 1 3 0
152 573 0 390 1 3 0
154 566 0 392 1 0 0
156 558 0 398 3 1 0
158 555 0 405 0 3 0
160 552 0 403 0 1 0
162 551 0 406 0 2 0
164 550 0 411 0 1 0
166 541 0 412 0 2 0
168 533 0 416 2 2 0
170 530 0 420 1 2 0
172 526 0 432 1 2 0
174 522 0 440 0 1 0
176 514 0 445 2 1 0
178 515 0 451 0 1 0
180 507 0 456 0 0 0
182 505 0 457 1 2 0
184 501 0 455 0 3 0
186 498 0 461 0 1 0
188 497 0 465 0 1 0
190 491 0 469 2 2 0
192 488 0 478 0 1 0
194 482 0 482 1 1 0
196 476 0 488 1 1 0
198 471 0 490 2 3 0
200 464 0 503 0 3 0
