0 1016 0 0 0 0 0
2 1002 0 0 4 0 0
4.00004 991 0 0 4 0 0
6 999 0 0 1 0 0
8 990 0 0 1 0 0
10 993 0 0 6 0 0
12 987 0 0 4 0 0
14 988 0 0 6 0 0
16 993 0 0 6 0 0
18 993 0 0 2 0 0
20 993 0 0 4 0 0
22 994 0 0 4 0 0
24 989 0 0 4 0 0
26 992 0 0 5 0 0
28 993 0 0 7 0 0
30 986 0 0 4 0 0
32 982 0 0 4 0 0
34 987 0 0 6 0 0
36 996 0 0 1 0 0
38 996 0 0 2 0 0
40 999 0 0 4 0 0
42 998 0 0 5 0 0
44 1010 0 0 0 0 0
46 1009 0 0 3 0 0
48 1002 0 0 8 0 0
50 1012 0 0 2 0 0
52 1000 0 5 5 1 0
54 987 0 20 2 0 0
56 972 0 35 3 1 0
58 958 0 37 6 3 0
60 952 0 51 4 0 0
62 943 0 66 2 2 0
64 934 0 79 3 0 0
66 922 0 88 4 3 0
68 911 0 101 2 2 0
70 898 0 112 4 1 0
72 884 0 124 1 0 0
74 873 0 130 2 1 0
76 868 0 129 0 0 0
78 860 0 140 1 2 0
80 857 0 158 0 5 0
82 840 0 161 3 1 0
84 829 0 175 4 2 0
86 818 0 174 4 5 0
88 811 0 186 2 1 0
90 804 0 195 2 0 0
92 797 0 199 3 3 0
94 787 0 207 4 4 0
96 777 0 223 3 3 0
98 769 0 239 3 1 0
100 757 0 246 2 0 0
102 746 0 247 1 4 0
104 733 0 260 3 1 0
106 723 0 266 5 4 0
108 713 0 289 1 2 0
110 705 0 294 3 2 0
112 697 0 307 2 0 0
114 684 0 306 1 2 0
116 671 0 324 3 2 0
118 662 0 337 2 1 0
120 654 0 336 3 6 0
122 646 0 347 2 2 0
124 637 0 349 1 3 0
126 630 0 367 2 1 0
128 625 0 375 0 3 0
130 615 0 380 5 1 0
132 613 0 383 1 5 0
134 611 0 389 0 3 0
136 599 0 391 3 0 0
138 593 0 396 1 2 0
140 590 0 395 0 3 0
142 583 0 409 0 3 0
144 578 0 420 1 3 0
146 569 0 423 2 2 0
148 566 0 430 1 2 0
150 564 0 435 0 2 0
152 550 0 443 0 2 0
154 542 0 452 0 1 0
156 537 0 453 1 3 0
158 534 0 465 0 7 0
160 527 0 477 2 2 0
162 522 0 474 1 4 0
164 512 0 479 4 1 0
166 511 0 497 1 3 0
168 505 0 512 2 2 0
170 504 0 513 0 4 0
172 499 0 518 0 1 0
174 487 0 521 4 3 0
176 485 0 530 1 3 0
178 479 0 532 2 4 0
180 477 0 526 1 3 0
182 467 0 532 2 5 0
184 466 0 540 1 3 0
186 462 0 547 1 1 0
188 460 0 558 1 6 0
190 459 0 566 0 2 0
192 455 0 575 0 3 0
194 449 0 583 1 3 0
196 447 0 586 0 4 0
198 437 0 591 3 1 0
200 434 0 591 1 5 0
