0 1093 0 0 0 0 0
2 1091 0 0 5 0 0
4.00004 1091 0 0 4 0 0
6 1091 0 0 6 0 0
8 1089 0 0 4 0 0
10 1090 0 0 7 0 0
12 1094 0 0 4 0 0
14 1085 0 0 5 0 0
16 1084 0 0 4 0 0
18 1088 0 0 9 0 0
20 1100 0 0 4 0 0
22 1099 0 0 3 0 0
24 1092 0 0 1 0 0
26 1085 0 0 4 0 0
28 1095 0 0 6 0 0
30 1094 0 0 5 0 0
32 1096 0 0 1 0 0
34 1095 0 0 7 0 0
36 1095 0 0 8 0 0
38 1097 0 0 6 0 0
40 1109 0 0 3 0 0
42 1108 0 0 2 0 0
44 1104 0 0 0 0 0
46 1098 0 0 5 0 0
48 1112 0 0 5 0 0
50 1107 0 0 2 0 0
52 1096 0 8 1 2 0
54 1078 0 27 3 3 0
56 1064 0 41 0 1 0
58 1051 0 58 2 1 0
60 1040 0 69 3 3 0
62 1033 0 79 2 1 0
64 1020 0 93 2 1 0
66 1010 0 105 2 3 0
68 1002 0 121 1 0 0
70 986 0 130 3 0 0
72 979 0 138 3 2 0
74 966 0 148 3 0 0
76 953 0 156 2 2 0
78 941 0 164 0 4 0
80 928 0 179 1 0 0
82 919 0 186 2 0 0
84 908 0 190 3 5 0
86 904 0 200 2 1 0
88 889 0 209 3 2 0
90 881 0 224 2 0 0
92 872 0 238 1 0 0
94 860 0 246 2 0 0
96 850 0 252 2 3 0
98 842 0 261 1 4 0
100 829 0 271 2 2 0
102 821 0 284 3 1 0
104 815 0 297 0 2 0
106 804 0 309 2 1 0
108 794 0 323 2 1 0
110 787 0 323 0 2 0
112 774 0 330 0 2 0
114 763 0 337 0 0 0
116 752 0 349 1 1 0
118 746 0 357 2 2 0
120 741 0 372 1 2 0
122 731 0 378 2 3 0
124 723 0 392 2 1 0
126 711 0 402 1 1 0
128 707 0 402 0 3 0
130 699 0 404 2 1 0
132 691 0 404 2 1 0
134 682 0 407 3 4 0
136 679 0 417 0 0 0
138 670 0 421 0 2 0
140 664 0 429 1 5 0
142 657 0 440 2 1 0
144 651 0 442 3 1 0
146 643 0 447 2 0 0
148 633 0 456 1 1 0
150 628 0 468 1 2 0
152 623 0 475 4 2 0
154 619 0 478 1 3 0
156 608 0 485 3 3 0
158 603 0 495 1 3 0
160 598 0 500 0 3 0
162 592 0 501 1 7 0
164 585 0 505 3 5 0
166 580 0 514 1 6 0
168 573 0 523 2 3 0
170 564 0 521 3 3 0
172 557 0 525 4 4 0
174 556 0 534 3 5 0
176 551 0 545 1 2 0
178 545 0 545 1 2 0
180 538 0 553 1 3 0
182 535 0 568 1 1 0
184 529 0 571 2 6 0
186 522 0 579 1 3 0
188 514 0 588 4 2 0
190 503 0 595 0 4 0
192 492 0 600 1 2 0
194 487 0 601 1 2 0
196 481 0 608 0 5 0
198 468 0 614 2 7 0
200 468 0 627 0 2 0
