0 1108 0 0 0 0 0
2 1070 45 0 0 0 0
4.00004 1065 54 0 5 0 0
6 1057 57 0 8 0 0
8 1061 53 0 4 0 0
10 1057 53 0 3 0 0
12 1047 57 0 5 0 0
14 1068 45 0 4 0 0
16 1050 55 0 6 0 0
18 1054 56 0 5 0 0
20 1074 45 0 4 0 0
22 1051 70 0 1 0 0
24 1061 56 0 2 0 0
26 1051 63 0 1 0 0
28 1067 51 0 2 0 0
30 1065 50 0 6 0 0
32 1054 61 0 2 0 0
34 1048 59 0 5 0 0
36 1040 66 0 2 0 0
38 1036 55 0 9 0 0
40 1035 62 0 6 0 0
42 1038 58 0 3 0 0
44 1054 50 0 3 0 0
46 1038 65 0 6 0 0
48 1039 59 0 3 0 0
50 1041 51 0 9 0 0
52 820 0 278 0 6 0
54 751 0 345 2 3 0
56 701 0 399 1 2 0
58 655 0 448 2 3 0
60 594 0 507 2 6 0
62 548 0 561 0 0 0
64 509 0 598 2 2 0
66 463 0 637 0 5 0
68 429 0 680 1 3 0
70 392 0 716 1 3 0
72 365 0 748 0 5 0
74 328 0 782 1 3 0
76 310 0 792 0 8 0
78 289 1 815 2 6 0
80 273 0 832 2 4 0
82 256 0 859 0 0 0
84 239 0 871 2 3 0
86 226 0 872 0 7 0
88 208 0 881 2 4 0
90 202 0 896 0 2 0
92 176 0 914 1 3 0
94 159 0 937 0 2 0
96 149 0 952 0 1 0
98 140 0 948 0 4 0
100 132 0 946 0 6 0
102 121 0 950 2 5 0
104 115 0 965 0 2 0
106 110 0 959 1 5 0
108 105 0 966 1 3 0
110 95 0 976 1 9 0
112 87 0 996 0 1 0
114 82 0 995 1 3 0
116 76 0 998 2 4 0
118 65 0 1009 0 4 0
120 67 0 1006 0 6 0
122 61 0 1014 0 4 0
124 57 0 996 0 7 0
126 55 0 1006 0 5 0
128 52 0 1004 1 5 0
130 47 0 1014 1 5 0
132 43 0 1030 0 2 0
134 39 0 1030 0 2 0
136 34 0 1031 1 4 0
138 32 0 1031 0 4 0
140 32 0 1028 2 3 0
142 31 0 1040 0 3 0
144 27 0 1040 1 8 0
146 21 0 1055 0 5 0
148 19 0 1057 3 0 0
150 18 0 1056 0 6 0
152 16 0 1045 0 1 0
154 18 0 1031 1 6 0
156 16 0 1033 2 3 0
158 15 0 1029 0 6 0
160 17 0 1027 0 8 0
162 14 0 1027 0 7 0
164 15 0 1036 0 3 0
166 11 0 1037 1 0 0
168 9 0 1038 1 3 0
170 10 0 1043 0 6 0
172 10 0 1040 0 4 0
174 10 0 1042 1 3 0
176 6 0 1035 0 9 0
178 6 0 1038 0 8 0
180 5 0 1035 1 0 0
182 7 0 1026 1 7 0
184 6 0 1023 2 5 0
186 5 0 1020 0 5 0
188 5 0 1020 0 2 0
190 4 0 1025 1 1 0
192 3 1 1020 0 6 0
194 5 0 1014 1 1 0
196 3 0 1017 1 4 0
198 2 0 1022 0 6 0
200 4 0 1024 1 5 0
