0 1041 0 0 0 0 0
2 1036 0 0 2 0 0
4.00004 1035 0 0 8 0 0
6 1033 0 0 3 0 0
8 1027 0 0 4 0 0
10 1029 0 0 6 0 0
12 1032 0 0 5 0 0
14 1033 0 0 5 0 0
16 1025 0 0 4 0 0
18 1022 0 0 4 0 0
20 1021 0 0 7 0 0
22 1024 0 0 4 0 0
24 1025 0 0 4 0 0
26 1025 0 0 3 0 0
28 1031 0 0 5 0 0
30 1030 0 0 3 0 0
32 1031 0 0 3 0 0
34 1032 0 0 4 0 0
36 1028 0 0 5 0 0
38 1025 0 0 7 0 0
40 1032 0 0 6 0 0
42 1041 0 0 7 0 0
44 1051 0 0 7 0 0
46 1047 0 0 4 0 0
48 1050 0 0 5 0 0
50 1045 0 0 2 0 0
52 1029 0 12 4 5 0
54 1004 0 26 3 2 0
56 994 0 42 3 2 0
58 976 0 56 3 2 0
60 962 0 73 3 1 0
62 933 0 82 7 0 0
64 920 0 99 3 5 0
66 909 0 119 2 3 0
68 897 0 135 3 5 0
70 888 0 154 1 1 0
72 875 0 167 3 7 0
74 866 0 189 3 2 0
76 850 0 200 1 4 0
78 837 0 216 2 1 0
80 826 0 224 1 3 0
82 804 0 236 3 4 0
84 795 0 244 2 1 0
86 786 0 257 0 1 0
88 771 0 258 0 0 0
90 759 0 271 0 5 0
92 745 0 281 5 1 0
94 741 0 297 0 7 0
96 726 0 312 3 2 0
98 709 0 315 5 3 0
100 692 0 328 3 4 0
102 678 0 338 1 3 0
104 669 0 351 3 5 0
106 664 0 356 1 6 0
108 650 0 368 2 3 0
110 637 0 380 4 1 0
112 623 0 396 2 4 0
114 618 0 404 2 5 0
116 612 0 407 2 5 0
118 601 0 422 3 2 0
120 593 0 428 1 1 0
122 584 0 426 2 5 0
124 568 0 432 2 3 0
126 557 0 441 2 7 0
128 548 0 449 1 4 0
130 540 0 453 3 8 0
132 534 0 473 2 4 0
134 525 0 472 2 5 0
136 521 0 484 2 3 0
138 508 0 489 3 4 0
140 501 0 494 3 6 0
142 497 0 507 0 3 0
144 489 0 516 1 4 0
146 483 0 519 0 2 0
148 476 0 528 3 5 0
150 469 0 539 2 0 0
152 460 0 555 2 1 0
154 456 0 554 3 5 0
156 451 0 553 1 7 0
158 446 0 565 2 3 0
160 440 0 573 1 3 0
162 436 0 581 1 4 0
164 427 0 583 1 5 0
166 421 0 599 0 2 0
168 409 0 605 1 3 0
170 404 0 606 0 3 0
172 399 0 602 0 3 0
174 390 0 613 0 3 0
176 385 0 618 0 5 0
178 379 0 629 1 1 0
180 377 0 633 0 0 0
182 368 0 639 0 3 0
184 362 0 647 0 5 0
186 354 0 645 0 3 0
188 352 0 647 1 6 0
190 349 0 653 0 6 0
192 344 0 657 0 4 0
194 338 0 667 1 5 0
196 333 0 673 2 1 0
198 328 0 674 1 6 0
200 321 0 669 0 6 0
