0 1114 0 0 0 0 0
2 1115 0 0 4 0 0
4.00004 1115 0 0 1 0 0
6 1117 0 0 3 0 0
8 1118 0 0 5 0 0
10 1108 0 0 5 0 0
12 1115 0 0 2 0 0
14 1116 0 0 2 0 0
16 1106 0 0 5 0 0
18 1112 0 0 1 0 0
20 1102 0 0 1 0 0
22 1092 0 0 3 0 0
24 1092 0 0 6 0 0
26 1093 0 0 2 0 0
28 1099 0 0 1 0 0
30 1097 0 0 3 0 0
32 1102 0 0 3 0 0
34 1104 0 0 4 0 0
36 1118 0 0 3 0 0
38 1113 0 0 2 0 0
40 1111 0 0 2 0 0
42 1108 0 0 0 0 0
44 1104 0 0 1 0 0
46 1102 0 0 0 0 0
48 1096 0 0 2 0 0
50 1094 0 0 5 0 0
52 1094 0 3 2 0 0
54 1079 0 15 0 0 0
56 1063 0 23 2 1 0
58 1048 0 28 2 2 0
60 1037 0 45 3 1 0
62 1025 0 52 2 2 0
64 1014 0 58 2 1 0
66 1008 0 64 1 0 0
68 998 0 70 2 2 0
70 992 0 79 3 2 0
72 980 0 92 1 2 0
74 971 0 99 4 3 0
76 963 0 109 0 2 0
78 949 0 115 5 1 0
80 940 0 124 2 0 0
82 934 0 129 0 1 0
84 919 0 136 2 1 0
86 903 0 141 2 1 0
88 894 0 153 4 2 0
90 891 0 163 1 3 0
92 880 0 170 3 2 0
94 871 0 182 4 0 0
96 867 0 186 1 5 0
98 859 0 197 1 1 0
100 853 0 197 0 1 0
102 835 0 208 1 2 0
104 823 0 214 3 3 0
106 814 0 225 4 3 0
108 806 0 225 2 3 0
110 797 0 236 2 1 0
112 789 0 246 0 1 0
114 783 0 253 2 3 0
116 776 0 264 0 1 0
118 768 0 278 2 1 0
120 764 0 285 0 1 0
122 758 0 291 1 1 0
124 754 0 296 2 1 0
126 746 0 313 3 2 0
128 745 0 319 0 2 0
130 739 0 316 2 2 0
132 733 0 323 1 2 0
134 724 0 336 2 1 0
136 717 0 341 3 3 0
138 715 0 343 1 2 0
140 702 0 350 3 4 0
142 702 0 358 0 1 0
144 694 0 365 2 1 0
146 689 0 374 0 4 0
148 683 0 381 1 2 0
150 672 0 390 3 4 0
152 668 0 398 3 4 0
154 661 0 403 1 5 0
156 653 0 409 2 2 0
158 648 0 404 0 6 0
160 643 0 415 1 4 0
162 637 0 417 0 3 0
164 632 0 419 2 2 0
166 629 0 427 1 2 0
168 623 0 433 1 1 0
170 617 0 433 2 1 0
172 614 0 441 2 1 0
174 612 0 445 0 1 0
176 600 0 451 0 3 0
178 595 0 453 2 2 0
180 588 0 452 1 4 0
182 580 0 464 0 1 0
184 578 0 466 2 3 0
186 572 0 476 2 0 0
188 572 0 483 0 1 0
190 565 0 487 1 2 0
192 561 0 492 0 1 0
194 555 0 499 0 4 0
196 548 0 503 2 3 0
198 541 0 516 3 2 0
200 536 0 517 1 2 0
