0 80 0 0 0
2 79 0 1 0
4.00004 79 0 1 0
6 80 0 0 0
8 79 0 2 0
10 81 0 0 0
12 80 0 1 0
14 81 0 0 0
16 81 0 0 0
18 81 0 0 0
20 80 0 1 0
22 80 0 0 0
24 79 0 0 0
26 79 0 0 0
28 81 0 0 0
30 80 0 1 0
32 82 0 0 0
34 81 0 0 0
36 82 0 0 0
38 82 0 0 0
40 81 0 1 0
42 82 0 0 0
44 82 0 0 0
46 81 0 1 0
48 82 0 0 0
50 83 0 1 0
52 66 17 0 0
54 58 24 1 0
56 51 30 2 0
58 44 39 0 0
60 42 42 0 0
62 36 46 1 0
64 35 48 0 0
66 33 50 1 0
68 31 52 1 0
70 30 52 1 0
72 24 57 0 0
74 22 59 0 0
76 22 61 0 0
78 18 63 1 0
80 18 64 0 0
82 12 67 1 0
84 13 67 0 0
86 11 67 0 0
88 10 68 0 0
90 8 69 2 0
92 12 69 0 0
94 11 69 1 0
96 12 69 0 0
98 12 69 0 0
100 9 72 2 0
102 11 72 0 0
104 10 72 1 1
106 11 73 0 0
108 10 73 1 0
110 10 73 1 0
112 9 74 1 0
114 10 73 0 1
116 10 74 0 0
118 9 72 0 2
120 8 72 0 1
122 7 73 0 0
124 7 72 0 1
126 7 73 0 0
128 7 73 0 0
130 6 73 0 1
132 7 75 0 0
134 5 76 0 0
136 5 76 0 0
138 6 75 0 0
140 7 75 0 0
142 6 75 0 0
144 4 77 1 0
146 3 77 1 1
148 3 78 0 0
150 3 78 0 0
152 4 79 0 0
154 5 79 0 0
156 5 79 0 0
158 4 79 1 0
160 4 79 1 0
162 5 79 0 0
164 5 79 0 0
166 3 79 1 0
168 4 79 0 0
170 4 79 0 0
172 4 79 0 0
174 4 78 0 1
176 4 79 0 0
178 4 79 0 0
180 3 79 0 0
182 3 79 0 0
184 3 79 0 0
186 4 79 0 0
188 4 80 0 0
190 4 80 1 0
192 5 80 0 0
194 4 79 0 2
196 4 81 0 0
198 2 82 1 0
200 3 81 0 1
202 3 82 0 0
204 3 82 0 0
206 3 82 0 0
208 2 82 0 0
210 2 82 0 0
212 2 82 0 0
214 2 82 0 0
216 2 81 0 1
218 2 82 0 0
220 2 81 0 1
222 2 82 0 0
224 1 83 0 0
226 0 82 1 1
228 1 83 0 0
230 1 81 0 1
232 1 81 0 0
234 1 82 0 0
236 1 82 0 0
238 1 82 0 0
240 1 82 0 0
242 1 82 0 0
244 1 82 0 0
246 1 82 0 0
248 1 82 0 0
250 1 82 0 0
252 1 81 0 1
254 1 81 0 0
256 1 80 0 0
258 1 80 0 1
260 1 80 0 1
262 0 81 0 1
264 0 81 0 1
266 0 80 0 1
268 0 81 0 0
270 0 80 0 1
272 0 81 0 0
274 0 81 0 0
276 0 80 1 0
278 1 80 0 0
280 2 81 0 0
282 2 80 0 1
284 2 80 0 0
286 1 80 0 0
288 2 81 0 0
290 2 81 0 0
292 2 81 0 0
294 2 81 0 1
296 2 82 0 0
298 2 80 0 2
300 2 82 0 0
302 2 81 0 1
304 2 81 0 1
306 2 82 0 0
308 2 82 0 0
310 2 81 0 1
312 2 82 0 0
314 1 82 1 0
316 2 80 0 2
318 2 81 0 1
320 2 82 0 0
322 2 81 0 0
324 2 81 0 0
326 2 80 0 1
328 2 81 0 0
330 2 81 0 1
332 2 82 0 0
334 1 83 0 0
336 1 83 0 0
338 1 83 0 0
340 1 83 0 0
342 1 81 0 1
344 1 81 0 0
346 2 82 0 0
348 2 82 0 0
350 2 81 0 0
