0 68 0 0 0
2 68 0 0 0
4.00004 69 0 0 0
6 68 0 0 0
8 67 0 1 0
10 67 0 1 0
12 66 0 2 0
14 68 0 0 0
16 68 0 0 0
18 68 0 0 0
20 67 0 1 0
22 68 0 0 0
24 67 0 1 0
26 66 0 3 0
28 69 0 1 0
30 69 0 1 0
32 70 0 1 0
34 68 0 3 0
36 72 0 0 0
38 69 0 2 0
40 69 0 2 0
42 71 0 0 0
44 71 0 0 0
46 71 0 0 0
48 70 0 0 0
50 70 0 0 0
52 69 0 0 0
54 66 0 2 0
56 68 0 0 0
58 67 0 0 0
60 67 0 0 0
62 65 0 1 0
64 67 0 0 0
66 66 0 0 0
68 66 0 0 0
70 66 0 0 0
72 66 0 0 0
74 67 0 0 0
76 66 0 2 0
78 67 0 1 0
80 68 0 0 0
82 67 0 1 0
84 68 0 0 0
86 68 0 0 0
88 67 0 1 0
90 68 0 0 0
92 67 0 1 0
94 66 0 1 0
96 66 0 0 0
98 65 0 1 0
100 66 0 0 1
102 66 1 0 0
104 66 1 0 0
106 67 1 1 0
108 66 1 2 0
110 68 1 0 0
112 66 1 3 0
114 68 2 1 0
116 68 2 0 0
118 67 1 1 1
120 68 2 0 0
122 67 2 1 0
124 68 1 0 1
126 67 2 1 0
128 68 1 0 1
130 66 2 2 0
132 68 1 0 1
134 68 2 0 0
136 67 2 2 0
138 68 2 1 0
140 68 3 0 0
142 68 3 0 0
144 67 3 0 0
146 65 3 2 0
148 66 3 0 0
150 65 2 1 1
152 64 3 2 0
154 65 2 0 1
156 66 3 0 0
158 65 3 1 0
160 66 3 0 1
162 67 4 0 0
164 66 4 0 1
166 65 5 1 0
168 64 5 1 0
170 64 4 1 0
172 66 3 0 0
174 65 3 0 0
176 65 3 0 0
178 65 3 0 0
180 65 4 0 0
182 65 4 0 0
184 63 3 1 1
186 63 4 1 0
188 62 5 2 0
190 64 4 0 1
192 64 5 0 0
194 64 5 0 0
196 65 6 0 0
198 63 6 1 0
200 63 6 1 0
202 63 5 1 0
204 64 5 0 0
206 65 5 0 0
208 65 5 0 0
210 64 5 1 0
212 65 5 0 0
214 65 4 0 0
216 64 3 1 1
218 65 4 0 0
220 64 3 0 1
222 64 4 0 0
224 63 4 1 0
226 64 4 0 0
228 63 4 0 0
230 63 4 1 0
232 63 4 1 0
234 63 4 0 0
236 63 4 0 0
238 62 4 1 0
240 64 4 0 0
242 63 4 1 0
244 64 4 1 0
246 64 5 1 0
248 64 5 0 0
250 64 5 0 0
252 64 6 0 0
254 63 6 1 0
256 63 6 1 0
258 63 4 1 1
260 63 5 0 0
262 62 5 1 2
264 62 6 1 1
266 60 7 2 0
268 62 7 0 0
270 61 8 0 1
272 61 7 1 2
274 62 9 0 0
276 62 9 0 0
278 62 8 0 1
280 63 8 0 1
282 63 8 0 0
284 63 8 0 0
286 62 7 1 1
288 63 6 1 1
290 63 7 1 0
292 64 7 0 0
294 63 7 1 0
296 64 7 0 0
298 64 7 0 0
300 64 7 0 0
302 64 7 0 0
304 63 7 0 0
306 63 7 0 1
308 62 8 1 0
310 63 8 0 0
312 61 8 2 0
314 63 8 0 0
316 63 7 0 1
318 62 8 1 0
320 62 8 1 0
322 63 8 0 0
324 62 7 1 1
326 62 8 1 0
328 62 7 1 0
330 63 7 1 0
332 64 7 0 0
334 64 7 0 0
336 62 7 2 0
338 64 7 0 0
340 62 7 2 0
342 63 7 1 0
344 64 7 0 0
346 63 7 1 0
348 64 7 0 0
350 64 7 0 0
