0 80 0 0 0
2 80 0 0 0
4.00004 80 0 0 0
6 80 0 0 0
8 79 0 0 0
10 78 0 1 0
12 79 0 0 0
14 77 0 3 0
16 80 0 0 0
18 79 0 0 0
20 80 0 0 0
22 79 0 1 0
24 77 0 2 0
26 78 0 1 0
28 79 0 0 0
30 78 0 0 0
32 79 0 0 0
34 79 0 1 0
36 78 0 2 0
38 80 0 0 0
40 80 0 0 0
42 81 0 0 0
44 79 0 1 0
46 80 0 0 0
48 79 0 1 0
50 79 0 1 0
52 78 0 1 0
54 78 0 1 0
56 78 0 1 0
58 79 0 0 0
60 80 0 0 0
62 80 0 0 0
64 78 0 2 0
66 80 0 0 0
68 80 0 0 0
70 78 0 1 0
72 78 0 2 0
74 77 0 1 0
76 78 0 0 0
78 76 0 0 0
80 76 0 1 0
82 76 0 1 0
84 77 0 0 0
86 77 0 0 0
88 77 0 0 0
90 77 0 1 0
92 79 0 0 0
94 79 0 0 0
96 79 0 0 0
98 78 0 0 0
100 78 0 0 0
102 78 0 0 0
104 77 0 1 0
106 78 0 0 0
108 77 0 0 0
110 76 0 1 0
112 77 0 0 0
114 74 0 2 0
116 75 0 1 0
118 76 0 0 0
120 76 0 0 0
122 75 0 1 0
124 76 0 0 0
126 76 0 0 0
128 77 0 0 0
130 76 0 1 0
132 76 0 1 0
134 76 0 1 0
136 77 0 0 0
138 76 0 1 0
140 77 0 0 0
142 77 1 0 0
144 76 1 1 0
146 77 1 0 0
148 77 1 1 0
150 78 1 0 0
152 76 1 1 0
154 76 1 0 0
156 75 0 0 1
158 75 1 0 0
160 75 1 0 0
162 75 1 0 0
164 75 1 0 0
166 75 1 1 0
168 76 1 0 0
170 75 1 1 0
172 76 2 0 1
174 77 3 0 0
176 75 3 1 0
178 76 3 0 0
180 76 2 1 1
182 75 3 2 0
184 77 2 0 1
186 76 3 1 0
188 77 2 0 1
190 77 3 0 0
192 77 3 0 0
194 76 3 0 0
196 75 3 1 0
198 76 4 0 0
200 76 4 0 0
202 76 3 1 1
204 77 4 0 0
206 75 4 2 0
208 76 4 1 0
210 77 4 0 0
212 77 4 0 0
214 77 4 0 0
216 76 4 1 0
218 77 4 0 0
220 77 4 0 0
222 77 4 0 0
224 77 4 0 0
226 76 4 1 0
228 77 4 0 0
230 77 4 0 0
232 77 3 0 1
234 76 4 1 0
236 77 4 0 0
238 77 5 0 0
240 75 5 1 0
242 75 5 1 0
244 75 5 1 0
246 75 5 1 0
248 76 5 0 0
250 76 5 0 0
252 76 4 0 1
254 75 5 0 0
256 75 5 0 0
258 75 5 0 0
260 75 5 0 0
262 75 5 0 0
264 75 5 0 0
266 75 5 0 0
268 75 5 0 0
270 75 5 0 0
272 75 5 0 0
274 75 5 0 0
276 75 4 0 1
278 74 5 1 0
280 74 5 0 0
282 73 5 1 0
284 75 5 0 0
286 75 5 0 0
288 75 6 0 0
290 74 6 1 0
292 75 5 0 1
294 75 6 0 0
296 75 6 1 0
298 74 5 1 0
300 73 5 2 0
302 73 5 2 0
304 75 4 0 0
306 74 5 1 0
308 72 5 3 0
310 74 5 0 0
312 74 5 0 0
314 74 6 0 0
316 74 5 0 1
318 74 6 0 0
320 73 6 0 0
322 73 6 0 0
324 73 6 0 0
326 73 6 0 0
328 73 6 0 0
330 73 6 1 0
332 73 7 1 0
334 74 6 0 1
336 74 7 0 0
338 74 6 0 0
340 74 5 0 1
342 74 6 0 0
344 73 5 1 1
346 74 6 0 0
348 74 6 0 0
350 75 6 0 0
