0 72 0 0 0
2 72 0 0 0
4.00004 71 0 0 0
6 71 0 0 0
8 74 0 0 0
10 73 0 0 0
12 71 0 1 0
14 72 0 1 0
16 72 0 0 0
18 72 0 0 0
20 72 0 2 0
22 73 0 0 0
24 73 0 0 0
26 72 0 0 0
28 72 0 0 0
30 72 0 0 0
32 71 0 1 0
34 71 0 0 0
36 71 0 1 0
38 72 0 0 0
40 71 0 0 0
42 70 0 2 0
44 70 0 0 0
46 70 0 0 0
48 70 0 0 0
50 69 0 2 0
52 71 0 0 0
54 71 0 0 0
56 72 0 0 0
58 72 0 0 0
60 72 0 0 0
62 73 0 0 0
64 73 0 0 0
66 73 0 0 0
68 73 0 0 0
70 72 0 0 0
72 71 0 0 0
74 71 0 0 0
76 71 0 0 0
78 72 0 0 0
80 72 1 0 0
82 71 3 1 0
84 72 3 0 0
86 72 3 0 0
88 69 2 2 0
90 71 1 0 1
92 68 2 3 1
94 71 3 0 0
96 69 3 1 0
98 71 3 0 0
100 71 3 0 0
102 71 3 0 0
104 71 3 0 0
106 71 3 0 0
108 71 3 0 0
110 71 3 0 0
112 71 3 0 0
114 70 4 1 0
116 70 4 1 0
118 71 4 0 0
120 71 4 1 0
122 72 4 0 0
124 72 4 0 1
126 71 5 1 0
128 71 5 1 0
130 72 4 0 0
132 71 3 1 1
134 71 4 0 0
136 71 4 0 0
138 71 4 0 0
140 71 4 0 0
142 70 5 0 0
144 70 5 0 0
146 70 5 0 0
148 67 5 1 0
150 68 5 0 0
152 68 5 0 0
154 67 5 0 0
156 67 4 0 1
158 67 4 0 0
160 67 4 0 0
162 67 4 1 0
164 68 4 0 0
166 68 4 0 0
168 68 4 0 0
170 67 4 0 0
172 67 4 0 0
174 67 4 0 0
176 67 4 0 0
178 67 5 0 2
180 66 6 1 0
182 66 5 0 1
184 65 6 0 0
186 64 5 2 0
188 65 6 0 0
190 66 6 0 0
192 65 6 0 0
194 65 6 0 0
196 65 5 0 1
198 66 5 0 1
200 66 6 0 0
202 66 7 0 0
204 66 7 0 0
206 66 8 0 0
208 64 7 0 0
210 64 7 0 0
212 64 8 0 1
214 64 9 0 0
216 64 8 0 1
218 64 9 0 0
220 64 9 0 0
222 64 9 0 0
224 63 9 1 0
226 64 9 0 0
228 64 8 0 0
230 64 8 0 0
232 64 8 0 0
234 64 8 0 0
236 63 8 1 0
238 64 8 0 0
240 64 8 0 0
242 65 8 0 0
244 63 8 2 0
246 65 8 0 0
248 64 8 1 0
250 65 7 0 0
252 65 8 0 0
254 64 8 1 0
256 65 9 0 0
258 64 8 0 0
260 64 8 0 0
262 64 8 0 1
264 63 8 1 1
266 65 9 0 0
268 65 8 0 0
270 65 9 0 0
272 65 9 0 0
274 65 8 0 0
276 64 8 1 0
278 65 8 0 0
280 65 9 0 0
282 64 9 0 0
284 64 9 0 0
286 64 10 0 0
288 64 9 0 0
290 64 9 0 0
292 64 8 0 1
294 64 9 0 0
296 64 9 0 0
298 64 9 0 0
300 64 9 0 0
302 64 9 0 0
304 64 9 0 0
306 64 10 0 0
308 64 10 0 0
310 64 12 0 0
312 64 12 0 0
314 64 13 0 0
316 64 12 0 0
318 64 12 0 0
320 64 12 0 1
322 64 13 0 0
324 64 13 0 0
326 64 14 0 0
328 64 15 0 0
330 64 15 0 1
332 64 15 0 0
334 64 14 0 1
336 64 15 0 0
338 64 15 0 0
340 64 15 0 0
342 64 15 0 0
344 64 15 0 0
346 64 15 0 0
348 64 14 0 1
350 64 15 0 0
