0 95 0 0 0
2 92 0 2 0
4.00004 95 0 0 0
6 95 0 0 0
8 96 0 0 0
10 95 0 0 0
12 94 0 2 0
14 95 0 1 0
16 95 0 0 0
18 95 0 0 0
20 97 0 1 0
22 98 0 0 0
24 98 0 0 0
26 98 0 0 0
28 97 0 1 0
30 96 0 0 0
32 97 0 0 0
34 96 0 1 0
36 95 0 2 0
38 97 0 0 0
40 98 0 0 0
42 97 0 0 0
44 96 0 1 0
46 96 0 2 0
48 97 0 0 0
50 96 0 2 0
52 73 23 1 1
54 61 37 0 0
56 52 45 0 0
58 42 54 0 0
60 35 62 0 1
62 27 68 1 1
64 27 70 0 1
66 18 79 0 0
68 18 78 1 1
70 16 80 1 0
72 17 79 0 1
74 15 80 2 1
76 14 82 1 1
78 11 84 1 1
80 9 88 0 1
82 9 87 0 3
84 7 91 0 0
86 6 92 1 0
88 5 92 0 0
90 4 93 0 0
92 3 93 0 2
94 4 94 0 1
96 2 95 1 1
98 1 96 0 1
100 0 97 0 1
102 0 98 0 0
104 0 97 0 1
106 0 97 0 0
108 0 97 0 0
110 0 98 0 0
112 0 96 0 0
114 0 96 0 0
116 0 97 0 0
118 0 95 0 2
120 0 97 0 0
122 0 96 0 1
124 0 94 0 2
126 0 96 0 0
128 0 95 0 1
130 0 96 0 0
132 0 96 0 0
134 0 96 0 0
136 0 95 0 1
138 0 96 0 0
140 0 96 0 0
142 0 96 0 0
144 0 96 0 0
146 0 96 0 0
148 0 96 0 0
150 0 96 0 0
152 0 96 0 0
154 0 96 1 0
156 0 96 0 0
158 0 95 1 1
160 1 96 0 0
162 1 96 0 0
164 0 96 1 0
166 1 96 0 0
168 1 96 0 0
170 1 95 0 1
172 1 96 0 0
174 1 96 0 0
176 1 95 0 0
178 1 95 0 0
180 1 95 0 0
182 1 94 0 1
184 1 94 0 1
186 2 94 0 1
188 2 95 0 0
190 1 95 0 0
192 1 96 0 0
194 1 95 0 0
196 1 94 0 0
198 1 93 0 2
200 1 93 0 1
202 1 94 0 0
204 1 94 0 0
206 1 94 0 0
208 0 95 0 0
210 0 94 1 0
212 0 94 0 0
214 1 94 0 0
216 0 93 1 2
218 0 95 0 0
220 0 95 0 0
222 0 94 0 1
224 0 94 0 1
226 0 95 0 0
228 0 95 0 0
230 0 95 0 0
232 0 94 0 0
234 0 94 0 0
236 0 94 0 0
238 0 94 0 1
240 0 95 0 0
242 0 95 0 0
244 0 95 0 0
246 0 95 0 0
248 0 94 0 0
250 0 95 0 0
252 0 95 0 1
254 0 95 0 0
256 0 94 0 1
258 0 95 0 0
260 0 95 0 1
262 0 96 1 0
264 0 96 1 0
266 1 96 0 0
268 0 96 1 0
270 1 96 0 0
272 0 96 1 0
274 0 95 0 1
276 0 95 1 1
278 0 95 1 0
280 0 94 1 2
282 1 96 0 0
284 1 94 0 2
286 1 94 0 1
288 1 93 0 2
290 1 95 0 0
292 0 94 0 1
294 0 95 0 0
296 0 94 0 1
298 0 93 0 0
300 0 93 0 0
302 0 93 0 0
304 0 93 0 0
306 0 91 1 2
308 0 92 0 1
310 0 93 0 0
312 0 93 1 0
314 0 93 0 0
316 0 92 0 1
318 0 92 1 1
320 0 91 0 2
322 0 92 0 1
324 0 91 0 1
326 0 91 0 1
328 0 92 0 0
330 0 93 0 0
332 0 91 0 1
334 0 91 0 1
336 0 92 0 0
338 0 91 0 1
340 0 92 1 1
342 1 93 0 0
344 1 94 0 0
346 1 92 0 1
348 0 90 0 1
350 0 93 0 0
