0 965 0 0 0 0 0
2 965 0 0 1 0 0
4.00004 965 0 0 3 0 0
6 975 0 0 2 0 0
8 974 0 0 2 0 0
10 983 0 0 2 0 0
12 989 0 0 1 0 0
14 994 0 0 1 0 0
16 1000 0 0 0 0 0
18 1003 0 0 2 0 0
20 1004 0 0 2 0 0
22 1009 0 0 4 0 0
24 1011 0 0 4 0 0
26 1012 0 0 2 0 0
28 1009 0 0 7 0 0
30 1017 0 0 2 0 0
32 1016 0 0 2 0 0
34 1014 0 0 2 0 0
36 997 0 0 9 0 0
38 1000 0 0 4 0 0
40 1001 0 0 4 0 0
42 1003 0 0 3 0 0
44 999 0 0 2 0 0
46 995 0 0 2 0 0
48 996 0 0 4 0 0
50 999 0 0 1 0 0
52 994 0 5 2 2 0
54 987 0 18 1 2 0
56 973 0 24 5 4 0
58 963 0 31 2 1 0
60 958 0 38 2 4 0
62 946 0 53 1 1 0
64 944 0 62 0 4 0
66 936 0 73 3 3 0
68 929 0 82 1 2 0
70 920 0 84 2 3 0
72 914 0 93 1 2 0
74 908 0 100 2 5 0
76 903 0 111 1 1 0
78 896 0 123 0 2 0
80 884 0 131 2 1 0
82 879 0 135 0 1 0
84 871 0 136 1 1 0
86 862 0 146 1 1 0
88 856 0 151 2 1 0
90 848 0 157 1 0 0
92 842 0 160 3 1 0
94 839 0 165 1 0 0
96 835 0 172 4 2 0
98 829 0 180 1 3 0
100 822 0 188 0 1 0
102 814 0 192 1 2 0
104 803 0 203 0 3 0
106 791 0 216 0 1 0
108 786 0 225 2 2 0
110 784 0 230 0 1 0
112 781 0 238 1 4 0
114 772 0 240 1 4 0
116 766 0 252 2 1 0
118 758 0 257 3 0 0
120 761 0 263 1 2 0
122 751 0 267 2 1 0
124 742 0 268 2 3 0
126 737 0 275 0 5 0
128 730 0 286 1 1 0
130 725 0 287 1 2 0
132 718 0 295 3 3 0
134 716 0 300 2 2 0
136 709 0 307 1 1 0
138 705 0 325 1 2 0
140 701 0 335 1 1 0
142 694 0 341 0 2 0
144 684 0 344 1 0 0
146 674 0 349 3 1 0
148 673 0 358 0 2 0
150 666 0 364 1 3 0
152 662 0 369 0 1 0
154 658 0 368 2 2 0
156 653 0 376 1 0 0
158 645 0 381 1 4 0
160 636 0 385 2 1 0
162 633 0 392 2 1 0
164 633 0 404 0 2 0
166 624 0 404 2 2 0
168 622 0 403 0 3 0
170 617 0 410 3 5 0
172 618 0 417 0 1 0
174 614 0 417 1 1 0
176 608 0 422 0 0 0
178 607 0 423 0 1 0
180 602 0 427 0 2 0
182 598 0 428 1 3 0
184 592 0 435 0 0 0
186 579 0 435 1 3 0
188 574 0 441 2 2 0
190 570 0 448 1 3 0
192 565 0 458 0 2 0
194 554 0 463 2 3 0
196 549 0 474 1 0 0
198 547 0 474 0 0 0
200 544 0 478 1 3 0
