0 1007 0 0 0 0 0
2 1011 0 0 2 0 0
4.00004 1012 0 0 6 0 0
6 1014 0 0 1 0 0
8 1017 0 0 1 0 0
10 1018 0 0 0 0 0
12 1014 0 0 0 0 0
14 1018 0 0 0 0 0
16 1026 0 0 2 0 0
18 1017 0 0 1 0 0
20 1011 0 0 4 0 0
22 1018 0 0 3 0 0
24 1019 0 0 1 0 0
26 1015 0 0 2 0 0
28 1021 0 0 4 0 0
30 1020 0 0 4 0 0
32 1026 0 0 3 0 0
34 1022 0 0 4 0 0
36 1025 0 0 2 0 0
38 1032 0 0 3 0 0
40 1031 0 0 1 0 0
42 1032 0 0 2 0 0
44 1030 0 0 2 0 0
46 1026 0 0 0 0 0
48 1027 0 0 1 0 0
50 1016 0 0 6 0 0
52 1017 0 1 2 1 0
54 1011 0 7 3 0 0
56 1008 0 11 0 0 0
58 1003 0 15 0 2 0
60 996 0 28 1 3 0
62 980 0 34 5 3 0
64 973 0 44 2 1 0
66 964 0 51 1 3 0
68 959 0 54 0 0 0
70 955 0 64 1 2 0
72 951 0 70 1 4 0
74 940 0 79 1 2 0
76 934 0 86 2 0 0
78 928 0 90 2 1 0
80 922 0 92 2 1 0
82 918 0 97 1 2 0
84 910 0 102 0 1 0
86 898 0 112 0 0 0
88 897 0 115 0 1 0
90 891 0 124 2 1 0
92 885 0 126 2 2 0
94 872 0 134 2 1 0
96 864 0 138 1 3 0
98 863 0 140 0 4 0
100 856 0 150 1 0 0
102 848 0 149 1 1 0
104 841 0 154 2 1 0
106 839 0 166 0 1 0
108 828 0 168 2 2 0
110 822 0 178 0 1 0
112 814 0 178 3 2 0
114 803 0 184 3 1 0
116 798 0 190 5 0 0
118 795 0 193 1 0 0
120 790 0 198 1 5 0
122 785 0 206 2 0 0
124 782 0 211 0 1 0
126 773 0 220 0 2 0
128 765 0 228 2 0 0
130 759 0 230 2 1 0
132 751 0 235 2 1 0
134 746 0 246 1 2 0
136 738 0 253 1 3 0
138 733 0 255 3 1 0
140 733 0 262 1 1 0
142 731 0 268 0 2 0
144 723 0 271 2 0 0
146 717 0 274 1 1 0
148 716 0 280 0 0 0
150 709 0 283 1 0 0
152 702 0 281 0 3 0
154 691 0 281 2 2 0
156 685 0 285 1 2 0
158 679 0 289 3 3 0
160 674 0 292 3 2 0
162 674 0 297 1 1 0
164 664 0 302 2 2 0
166 662 0 306 1 0 0
168 657 0 308 0 3 0
170 651 0 314 1 2 0
172 648 0 324 1 2 0
174 647 0 330 0 2 0
176 640 0 330 1 1 0
178 638 0 336 0 0 0
180 633 0 339 0 1 0
182 625 0 346 3 0 0
184 625 0 348 1 4 0
186 621 0 351 0 2 0
188 615 0 356 2 1 0
190 612 0 359 2 2 0
192 606 0 359 2 4 0
194 603 0 369 1 4 0
196 592 0 376 4 3 0
198 584 0 388 2 2 0
200 578 0 387 1 1 0
