0 933 0 0 0 0 0
2 930 0 0 1 0 0
4.00004 920 0 0 3 0 0
6 932 0 0 1 0 0
8 926 0 0 6 0 0
10 939 0 0 5 0 0
12 943 0 0 2 0 0
14 935 0 0 6 0 0
16 948 0 0 4 0 0
18 950 0 0 4 0 0
20 957 0 0 2 0 0
22 957 0 0 6 0 0
24 949 0 0 6 0 0
26 952 0 0 8 0 0
28 952 0 0 7 0 0
30 957 0 0 3 0 0
32 949 0 0 4 0 0
34 943 0 0 4 0 0
36 943 0 0 3 0 0
38 951 0 0 2 0 0
40 952 0 0 9 0 0
42 952 0 0 4 0 0
44 948 0 0 5 0 0
46 948 0 0 3 0 0
48 943 0 0 5 0 0
50 940 0 0 11 0 0
52 941 0 8 3 2 0
54 925 0 21 2 2 0
56 909 0 35 4 2 0
58 897 0 50 3 4 0
60 885 0 80 5 3 0
62 875 0 92 3 1 0
64 871 0 104 1 1 0
66 858 0 115 1 2 0
68 845 0 129 3 3 0
70 840 0 133 0 1 0
72 821 0 147 4 2 0
74 816 0 152 1 3 0
76 807 0 171 0 3 0
78 796 0 181 1 1 0
80 778 0 188 4 3 0
82 766 0 194 4 2 0
84 756 0 203 3 4 0
86 741 0 216 5 0 0
88 739 0 222 2 2 0
90 722 0 233 0 0 0
92 714 0 243 2 1 0
94 708 0 258 1 4 0
96 699 0 260 1 4 0
98 689 0 260 3 3 0
100 681 0 274 1 1 0
102 669 0 283 2 2 0
104 664 0 290 1 2 0
106 655 0 301 1 1 0
108 648 0 315 2 1 0
110 636 0 330 4 2 0
112 631 0 335 3 4 0
114 626 0 338 1 5 0
116 613 0 350 2 4 0
118 606 0 359 0 4 0
120 598 0 367 1 2 0
122 592 0 382 1 1 0
124 587 0 392 1 4 0
126 572 0 406 0 1 0
128 562 0 414 3 2 0
130 559 0 420 2 5 0
132 549 0 428 0 4 0
134 543 0 435 0 4 0
136 529 0 441 2 4 0
138 523 0 444 1 5 0
140 516 0 459 1 3 0
142 510 0 466 0 3 0
144 504 0 474 1 2 0
146 495 0 484 4 3 0
148 492 0 497 2 1 0
150 489 0 503 1 2 0
152 477 0 503 0 5 0
154 466 0 501 2 5 0
156 459 0 513 2 1 0
158 453 0 522 3 5 0
160 446 0 532 0 3 0
162 442 0 541 0 4 0
164 438 0 544 0 4 0
166 433 0 558 0 3 0
168 429 0 558 0 2 0
170 420 0 569 1 6 0
172 413 0 574 0 2 0
174 409 0 576 1 1 0
176 405 0 581 2 3 0
178 399 0 597 0 2 0
180 397 0 588 2 5 0
182 391 0 594 2 5 0
184 390 0 598 0 1 0
186 378 0 595 4 4 0
188 381 0 596 0 5 0
190 375 0 600 0 5 0
192 372 0 614 0 5 0
194 367 0 620 1 1 0
196 363 0 627 0 2 0
198 355 0 634 0 0 0
200 343 0 633 0 4 0
