0 51 0 0 0
2 50 0 2 0
4.00004 51 0 2 0
6 50 0 2 0
8 50 0 2 0
10 47 0 5 0
12 49 0 6 0
14 50 0 4 0
16 51 0 5 0
18 50 0 5 0
20 51 0 3 0
22 51 0 2 0
24 52 0 1 0
26 51 0 3 0
28 52 0 2 0
30 49 0 5 0
32 51 0 4 0
34 53 0 2 0
36 51 0 2 0
38 54 0 1 0
40 55 0 0 0
42 54 0 2 0
44 53 0 4 0
46 51 0 6 0
48 53 0 2 0
50 52 0 5 0
52 56 0 3 0
54 55 0 3 0
56 54 0 4 0
58 55 0 1 0
60 56 0 0 0
62 56 0 0 0
64 56 0 0 1
66 55 1 1 0
68 55 1 2 0
70 56 1 1 1
72 54 1 3 2
74 51 2 5 1
76 53 2 3 0
78 53 2 3 0
80 53 2 3 1
82 54 1 2 4
84 53 3 3 3
86 54 5 1 1
88 53 5 2 1
90 53 5 1 1
92 51 6 4 0
94 52 6 2 0
96 52 6 2 0
98 52 6 2 0
100 52 6 2 0
102 50 6 4 0
104 52 6 2 0
106 53 6 1 2
108 54 6 0 2
110 54 6 0 3
112 53 6 1 2
114 52 6 2 2
116 53 6 1 2
118 53 5 1 3
120 54 7 0 1
122 54 7 0 1
124 52 8 2 0
126 53 8 1 0
128 53 7 1 1
130 53 8 1 0
132 52 8 2 0
134 50 8 2 2
136 50 8 4 2
138 52 8 1 1
140 52 9 1 1
142 53 9 1 0
144 53 9 1 0
146 52 9 2 1
148 51 9 3 2
150 53 9 0 2
152 53 7 0 2
154 50 8 3 2
156 50 8 3 3
158 52 9 1 3
160 50 10 3 2
162 50 10 3 1
164 50 9 3 4
166 52 11 1 2
168 51 11 2 1
170 51 10 2 3
172 50 10 3 2
174 48 10 5 4
176 48 11 3 2
178 46 10 6 3
180 49 11 3 2
182 48 11 3 1
184 46 10 4 3
186 49 10 1 2
188 50 9 0 4
190 50 10 1 4
192 50 10 1 3
194 50 11 1 3
196 51 11 0 3
198 50 11 1 2
200 49 10 2 4
202 48 10 2 3
204 48 12 1 2
206 48 12 2 0
208 49 12 2 3
210 48 12 3 2
212 47 12 3 1
214 48 12 3 2
216 47 12 3 1
218 44 13 5 0
220 44 13 4 2
222 44 14 4 2
224 48 13 1 2
226 47 12 2 5
228 45 13 4 3
230 43 15 3 2
232 42 16 4 1
234 43 16 4 1
236 43 16 3 2
238 42 16 4 1
240 43 16 2 1
242 44 16 1 1
244 43 15 2 2
246 44 16 1 2
248 42 17 2 0
250 41 18 3 0
252 42 17 1 2
254 41 18 1 1
256 39 17 3 2
258 39 17 4 2
260 40 17 2 2
262 40 17 1 1
264 41 17 0 0
266 40 17 1 0
268 40 17 1 0
270 41 16 0 2
272 40 16 1 3
274 40 17 1 1
276 39 16 2 2
278 37 17 4 0
280 39 17 2 0
282 37 16 3 2
284 37 16 3 2
286 37 17 3 1
288 36 18 4 0
290 38 18 1 1
292 37 17 3 2
294 38 17 2 4
296 40 15 0 5
298 38 15 2 4
300 39 15 1 2
302 38 15 2 6
304 38 15 1 5
306 38 16 2 4
308 38 17 2 3
310 37 19 2 1
312 38 19 1 0
314 39 19 0 0
316 37 18 2 1
318 39 18 0 2
320 39 17 0 2
322 39 18 0 1
324 37 17 2 1
326 38 17 1 1
328 39 17 0 2
330 39 17 0 3
332 38 17 1 4
334 39 18 0 3
336 39 18 0 0
338 37 17 2 1
340 38 16 0 4
342 36 17 2 3
344 36 17 2 2
346 37 18 1 1
348 37 18 1 3
350 38 20 0 1
