0 77 0 0 0
2 78 0 0 0
4.00004 78 0 0 0
6 76 0 1 0
8 71 0 5 0
10 74 0 3 0
12 72 0 5 0
14 71 0 4 0
16 71 0 4 0
18 70 0 5 0
20 70 0 3 0
22 70 0 3 0
24 69 0 4 0
26 68 0 3 0
28 66 0 5 0
30 66 0 9 0
32 68 0 5 0
34 67 0 8 0
36 67 0 5 0
38 66 0 5 0
40 66 0 5 0
42 67 0 5 0
44 67 0 5 0
46 67 0 6 0
48 69 0 3 0
50 69 0 4 0
52 57 12 2 0
54 46 22 1 1
56 36 31 3 0
58 32 36 4 0
60 25 41 5 0
62 23 42 6 0
64 25 41 7 1
66 22 45 6 1
68 18 50 5 1
70 17 54 4 0
72 17 52 4 2
74 17 52 5 2
76 13 53 4 5
78 10 58 6 3
80 9 61 7 2
82 8 62 3 2
84 5 63 0 4
86 3 65 2 4
88 2 65 2 5
90 2 65 2 5
92 2 66 2 4
94 2 65 2 4
96 2 67 3 2
98 2 67 5 1
100 2 65 4 3
102 3 66 3 2
104 3 68 3 0
106 2 69 4 0
108 2 70 3 0
110 2 70 2 0
112 3 67 1 4
114 3 69 1 2
116 3 69 1 2
118 2 70 2 2
120 1 70 2 3
122 1 70 1 3
124 1 66 3 7
126 1 67 2 6
128 2 68 2 5
130 2 67 2 5
132 2 67 2 5
134 2 69 2 4
136 3 68 1 4
138 3 68 4 4
140 3 68 2 3
142 3 68 3 1
144 4 68 2 3
146 4 67 1 3
148 3 65 1 6
150 3 65 1 7
152 3 65 0 6
154 3 65 0 6
156 3 62 1 9
158 2 65 1 8
160 2 65 1 8
162 2 66 0 6
164 2 67 1 5
166 1 67 1 5
168 0 66 3 6
170 0 66 5 7
172 2 65 3 7
174 2 66 3 6
176 2 66 3 5
178 3 68 2 3
180 2 68 1 4
182 3 68 1 4
184 3 69 1 3
186 2 68 1 5
188 2 68 2 5
190 2 68 1 5
192 2 69 0 3
194 2 67 0 5
196 2 68 1 4
198 2 70 1 2
200 1 70 1 3
202 1 71 1 2
204 1 72 1 1
206 1 72 1 1
208 1 72 1 1
210 1 72 1 1
212 1 70 1 3
214 0 70 2 3
216 0 71 2 2
218 0 70 2 3
220 0 69 3 4
222 1 69 1 4
224 1 69 1 3
226 1 69 0 3
228 1 68 0 5
230 1 68 1 5
232 0 68 2 6
234 0 70 2 4
236 1 70 2 4
238 1 69 2 4
240 1 70 1 4
242 0 70 2 4
244 0 71 2 4
246 0 71 2 3
248 0 70 2 5
250 0 71 1 3
252 0 71 1 3
254 0 70 2 4
256 0 70 2 4
258 0 69 2 4
260 0 70 1 4
262 0 70 1 4
264 0 67 1 7
266 0 68 1 6
268 0 67 1 8
270 1 68 0 6
272 1 70 0 3
274 1 69 0 5
276 1 68 0 6
278 0 68 1 5
280 0 70 1 3
282 0 71 1 3
284 0 70 1 3
286 0 69 1 3
288 0 69 1 3
290 0 69 1 2
292 0 70 1 2
294 0 69 1 2
296 0 68 1 4
298 0 67 1 5
300 0 67 1 5
302 0 67 1 4
304 0 66 1 4
306 1 66 0 4
308 1 65 0 4
310 1 66 0 2
312 1 64 0 4
314 1 63 1 6
316 1 66 0 3
318 1 66 0 3
320 1 66 0 3
322 1 67 0 2
324 0 66 0 4
326 0 68 0 3
328 0 69 0 2
330 0 68 0 3
332 0 68 0 3
334 0 67 0 3
336 0 68 0 2
338 0 68 0 2
340 0 69 0 1
342 0 67 0 3
344 0 69 0 1
346 0 69 0 2
348 0 69 0 2
350 0 69 0 2
