0 64 0 0 0
2 62 0 2 0
4.00004 61 0 2 0
6 60 0 3 0
8 62 0 2 0
10 61 0 2 0
12 61 0 1 0
14 62 0 2 0
16 62 0 1 0
18 62 0 1 0
20 62 0 1 0
22 64 0 0 0
24 62 0 2 0
26 60 0 6 0
28 61 0 2 0
30 61 0 2 0
32 62 0 1 0
34 63 0 1 0
36 62 0 2 0
38 61 0 3 0
40 61 0 3 0
42 62 0 2 0
44 62 0 2 0
46 62 0 1 0
48 62 0 1 0
50 62 0 1 0
52 47 14 2 0
54 39 22 2 1
56 32 30 2 0
58 27 33 5 0
60 21 39 5 0
62 20 40 4 0
64 19 42 3 0
66 15 46 3 0
68 13 48 3 0
70 11 49 3 1
72 9 50 3 1
74 9 50 3 2
76 6 54 1 2
78 5 54 2 3
80 4 54 2 4
82 4 56 2 2
84 4 57 0 1
86 3 57 0 3
88 2 58 0 3
90 2 58 0 2
92 1 59 0 2
94 1 58 0 2
96 0 61 0 0
98 0 61 0 0
100 0 58 0 3
102 0 57 0 4
104 0 59 0 2
106 0 59 0 3
108 0 59 0 3
110 0 58 0 3
112 0 57 0 4
114 0 55 0 5
116 0 57 0 4
118 0 59 0 2
120 0 58 0 3
122 0 58 0 3
124 0 58 0 3
126 0 59 0 2
128 0 59 0 2
130 0 58 0 3
132 0 58 0 3
134 0 59 0 2
136 0 59 0 2
138 0 60 0 1
140 0 60 0 1
142 0 59 0 2
144 0 59 0 2
146 0 59 0 2
148 0 59 0 2
150 0 59 0 2
152 0 60 0 1
154 0 60 0 1
156 0 60 1 1
158 0 58 1 3
160 0 58 1 3
162 0 59 1 2
164 0 58 1 3
166 0 57 1 4
168 1 58 0 3
170 0 59 0 3
172 0 60 0 1
174 0 58 0 3
176 0 60 0 1
178 0 59 1 3
180 0 56 1 5
182 0 56 0 6
184 0 58 0 4
186 0 58 1 4
188 0 59 1 2
190 0 58 1 4
192 0 58 1 3
194 0 58 1 3
196 0 58 1 3
198 0 58 1 4
200 0 57 1 4
202 0 58 1 3
204 0 59 3 1
206 0 58 2 2
208 0 57 2 2
210 0 56 2 3
212 0 55 2 4
214 0 54 0 5
216 0 54 1 5
218 0 54 1 5
220 0 55 1 4
222 0 56 1 2
224 0 56 2 3
226 0 56 3 2
228 0 57 3 1
230 0 57 2 1
232 0 57 3 2
234 0 58 2 2
236 0 56 2 3
238 0 57 2 3
240 0 58 2 2
242 0 58 3 2
244 0 57 3 2
246 0 55 3 4
248 0 58 3 1
250 1 57 2 2
252 0 60 2 1
254 0 60 3 1
256 0 60 2 1
258 1 58 0 3
260 1 59 0 2
262 1 58 1 2
264 1 59 1 1
266 0 59 3 2
268 0 60 2 1
270 0 59 3 2
272 0 60 1 1
274 0 60 1 1
276 0 60 0 1
278 0 60 0 1
280 0 59 0 1
282 0 58 1 2
284 0 58 0 2
286 0 57 1 3
288 0 57 1 4
290 0 58 0 3
292 0 58 0 2
294 0 58 0 2
296 0 55 0 4
298 0 56 0 4
300 0 56 1 4
302 0 57 1 2
304 0 55 1 4
306 0 55 0 3
308 0 56 0 2
310 0 55 0 3
312 0 56 0 2
314 0 57 0 1
316 0 56 0 3
318 0 57 1 2
320 0 57 1 2
322 0 57 1 2
324 0 57 2 1
326 0 56 2 3
328 0 56 3 3
330 0 57 2 2
332 0 56 1 3
334 0 57 2 2
336 0 57 2 2
338 0 58 2 1
340 0 57 2 2
342 0 57 2 2
344 0 56 2 3
346 0 56 2 3
348 0 55 2 4
350 0 57 2 2
