0 63 0 0 0
2 61 0 2 0
4.00004 60 0 3 0
6 58 0 4 0
8 59 0 2 0
10 60 0 2 0
12 58 0 5 0
14 58 0 4 0
16 56 0 7 0
18 56 0 7 0
20 56 0 9 0
22 55 0 8 0
24 56 0 7 0
26 58 0 4 0
28 58 0 2 0
30 57 0 4 0
32 58 0 4 0
34 56 0 3 0
36 56 0 6 0
38 55 0 7 0
40 56 0 7 0
42 57 0 5 0
44 59 0 4 0
46 59 0 4 0
48 59 0 5 0
50 61 0 3 0
52 60 0 4 0
54 61 0 3 0
56 57 0 8 0
58 58 0 8 0
60 62 0 3 0
62 61 0 5 0
64 61 0 4 0
66 59 0 6 1
68 61 1 5 0
70 60 1 4 0
72 60 1 3 0
74 59 1 4 0
76 60 0 2 1
78 58 1 5 0
80 56 1 7 0
82 58 1 6 0
84 59 1 4 0
86 60 1 3 0
88 59 1 5 0
90 61 1 3 0
92 61 1 3 0
94 61 1 3 0
96 62 1 2 0
98 59 1 5 0
100 60 1 4 0
102 61 1 3 0
104 62 1 2 0
106 62 1 2 0
108 61 1 3 0
110 61 1 3 0
112 60 1 4 0
114 60 1 4 2
116 62 1 2 3
118 61 2 3 0
120 60 2 4 0
122 61 2 3 1
124 61 2 2 1
126 60 2 1 1
128 61 2 3 0
130 60 2 4 0
132 58 2 5 1
134 57 2 4 1
136 56 2 4 0
138 58 2 2 0
140 58 2 1 1
142 58 2 1 1
144 57 2 4 2
146 57 2 3 3
148 57 2 4 2
150 58 2 3 3
152 55 2 6 2
154 48 1 12 3
156 53 1 7 2
158 55 2 3 2
160 54 2 3 2
162 54 1 5 4
164 55 2 5 3
166 54 2 4 3
168 54 2 4 4
170 54 3 4 2
172 55 3 2 3
174 52 4 5 2
176 51 3 7 2
178 53 3 5 2
180 53 3 5 4
182 53 3 4 4
184 52 3 4 4
186 53 5 2 2
188 54 5 1 2
190 53 5 2 2
192 52 6 3 1
194 51 6 3 0
196 53 6 1 0
198 54 6 0 3
200 53 6 1 0
202 52 6 2 1
204 52 6 2 2
206 52 6 2 3
208 50 6 4 1
210 51 6 3 1
212 50 6 4 2
214 50 6 4 3
216 51 7 3 2
218 51 7 3 3
220 52 7 2 4
222 53 7 1 3
224 53 8 1 3
226 53 8 1 2
228 49 8 5 3
230 53 8 1 2
232 53 8 1 2
234 53 8 0 3
236 51 9 2 4
238 52 9 2 2
240 52 9 1 2
242 52 10 0 2
244 51 10 3 2
246 51 9 2 4
248 51 10 2 2
250 49 9 4 3
252 48 10 5 1
254 48 9 5 2
256 49 9 2 2
258 48 9 3 3
260 48 10 3 2
262 47 10 3 2
264 46 11 4 1
266 47 11 3 1
268 47 11 3 1
270 46 11 5 1
272 45 11 6 1
274 47 11 4 1
276 48 11 3 1
278 49 11 2 1
280 47 11 3 2
282 49 11 1 2
284 49 11 1 2
286 48 10 2 3
288 46 11 4 1
290 46 12 4 1
292 46 12 4 1
294 47 12 2 1
296 46 12 3 1
298 46 12 3 1
300 46 11 3 1
302 45 11 3 1
304 46 12 2 1
306 45 12 3 0
308 47 12 1 1
310 46 11 2 2
312 46 12 2 1
314 47 12 1 1
316 45 12 3 1
318 47 12 1 1
320 48 12 0 1
322 48 11 0 2
324 47 13 1 0
326 48 13 0 1
328 45 13 3 0
330 46 12 2 1
332 46 13 1 0
334 46 12 1 1
336 46 13 0 0
338 43 13 4 0
340 45 13 2 1
342 45 13 2 1
344 44 14 3 0
346 42 14 4 0
348 43 14 3 0
350 43 14 2 1
