0 61 0 0 0
2 61 0 0 0
4.00004 58 0 3 0
6 61 0 0 0
8 61 0 0 0
10 61 0 0 0
12 60 0 1 0
14 60 0 1 0
16 61 0 0 0
18 59 0 2 0
20 59 0 4 0
22 58 0 4 0
24 56 0 7 0
26 59 0 3 0
28 58 0 4 0
30 57 0 5 0
32 57 0 4 0
34 57 0 4 0
36 59 0 2 0
38 60 0 3 0
40 58 0 3 0
42 59 0 4 0
44 60 0 3 0
46 61 0 2 0
48 59 0 6 0
50 56 0 10 0
52 59 0 5 0
54 59 0 6 0
56 59 0 5 0
58 60 0 4 0
60 60 0 4 0
62 60 0 5 0
64 60 0 5 0
66 60 0 4 0
68 59 0 6 0
70 61 0 3 0
72 59 0 5 0
74 60 0 3 0
76 60 0 4 0
78 60 0 4 1
80 61 0 2 0
82 61 0 2 1
84 61 0 2 1
86 61 1 1 0
88 60 1 2 1
90 59 1 2 2
92 58 1 4 2
94 59 2 4 1
96 57 3 6 0
98 58 3 5 0
100 59 3 1 1
102 58 3 2 1
104 58 3 3 1
106 56 4 4 2
108 56 5 4 1
110 58 5 2 3
112 56 6 4 1
114 56 6 4 0
116 55 6 6 2
118 56 6 5 4
120 57 6 2 2
122 57 7 4 2
124 57 8 3 1
126 56 8 3 1
128 55 9 1 0
130 54 9 3 1
132 55 8 1 2
134 54 8 2 3
136 54 8 2 2
138 54 8 3 3
140 54 8 1 3
142 50 8 5 2
144 52 8 2 3
146 50 8 4 2
148 51 9 3 1
150 52 9 1 2
152 52 9 1 1
154 51 10 1 2
156 51 10 1 2
158 51 10 2 1
160 52 10 0 3
162 51 10 1 3
164 51 10 2 3
166 51 12 0 2
168 51 12 0 3
170 51 12 0 4
172 50 12 1 2
174 51 12 0 2
176 51 13 0 3
178 50 13 2 3
180 50 14 2 2
182 50 14 1 2
184 50 14 1 3
186 50 14 1 3
188 49 15 1 2
190 49 15 2 1
192 49 16 2 0
194 49 15 2 2
196 48 16 2 0
198 48 15 3 3
200 47 14 4 3
202 49 15 2 3
204 48 15 2 3
206 47 16 3 1
208 48 15 1 1
210 48 16 2 1
212 47 16 1 1
214 47 15 1 2
216 46 15 2 2
218 46 17 2 0
220 47 16 0 1
222 46 16 2 0
224 46 15 2 1
226 46 16 2 0
228 44 16 5 0
230 44 16 4 0
232 45 16 3 0
234 47 16 1 0
236 44 16 4 0
238 46 16 3 0
240 45 15 3 2
242 46 16 1 0
244 45 16 2 0
246 46 15 1 1
248 45 15 2 1
250 46 15 1 2
252 45 16 2 2
254 45 17 2 1
256 44 17 2 1
258 42 17 5 1
260 43 17 2 3
262 42 16 2 3
264 41 18 2 2
266 42 19 1 1
268 42 19 3 2
270 42 19 3 3
272 41 19 3 2
274 41 18 2 3
276 41 18 2 1
278 41 18 3 2
280 41 17 3 2
282 41 19 2 2
284 41 19 1 2
286 42 19 1 1
288 42 19 2 3
290 41 20 3 2
292 40 20 4 2
294 41 20 3 2
296 41 20 3 4
298 42 21 1 0
300 42 20 2 2
302 41 18 1 4
304 42 19 1 3
306 41 19 3 3
308 41 20 2 0
310 42 20 0 0
312 41 17 1 3
314 40 19 3 1
316 42 19 1 1
318 40 19 3 1
320 40 19 3 1
322 41 19 2 1
324 42 19 1 1
326 41 20 2 1
328 41 21 2 0
330 40 21 3 0
332 41 21 2 1
334 40 21 2 1
336 40 21 2 1
338 40 21 1 1
340 41 22 0 0
342 41 22 0 0
344 41 22 1 0
346 40 22 2 0
348 41 21 0 1
350 41 22 0 1
