0 72 0 0 0
2 71 0 2 0
4.00004 71 0 0 0
6 72 0 0 0
8 71 0 0 0
10 73 0 0 0
12 71 0 2 0
14 70 0 2 0
16 71 0 2 0
18 70 0 3 0
20 71 0 2 0
22 68 0 6 0
24 71 0 2 0
26 69 0 5 0
28 69 0 5 0
30 67 0 7 0
32 67 0 6 0
34 69 0 4 0
36 67 0 7 0
38 69 0 4 0
40 68 0 5 0
42 71 0 3 0
44 71 0 2 0
46 71 0 3 0
48 70 0 5 0
50 68 0 6 0
52 55 13 6 0
54 46 22 7 0
56 41 25 7 2
58 34 32 9 0
60 36 34 5 0
62 36 35 3 0
64 29 42 4 0
66 25 45 5 0
68 24 47 4 0
70 24 46 3 2
72 22 49 4 1
74 15 55 4 1
76 14 54 4 4
78 13 57 5 2
80 13 57 2 2
82 9 61 2 3
84 8 61 3 3
86 9 62 0 2
88 7 64 1 2
90 5 64 2 4
92 5 64 0 4
94 5 65 2 2
96 4 67 2 1
98 3 68 2 1
100 2 69 2 1
102 2 69 2 1
104 3 67 1 3
106 3 66 1 4
108 2 66 1 5
110 2 67 1 4
112 2 67 1 4
114 1 68 1 3
116 2 69 0 2
118 2 68 0 4
120 2 67 0 4
122 1 68 1 2
124 1 67 1 4
126 1 67 2 4
128 1 67 2 4
130 1 64 2 6
132 1 66 3 4
134 1 67 2 3
136 0 67 5 2
138 1 68 3 2
140 2 68 2 2
142 2 68 2 2
144 1 70 1 1
146 1 70 1 0
148 1 70 1 0
150 1 70 1 0
152 1 69 1 1
154 0 68 0 5
156 0 71 0 2
158 0 71 0 2
160 0 72 0 1
162 0 71 0 2
164 0 70 0 3
166 0 70 0 3
168 0 71 0 2
170 0 71 0 1
172 0 71 0 1
174 0 69 0 3
176 0 70 0 2
178 0 71 1 1
180 0 72 0 0
182 0 71 0 1
184 0 70 0 3
186 0 70 0 3
188 0 71 0 1
190 0 72 0 0
192 0 72 0 0
194 0 72 0 0
196 0 72 0 0
198 0 71 1 1
200 0 71 0 1
202 0 71 0 1
204 0 69 0 3
206 0 70 0 2
208 0 70 0 2
210 0 70 0 2
212 0 70 0 2
214 0 71 0 1
216 0 69 0 3
218 0 67 1 5
220 0 68 1 4
222 0 69 1 3
224 0 69 1 3
226 0 70 1 2
228 0 71 1 1
230 0 71 0 1
232 0 71 2 1
234 0 71 2 1
236 0 69 2 3
238 0 70 2 2
240 0 66 1 6
242 0 71 3 1
244 0 68 3 3
246 1 69 1 2
248 2 70 0 2
250 2 70 0 2
252 2 71 0 1
254 2 71 0 1
256 1 70 1 2
258 1 70 1 2
260 2 71 0 1
262 2 70 1 2
264 1 71 1 0
266 1 71 1 0
268 1 68 0 3
270 1 69 0 2
272 1 70 0 1
274 1 69 1 2
276 1 69 1 2
278 1 68 0 3
280 0 68 0 4
282 0 70 0 2
284 0 72 0 0
286 0 70 1 2
288 0 72 3 0
290 0 71 3 1
292 0 70 2 2
294 0 69 1 3
296 0 69 2 3
298 0 67 2 5
300 0 69 1 3
302 1 67 1 4
304 0 70 2 2
306 0 68 1 4
308 0 70 2 2
310 0 70 3 2
312 0 70 3 2
314 0 69 2 3
316 2 69 0 3
318 2 71 0 1
320 2 70 0 2
322 2 70 0 2
324 2 70 2 2
326 1 70 4 1
328 2 69 3 2
330 1 71 3 1
332 2 70 1 2
334 2 70 1 1
336 3 68 1 3
338 2 70 1 1
340 2 70 1 1
342 2 69 0 1
344 2 69 1 1
346 1 70 1 1
348 1 71 0 1
350 1 69 1 4
