0 59 0 0 0
2 60 0 2 0
4.00004 59 0 2 0
6 59 0 2 0
8 60 0 2 0
10 60 0 1 0
12 60 0 1 0
14 59 0 2 0
16 57 0 4 0
18 58 0 3 0
20 57 0 2 0
22 56 0 5 0
24 58 0 3 0
26 55 0 6 0
28 55 0 5 0
30 56 0 4 0
32 57 0 4 0
34 55 0 4 0
36 54 0 6 0
38 55 0 4 0
40 54 0 6 0
42 54 0 4 0
44 53 0 5 0
46 55 0 5 0
48 54 0 4 0
50 55 0 5 0
52 54 0 5 0
54 54 0 5 0
56 53 0 6 0
58 52 0 6 0
60 54 0 5 0
62 55 0 2 0
64 54 0 4 1
66 53 0 5 1
68 54 0 3 1
70 53 0 5 0
72 55 0 3 0
74 55 0 2 0
76 53 0 3 0
78 55 0 1 0
80 56 0 0 1
82 54 0 4 1
84 54 0 3 1
86 55 0 3 1
88 54 0 5 1
90 56 0 2 1
92 56 0 2 2
94 56 0 2 1
96 54 0 3 2
98 55 0 5 2
100 55 0 5 2
102 56 0 4 2
104 57 1 2 0
106 55 1 4 2
108 56 1 4 0
110 55 1 5 1
112 53 1 6 2
114 53 1 7 2
116 53 1 6 2
118 55 1 5 2
120 55 1 5 2
122 55 1 4 1
124 53 1 6 2
126 53 1 5 3
128 52 1 8 1
130 53 1 6 2
132 55 1 4 1
134 56 2 2 1
136 56 2 3 2
138 56 2 2 3
140 56 2 2 3
142 56 3 2 1
144 56 3 2 0
146 56 3 2 0
148 56 3 2 0
150 56 3 2 1
152 54 3 3 1
154 56 3 2 3
156 57 3 0 3
158 54 3 3 2
160 54 3 3 3
162 55 3 2 2
164 56 3 1 2
166 55 3 3 3
168 55 3 3 3
170 56 3 1 4
172 55 3 2 4
174 55 3 2 4
176 53 4 4 4
178 54 3 3 5
180 54 4 3 3
182 52 4 5 3
184 55 4 2 3
186 54 4 3 3
188 53 2 4 6
190 54 5 3 2
192 53 6 4 3
194 52 6 5 3
196 51 6 4 3
198 51 6 4 2
200 52 6 3 3
202 49 6 6 2
204 51 6 3 4
206 51 7 3 5
208 49 6 5 6
210 47 6 7 5
212 47 6 9 3
214 48 6 8 3
216 50 6 6 1
218 52 6 3 3
220 52 7 4 4
222 51 7 5 4
224 51 6 4 4
226 51 7 5 3
228 51 8 5 3
230 52 8 3 2
232 52 6 3 4
234 53 7 1 4
236 53 8 2 3
238 52 8 3 3
240 52 8 4 3
242 50 8 5 3
244 50 9 6 1
246 51 9 2 1
248 51 9 2 0
250 52 9 2 0
252 48 9 8 0
254 47 9 9 1
256 48 9 6 0
258 48 8 6 1
260 48 8 5 2
262 48 8 6 3
264 46 9 7 2
266 48 9 5 2
268 48 8 4 2
270 48 8 4 2
272 49 8 3 3
274 47 9 5 2
276 48 9 4 1
278 47 8 5 1
280 47 8 5 2
282 48 8 2 2
284 48 8 1 3
286 46 8 3 2
288 48 8 1 2
290 48 8 3 3
292 48 8 4 4
294 46 9 5 3
296 44 10 7 2
298 48 10 3 2
300 48 9 3 5
302 48 11 4 3
304 50 10 1 5
306 50 10 1 5
308 49 9 2 6
310 48 10 3 4
312 47 10 4 3
314 49 12 0 2
316 45 11 6 3
318 48 13 3 1
320 49 13 2 1
322 49 12 2 1
324 48 12 3 2
326 49 11 2 3
328 48 12 3 1
330 48 12 3 0
332 48 12 3 0
334 49 12 2 1
336 48 12 2 0
338 49 12 0 1
340 49 12 0 0
342 47 11 2 2
344 49 12 0 0
346 49 12 0 1
348 49 12 0 2
350 48 12 1 2
