0 71 0 0 0
2 67 0 3 0
4.00004 68 0 2 0
6 66 0 3 0
8 68 0 2 0
10 67 0 3 0
12 68 0 3 0
14 68 0 2 0
16 66 0 5 0
18 67 0 2 0
20 67 0 3 0
22 69 0 1 0
24 67 0 4 0
26 67 0 3 0
28 66 0 6 0
30 66 0 4 0
32 67 0 3 0
34 67 0 3 0
36 67 0 3 0
38 68 0 3 0
40 67 0 3 0
42 67 0 3 0
44 66 0 5 0
46 67 0 3 0
48 65 0 4 0
50 64 0 5 0
52 65 0 4 0
54 64 0 5 0
56 65 0 4 0
58 66 0 3 0
60 65 0 4 0
62 66 0 4 0
64 65 0 4 0
66 64 0 5 0
68 66 0 3 0
70 67 0 2 0
72 65 0 4 0
74 68 0 1 0
76 68 0 0 0
78 66 0 3 0
80 66 0 3 0
82 67 0 2 0
84 67 0 1 0
86 68 0 1 2
88 68 0 1 2
90 68 0 0 2
92 67 0 2 2
94 68 0 2 2
96 69 0 1 1
98 69 0 1 1
100 66 0 4 2
102 68 0 1 2
104 66 0 3 2
106 66 0 4 3
108 63 1 7 2
110 65 2 5 1
112 64 2 5 1
114 65 3 4 0
116 65 3 5 0
118 64 3 5 0
120 66 3 3 0
122 65 3 2 0
124 65 3 2 0
126 63 3 4 0
128 64 3 3 0
130 63 3 3 0
132 64 3 2 0
134 64 3 3 0
136 63 2 3 1
138 62 3 4 0
140 61 3 5 0
142 61 3 5 0
144 57 3 9 0
146 59 3 6 0
148 61 3 4 0
150 60 2 5 1
152 62 3 3 0
154 62 3 3 0
156 61 2 4 1
158 63 1 1 2
160 62 2 3 1
162 62 2 4 1
164 62 2 3 1
166 64 2 1 2
168 63 2 3 1
170 64 2 2 3
172 64 2 1 3
174 65 2 0 2
176 63 2 3 2
178 62 2 3 2
180 62 2 4 3
182 62 2 4 3
184 62 2 4 3
186 62 2 3 2
188 63 3 3 1
190 64 3 1 1
192 63 3 2 1
194 63 3 2 0
196 62 3 3 0
198 60 3 5 1
200 63 3 2 0
202 63 3 1 0
204 60 3 4 0
206 62 3 2 1
208 62 3 3 0
210 62 3 3 1
212 61 3 4 1
214 61 3 3 1
216 60 3 4 1
218 61 3 4 2
220 62 3 2 2
222 62 3 2 1
224 62 3 2 1
226 63 3 1 1
228 62 2 3 2
230 62 3 2 1
232 61 3 4 1
234 59 3 6 1
236 59 3 4 0
238 60 3 5 1
240 62 2 3 2
242 62 4 2 0
244 61 4 2 0
246 62 4 1 0
248 62 4 1 1
250 61 4 2 0
252 62 4 1 0
254 62 4 1 0
256 61 4 2 1
258 60 4 3 1
260 60 4 3 0
262 60 4 3 0
264 61 4 1 0
266 61 4 1 1
268 61 4 1 0
270 62 4 0 0
272 61 4 1 1
274 62 4 0 1
276 59 4 3 1
278 60 4 2 1
280 60 4 2 1
282 61 5 1 1
284 62 5 0 1
286 62 5 0 1
288 62 6 0 0
290 62 6 0 0
292 62 6 0 0
294 62 6 0 0
296 62 6 0 0
298 62 6 0 0
300 61 6 1 0
302 60 6 2 0
304 61 6 1 0
306 61 6 1 1
308 61 6 1 0
310 61 6 1 0
312 61 6 1 0
314 61 6 1 0
316 58 6 4 0
318 62 6 0 1
320 60 6 2 0
322 60 6 2 0
324 59 6 2 2
326 59 6 1 2
328 58 6 2 2
330 60 6 1 1
332 59 6 1 0
334 58 6 2 0
336 59 6 1 1
338 60 6 0 0
340 60 6 1 1
342 60 6 0 1
344 59 6 1 1
346 59 6 1 1
348 58 6 2 1
350 60 6 0 1
