0 73 0 0 0
2 75 0 1 0
4.00004 71 0 4 0
6 73 0 3 0
8 71 0 3 0
10 70 0 4 0
12 71 0 6 0
14 72 0 5 0
16 71 0 3 0
18 68 0 8 0
20 71 0 4 0
22 71 0 5 0
24 73 0 3 0
26 73 0 3 0
28 72 0 2 0
30 72 0 3 0
32 71 0 4 0
34 73 0 1 0
36 72 0 4 0
38 73 0 2 0
40 69 0 6 0
42 73 0 3 0
44 73 0 3 0
46 72 0 4 0
48 72 0 5 0
50 70 0 7 0
52 70 0 8 0
54 72 0 6 0
56 73 0 5 0
58 70 0 8 0
60 72 0 5 0
62 70 0 7 0
64 73 0 4 0
66 71 0 6 0
68 70 0 7 0
70 69 0 7 0
72 69 0 6 0
74 70 0 6 0
76 68 0 8 0
78 68 0 8 0
80 67 0 9 0
82 69 0 6 0
84 70 0 4 0
86 68 0 6 0
88 70 0 5 0
90 70 0 5 0
92 67 0 8 0
94 66 0 9 0
96 67 0 8 0
98 67 0 8 0
100 67 0 8 1
102 67 0 8 1
104 66 0 10 1
106 66 0 9 1
108 67 0 8 2
110 64 0 10 1
112 64 0 10 2
114 65 0 9 2
116 65 0 9 1
118 66 0 7 3
120 66 0 9 3
122 66 0 6 4
124 67 0 6 4
126 66 0 7 4
128 67 0 6 3
130 67 0 6 2
132 66 0 7 4
134 67 0 7 4
136 69 0 5 3
138 68 0 6 3
140 67 0 6 2
142 66 0 6 2
144 68 0 5 5
146 67 1 6 2
148 67 1 5 3
150 65 1 9 1
152 64 1 11 4
154 66 1 7 2
156 66 1 6 3
158 67 1 5 1
160 67 1 6 2
162 66 1 6 1
164 66 1 5 2
166 65 1 6 3
168 64 1 9 3
170 65 1 7 3
172 66 1 7 2
174 65 0 7 3
176 63 1 9 2
178 61 1 12 2
180 58 1 15 2
182 59 1 14 2
184 59 1 14 1
186 62 1 11 1
188 62 1 9 2
190 62 1 9 2
192 62 1 8 3
194 63 1 6 2
196 61 1 9 2
198 59 1 12 2
200 60 1 11 2
202 61 1 10 2
204 62 1 7 2
206 60 1 8 2
208 59 1 7 2
210 59 2 9 1
212 61 2 7 1
214 60 2 7 1
216 61 2 6 0
218 61 2 6 0
220 62 2 5 1
222 62 2 6 0
224 61 2 7 0
226 61 2 7 1
228 61 2 7 1
230 62 2 7 1
232 63 2 5 2
234 62 2 7 2
236 63 2 7 2
238 63 3 7 1
240 61 3 8 3
242 61 4 8 2
244 58 4 12 2
246 57 4 12 1
248 57 4 13 1
250 57 4 13 2
252 58 4 11 3
254 58 4 12 3
256 59 4 10 2
258 58 4 11 2
260 59 5 10 1
262 58 5 10 1
264 57 5 12 1
266 58 5 11 2
268 61 5 8 2
270 60 5 9 3
272 62 5 7 3
274 63 5 5 3
276 63 5 5 3
278 63 5 4 3
280 63 5 5 4
282 62 5 6 3
284 61 4 6 5
286 61 4 7 5
288 62 4 6 6
290 64 4 3 6
292 63 4 3 6
294 64 4 2 6
296 63 3 5 7
298 64 3 3 6
300 63 3 5 6
302 63 3 4 5
304 64 3 3 5
306 64 4 2 2
308 62 5 4 2
310 60 5 6 2
312 63 5 3 3
314 63 5 2 3
316 63 5 4 3
318 62 6 4 1
320 64 6 3 2
322 64 6 2 2
324 61 6 4 1
326 61 6 4 1
328 61 6 4 1
330 61 6 4 1
332 61 6 5 1
334 61 6 5 2
336 58 6 8 2
338 61 6 5 2
340 60 6 6 2
342 59 6 7 2
344 58 6 8 3
346 57 6 9 3
348 57 6 9 3
350 58 6 7 2
