0 100 0 0 0
2 99 0 1 0
4.00004 98 0 2 0
6 99 0 1 0
8 102 0 0 0
10 101 0 0 0
12 100 0 1 0
14 101 0 0 0
16 99 0 1 0
18 100 0 1 0
20 102 0 0 0
22 102 0 0 0
24 101 0 1 0
26 102 0 0 0
28 100 0 1 0
30 99 0 2 0
32 97 0 4 0
34 99 0 1 0
36 100 0 1 0
38 98 0 1 0
40 98 0 2 0
42 97 0 1 0
44 99 0 2 0
46 100 0 1 0
48 99 0 2 0
50 101 0 0 0
52 88 12 2 0
54 74 25 1 0
56 64 35 1 0
58 59 39 0 1
60 51 44 3 0
62 44 52 0 1
64 42 56 1 0
66 36 60 1 0
68 35 61 0 1
70 25 72 0 1
72 23 76 0 0
74 20 79 0 0
76 15 82 0 1
78 14 84 0 1
80 11 86 1 1
82 8 90 0 1
84 7 92 0 0
86 5 91 1 1
88 5 91 1 0
90 6 88 0 2
92 5 89 0 2
94 6 92 0 0
96 8 91 0 1
98 6 91 0 2
100 5 94 2 0
102 6 91 0 1
104 3 94 0 1
106 2 93 2 2
108 1 92 2 3
110 2 93 0 2
112 2 94 0 1
114 1 96 0 1
116 4 95 0 1
118 5 94 0 2
120 4 94 0 0
122 4 92 0 1
124 5 91 0 1
126 4 91 1 0
128 6 91 0 1
130 6 92 1 0
132 4 94 0 1
134 2 96 1 0
136 2 95 0 0
138 2 94 0 0
140 2 93 0 0
142 1 95 0 0
144 1 94 0 0
146 1 93 0 1
148 1 95 0 0
150 1 94 0 1
152 1 93 1 0
154 0 93 0 0
156 0 92 0 0
158 0 94 0 0
160 0 93 0 2
162 0 92 0 2
164 0 94 0 0
166 0 92 0 2
168 0 92 0 1
170 0 93 0 0
172 0 93 0 0
174 1 93 0 1
176 0 92 0 2
178 0 92 0 2
180 0 92 0 2
182 1 94 1 0
184 0 92 1 2
186 1 92 1 2
188 2 91 1 2
190 3 93 0 0
192 4 93 0 0
194 4 93 0 0
196 3 94 0 0
198 3 93 1 1
200 3 95 0 0
202 2 93 1 1
204 3 94 0 0
206 3 92 1 3
208 2 95 0 1
210 1 94 0 2
212 1 95 0 0
214 2 93 0 2
216 2 96 0 1
218 2 95 0 1
220 2 96 0 1
222 2 97 0 0
224 1 96 0 1
226 0 96 0 1
228 1 95 0 1
230 1 97 0 0
232 1 97 0 0
234 1 95 0 2
236 1 93 0 5
238 1 95 0 1
240 1 96 0 2
242 1 97 0 0
244 1 94 0 4
246 1 94 0 1
248 1 93 0 1
250 1 95 0 1
252 1 95 0 1
254 1 94 1 0
256 1 94 1 1
258 0 95 0 0
260 1 93 1 2
262 1 95 0 0
264 3 90 0 4
266 2 94 1 0
268 3 92 0 1
270 2 94 0 0
272 3 92 0 1
274 2 92 1 1
276 3 92 0 2
278 6 91 0 2
280 5 93 0 0
282 3 93 1 0
284 4 94 0 0
286 4 94 0 0
288 5 93 0 1
290 7 94 0 0
292 6 93 1 1
294 5 93 0 0
296 4 93 0 0
298 3 94 0 0
300 3 94 0 0
302 3 94 0 0
304 4 94 0 0
306 4 95 0 0
308 4 95 0 0
310 3 96 0 0
312 4 95 0 1
314 4 96 0 0
316 4 97 0 0
318 2 97 1 0
320 2 97 0 0
322 2 98 0 1
324 2 97 0 3
326 3 99 0 1
328 3 99 0 1
330 3 99 0 1
332 0 102 0 0
334 0 101 0 0
336 1 102 0 0
338 2 102 0 0
340 2 102 0 0
342 2 101 0 1
344 1 101 1 2
346 2 102 0 0
348 2 102 0 0
350 2 102 0 0
