0 72 0 0 0
2 71 0 1 0
4.00004 72 0 0 0
6 72 0 0 0
8 71 0 2 0
10 72 0 1 0
12 71 0 2 0
14 69 0 4 0
16 71 0 1 0
18 70 0 3 0
20 69 0 3 0
22 69 0 1 0
24 68 0 3 0
26 71 0 0 0
28 69 0 3 0
30 69 0 3 0
32 68 0 3 0
34 68 0 2 0
36 68 0 0 0
38 67 0 1 0
40 67 0 1 0
42 67 0 2 0
44 68 0 1 0
46 67 0 2 0
48 67 0 3 0
50 71 0 1 0
52 68 0 4 0
54 70 0 2 0
56 69 0 2 0
58 70 0 2 0
60 72 0 1 0
62 69 0 1 0
64 69 0 2 0
66 70 0 1 0
68 68 0 2 0
70 71 0 0 0
72 70 0 2 0
74 69 0 2 0
76 72 0 0 0
78 67 0 5 0
80 68 0 3 0
82 66 0 6 0
84 70 0 2 0
86 70 1 1 0
88 70 0 2 0
90 69 0 3 1
92 71 0 2 0
94 70 0 2 0
96 70 0 2 0
98 70 1 1 0
100 68 1 2 0
102 68 0 1 1
104 68 1 1 0
106 67 1 2 0
108 68 0 1 1
110 69 1 0 0
112 70 1 0 0
114 68 1 2 1
116 68 0 2 1
118 69 2 0 1
120 67 1 1 1
122 66 3 2 0
124 66 3 3 0
126 66 3 2 0
128 67 3 1 0
130 67 3 1 1
132 66 3 1 0
134 66 4 1 0
136 67 2 0 0
138 68 2 0 0
140 68 3 0 0
142 66 3 2 1
144 68 4 0 0
146 66 2 2 1
148 65 1 2 1
150 65 2 3 0
152 67 3 0 0
154 66 2 1 1
156 66 2 1 1
158 68 2 0 0
160 67 2 1 0
162 65 2 2 1
164 67 4 1 1
166 67 4 1 0
168 66 3 1 0
170 66 3 1 0
172 66 3 1 1
174 63 4 4 0
176 66 4 1 1
178 66 5 1 0
180 67 4 0 1
182 67 4 0 1
184 65 4 2 1
186 65 4 2 0
188 66 3 1 1
190 66 3 1 1
192 66 3 1 1
194 66 4 1 0
196 64 4 3 0
198 65 5 1 0
200 64 5 2 0
202 63 5 1 1
204 62 5 2 0
206 63 5 0 0
208 62 5 3 0
210 63 6 1 0
212 61 5 4 1
214 64 7 1 0
216 64 6 1 1
218 65 4 0 2
220 64 7 1 0
222 62 7 2 0
224 63 6 0 1
226 63 8 0 1
228 61 7 2 1
230 62 8 1 0
232 63 8 0 2
234 61 8 1 1
236 61 9 1 0
238 61 7 1 1
240 61 8 1 0
242 57 6 3 2
244 59 7 2 2
246 60 8 2 1
248 61 8 0 1
250 58 8 3 1
252 59 10 2 0
254 60 10 1 0
256 62 9 0 0
258 61 9 1 0
260 57 7 4 1
262 60 7 1 1
264 58 7 3 1
266 60 7 1 1
268 60 7 1 0
270 59 6 1 1
272 60 7 0 1
274 60 8 0 0
276 57 6 3 2
278 60 8 0 0
280 58 8 3 1
282 58 9 2 0
284 56 7 3 0
286 58 7 2 0
288 55 7 5 0
290 59 7 1 0
292 58 7 2 0
294 59 8 0 1
296 58 8 1 0
298 57 7 2 0
300 59 7 0 1
302 57 9 2 0
304 58 7 2 0
306 60 7 0 0
308 59 7 1 0
310 59 8 1 1
312 59 8 1 0
314 56 8 4 0
316 59 8 0 0
318 59 8 0 0
320 58 7 2 1
322 58 8 2 0
324 56 8 3 0
326 57 7 2 0
328 57 7 3 0
330 60 7 0 0
332 60 7 0 0
334 58 7 2 0
336 58 7 1 0
338 58 7 2 0
340 59 7 1 0
342 56 7 3 0
344 57 8 2 0
346 57 8 2 1
348 57 8 2 1
350 58 8 1 0
