0 82 0 0 0
2 80 0 4 0
4.00004 81 0 0 0
6 79 0 0 0
8 76 0 3 0
10 79 0 0 0
12 73 0 5 0
14 76 0 3 0
16 75 0 2 0
18 75 0 3 0
20 75 0 2 0
22 76 0 1 0
24 76 0 3 0
26 76 0 2 0
28 77 0 2 0
30 74 0 3 0
32 77 0 0 0
34 77 0 1 0
36 77 0 0 0
38 76 0 2 0
40 78 0 1 0
42 76 0 2 0
44 76 0 2 0
46 75 0 3 0
48 79 0 0 0
50 78 0 0 0
52 62 16 1 0
54 49 27 2 0
56 45 32 1 0
58 38 39 0 0
60 31 46 0 0
62 26 50 0 0
64 22 52 2 0
66 21 56 0 0
68 20 57 0 0
70 15 61 0 0
72 13 62 0 1
74 9 66 1 1
76 8 68 0 1
78 6 70 1 1
80 5 72 0 0
82 6 72 0 0
84 4 69 1 2
86 5 70 1 0
88 5 70 0 0
90 5 70 0 0
92 4 72 0 1
94 3 73 0 0
96 2 76 0 0
98 1 72 0 2
100 1 74 0 0
102 1 73 0 0
104 1 71 0 2
106 1 72 0 2
108 1 74 0 0
110 1 73 0 1
112 1 71 0 2
114 2 73 0 0
116 1 75 1 0
118 1 74 0 0
120 2 73 0 2
122 2 74 0 1
124 2 75 0 0
126 2 71 0 3
128 3 73 0 1
130 2 73 0 1
132 2 73 1 1
134 4 73 0 1
136 4 73 0 2
138 3 74 0 2
140 3 73 0 2
142 2 74 0 2
144 2 75 0 1
146 1 76 0 1
148 0 76 0 1
150 0 77 1 0
152 1 76 0 1
154 1 77 0 0
156 1 76 0 1
158 1 75 0 2
160 2 76 0 0
162 2 75 0 1
164 2 76 0 0
166 2 75 0 2
168 3 74 0 2
170 3 75 0 1
172 3 75 0 1
174 2 74 1 2
176 0 74 2 2
178 3 72 0 3
180 2 72 0 3
182 3 73 0 2
184 2 73 1 2
186 2 72 0 3
188 2 74 1 0
190 0 75 1 1
192 2 76 0 1
194 2 76 0 1
196 1 73 0 4
198 2 77 1 0
200 2 76 0 0
202 0 75 0 2
204 0 75 0 2
206 0 77 0 0
208 0 75 0 1
210 0 76 0 0
212 0 75 0 1
214 0 75 0 1
216 0 76 0 0
218 0 75 0 0
220 0 75 0 0
222 0 75 0 0
224 1 74 0 1
226 1 75 0 1
228 1 75 0 1
230 1 75 0 0
232 0 75 0 0
234 2 75 0 0
236 1 74 0 1
238 1 75 0 0
240 1 75 0 0
242 1 74 0 1
244 1 74 1 1
246 1 73 1 1
248 1 73 0 1
250 1 73 0 0
252 1 73 0 0
254 0 73 0 0
256 0 72 0 2
258 1 74 0 1
260 0 74 0 0
262 0 75 0 0
264 0 74 0 1
266 1 74 0 1
268 2 76 0 0
270 2 75 0 1
272 2 75 0 0
274 1 73 1 1
276 2 74 1 1
278 1 75 0 0
280 0 73 1 2
282 1 74 0 0
284 1 74 1 0
286 1 75 0 0
288 1 75 0 0
290 1 75 0 0
292 1 75 0 0
294 0 76 0 0
296 0 76 0 0
298 1 76 0 0
300 0 75 0 1
302 0 74 0 2
304 0 75 0 1
306 0 74 0 1
308 0 76 0 0
310 0 76 0 0
312 1 75 0 1
314 1 75 0 1
316 0 74 0 2
318 0 75 1 1
320 1 74 0 1
322 2 72 0 3
324 1 74 1 2
326 2 75 0 1
328 1 74 1 1
330 2 75 0 1
332 1 76 1 0
334 2 73 0 3
336 2 74 0 2
338 1 76 1 0
340 2 72 0 2
342 3 74 0 0
344 5 73 0 1
346 2 74 1 0
348 3 74 0 1
350 3 74 1 1
