0 60 0 0 0
2 57 0 3 0
4.00004 58 0 1 0
6 59 0 0 0
8 61 0 0 0
10 60 0 1 0
12 59 0 1 0
14 58 0 1 0
16 60 0 1 0
18 62 0 0 0
20 57 0 3 0
22 57 0 2 0
24 58 0 1 0
26 57 0 2 0
28 59 0 0 0
30 58 0 1 0
32 58 0 0 0
34 57 0 1 0
36 59 0 1 0
38 59 0 0 0
40 57 0 2 0
42 59 0 1 0
44 60 0 0 0
46 57 0 2 0
48 58 0 1 0
50 57 0 1 0
52 55 0 2 0
54 54 0 4 0
56 57 0 2 0
58 56 0 2 0
60 55 0 2 0
62 55 0 1 0
64 55 0 1 0
66 53 0 4 0
68 57 0 1 0
70 54 0 2 0
72 55 1 2 0
74 57 0 1 1
76 55 0 1 0
78 52 0 3 0
80 55 1 0 0
82 52 1 3 0
84 53 1 3 1
86 54 2 2 0
88 55 2 0 0
90 55 2 0 0
92 54 2 1 0
94 55 3 0 0
96 54 3 1 0
98 53 3 1 0
100 52 3 2 0
102 52 3 2 1
104 54 4 1 0
106 53 4 1 0
108 53 3 1 0
110 50 3 3 0
112 52 4 1 0
114 52 4 0 1
116 53 3 1 1
118 51 4 2 0
120 52 5 1 0
122 53 5 0 1
124 51 5 1 0
126 51 4 3 1
128 54 4 0 2
130 50 5 3 1
132 53 4 0 1
134 52 5 2 0
136 53 5 1 1
138 53 5 2 1
140 54 7 1 0
142 52 6 2 1
144 53 6 1 1
146 49 7 4 0
148 50 6 3 1
150 52 8 0 1
152 51 9 1 1
154 51 7 1 1
156 50 9 2 0
158 51 8 1 1
160 51 9 1 2
162 49 9 2 1
164 50 9 2 1
166 50 10 2 1
168 50 8 1 2
170 48 9 2 1
172 50 12 1 0
174 50 9 0 0
176 48 10 2 1
178 50 11 0 0
180 50 9 0 4
182 50 11 0 1
184 49 11 1 2
186 49 13 1 0
188 49 12 1 1
190 50 12 0 1
192 49 10 1 4
194 49 13 1 2
196 50 14 0 2
198 50 13 0 2
200 48 14 2 3
202 47 15 3 1
204 49 16 0 1
206 46 15 2 1
208 48 17 1 0
210 48 16 1 1
212 49 18 0 0
214 49 17 0 1
216 47 16 2 0
218 47 17 2 1
220 47 17 2 1
222 47 17 1 0
224 48 17 1 0
226 48 17 1 0
228 47 17 2 0
230 47 17 2 0
232 48 17 1 0
234 46 17 3 0
236 49 16 0 1
238 47 17 2 1
240 49 18 0 0
242 48 17 1 1
244 48 18 1 0
246 48 17 1 0
248 47 17 2 1
250 49 17 0 1
252 49 19 0 1
254 49 19 0 0
256 47 19 2 0
258 48 18 1 0
260 47 18 1 1
262 46 19 2 1
264 45 22 3 0
266 48 19 0 3
268 46 19 2 1
270 48 19 0 2
272 48 19 0 2
274 46 20 2 0
276 47 21 1 0
278 48 20 0 1
280 47 21 1 0
282 46 20 1 0
284 46 20 2 0
286 48 21 0 0
288 45 22 2 0
290 46 21 1 1
292 45 20 1 2
294 46 20 1 1
296 46 19 1 1
298 47 20 0 1
300 47 21 0 0
302 46 22 1 0
304 46 22 1 0
306 45 22 2 0
308 47 21 0 1
310 46 22 1 0
312 47 22 0 0
314 47 22 0 0
316 46 22 1 0
318 47 23 0 0
320 46 23 1 0
322 47 22 0 1
324 47 22 0 1
326 47 23 0 1
328 47 23 0 0
330 47 23 0 0
332 47 23 0 0
334 47 22 0 1
336 47 23 0 0
338 46 22 1 1
340 46 23 1 1
342 45 24 2 1
344 45 25 2 0
346 47 23 0 2
348 45 26 2 0
350 46 27 1 0
