0 59 0 0 0
2 57 0 1 0
4.00004 58 0 0 0
6 58 0 1 0
8 59 0 0 0
10 60 0 0 0
12 59 0 2 0
14 59 0 2 0
16 58 0 3 0
18 60 0 1 0
20 57 0 2 0
22 57 0 3 0
24 59 0 0 0
26 56 0 3 0
28 57 0 1 0
30 57 0 2 0
32 58 0 2 0
34 58 0 1 0
36 58 0 1 0
38 59 0 0 0
40 57 0 1 0
42 60 0 0 0
44 60 0 0 0
46 58 0 1 0
48 58 0 1 0
50 57 0 4 0
52 56 0 4 0
54 57 0 0 0
56 55 0 3 0
58 56 0 3 0
60 54 0 6 0
62 59 0 1 0
64 57 0 2 0
66 57 0 2 0
68 58 0 1 0
70 57 0 2 0
72 59 0 0 0
74 58 0 1 1
76 58 0 1 0
78 58 1 1 0
80 58 1 1 0
82 59 0 0 1
84 59 1 0 0
86 59 0 0 0
88 58 0 1 1
90 58 0 1 0
92 59 0 0 0
94 58 0 0 1
96 57 0 2 0
98 58 0 1 0
100 55 0 2 0
102 57 0 1 0
104 59 0 0 0
106 58 0 1 0
108 54 0 4 1
110 56 1 2 0
112 58 1 0 0
114 57 0 1 1
116 56 0 0 1
118 54 0 4 1
120 55 1 2 0
122 54 1 0 0
124 53 1 3 0
126 55 1 1 0
128 56 0 0 0
130 54 0 1 0
132 56 0 0 0
134 56 0 0 0
136 56 0 0 1
138 56 1 0 1
140 56 3 0 0
142 56 2 0 1
144 55 1 1 1
146 55 3 0 0
148 55 1 0 1
150 54 2 0 0
152 54 2 1 0
154 55 2 0 0
156 54 2 1 0
158 54 2 1 0
160 53 2 2 0
162 54 3 1 0
164 54 3 0 0
166 53 2 0 1
168 52 3 2 0
170 52 2 2 1
172 53 3 1 0
174 54 3 0 0
176 52 3 2 0
178 51 3 3 1
180 52 3 2 0
182 51 3 1 0
184 49 3 3 0
186 49 3 4 0
188 51 4 1 1
190 51 4 0 1
192 50 3 1 2
194 48 4 2 1
196 49 5 3 0
198 51 4 1 2
200 50 5 1 0
202 50 6 1 0
204 50 5 0 1
206 49 6 1 0
208 49 5 3 1
210 51 7 0 0
212 49 6 2 0
214 51 6 0 0
216 49 7 2 0
218 47 7 2 0
220 49 7 0 0
222 50 7 0 0
224 49 6 0 2
226 48 7 1 2
228 47 8 2 0
230 49 7 0 1
232 49 8 0 0
234 49 8 0 0
236 47 8 2 0
238 46 8 2 0
240 48 8 1 0
242 49 9 0 0
244 48 9 2 2
246 46 9 3 1
248 49 10 0 0
250 48 11 0 0
252 48 11 1 0
254 49 9 0 2
256 50 10 0 2
258 48 10 1 3
260 48 13 1 0
262 47 12 0 1
264 47 12 2 2
266 48 11 1 2
268 44 12 5 1
270 48 12 1 1
272 47 12 1 1
274 46 12 1 1
276 48 11 0 1
278 47 11 1 1
280 47 11 0 3
282 46 13 1 0
284 46 13 1 0
286 46 14 1 0
288 44 13 2 1
290 44 13 2 1
292 46 14 0 0
294 45 13 1 1
296 46 13 0 0
298 45 12 1 1
300 46 13 0 1
302 46 15 0 0
304 45 13 1 1
306 45 12 1 1
308 45 14 1 0
310 44 14 1 0
312 43 14 1 0
314 44 15 0 0
316 45 14 0 1
318 45 14 0 0
320 44 14 1 0
322 44 14 1 0
324 44 14 1 2
326 43 14 2 0
328 41 13 2 2
330 42 14 1 0
332 41 14 1 1
334 41 14 2 1
336 39 15 3 0
338 43 14 1 2
340 42 16 0 0
342 42 15 1 2
344 41 16 2 1
346 43 14 0 2
348 42 14 0 2
350 42 15 0 1
