0 72 0 0 0
2 70 0 2 0
4.00004 70 0 0 0
6 67 0 3 0
8 69 0 0 0
10 69 0 3 0
12 68 0 2 0
14 71 0 1 0
16 70 0 2 0
18 71 0 1 0
20 69 0 2 0
22 68 0 2 0
24 70 0 0 0
26 68 0 1 0
28 70 0 1 0
30 66 0 5 0
32 69 0 3 0
34 71 0 1 0
36 71 0 1 0
38 71 0 1 0
40 71 0 1 0
42 70 0 2 0
44 69 0 3 0
46 71 0 1 0
48 69 0 1 0
50 68 0 1 0
52 54 13 2 0
54 36 29 3 0
56 30 36 1 0
58 20 43 2 0
60 17 50 0 0
62 13 51 2 0
64 8 56 2 1
66 9 55 2 2
68 11 57 2 1
70 9 57 0 1
72 10 58 1 0
74 8 56 1 3
76 7 58 1 1
78 9 55 0 3
80 8 56 1 2
82 9 57 1 1
84 9 54 0 2
86 13 56 0 1
88 9 55 1 1
90 9 55 1 2
92 10 54 0 3
94 7 61 1 0
96 5 60 1 3
98 7 58 0 4
100 3 63 1 2
102 4 63 0 1
104 3 64 0 1
106 2 65 1 1
108 2 65 0 0
110 2 64 1 0
112 2 64 1 0
114 3 64 0 2
116 3 67 0 0
118 2 66 1 0
120 3 64 0 3
122 2 65 1 2
124 3 66 0 1
126 2 66 1 1
128 3 67 0 0
130 2 67 0 1
132 1 68 0 1
134 1 67 0 1
136 1 67 1 1
138 0 69 2 0
140 1 67 0 1
142 1 68 1 0
144 2 66 0 2
146 1 67 0 0
148 1 69 0 0
150 1 68 0 1
152 1 64 0 3
154 2 63 0 3
156 3 65 0 1
158 2 66 1 0
160 7 65 1 0
162 4 64 1 1
164 3 65 3 0
166 5 63 0 2
168 5 62 1 2
170 4 64 1 0
172 2 63 1 2
174 3 66 0 0
176 3 63 0 3
178 2 65 0 0
180 1 65 0 1
182 1 66 1 0
184 1 64 0 2
186 1 62 0 2
188 3 63 0 1
190 1 65 2 0
192 3 64 0 0
194 2 63 1 1
196 2 64 0 0
198 2 63 0 1
200 1 64 0 1
202 1 63 0 2
204 0 64 0 2
206 0 65 0 0
208 0 63 0 1
210 0 64 0 0
212 1 64 1 1
214 2 65 0 0
216 3 63 0 1
218 2 63 0 2
220 2 64 0 0
222 1 60 1 4
224 2 63 1 1
226 3 63 0 1
228 3 61 0 2
230 2 62 2 1
232 3 61 1 1
234 2 62 0 1
236 2 62 0 2
238 2 64 0 0
240 3 63 0 1
242 4 60 2 3
244 6 60 0 2
246 5 63 1 0
248 6 62 0 1
250 2 61 3 2
252 3 63 1 0
254 5 61 0 2
256 6 62 0 2
258 5 61 1 3
260 3 62 1 2
262 3 62 1 2
264 2 63 1 2
266 2 65 1 1
268 1 64 1 0
270 1 64 0 0
272 0 64 0 1
274 1 65 1 0
276 3 64 0 3
278 2 63 0 3
280 3 63 0 2
282 2 62 1 2
284 1 64 2 2
286 3 65 1 1
288 3 64 2 1
290 4 64 1 1
292 4 64 1 1
294 4 64 0 0
296 3 64 1 1
298 2 62 2 5
300 1 62 3 3
302 4 63 1 3
304 4 63 0 1
306 5 65 0 1
308 6 65 0 1
310 6 65 0 3
312 5 66 0 0
314 3 67 1 0
316 2 64 2 2
318 3 64 0 2
320 5 64 0 2
322 2 62 1 4
324 2 66 0 0
326 2 66 0 0
328 1 65 0 1
330 1 67 0 0
332 1 64 0 3
334 2 65 0 1
336 0 64 2 2
338 2 65 1 0
340 3 62 0 4
342 3 65 1 1
344 3 63 1 2
346 3 64 1 1
348 2 64 2 2
350 3 65 1 1
