0 79 0 0 0
2 81 0 1 0
4.00004 80 0 2 0
6 79 0 3 0
8 80 0 2 0
10 82 0 0 0
12 81 0 1 0
14 79 0 2 0
16 80 0 0 0
18 81 0 1 0
20 79 0 2 0
22 78 0 3 0
24 79 0 2 0
26 78 0 4 0
28 80 0 0 0
30 81 0 0 0
32 81 0 0 0
34 80 0 1 0
36 80 0 1 0
38 80 0 0 0
40 77 0 1 0
42 79 0 0 0
44 78 0 0 0
46 76 0 1 0
48 77 0 2 0
50 78 0 2 0
52 65 15 1 0
54 51 28 1 0
56 46 34 1 0
58 39 41 0 0
60 35 44 1 0
62 33 46 1 0
64 31 49 0 0
66 25 54 1 0
68 23 54 1 1
70 21 55 1 1
72 18 60 0 1
74 18 61 0 1
76 16 63 0 1
78 13 67 0 0
80 11 66 1 3
82 7 71 0 1
84 7 71 0 2
86 5 73 0 2
88 5 73 0 2
90 3 76 0 0
92 2 76 0 1
94 1 77 1 0
96 2 77 1 1
98 2 76 0 2
100 2 75 2 3
102 3 77 1 1
104 2 79 1 1
106 2 80 0 0
108 2 77 0 4
110 2 79 0 3
112 3 78 0 2
114 3 79 0 2
116 2 82 0 0
118 3 80 1 2
120 3 82 0 0
122 3 81 0 1
124 5 82 0 1
126 4 82 2 1
128 5 83 0 1
130 4 83 1 2
132 2 83 3 1
134 5 84 0 1
136 4 86 0 0
138 4 84 0 1
140 3 85 0 2
142 2 88 1 0
144 3 88 0 0
146 3 88 0 0
148 3 88 0 1
150 2 89 0 1
152 2 87 0 2
154 2 89 0 1
156 1 87 0 4
158 1 88 0 2
160 1 89 0 0
162 0 89 1 0
164 1 88 0 1
166 1 87 0 2
168 1 88 0 2
170 1 88 0 1
172 1 86 0 1
174 1 87 0 1
176 2 87 0 1
178 2 88 1 0
180 2 89 0 0
182 2 88 0 1
184 2 88 0 0
186 2 88 0 0
188 2 86 0 2
190 2 86 1 2
192 2 83 1 5
194 4 88 0 0
196 1 87 2 3
198 1 89 0 2
200 2 90 0 1
202 2 88 0 3
204 2 86 0 4
206 1 89 0 0
208 0 90 0 1
210 0 90 1 1
212 1 91 0 0
214 1 90 0 1
216 0 91 0 1
218 0 92 0 0
220 0 92 0 0
222 0 90 0 2
224 0 91 0 1
226 1 90 0 0
228 0 90 1 0
230 2 89 1 1
232 2 89 0 0
234 2 87 0 2
236 2 85 0 4
238 3 84 0 4
240 3 83 0 2
242 3 86 0 1
244 5 86 0 1
246 4 86 0 1
248 5 84 0 3
250 4 86 0 1
252 4 87 0 1
254 4 86 0 1
256 4 86 0 0
258 4 85 0 1
260 5 85 0 1
262 5 84 1 2
264 5 86 1 0
266 5 84 0 2
268 3 87 0 0
270 3 86 0 2
272 3 86 0 2
274 3 84 0 3
276 3 88 0 0
278 3 86 0 2
280 3 84 0 3
282 3 87 0 2
284 1 89 1 1
286 2 88 1 0
288 2 87 1 2
290 4 88 0 1
292 2 86 1 4
294 2 89 0 2
296 3 89 0 2
298 2 90 0 2
300 1 91 0 2
302 1 93 0 0
304 2 93 0 0
306 2 92 0 1
308 2 93 0 0
310 2 92 0 1
312 2 89 0 4
314 1 92 1 1
316 2 91 0 0
318 2 92 1 0
320 3 92 0 1
322 1 93 0 1
324 1 94 1 1
326 1 92 1 2
328 2 92 0 1
330 2 93 0 1
332 1 95 0 0
334 1 93 0 1
336 1 93 0 1
338 2 92 0 2
340 2 94 0 0
342 2 92 0 1
344 1 94 0 0
346 0 92 1 2
348 1 94 0 0
350 0 92 1 2
