0 756 0 0 0 0 107
2 687 0 0 36 0 107
4.00004 676 0 0 42 0 102
6 647 0 0 46 0 94
8 656 0 0 34 0 111
10 618 0 0 55 0 103
12 610 0 0 48 0 107
14 604 0 0 32 0 101
16 598 0 0 36 0 93
18 578 0 0 43 0 106
20 585 0 0 35 0 94
22 575 0 0 40 0 106
24 565 0 0 36 0 97
26 572 0 0 33 0 108
28 562 0 0 45 0 105
30 559 0 0 36 0 105
32 556 0 0 39 0 95
34 560 0 0 32 0 89
36 560 0 0 41 0 90
38 550 0 0 42 0 108
40 551 0 0 30 0 109
42 555 0 0 42 0 102
44 554 0 0 39 0 102
46 567 0 0 30 0 97
48 572 0 0 31 0 101
50 576 0 0 41 0 105
52 582 0 3 41 2 92
54 579 0 8 41 2 111
56 561 0 17 33 6 90
58 538 0 33 45 1 104
60 534 0 43 27 3 93
62 529 0 44 28 5 100
64 500 0 64 33 3 111
66 479 0 86 35 7 92
68 462 0 95 30 7 99
70 456 0 105 22 15 108
72 422 0 131 27 9 111
74 419 0 139 32 10 106
76 431 0 151 15 11 99
78 405 0 171 21 12 104
80 368 0 183 32 13 103
82 359 0 195 17 15 96
84 348 0 199 14 22 101
86 324 0 226 21 19 107
88 311 0 258 18 17 98
90 294 0 273 21 9 104
92 292 0 278 14 17 94
94 278 0 284 17 19 90
96 261 0 291 12 25 94
98 250 0 298 12 17 98
100 238 0 300 13 30 100
102 225 0 317 17 35 102
104 225 0 324 10 19 104
106 220 0 324 5 21 100
108 197 0 316 14 36 102
110 193 0 328 11 34 92
112 177 0 348 16 23 101
114 176 0 350 12 27 102
116 170 0 377 5 24 88
118 153 0 379 19 26 107
120 146 0 393 15 32 111
122 143 0 403 10 29 105
124 136 0 418 6 32 102
126 126 0 420 7 25 106
128 121 0 431 6 28 112
130 111 0 439 7 27 96
132 105 0 445 8 17 106
134 99 0 453 11 32 87
136 93 0 455 6 40 106
138 86 0 478 7 23 98
140 91 0 458 2 31 104
142 91 0 463 2 26 98
144 84 0 466 4 26 88
146 81 0 460 2 26 101
148 71 0 459 2 31 107
150 72 0 457 1 38 103
152 68 0 467 3 26 107
154 65 0 442 4 40 98
156 60 0 458 3 44 106
158 54 0 468 8 38 92
160 55 0 459 3 33 107
162 51 0 457 1 35 100
164 46 0 466 3 29 103
166 41 0 477 3 31 87
168 46 0 485 2 33 102
170 43 0 491 4 51 102
172 42 0 522 3 32 116
174 37 0 515 2 45 92
176 42 0 523 1 28 102
178 39 0 529 0 23 96
180 37 0 520 1 37 102
182 37 0 536 2 30 110
184 35 0 524 0 39 100
186 28 0 525 3 33 100
188 30 0 504 1 43 95
190 31 0 508 1 27 96
192 28 0 502 0 42 98
194 22 0 524 4 27 96
196 21 0 504 3 47 94
198 21 0 519 2 33 94
200 23 0 515 2 25 112
