0 555 0 0 0 0 86
2 516 0 0 45 0 85
4.00004 525 0 0 44 0 103
6 534 0 0 44 0 108
8 545 0 0 42 0 100
10 546 0 0 42 0 103
12 557 0 0 40 0 106
14 551 0 0 43 0 100
16 537 0 0 50 0 94
18 526 0 0 49 0 100
20 523 0 0 44 0 117
22 533 0 0 33 0 107
24 529 0 0 47 0 113
26 545 0 0 43 0 102
28 539 0 0 42 0 97
30 541 0 0 36 0 103
32 530 0 0 49 0 91
34 540 0 0 41 0 114
36 540 0 0 44 0 96
38 539 0 0 35 0 92
40 542 0 0 44 0 102
42 530 0 0 43 0 116
44 530 0 0 41 0 104
46 510 0 0 53 0 89
48 521 0 0 41 0 96
50 515 0 0 52 0 105
52 514 0 1 46 0 111
54 513 0 8 50 1 91
56 512 0 15 41 2 106
58 490 0 20 42 4 111
60 480 0 29 43 9 106
62 472 0 42 37 5 99
64 470 0 55 39 6 96
66 480 0 64 31 8 104
68 465 0 85 38 5 114
70 442 0 94 44 11 100
72 439 0 109 30 11 101
74 419 0 125 44 13 107
76 418 0 138 34 18 97
78 405 0 151 24 18 104
80 389 0 167 27 17 116
82 367 0 186 29 20 97
84 352 0 203 29 18 92
86 341 0 227 19 18 99
88 316 0 227 29 22 105
90 299 0 237 22 22 101
92 297 0 254 20 23 105
94 292 0 264 22 20 106
96 282 0 278 24 27 111
98 273 0 292 26 35 97
100 271 0 316 16 24 107
102 263 0 318 18 28 105
104 245 0 332 19 27 107
106 240 0 330 16 29 102
108 222 0 346 22 27 102
110 213 0 352 13 31 89
112 205 0 373 15 24 104
114 198 0 376 14 35 94
116 177 0 374 21 37 99
118 175 0 373 13 47 113
120 172 0 400 15 23 99
122 172 0 407 11 28 105
124 162 0 399 17 32 111
126 165 0 423 4 25 101
128 152 0 407 11 44 90
130 148 0 412 11 37 107
132 143 0 417 7 33 97
134 140 0 409 9 36 97
136 133 0 422 9 31 110
138 122 0 410 12 32 94
140 119 0 397 6 42 96
142 110 0 422 9 30 98
144 110 0 438 3 34 111
146 103 0 444 5 39 111
148 91 0 446 12 41 97
150 96 0 450 2 42 103
152 87 0 468 6 38 90
154 88 0 472 8 41 99
156 84 0 476 9 43 83
158 84 0 485 6 45 100
160 89 0 491 4 40 101
162 81 0 484 9 42 113
164 81 0 492 11 46 103
166 82 0 495 8 41 94
168 78 0 494 3 49 103
170 75 0 484 5 51 96
172 74 0 495 3 53 107
174 75 0 504 2 40 107
176 70 0 508 3 35 107
178 68 0 507 3 34 102
180 60 0 491 3 40 107
182 59 0 503 3 36 97
184 58 0 501 2 47 96
186 56 0 519 2 31 108
188 51 0 495 6 54 86
190 52 0 502 0 40 102
192 43 0 501 3 42 96
194 41 0 517 3 37 110
196 39 0 514 2 39 93
198 34 0 513 5 40 96
200 31 0 491 4 60 101
