0 111 0 0 0
2 110 0 1 0
4.00004 110 0 1 0
6 111 0 0 0
8 110 0 0 0
10 110 0 0 0
12 92 18 0 0
14 78 31 0 0
16 70 40 0 0
18 64 45 0 0
20 61 48 0 0
22 51 58 0 0
24 49 62 0 0
26 45 65 0 0
28 42 67 0 1
30 38 71 0 0
32 33 76 0 0
34 31 78 1 0
36 28 81 0 0
38 26 83 0 0
40 25 84 0 0
42 25 82 0 1
44 24 84 0 0
46 23 85 0 0
48 21 87 0 0
50 19 89 0 0
52 17 91 0 0
54 17 92 0 0
56 15 94 0 0
58 15 93 0 0
60 15 93 0 0
62 14 94 0 0
64 14 95 0 0
66 14 96 0 0
68 13 97 0 0
70 12 98 0 0
72 11 99 0 0
74 10 99 0 0
76 9 99 0 0
78 9 99 0 0
80 8 100 0 0
82 8 100 0 0
84 7 101 1 0
86 9 101 0 0
88 8 102 0 0
90 9 102 0 0
92 9 103 0 0
94 7 105 0 0
96 7 106 0 0
98 7 106 0 0
100 8 106 0 0
102 7 107 0 0
104 5 109 0 0
106 4 110 0 0
108 3 110 0 1
110 2 111 0 0
112 4 111 0 0
114 4 111 0 0
116 3 112 0 0
118 3 112 0 0
120 2 112 1 0
122 3 112 0 0
124 3 112 0 0
126 4 112 0 0
128 4 112 0 0
130 4 112 0 0
132 4 111 0 1
134 4 111 0 0
136 3 112 0 0
138 3 112 0 0
140 3 112 0 0
142 2 113 0 0
144 2 112 0 0
146 2 112 0 0
148 2 112 0 0
150 2 112 0 0
152 2 112 0 0
154 2 112 0 0
156 2 111 0 0
158 2 111 0 0
160 3 111 0 0
162 2 112 0 0
164 3 112 0 0
166 4 111 0 0
168 4 111 0 0
170 4 111 0 0
172 4 110 0 1
174 4 109 0 0
176 4 109 0 0
178 3 109 0 0
180 3 109 0 0
182 3 107 0 0
184 2 108 0 0
186 1 109 0 0
188 1 109 0 0
190 2 109 0 0
192 2 109 0 0
194 2 109 0 0
196 2 109 0 0
198 2 109 0 0
200 3 109 0 0
202 3 108 0 1
204 2 110 0 0
206 1 112 0 0
208 1 112 0 0
210 1 112 0 0
