0 59 0 0 0
2 59 0 0 0
4.00004 58 0 1 0
6 58 0 1 0
8 59 0 0 0
10 59 0 0 0
12 59 0 0 0
14 58 0 0 0
16 58 0 0 1
18 58 0 0 0
20 58 0 0 0
22 58 0 0 0
24 58 0 0 0
26 56 0 0 0
28 56 0 0 0
30 56 0 0 0
32 56 0 0 0
34 55 0 0 0
36 55 0 0 0
38 55 0 0 0
40 55 0 0 0
42 54 1 0 0
44 54 2 0 0
46 52 2 1 0
48 52 2 0 0
50 52 2 0 0
52 52 2 0 0
54 52 2 0 0
56 52 2 0 0
58 52 2 0 0
60 52 2 0 0
62 52 2 0 0
64 52 2 0 0
66 52 2 0 0
68 52 2 0 0
70 52 2 0 0
72 52 2 0 0
74 52 3 0 0
76 52 3 0 0
78 51 3 0 0
80 51 3 0 0
82 51 3 0 0
84 51 4 0 0
86 51 4 0 0
88 51 4 0 0
90 51 4 0 0
92 51 5 0 0
94 50 5 0 0
96 50 5 0 0
98 50 6 0 0
100 50 6 0 0
102 50 6 0 0
104 51 6 0 0
106 51 6 0 0
108 51 8 0 0
110 51 8 0 0
112 50 8 0 0
114 50 8 0 0
116 50 8 0 0
118 49 8 0 0
120 48 8 0 1
122 48 10 0 0
124 48 10 0 0
126 48 10 0 0
128 48 10 0 0
130 48 10 0 0
132 48 10 0 0
134 48 10 0 0
136 48 10 0 0
138 47 10 1 0
140 47 10 0 0
142 47 10 0 0
144 47 10 0 0
146 47 10 0 0
148 46 11 1 0
150 47 12 0 0
152 47 12 0 0
154 46 12 0 0
156 46 12 0 0
158 46 12 0 0
160 46 12 0 0
162 46 12 0 0
164 46 12 0 0
166 46 12 0 0
168 46 12 0 0
170 46 12 0 0
172 46 12 0 0
174 46 12 0 0
176 46 12 0 0
178 46 12 0 0
180 46 12 0 0
182 46 12 0 0
184 45 12 1 0
186 46 12 0 0
188 46 12 0 0
190 45 13 1 0
192 46 14 0 0
194 46 14 0 0
196 46 14 0 0
198 45 14 0 0
200 45 14 0 0
202 43 13 1 0
204 44 13 0 0
206 44 14 0 0
208 44 14 0 0
210 44 14 0 0
