0 41 0 0 0
2 41 0 0 0
4.00004 41 0 1 0
6 41 0 0 0
8 40 0 0 0
10 40 0 0 0
12 39 0 0 0
14 38 0 1 0
16 38 0 1 0
18 39 1 0 0
20 39 1 0 0
22 39 1 0 0
24 39 1 0 0
26 39 1 0 0
28 38 1 2 0
30 40 1 0 0
32 40 1 0 0
34 39 2 1 0
36 39 3 1 0
38 39 3 0 0
40 39 3 0 0
42 39 3 0 0
44 39 3 0 0
46 38 3 0 0
48 37 3 0 0
50 37 4 0 0
52 36 4 1 1
54 35 4 1 0
56 36 4 0 0
58 36 5 0 0
60 36 5 0 0
62 36 5 0 1
64 36 5 0 0
66 36 6 0 0
68 36 6 0 0
70 36 6 0 0
72 36 6 0 0
74 36 6 0 0
76 36 6 0 0
78 36 6 0 0
80 36 6 0 0
82 36 6 0 0
84 36 6 0 0
86 36 6 0 0
88 36 6 0 0
90 36 6 0 0
92 35 6 0 0
94 34 6 0 0
96 33 7 0 0
98 33 7 0 0
100 33 8 0 0
102 33 8 0 0
104 33 8 0 0
106 32 8 0 0
108 32 8 0 0
110 31 8 1 0
112 31 8 0 0
114 31 8 0 0
116 31 9 0 0
118 31 9 0 0
120 30 10 0 0
122 30 10 0 0
124 30 10 0 0
126 30 10 0 0
128 30 10 0 0
130 30 10 0 0
132 30 11 0 0
134 29 11 1 0
136 29 11 0 0
138 28 11 1 0
140 29 12 0 0
142 29 12 0 0
144 29 12 0 0
146 29 12 0 0
148 29 13 0 0
150 27 13 0 0
152 26 13 0 0
154 25 13 1 0
156 25 13 0 0
158 25 12 0 0
160 25 12 0 0
162 25 12 0 0
164 25 12 0 0
166 25 12 0 0
168 25 13 0 0
170 23 13 2 0
172 24 13 0 0
174 24 14 0 0
176 24 14 0 0
178 24 14 0 0
180 24 14 0 0
182 24 14 0 0
184 24 14 0 0
186 24 14 0 0
188 23 14 0 0
190 23 14 0 0
192 23 14 0 0
194 23 14 0 0
196 23 15 0 0
198 23 15 0 0
200 23 16 0 0
202 23 15 0 0
204 23 16 0 0
206 23 16 0 0
208 23 17 0 0
210 23 17 0 0
