0 115 0 0 0
2 116 0 0 0
4.00004 116 0 0 0
6 116 0 0 0
8 115 0 1 0
10 116 0 1 0
12 105 11 0 0
14 101 15 0 0
16 95 21 0 0
18 86 30 0 0
20 80 35 0 0
22 73 42 0 0
24 67 48 0 0
26 66 49 0 0
28 64 51 0 0
30 62 53 0 0
32 59 56 0 0
34 59 56 0 0
36 53 62 0 0
38 47 68 0 0
40 42 73 0 0
42 38 78 0 0
44 35 81 0 0
46 33 83 0 0
48 31 85 0 0
50 30 86 0 0
52 28 88 0 0
54 26 89 0 1
56 24 92 0 0
58 23 92 0 0
60 22 93 0 0
62 22 93 0 0
64 20 97 0 0
66 19 98 0 0
68 19 98 0 0
70 18 99 0 0
72 18 98 0 2
74 17 99 0 0
76 16 100 0 0
78 16 100 0 0
80 15 101 0 0
82 12 104 0 0
84 12 105 0 0
86 11 107 0 0
88 11 106 0 0
90 12 106 0 0
92 11 107 0 0
94 10 108 0 0
96 10 108 0 0
98 8 110 0 0
100 8 110 0 0
102 6 112 0 0
104 5 113 0 0
106 5 113 0 0
108 3 115 0 0
110 3 115 0 0
112 4 115 0 0
114 4 115 0 0
116 4 116 0 0
118 3 117 0 0
120 3 118 0 0
122 3 118 0 0
124 3 118 0 0
126 3 116 0 2
128 3 118 0 0
130 3 118 0 0
132 3 117 0 0
134 3 117 0 0
136 2 118 0 0
138 2 118 0 0
140 2 119 0 0
142 1 120 0 0
144 1 119 0 0
146 1 119 0 0
148 0 119 0 1
150 0 120 0 0
152 0 120 0 0
154 0 120 0 0
156 0 119 0 0
158 0 119 0 0
160 0 118 0 1
162 0 119 0 0
164 1 119 0 0
166 1 118 0 1
168 1 119 0 0
170 1 119 0 0
172 2 118 0 1
174 2 119 0 0
176 3 119 0 0
178 3 118 0 1
180 3 117 0 1
182 2 119 0 0
184 3 119 0 0
186 3 120 0 0
188 3 119 1 1
190 3 119 0 0
192 3 120 0 0
194 3 120 0 0
196 3 120 0 0
198 3 120 0 0
200 3 120 0 0
202 2 121 0 0
204 2 121 0 0
206 1 122 0 0
208 1 122 0 0
210 1 122 0 0
