0 26 0 0 0
2 24 0 1 0
4.00004 25 0 0 0
6 25 0 0 0
8 26 0 0 0
10 27 0 0 0
12 27 0 0 0
14 28 0 0 0
16 26 0 1 0
18 27 0 0 0
20 27 0 0 0
22 27 0 0 0
24 27 0 0 0
26 27 0 0 0
28 27 0 0 0
30 26 0 1 0
32 26 0 0 0
34 26 0 0 0
36 26 0 0 0
38 26 0 0 0
40 25 0 0 0
42 25 0 0 0
44 24 0 1 0
46 23 0 0 0
48 23 0 0 0
50 23 1 0 0
52 23 1 0 0
54 23 2 0 0
56 23 2 0 0
58 22 2 0 0
60 23 3 0 0
62 23 3 0 0
64 23 4 0 0
66 23 3 0 1
68 22 4 0 0
70 22 4 0 0
72 22 4 0 0
74 22 4 0 0
76 22 4 0 0
78 21 5 0 0
80 21 5 0 0
82 20 5 1 0
84 21 4 0 0
86 18 4 0 0
88 18 4 0 0
90 18 4 0 0
92 18 4 0 0
94 18 4 0 0
96 18 4 0 0
98 18 4 0 0
100 18 5 0 0
102 18 5 0 0
104 18 5 0 0
106 18 5 0 0
108 18 5 0 0
110 17 5 0 0
112 17 5 0 0
114 16 5 1 0
116 16 5 1 0
118 16 5 0 0
120 16 5 0 0
122 16 6 0 0
124 16 6 0 0
126 16 6 0 0
128 16 6 0 0
130 16 6 0 0
132 16 6 0 0
134 15 7 1 0
136 15 6 0 0
138 14 6 1 0
140 15 6 0 0
142 15 6 0 0
144 15 6 0 0
146 15 6 0 0
148 15 7 0 0
150 15 8 0 0
152 15 9 0 0
154 15 10 0 0
156 15 11 0 0
158 14 11 1 0
160 15 11 0 0
162 15 11 0 0
164 15 11 0 0
166 14 10 0 1
168 14 11 0 0
170 14 11 0 0
172 14 12 0 0
174 14 12 0 0
176 14 14 0 0
178 14 14 0 0
180 14 14 0 0
182 14 14 0 0
184 14 14 0 0
186 14 15 0 0
188 14 15 0 0
190 14 15 0 0
192 14 15 0 0
194 13 14 0 1
196 13 15 0 0
198 13 15 0 0
200 13 15 0 0
202 13 14 0 0
204 12 13 1 1
206 13 13 0 0
208 13 14 0 0
210 13 14 0 0
