0 512 0 0 0 0
2 488 0 0 7 0
4.00004 490 0 0 6 0
6 495 0 0 7 0
8 487 0 0 7 0
10 484 0 0 7 0
12 491 0 0 9 0
14 492 0 0 4 0
16 485 0 0 9 0
18 490 0 0 7 0
20 507 0 0 10 0
22 502 0 0 8 0
24 501 0 0 7 0
26 509 0 0 7 0
28 513 0 0 6 0
30 500 0 0 11 0
32 511 0 0 5 0
34 520 0 0 7 0
36 521 0 0 7 0
38 527 0 0 7 0
40 520 0 0 9 0
42 528 0 0 8 0
44 534 0 0 4 0
46 530 0 0 10 0
48 539 0 0 10 0
50 538 0 0 5 0
52 537 0 1 10 0
54 541 0 2 3 0
56 527 0 8 9 1
58 527 0 13 11 0
60 531 0 18 6 1
62 530 0 28 5 0
64 521 0 32 7 0
66 511 0 40 6 4
68 506 0 48 5 1
70 500 0 55 10 1
72 492 0 63 6 0
74 486 0 69 3 2
76 464 0 87 11 0
78 456 0 89 4 1
80 434 0 99 7 2
82 427 0 104 8 3
84 407 0 112 8 3
86 401 0 127 7 1
88 394 0 130 4 4
90 383 0 133 7 4
92 375 0 150 6 2
94 366 0 161 2 4
96 359 0 168 0 4
98 351 0 175 4 4
100 345 0 181 3 5
102 335 0 191 3 8
104 324 0 200 3 4
106 310 0 206 3 6
108 291 0 218 10 6
110 294 0 224 2 7
112 285 0 227 3 9
114 278 0 234 3 4
116 264 0 232 3 6
118 256 0 238 6 3
120 252 0 236 2 4
122 244 0 243 4 4
124 245 0 248 1 5
126 234 0 253 6 5
128 230 0 263 2 5
130 218 0 272 3 5
132 213 0 281 1 5
134 203 0 291 3 8
136 198 0 301 1 8
138 196 0 308 0 4
140 188 0 309 3 7
142 183 0 316 3 2
144 182 0 324 1 5
146 179 0 334 0 3
148 170 0 324 4 2
150 165 0 334 3 4
152 161 0 341 1 3
154 156 0 348 3 6
156 157 0 354 1 6
158 153 0 358 2 2
160 146 0 362 5 5
162 145 0 370 1 6
164 143 0 374 1 3
166 131 0 375 3 8
168 124 0 379 3 5
170 116 0 372 3 5
172 118 0 375 0 7
174 115 0 380 2 8
176 112 0 386 2 5
178 109 0 382 0 7
180 103 0 383 0 4
182 102 0 395 0 5
184 97 0 395 0 3
186 95 0 395 1 4
188 93 0 391 1 3
190 92 0 390 1 7
192 90 0 387 0 9
194 89 0 393 1 5
196 86 0 394 1 6
198 82 0 404 0 3
200 80 0 400 0 10
