0 395 0 0 0 0
2 382 0 0 4 0
4.00004 383 0 0 4 0
6 384 0 0 6 0
8 379 0 0 7 0
10 377 0 0 9 0
12 381 0 0 2 0
14 365 0 0 9 0
16 367 0 0 4 0
18 358 0 0 9 0
20 351 0 0 15 0
22 357 0 0 4 0
24 353 0 0 12 0
26 356 0 0 8 0
28 364 0 0 3 0
30 363 0 0 1 0
32 354 0 0 13 0
34 358 0 0 6 0
36 355 0 0 4 0
38 356 0 0 3 0
40 352 0 0 5 0
42 348 0 0 4 0
44 358 0 0 7 0
46 359 0 0 8 0
48 352 0 0 6 0
50 347 0 0 6 0
52 348 0 0 7 0
54 352 0 2 3 0
56 337 0 6 6 1
58 332 0 8 5 0
60 329 0 12 3 0
62 329 0 15 6 1
64 316 0 26 5 1
66 309 0 34 4 0
68 304 0 40 4 0
70 297 0 45 2 0
72 280 0 48 4 1
74 271 0 55 6 3
76 268 0 68 2 2
78 265 0 79 3 1
80 259 0 81 6 0
82 243 0 92 6 1
84 251 0 97 3 3
86 249 0 105 4 1
88 243 0 112 5 2
90 237 0 115 8 2
92 232 0 116 4 7
94 228 0 131 2 1
96 223 0 133 2 2
98 212 0 144 6 1
100 211 0 151 3 5
102 206 0 154 2 3
104 196 0 171 4 1
106 195 0 181 0 2
108 191 0 188 1 4
110 184 0 194 2 2
112 180 0 197 2 6
114 168 0 206 3 6
116 167 0 211 2 1
118 158 0 212 3 7
120 157 0 221 0 4
122 150 0 226 3 3
124 142 0 232 1 8
126 137 0 245 3 5
128 134 0 250 0 5
130 128 0 258 1 5
132 123 0 259 1 5
134 121 0 254 4 0
136 119 0 246 1 5
138 111 0 247 1 2
140 113 0 249 1 6
142 107 0 239 2 4
144 104 0 248 3 3
146 99 0 253 4 3
148 99 0 259 2 4
150 96 0 261 1 9
152 93 0 270 2 5
154 90 0 276 0 5
156 89 0 277 0 4
158 83 0 279 3 6
160 83 0 277 1 6
162 81 0 280 2 3
164 77 0 283 1 5
166 72 0 282 1 5
168 71 0 284 0 3
170 67 0 277 2 3
172 68 0 279 0 5
174 61 0 285 2 5
176 62 0 282 0 7
178 63 0 290 0 4
180 61 0 283 0 9
182 54 0 294 1 6
184 51 0 288 1 7
186 50 0 290 0 6
188 48 0 291 1 6
190 44 0 304 2 7
192 41 0 316 0 4
194 37 0 314 0 2
196 38 0 308 0 5
198 37 0 311 0 7
200 37 0 307 0 8
