0 412 0 0 0 0
2 402 0 0 5 0
4.00004 398 0 0 9 0
6 402 0 0 4 0
8 393 0 0 9 0
10 395 0 0 3 0
12 396 0 0 4 0
14 387 0 0 7 0
16 387 0 0 11 0
18 395 0 0 8 0
20 392 0 0 4 0
22 388 0 0 7 0
24 384 0 0 5 0
26 384 0 0 6 0
28 374 0 0 14 0
30 377 0 0 10 0
32 390 0 0 8 0
34 387 0 0 5 0
36 389 0 0 6 0
38 398 0 0 6 0
40 389 0 0 7 0
42 382 0 0 6 0
44 378 0 0 9 0
46 383 0 0 8 0
48 382 0 0 6 0
50 374 0 0 9 0
52 375 0 0 6 0
54 375 0 4 13 1
56 372 0 6 2 2
58 366 0 12 9 3
60 371 0 16 2 2
62 355 0 27 2 1
64 333 0 28 5 1
66 338 0 35 1 0
68 322 0 48 5 2
70 309 0 61 6 2
72 300 0 63 6 1
74 292 0 67 5 2
76 286 0 67 1 2
78 277 0 71 1 2
80 276 0 76 2 0
82 263 0 80 7 0
84 249 0 88 6 3
86 236 0 103 5 0
88 225 0 109 6 3
90 221 0 119 1 2
92 214 0 128 3 3
94 212 0 137 3 4
96 207 0 140 2 3
98 193 0 146 2 3
100 186 0 149 2 1
102 181 0 157 3 1
104 179 0 157 1 3
106 167 0 170 2 1
108 161 0 175 2 2
110 158 0 185 4 2
112 150 0 187 2 5
114 143 0 195 3 3
116 132 0 193 4 3
118 133 0 205 1 6
120 130 0 211 4 5
122 123 0 215 2 3
124 120 0 223 1 6
126 117 0 238 0 3
128 109 0 241 0 3
130 107 0 240 2 4
132 98 0 244 3 4
134 95 0 245 1 8
136 90 0 254 3 6
138 86 0 265 1 4
140 83 0 274 1 0
142 80 0 276 2 1
144 76 0 275 1 6
146 76 0 278 0 4
148 66 0 274 4 3
150 70 0 271 0 3
152 69 0 271 0 2
154 64 0 282 1 1
156 59 0 276 0 4
158 57 0 273 2 5
160 54 0 269 0 5
162 46 0 279 1 4
164 44 0 274 1 6
166 46 0 278 0 5
168 41 0 273 3 5
170 38 0 284 2 2
172 40 0 287 0 4
174 39 0 290 0 4
176 39 0 296 0 5
178 38 0 309 1 3
180 39 0 306 0 3
182 38 0 308 2 6
184 37 0 316 1 4
186 33 0 313 2 3
188 33 0 306 1 7
190 31 0 300 1 7
192 32 0 303 0 9
194 29 0 309 1 6
196 27 0 307 0 6
198 26 0 307 0 5
200 24 0 312 0 4
