0 1017 0 0 0 0 0
2 980 10 0 26 0 5
4.00004 985 5 0 23 0 10
6 972 2 0 39 0 7
8 972 3 0 46 0 4
10 968 0 0 50 0 5
12 967 0 0 46 0 11
14 969 0 0 34 0 13
16 966 1 0 43 0 6
18 971 0 0 44 0 6
20 963 0 0 44 0 9
22 963 0 0 48 0 7
24 959 0 0 51 0 8
26 958 0 0 52 0 8
28 959 0 0 49 0 11
30 953 0 0 58 0 9
32 949 0 0 50 0 12
34 951 0 0 49 0 10
36 943 0 0 51 0 15
38 944 0 0 50 0 14
40 950 0 0 36 0 19
42 951 0 0 47 0 9
44 955 0 0 47 0 10
46 950 0 0 56 0 11
48 950 0 0 51 0 17
50 948 0 0 59 0 12
52 942 0 12 27 40 0
54 938 0 23 19 40 0
56 928 0 30 22 44 0
58 924 0 40 11 41 0
60 916 0 58 12 39 0
62 911 0 67 11 36 0
64 900 0 75 15 39 0
66 889 0 88 14 39 0
68 878 0 99 13 36 0
70 865 0 107 17 46 0
72 852 0 121 20 40 0
74 848 0 133 13 42 0
76 833 0 142 16 50 0
78 823 0 154 19 42 0
80 815 0 163 14 48 0
82 801 0 175 13 45 0
84 785 0 180 17 57 0
86 771 0 196 14 52 0
88 762 0 205 15 52 0
90 740 0 213 23 55 0
92 739 0 223 15 55 0
94 726 0 234 15 55 0
96 719 0 239 11 60 0
98 705 0 251 16 50 0
100 699 0 255 11 61 0
102 680 0 267 13 65 0
104 679 0 283 9 55 0
106 662 0 292 15 64 0
108 654 0 300 9 57 0
110 646 0 311 12 51 0
112 636 0 328 16 47 0
114 636 0 336 6 48 0
116 619 0 336 10 58 1
118 617 0 347 13 57 0
120 606 0 360 14 46 0
122 594 0 377 13 46 0
124 583 0 376 13 63 0
126 572 0 377 18 69 0
128 568 0 392 11 63 0
130 555 0 403 14 64 0
132 548 0 416 13 62 0
134 540 0 423 11 65 0
136 538 0 424 14 59 1
138 530 0 436 13 58 0
140 528 0 441 8 58 0
142 519 0 449 11 57 0
144 516 0 452 10 58 0
146 507 0 464 8 54 0
148 503 0 464 3 55 0
150 493 0 466 14 59 0
152 489 0 487 6 53 0
154 483 0 499 8 42 0
156 472 0 505 9 44 0
158 462 0 508 13 48 0
160 463 0 513 8 43 0
162 459 0 507 13 60 0
164 454 0 513 5 58 1
166 446 0 526 10 53 0
168 436 0 536 6 54 0
170 427 0 546 12 50 0
172 421 0 558 8 50 0
174 420 0 561 11 48 0
176 416 0 563 10 47 0
178 410 0 569 9 52 0
180 411 0 567 3 50 0
182 399 0 576 6 52 0
184 400 0 575 6 56 0
186 392 0 577 9 61 0
188 387 0 581 8 57 0
190 383 0 593 6 54 0
192 376 0 596 6 50 0
194 367 0 605 7 53 0
196 363 0 614 7 53 0
198 358 0 616 12 53 0
200 353 0 621 8 55 0
