0 809 0 0 0 0 0
2 777 0 0 38 0 0
4.00004 770 0 0 43 0 0
6 768 0 0 51 0 0
8 764 0 0 60 0 0
10 767 0 0 63 0 0
12 766 0 0 62 0 0
14 773 0 0 53 0 0
16 768 0 0 60 0 0
18 773 0 0 49 0 0
20 761 0 0 58 0 0
22 767 0 0 54 0 0
24 760 0 0 61 0 0
26 758 0 0 59 0 0
28 760 0 0 67 0 0
30 758 0 0 62 0 0
32 771 0 0 53 0 0
34 771 0 0 56 0 0
36 779 0 0 52 0 0
38 762 0 0 65 0 0
40 774 0 0 62 0 0
42 772 0 0 55 0 0
44 770 0 0 63 0 0
46 771 0 0 62 0 0
48 770 0 0 67 0 0
50 772 0 0 63 0 0
52 772 0 0 47 5 0
54 772 0 2 45 16 0
56 756 0 4 52 17 0
58 762 0 12 36 12 0
60 758 0 13 33 15 0
62 750 0 21 37 21 0
64 748 0 28 36 19 0
66 745 0 32 35 20 0
68 742 0 39 34 27 0
70 743 0 45 27 24 0
72 745 0 48 21 27 0
74 738 0 60 21 23 0
76 727 0 65 32 19 0
78 724 0 71 31 15 0
80 709 0 72 41 24 0
82 706 0 78 37 20 0
84 698 0 87 38 22 0
86 702 0 87 28 24 0
88 682 0 94 44 26 0
90 677 0 102 39 27 0
92 675 0 106 38 28 0
94 666 0 113 37 30 0
96 665 0 120 33 29 0
98 655 0 122 40 30 0
100 645 0 134 42 24 0
102 647 0 138 34 31 0
104 643 0 139 36 20 0
106 635 0 143 34 24 0
108 637 0 147 30 26 0
110 628 0 153 35 26 0
112 631 0 152 31 38 0
114 622 0 168 29 22 0
116 623 0 164 21 36 0
118 609 0 167 33 36 0
120 608 0 172 28 41 0
122 598 0 187 35 30 0
124 591 0 186 38 35 0
126 592 0 191 31 33 0
128 584 0 197 32 32 0
130 579 0 200 28 37 0
132 570 0 217 31 30 0
134 567 0 221 29 39 0
136 572 0 229 23 34 0
138 573 0 232 18 31 0
140 563 0 231 26 36 0
142 559 0 245 27 24 0
144 558 0 245 26 28 0
146 561 0 248 20 31 0
148 560 0 257 16 22 0
150 537 0 256 33 23 0
152 542 0 254 23 28 0
154 541 0 258 22 26 0
156 530 0 250 27 34 0
158 530 0 258 25 35 0
160 523 0 262 26 35 0
162 520 0 264 27 33 0
164 515 0 273 24 33 0
166 512 0 273 19 34 0
168 504 0 277 27 41 0
170 510 0 287 18 39 0
172 508 0 288 19 38 0
174 500 0 297 25 41 0
176 501 0 299 24 43 0
178 501 0 315 20 36 0
180 492 0 319 23 28 0
182 488 0 318 20 36 0
184 482 0 320 27 36 0
186 484 0 321 23 38 0
188 479 0 324 22 39 0
190 482 0 328 14 28 0
192 474 0 328 19 37 0
194 469 0 328 21 44 0
196 460 0 334 27 34 0
198 461 0 334 23 40 0
200 459 0 335 20 37 0
