0 848 0 0 0 0 0
2 826 0 0 36 0 0
4.00004 810 0 0 40 0 0
6 797 0 0 54 0 0
8 788 0 0 60 0 0
10 777 0 0 75 0 0
12 771 0 0 77 0 0
14 769 0 0 84 0 0
16 766 0 0 85 0 0
18 763 0 0 82 0 0
20 762 0 0 103 0 0
22 748 0 0 113 0 0
24 764 0 0 92 0 0
26 762 0 0 94 0 0
28 769 0 0 85 0 0
30 766 0 0 96 0 0
32 766 0 0 94 0 0
34 767 0 0 95 0 0
36 761 0 0 100 0 0
38 761 0 0 93 0 0
40 761 0 0 100 0 0
42 756 0 0 96 0 0
44 750 0 0 98 0 0
46 757 0 0 87 0 0
48 746 0 0 103 0 0
50 748 0 0 109 0 0
52 755 0 0 103 3 0
54 763 0 0 86 13 0
56 748 0 0 92 13 0
58 751 0 1 76 25 0
60 742 0 4 77 31 0
62 742 0 7 69 33 0
64 747 0 18 61 30 0
66 737 0 25 65 32 0
68 741 0 28 53 39 0
70 736 0 36 54 28 0
72 734 0 37 51 27 0
74 723 0 42 51 29 0
76 714 0 43 61 29 0
78 708 0 51 57 28 0
80 697 0 52 65 32 0
82 697 0 59 61 34 0
84 698 0 58 52 33 0
86 692 0 61 58 32 0
88 687 0 66 60 31 0
90 685 0 71 52 32 0
92 666 0 73 64 33 0
94 661 0 78 57 34 0
96 667 0 81 51 35 0
98 656 0 84 54 38 0
100 664 0 85 46 47 0
102 644 0 91 60 45 0
104 644 0 102 54 39 0
106 640 0 100 55 51 0
108 636 0 105 54 43 0
110 629 0 110 61 55 0
112 629 0 113 54 56 0
114 627 0 119 54 55 0
116 624 0 126 52 54 0
118 618 0 132 55 51 0
120 620 0 138 51 55 0
122 606 0 147 58 53 0
124 602 0 152 54 48 0
126 601 0 156 53 49 0
128 588 0 161 62 41 0
130 581 0 165 69 48 0
132 585 0 167 60 54 0
134 596 0 175 47 43 0
136 587 0 175 50 42 0
138 583 0 177 51 46 0
140 575 0 180 50 51 0
142 569 0 176 50 58 0
144 567 0 179 51 63 0
146 564 0 186 50 57 0
148 558 0 193 51 53 0
150 557 0 204 49 42 0
152 553 0 200 48 53 0
154 546 0 208 52 46 0
156 552 0 210 43 54 0
158 546 0 209 47 59 0
160 535 0 217 55 56 0
162 533 0 223 49 53 0
164 541 0 228 41 55 0
166 536 0 230 42 63 0
168 526 0 240 48 62 0
170 528 0 244 40 66 0
172 522 0 252 45 69 0
174 522 0 261 34 60 0
176 519 0 267 37 57 0
178 515 0 271 41 46 0
180 508 0 271 46 48 0
182 509 0 268 43 59 0
184 506 0 279 43 50 0
186 499 0 272 47 68 0
188 497 0 282 47 64 0
190 502 0 286 41 59 0
192 497 0 277 41 71 0
194 491 0 283 42 67 0
196 487 0 288 41 61 0
198 485 0 296 41 61 0
200 492 0 299 30 54 0
