0 1120 0 0 0 0 0
2 1093 2 0 9 0 6
4.00004 1076 0 0 22 0 13
6 1071 0 0 27 0 16
8 1078 0 0 20 0 14
10 1072 0 0 22 0 15
12 1072 0 0 21 0 10
14 1069 0 0 21 0 15
16 1076 0 0 26 0 10
18 1075 0 0 24 0 14
20 1076 0 0 25 0 14
22 1067 0 0 26 0 11
24 1076 0 0 26 0 7
26 1069 0 0 21 0 15
28 1066 0 0 29 0 13
30 1066 0 0 36 0 9
32 1069 0 0 35 0 10
34 1076 0 0 20 0 13
36 1055 0 0 30 0 18
38 1058 0 0 23 0 21
40 1060 0 0 24 0 15
42 1070 0 0 17 0 7
44 1059 0 0 21 0 16
46 1062 0 0 27 0 10
48 1068 0 0 20 0 6
50 1059 0 0 28 0 13
52 1033 0 24 9 33 0
54 1014 0 49 4 23 0
56 990 0 75 6 24 1
58 971 0 92 3 34 0
60 945 0 109 5 38 1
62 928 0 137 7 32 0
64 899 0 166 7 26 0
66 870 0 192 5 31 0
68 845 0 208 5 41 0
70 823 0 227 4 37 0
72 806 0 248 5 32 0
74 774 0 278 6 39 1
76 751 0 296 4 47 1
78 734 0 314 5 32 0
80 714 0 328 5 40 0
82 703 0 350 2 30 0
84 691 0 369 5 23 0
86 673 0 384 4 29 0
88 651 0 402 4 32 0
90 640 0 427 5 20 0
92 627 0 447 7 16 0
94 611 0 464 5 22 0
96 598 0 467 4 34 0
98 575 0 480 8 38 0
100 570 0 497 3 36 0
102 551 0 511 3 37 0
104 531 0 519 4 41 0
106 519 0 536 4 41 0
108 504 0 563 3 26 0
110 489 0 572 3 32 0
112 472 0 591 4 29 0
114 456 0 597 2 35 1
116 436 0 603 3 42 0
118 419 0 621 3 38 0
120 414 0 632 4 31 0
122 407 0 643 2 24 1
124 397 0 652 4 33 0
126 388 0 662 4 31 0
128 378 0 668 4 32 0
130 373 0 679 2 27 0
132 363 0 682 4 32 0
134 356 0 701 0 28 0
136 347 0 711 0 24 0
138 338 0 725 2 18 0
140 330 0 734 4 25 0
142 325 0 737 3 26 0
144 320 0 737 2 31 0
146 313 0 739 1 35 0
148 307 0 748 3 31 0
150 300 0 751 4 36 0
152 292 0 769 1 26 0
154 282 0 768 3 33 0
156 276 0 775 4 31 0
158 272 0 774 3 43 1
160 265 0 791 3 34 0
162 259 0 793 2 39 0
164 252 0 801 2 32 0
166 249 0 808 5 32 0
168 241 0 818 1 35 0
170 234 0 824 0 28 0
172 228 0 820 3 39 0
174 216 0 839 3 36 0
176 206 0 838 4 36 0
178 201 0 844 1 34 0
180 196 0 845 3 33 0
182 189 0 850 3 34 0
184 182 0 850 3 41 0
186 173 0 854 4 43 0
188 170 0 864 5 32 0
190 165 0 865 0 41 0
192 160 0 870 0 37 0
194 157 0 876 0 34 0
196 156 0 878 2 31 0
198 149 0 881 6 37 0
200 147 0 897 0 26 0
