0 944 0 0 0 0 0
2 906 0 0 38 0 0
4.00004 895 0 0 52 0 0
6 890 0 0 52 0 0
8 881 0 0 63 0 0
10 868 0 0 80 0 0
12 875 0 0 75 0 0
14 860 0 0 99 0 0
16 864 0 0 77 0 0
18 867 0 0 80 0 0
20 861 0 0 85 0 0
22 871 0 0 78 0 0
24 863 0 0 83 0 0
26 858 0 0 84 0 0
28 861 0 0 84 0 0
30 860 0 0 86 0 0
32 860 0 0 77 0 0
34 849 0 0 92 0 0
36 856 0 0 87 0 0
38 861 0 0 81 0 0
40 859 0 0 93 0 0
42 858 0 0 94 0 0
44 869 0 0 85 0 0
46 881 0 0 70 0 0
48 870 0 0 91 0 0
50 876 0 0 83 0 0
52 873 0 0 88 6 0
54 867 0 0 83 13 0
56 867 0 2 78 10 0
58 865 0 5 66 23 0
60 862 0 10 64 25 0
62 855 0 11 70 35 0
64 852 0 20 60 29 0
66 851 0 25 58 25 0
68 840 0 27 62 29 0
70 838 0 33 58 33 0
72 834 0 37 58 36 0
74 818 0 43 60 29 0
76 817 0 48 57 36 0
78 809 0 51 57 39 0
80 796 0 57 63 31 0
82 785 0 58 64 30 0
84 787 0 65 50 31 0
86 770 0 68 66 41 0
88 761 0 77 67 31 0
90 763 0 76 56 42 0
92 761 0 83 57 35 0
94 762 0 88 47 43 0
96 755 0 101 46 29 0
98 756 0 102 40 36 0
100 734 0 107 52 33 0
102 732 0 109 49 41 0
104 732 0 114 43 42 0
106 730 0 118 41 41 0
108 734 0 128 34 48 0
110 721 0 128 43 46 0
112 720 0 140 45 36 0
114 702 0 143 58 38 0
116 702 0 147 52 38 0
118 693 0 156 50 42 0
120 685 0 162 52 40 0
122 670 0 166 62 42 0
124 666 0 170 61 46 0
126 670 0 175 49 39 0
128 665 0 176 49 43 0
130 663 0 188 47 43 0
132 656 0 192 52 42 0
134 653 0 189 44 55 0
136 640 0 188 55 58 0
138 639 0 201 53 57 0
140 641 0 205 45 50 0
142 638 0 211 48 53 0
144 641 0 226 40 44 0
146 640 0 228 35 43 0
148 640 0 235 34 31 0
150 634 0 242 34 35 0
152 621 0 237 44 53 0
154 614 0 256 42 38 0
156 615 0 257 34 42 0
158 604 0 260 45 48 0
160 599 0 260 46 57 0
162 600 0 268 39 43 0
164 603 0 273 34 46 0
166 589 0 273 41 39 0
168 589 0 276 37 55 0
170 586 0 288 36 52 0
172 587 0 293 31 53 0
174 582 0 302 34 55 0
176 583 0 309 23 64 0
178 580 0 316 26 53 0
180 577 0 314 27 67 0
182 562 0 321 37 63 0
184 548 0 327 47 58 0
186 551 0 331 39 59 0
188 547 0 336 38 51 0
190 550 0 346 32 55 0
192 537 0 347 43 56 0
194 535 0 359 40 49 0
196 535 0 355 37 63 0
198 524 0 359 44 63 0
200 515 0 365 44 65 0
