0 913 0 0 0 0 0
2 883 0 0 25 0 0
4.00004 871 0 0 37 0 0
6 856 0 0 51 0 0
8 855 0 0 49 0 0
10 849 0 0 59 0 0
12 844 0 0 61 0 0
14 837 0 0 64 0 0
16 828 0 0 77 0 0
18 823 0 0 88 0 0
20 830 0 0 72 0 0
22 825 0 0 81 0 0
24 820 0 0 90 0 0
26 817 0 0 86 0 0
28 815 0 0 87 0 0
30 817 0 0 79 0 0
32 820 0 0 74 0 0
34 817 0 0 80 0 0
36 818 0 0 80 0 0
38 821 0 0 84 0 0
40 825 0 0 78 0 0
42 824 0 0 91 0 0
44 821 0 0 85 0 0
46 820 0 0 87 0 0
48 814 0 0 97 0 0
50 811 0 0 100 0 0
52 812 0 0 103 1 0
54 804 0 0 108 8 0
56 806 0 0 93 11 0
58 818 0 2 80 16 0
60 818 0 2 72 24 0
62 813 0 2 77 32 0
64 814 0 4 77 31 0
66 815 0 5 66 29 0
68 804 0 9 74 28 0
70 816 0 13 63 22 0
72 809 0 13 65 23 0
74 815 0 16 55 17 0
76 797 0 17 67 27 0
78 795 0 18 67 26 0
80 808 0 21 52 22 0
82 795 0 24 59 25 0
84 789 0 24 66 26 0
86 781 0 24 68 36 0
88 779 0 29 66 34 0
90 782 0 32 58 37 0
92 780 0 36 63 32 0
94 776 0 40 59 26 0
96 782 0 42 52 26 0
98 777 0 46 55 23 0
100 774 0 46 55 24 0
102 766 0 47 62 27 0
104 765 0 50 60 31 0
106 756 0 52 63 29 0
108 749 0 52 65 36 0
110 749 0 56 57 34 0
112 746 0 59 58 27 0
114 741 0 60 62 35 0
116 746 0 62 51 32 0
118 743 0 65 56 35 0
120 728 0 67 69 37 0
122 740 0 71 54 41 0
124 735 0 73 55 35 0
126 732 0 77 53 38 0
128 728 0 81 55 39 0
130 728 0 81 50 44 0
132 721 0 85 56 38 0
134 714 0 85 61 40 0
136 699 0 86 66 44 0
138 702 0 91 60 48 0
140 694 0 94 66 48 0
142 689 0 101 66 42 0
144 688 0 106 61 43 0
146 679 0 108 69 40 0
148 679 0 109 66 42 0
150 672 0 115 74 35 0
152 673 0 113 65 41 0
154 675 0 117 58 45 0
156 678 0 118 55 40 0
158 675 0 118 51 40 0
160 674 0 127 52 37 0
162 677 0 128 42 38 0
164 661 0 134 57 36 0
166 661 0 137 54 35 0
168 661 0 144 54 38 0
170 652 0 144 58 38 0
172 662 0 142 46 55 0
174 651 0 147 57 50 0
176 650 0 151 55 48 0
178 646 0 155 55 46 0
180 640 0 159 57 46 0
182 645 0 166 49 53 0
184 648 0 172 40 43 0
186 638 0 174 47 48 0
188 638 0 173 45 48 0
190 638 0 180 43 43 0
192 634 0 185 45 39 0
194 635 0 187 38 39 0
196 625 0 192 44 40 0
198 618 0 197 47 35 0
200 625 0 197 40 44 0
