0 1091 0 0 0 0 0
2 1032 9 0 28 0 16
4.00004 1033 2 0 42 0 10
6 1031 0 0 39 0 11
8 1028 0 0 32 0 16
10 1024 0 0 36 0 10
12 1018 0 0 36 0 18
14 1023 0 0 33 0 18
16 1024 0 0 38 0 10
18 1028 0 0 37 0 13
20 1026 0 0 39 0 16
22 1015 0 0 39 0 25
24 1017 0 0 49 0 13
26 1018 0 0 50 0 15
28 1010 0 0 46 0 17
30 1012 0 0 50 0 18
32 1011 0 0 37 0 28
34 1007 0 0 50 0 16
36 1018 0 0 35 0 16
38 1017 0 0 40 0 16
40 1019 0 0 30 0 15
42 1015 0 0 43 0 15
44 1019 0 0 33 0 15
46 1003 0 0 47 0 17
48 1009 0 0 38 0 16
50 1010 0 0 37 0 18
52 977 0 23 25 51 0
54 959 0 58 11 37 0
56 943 0 78 11 39 0
58 918 0 97 13 49 1
60 898 0 115 13 55 0
62 880 0 131 8 52 0
64 864 0 153 7 44 1
66 843 0 170 8 47 0
68 824 0 179 5 50 0
70 800 0 203 10 48 0
72 791 0 222 7 39 0
74 774 0 237 14 33 0
76 766 0 251 3 37 0
78 747 0 265 9 38 0
80 728 0 276 12 38 0
82 702 0 290 11 56 0
84 685 0 317 7 46 0
86 659 0 333 11 56 0
88 638 0 355 9 51 1
90 631 0 370 9 45 0
92 614 0 379 10 50 0
94 593 0 397 8 56 0
96 577 0 417 7 52 0
98 566 0 426 5 56 0
100 548 0 437 6 64 0
102 540 0 447 9 54 0
104 529 0 469 4 60 0
106 519 0 484 7 54 0
108 503 0 499 7 51 0
110 486 0 507 5 60 0
112 474 0 518 8 48 0
114 460 0 528 8 63 0
116 439 0 545 8 64 0
118 429 0 561 2 63 0
120 416 0 563 8 64 0
122 402 0 576 13 59 0
124 397 0 595 5 53 0
126 390 0 603 6 54 0
128 381 0 614 7 52 1
130 366 0 615 10 65 0
132 363 0 631 2 56 0
134 353 0 629 6 56 0
136 345 0 640 3 54 0
138 339 0 652 1 54 0
140 330 0 659 7 48 0
142 329 0 669 3 44 0
144 325 0 675 1 42 0
146 307 0 682 4 47 0
148 298 0 702 7 38 0
150 290 0 715 8 38 0
152 277 0 715 5 56 0
154 272 0 727 4 50 0
156 268 0 736 8 47 0
158 263 0 737 4 48 0
160 256 0 748 2 48 0
162 248 0 747 4 57 0
164 232 0 757 9 57 0
166 232 0 760 6 64 0
168 227 0 759 3 62 0
170 220 0 762 5 59 0
172 218 0 761 0 68 0
174 211 0 762 1 63 0
176 203 0 773 1 56 0
178 201 0 777 2 48 0
180 192 0 784 5 57 0
182 192 0 789 7 50 0
184 189 0 791 4 51 0
186 183 0 797 6 48 0
188 181 0 798 5 52 0
190 178 0 805 3 62 0
192 174 0 818 0 50 0
194 170 0 816 2 50 0
196 168 0 824 3 50 0
198 163 0 837 4 38 0
200 159 0 841 4 45 0
