0 1039 0 0 0 0 0
2 998 37 0 2 0 0
4.00004 1002 32 0 3 0 0
6 988 47 0 3 0 0
8 994 37 0 2 0 0
10 977 52 0 3 0 0
12 989 42 0 3 0 0
14 995 45 0 4 0 0
16 1006 31 0 3 0 0
18 994 40 0 3 0 0
20 990 42 0 7 0 0
22 996 38 0 2 0 0
24 989 49 0 5 0 0
26 998 45 0 3 0 0
28 999 42 0 4 0 0
30 1006 37 0 6 0 0
32 1005 43 0 6 0 0
34 999 51 0 8 0 0
36 996 51 0 4 0 0
38 1004 36 0 3 0 0
40 988 45 0 6 0 0
42 992 40 0 4 0 0
44 992 38 0 3 0 0
46 986 42 0 4 0 0
48 977 50 0 2 0 0
50 975 47 0 3 0 0
52 856 0 172 0 2 0
54 815 0 214 1 2 0
56 770 0 255 0 1 0
58 732 0 287 0 6 0
60 695 1 322 0 5 0
62 653 0 369 1 6 0
64 622 0 399 0 2 0
66 590 0 422 0 1 0
68 556 0 463 0 4 0
70 536 0 482 0 2 0
72 512 0 510 1 3 0
74 480 0 542 1 0 0
76 456 0 557 1 1 0
78 439 1 578 0 4 0
80 422 0 601 0 0 0
82 399 0 623 0 2 0
84 377 0 634 0 4 0
86 366 0 647 2 0 0
88 349 0 669 0 2 0
90 330 0 678 0 4 0
92 316 0 690 0 1 0
94 303 1 703 0 3 0
96 286 0 713 0 4 0
98 264 0 738 3 3 0
100 251 0 750 0 4 0
102 235 0 769 1 2 0
104 224 0 773 1 1 0
106 212 0 788 0 1 0
108 200 0 807 0 2 0
110 187 0 815 0 1 0
112 171 0 828 0 3 0
114 157 0 845 0 2 0
116 152 0 850 0 3 0
118 147 0 861 1 1 0
120 142 0 865 0 2 0
122 137 0 875 1 4 0
124 131 0 883 0 3 0
126 124 1 892 2 2 0
128 121 0 893 0 3 0
130 114 0 896 1 4 0
132 109 0 903 1 7 0
134 103 0 915 0 4 0
136 99 0 911 0 6 0
138 96 0 918 0 4 0
140 87 0 928 0 6 0
142 81 0 939 2 3 0
144 75 0 945 0 1 0
146 71 0 942 1 3 0
148 69 0 952 0 3 0
150 67 0 952 0 3 0
152 63 0 954 0 3 0
154 59 0 958 0 5 0
156 56 0 964 0 5 0
158 52 0 968 0 2 0
160 51 0 965 1 2 0
162 51 0 967 0 5 0
164 49 0 977 1 2 0
166 49 0 972 0 1 0
168 47 0 970 1 2 0
170 46 0 970 0 2 0
172 46 0 969 1 2 0
174 45 0 960 0 5 0
176 41 0 965 0 6 0
178 40 1 970 0 3 0
180 35 0 971 0 5 0
182 32 0 972 0 5 0
184 30 0 977 0 1 0
186 30 0 968 0 0 0
188 29 0 971 0 4 0
190 28 0 974 1 4 0
192 25 0 981 0 2 0
194 23 0 981 0 2 0
196 23 0 989 0 1 0
198 22 0 988 0 7 0
200 20 0 994 0 8 0
