0 1085 0 0 0 0 0
2 1082 0 0 3 0 0
4.00004 1080 0 0 2 0 0
6 1082 0 0 5 0 0
8 1080 0 0 5 0 0
10 1077 0 0 0 0 0
12 1077 0 0 1 0 0
14 1078 0 0 7 0 0
16 1077 0 0 3 0 0
18 1076 0 0 1 0 0
20 1076 0 0 1 0 0
22 1067 0 0 2 0 0
24 1071 0 0 2 0 0
26 1063 0 0 4 0 0
28 1058 0 0 3 0 0
30 1060 0 0 1 0 0
32 1056 0 0 5 0 0
34 1058 0 0 2 0 0
36 1060 0 0 3 0 0
38 1050 0 0 2 0 0
40 1052 0 0 3 0 0
42 1059 0 0 2 0 0
44 1056 0 0 3 0 0
46 1051 0 0 5 0 0
48 1054 0 0 2 0 0
50 1056 0 0 2 0 0
52 1048 0 10 3 1 0
54 1041 0 17 0 2 0
56 1024 0 29 1 0 0
58 1012 0 34 4 0 0
60 1003 0 44 0 3 0
62 989 0 54 2 2 0
64 980 0 66 3 1 0
66 976 0 76 0 2 0
68 966 0 85 3 3 0
70 957 0 100 0 3 0
72 948 0 108 2 3 0
74 942 0 115 1 1 0
76 933 0 119 1 0 0
78 925 0 129 1 3 0
80 918 0 131 2 2 0
82 911 0 129 2 4 0
84 903 0 143 2 0 0
86 892 0 146 1 1 0
88 882 0 155 2 4 0
90 873 0 160 2 2 0
92 864 0 171 2 0 0
94 850 0 175 2 1 0
96 847 0 183 1 2 0
98 835 0 181 1 2 0
100 821 0 193 2 0 0
102 817 0 209 1 3 0
104 808 0 223 3 2 0
106 802 0 227 3 4 0
108 797 0 236 1 4 0
110 792 0 249 0 5 0
112 782 0 257 2 3 0
114 777 0 264 3 1 0
116 768 0 265 2 0 0
118 761 0 270 1 0 0
120 758 0 276 0 0 0
122 746 0 279 1 2 0
124 740 0 283 1 0 0
126 730 0 289 1 2 0
128 725 0 298 0 1 0
130 721 0 311 1 1 0
132 719 0 319 0 5 0
134 712 0 328 1 5 0
136 699 0 337 1 2 0
138 686 0 345 4 2 0
140 682 0 353 0 4 0
142 677 0 360 1 1 0
144 672 0 364 1 3 0
146 668 0 375 2 1 0
148 662 0 382 0 4 0
150 655 0 393 0 4 0
152 651 0 403 0 1 0
154 642 0 410 1 2 0
156 633 0 416 1 1 0
158 630 0 426 0 4 0
160 627 0 436 1 4 0
162 619 0 445 0 2 0
164 615 0 456 0 3 0
166 609 0 459 2 2 0
168 607 0 465 0 3 0
170 601 0 467 1 3 0
172 601 0 479 0 2 0
174 595 0 484 1 1 0
176 590 0 492 1 0 0
178 589 0 490 0 5 0
180 587 0 498 0 2 0
182 582 0 502 1 1 0
184 580 0 505 0 3 0
186 570 0 512 1 4 0
188 566 0 521 1 0 0
190 560 0 528 0 1 0
192 554 0 529 1 3 0
194 549 0 540 0 1 0
196 541 0 534 2 5 0
198 537 0 553 1 2 0
200 530 0 553 1 1 0
