0 939 0 0 0 0 0
2 897 44 0 2 0 0
4.00004 908 33 0 3 0 0
6 883 56 0 1 0 0
8 883 55 0 3 0 0
10 866 64 0 3 0 0
12 892 35 0 4 0 0
14 892 38 0 6 0 0
16 880 51 0 5 0 0
18 873 61 0 6 0 0
20 884 55 0 2 0 0
22 878 51 0 2 0 0
24 882 47 0 1 0 0
26 876 56 0 4 0 0
28 875 57 0 6 0 0
30 881 53 0 7 0 0
32 882 52 0 4 0 0
34 884 48 0 5 0 0
36 901 32 0 3 0 0
38 877 53 0 8 0 0
40 884 55 0 3 0 0
42 890 46 0 5 0 0
44 885 53 0 7 0 0
46 877 57 0 3 0 0
48 862 61 0 5 0 0
50 874 43 0 1 0 0
52 722 0 200 0 3 0
54 671 0 256 1 4 0
56 626 0 293 0 9 0
58 585 0 329 1 4 0
60 539 0 375 1 6 0
62 504 0 417 3 3 0
64 474 0 458 2 3 0
66 445 0 484 0 6 0
68 417 0 513 1 3 0
70 396 1 534 3 3 0
72 362 0 573 2 8 0
74 335 0 610 0 4 0
76 311 0 629 0 4 0
78 283 1 663 1 3 0
80 263 0 682 0 7 0
82 246 0 694 1 5 0
84 229 0 715 0 6 0
86 213 0 730 2 3 0
88 196 0 741 0 5 0
90 176 1 766 3 5 0
92 163 0 784 2 4 0
94 152 0 784 1 5 0
96 140 0 802 1 3 0
98 132 0 810 1 8 0
100 120 0 821 0 2 0
102 116 0 827 1 3 0
104 106 0 836 1 6 0
106 102 0 849 0 5 0
108 95 2 846 0 3 0
110 89 0 848 1 3 0
112 83 0 853 1 2 0
114 76 0 858 0 6 0
116 71 0 868 0 4 0
118 66 0 877 1 3 0
120 62 0 880 0 8 0
122 59 0 892 0 2 0
124 52 1 900 1 6 0
126 49 0 907 0 2 0
128 47 0 912 0 1 0
130 44 0 913 2 6 0
132 43 0 914 0 1 0
134 41 0 923 0 7 0
136 37 0 932 0 5 0
138 36 0 940 2 1 0
140 33 0 943 1 4 0
142 30 0 952 0 2 0
144 29 0 947 1 2 0
146 27 0 941 0 3 0
148 24 0 949 0 3 0
150 24 0 946 1 6 0
152 17 0 956 0 4 0
154 17 0 953 1 7 0
156 16 0 958 0 3 0
158 16 0 954 0 4 0
160 14 0 955 0 6 0
162 12 0 957 1 2 0
164 12 0 957 0 3 0
166 10 0 945 0 6 0
168 9 1 944 1 3 0
170 8 0 943 1 5 0
172 7 0 942 0 4 0
174 6 0 936 0 6 0
176 6 0 933 0 2 0
178 4 0 936 1 7 0
180 4 0 934 0 7 0
182 3 0 939 0 2 0
184 3 0 939 1 4 0
186 3 0 950 0 5 0
188 3 0 948 0 2 0
190 2 0 948 0 6 0
192 2 0 941 0 5 0
194 2 0 942 0 5 0
196 2 0 936 0 2 0
198 2 0 930 0 4 0
200 2 0 926 1 4 0
