0 1200 0 0 0 0 0
2 1189 0 0 2 0 0
4.00004 1186 0 0 2 0 0
6 1186 0 0 4 0 0
8 1193 0 0 2 0 0
10 1196 0 0 5 0 0
12 1198 0 0 6 0 0
14 1199 0 0 3 0 0
16 1197 0 0 2 0 0
18 1206 0 0 3 0 0
20 1204 0 0 2 0 0
22 1202 0 0 5 0 0
24 1202 0 0 3 0 0
26 1211 0 0 4 0 0
28 1206 0 0 4 0 0
30 1204 0 0 3 0 0
32 1196 0 0 3 0 0
34 1198 0 0 3 0 0
36 1196 0 0 3 0 0
38 1190 0 0 0 0 0
40 1188 0 0 4 0 0
42 1183 0 0 4 0 0
44 1183 0 0 3 0 0
46 1183 0 0 4 0 0
48 1184 0 0 8 0 0
50 1188 0 0 4 0 0
52 1174 0 8 7 1 0
54 1162 0 20 1 4 0
56 1151 0 35 0 1 0
58 1140 0 50 0 1 0
60 1119 0 62 2 1 0
62 1107 0 80 0 4 0
64 1091 0 93 2 5 0
66 1078 0 107 4 2 0
68 1069 0 120 0 1 0
70 1058 0 134 1 0 0
72 1049 0 147 2 2 0
74 1033 0 153 2 1 0
76 1017 0 163 2 1 0
78 1006 0 173 1 2 0
80 994 0 188 1 2 0
82 982 0 191 0 4 0
84 966 0 208 2 4 0
86 956 0 228 1 3 0
88 949 0 238 2 0 0
90 934 0 252 2 2 0
92 924 0 267 0 2 0
94 916 0 281 2 2 0
96 902 0 287 3 6 0
98 894 0 299 2 3 0
100 888 0 311 1 1 0
102 872 0 325 1 4 0
104 868 0 332 2 2 0
106 863 0 341 2 0 0
108 860 0 345 1 1 0
110 849 0 356 2 2 0
112 833 0 365 1 4 0
114 826 0 377 1 0 0
116 816 0 392 0 1 0
118 806 0 397 0 2 0
120 803 0 392 0 3 0
122 795 0 411 0 0 0
124 787 0 418 1 3 0
126 772 0 429 1 0 0
128 760 0 439 0 1 0
130 752 0 443 0 3 0
132 747 0 449 0 4 0
134 731 0 456 4 2 0
136 722 0 471 0 3 0
138 711 0 476 1 3 0
140 704 0 487 2 0 0
142 695 0 494 1 3 0
144 689 0 507 1 1 0
146 679 0 516 0 4 0
148 675 0 526 0 3 0
150 664 0 526 1 1 0
152 657 0 532 0 2 0
154 639 0 538 2 2 0
156 627 0 555 1 4 0
158 623 0 563 0 3 0
160 620 0 569 1 2 0
162 620 0 572 1 4 0
164 613 0 583 0 4 0
166 610 0 590 0 2 0
168 600 0 602 2 1 0
170 597 0 605 1 5 0
172 593 0 608 0 3 0
174 584 0 617 2 2 0
176 578 0 622 2 2 0
178 567 0 631 2 2 0
180 562 0 635 2 1 0
182 560 0 641 0 5 0
184 548 0 648 2 4 0
186 543 0 652 1 1 0
188 539 0 657 1 3 0
190 537 0 665 1 5 0
192 529 0 674 1 4 0
194 523 0 682 1 2 0
196 520 0 692 0 3 0
198 515 0 695 0 3 0
200 515 0 698 0 2 0
