0 894 0 0 0 0 0
2 882 14 0 0 0 4
4.00004 874 22 0 0 0 3
6 873 22 0 0 0 4
8 875 17 0 0 0 8
10 873 19 0 0 0 7
12 894 15 0 0 0 5
14 901 12 0 0 0 4
16 901 19 0 0 0 7
18 914 14 0 0 0 5
20 930 16 0 0 0 3
22 942 10 0 0 0 1
24 921 22 0 0 0 7
26 936 14 0 0 0 5
28 936 18 0 0 0 5
30 933 24 0 0 0 3
32 949 14 0 0 0 2
34 954 15 0 0 0 4
36 957 15 0 0 0 3
38 960 15 0 0 0 4
40 963 16 0 0 0 3
42 967 13 0 0 0 4
44 969 15 0 0 0 4
46 960 23 0 0 0 7
48 956 24 0 0 0 2
50 967 15 0 0 0 4
52 830 0 145 0 3 0
54 751 0 230 0 5 0
56 657 0 334 0 5 0
58 581 0 413 0 5 0
60 522 0 483 0 3 0
62 464 0 543 0 6 0
64 416 0 590 0 3 0
66 376 0 625 0 2 0
68 321 0 678 0 5 0
70 285 0 717 0 4 0
72 254 1 739 0 3 0
74 228 0 773 0 4 0
76 204 0 787 0 3 0
78 175 0 822 0 5 0
80 159 0 836 0 2 0
82 147 0 851 0 4 0
84 133 0 877 0 0 0
86 120 0 884 0 6 0
88 112 0 891 0 4 0
90 100 0 908 0 2 0
92 86 0 923 0 1 0
94 77 0 936 0 4 0
96 65 0 951 0 3 0
98 60 0 960 0 6 0
100 55 0 972 0 2 0
102 47 0 977 0 3 0
104 42 0 980 0 3 0
106 39 0 977 0 3 0
108 38 0 985 0 5 0
110 34 0 991 0 5 0
112 32 0 990 0 6 0
114 32 0 995 0 5 0
116 31 0 997 0 4 0
118 30 0 984 0 6 0
120 28 0 990 0 4 0
122 26 0 994 0 4 0
124 23 0 1001 0 5 0
126 19 0 1013 0 5 0
128 16 0 1014 0 7 0
130 15 0 1015 0 5 0
132 12 0 1017 0 4 0
134 11 0 1009 0 6 0
136 11 0 1008 0 2 0
138 6 0 1017 0 3 0
140 4 0 1010 0 4 0
142 2 0 1014 0 6 0
144 2 0 1014 0 6 0
146 2 0 1018 0 4 0
148 1 0 1030 0 4 0
150 1 0 1030 0 3 0
152 1 0 1029 0 5 0
154 1 0 1032 0 4 0
156 1 0 1038 0 1 0
158 1 0 1034 0 2 0
160 1 0 1033 0 6 0
162 1 0 1036 0 4 0
164 1 0 1030 0 1 0
166 0 0 1023 0 6 0
168 0 0 1024 0 6 0
170 0 0 1016 0 9 0
172 0 0 1017 0 7 0
174 0 0 1023 0 7 0
176 0 0 1028 0 7 0
178 0 0 1024 0 4 0
180 0 0 1015 0 8 0
182 0 0 1021 0 4 0
184 0 0 1030 0 7 0
186 0 0 1022 0 2 0
188 0 0 1024 0 3 0
190 0 0 1023 0 4 0
192 0 0 1026 0 2 0
194 0 0 1018 0 4 0
196 0 0 1017 0 7 0
198 0 0 1033 0 4 0
200 0 0 1037 0 6 0
