0 1188 0 0 0 0 0
2 1190 0 0 0 0 0
4.00004 1192 0 0 2 0 0
6 1196 0 0 1 0 0
8 1200 0 0 4 0 0
10 1188 0 0 6 0 0
12 1187 0 0 4 0 0
14 1187 0 0 3 0 0
16 1180 0 0 5 0 0
18 1182 0 0 5 0 0
20 1191 0 0 5 0 0
22 1190 0 0 4 0 0
24 1190 0 0 3 0 0
26 1192 0 0 6 0 0
28 1196 0 0 0 0 0
30 1197 0 0 3 0 0
32 1195 0 0 5 0 0
34 1184 0 0 3 0 0
36 1187 0 0 2 0 0
38 1184 0 0 3 0 0
40 1182 0 0 4 0 0
42 1179 0 0 1 0 0
44 1175 0 0 1 0 0
46 1172 0 0 2 0 0
48 1167 0 0 4 0 0
50 1173 0 0 2 0 0
52 1166 0 11 3 1 0
54 1156 0 18 4 3 0
56 1148 0 28 1 2 0
58 1141 0 37 2 4 0
60 1137 0 47 1 2 0
62 1132 0 58 2 1 0
64 1126 0 66 1 1 0
66 1120 0 72 1 2 0
68 1115 0 86 1 2 0
70 1099 0 95 0 1 0
72 1091 0 101 2 2 0
74 1085 0 110 2 2 0
76 1084 0 119 1 4 0
78 1076 0 126 0 0 0
80 1063 0 133 6 4 0
82 1061 0 146 0 5 0
84 1050 0 160 0 0 0
86 1040 0 164 2 0 0
88 1033 0 171 0 2 0
90 1025 0 177 2 3 0
92 1015 0 185 2 2 0
94 1007 0 192 0 4 0
96 1001 0 204 1 2 0
98 988 0 214 3 4 0
100 983 0 222 1 3 0
102 978 0 228 0 1 0
104 974 0 241 0 1 0
106 963 0 251 1 1 0
108 954 0 255 1 4 0
110 950 0 264 1 4 0
112 945 0 271 0 5 0
114 933 0 279 1 2 0
116 929 0 285 1 2 0
118 922 0 290 1 1 0
120 914 0 291 1 1 0
122 908 0 302 1 2 0
124 899 0 312 2 2 0
126 890 0 315 1 2 0
128 881 0 317 0 5 0
130 872 0 327 2 2 0
132 867 0 332 1 6 0
134 856 0 340 4 5 0
136 853 0 349 2 1 0
138 844 0 351 0 2 0
140 833 0 355 2 3 0
142 832 0 360 1 0 0
144 829 0 362 0 1 0
146 825 0 370 0 0 0
148 823 0 373 0 0 0
150 817 0 374 1 4 0
152 809 0 386 0 4 0
154 800 0 391 1 5 0
156 793 0 400 0 2 0
158 788 0 413 3 2 0
160 780 0 422 2 2 0
162 775 0 426 1 4 0
164 775 0 428 2 0 0
166 767 0 432 0 0 0
168 751 0 440 2 0 0
170 749 0 448 0 1 0
172 745 0 456 1 3 0
174 738 0 464 0 0 0
176 731 0 469 2 1 0
178 723 0 472 4 3 0
180 723 0 478 0 1 0
182 717 0 483 0 1 0
184 712 0 490 1 0 0
186 707 0 497 1 0 0
188 700 0 503 1 0 0
190 695 0 509 0 1 0
192 687 0 509 0 1 0
194 677 0 514 1 2 0
196 675 0 523 1 1 0
198 665 0 527 0 3 0
200 657 0 537 0 0 0
