0 1154 0 0 0 0 0
2 1156 0 0 1 0 0
4.00004 1150 0 0 3 0 0
6 1136 0 0 6 0 0
8 1135 0 0 2 0 0
10 1134 0 0 2 0 0
12 1127 0 0 3 0 0
14 1127 0 0 4 0 0
16 1127 0 0 3 0 0
18 1125 0 0 3 0 0
20 1116 0 0 2 0 0
22 1115 0 0 2 0 0
24 1121 0 0 4 0 0
26 1114 0 0 3 0 0
28 1120 0 0 4 0 0
30 1123 0 0 2 0 0
32 1118 0 0 2 0 0
34 1120 0 0 4 0 0
36 1124 0 0 0 0 0
38 1123 0 0 2 0 0
40 1124 0 0 4 0 0
42 1119 0 0 1 0 0
44 1110 0 0 2 0 0
46 1108 0 0 2 0 0
48 1107 0 0 2 0 0
50 1106 0 0 3 0 0
52 1094 0 10 1 1 0
54 1079 0 23 2 2 0
56 1071 0 29 3 2 0
58 1065 0 36 0 3 0
60 1051 0 48 0 0 0
62 1041 0 56 2 0 0
64 1027 0 66 3 0 0
66 1019 0 72 0 0 0
68 1008 0 77 1 3 0
70 989 0 84 4 3 0
72 979 0 93 1 1 0
74 975 0 98 0 1 0
76 965 0 106 1 2 0
78 956 0 119 1 2 0
80 943 0 125 2 1 0
82 931 0 133 1 0 0
84 922 0 146 0 1 0
86 915 0 153 1 3 0
88 908 0 163 1 0 0
90 899 0 167 2 2 0
92 894 0 170 1 1 0
94 888 0 182 2 2 0
96 884 0 190 2 1 0
98 875 0 200 0 1 0
100 863 0 214 1 0 0
102 856 0 216 0 1 0
104 847 0 225 1 1 0
106 843 0 227 0 3 0
108 832 0 240 0 1 0
110 826 0 247 0 1 0
112 817 0 257 1 2 0
114 811 0 261 1 2 0
116 810 0 266 1 1 0
118 794 0 268 0 3 0
120 781 0 274 3 2 0
122 776 0 287 1 0 0
124 767 0 291 2 2 0
126 764 0 292 1 2 0
128 756 0 302 0 2 0
130 750 0 307 0 0 0
132 738 0 312 2 1 0
134 731 0 326 1 1 0
136 728 0 330 0 1 0
138 715 0 340 1 1 0
140 712 0 344 0 2 0
142 706 0 345 1 0 0
144 701 0 351 0 2 0
146 698 0 357 0 1 0
148 691 0 361 3 2 0
150 686 0 370 0 2 0
152 677 0 376 0 4 0
154 665 0 382 1 1 0
156 663 0 387 0 0 0
158 656 0 388 1 0 0
160 651 0 393 1 2 0
162 642 0 393 0 1 0
164 639 0 393 0 3 0
166 634 0 397 0 3 0
168 626 0 404 2 2 0
170 616 0 421 3 3 0
172 610 0 426 0 3 0
174 606 0 425 0 1 0
176 600 0 434 0 2 0
178 595 0 441 1 1 0
180 584 0 445 1 0 0
182 578 0 455 0 2 0
184 570 0 461 0 1 0
186 561 0 472 0 2 0
188 555 0 475 0 2 0
190 542 0 479 1 2 0
192 538 0 484 1 5 0
194 531 0 492 0 3 0
196 527 0 500 1 0 0
198 522 0 499 2 1 0
200 518 0 498 0 1 0
