0 960 0 0 0 0 0
2 926 32 0 5 0 0
4.00004 910 47 0 5 0 0
6 910 45 0 2 0 0
8 913 41 0 5 0 0
10 912 50 0 5 0 0
12 918 44 0 0 0 0
14 921 48 0 3 0 0
16 913 55 0 3 0 0
18 918 53 0 4 0 0
20 919 53 0 6 0 0
22 924 52 0 7 0 0
24 924 52 0 2 0 0
26 924 47 0 3 0 0
28 933 39 0 4 0 0
30 931 43 0 1 0 0
32 927 41 0 4 0 0
34 918 46 0 2 0 0
36 923 43 0 2 0 0
38 921 52 0 4 0 0
40 915 54 0 1 0 0
42 911 51 0 6 0 0
44 913 48 0 9 0 0
46 902 59 0 5 0 0
48 908 55 0 5 0 0
50 917 51 0 3 0 0
52 792 0 174 1 2 0
54 745 0 228 0 3 0
56 697 1 269 4 8 0
58 647 0 322 2 5 0
60 618 1 356 2 0 0
62 576 1 393 0 1 0
64 538 0 422 3 2 0
66 500 0 461 1 3 0
68 458 0 504 1 5 0
70 428 0 532 1 5 0
72 395 1 574 0 2 0
74 370 0 597 0 1 0
76 348 0 625 3 6 0
78 326 0 655 2 5 0
80 305 0 660 0 6 0
82 283 1 678 0 4 0
84 262 0 701 1 3 0
86 241 0 715 0 4 0
88 221 0 737 0 3 0
90 204 0 762 1 1 0
92 194 0 775 0 1 0
94 180 0 788 1 5 0
96 168 0 802 0 6 0
98 161 0 815 0 5 0
100 152 0 822 1 1 0
102 133 0 847 3 1 0
104 121 0 860 0 4 0
106 114 0 863 0 6 0
108 99 0 872 0 5 0
110 92 0 875 0 6 0
112 87 0 870 1 3 0
114 81 0 878 1 3 0
116 76 0 888 0 5 0
118 70 0 895 0 0 0
120 68 0 905 0 3 0
122 64 0 918 0 0 0
124 57 0 934 0 2 0
126 53 0 942 0 1 0
128 50 0 944 0 3 0
130 47 0 942 0 4 0
132 46 0 936 1 5 0
134 46 0 942 0 6 0
136 43 0 952 0 7 0
138 39 0 956 0 3 0
140 37 0 953 0 2 0
142 36 0 947 0 4 0
144 33 0 950 0 2 0
146 31 0 954 0 5 0
148 31 0 962 1 3 0
150 30 0 969 0 0 0
152 27 0 972 0 5 0
154 26 0 968 1 3 0
156 24 0 966 0 6 0
158 23 0 979 2 4 0
160 21 0 980 0 4 0
162 19 0 986 1 1 0
164 19 0 981 0 1 0
166 18 0 979 0 4 0
168 18 0 974 1 3 0
170 17 0 969 2 3 0
172 16 0 976 1 4 0
174 14 0 978 0 2 0
176 13 0 980 0 1 0
178 12 1 984 0 3 0
180 11 0 986 0 5 0
182 10 1 987 0 4 0
184 10 0 986 1 2 0
186 8 0 987 0 3 0
188 8 0 984 0 1 0
190 8 0 983 1 6 0
192 9 0 981 1 3 0
194 7 0 984 1 5 0
196 7 0 974 0 7 0
198 5 0 983 2 3 0
200 5 0 974 0 6 0
