0 1009 0 0 0 0 0
2 1006 0 0 3 0 0
4.00004 1017 0 0 7 0 0
6 1021 0 0 5 0 0
8 1027 0 0 2 0 0
10 1029 0 0 3 0 0
12 1026 0 0 2 0 0
14 1029 0 0 7 0 0
16 1043 0 0 2 0 0
18 1037 0 0 1 0 0
20 1039 0 0 3 0 0
22 1044 0 0 6 0 0
24 1048 0 0 2 0 0
26 1048 0 0 0 0 0
28 1040 0 0 7 0 0
30 1035 0 0 5 0 0
32 1042 0 0 1 0 0
34 1037 0 0 9 0 0
36 1036 0 0 6 0 0
38 1049 0 0 3 0 0
40 1050 0 0 5 0 0
42 1053 0 0 3 0 0
44 1050 0 0 4 0 0
46 1047 0 0 4 0 0
48 1043 0 0 3 0 0
50 1040 0 0 3 0 0
52 1023 0 14 2 0 0
54 1017 0 32 1 2 0
56 995 0 46 4 3 0
58 981 0 60 1 2 0
60 974 0 81 4 0 0
62 966 0 91 2 2 0
64 950 0 102 1 4 0
66 943 0 125 3 3 0
68 930 0 140 4 2 0
70 920 0 147 2 0 0
72 909 0 153 3 3 0
74 904 0 165 2 1 0
76 891 0 183 1 2 0
78 882 0 196 4 2 0
80 872 0 202 3 3 0
82 860 0 218 5 2 0
84 853 0 224 1 5 0
86 849 0 240 2 6 0
88 835 0 249 6 6 0
90 832 0 255 1 5 0
92 827 0 267 1 1 0
94 815 0 273 2 1 0
96 807 0 288 1 1 0
98 790 0 298 1 1 0
100 781 0 313 1 1 0
102 770 0 316 0 3 0
104 758 0 333 1 1 0
106 742 0 347 2 2 0
108 733 0 351 0 4 0
110 727 0 363 1 2 0
112 713 0 367 2 2 0
114 701 0 377 3 2 0
116 697 0 386 1 2 0
118 688 0 404 1 2 0
120 677 0 416 2 2 0
122 671 0 429 3 1 0
124 668 0 442 0 1 0
126 658 0 451 1 2 0
128 649 0 465 1 2 0
130 640 0 477 2 2 0
132 630 0 487 1 3 0
134 627 0 494 1 1 0
136 619 0 491 1 5 0
138 612 0 509 4 2 0
140 610 0 517 1 2 0
142 606 0 523 1 3 0
144 596 0 527 2 4 0
146 593 0 537 1 1 0
148 588 0 525 1 4 0
150 579 0 532 3 3 0
152 572 0 540 1 4 0
154 569 0 543 0 2 0
156 560 0 548 1 3 0
158 558 0 554 0 5 0
160 552 0 563 1 3 0
162 543 0 571 2 2 0
164 538 0 577 3 2 0
166 534 0 583 1 2 0
168 528 0 587 0 6 0
170 522 0 591 2 2 0
172 513 0 594 0 4 0
174 508 0 605 2 2 0
176 500 0 622 2 1 0
178 491 0 630 0 4 0
180 486 0 639 1 3 0
182 481 0 645 1 8 0
184 473 0 658 1 1 0
186 467 0 658 1 2 0
188 457 0 662 1 3 0
190 455 0 673 0 0 0
192 447 0 679 0 6 0
194 444 0 681 0 4 0
196 440 0 697 1 3 0
198 437 0 691 2 5 0
200 431 0 698 1 2 0
