0 1177 0 0 0 0 0
2 1176 0 0 2 0 0
4.00004 1174 0 0 5 0 0
6 1169 0 0 7 0 0
8 1172 0 0 5 0 0
10 1170 0 0 5 0 0
12 1167 0 0 2 0 0
14 1157 0 0 11 0 0
16 1147 0 0 6 0 0
18 1146 0 0 5 0 0
20 1144 0 0 7 0 0
22 1149 0 0 4 0 0
24 1153 0 0 4 0 0
26 1149 0 0 9 0 0
28 1143 0 0 6 0 0
30 1134 0 0 4 0 0
32 1134 0 0 4 0 0
34 1134 0 0 3 0 0
36 1136 0 0 3 0 0
38 1127 0 0 8 0 0
40 1127 0 0 3 0 0
42 1131 0 0 2 0 0
44 1136 0 0 2 0 0
46 1129 0 0 5 0 0
48 1136 0 0 2 0 0
50 1127 0 0 6 0 0
52 1103 0 28 3 3 0
54 1086 0 42 3 2 0
56 1068 0 61 2 2 0
58 1051 0 76 4 3 0
60 1039 0 96 1 4 0
62 1026 0 111 0 1 0
64 1013 0 128 2 2 0
66 999 0 137 0 7 0
68 982 0 148 3 3 0
70 970 0 162 2 3 0
72 945 0 171 7 5 0
74 931 0 195 2 3 0
76 920 0 212 2 2 0
78 901 0 227 1 1 0
80 888 0 236 3 2 0
82 867 0 242 3 3 0
84 855 0 260 1 3 0
86 837 0 271 3 9 0
88 825 0 284 1 3 0
90 811 0 291 1 4 0
92 801 0 308 5 2 0
94 786 0 316 1 4 0
96 781 0 323 1 3 0
98 768 0 338 1 3 0
100 754 0 342 0 6 0
102 739 0 356 2 4 0
104 723 0 363 1 5 0
106 713 0 376 0 1 0
108 701 0 383 0 2 0
110 687 0 398 3 2 0
112 681 0 414 0 4 0
114 671 0 418 1 3 0
116 660 0 435 1 4 0
118 649 0 447 2 2 0
120 634 0 458 2 3 0
122 629 0 462 1 7 0
124 615 0 478 3 4 0
126 600 0 491 1 3 0
128 583 0 496 1 1 0
130 573 0 505 1 3 0
132 559 0 514 4 2 0
134 554 0 517 2 5 0
136 546 0 539 2 4 0
138 540 0 552 2 5 0
140 526 0 557 2 6 0
142 514 0 570 3 1 0
144 508 0 567 2 4 0
146 500 0 584 2 5 0
148 489 0 590 3 3 0
150 482 0 593 0 6 0
152 473 0 602 0 5 0
154 465 0 617 0 5 0
156 453 0 619 1 2 0
158 443 0 626 4 6 0
160 437 0 641 2 2 0
162 428 0 644 0 5 0
164 418 0 657 1 1 0
166 408 0 660 0 7 0
168 399 0 669 0 1 0
170 393 0 675 1 5 0
172 384 0 670 1 5 0
174 380 0 674 0 2 0
176 373 0 680 2 0 0
178 359 0 685 3 6 0
180 355 0 682 1 3 0
182 346 0 696 1 2 0
184 340 0 702 1 4 0
186 337 0 701 0 3 0
188 329 0 705 0 3 0
190 323 0 712 0 3 0
192 318 0 721 0 1 0
194 313 0 722 0 4 0
196 306 0 715 1 4 0
198 299 0 724 1 2 0
200 298 0 723 0 3 0
