0 1040 0 0 0 0 0
2 1005 34 0 2 0 0
4.00004 995 41 0 4 0 0
6 1002 38 0 0 0 0
8 999 42 0 3 0 0
10 998 33 0 5 0 0
12 1011 26 0 1 0 0
14 1003 32 0 5 0 0
16 998 40 0 2 0 0
18 1002 32 0 3 0 0
20 999 30 0 3 0 0
22 996 33 0 1 0 0
24 995 31 0 1 0 0
26 992 37 0 1 0 0
28 991 32 0 3 0 0
30 977 41 0 5 0 0
32 993 26 0 5 0 0
34 993 31 0 1 0 0
36 998 24 0 3 0 0
38 983 36 0 3 0 0
40 991 32 0 2 0 0
42 1000 28 0 3 0 0
44 1003 23 0 2 0 0
46 996 33 0 2 0 0
48 998 34 0 2 0 0
50 1004 33 0 1 0 0
52 894 0 132 0 5 0
54 851 0 177 0 2 0
56 821 0 209 0 0 0
58 798 0 231 0 1 0
60 767 0 264 0 7 0
62 742 0 288 1 1 0
64 717 1 307 1 3 0
66 698 0 326 2 2 0
68 671 0 356 0 1 0
70 651 0 374 1 3 0
72 634 0 391 0 2 0
74 608 0 418 1 1 0
76 583 1 438 1 2 0
78 563 0 465 1 1 0
80 551 0 478 1 3 0
82 531 0 499 1 3 0
84 510 0 524 1 3 0
86 499 0 537 0 0 0
88 487 0 543 0 2 0
90 464 1 567 3 2 0
92 447 1 595 0 1 0
94 431 0 607 1 2 0
96 412 0 627 2 2 0
98 399 0 639 0 2 0
100 391 0 646 0 3 0
102 382 0 654 0 3 0
104 369 0 671 0 1 0
106 354 1 679 0 0 0
108 342 0 696 1 0 0
110 328 0 705 0 2 0
112 317 0 709 0 3 0
114 308 0 719 0 1 0
116 292 0 727 0 3 0
118 279 0 735 0 6 0
120 272 0 749 0 4 0
122 264 0 759 2 3 0
124 253 0 772 0 3 0
126 244 0 780 1 2 0
128 234 0 786 1 4 0
130 230 0 794 0 0 0
132 220 0 803 1 1 0
134 214 0 806 1 2 0
136 206 0 822 0 6 0
138 193 0 831 1 5 0
140 183 0 841 1 2 0
142 170 0 855 0 4 0
144 162 0 862 0 5 0
146 156 0 861 1 1 0
148 154 0 866 0 3 0
150 151 0 866 1 2 0
152 151 1 864 0 4 0
154 144 0 875 0 2 0
156 139 0 887 0 2 0
158 135 0 886 0 4 0
160 132 0 890 0 3 0
162 128 0 895 0 4 0
164 124 0 899 0 2 0
166 123 0 898 1 1 0
168 115 0 894 0 4 0
170 115 0 899 0 2 0
172 113 0 903 0 1 0
174 108 0 906 0 1 0
176 104 0 910 0 2 0
178 99 0 908 4 5 0
180 97 0 917 0 4 0
182 94 0 919 1 1 0
184 94 0 928 0 1 0
186 93 0 926 1 1 0
188 91 0 936 0 2 0
190 86 0 936 0 2 0
192 86 0 930 0 4 0
194 85 0 929 0 0 0
196 79 0 931 1 2 0
198 73 0 934 0 2 0
200 69 0 933 1 7 0
