0 629 0 0 0 0 291
2 608 0 0 30 0 294
4.00004 620 0 0 27 0 297
6 630 0 0 33 0 296
8 650 0 0 24 0 303
10 660 0 0 26 0 301
12 662 0 0 33 0 298
14 676 0 0 25 0 280
16 683 0 0 29 0 305
18 689 0 0 23 0 291
20 684 0 0 27 0 314
22 696 0 0 30 0 305
24 696 0 0 31 0 304
26 717 0 0 21 0 304
28 687 0 0 47 0 314
30 731 0 0 18 0 295
32 731 0 0 30 0 290
34 733 0 0 37 0 281
36 728 0 0 36 0 293
38 740 0 0 23 0 298
40 732 0 0 32 0 318
42 754 0 0 24 0 289
44 753 0 0 19 0 313
46 752 0 0 31 0 300
48 762 0 0 28 0 292
50 757 0 0 42 0 299
52 764 0 0 31 1 300
54 769 0 4 30 2 292
56 768 0 9 32 2 316
58 777 0 19 20 2 294
60 773 0 32 27 2 311
62 771 0 41 31 2 295
64 762 0 51 30 3 299
66 756 0 59 24 2 305
68 743 0 71 28 3 297
70 738 0 81 24 4 293
72 731 0 88 19 7 299
74 710 0 97 31 6 314
76 695 0 106 26 8 300
78 674 0 123 30 6 300
80 657 0 136 28 8 303
82 631 0 159 37 9 304
84 642 0 173 23 8 307
86 618 0 180 30 14 308
88 610 0 200 13 9 301
90 592 0 205 19 11 294
92 581 0 216 19 12 303
94 559 0 227 23 11 305
96 556 0 236 19 12 298
98 538 0 255 26 8 306
100 531 0 261 18 19 289
102 526 0 282 16 16 308
104 511 0 290 15 14 317
106 499 0 298 20 16 315
108 495 0 313 14 14 311
110 475 0 329 21 19 293
112 460 0 339 17 14 301
114 452 0 355 15 14 300
116 445 0 359 16 20 294
118 423 0 375 24 20 306
120 417 0 383 17 24 288
122 409 0 389 15 24 294
124 392 0 404 23 22 318
126 390 0 426 13 23 284
128 374 0 445 16 20 303
130 374 0 465 14 15 297
132 352 0 479 20 11 302
134 352 0 485 13 15 290
136 341 0 495 15 16 304
138 336 0 495 12 19 302
140 334 0 497 10 14 303
142 315 0 497 13 22 308
144 315 0 514 10 16 298
146 315 0 506 4 19 307
148 299 0 522 12 14 284
150 292 0 516 13 17 310
152 294 0 534 6 20 299
154 289 0 536 9 21 316
156 282 0 558 10 19 304
158 278 0 568 10 18 309
160 272 0 563 8 26 295
162 268 0 576 7 19 306
164 262 0 579 8 19 289
166 253 0 586 9 26 297
168 257 0 587 4 25 295
170 255 0 584 3 27 295
172 248 0 578 8 32 289
174 243 0 590 10 27 304
176 238 0 595 14 27 301
178 242 0 605 4 22 305
180 236 0 597 5 32 292
182 233 0 613 3 20 305
184 225 0 619 10 31 303
186 223 0 629 4 15 299
188 217 0 623 8 29 294
190 214 0 627 6 24 298
192 208 0 628 8 30 300
194 201 0 638 7 26 303
196 199 0 652 6 18 279
198 194 0 628 7 29 306
200 183 0 631 11 30 289
