0 638 0 0 0 0 316
2 615 0 0 11 0 297
4.00004 605 0 0 13 0 295
6 578 0 0 11 0 308
8 560 0 0 16 0 301
10 554 0 0 13 0 293
12 540 0 0 11 0 312
14 531 0 0 10 0 291
16 518 0 0 15 0 289
18 496 0 0 14 0 315
20 504 0 0 11 0 316
22 493 0 0 10 0 291
24 482 0 0 13 0 307
26 469 0 0 15 0 300
28 471 0 0 12 0 294
30 470 0 0 14 0 295
32 472 0 0 19 0 294
34 464 0 0 15 0 302
36 465 0 0 12 0 295
38 457 0 0 11 0 298
40 457 0 0 11 0 291
42 452 0 0 12 0 299
44 467 0 0 7 0 302
46 449 0 0 8 0 297
48 427 0 0 14 0 309
50 418 0 0 13 0 310
52 423 0 0 7 0 290
54 417 0 5 13 0 303
56 399 0 11 13 1 296
58 400 0 15 8 3 307
60 393 0 18 10 1 324
62 378 0 27 12 1 295
64 366 0 31 7 5 297
66 358 0 46 4 2 303
68 348 0 51 3 3 296
70 336 0 60 8 2 293
72 323 0 65 8 2 304
74 323 0 73 8 3 299
76 312 0 83 6 6 303
78 300 0 88 7 4 298
80 284 0 96 5 4 298
82 271 0 96 3 3 297
84 259 0 105 7 2 312
86 253 0 103 2 2 298
88 247 0 103 3 5 316
90 238 0 115 7 2 300
92 234 0 122 2 2 299
94 211 0 125 6 8 292
96 206 0 137 4 5 310
98 194 0 152 5 9 298
100 180 0 159 5 8 289
102 180 0 165 3 10 298
104 173 0 185 3 8 292
106 161 0 193 4 5 287
108 159 0 202 5 8 298
110 159 0 209 4 5 299
112 158 0 214 5 10 303
114 157 0 211 1 6 301
116 139 0 219 7 7 297
118 136 0 229 3 3 304
120 131 0 235 0 8 308
122 125 0 244 3 6 300
124 115 0 254 4 6 307
126 111 0 248 1 7 283
128 107 0 246 0 7 295
130 101 0 262 0 2 296
132 95 0 268 4 5 289
134 91 0 268 1 9 311
136 88 0 276 2 7 298
138 86 0 272 1 8 300
140 81 0 279 2 5 301
142 75 0 282 1 9 294
144 74 0 286 0 6 312
146 70 0 296 2 7 320
148 69 0 288 3 12 300
150 69 0 304 1 10 308
152 64 0 291 3 12 296
154 64 0 303 2 8 301
156 58 0 304 3 7 290
158 54 0 303 0 2 298
160 56 0 304 0 6 304
162 51 0 300 1 11 302
164 51 0 324 0 10 296
166 53 0 331 0 8 289
168 49 0 327 2 13 301
170 46 0 329 1 8 299
172 43 0 328 0 8 293
174 42 0 324 1 8 290
176 43 0 323 1 8 293
178 44 0 317 0 12 291
180 42 0 319 0 10 312
182 40 0 322 1 8 298
184 36 0 320 2 9 306
186 35 0 318 1 3 298
188 34 0 320 0 13 302
190 31 0 319 1 9 317
192 31 0 320 0 6 284
194 27 0 315 2 6 303
196 25 0 318 0 10 291
198 22 0 329 1 6 302
200 21 0 332 0 9 289
