0 1542 0 0 0 0 306
2 1445 16 0 11 0 298
4.00004 1405 11 0 8 0 309
6 1355 5 0 10 0 296
8 1325 9 0 13 0 310
10 1292 11 0 8 0 298
12 1256 7 0 9 0 308
14 1232 10 0 6 0 291
16 1202 4 0 14 0 298
18 1170 10 0 9 0 303
20 1157 8 0 12 0 305
22 1123 9 0 8 0 288
24 1106 7 0 19 0 311
26 1088 8 0 10 0 302
28 1088 5 0 5 0 307
30 1068 7 0 13 0 303
32 1050 6 0 13 0 306
34 1055 3 0 8 0 296
36 1054 7 0 9 0 312
38 1046 3 0 9 0 294
40 1020 6 0 17 0 299
42 1014 8 0 8 0 304
44 1018 6 0 14 0 300
46 1013 6 0 6 0 295
48 999 3 0 15 0 303
50 1008 9 0 11 0 317
52 866 3 151 12 0 302
54 770 0 229 14 2 304
56 670 0 306 13 2 297
58 593 1 367 8 4 296
60 541 0 406 10 4 290
62 498 0 451 8 3 291
64 453 0 485 11 2 302
66 420 0 527 7 5 297
68 390 0 546 6 5 309
70 355 0 567 5 6 293
72 338 0 590 8 1 304
74 320 0 615 6 0 285
76 289 1 634 10 10 290
78 280 0 643 8 4 310
80 259 0 658 5 6 294
82 232 0 667 6 5 306
84 218 0 678 7 3 299
86 233 0 663 7 9 311
88 228 0 686 4 7 300
90 210 0 705 9 6 296
92 229 0 703 4 4 313
94 221 0 723 10 4 312
96 219 0 715 8 10 308
98 205 0 708 8 4 308
100 205 0 727 4 8 304
102 205 0 728 6 7 310
104 201 0 742 2 7 302
106 179 0 744 5 9 291
108 188 0 739 4 8 300
110 170 0 760 2 2 291
112 152 0 777 5 6 299
114 145 0 785 4 11 291
116 147 0 800 2 5 300
118 142 0 801 6 11 289
120 123 0 800 3 8 291
122 126 0 798 2 7 316
124 120 0 786 4 10 309
126 112 0 781 0 13 306
128 110 0 779 3 11 306
130 107 0 778 5 8 296
132 109 0 783 2 13 314
134 110 0 794 2 7 301
136 103 0 785 2 11 306
138 100 0 777 2 10 304
140 95 0 773 5 10 294
142 93 0 768 3 10 295
144 86 0 779 2 7 301
146 88 1 782 2 11 288
148 96 0 777 2 11 311
150 95 0 798 1 7 296
152 85 0 820 4 6 291
154 73 0 839 0 11 299
156 79 0 838 4 7 313
158 76 0 838 3 12 307
160 74 0 843 1 6 291
162 70 0 848 0 11 300
164 74 0 849 2 12 308
166 64 0 862 1 7 297
168 66 0 850 5 12 317
170 64 0 854 1 17 297
172 59 0 857 1 12 292
174 60 0 857 2 7 296
176 63 0 856 1 10 306
178 56 0 861 2 10 292
180 49 0 868 1 7 326
182 52 0 884 3 15 306
184 48 0 875 1 11 313
186 50 0 861 0 11 303
188 42 0 858 4 13 304
190 43 0 864 0 12 290
192 45 0 860 2 11 300
194 40 0 878 2 15 296
196 38 0 868 2 15 307
198 38 0 867 1 13 305
200 42 0 876 2 14 310
