0 1623 0 0 0 0 312
2 1621 13 0 19 0 294
4.00004 1641 18 0 23 0 313
6 1655 15 0 24 0 296
8 1673 9 0 18 0 298
10 1684 10 0 16 0 290
12 1697 3 0 25 0 302
14 1707 9 0 15 0 286
16 1691 10 0 23 0 292
18 1690 12 0 24 0 294
20 1697 8 0 23 0 299
22 1706 10 0 19 0 298
24 1710 12 0 15 0 288
26 1707 9 0 25 0 296
28 1710 7 0 20 0 300
30 1700 16 0 18 0 303
32 1707 6 0 24 0 298
34 1710 12 0 19 0 295
36 1702 12 0 22 0 305
38 1698 13 0 26 0 297
40 1697 14 0 21 0 303
42 1695 12 0 27 0 286
44 1725 10 0 20 0 302
46 1722 12 0 21 0 319
48 1724 9 0 27 0 296
50 1735 12 0 21 0 301
52 1496 1 242 23 0 290
54 1356 0 382 19 1 306
56 1226 0 512 23 5 292
58 1101 0 645 17 5 293
60 986 1 757 15 5 303
62 896 0 855 14 7 286
64 810 1 938 13 17 311
66 744 0 1021 9 12 298
68 670 0 1092 6 12 320
70 615 0 1136 12 15 288
72 568 0 1194 4 11 293
74 511 0 1252 4 14 300
76 455 1 1315 2 10 300
78 413 0 1346 6 16 298
80 379 0 1377 6 17 316
82 348 0 1416 3 21 297
84 303 0 1462 5 14 307
86 282 1 1484 6 11 298
88 251 0 1507 2 15 310
90 242 0 1526 2 9 304
92 220 0 1533 5 20 301
94 194 0 1542 5 22 291
96 182 0 1569 3 16 303
98 171 1 1583 1 16 289
100 144 0 1607 2 12 292
102 137 0 1617 0 18 297
104 121 0 1640 3 19 302
106 109 0 1645 1 23 300
108 106 0 1656 0 14 307
110 102 0 1657 0 10 299
112 90 0 1664 1 17 296
114 83 0 1673 2 16 298
116 80 0 1678 1 19 308
118 73 0 1683 0 18 295
120 65 0 1690 0 14 295
122 52 0 1701 0 18 305
124 46 0 1704 0 21 285
126 40 0 1711 1 17 297
128 34 0 1728 0 14 291
130 30 0 1725 0 15 303
132 28 0 1723 0 23 298
134 26 0 1729 1 22 290
136 24 0 1723 1 24 309
138 23 0 1717 1 26 299
140 26 0 1728 0 14 299
142 20 0 1739 0 12 305
144 17 0 1730 1 24 310
146 16 0 1743 0 10 308
148 11 0 1745 0 24 298
150 11 0 1741 1 15 301
152 11 0 1748 0 19 300
154 10 0 1763 0 13 299
156 9 0 1757 0 22 309
158 9 0 1758 0 22 310
160 8 0 1754 1 21 303
162 8 0 1761 0 18 288
164 7 0 1738 0 29 285
166 6 0 1744 0 20 296
168 6 0 1741 0 21 294
170 6 0 1738 0 24 312
172 6 0 1735 0 24 300
174 6 0 1742 0 20 295
176 5 0 1737 0 25 293
178 5 0 1751 0 17 304
180 5 0 1753 0 16 291
182 5 0 1749 0 24 300
184 4 0 1762 0 14 310
186 4 0 1759 0 14 306
188 4 0 1753 0 21 303
190 3 0 1754 0 22 299
192 3 0 1761 0 16 285
194 3 0 1763 0 23 310
196 3 0 1749 0 22 291
198 3 0 1752 0 23 295
200 2 0 1755 0 24 300
