0 1410 0 0 0 0 285
2 1370 17 0 23 0 306
4.00004 1368 5 0 22 0 299
6 1359 13 0 21 0 297
8 1346 15 0 22 0 302
10 1340 11 0 28 0 288
12 1350 8 0 19 0 307
14 1344 11 0 21 0 305
16 1360 6 0 20 0 294
18 1359 8 0 13 0 292
20 1371 4 0 15 0 301
22 1364 9 0 14 0 296
24 1339 14 0 19 0 307
26 1339 8 0 19 0 299
28 1339 8 0 19 0 320
30 1344 15 0 7 0 314
32 1341 8 0 18 0 304
34 1340 4 0 12 0 318
36 1330 11 0 9 0 292
38 1321 13 0 15 0 313
40 1311 7 0 24 0 310
42 1312 13 0 17 0 305
44 1311 3 0 21 0 301
46 1307 14 0 14 0 297
48 1299 9 0 12 0 297
50 1283 17 0 15 0 306
52 1080 0 217 11 3 311
54 917 0 367 15 2 325
56 799 0 483 13 3 298
58 705 0 579 12 3 302
60 608 0 674 12 3 301
62 550 0 738 5 5 298
64 476 0 798 9 15 296
66 437 0 854 7 8 291
68 390 0 896 5 10 286
70 348 0 937 7 8 294
72 321 0 960 2 16 305
74 287 0 993 8 10 301
76 257 0 1028 3 12 297
78 235 0 1044 4 15 297
80 207 0 1065 6 12 317
82 196 0 1083 3 10 307
84 174 0 1098 3 13 314
86 151 0 1111 5 12 318
88 135 0 1117 2 15 317
90 140 0 1127 4 7 289
92 118 0 1143 0 11 289
94 106 0 1143 1 9 298
96 106 0 1132 2 22 302
98 97 0 1149 4 15 311
100 87 0 1156 2 14 299
102 77 0 1157 1 17 304
104 76 0 1156 1 13 310
106 72 0 1156 1 16 295
108 72 0 1161 1 15 298
110 67 0 1180 2 10 299
112 63 0 1184 1 12 299
114 59 0 1174 2 21 298
116 62 0 1183 2 10 291
118 68 0 1173 2 17 295
120 64 0 1171 4 14 293
122 64 0 1172 3 13 293
124 60 0 1171 2 16 305
126 56 0 1173 2 19 308
128 53 0 1178 0 19 311
130 49 0 1172 3 19 303
132 49 0 1180 2 12 287
134 53 0 1177 1 13 304
136 51 0 1184 0 13 285
138 50 0 1195 2 12 286
140 52 0 1188 2 15 291
142 46 0 1178 0 19 300
144 45 0 1180 2 11 305
146 45 0 1168 1 18 306
148 40 0 1171 1 18 303
150 39 0 1166 4 17 295
152 43 0 1160 2 19 311
154 48 0 1164 0 16 300
156 41 0 1162 0 17 300
158 37 0 1159 2 17 298
160 37 0 1148 1 15 304
162 40 0 1135 0 22 294
164 36 0 1130 2 20 306
166 36 0 1148 2 13 296
168 43 0 1134 2 13 303
170 46 0 1119 3 15 296
172 43 0 1127 7 13 304
174 51 0 1128 0 22 299
176 50 0 1140 1 17 299
178 41 0 1148 0 19 304
180 34 0 1163 0 15 311
182 29 0 1173 1 9 302
184 34 0 1168 1 12 285
186 36 0 1170 0 18 316
188 36 0 1177 1 14 297
190 32 0 1184 1 16 294
192 33 0 1182 3 17 294
194 35 0 1181 2 17 305
196 36 0 1188 0 14 300
198 37 0 1182 1 15 305
200 33 0 1189 2 11 305
