0 1245 0 0 0 0 304
2 1218 7 0 12 0 301
4.00004 1211 5 0 19 0 298
6 1205 7 0 22 0 304
8 1193 10 0 20 0 314
10 1190 9 0 18 0 290
12 1185 6 0 18 0 303
14 1175 10 0 18 0 312
16 1183 4 0 23 0 309
18 1173 10 0 28 0 300
20 1186 7 0 21 0 304
22 1174 16 0 12 0 295
24 1189 9 0 19 0 301
26 1199 4 0 22 0 302
28 1197 6 0 22 0 302
30 1187 5 0 20 0 294
32 1181 11 0 26 0 297
34 1205 6 0 16 0 306
36 1198 13 0 8 0 302
38 1195 7 0 16 0 310
40 1195 3 0 20 0 303
42 1180 14 0 17 0 294
44 1182 10 0 18 0 301
46 1191 5 0 18 0 287
48 1176 8 0 20 0 307
50 1185 6 0 14 0 311
52 1035 0 142 15 0 302
54 921 1 257 11 0 305
56 844 0 337 11 2 298
58 749 0 429 11 6 302
60 681 0 495 14 6 297
62 603 0 559 10 7 305
64 555 0 602 7 11 287
66 512 1 660 9 8 288
68 462 0 709 6 10 299
70 426 0 745 9 12 318
72 385 1 782 12 12 287
74 354 0 823 6 9 282
76 328 0 851 6 9 308
78 301 0 877 2 7 308
80 279 0 889 5 14 299
82 260 0 913 7 11 282
84 252 0 927 3 14 294
86 223 0 960 5 10 303
88 212 0 970 7 14 289
90 196 0 988 5 10 303
92 180 0 992 2 18 314
94 165 0 1005 3 15 306
96 157 0 1009 3 17 302
98 158 0 1001 5 19 309
100 145 0 1010 7 14 300
102 145 0 1003 2 17 310
104 137 0 1016 3 19 311
106 128 0 1027 2 13 284
108 119 1 1024 7 20 294
110 109 0 1037 6 17 305
112 108 0 1043 2 12 312
114 98 0 1047 3 14 293
116 98 0 1048 0 14 304
118 87 0 1043 4 14 297
120 89 0 1047 2 9 299
122 95 0 1028 2 24 321
124 87 0 1030 3 21 294
126 86 0 1030 4 26 292
128 81 0 1028 3 17 292
130 70 0 1029 2 23 296
132 78 0 1039 2 12 311
134 77 0 1026 2 24 298
136 69 0 1041 3 19 287
138 70 0 1040 0 12 310
140 64 0 1045 0 12 298
142 65 0 1039 2 15 306
144 68 0 1049 5 17 296
146 70 0 1037 1 29 282
148 72 0 1048 0 17 311
150 74 0 1047 2 20 291
152 67 0 1055 4 13 301
154 60 0 1057 2 16 300
156 61 0 1060 3 10 294
158 60 1 1057 3 19 302
160 56 0 1058 2 20 299
162 49 0 1063 4 18 301
164 58 0 1059 2 16 302
166 62 0 1055 1 19 305
168 64 0 1043 2 22 302
170 62 0 1038 2 21 313
172 57 0 1049 3 14 291
174 47 0 1061 6 17 309
176 52 0 1045 1 32 304
178 51 0 1065 2 13 296
180 51 0 1056 2 11 300
182 52 0 1051 2 12 300
184 48 0 1044 1 12 304
186 41 0 1031 4 23 302
188 48 0 1039 1 23 299
190 43 0 1046 2 24 291
192 36 0 1047 2 21 304
194 35 0 1061 2 15 314
196 38 0 1061 2 11 300
198 36 0 1042 2 20 297
200 35 0 1044 0 27 314
