0 89 0 0 0
2 88 0 0 0
4.00004 90 0 0 0
6 90 0 0 0
8 90 0 0 0
10 90 0 0 0
12 75 15 0 0
14 59 31 0 0
16 48 43 0 0
18 42 48 0 0
20 38 52 0 0
22 37 54 0 0
24 31 59 0 0
26 25 65 0 0
28 18 71 0 0
30 15 74 0 0
32 10 79 0 0
34 9 79 0 0
36 10 79 0 0
38 10 79 0 0
40 9 80 0 0
42 11 80 0 0
44 10 81 0 0
46 7 84 0 0
48 6 85 0 0
50 5 87 0 0
52 4 88 0 0
54 4 88 0 0
56 3 89 0 0
58 2 90 0 0
60 2 90 0 0
62 2 90 0 0
64 1 91 0 0
66 1 91 0 0
68 1 91 0 0
70 1 90 0 0
72 1 90 0 0
74 1 90 0 0
76 1 90 0 0
78 1 90 0 0
80 1 90 0 0
82 1 90 0 0
84 1 90 0 0
86 1 90 0 0
88 1 90 0 0
90 1 89 0 0
92 0 90 0 0
94 0 90 0 0
96 0 90 0 0
98 0 89 0 1
100 0 89 0 0
102 0 89 0 0
104 0 89 0 0
106 0 88 0 1
108 0 89 0 0
110 1 89 0 0
112 1 89 0 0
114 0 90 0 0
116 0 89 0 0
118 1 89 0 0
120 0 89 0 0
122 0 89 0 0
124 0 88 0 0
126 0 88 0 0
128 0 89 0 0
130 0 89 0 0
132 0 88 0 0
134 0 88 0 0
136 0 88 0 0
138 0 88 0 0
140 0 88 0 0
142 1 88 0 0
144 1 88 0 0
146 1 87 0 1
148 1 88 0 0
150 0 89 0 0
152 1 89 0 0
154 1 89 0 0
156 1 88 0 0
158 1 88 0 0
160 1 88 0 0
162 1 88 0 0
164 1 88 0 0
166 1 87 0 0
168 1 88 0 0
170 1 88 0 0
172 1 90 0 0
174 2 90 0 0
176 1 91 0 0
178 1 92 0 0
180 2 91 0 0
182 3 91 0 0
184 3 91 0 0
186 1 93 0 0
188 1 93 0 0
190 2 93 0 0
192 2 93 0 0
194 2 93 0 0
196 1 94 0 0
198 1 94 0 0
200 1 94 0 0
202 1 94 0 0
204 1 94 0 0
206 2 93 0 1
208 2 94 0 0
210 3 94 0 0
