0 81 0 0 0
2 81 0 0 0
4.00004 81 0 0 0
6 81 0 0 0
8 81 0 0 0
10 81 0 0 0
12 71 10 0 0
14 64 17 0 0
16 56 25 0 0
18 47 34 0 0
20 46 35 0 0
22 44 37 0 0
24 40 42 0 0
26 34 48 0 0
28 28 54 0 0
30 25 57 0 0
32 24 59 0 0
34 19 64 0 0
36 17 66 0 0
38 16 67 0 0
40 16 68 0 0
42 16 68 0 0
44 12 72 0 0
46 10 74 0 0
48 9 74 0 0
50 9 74 0 0
52 8 75 0 0
54 6 77 0 0
56 6 77 0 0
58 4 79 0 0
60 5 79 0 0
62 4 80 0 0
64 4 80 0 0
66 4 80 0 0
68 3 81 0 0
70 3 81 0 0
72 3 81 0 0
74 3 81 0 0
76 3 81 0 0
78 3 81 0 0
80 3 80 0 0
82 3 80 0 0
84 3 80 0 0
86 3 80 0 0
88 3 80 0 0
90 3 80 0 0
92 3 80 0 0
94 3 80 0 0
96 2 81 0 0
98 2 80 0 0
100 2 80 0 0
102 2 80 0 0
104 2 79 0 1
106 2 79 0 0
108 1 80 0 0
110 0 81 0 0
112 0 81 0 0
114 0 81 0 0
116 0 81 0 0
118 0 81 0 0
120 0 80 0 1
122 0 81 0 0
124 0 81 0 0
126 0 81 0 0
128 0 81 0 0
130 0 81 0 0
132 0 81 0 0
134 0 81 0 0
136 0 81 0 0
138 0 80 0 1
140 0 80 0 0
142 0 80 0 0
144 0 80 0 0
146 0 80 0 0
148 0 80 0 0
150 0 80 0 0
152 1 80 0 0
154 1 80 0 0
156 1 80 0 0
158 1 80 0 0
160 2 80 0 0
162 2 81 0 0
164 2 81 0 0
166 2 80 0 0
168 2 80 0 0
170 2 80 0 0
172 2 80 0 0
174 2 80 0 0
176 1 81 0 0
178 2 81 0 0
180 2 80 0 0
182 2 80 0 0
184 2 80 0 0
186 2 80 0 0
188 2 80 0 0
190 2 79 0 0
192 2 79 0 0
194 1 80 0 0
196 1 80 0 0
198 1 80 0 0
200 0 81 0 0
202 0 81 0 0
204 0 80 0 0
206 0 79 0 0
208 0 79 0 0
210 0 80 0 0
