0 63 0 0 0
2 64 0 0 0
4.00004 64 0 0 0
6 64 0 0 0
8 64 0 0 0
10 65 0 0 0
12 65 0 0 0
14 65 0 0 0
16 65 0 0 0
18 64 0 0 0
20 64 0 0 0
22 64 0 0 0
24 64 0 0 0
26 64 0 0 0
28 64 0 0 0
30 64 0 0 0
32 64 0 0 0
34 65 0 0 0
36 65 0 0 0
38 65 0 0 0
40 65 0 0 0
42 65 0 0 0
44 65 1 0 0
46 64 1 1 0
48 65 2 0 0
50 65 3 0 0
52 65 3 0 0
54 65 3 0 0
56 65 3 0 0
58 65 3 0 0
60 65 3 0 0
62 65 3 0 0
64 65 3 0 0
66 65 4 0 0
68 65 4 0 0
70 65 4 0 0
72 65 4 0 0
74 65 4 0 0
76 65 4 0 0
78 65 4 0 0
80 64 4 0 1
82 64 5 0 0
84 64 5 0 0
86 64 5 0 0
88 63 5 0 0
90 63 5 0 0
92 63 5 0 0
94 63 5 0 0
96 63 5 0 0
98 63 5 0 0
100 63 5 0 0
102 63 5 0 0
104 63 5 0 0
106 62 5 0 0
108 62 5 0 0
110 62 5 0 0
112 61 4 1 1
114 61 5 0 0
116 61 5 0 0
118 61 5 0 0
120 60 5 0 0
122 60 5 0 0
124 60 5 0 0
126 60 5 0 0
128 60 6 0 0
130 60 6 0 0
132 60 6 0 0
134 59 6 0 0
136 59 6 0 0
138 58 5 1 0
140 59 5 0 0
142 58 5 0 0
144 59 5 0 0
146 59 5 0 0
148 59 5 0 0
150 59 6 0 0
152 59 6 0 0
154 59 6 0 0
156 59 6 0 0
158 59 6 0 0
160 58 6 1 0
162 59 6 0 0
164 59 6 0 0
166 59 6 0 0
168 59 6 0 0
170 59 6 0 0
172 59 6 0 0
174 59 6 0 0
176 59 6 0 0
178 59 6 0 0
180 59 6 0 0
182 59 6 0 0
184 58 6 1 0
186 59 6 0 0
188 59 6 0 0
190 59 6 0 0
192 59 6 0 0
194 59 6 0 0
196 59 6 0 0
198 59 6 0 0
200 59 6 0 0
202 59 6 0 0
204 59 6 0 0
206 59 6 0 0
208 59 6 0 0
210 59 6 0 0
