0 61 0 0 0
2 61 0 0 0
4.00004 61 0 0 0
6 60 0 0 0
8 60 0 0 0
10 60 0 0 0
12 60 0 0 0
14 60 0 0 0
16 60 0 0 0
18 59 0 0 0
20 59 0 0 0
22 59 0 0 0
24 59 0 0 0
26 59 0 0 0
28 59 1 0 0
30 58 1 0 0
32 58 1 0 0
34 58 1 0 0
36 58 1 0 0
38 57 1 0 0
40 57 1 0 0
42 57 1 0 0
44 57 2 0 0
46 57 2 0 0
48 56 2 0 0
50 56 2 0 0
52 56 2 0 0
54 55 2 0 0
56 55 2 0 0
58 55 2 0 0
60 55 2 0 0
62 55 2 0 0
64 55 2 0 0
66 55 3 0 0
68 55 3 0 0
70 55 3 0 0
72 55 3 0 0
74 55 3 0 0
76 55 3 0 0
78 55 3 0 0
80 55 3 0 0
82 55 3 0 0
84 55 3 0 0
86 55 4 0 0
88 55 4 0 0
90 55 4 0 0
92 55 5 0 0
94 55 5 0 0
96 55 5 0 0
98 55 5 0 0
100 55 5 0 0
102 55 5 0 0
104 55 5 0 0
106 55 6 0 0
108 55 6 0 0
110 55 7 0 0
112 55 7 0 0
114 55 7 0 0
116 55 7 0 0
118 55 7 0 0
120 55 7 0 0
122 55 7 0 0
124 55 7 0 0
126 55 7 0 0
128 55 7 0 0
130 55 7 0 0
132 55 7 0 0
134 55 8 0 0
136 55 8 0 0
138 55 8 0 0
140 55 8 0 0
142 54 8 1 0
144 55 9 0 0
146 55 9 0 0
148 55 9 0 0
150 55 8 0 0
152 55 8 0 0
154 55 8 0 0
156 55 9 0 0
158 55 9 0 0
160 55 9 0 0
162 55 9 0 0
164 55 10 0 0
166 55 10 0 0
168 54 10 0 0
170 54 10 0 0
172 54 10 0 0
174 54 10 0 0
176 52 10 0 0
178 52 10 0 0
180 52 10 0 0
182 52 10 0 0
184 52 11 0 0
186 52 11 0 0
188 52 11 0 0
190 52 11 0 0
192 52 12 0 0
194 52 12 0 0
196 52 12 0 0
198 52 13 0 0
200 52 13 0 0
202 52 14 0 0
204 52 15 0 0
206 51 15 0 0
208 51 15 0 0
210 51 15 0 0
