0 82 0 0 0
2 84 0 0 0
4.00004 84 0 0 0
6 83 0 0 0
8 83 0 0 0
10 83 0 0 0
12 72 11 0 0
14 62 21 0 0
16 58 25 0 0
18 53 30 0 0
20 50 33 0 0
22 44 39 0 0
24 38 45 0 0
26 35 48 0 0
28 30 53 0 0
30 28 55 0 0
32 27 56 0 0
34 25 58 0 0
36 21 62 0 0
38 18 65 0 0
40 18 65 0 0
42 17 66 0 0
44 16 67 0 0
46 12 71 0 0
48 10 73 0 0
50 8 75 0 0
52 8 75 0 0
54 8 75 0 0
56 6 77 0 0
58 4 79 0 0
60 4 79 0 0
62 4 79 0 0
64 4 79 0 0
66 2 81 0 0
68 1 82 0 0
70 1 82 0 0
72 0 83 0 0
74 0 83 0 0
76 0 83 0 0
78 0 83 0 0
80 0 83 0 0
82 0 83 0 0
84 0 83 0 0
86 1 83 0 0
88 1 83 0 0
90 1 83 0 0
92 1 83 0 0
94 1 83 0 0
96 0 84 0 0
98 0 84 0 0
100 0 84 0 0
102 0 84 0 0
104 0 83 0 0
106 0 83 0 0
108 0 83 0 0
110 0 83 0 0
112 0 83 0 0
114 0 83 0 0
116 0 83 0 0
118 0 83 0 0
120 0 83 0 0
122 0 83 0 0
124 0 83 0 0
126 0 83 0 0
128 0 83 0 0
130 0 83 0 0
132 0 83 0 0
134 0 83 0 0
136 0 83 0 0
138 0 83 0 0
140 0 83 0 0
142 0 83 0 0
144 0 83 0 0
146 0 83 0 0
148 0 83 0 0
150 0 82 0 0
152 0 83 0 0
154 0 83 0 0
156 0 83 0 0
158 1 83 0 0
160 1 83 0 0
162 1 83 0 0
164 1 83 0 0
166 1 83 0 0
168 1 83 0 0
170 1 83 0 0
172 2 83 0 0
174 2 83 0 0
176 2 83 0 0
178 2 83 0 0
180 2 83 0 0
182 2 83 0 0
184 2 82 0 0
186 1 83 0 0
188 1 83 0 0
190 1 82 0 0
192 1 82 0 0
194 0 83 0 0
196 0 83 0 0
198 0 83 0 0
200 0 82 0 0
202 0 82 0 0
204 0 82 0 0
206 0 82 0 0
208 0 82 0 0
210 0 82 0 0
