0 865 0 0 0 0
2 832 0 0 36 0
4.00004 806 0 0 60 0
6 793 0 0 72 0
8 797 0 0 73 0
10 783 0 0 83 0
12 776 0 0 92 0
14 772 0 0 94 0
16 769 0 0 98 0
18 774 0 0 86 0
20 782 0 0 76 0
22 781 0 0 73 0
24 785 0 0 80 0
26 774 0 0 88 0
28 779 0 0 82 0
30 772 0 0 96 0
32 772 0 0 98 0
34 775 0 0 94 0
36 764 0 0 106 0
38 761 0 0 104 0
40 764 0 0 96 0
42 765 0 0 89 0
44 763 0 0 96 0
46 752 0 0 96 0
48 757 0 0 96 0
50 766 0 0 82 0
52 768 0 0 94 0
54 774 0 0 83 1
56 769 0 0 90 1
58 771 0 0 87 1
60 746 0 1 101 2
62 756 0 1 88 3
64 753 0 1 95 4
66 763 0 2 81 3
68 772 0 2 80 4
70 770 0 1 80 9
72 763 0 3 80 9
74 749 0 4 91 10
76 746 0 6 88 12
78 746 0 4 93 17
80 748 0 6 90 18
82 749 0 10 82 20
84 757 0 11 78 18
86 760 0 16 70 13
88 743 0 17 87 16
90 751 0 19 71 14
92 743 0 20 74 13
94 737 0 25 78 15
96 730 0 29 78 13
98 733 0 35 73 12
100 727 0 37 78 8
102 731 0 39 69 13
104 717 0 39 77 19
106 720 0 41 65 17
108 704 0 45 79 20
110 714 0 49 65 20
112 719 0 47 58 23
114 707 0 47 60 32
116 720 0 51 46 23
118 704 0 52 58 26
120 704 0 57 59 24
122 700 0 58 62 24
124 697 0 62 65 33
126 696 0 65 60 36
128 685 0 69 62 26
130 689 0 72 54 41
132 679 0 81 62 26
134 686 0 84 50 28
136 663 0 88 68 31
138 663 0 93 62 31
140 662 0 101 60 25
142 660 0 101 60 35
144 656 0 107 63 28
146 645 0 110 71 32
148 649 0 115 59 30
150 649 0 118 57 28
152 648 0 118 48 31
154 647 0 119 55 33
156 637 0 125 57 21
158 628 0 123 63 29
160 627 0 127 65 24
162 629 0 127 55 31
164 620 0 130 64 32
166 618 0 132 57 36
168 606 0 135 63 38
170 613 0 142 55 34
172 616 0 147 52 36
174 614 0 148 50 49
176 611 0 156 50 36
178 600 0 157 56 30
180 593 0 159 59 37
182 586 0 168 65 31
184 587 0 173 58 24
186 582 0 172 61 29
188 587 0 174 52 28
190 584 0 177 52 32
192 585 0 175 46 34
194 582 0 178 51 35
196 576 0 178 53 36
198 567 0 182 55 32
200 566 0 181 52 32
