0 1189 0 0 0 0
2 1127 6 0 56 0
4.00004 1127 3 0 68 0
6 1126 1 0 64 0
8 1115 8 0 56 0
10 1103 3 0 68 0
12 1096 8 0 67 0
14 1095 2 0 75 0
16 1085 4 0 84 0
18 1087 7 0 73 0
20 1090 4 0 66 0
22 1087 1 0 77 0
24 1075 10 0 65 0
26 1072 9 0 76 0
28 1080 3 0 67 0
30 1069 6 0 67 0
32 1073 7 0 61 0
34 1052 7 0 88 0
36 1044 6 0 86 0
38 1038 6 0 87 0
40 1036 7 0 81 0
42 1041 3 0 79 0
44 1031 4 0 78 0
46 1030 1 0 77 0
48 1040 5 0 67 0
50 1033 9 0 67 0
52 913 0 122 74 2
54 818 0 213 74 5
56 728 0 308 60 4
58 665 0 366 63 10
60 593 0 430 59 14
62 538 0 474 62 17
64 491 0 515 62 25
66 449 0 554 51 31
68 411 0 598 44 27
70 365 0 635 55 38
72 345 0 669 41 32
74 319 0 692 38 34
76 288 0 722 41 25
78 266 0 734 34 38
80 246 0 742 31 44
82 217 0 766 35 40
84 205 0 779 31 32
86 200 0 779 27 43
88 178 0 802 30 37
90 169 0 812 34 46
92 156 0 828 31 39
94 144 0 832 34 42
96 142 0 828 24 50
98 130 0 841 28 49
100 127 0 852 26 39
102 121 0 851 27 48
104 125 0 859 15 47
106 122 0 876 12 30
108 112 0 877 16 40
110 99 0 875 17 42
112 98 0 865 15 48
114 95 0 858 18 58
116 87 0 873 17 51
118 82 0 875 18 45
120 82 0 870 15 51
122 84 0 854 18 63
124 78 0 865 20 45
126 68 0 850 22 60
128 70 0 855 19 51
130 65 0 857 21 52
132 67 0 858 19 50
134 64 0 854 24 57
136 68 0 854 18 53
138 57 0 854 21 63
140 63 0 862 14 59
142 64 0 867 20 53
144 52 0 876 19 53
146 47 0 877 22 48
148 47 0 873 16 53
150 49 0 886 17 45
152 49 0 877 19 59
154 49 0 875 14 61
156 50 0 875 19 63
158 48 0 874 22 58
160 47 0 865 17 58
162 50 0 863 18 64
164 51 0 868 19 61
166 54 0 878 11 60
168 53 0 875 9 62
170 44 0 884 16 56
172 45 0 880 17 52
174 50 0 878 19 42
176 49 0 867 17 54
178 49 0 857 12 58
180 45 0 859 9 55
182 42 0 856 18 58
184 42 0 860 15 47
186 38 0 848 18 59
188 37 0 856 17 57
190 37 0 857 14 50
192 37 0 860 17 53
194 37 0 870 15 39
196 34 0 858 19 52
198 40 0 849 11 58
200 42 0 853 18 54
