0 895 0 0 0 0
2 853 0 0 35 0
4.00004 847 0 0 49 0
6 817 0 0 64 0
8 813 0 0 76 0
10 796 0 0 84 0
12 792 0 0 94 0
14 797 0 0 85 0
16 797 0 0 73 0
18 787 0 0 84 0
20 774 0 0 102 0
22 783 0 0 79 0
24 784 0 0 79 0
26 789 0 0 77 0
28 799 0 0 68 0
30 798 0 0 71 0
32 788 0 0 86 0
34 792 0 0 80 0
36 792 0 0 86 0
38 778 0 0 96 0
40 784 0 0 92 0
42 789 0 0 83 0
44 784 0 0 88 0
46 787 0 0 87 0
48 784 0 0 84 0
50 787 0 0 83 0
52 789 0 0 78 0
54 789 0 0 81 0
56 793 0 0 81 0
58 794 0 0 88 4
60 795 0 0 77 4
62 793 0 0 71 5
64 785 0 0 78 6
66 777 0 2 81 9
68 778 0 4 72 12
70 774 0 8 70 11
72 777 0 10 71 10
74 773 0 13 75 9
76 764 0 13 81 10
78 767 0 18 70 14
80 760 0 21 75 14
82 763 0 23 71 14
84 762 0 28 72 13
86 757 0 32 66 10
88 747 0 32 78 12
90 749 0 37 66 17
92 750 0 41 58 14
94 744 0 43 65 18
96 746 0 48 58 20
98 739 0 50 60 14
100 733 0 51 68 16
102 717 0 52 73 21
104 728 0 52 56 24
106 717 0 56 64 28
108 720 0 62 57 25
110 718 0 67 58 25
112 728 0 72 52 32
114 716 0 76 60 31
116 721 0 78 51 31
118 709 0 85 56 32
120 700 0 90 64 32
122 702 0 95 60 29
124 703 0 100 51 26
126 695 0 103 58 29
128 690 0 108 61 22
130 688 0 110 52 27
132 690 0 114 50 26
134 688 0 117 45 28
136 682 0 121 50 25
138 677 0 124 52 32
140 672 0 128 52 34
142 671 0 127 46 38
144 665 0 139 54 37
146 671 0 141 42 28
148 662 0 148 43 37
150 658 0 152 39 35
152 642 0 158 54 40
154 637 0 161 55 34
156 642 0 160 52 43
158 635 0 167 49 35
160 640 0 163 43 41
162 626 0 174 52 41
164 627 0 179 44 38
166 623 0 185 43 23
168 611 0 179 53 30
170 607 0 176 54 38
172 608 0 185 50 37
174 602 0 195 52 26
176 598 0 200 52 23
178 599 0 193 40 28
180 590 0 191 51 34
182 594 0 199 41 29
184 591 0 200 30 36
186 574 0 208 45 39
188 570 0 212 47 37
190 571 0 214 49 32
192 559 0 206 53 45
194 553 0 210 50 37
196 550 0 216 40 46
198 552 0 219 47 39
200 534 0 218 55 46
