0 711 0 0 0 0
2 674 0 0 37 0
4.00004 663 0 0 39 0
6 659 0 0 50 0
8 660 0 0 61 0
10 661 0 0 65 0
12 662 0 0 67 0
14 667 0 0 61 0
16 669 0 0 58 0
18 671 0 0 62 0
20 673 0 0 67 0
22 675 0 0 60 0
24 674 0 0 76 0
26 682 0 0 61 0
28 692 0 0 58 0
30 680 0 0 78 0
32 687 0 0 72 0
34 685 0 0 68 0
36 682 0 0 82 0
38 687 0 0 82 0
40 708 0 0 68 0
42 715 0 0 62 0
44 704 0 0 83 0
46 706 0 0 86 0
48 731 0 0 57 0
50 725 0 0 66 0
52 722 0 0 67 0
54 722 0 0 68 0
56 718 0 1 80 1
58 724 0 1 67 4
60 732 0 2 67 3
62 715 0 4 84 6
64 720 0 5 71 11
66 734 0 12 63 6
68 741 0 11 55 13
70 727 0 15 61 4
72 727 0 19 60 7
74 717 0 23 67 10
76 718 0 27 65 14
78 726 0 35 54 13
80 723 0 37 57 20
82 713 0 47 63 19
84 715 0 57 54 27
86 711 0 69 56 15
88 704 0 73 62 14
90 705 0 74 50 10
92 695 0 73 55 23
94 686 0 79 56 27
96 678 0 96 65 17
98 687 0 97 47 21
100 681 0 100 50 25
102 686 0 107 37 23
104 670 0 114 52 18
106 670 0 118 49 23
108 670 0 124 41 20
110 664 0 134 48 21
112 659 0 140 50 25
114 665 0 151 35 20
116 655 0 149 40 28
118 649 0 148 44 39
120 647 0 160 44 31
122 647 0 163 36 35
124 637 0 176 43 36
126 625 0 187 57 31
128 632 0 193 45 35
130 622 0 197 54 32
132 629 0 197 43 37
134 629 0 199 36 37
136 620 0 210 42 35
138 609 0 213 46 37
140 614 0 216 36 36
142 596 0 221 41 38
144 589 0 229 47 35
146 575 0 234 56 41
148 583 0 237 47 44
150 583 0 246 40 34
152 586 0 245 30 35
154 578 0 257 33 33
156 561 0 258 40 34
158 551 0 268 46 33
160 551 0 276 48 38
162 548 0 279 41 37
164 547 0 281 35 38
166 547 0 280 37 33
168 551 0 290 30 30
170 537 0 291 36 36
172 540 0 297 28 41
174 528 0 304 32 47
176 523 0 314 34 42
178 522 0 326 34 42
180 523 0 335 34 40
182 519 0 338 29 40
184 514 0 352 31 39
186 514 0 361 28 34
188 514 0 367 23 29
190 507 0 364 28 43
192 501 0 375 28 29
194 503 0 372 26 38
196 496 0 376 28 37
198 488 0 376 35 43
200 479 0 383 31 40
