0 928 0 0 0 0
2 893 0 0 42 0
4.00004 867 0 0 65 0
6 869 0 0 70 0
8 848 0 0 97 0
10 831 0 0 104 0
12 833 0 0 113 0
14 820 0 0 127 0
16 834 0 0 111 0
18 821 0 0 129 0
20 824 0 0 129 0
22 802 0 0 144 0
24 809 0 0 136 0
26 804 0 0 146 0
28 809 0 0 146 0
30 813 0 0 121 0
32 812 0 0 131 0
34 812 0 0 137 0
36 802 0 0 155 0
38 799 0 0 153 0
40 809 0 0 150 0
42 814 0 0 143 0
44 812 0 0 140 0
46 817 0 0 137 0
48 802 0 0 163 0
50 809 0 0 144 0
52 803 0 0 154 0
54 830 0 0 126 0
56 824 0 0 135 0
58 812 0 0 149 3
60 795 0 0 163 1
62 798 0 1 166 2
64 789 0 1 179 4
66 788 0 1 166 6
68 815 0 2 136 5
70 820 0 3 132 4
72 811 0 4 141 3
74 822 0 4 134 6
76 806 0 4 151 9
78 795 0 3 160 10
80 794 0 4 160 13
82 797 0 5 153 17
84 779 0 5 163 20
86 787 0 7 162 18
88 789 0 8 151 25
90 800 0 9 130 26
92 798 0 9 128 28
94 788 0 12 151 29
96 797 0 14 133 27
98 800 0 18 124 28
100 802 0 19 119 32
102 802 0 25 107 25
104 783 0 26 133 32
106 794 0 27 115 33
108 790 0 29 121 31
110 777 0 32 127 33
112 774 0 33 125 35
114 787 0 36 104 35
116 774 0 38 122 38
118 770 0 37 118 46
120 768 0 40 119 52
122 764 0 46 119 48
124 761 0 48 121 43
126 761 0 53 110 36
128 759 0 58 116 38
130 748 0 62 114 45
132 743 0 62 109 47
134 732 0 64 121 52
136 736 0 72 118 46
138 741 0 72 109 53
140 743 0 80 105 45
142 738 0 81 104 48
144 743 0 87 103 50
146 742 0 89 101 48
148 745 0 92 95 47
150 738 0 95 99 57
152 724 0 96 110 56
154 732 0 100 99 54
156 727 0 102 102 57
158 729 0 104 95 58
160 721 0 110 105 48
162 733 0 115 89 49
164 731 0 109 87 54
166 733 0 116 85 52
168 713 0 112 103 60
170 711 0 121 101 52
172 716 0 126 94 55
174 713 0 127 97 57
176 716 0 132 88 60
178 700 0 139 100 57
180 703 0 143 99 57
182 705 0 148 89 52
184 698 0 148 98 52
186 701 0 145 93 50
188 698 0 151 97 59
190 699 0 151 90 61
192 698 0 160 91 60
194 692 0 167 98 59
196 687 0 170 97 62
198 687 0 175 97 59
200 684 0 181 97 47
