0 848 0 0 0 0
2 785 0 0 58 0
4.00004 751 0 0 87 0
6 753 0 0 90 0
8 745 0 0 104 0
10 736 0 0 110 0
12 717 0 0 133 0
14 718 0 0 136 0
16 716 0 0 137 0
18 718 0 0 139 0
20 709 0 0 150 0
22 708 0 0 147 0
24 713 0 0 144 0
26 708 0 0 155 0
28 708 0 0 158 0
30 714 0 0 151 0
32 702 0 0 174 0
34 711 0 0 166 0
36 707 0 0 157 0
38 710 0 0 147 0
40 712 0 0 148 0
42 719 0 0 147 0
44 710 0 0 155 0
46 706 0 0 175 0
48 711 0 0 162 0
50 719 0 0 165 0
52 724 0 0 153 0
54 706 0 0 168 0
56 728 0 1 151 0
58 709 0 1 162 1
60 725 0 1 147 3
62 726 0 1 145 8
64 726 0 2 141 9
66 718 0 3 147 10
68 700 0 6 159 14
70 698 0 4 160 18
72 696 0 5 145 16
74 702 0 10 128 19
76 672 0 10 164 30
78 677 0 16 152 30
80 668 0 16 156 35
82 679 0 21 139 33
84 681 0 29 127 23
86 686 0 31 117 30
88 672 0 31 130 36
90 679 0 37 122 38
92 692 0 36 106 46
94 680 0 43 114 45
96 676 0 44 112 54
98 673 0 57 106 50
100 675 0 61 96 48
102 667 0 69 104 54
104 668 0 72 104 49
106 644 0 74 121 53
108 644 0 82 116 48
110 645 0 85 104 52
112 650 0 88 100 53
114 658 0 94 88 51
116 628 0 97 117 47
118 621 0 103 117 44
120 625 0 105 109 51
122 635 0 109 96 62
124 621 0 116 103 60
126 617 0 116 103 55
128 616 0 122 99 68
130 619 0 123 93 65
132 608 0 134 100 69
134 603 0 141 102 64
136 587 0 142 112 71
138 590 0 148 107 77
140 587 0 150 105 76
142 579 0 150 106 80
144 580 0 161 97 69
146 578 0 163 90 72
148 574 0 169 84 77
150 570 0 172 80 71
152 557 0 180 96 66
154 562 0 183 87 69
156 550 0 184 103 76
158 552 0 195 92 65
160 560 0 197 80 69
162 554 0 200 80 75
164 550 0 205 84 77
166 545 0 201 86 84
168 532 0 211 92 81
170 528 0 215 88 71
172 526 0 217 91 82
174 520 0 222 91 89
176 520 0 227 79 89
178 507 0 232 95 85
180 512 0 235 79 80
182 514 0 237 73 87
184 515 0 242 74 80
186 514 0 255 75 66
188 509 0 254 72 80
190 514 0 265 65 81
192 511 0 268 69 74
194 514 0 272 64 76
196 504 0 274 67 79
198 497 0 274 72 90
200 493 0 276 69 93
