0 725 0 0 0 0
2 712 0 0 23 0
4.00004 715 0 0 11 0
6 724 0 0 13 0
8 720 0 0 16 0
10 739 0 0 14 0
12 758 0 0 11 0
14 769 0 0 9 0
16 779 0 0 10 0
18 785 0 0 12 0
20 793 0 0 17 0
22 796 0 0 10 0
24 792 0 0 13 0
26 802 0 0 11 0
28 802 0 0 11 0
30 801 0 0 13 0
32 812 0 0 10 0
34 815 0 0 10 0
36 820 0 0 14 0
38 814 0 0 12 0
40 813 0 0 17 0
42 809 0 0 10 0
44 802 0 0 17 0
46 812 0 0 12 0
48 820 0 0 7 0
50 823 0 0 18 0
52 835 0 3 12 1
54 837 0 7 10 1
56 830 0 12 15 2
58 819 0 20 11 3
60 811 0 29 8 3
62 798 0 38 14 1
64 789 0 52 15 2
66 765 0 61 9 2
68 745 0 76 16 5
70 739 0 90 11 4
72 720 0 114 8 7
74 714 0 121 6 3
76 705 0 123 6 6
78 697 0 138 8 8
80 688 0 147 13 8
82 680 0 174 10 6
84 665 0 187 11 7
86 654 0 203 7 6
88 643 0 217 7 12
90 634 0 250 5 2
92 603 0 252 18 6
94 601 0 275 6 6
96 596 0 296 9 6
98 579 0 322 10 2
100 569 0 324 8 8
102 546 0 340 9 5
104 535 0 352 6 8
106 521 0 367 8 4
108 519 0 363 4 8
110 500 0 370 5 5
112 485 0 378 6 7
114 478 0 387 10 2
116 461 0 396 7 2
118 452 0 402 4 9
120 440 0 416 9 7
122 427 0 422 7 11
124 417 0 430 6 10
126 410 0 450 3 9
128 398 0 463 8 6
130 388 0 463 3 10
132 380 0 470 4 12
134 376 0 469 6 10
136 369 0 485 5 10
138 361 0 492 5 16
140 344 0 499 9 7
142 341 0 506 2 9
144 320 0 520 6 10
146 316 0 518 3 9
148 302 0 507 4 8
150 299 0 510 3 13
152 296 0 519 2 5
154 286 0 524 1 10
156 281 0 533 3 22
158 271 0 530 3 8
160 262 0 535 4 8
162 253 0 549 7 11
164 252 0 555 4 9
166 250 0 552 1 10
168 243 0 564 1 11
170 238 0 572 0 13
172 233 0 585 6 15
174 225 0 598 3 11
176 226 0 613 1 9
178 219 0 603 2 10
180 216 0 620 0 9
182 208 0 610 1 13
184 208 0 603 0 12
186 199 0 608 2 14
188 192 0 628 2 14
190 184 0 634 3 9
192 184 0 646 4 8
194 178 0 640 3 15
196 170 0 644 4 16
198 166 0 642 5 11
200 163 0 648 0 16
