0 1375 0 0 0 0
2 1351 5 0 9 0
4.00004 1347 10 0 17 0
6 1339 14 0 10 0
8 1340 11 0 13 0
10 1318 8 0 21 0
12 1310 8 0 13 0
14 1307 4 0 11 0
16 1292 4 0 15 0
18 1275 7 0 21 0
20 1268 10 0 12 0
22 1272 9 0 13 0
24 1270 8 0 17 0
26 1268 5 0 14 0
28 1262 9 0 16 0
30 1265 5 0 16 0
32 1256 7 0 15 0
34 1238 20 0 17 0
36 1244 7 0 15 0
38 1251 9 0 14 0
40 1247 6 0 17 0
42 1255 7 0 19 0
44 1264 2 0 15 0
46 1247 12 0 17 0
48 1249 6 0 18 0
50 1232 9 0 18 0
52 1088 1 149 10 1
54 968 1 264 9 3
56 861 0 368 11 1
58 787 0 445 9 6
60 715 0 521 10 3
62 655 2 582 9 1
64 586 0 645 9 2
66 555 0 698 7 3
68 497 0 742 15 4
70 463 1 771 7 14
72 440 0 795 8 8
74 396 0 844 6 10
76 365 0 881 6 8
78 334 0 905 4 6
80 309 0 920 6 9
82 283 0 939 7 1
84 270 0 950 5 5
86 242 0 971 8 9
88 237 1 967 2 14
90 222 0 978 3 6
92 224 0 981 5 11
94 215 0 981 7 9
96 197 0 982 3 11
98 188 0 984 4 11
100 183 0 991 3 14
102 180 0 1009 4 7
104 172 1 1013 2 11
106 158 0 1027 4 11
108 156 0 1038 1 11
110 157 0 1046 2 15
112 150 0 1062 1 11
114 136 0 1074 5 8
116 133 0 1075 8 18
118 136 0 1082 2 13
120 133 0 1084 2 9
122 127 0 1092 4 10
124 130 0 1093 5 9
126 124 0 1095 2 7
128 120 0 1093 4 8
130 128 0 1103 1 4
132 122 0 1099 2 11
134 108 0 1118 3 10
136 106 0 1106 3 16
138 102 0 1113 3 8
140 105 1 1124 4 7
142 109 0 1120 1 12
144 108 0 1121 3 12
146 105 0 1136 3 10
148 108 0 1152 5 14
150 111 0 1146 1 17
152 103 0 1165 1 9
154 98 0 1160 3 18
156 92 0 1152 0 17
158 88 0 1182 3 15
160 90 0 1183 2 16
162 91 0 1173 0 16
164 86 0 1181 1 12
166 82 0 1190 2 13
168 81 0 1183 1 16
170 75 0 1176 5 21
172 71 0 1175 1 14
174 74 0 1169 1 19
176 66 0 1174 1 10
178 66 0 1183 1 16
180 66 0 1175 0 14
182 64 0 1190 3 11
184 63 0 1200 1 13
186 61 0 1195 3 18
188 63 0 1190 1 10
190 67 0 1190 2 11
192 61 0 1187 1 9
194 59 0 1184 1 20
196 61 0 1190 0 15
198 55 0 1201 2 18
200 59 0 1195 1 18
