0 515 0 0 0 0
2 503 0 0 19 0
4.00004 509 0 0 14 0
6 499 0 0 23 0
8 499 0 0 11 0
10 495 0 0 10 0
12 486 0 0 17 0
14 486 0 0 18 0
16 508 0 0 10 0
18 496 0 0 17 0
20 499 0 0 10 0
22 476 0 0 12 0
24 485 0 0 12 0
26 496 0 0 18 0
28 487 0 0 14 0
30 490 0 0 16 0
32 484 0 0 15 0
34 479 0 0 18 0
36 481 0 0 14 0
38 484 0 0 8 0
40 485 0 0 13 0
42 478 0 0 14 0
44 464 0 0 17 0
46 467 0 0 12 0
48 462 0 0 14 0
50 454 0 0 18 0
52 467 0 0 20 0
54 467 0 2 19 0
56 475 0 5 8 2
58 469 0 11 11 1
60 450 0 19 16 1
62 450 0 28 15 2
64 441 0 38 7 2
66 429 0 49 16 5
68 413 0 63 12 2
70 397 0 70 15 3
72 390 0 74 5 5
74 378 0 86 8 5
76 363 0 101 11 3
78 352 0 113 16 5
80 355 0 116 4 6
82 346 0 133 7 5
84 327 0 144 10 6
86 310 0 158 12 7
88 315 0 162 5 12
90 299 0 179 4 5
92 290 0 185 5 9
94 283 0 200 6 10
96 275 0 208 8 5
98 268 0 206 4 10
100 254 0 214 10 11
102 247 0 227 12 7
104 240 0 233 6 12
106 228 0 240 10 11
108 213 0 253 9 9
110 210 0 254 3 10
112 202 0 273 4 8
114 192 0 275 2 16
116 183 0 304 7 6
118 175 0 306 6 12
120 171 0 315 5 11
122 157 0 313 10 12
124 157 0 327 6 10
126 149 0 334 5 13
128 140 0 332 5 16
130 140 0 333 3 13
132 134 0 342 3 10
134 132 0 357 3 11
136 131 0 349 0 16
138 126 0 369 3 10
140 117 0 379 1 10
142 109 0 377 4 11
144 109 0 389 2 8
146 102 0 392 4 11
148 99 0 389 1 13
150 95 0 384 2 9
152 94 0 375 2 8
154 89 0 367 6 17
156 92 0 362 0 13
158 85 0 363 2 13
160 78 0 358 3 12
162 77 0 363 4 6
164 78 0 363 2 8
166 75 0 353 1 15
168 71 0 360 3 12
170 73 0 355 1 12
172 70 0 371 2 15
174 67 0 381 1 9
176 64 0 365 0 23
178 63 0 372 0 15
180 58 0 378 1 16
182 58 0 390 0 4
184 55 0 376 1 22
186 54 0 392 1 15
188 48 0 390 1 14
190 46 0 400 0 11
192 42 0 395 0 10
194 43 0 394 1 13
196 41 0 393 0 13
198 39 0 393 1 13
200 33 0 398 4 6
