0 1673 0 0 0 0
2 1680 6 0 13 0
4.00004 1671 14 0 16 0
6 1687 8 0 24 0
8 1704 9 0 12 0
10 1703 15 0 23 0
12 1731 8 0 15 0
14 1742 9 0 13 0
16 1748 8 0 17 0
18 1771 11 0 13 0
20 1769 9 0 14 0
22 1771 7 0 16 0
24 1770 13 0 12 0
26 1779 13 0 12 0
28 1763 17 0 18 0
30 1774 10 0 19 0
32 1781 8 0 10 0
34 1779 6 0 12 0
36 1780 5 0 11 0
38 1783 12 0 11 0
40 1782 11 0 11 0
42 1775 7 0 10 0
44 1768 13 0 17 0
46 1767 10 0 19 0
48 1776 11 0 14 0
50 1795 9 0 9 0
52 1592 0 224 13 0
54 1445 0 381 14 1
56 1295 0 525 13 1
58 1171 0 649 10 5
60 1054 0 762 12 4
62 969 1 845 17 7
64 877 0 950 13 8
66 791 0 1023 12 6
68 715 0 1106 13 3
70 664 2 1155 9 5
72 592 0 1224 10 16
74 533 0 1290 8 5
76 503 0 1319 3 6
78 465 0 1366 3 5
80 414 0 1392 5 11
82 391 0 1419 3 12
84 356 0 1449 1 9
86 327 0 1467 2 10
88 306 0 1491 1 12
90 291 0 1506 2 19
92 268 0 1547 4 6
94 247 0 1572 5 12
96 227 0 1586 4 4
98 222 0 1600 2 9
100 201 0 1620 6 11
102 187 0 1617 1 12
104 162 0 1640 1 10
106 154 0 1646 1 12
108 141 0 1666 1 10
110 130 0 1673 1 13
112 122 0 1690 0 16
114 111 0 1708 4 12
116 104 0 1727 0 7
118 93 0 1742 2 7
120 89 0 1760 3 11
122 86 0 1749 3 17
124 80 0 1765 2 10
126 75 0 1764 2 12
128 73 0 1770 0 6
130 65 0 1786 2 9
132 57 0 1781 1 13
134 51 0 1787 0 17
136 46 1 1797 0 13
138 41 0 1800 0 14
140 38 0 1811 1 11
142 34 0 1806 1 17
144 33 0 1806 0 12
146 32 0 1820 1 12
148 28 0 1817 0 6
150 26 0 1827 0 5
152 24 0 1816 2 12
154 23 0 1820 0 9
156 23 0 1811 0 15
158 19 0 1828 0 11
160 17 0 1824 0 11
162 16 0 1822 0 16
164 15 0 1814 0 16
166 14 0 1810 0 10
168 11 0 1822 0 11
170 12 0 1808 0 16
172 12 0 1811 0 13
174 11 0 1815 0 16
176 7 0 1825 0 14
178 7 0 1840 0 7
180 5 0 1819 0 17
182 7 0 1824 0 23
184 6 0 1837 0 14
186 8 0 1837 0 11
188 7 0 1839 0 9
190 6 0 1827 1 12
192 6 0 1820 0 14
194 6 0 1830 0 12
196 4 0 1833 0 19
198 5 0 1826 0 10
200 5 0 1821 0 16
