0 1610 0 0 0 0
2 1564 5 0 20 0
4.00004 1551 10 0 13 0
6 1538 9 0 20 0
8 1518 14 0 16 0
10 1505 10 0 15 0
12 1504 6 0 19 0
14 1510 6 0 11 0
16 1492 10 0 15 0
18 1500 4 0 12 0
20 1483 8 0 19 0
22 1487 8 0 14 0
24 1482 7 0 17 0
26 1478 7 0 16 0
28 1475 8 0 13 0
30 1475 10 0 5 0
32 1457 10 0 15 0
34 1456 9 0 24 0
36 1459 8 0 17 0
38 1458 6 0 18 0
40 1448 12 0 18 0
42 1454 9 0 11 0
44 1424 9 0 18 0
46 1457 6 0 13 0
48 1469 5 0 11 0
50 1448 10 0 9 0
52 1239 1 218 13 1
54 1105 2 351 15 1
56 990 0 469 14 4
58 879 0 578 9 1
60 771 2 663 14 4
62 735 0 714 16 2
64 668 0 790 13 10
66 592 0 862 8 4
68 550 1 914 6 4
70 485 0 960 6 9
72 450 0 998 8 7
74 420 1 1022 5 12
76 380 2 1058 7 8
78 347 0 1100 9 9
80 328 0 1122 10 5
82 299 0 1141 6 11
84 283 0 1143 6 15
86 259 0 1171 7 11
88 250 0 1190 6 11
90 243 1 1180 4 16
92 238 0 1172 3 18
94 213 0 1198 7 11
96 211 0 1198 6 8
98 203 0 1214 8 10
100 205 0 1208 2 10
102 186 0 1229 4 13
104 179 0 1234 1 14
106 161 0 1239 2 11
108 152 0 1261 1 12
110 134 0 1274 3 10
112 126 0 1284 1 10
114 121 0 1275 5 15
116 114 0 1273 3 10
118 106 0 1280 0 20
120 108 0 1277 1 11
122 107 0 1279 2 13
124 89 0 1302 6 17
126 79 0 1325 2 11
128 79 0 1311 2 11
130 76 0 1332 0 10
132 67 0 1332 1 12
134 70 0 1333 0 18
136 69 0 1347 4 16
138 68 0 1349 1 12
140 63 0 1350 1 10
142 63 1 1340 2 15
144 59 0 1336 1 16
146 55 0 1339 2 15
148 54 0 1353 5 13
150 53 0 1361 3 7
152 55 0 1363 4 13
154 57 0 1360 1 13
156 61 0 1354 1 21
158 58 0 1353 0 15
160 54 0 1370 0 14
162 50 0 1370 0 18
164 43 0 1377 1 11
166 42 0 1392 1 16
168 35 0 1392 3 8
170 38 0 1397 0 14
172 34 0 1407 1 17
174 36 0 1420 2 8
176 35 0 1408 0 16
178 33 0 1396 0 14
180 33 0 1399 1 15
182 33 0 1389 0 14
184 37 0 1378 0 11
186 35 0 1390 0 12
188 29 0 1394 0 8
190 26 0 1393 2 10
192 26 0 1390 1 13
194 28 0 1395 0 10
196 26 0 1408 1 16
198 23 0 1406 1 12
200 23 0 1422 3 18
