0 578 0 0 0 0
2 556 0 0 25 0
4.00004 556 0 0 25 0
6 566 0 0 26 0
8 575 0 0 24 0
10 568 0 0 25 0
12 563 0 0 23 0
14 573 0 0 22 0
16 553 0 0 27 0
18 559 0 0 19 0
20 557 0 0 25 0
22 542 0 0 27 0
24 558 0 0 9 0
26 548 0 0 14 0
28 545 0 0 30 0
30 546 0 0 20 0
32 558 0 0 19 0
34 547 0 0 19 0
36 552 0 0 19 0
38 554 0 0 19 0
40 555 0 0 15 0
42 548 0 0 15 0
44 541 0 0 19 0
46 545 0 0 24 0
48 563 0 0 12 0
50 545 0 0 20 0
52 553 0 0 14 0
54 546 0 2 15 1
56 532 0 14 14 2
58 527 0 24 10 2
60 518 0 35 16 2
62 493 0 45 24 1
64 487 0 54 16 4
66 480 0 69 15 12
68 458 0 91 15 5
70 456 0 99 9 3
72 439 0 116 13 6
74 422 0 128 20 8
76 404 0 145 17 5
78 400 0 164 13 8
80 388 0 179 10 8
82 368 0 193 12 10
84 354 0 211 8 6
86 345 0 227 7 7
88 331 0 228 7 11
90 316 0 237 11 11
92 308 0 251 10 10
94 298 0 261 8 11
96 287 0 279 6 8
98 280 0 286 7 13
100 259 0 304 12 11
102 257 0 320 5 11
104 250 0 335 7 12
106 238 0 345 13 18
108 230 0 359 3 20
110 217 0 363 9 9
112 218 0 371 2 13
114 206 0 385 5 19
116 191 0 396 11 13
118 182 0 399 6 9
120 175 0 406 6 17
122 170 0 412 4 14
124 164 0 422 5 15
126 164 0 436 1 12
128 153 0 439 6 16
130 146 0 432 4 19
132 143 0 444 3 17
134 133 0 448 5 14
136 129 0 451 3 12
138 130 0 440 3 20
140 125 0 437 3 16
142 116 0 451 4 19
144 106 0 449 5 12
146 103 0 448 3 16
148 100 0 460 5 21
150 94 0 449 3 24
152 87 0 474 4 16
154 86 0 477 1 26
156 81 0 484 2 17
158 81 0 495 1 13
160 77 0 496 2 17
162 74 0 498 1 14
164 69 0 497 2 18
166 67 0 495 3 24
168 64 0 493 1 12
170 61 0 483 4 18
172 57 0 485 4 23
174 55 0 494 4 26
176 54 0 497 2 11
178 52 0 503 0 17
180 51 0 505 0 23
182 48 0 494 0 32
184 47 0 507 0 16
186 40 0 498 5 26
188 40 0 517 1 20
190 36 0 508 1 23
192 35 0 513 2 17
194 35 0 515 4 14
196 36 0 517 0 17
198 34 0 518 1 23
200 33 0 531 0 17
