0 417 0 0 0 0
2 409 0 0 13 0
4.00004 409 0 0 14 0
6 404 0 0 12 0
8 398 0 0 18 0
10 393 0 0 19 0
12 388 0 0 15 0
14 379 0 0 17 0
16 385 0 0 15 0
18 399 0 0 12 0
20 392 0 0 15 0
22 400 0 0 15 0
24 392 0 0 15 0
26 387 0 0 14 0
28 394 0 0 12 0
30 396 0 0 18 0
32 412 0 0 14 0
34 413 0 0 15 0
36 414 0 0 16 0
38 410 0 0 16 0
40 403 0 0 17 0
42 394 0 0 12 0
44 405 0 0 15 0
46 415 0 0 12 0
48 416 0 0 14 0
50 417 0 0 7 0
52 418 0 0 16 0
54 419 0 0 13 0
56 410 0 5 16 0
58 401 0 15 14 3
60 384 0 21 9 1
62 371 0 32 12 3
64 371 0 48 9 0
66 345 0 60 21 3
68 348 0 70 10 6
70 336 0 77 10 7
72 315 0 90 10 5
74 290 0 97 15 7
76 283 0 110 4 2
78 265 0 121 13 9
80 262 0 130 12 9
82 250 0 146 12 7
84 236 0 148 7 11
86 219 0 163 9 9
88 205 0 182 6 14
90 199 0 194 6 7
92 184 0 194 5 13
94 176 0 206 6 9
96 164 0 208 7 10
98 156 0 217 3 13
100 149 0 235 6 11
102 142 0 238 5 17
104 129 0 246 6 10
106 122 0 254 4 7
108 111 0 253 4 13
110 107 0 274 3 8
112 101 0 274 3 10
114 99 0 271 4 13
116 99 0 281 3 9
118 94 0 284 0 10
120 88 0 292 2 10
122 81 0 302 2 9
124 78 0 306 2 8
126 75 0 314 2 12
128 70 0 320 2 10
130 66 0 312 3 16
132 61 0 331 4 15
134 60 0 349 2 6
136 60 0 349 0 11
138 58 0 351 0 13
140 52 0 361 0 7
142 47 0 359 4 14
144 44 0 359 0 14
146 45 0 360 0 12
148 38 0 375 0 12
150 35 0 372 1 13
152 32 0 372 0 10
154 28 0 351 3 14
156 29 0 347 1 14
158 29 0 354 0 6
160 25 0 356 2 5
162 26 0 351 0 20
164 26 0 366 1 12
166 24 0 365 0 10
168 20 0 366 0 22
170 16 0 355 1 19
172 16 0 365 3 14
174 16 0 362 2 11
176 17 0 371 0 11
178 14 0 368 1 9
180 14 0 349 0 16
182 11 0 360 0 13
184 9 0 358 1 18
186 7 0 363 0 9
188 5 0 354 1 13
190 5 0 366 1 15
192 5 0 358 1 15
194 5 0 344 0 20
196 4 0 359 0 11
198 4 0 347 0 18
200 4 0 355 0 18
