0 40 0 0 0 8
2 38 0 2 0 9
4.00004 39 0 1 0 9
6 34 0 6 0 9
8 38 0 0 0 5
10 31 0 8 0 10
12 35 0 5 0 12
14 39 0 3 0 11
16 39 0 2 0 9
18 35 0 5 0 8
20 39 0 2 0 10
22 38 1 1 0 10
24 33 2 4 0 8
26 32 2 7 0 8
28 30 2 5 0 10
30 35 4 0 0 10
32 34 3 1 1 11
34 31 5 3 0 12
36 32 7 3 1 12
38 28 6 6 3 14
40 34 9 0 0 10
42 33 9 0 0 4
44 33 7 2 2 10
46 31 9 3 0 6
48 34 9 1 3 8
50 32 11 2 1 8
52 28 13 6 2 7
54 28 17 3 0 10
56 27 15 2 2 9
58 26 15 2 3 4
60 24 19 2 1 10
62 23 17 3 1 8
64 25 16 1 1 9
66 23 16 3 1 13
68 20 16 4 0 12
70 22 17 1 0 6
72 21 16 1 2 8
74 21 16 0 3 10
76 18 17 2 3 9
78 18 20 3 1 11
80 18 19 2 1 14
82 18 19 1 2 11
84 16 17 1 2 11
86 15 18 2 0 6
88 16 19 2 2 11
90 15 22 1 0 10
92 16 22 0 2 13
94 16 21 0 2 9
96 16 22 0 1 6
98 14 22 3 2 10
100 14 28 2 2 11
102 13 31 1 0 7
104 13 29 1 1 12
106 12 31 1 0 9
108 12 26 0 5 15
110 11 28 0 5 8
112 9 29 1 2 10
114 8 29 0 1 8
116 6 28 1 3 10
118 7 31 0 1 12
120 6 30 0 1 9
122 6 31 0 1 8
124 6 32 0 2 9
126 6 33 0 3 13
128 6 32 0 4 10
130 5 36 1 3 8
132 5 37 1 3 10
134 6 35 0 4 11
136 6 32 0 4 10
138 6 33 0 3 12
140 5 31 1 3 8
142 6 31 0 4 16
144 6 34 0 3 11
146 6 36 0 4 11
148 5 37 1 2 12
150 6 34 0 4 9
152 5 38 1 1 13
154 4 34 1 4 10
156 5 35 0 5 9
158 4 39 1 0 12
160 4 35 1 5 9
162 5 37 0 2 10
164 5 35 0 1 14
166 4 35 1 3 9
168 5 37 0 1 6
170 3 34 1 3 12
172 4 33 0 3 13
174 4 34 0 2 7
176 4 34 0 3 12
178 4 35 0 1 8
180 4 34 0 2 11
182 3 36 0 1 8
184 3 37 0 1 10
186 2 33 0 4 9
188 2 31 0 4 7
190 2 32 0 3 11
192 2 35 0 2 11
194 2 30 0 5 14
196 2 32 0 3 9
198 2 32 0 2 9
200 1 31 0 3 13
202 2 34 0 2 13
204 2 34 0 4 11
206 2 34 0 4 6
208 2 38 0 2 9
210 2 38 0 2 11
