0 104 0 0 0 9
2 107 0 2 0 7
4.00004 109 0 2 0 7
6 105 0 5 0 11
8 105 0 6 0 13
10 101 0 8 0 11
12 94 10 3 0 10
14 86 21 3 0 7
16 80 28 2 1 7
18 78 31 1 0 7
20 75 34 1 1 9
22 65 41 2 1 8
24 57 50 2 0 12
26 53 52 2 0 8
28 46 54 3 0 10
30 43 57 3 1 10
32 43 61 1 0 9
34 39 64 1 0 11
36 38 66 2 2 9
38 38 64 3 5 7
40 29 77 2 2 12
42 26 76 2 3 11
44 26 80 2 2 7
46 27 82 1 1 15
48 26 83 2 3 7
50 25 83 3 3 12
52 23 83 2 3 12
54 23 85 1 1 10
56 21 84 0 2 12
58 19 86 0 3 8
60 16 87 2 2 11
62 14 93 3 1 9
64 15 94 0 1 6
66 14 94 0 3 9
68 14 93 0 4 9
70 14 95 0 2 5
72 12 98 1 2 7
74 12 98 3 3 12
76 14 103 0 0 8
78 14 100 0 1 12
80 15 97 0 3 12
82 14 95 1 3 12
84 13 97 0 3 8
86 11 101 1 0 13
88 11 100 0 3 10
90 9 103 0 1 11
92 8 102 0 1 8
94 6 103 0 3 11
96 4 106 0 2 8
98 5 103 0 4 9
100 5 107 0 1 12
102 5 104 1 2 6
104 5 107 1 2 9
106 5 107 0 3 9
108 6 107 1 2 7
110 5 108 0 2 6
112 5 104 2 3 10
114 7 100 0 4 12
116 7 100 1 3 8
118 8 102 0 1 12
120 7 101 0 4 11
122 6 105 0 2 8
124 5 106 0 2 12
126 5 104 0 1 9
128 4 102 0 2 8
130 4 100 0 3 7
132 4 101 1 1 13
134 3 104 0 1 11
136 2 103 0 2 10
138 2 106 0 2 14
140 3 97 1 8 5
142 3 101 0 6 9
144 2 106 0 0 9
146 2 105 0 2 9
148 3 101 0 5 8
150 3 104 0 4 8
152 3 101 0 6 11
154 3 104 0 1 11
156 3 101 0 1 8
158 2 101 0 2 10
160 2 101 0 1 11
162 2 99 0 3 8
164 2 97 0 4 9
166 1 100 0 2 11
168 1 100 0 2 9
170 0 101 1 3 6
172 1 99 0 6 8
174 0 101 1 2 7
176 1 98 0 4 13
178 1 98 1 1 6
180 2 101 0 4 10
182 1 102 1 3 13
184 2 100 0 3 10
186 2 105 0 1 11
188 2 106 0 3 14
190 2 106 0 2 12
192 3 104 0 3 9
194 3 102 0 5 10
196 2 103 0 3 11
198 2 106 0 2 10
200 2 103 0 5 10
202 2 105 0 4 11
204 3 104 0 2 10
206 1 104 0 2 9
208 1 104 0 6 12
210 0 108 0 0 8
