0 507 0 0 0 0
2 496 0 0 3 0
4.00004 491 0 0 4 0
6 494 0 0 2 0
8 494 0 0 0 0
10 491 0 0 1 0
12 487 0 0 1 0
14 483 0 0 4 0
16 488 0 0 1 0
18 489 0 0 2 0
20 485 0 0 3 0
22 487 0 0 1 0
24 486 0 0 2 0
26 483 0 0 3 0
28 485 0 0 0 0
30 486 0 0 0 0
32 479 0 0 0 0
34 473 0 0 2 0
36 473 0 0 0 0
38 470 0 0 3 0
40 470 0 0 1 0
42 467 0 0 3 0
44 468 0 0 1 0
46 468 0 0 1 0
48 461 0 0 2 0
50 466 0 0 3 0
52 471 0 0 0 0
54 465 0 0 3 0
56 465 0 2 1 0
58 464 0 2 0 0
60 460 0 3 3 0
62 459 0 8 1 0
64 455 0 10 1 0
66 454 0 14 0 1
68 451 0 18 0 0
70 450 0 19 2 0
72 448 0 19 1 1
74 446 0 23 0 0
76 435 0 25 2 1
78 435 0 24 2 0
80 435 0 26 1 0
82 433 0 32 2 0
84 429 0 35 2 1
86 428 0 38 0 1
88 424 0 41 0 0
90 419 0 47 2 0
92 414 0 49 2 0
94 415 0 49 0 1
96 408 0 52 3 1
98 404 0 57 2 1
100 400 0 56 2 0
102 393 0 58 3 0
104 392 0 61 0 0
106 390 0 62 1 0
108 386 0 64 3 0
110 379 0 64 1 1
112 374 0 65 2 2
114 375 0 66 1 1
116 369 0 68 1 1
118 362 0 70 2 0
120 361 0 73 0 0
122 355 0 75 0 0
124 347 0 75 2 1
126 341 0 76 0 1
128 337 0 80 0 1
130 331 0 84 1 1
132 325 0 85 2 1
134 322 0 89 3 2
136 320 0 92 1 1
138 317 0 94 1 1
140 314 0 98 0 0
142 310 0 98 0 1
144 304 0 101 2 3
146 305 0 103 1 0
148 303 0 103 1 0
150 299 0 106 0 2
152 297 0 103 0 1
154 291 0 106 3 2
156 293 0 109 1 1
158 292 0 113 0 0
160 287 0 114 0 1
162 280 0 117 2 1
164 280 0 119 0 1
166 278 0 119 0 2
168 274 0 123 0 1
170 271 0 126 0 0
172 268 0 125 1 0
174 262 0 128 1 0
176 260 0 129 0 2
178 259 0 132 0 1
180 257 0 136 0 2
182 252 0 139 1 1
184 251 0 141 0 0
186 248 0 142 1 0
188 244 0 144 0 0
190 242 0 144 0 1
192 240 0 149 0 0
194 235 0 151 1 1
196 234 0 152 1 2
198 232 0 153 0 1
200 231 0 156 0 3
