0 500 0 0 0 0
2 504 0 0 0 0
4.00004 500 0 0 2 0
6 501 0 0 2 0
8 507 0 0 1 0
10 507 0 0 1 0
12 506 0 0 2 0
14 514 0 0 0 0
16 517 0 0 0 0
18 516 0 0 2 0
20 521 0 0 2 0
22 524 0 0 2 0
24 520 0 0 4 0
26 526 0 0 1 0
28 528 0 0 3 0
30 537 0 0 2 0
32 535 0 0 3 0
34 541 0 0 1 0
36 539 0 0 0 0
38 538 0 0 3 0
40 533 0 0 1 0
42 534 0 0 2 0
44 529 0 0 1 0
46 525 0 0 4 0
48 524 0 0 3 0
50 527 0 0 1 0
52 528 0 0 2 0
54 526 0 1 4 0
56 532 0 4 1 0
58 531 0 6 2 2
60 533 0 9 0 0
62 528 0 12 1 1
64 521 0 17 2 0
66 518 0 19 2 0
68 507 0 20 0 0
70 506 0 29 0 0
72 503 0 34 2 1
74 499 0 36 4 0
76 502 0 37 0 0
78 500 0 41 1 0
80 497 0 41 2 1
82 495 0 47 1 0
84 493 0 56 1 1
86 490 0 63 1 0
88 486 0 66 1 2
90 484 0 69 1 0
92 477 0 79 0 1
94 475 0 82 0 1
96 468 0 84 0 2
98 464 0 92 2 0
100 460 0 95 1 0
102 457 0 100 1 0
104 452 0 103 1 0
106 450 0 105 1 0
108 447 0 106 1 0
110 444 0 113 2 0
112 442 0 116 1 1
114 441 0 119 0 1
116 437 0 123 0 2
118 435 0 129 0 1
120 432 0 130 1 1
122 431 0 135 1 1
124 426 0 144 1 0
126 420 0 144 2 2
128 420 0 149 0 0
130 416 0 155 1 0
132 414 0 161 1 0
134 410 0 168 0 0
136 407 0 173 2 1
138 405 0 174 0 0
140 405 0 177 0 1
142 402 0 177 0 2
144 401 0 185 0 1
146 398 0 188 0 0
148 391 0 190 1 2
150 388 0 197 2 2
152 384 0 202 1 3
154 379 0 207 1 0
156 371 0 216 2 2
158 368 0 217 1 1
160 369 0 220 0 2
162 369 0 224 0 1
164 366 0 224 1 0
166 362 0 226 4 2
168 365 0 228 1 0
170 363 0 231 3 3
172 360 0 234 0 0
174 357 0 233 0 0
176 357 0 235 0 1
178 350 0 239 1 1
180 349 0 246 2 1
182 350 0 251 0 1
184 346 0 256 2 2
186 346 0 262 0 2
188 344 0 264 0 0
190 338 0 267 0 1
192 334 0 269 1 1
194 332 0 273 2 0
196 332 0 277 0 1
198 325 0 278 2 2
200 324 0 281 0 2
