0 1352 0 0 0 0
2 1340 10 0 1 0
4.00004 1340 6 0 3 0
6 1340 7 0 1 0
8 1335 8 0 0 0
10 1332 8 0 2 0
12 1332 5 0 3 0
14 1330 7 0 0 0
16 1325 11 0 1 0
18 1321 12 0 3 0
20 1320 10 0 0 0
22 1320 5 0 5 0
24 1320 4 0 1 0
26 1319 6 0 2 0
28 1315 10 0 1 0
30 1312 12 0 0 0
32 1313 6 0 2 0
34 1308 7 0 1 0
36 1297 14 0 1 0
38 1297 8 0 3 0
40 1298 9 0 2 0
42 1297 8 0 1 0
44 1299 7 0 1 0
46 1291 13 0 1 0
48 1293 5 0 3 0
50 1289 7 0 2 0
52 1121 1 170 4 0
54 1006 0 289 0 0
56 896 0 390 4 0
58 798 0 493 2 0
60 726 0 565 3 0
62 669 1 622 1 1
64 609 0 687 0 1
66 528 0 765 3 0
68 484 0 806 1 1
70 428 0 860 0 3
72 376 0 914 3 1
74 339 0 954 2 0
76 306 0 986 0 2
78 277 0 1009 0 2
80 238 0 1042 2 2
82 216 0 1065 0 2
84 195 0 1086 1 1
86 176 0 1102 0 2
88 156 0 1118 0 0
90 144 0 1121 0 3
92 125 0 1144 0 1
94 113 0 1158 0 1
96 107 0 1169 2 0
98 99 0 1175 0 1
100 90 0 1186 1 0
102 84 0 1190 0 0
104 80 0 1192 0 2
106 77 0 1197 0 0
108 66 1 1208 0 2
110 60 0 1218 1 2
112 55 0 1226 0 1
114 53 0 1226 1 1
116 50 0 1229 1 1
118 45 0 1234 1 1
120 44 0 1231 0 1
122 44 0 1228 0 2
124 41 0 1232 0 0
126 35 0 1234 2 1
128 36 0 1234 0 0
130 32 0 1235 0 1
132 29 0 1233 0 1
134 31 0 1234 0 0
136 29 0 1236 1 2
138 30 0 1237 0 1
140 30 0 1237 1 2
142 28 0 1234 3 0
144 34 0 1232 0 0
146 33 0 1233 0 2
148 32 1 1235 0 1
150 31 0 1235 0 0
152 27 0 1234 1 1
154 29 0 1232 1 1
156 30 0 1232 2 2
158 32 0 1231 0 3
160 32 0 1232 1 3
162 30 0 1231 0 5
164 33 0 1229 0 2
166 32 0 1229 0 1
168 27 0 1231 0 1
170 26 0 1234 1 0
172 25 0 1231 0 2
174 25 0 1226 0 3
176 24 0 1227 0 1
178 24 0 1228 0 2
180 23 0 1229 2 1
182 27 0 1225 0 1
184 26 0 1223 0 2
186 25 0 1224 0 2
188 23 0 1228 0 0
190 22 0 1226 0 0
192 18 0 1232 1 0
194 22 0 1223 1 1
196 23 0 1222 0 0
198 22 0 1216 1 2
200 21 0 1208 0 3
