0 1267 0 0 0 0
2 1216 9 0 54 0
4.00004 1195 8 0 74 0
6 1163 6 0 108 0
8 1147 11 0 108 0
10 1135 6 0 123 0
12 1149 5 0 106 0
14 1153 13 0 98 0
16 1143 8 0 101 0
18 1127 15 0 108 0
20 1137 6 0 108 0
22 1144 10 0 98 0
24 1153 15 0 106 0
26 1169 4 0 98 0
28 1152 6 0 117 0
30 1164 11 0 97 0
32 1153 14 0 114 0
34 1159 10 0 110 0
36 1165 6 0 118 0
38 1159 10 0 117 0
40 1175 1 0 108 0
42 1171 9 0 99 0
44 1161 11 0 109 0
46 1156 11 0 114 0
48 1146 9 0 122 0
50 1164 7 0 98 0
52 986 0 182 94 4
54 844 0 320 99 7
56 751 0 424 81 11
58 642 0 532 85 15
60 561 0 606 79 31
62 487 0 684 70 30
64 410 0 750 89 32
66 363 0 799 80 34
68 325 0 838 71 40
70 292 0 878 61 43
72 273 0 900 47 53
74 241 0 925 57 60
76 207 0 950 52 61
78 187 0 966 48 76
80 172 0 984 49 71
82 157 0 1023 48 61
84 151 0 1024 44 68
86 128 0 1038 60 72
88 126 0 1045 46 76
90 119 0 1076 33 58
92 118 0 1059 36 76
94 97 0 1074 32 81
96 83 0 1093 30 74
98 82 0 1112 34 58
100 74 0 1111 37 64
102 71 0 1119 37 59
104 75 0 1102 30 75
106 74 0 1121 36 62
108 78 0 1120 29 64
110 72 0 1133 24 57
112 71 0 1118 26 68
114 74 0 1115 32 77
116 73 1 1125 28 73
118 63 2 1131 30 78
120 61 0 1131 33 80
122 61 0 1136 25 80
124 54 0 1138 27 87
126 53 0 1146 20 84
128 51 0 1143 26 82
130 49 0 1144 27 80
132 42 0 1140 28 88
134 43 0 1146 21 76
136 42 0 1136 29 87
138 45 0 1128 28 87
140 43 0 1133 22 81
142 43 0 1134 19 87
144 44 0 1137 17 91
146 47 0 1142 13 81
148 47 0 1136 17 88
150 47 0 1140 11 87
152 47 0 1131 17 97
154 42 0 1142 15 86
156 37 0 1135 15 92
158 32 0 1142 22 84
160 34 0 1147 22 80
162 38 0 1148 19 71
164 38 0 1133 22 85
166 36 0 1149 24 82
168 33 0 1147 24 89
170 36 0 1142 32 91
172 42 1 1143 24 93
174 36 0 1152 19 80
176 35 0 1156 26 88
178 32 0 1161 25 84
180 34 0 1161 22 90
182 35 0 1163 24 85
184 34 0 1166 24 80
186 38 0 1158 22 89
188 39 0 1169 20 79
190 39 0 1163 19 91
192 43 0 1159 12 93
194 40 0 1169 24 79
196 39 0 1167 22 78
198 40 1 1149 21 106
200 39 0 1163 17 92
