0 1164 0 0 0 0
2 1114 7 0 39 0
4.00004 1103 8 0 43 0
6 1103 9 0 49 0
8 1075 12 0 68 0
10 1079 10 0 71 0
12 1069 4 0 84 0
14 1050 7 0 90 0
16 1050 12 0 93 0
18 1047 3 0 101 0
20 1038 4 0 112 0
22 1045 5 0 103 0
24 1040 6 0 109 0
26 1042 8 0 104 0
28 1040 7 0 111 0
30 1035 7 0 120 0
32 1042 2 0 124 0
34 1039 4 0 123 0
36 1038 3 0 127 0
38 1040 4 0 121 0
40 1039 5 0 115 0
42 1040 8 0 111 0
44 1049 4 0 109 0
46 1038 8 0 122 0
48 1054 6 0 102 0
50 1052 2 0 113 0
52 876 0 183 110 1
54 759 0 287 118 5
56 651 0 390 109 8
58 563 2 475 106 15
60 484 0 554 106 25
62 430 1 617 95 27
64 355 0 684 94 38
66 319 0 717 71 45
68 281 0 743 84 50
70 254 0 773 82 52
72 225 0 808 74 45
74 205 0 831 69 49
76 181 0 855 69 56
78 160 0 881 64 57
80 152 0 890 60 64
82 133 0 907 61 70
84 124 0 924 54 67
86 107 0 943 51 64
88 101 0 941 49 73
90 87 0 964 49 61
92 82 0 968 50 64
94 75 0 962 49 76
96 74 0 968 42 81
98 70 0 978 46 78
100 64 0 980 46 80
102 60 0 990 44 78
104 59 0 989 47 80
106 56 0 996 43 72
108 48 0 993 35 83
110 40 0 1000 43 76
112 38 0 990 44 92
114 31 0 998 40 92
116 32 0 1007 39 84
118 30 0 1010 33 82
120 31 0 1005 31 88
122 31 0 1001 37 84
124 26 0 1003 40 88
126 33 0 1009 37 83
128 24 0 1014 40 81
130 26 0 1010 41 91
132 28 0 1023 33 75
134 30 0 1014 37 87
136 33 0 1012 38 87
138 33 0 1011 42 85
140 35 0 1002 38 96
142 37 0 1005 33 94
144 38 0 1012 40 87
146 36 0 1021 36 84
148 36 0 1019 30 86
150 30 0 1029 35 78
152 26 0 1028 27 83
154 25 0 1028 32 88
156 24 0 1035 29 80
158 29 0 1021 28 93
160 27 0 1018 26 98
162 27 0 1026 27 87
164 29 0 1025 23 88
166 29 0 1023 26 87
168 26 0 1023 31 88
170 21 0 1030 28 76
172 22 0 1036 29 79
174 21 0 1028 23 91
176 22 0 1044 26 68
178 26 0 1027 29 77
180 24 0 1030 26 80
182 24 0 1028 21 88
184 22 0 1031 32 77
186 25 0 1017 31 91
188 20 0 1022 31 83
190 19 0 1009 32 95
192 21 0 1001 33 108
194 20 0 1001 33 109
196 20 0 1000 35 108
198 23 0 1002 28 103
200 22 0 999 27 108
