0 1187 0 0 0 0
2 1145 9 0 28 0
4.00004 1152 2 0 41 0
6 1131 6 0 51 0
8 1134 2 0 57 0
10 1116 5 0 76 0
12 1113 6 0 74 0
14 1106 7 0 79 0
16 1110 5 0 78 0
18 1093 6 0 93 0
20 1094 5 0 89 0
22 1082 8 0 95 0
24 1084 8 0 98 0
26 1089 8 0 90 0
28 1091 6 0 94 0
30 1093 3 0 90 0
32 1083 4 0 100 0
34 1081 7 0 95 0
36 1085 7 0 83 0
38 1080 7 0 85 0
40 1080 5 0 91 0
42 1066 15 0 99 0
44 1074 9 0 98 0
46 1084 7 0 89 0
48 1073 9 0 110 0
50 1077 7 0 92 0
52 933 0 164 86 0
54 805 0 279 85 5
56 716 0 374 93 5
58 635 0 448 89 7
60 550 1 526 93 15
62 492 0 577 81 30
64 437 1 648 79 13
66 397 0 696 76 18
68 364 1 729 73 27
70 323 0 772 79 29
72 309 1 799 60 28
74 282 0 841 51 18
76 234 0 870 61 31
78 209 1 897 57 31
80 187 2 924 64 30
82 179 0 935 54 37
84 159 0 956 55 38
86 150 0 962 53 47
88 140 0 984 47 42
90 128 0 985 42 49
92 113 1 997 40 51
94 102 0 1009 38 53
96 94 0 1011 42 61
98 92 0 1019 36 60
100 80 0 1029 38 56
102 69 0 1037 44 52
104 62 0 1041 37 59
106 58 0 1036 37 72
108 61 0 1039 29 71
110 54 0 1061 35 53
112 47 0 1055 29 67
114 45 0 1049 33 71
116 41 0 1054 33 68
118 38 0 1057 26 69
120 36 0 1066 30 69
122 33 0 1077 30 57
124 31 0 1077 27 58
126 25 0 1070 32 73
128 27 0 1077 30 65
130 25 0 1083 27 56
132 22 0 1076 34 70
134 22 0 1075 35 74
136 24 0 1073 29 70
138 29 0 1063 34 82
140 29 0 1073 33 77
142 33 0 1085 29 66
144 30 0 1074 30 76
146 31 0 1077 28 72
148 31 0 1072 30 72
150 27 0 1073 33 63
152 27 0 1072 31 77
154 28 0 1071 31 76
156 26 0 1072 31 70
158 32 0 1071 24 71
160 28 0 1070 25 73
162 27 0 1083 30 62
164 30 0 1081 24 68
166 29 0 1082 29 67
168 27 0 1090 28 64
170 31 0 1083 27 68
172 28 0 1074 24 77
174 27 0 1090 28 61
176 25 0 1087 31 67
178 19 0 1095 28 65
180 19 0 1101 23 56
182 20 0 1092 27 64
184 21 0 1073 29 88
186 23 0 1080 27 78
188 19 0 1075 27 81
190 19 0 1077 31 73
192 18 0 1068 27 81
194 19 0 1073 21 79
196 23 0 1066 18 80
198 21 0 1069 27 77
200 17 0 1078 21 71
