0 1024 0 0 0 0
2 974 0 0 41 0
4.00004 954 0 0 65 0
6 955 0 0 62 0
8 943 0 0 81 0
10 931 0 0 85 0
12 919 0 0 98 0
14 927 0 0 84 0
16 919 0 0 95 0
18 920 0 0 94 0
20 903 0 0 104 0
22 907 0 0 104 0
24 916 0 0 92 0
26 913 0 0 91 0
28 898 0 0 109 0
30 895 0 0 105 0
32 902 0 0 99 0
34 901 0 0 97 0
36 897 0 0 103 0
38 886 0 0 104 0
40 886 0 0 104 0
42 889 0 0 99 0
44 887 0 0 106 0
46 887 0 0 102 0
48 894 0 0 96 0
50 898 0 0 95 0
52 897 0 0 93 0
54 883 0 0 108 0
56 892 0 0 90 1
58 885 0 0 102 1
60 882 0 0 95 1
62 886 0 0 99 3
64 890 0 2 88 4
66 893 0 2 83 5
68 893 0 4 88 12
70 882 0 8 95 11
72 873 0 10 100 12
74 871 0 16 90 13
76 874 0 19 92 16
78 877 0 20 87 26
80 874 0 27 82 25
82 876 0 33 67 22
84 874 0 37 69 22
86 865 0 40 72 17
88 878 0 44 64 19
90 867 0 48 77 25
92 851 0 52 78 26
94 846 0 57 80 20
96 858 0 59 66 23
98 851 0 61 63 29
100 852 0 66 62 24
102 842 0 69 66 30
104 848 0 68 51 35
106 843 0 72 43 37
108 826 0 81 59 25
110 823 0 85 62 31
112 814 0 88 75 31
114 824 0 89 62 30
116 816 0 96 66 32
118 820 0 101 61 29
120 803 0 105 71 36
122 794 0 108 74 36
124 786 0 115 72 34
126 795 0 119 61 30
128 790 0 121 65 40
130 795 0 123 58 45
132 784 0 132 59 33
134 779 0 137 65 25
136 759 0 137 79 37
138 754 0 141 74 41
140 753 0 146 69 40
142 759 0 148 54 51
144 750 0 152 58 41
146 749 0 156 61 41
148 743 0 153 55 50
150 730 0 158 69 46
152 721 0 165 67 34
154 720 0 167 69 43
156 718 0 180 57 34
158 723 0 184 58 34
160 718 0 185 58 42
162 706 0 188 67 37
164 703 0 198 59 35
166 714 0 203 47 30
168 709 0 204 58 39
170 695 0 204 60 40
172 690 0 203 62 39
174 692 0 208 61 44
176 690 0 215 56 42
178 683 0 218 63 44
180 667 0 225 71 43
182 674 0 222 57 52
184 663 0 230 65 42
186 657 0 232 68 46
188 657 0 238 60 49
190 653 0 242 58 48
192 651 0 239 56 56
194 639 0 248 63 47
196 646 0 244 49 60
198 641 0 241 53 59
200 636 0 250 55 49
