0 978 0 0 0 0 0
2 961 0 0 16 0 0
4.00004 956 0 0 23 0 0
6 957 0 0 23 0 0
8 965 0 0 24 0 0
10 963 0 0 21 0 0
12 976 0 0 18 0 0
14 971 0 0 18 0 0
16 970 0 0 20 0 0
18 966 0 0 15 0 0
20 978 0 0 17 0 0
22 967 0 0 15 0 0
24 960 0 0 25 0 0
26 972 0 0 24 0 0
28 979 0 0 20 0 0
30 983 0 0 17 0 0
32 979 0 0 17 0 0
34 982 0 0 15 0 0
36 976 0 0 18 0 0
38 978 0 0 14 0 0
40 967 0 0 27 0 0
42 969 0 0 24 0 0
44 979 0 0 20 0 0
46 979 0 0 31 0 0
48 984 0 0 17 0 0
50 993 0 0 15 0 0
52 976 0 11 15 1 0
54 960 0 24 15 5 0
56 950 0 35 14 8 0
58 943 0 45 12 6 0
60 931 0 49 17 7 0
62 920 0 50 17 9 0
64 917 0 59 12 12 0
66 916 0 67 6 8 0
68 910 0 85 8 9 0
70 909 0 85 7 10 0
72 907 0 86 7 19 0
74 899 0 94 9 6 0
76 891 0 94 12 8 0
78 896 0 101 1 7 0
80 882 0 112 11 8 0
82 879 0 114 8 9 0
84 878 0 108 6 14 0
86 865 0 113 12 12 0
88 860 0 119 12 9 0
90 857 0 115 12 8 0
92 859 0 120 7 13 0
94 851 0 123 11 12 0
96 847 0 133 9 12 0
98 844 0 138 9 15 0
100 842 0 141 8 19 0
102 842 0 143 6 8 0
104 837 0 147 6 13 0
106 826 0 152 13 4 0
108 823 0 145 11 7 0
110 813 0 153 14 11 0
112 809 0 164 14 9 0
114 809 0 169 9 11 0
116 802 0 174 9 13 0
118 797 0 186 9 10 0
120 795 0 194 11 7 0
122 790 0 193 14 12 0
124 792 0 192 9 14 0
126 794 0 196 1 12 0
128 784 0 204 8 13 0
130 780 0 210 8 8 0
132 767 0 220 12 7 0
134 768 0 222 6 8 0
136 762 0 231 8 13 0
138 763 0 235 6 15 0
140 758 0 239 7 13 0
142 752 0 234 10 16 0
144 744 0 245 14 13 0
146 744 0 255 8 10 0
148 739 0 255 9 8 0
150 729 0 256 13 18 0
152 728 0 254 9 13 0
154 721 0 262 12 10 0
156 719 0 266 7 9 0
158 713 0 268 9 12 0
160 706 0 275 8 15 0
162 704 0 281 7 13 0
164 700 0 273 6 16 0
166 700 0 278 4 12 0
168 689 0 280 11 11 0
170 685 0 287 10 6 0
172 677 0 285 8 12 0
174 669 0 295 12 15 0
176 670 0 298 7 16 0
178 663 0 311 11 9 0
180 663 0 310 8 15 0
182 662 0 312 6 14 0
184 654 0 317 9 12 0
186 652 0 326 7 8 0
188 644 0 335 9 8 0
190 646 0 334 7 10 0
192 642 0 348 4 7 0
194 633 0 338 10 15 0
196 634 0 349 7 13 0
198 631 0 363 5 4 0
200 629 0 357 4 9 0
