0 1112 0 0 0 0 0
2 1095 0 0 14 0 0
4.00004 1103 0 0 12 0 0
6 1104 0 0 19 0 0
8 1104 0 0 22 0 0
10 1118 0 0 10 0 0
12 1114 0 0 14 0 0
14 1108 0 0 19 0 0
16 1104 0 0 19 0 0
18 1106 0 0 13 0 0
20 1116 0 0 11 0 0
22 1126 0 0 18 0 0
24 1134 0 0 8 0 0
26 1124 0 0 14 0 0
28 1138 0 0 14 0 0
30 1138 0 0 17 0 0
32 1150 0 0 9 0 0
34 1145 0 0 17 0 0
36 1131 0 0 19 0 0
38 1127 0 0 14 0 0
40 1133 0 0 15 0 0
42 1136 0 0 11 0 0
44 1134 0 0 15 0 0
46 1133 0 0 14 0 0
48 1133 0 0 9 0 0
50 1135 0 0 14 0 0
52 1115 0 18 12 8 0
54 1099 0 34 7 7 0
56 1085 0 55 12 4 0
58 1079 0 64 9 6 0
60 1071 0 82 8 2 0
62 1063 0 89 8 10 0
64 1052 0 103 12 10 0
66 1040 0 122 9 12 0
68 1026 0 127 6 7 0
70 1018 0 138 5 5 0
72 998 0 151 10 9 0
74 993 0 173 7 5 0
76 980 0 174 10 12 0
78 964 0 181 14 10 0
80 961 0 187 9 8 0
82 954 0 195 8 14 0
84 943 0 213 7 9 0
86 927 0 229 8 5 0
88 922 0 239 2 10 0
90 909 0 253 7 7 0
92 899 0 264 6 12 0
94 894 0 273 6 8 0
96 891 0 282 8 10 0
98 888 0 286 5 8 0
100 877 0 297 5 7 0
102 863 0 301 10 11 0
104 855 0 315 6 11 0
106 846 0 330 4 7 0
108 839 0 338 5 6 0
110 835 0 339 2 8 0
112 823 0 347 9 5 0
114 821 0 345 4 5 0
116 815 0 353 6 7 0
118 806 0 361 5 6 0
120 796 0 365 7 7 0
122 788 0 368 6 12 0
124 784 0 390 3 2 0
126 771 0 389 5 7 0
128 768 0 400 2 7 0
130 758 0 405 8 12 0
132 746 0 426 9 9 0
134 742 0 426 6 11 0
136 732 0 436 12 9 0
138 732 0 444 4 11 0
140 723 0 458 8 6 0
142 723 0 462 5 12 0
144 716 0 459 3 12 0
146 709 0 458 6 8 0
148 703 0 468 5 9 0
150 701 0 469 2 11 0
152 690 0 476 6 9 0
154 691 0 484 3 11 0
156 685 0 495 4 8 0
158 679 0 497 6 9 0
160 672 0 508 5 10 0
162 666 0 525 3 7 0
164 661 0 528 4 15 0
166 658 0 532 2 9 0
168 647 0 523 7 13 0
170 645 0 538 2 12 0
172 638 0 540 3 10 0
174 623 0 544 7 16 0
176 621 0 560 4 10 0
178 615 0 564 7 10 0
180 617 0 565 2 13 0
182 604 0 571 5 11 0
184 596 0 590 4 8 0
186 591 0 595 6 8 0
188 587 0 603 6 12 0
190 588 0 608 2 9 0
192 580 0 608 3 12 0
194 572 0 613 4 11 0
196 571 0 617 3 15 0
198 567 0 628 5 10 0
200 562 0 630 4 15 0
