0 968 0 0 0 0 0
2 933 0 0 35 0 0
4.00004 946 0 0 37 0 0
6 947 0 0 37 0 0
8 939 0 0 37 0 0
10 932 0 0 49 0 0
12 936 0 0 40 0 0
14 934 0 0 43 0 0
16 936 0 0 42 0 0
18 933 0 0 39 0 0
20 930 0 0 43 0 0
22 940 0 0 41 0 0
24 937 0 0 43 0 0
26 945 0 0 40 0 0
28 945 0 0 38 0 0
30 950 0 0 43 0 0
32 957 0 0 34 0 0
34 950 0 0 42 0 0
36 966 0 0 28 0 0
38 963 0 0 30 0 0
40 959 0 0 31 0 0
42 938 0 0 43 0 0
44 955 0 0 25 0 0
46 947 0 0 34 0 0
48 939 0 0 42 0 0
50 951 0 0 35 0 0
52 935 0 9 35 4 0
54 914 0 27 41 6 0
56 918 0 30 26 11 0
58 897 0 44 32 9 0
60 897 0 70 21 9 0
62 882 0 66 27 11 0
64 873 0 75 25 18 0
66 867 0 88 24 14 0
68 866 0 89 20 14 0
70 859 0 96 22 16 0
72 866 0 99 9 14 0
74 844 0 106 25 18 0
76 835 0 119 30 14 0
78 843 0 119 19 20 0
80 842 0 122 15 19 0
82 829 0 120 24 22 0
84 822 0 127 24 18 0
86 816 0 128 24 16 0
88 811 0 136 19 19 0
90 802 0 150 24 17 0
92 803 0 151 19 18 0
94 802 0 168 18 15 0
96 800 0 162 16 21 0
98 794 0 172 19 17 0
100 790 0 171 19 19 0
102 788 0 174 17 19 0
104 783 0 176 18 16 0
106 784 0 178 11 16 0
108 775 0 192 17 17 0
110 773 0 185 18 22 0
112 769 0 181 18 25 0
114 764 0 190 21 19 0
116 769 0 191 13 18 0
118 757 0 198 21 14 0
120 750 0 191 21 20 0
122 748 0 202 17 14 0
124 745 0 208 16 12 0
126 742 0 216 13 16 0
128 738 0 226 11 13 0
130 729 0 224 16 25 0
132 721 0 227 20 21 0
134 719 0 238 19 18 0
136 726 0 239 8 23 0
138 709 0 241 20 22 0
140 706 0 246 19 15 0
142 702 0 256 18 15 0
144 703 0 266 16 16 0
146 695 0 269 19 17 0
148 697 0 270 13 18 0
150 687 0 281 21 14 0
152 690 0 283 18 16 0
154 680 0 279 25 19 0
156 693 0 292 11 10 0
158 689 0 266 11 27 0
160 687 0 281 13 13 0
162 673 0 286 25 20 0
164 678 0 275 16 19 0
166 668 0 277 22 25 0
168 664 0 278 20 23 0
170 663 0 283 19 21 0
172 662 0 286 16 19 0
174 653 0 299 21 16 0
176 650 0 305 21 14 0
178 648 0 295 18 18 0
180 646 0 302 20 21 0
182 645 0 304 18 16 0
184 640 0 309 17 16 0
186 631 0 309 23 17 0
188 641 0 313 11 22 0
190 639 0 323 11 18 0
192 628 0 315 19 20 0
194 627 0 321 17 17 0
196 625 0 329 17 18 0
198 623 0 332 16 17 0
200 618 0 331 19 23 0
