0 903 0 0 0 0 0
2 883 0 0 28 0 0
4.00004 887 0 0 21 0 0
6 878 0 0 30 0 0
8 873 0 0 30 0 0
10 871 0 0 30 0 0
12 883 0 0 27 0 0
14 881 0 0 29 0 0
16 882 0 0 26 0 0
18 898 0 0 17 0 0
20 887 0 0 21 0 0
22 893 0 0 23 0 0
24 895 0 0 22 0 0
26 891 0 0 16 0 0
28 890 0 0 12 0 0
30 895 0 0 15 0 0
32 898 0 0 18 0 0
34 891 0 0 24 0 0
36 889 0 0 18 0 0
38 881 0 0 22 0 0
40 884 0 0 25 0 0
42 901 0 0 16 0 0
44 883 0 0 31 0 0
46 891 0 0 25 0 0
48 891 0 0 21 0 0
50 889 0 0 23 0 0
52 889 0 14 9 4 0
54 870 0 31 20 1 0
56 865 0 28 16 10 0
58 855 0 39 17 7 0
60 853 0 58 12 4 0
62 846 0 62 15 6 0
64 841 0 69 11 9 0
66 840 0 83 4 9 0
68 827 0 85 10 8 0
70 828 0 94 6 5 0
72 820 0 102 11 10 0
74 822 0 96 6 13 0
76 812 0 105 8 9 0
78 805 0 106 9 14 0
80 800 0 123 11 9 0
82 795 0 127 12 8 0
84 797 0 123 7 11 0
86 791 0 128 11 12 0
88 786 0 137 12 12 0
90 784 0 144 10 11 0
92 778 0 144 12 11 0
94 775 0 148 11 9 0
96 775 0 147 9 9 0
98 767 0 154 10 5 0
100 765 0 151 8 12 0
102 758 0 158 10 8 0
104 754 0 163 8 8 0
106 751 0 166 9 8 0
108 750 0 170 5 13 0
110 737 0 173 15 8 0
112 738 0 172 12 17 0
114 737 0 185 10 10 0
116 736 0 194 9 9 0
118 731 0 198 5 8 0
120 723 0 202 11 15 0
122 719 0 213 9 14 0
124 721 0 220 5 10 0
126 708 0 236 7 8 0
128 701 0 232 8 13 0
130 693 0 248 10 11 0
132 694 0 246 7 14 0
134 690 0 246 7 14 0
136 687 0 255 9 11 0
138 679 0 261 10 7 0
140 675 0 256 12 14 0
142 672 0 270 7 11 0
144 668 0 276 8 12 0
146 657 0 279 11 16 0
148 654 0 281 13 9 0
150 655 0 295 8 10 0
152 651 0 300 8 10 0
154 642 0 300 14 15 0
156 642 0 301 9 14 0
158 640 0 309 7 10 0
160 636 0 310 8 12 0
162 631 0 314 10 10 0
164 629 0 315 7 18 0
166 627 0 320 6 17 0
168 619 0 319 11 17 0
170 617 0 326 8 22 0
172 614 0 336 8 14 0
174 608 0 332 8 14 0
176 598 0 339 14 14 0
178 605 0 338 5 16 0
180 600 0 337 8 15 0
182 604 0 343 2 12 0
184 598 0 344 7 11 0
186 595 0 348 5 18 0
188 593 0 364 6 9 0
190 584 0 362 10 16 0
192 583 0 364 7 15 0
194 575 0 365 12 17 0
196 574 0 362 7 11 0
198 568 0 366 9 13 0
200 571 0 356 4 18 0
