0 950 0 0 0 0 0
2 928 0 0 23 0 0
4.00004 930 0 0 28 0 0
6 937 0 0 20 0 0
8 938 0 0 21 0 0
10 931 0 0 17 0 0
12 921 0 0 24 0 0
14 920 0 0 27 0 0
16 910 0 0 35 0 0
18 914 0 0 28 0 0
20 921 0 0 16 0 0
22 920 0 0 23 0 0
24 934 0 0 20 0 0
26 935 0 0 24 0 0
28 944 0 0 18 0 0
30 921 0 0 37 0 0
32 931 0 0 28 0 0
34 928 0 0 26 0 0
36 928 0 0 28 0 0
38 937 0 0 17 0 0
40 930 0 0 28 0 0
42 926 0 0 31 0 0
44 936 0 0 24 0 0
46 933 0 0 23 0 0
48 931 0 0 19 0 0
50 924 0 0 20 0 0
52 910 0 16 16 2 0
54 897 0 25 17 3 0
56 891 0 38 14 3 0
58 886 0 48 10 8 0
60 872 0 54 17 6 0
62 873 0 59 11 9 0
64 864 0 60 9 11 0
66 854 0 75 10 6 0
68 850 0 76 9 12 0
70 839 0 82 12 12 0
72 832 0 93 16 14 0
74 835 0 100 8 12 0
76 829 0 100 10 15 0
78 826 0 102 7 13 0
80 821 0 107 8 7 0
82 816 0 111 11 9 0
84 809 0 123 12 11 0
86 813 0 128 6 15 0
88 798 0 139 12 7 0
90 790 0 140 17 9 0
92 792 0 140 10 12 0
94 788 0 151 11 13 0
96 777 0 148 17 13 0
98 780 0 164 12 9 0
100 775 0 168 16 9 0
102 773 0 173 12 5 0
104 763 0 176 17 13 0
106 767 0 179 7 15 0
108 759 0 186 12 8 0
110 756 0 181 12 11 0
112 755 0 185 8 6 0
114 745 0 195 9 7 0
116 744 0 200 6 10 0
118 734 0 201 12 7 0
120 734 0 209 8 7 0
122 719 0 209 17 9 0
124 718 0 208 14 11 0
126 715 0 225 12 9 0
128 715 0 218 10 17 0
130 703 0 220 17 9 0
132 706 0 225 10 6 0
134 702 0 220 11 14 0
136 700 0 231 9 7 0
138 695 0 234 10 9 0
140 690 0 244 11 10 0
142 691 0 242 8 11 0
144 690 0 251 6 7 0
146 677 0 248 15 14 0
148 682 0 259 8 4 0
150 673 0 251 12 12 0
152 671 0 257 9 9 0
154 671 0 264 5 6 0
156 663 0 260 10 10 0
158 657 0 265 10 10 0
160 653 0 268 11 7 0
162 652 0 269 10 13 0
164 648 0 271 9 7 0
166 649 0 270 3 16 0
168 643 0 272 7 14 0
170 629 0 277 12 12 0
172 631 0 284 7 16 0
174 627 0 288 8 16 0
176 623 0 306 9 9 0
178 610 0 311 16 12 0
180 616 0 310 5 12 0
182 601 0 315 16 11 0
184 609 0 321 8 11 0
186 606 0 312 8 19 0
188 608 0 319 2 15 0
190 598 0 324 10 11 0
192 593 0 331 10 13 0
194 591 0 332 7 14 0
196 594 0 337 4 12 0
198 589 0 330 8 13 0
200 585 0 334 8 17 0
