0 850 0 0 0 0 0
2 776 46 0 31 0 1
4.00004 772 50 0 26 0 1
6 772 43 0 45 0 0
8 783 53 0 28 0 1
10 788 39 0 33 0 1
12 787 51 0 31 0 1
14 782 46 0 36 0 0
16 792 34 0 30 0 3
18 801 33 0 23 0 2
20 794 41 0 21 0 0
22 799 29 0 31 0 3
24 794 43 0 30 0 2
26 807 36 0 34 0 2
28 808 39 0 31 0 0
30 808 37 0 32 0 0
32 815 37 0 27 0 0
34 819 41 0 30 0 3
36 813 24 0 43 0 1
38 819 38 0 23 0 0
40 804 42 0 36 0 2
42 803 44 0 35 0 2
44 817 39 0 30 0 4
46 820 44 0 27 0 0
48 812 49 0 30 0 1
50 814 43 0 32 0 0
52 782 0 71 20 9 0
54 773 0 80 16 14 0
56 755 1 94 15 19 0
58 746 0 104 14 25 0
60 737 0 117 16 21 0
62 728 0 123 15 27 0
64 712 1 149 17 17 0
66 703 0 156 10 17 0
68 689 0 168 10 18 0
70 673 0 169 17 27 0
72 663 0 196 15 19 0
74 655 0 210 14 16 0
76 649 0 212 9 21 0
78 640 0 211 9 25 0
80 621 0 225 18 23 0
82 620 1 235 16 22 0
84 622 0 239 5 19 0
86 608 0 250 11 19 0
88 596 0 255 13 27 0
90 586 0 273 10 18 0
92 575 0 279 9 15 0
94 566 0 285 8 20 0
96 560 0 290 10 24 0
98 555 0 293 7 21 0
100 541 0 302 15 17 0
102 533 0 314 12 13 0
104 525 0 324 7 24 0
106 521 0 314 5 30 0
108 514 0 332 7 17 0
110 498 0 348 13 10 0
112 492 0 346 7 22 0
114 484 0 357 9 25 0
116 479 0 367 9 23 0
118 472 0 374 4 16 0
120 465 0 369 6 28 0
122 457 0 392 9 16 0
124 450 0 390 12 25 0
126 448 0 395 8 23 0
128 442 0 400 10 22 0
130 434 0 411 11 23 0
132 436 0 417 4 27 0
134 430 0 424 5 25 0
136 420 0 431 6 32 0
138 408 0 443 11 28 0
140 403 0 454 10 21 0
142 398 0 455 8 31 0
144 399 0 468 3 24 0
146 393 0 475 1 26 0
148 381 0 485 7 37 0
150 376 0 485 8 29 0
152 379 0 488 4 26 0
154 367 0 510 5 30 0
156 364 0 503 7 29 0
158 359 0 502 7 29 0
160 356 0 500 7 25 0
162 343 0 512 9 23 0
164 341 0 514 6 26 0
166 341 0 507 4 28 0
168 336 0 504 6 31 0
170 337 0 519 2 21 0
172 332 0 528 3 30 0
174 329 0 526 4 35 0
176 324 0 529 9 20 0
178 323 0 523 6 19 0
180 323 0 521 5 34 0
182 316 0 529 7 33 0
184 314 0 542 3 29 0
186 308 0 547 6 23 0
188 301 0 543 3 24 0
190 293 0 552 6 28 0
192 291 0 566 2 31 0
194 287 0 564 3 35 0
196 281 0 562 6 32 0
198 275 0 577 6 17 0
200 271 0 578 7 23 0
