0 1004 0 0 0 0 0
2 976 0 0 28 0 0
4.00004 976 0 0 22 0 0
6 967 0 0 28 0 0
8 978 0 0 18 0 0
10 973 0 0 23 0 0
12 966 0 0 37 0 0
14 977 0 0 16 0 0
16 967 0 0 24 0 0
18 965 0 0 20 0 0
20 964 0 0 23 0 0
22 947 0 0 31 0 0
24 954 0 0 23 0 0
26 954 0 0 18 0 0
28 941 0 0 38 0 0
30 954 0 0 23 0 0
32 964 0 0 18 0 0
34 953 0 0 26 0 0
36 950 0 0 27 0 0
38 945 0 0 27 0 0
40 951 0 0 25 0 0
42 961 0 0 21 0 0
44 964 0 0 27 0 0
46 970 0 0 30 0 0
48 972 0 0 26 0 0
50 975 0 0 21 0 0
52 941 0 13 33 4 0
54 937 0 20 20 6 0
56 929 0 30 18 3 0
58 916 0 40 16 4 0
60 910 0 46 17 8 0
62 900 0 50 19 5 0
64 889 0 59 22 4 0
66 889 0 61 14 10 0
68 874 0 72 15 11 0
70 869 0 78 16 13 0
72 854 0 93 20 7 0
74 851 0 96 17 15 0
76 849 0 107 15 10 0
78 837 0 113 22 12 0
80 840 0 115 14 10 0
82 837 0 121 12 12 0
84 828 0 119 17 11 0
86 828 0 119 11 14 0
88 823 0 128 12 14 0
90 814 0 140 13 11 0
92 803 0 147 19 9 0
94 803 0 149 11 15 0
96 797 0 153 11 10 0
98 787 0 160 12 14 0
100 783 0 166 10 12 0
102 779 0 165 10 14 0
104 772 0 182 15 11 0
106 762 0 181 19 11 0
108 761 0 184 13 16 0
110 753 0 193 16 10 0
112 749 0 202 11 12 0
114 738 0 205 15 7 0
116 736 0 207 14 8 0
118 737 0 209 8 16 0
120 731 0 211 9 21 0
122 722 0 215 14 18 0
124 719 0 228 13 10 0
126 720 0 230 7 9 0
128 712 0 240 8 13 0
130 702 0 237 12 11 0
132 694 0 247 12 11 0
134 685 0 251 13 15 0
136 681 0 262 9 7 0
138 675 0 267 9 10 0
140 668 0 270 10 11 0
142 659 0 283 12 11 0
144 665 0 287 6 13 0
146 658 0 281 9 21 0
148 644 0 293 15 16 0
150 643 0 296 14 14 0
152 637 0 297 16 8 0
154 630 0 291 20 13 0
156 634 0 300 9 15 0
158 625 0 309 15 14 0
160 620 0 315 16 16 0
162 621 0 326 7 13 0
164 620 0 323 7 16 0
166 611 0 325 11 18 0
168 606 0 335 13 20 0
170 608 0 346 8 11 0
172 605 0 349 8 13 0
174 597 0 346 13 18 0
176 599 0 356 9 16 0
178 599 0 362 3 14 0
180 592 0 365 6 13 0
182 586 0 371 10 18 0
184 578 0 384 11 16 0
186 571 0 380 11 22 0
188 568 0 371 10 22 0
190 563 0 387 11 8 0
192 557 0 382 15 12 0
194 558 0 384 11 11 0
196 555 0 390 9 13 0
198 557 0 387 5 21 0
200 548 0 400 9 17 0
