0 916 0 0 0 0 0
2 821 48 0 40 0 2
4.00004 823 37 0 42 0 1
6 835 30 0 32 0 1
8 834 33 0 36 0 4
10 843 37 0 37 0 3
12 847 35 0 34 0 1
14 852 36 0 46 0 0
16 856 47 0 36 0 5
18 861 43 0 30 0 0
20 847 30 0 52 0 2
22 843 48 0 47 0 2
24 859 36 0 41 0 1
26 844 43 0 51 0 1
28 855 48 0 51 0 1
30 859 45 0 44 0 2
32 876 25 0 33 0 3
34 857 36 0 39 0 4
36 859 35 0 38 0 5
38 861 34 0 37 0 2
40 859 36 0 38 0 2
42 857 36 0 36 0 1
44 855 40 0 39 0 1
46 851 35 0 40 0 1
48 842 39 0 42 0 0
50 848 35 0 42 0 1
52 808 0 75 25 19 0
54 801 0 93 21 14 0
56 787 0 106 17 22 0
58 772 0 127 17 22 0
60 773 0 134 12 13 0
62 764 0 128 16 24 0
64 745 0 140 20 24 0
66 748 0 154 6 23 0
68 732 2 157 15 24 0
70 722 0 166 15 27 0
72 721 0 167 13 28 0
74 717 0 166 16 27 0
76 710 0 192 13 18 0
78 694 0 191 21 26 0
80 697 0 189 10 35 0
82 699 0 198 7 31 0
84 688 0 217 9 23 0
86 683 0 203 10 35 0
88 674 0 217 16 24 0
90 673 0 216 14 39 0
92 668 0 240 16 18 0
94 667 0 241 15 22 0
96 663 0 238 14 30 0
98 654 0 260 16 25 0
100 651 0 265 14 21 0
102 644 0 270 14 28 0
104 638 0 265 15 35 0
106 633 0 283 11 31 0
108 623 0 281 11 30 0
110 617 0 286 13 32 0
112 614 0 303 9 22 0
114 599 0 301 17 27 0
116 603 0 299 8 29 0
118 599 0 299 10 30 0
120 589 0 307 16 29 0
122 589 0 309 10 28 0
124 581 0 315 12 33 0
126 576 0 325 14 21 0
128 570 0 322 16 30 0
130 570 0 339 10 16 0
132 570 0 323 6 25 0
134 559 1 343 7 34 0
136 546 0 343 16 33 0
138 540 0 353 17 26 0
140 541 0 367 10 21 0
142 530 0 365 16 21 0
144 531 0 354 11 33 0
146 525 0 376 9 24 0
148 516 0 387 12 25 0
150 518 0 382 5 24 0
152 511 0 375 9 33 0
154 504 0 383 10 26 0
156 502 0 386 9 30 0
158 498 0 409 8 19 0
160 483 0 396 14 32 0
162 474 0 395 14 38 0
164 472 0 402 10 35 0
166 473 0 409 6 30 0
168 466 0 402 9 27 1
170 459 0 405 9 34 0
172 457 0 415 8 29 0
174 457 0 423 8 29 0
176 453 0 430 7 28 0
178 450 0 430 5 35 0
180 441 0 444 11 36 0
182 440 0 441 7 30 0
184 438 0 456 7 25 0
186 432 0 463 10 22 0
188 430 0 454 9 32 0
190 424 0 462 11 35 0
192 416 0 456 13 41 0
194 418 0 457 6 38 0
196 406 0 469 13 26 0
198 404 0 475 10 29 0
200 398 0 473 11 34 0
