0 1060 0 0 0 0 0
2 1044 0 0 21 0 0
4.00004 1039 0 0 23 0 0
6 1032 0 0 26 0 0
8 1028 0 0 22 0 0
10 1035 0 0 20 0 0
12 1035 0 0 21 0 0
14 1036 0 0 18 0 0
16 1029 0 0 25 0 0
18 1035 0 0 21 0 0
20 1033 0 0 28 0 0
22 1041 0 0 25 0 0
24 1035 0 0 24 0 0
26 1041 0 0 26 0 0
28 1043 0 0 25 0 0
30 1039 0 0 23 0 0
32 1046 0 0 19 0 0
34 1050 0 0 12 0 0
36 1053 0 0 18 0 0
38 1041 0 0 35 0 0
40 1047 0 0 22 0 0
42 1048 0 0 23 0 0
44 1044 0 0 27 0 0
46 1051 0 0 24 0 0
48 1060 0 0 18 0 0
50 1066 0 0 18 0 0
52 1050 0 10 15 2 0
54 1037 0 18 13 5 0
56 1031 0 30 15 4 0
58 1027 0 37 8 5 0
60 1021 0 34 10 9 0
62 1014 0 44 13 7 0
64 1007 0 60 11 8 0
66 1005 0 58 8 10 0
68 991 0 71 14 12 0
70 989 0 77 12 16 0
72 987 0 84 9 11 0
74 987 0 90 6 13 0
76 978 0 96 10 9 0
78 972 0 96 10 9 0
80 963 0 105 14 9 0
82 964 0 103 10 11 0
84 953 0 111 10 13 0
86 948 0 121 13 7 0
88 946 0 125 11 8 0
90 948 0 126 5 9 0
92 930 0 144 12 5 0
94 924 0 141 12 9 0
96 924 0 152 6 7 0
98 918 0 156 9 7 0
100 910 0 150 12 11 0
102 911 0 150 7 9 0
104 896 0 160 16 9 0
106 901 0 164 8 7 0
108 894 0 169 7 7 0
110 885 0 173 13 11 0
112 885 0 172 7 14 0
114 876 0 186 11 13 0
116 868 0 189 14 14 0
118 866 0 198 12 9 0
120 856 0 198 13 17 0
122 848 0 199 16 12 0
124 854 0 203 6 22 0
126 844 0 216 14 8 0
128 848 0 217 7 12 0
130 838 0 218 12 8 0
132 838 0 227 4 7 0
134 832 0 228 9 15 0
136 834 0 235 3 8 0
138 829 0 241 5 10 0
140 823 0 245 6 11 0
142 815 0 240 9 13 0
144 813 0 252 9 13 0
146 808 0 258 10 17 0
148 803 0 270 11 8 0
150 803 0 272 7 11 0
152 793 0 276 10 12 0
154 790 0 280 9 18 0
156 779 0 285 12 18 0
158 779 0 294 7 9 0
160 778 0 291 2 14 0
162 771 0 301 6 13 0
164 769 0 305 8 12 0
166 765 0 313 9 8 0
168 763 0 318 5 8 0
170 762 0 318 5 13 0
172 758 0 321 4 13 0
174 748 0 338 7 12 0
176 739 0 336 10 14 0
178 741 0 342 7 16 0
180 737 0 336 9 17 0
182 738 0 345 5 15 0
184 735 0 359 3 11 0
186 730 0 355 7 11 0
188 727 0 356 5 13 0
190 719 0 358 9 5 0
192 718 0 356 7 12 0
194 713 0 358 8 10 0
196 702 0 360 9 12 0
198 705 0 365 4 15 0
200 698 0 378 9 10 0
