0 788 0 0 0 0 0
2 732 38 0 18 0 3
4.00004 720 40 0 18 0 7
6 726 35 0 14 0 2
8 731 29 0 13 0 1
10 729 23 0 13 0 7
12 717 37 0 16 0 2
14 729 26 0 15 0 3
16 726 32 0 15 0 4
18 734 25 0 17 0 5
20 721 32 0 19 0 1
22 709 25 0 17 0 5
24 711 25 0 20 0 2
26 712 27 0 20 0 3
28 709 19 0 13 0 7
30 698 29 0 13 0 5
32 695 27 0 15 0 4
34 700 21 0 12 0 5
36 705 31 0 11 0 3
38 720 25 0 11 0 3
40 710 27 0 12 0 3
42 709 32 0 9 0 3
44 706 28 0 14 0 3
46 715 26 0 10 0 2
48 708 36 0 12 0 2
50 708 24 0 12 0 7
52 641 0 86 8 12 0
54 619 0 112 8 14 0
56 602 0 115 5 22 0
58 583 0 139 9 11 0
60 566 0 156 7 8 0
62 549 1 158 5 17 0
64 537 0 172 2 12 0
66 520 0 182 3 12 0
68 503 0 204 6 21 0
70 489 0 227 2 16 0
72 466 0 248 4 13 1
74 449 0 256 5 12 0
76 438 0 271 4 11 0
78 423 0 287 10 11 0
80 415 0 301 2 17 0
82 401 0 301 7 20 0
84 391 0 320 6 11 0
86 380 0 328 5 17 1
88 368 0 340 5 14 0
90 352 0 353 7 12 0
92 335 0 360 9 15 0
94 327 0 375 2 15 0
96 320 0 370 2 17 0
98 310 0 388 3 12 0
100 304 0 396 2 12 0
102 292 0 414 1 8 0
104 286 0 417 1 9 0
106 278 0 418 4 13 0
108 269 0 425 2 16 0
110 257 0 443 1 15 0
112 246 0 455 3 12 0
114 242 0 471 2 10 0
116 238 0 465 2 14 0
118 233 0 475 4 10 0
120 227 0 484 1 13 0
122 225 0 485 0 16 0
124 217 0 496 2 6 0
126 210 0 489 2 27 0
128 206 0 507 0 10 0
130 198 0 502 2 15 0
132 192 0 493 2 23 0
134 186 0 510 0 19 0
136 177 0 518 0 16 0
138 169 0 520 3 17 0
140 166 0 519 1 19 0
142 158 0 526 3 11 0
144 158 0 537 1 14 0
146 155 0 557 0 7 0
148 153 0 541 1 20 0
150 149 0 559 1 8 0
152 141 0 563 3 12 0
154 139 0 559 0 13 0
156 137 0 560 1 10 0
158 130 0 556 3 20 0
160 129 0 565 0 11 0
162 123 0 562 1 13 0
164 118 0 554 3 17 0
166 111 0 563 4 21 0
168 108 0 584 4 14 0
170 105 0 585 1 12 0
172 102 0 585 2 20 0
174 103 0 596 0 11 0
176 98 0 589 2 16 0
178 95 0 600 1 8 0
180 93 0 593 0 17 0
182 91 0 598 1 19 0
184 88 0 595 2 17 0
186 82 0 607 0 11 0
188 81 0 588 0 23 0
190 79 0 600 0 14 0
192 77 0 604 0 16 0
194 73 0 607 0 20 0
196 72 0 609 0 13 0
198 69 0 609 0 12 0
200 63 0 609 2 15 0
