0 1012 0 0 0 0 0
2 970 0 0 27 0 0
4.00004 974 0 0 23 0 0
6 977 0 0 21 0 0
8 976 0 0 21 0 0
10 971 0 0 22 0 0
12 974 0 0 23 0 0
14 976 0 0 23 0 0
16 982 0 0 19 0 0
18 975 0 0 19 0 0
20 974 0 0 24 0 0
22 985 0 0 8 0 0
24 975 0 0 20 0 0
26 987 0 0 11 0 0
28 983 0 0 19 0 0
30 977 0 0 18 0 0
32 975 0 0 17 0 0
34 970 0 0 18 0 0
36 974 0 0 19 0 0
38 976 0 0 14 0 0
40 979 0 0 18 0 0
42 966 0 0 25 0 0
44 970 0 0 20 0 0
46 969 0 0 28 0 0
48 984 0 0 17 0 0
50 986 0 0 18 0 0
52 966 0 12 20 4 0
54 957 0 24 17 5 0
56 952 0 27 12 7 0
58 948 0 30 13 5 0
60 937 0 40 15 4 0
62 928 0 41 14 11 0
64 919 0 50 16 8 0
66 924 0 49 5 12 0
68 918 0 55 11 9 0
70 911 0 61 13 8 0
72 904 0 63 14 10 0
74 902 0 66 10 6 0
76 899 0 73 9 9 0
78 891 0 78 10 11 0
80 890 0 82 8 12 0
82 886 0 90 10 11 0
84 880 0 95 9 8 0
86 878 0 106 6 10 0
88 863 0 105 16 15 0
90 866 0 106 9 9 0
92 860 0 110 13 13 0
94 860 0 120 11 5 0
96 859 0 123 7 10 0
98 853 0 124 9 12 0
100 846 0 132 12 8 0
102 846 0 134 10 11 0
104 838 0 132 13 10 0
106 841 0 137 5 17 0
108 829 0 147 12 6 0
110 825 0 156 12 5 0
112 826 0 155 8 7 0
114 824 0 152 7 11 0
116 812 0 157 12 8 0
118 804 0 158 14 9 0
120 806 0 162 8 7 0
122 803 0 165 10 8 0
124 794 0 174 15 9 0
126 796 0 176 9 6 0
128 796 0 175 6 11 0
130 785 0 177 14 17 0
132 790 0 184 5 12 0
134 788 0 190 5 10 0
136 778 0 194 11 9 0
138 780 0 195 8 8 0
140 774 0 204 11 6 0
142 766 0 207 13 10 0
144 767 0 212 6 9 0
146 758 0 220 9 11 0
148 752 0 228 9 9 0
150 750 0 229 7 15 0
152 744 0 242 5 9 0
154 734 0 247 11 7 0
156 734 0 247 7 8 0
158 729 0 244 10 14 0
160 725 0 252 8 7 0
162 725 0 259 7 8 0
164 721 0 267 9 7 0
166 715 0 264 10 14 0
168 709 0 268 11 10 0
170 707 0 267 9 18 0
172 706 0 284 6 9 0
174 696 0 289 9 6 0
176 693 0 288 9 10 0
178 693 0 289 5 11 0
180 686 0 302 8 13 0
182 680 0 300 8 13 0
184 679 0 311 5 8 0
186 676 0 312 8 7 0
188 675 0 321 7 8 0
190 670 0 325 8 13 0
192 670 0 331 4 12 0
194 662 0 329 8 16 0
196 659 0 334 5 5 0
198 653 0 336 5 10 0
200 650 0 339 5 13 0
