0 922 0 0 0 0 0
2 858 37 0 28 0 0
4.00004 856 38 0 27 0 0
6 860 41 0 19 0 0
8 853 34 0 24 0 0
10 853 37 0 26 0 0
12 843 36 0 27 0 0
14 837 48 0 26 0 0
16 838 45 0 27 0 0
18 855 42 0 22 0 0
20 843 45 0 17 0 0
22 859 35 0 24 0 0
24 852 33 0 30 0 0
26 838 38 0 28 0 0
28 848 37 0 16 0 0
30 848 36 0 16 0 0
32 843 38 0 23 0 0
34 850 38 0 15 0 0
36 859 26 0 21 0 0
38 852 33 0 23 0 0
40 856 33 0 17 0 0
42 849 37 0 21 0 0
44 847 33 0 21 0 0
46 831 37 0 22 0 0
48 833 38 0 28 0 0
50 834 46 0 12 0 0
52 807 0 73 6 11 0
54 800 0 75 8 13 0
56 796 0 80 4 13 0
58 781 0 92 10 11 0
60 772 0 99 7 18 0
62 764 0 117 10 13 0
64 761 0 120 7 12 0
66 751 0 127 7 18 0
68 744 0 129 7 8 0
70 736 0 129 10 14 0
72 732 0 129 6 14 0
74 722 0 152 7 11 0
76 718 0 153 6 18 0
78 714 0 158 4 19 0
80 699 0 166 11 11 0
82 695 0 169 8 18 0
84 689 0 189 5 11 0
86 681 0 187 7 23 0
88 678 0 206 4 12 0
90 669 0 218 8 13 0
92 665 0 203 8 25 0
94 661 0 221 6 15 0
96 656 0 225 6 12 0
98 652 0 231 3 8 0
100 643 0 230 5 12 0
102 633 0 246 3 19 0
104 632 0 250 3 12 0
106 620 0 260 9 16 0
108 619 0 275 2 18 0
110 609 0 275 7 18 0
112 603 0 283 7 11 0
114 593 0 290 8 11 0
116 588 0 291 11 12 0
118 583 0 298 5 12 0
120 580 0 295 3 15 0
122 571 0 297 7 16 0
124 565 0 304 7 17 0
126 561 0 315 4 17 0
128 555 0 321 5 10 0
130 551 0 322 5 16 0
132 548 1 325 4 16 0
134 544 0 329 5 18 0
136 537 0 331 6 12 0
138 533 0 332 4 12 0
140 528 0 339 3 13 0
142 526 0 345 4 13 0
144 516 0 345 5 18 0
146 511 0 351 5 16 0
148 510 0 363 4 12 0
150 505 0 362 1 16 0
152 496 0 381 5 14 0
154 490 0 387 6 12 0
156 483 0 394 5 17 0
158 478 0 398 7 15 0
160 470 0 403 9 14 0
162 470 0 404 5 16 0
164 465 0 429 1 10 0
166 457 0 427 2 20 0
168 450 0 431 5 23 0
170 437 0 449 9 17 0
172 437 0 464 3 14 0
174 421 0 455 10 23 0
176 424 0 462 6 17 0
178 427 0 455 2 22 0
180 423 0 457 3 21 0
182 421 0 466 2 17 0
184 416 0 470 3 19 0
186 415 0 472 1 19 0
188 412 0 474 4 14 0
190 408 0 477 4 14 0
192 399 0 472 9 19 0
194 398 0 487 4 15 0
196 394 0 483 3 17 0
198 387 1 487 4 18 0
200 381 0 500 4 16 0
