0 37 0 0 0
2 36 0 1 0
4.00004 37 0 0 0
6 37 0 0 0
8 37 0 0 0
10 36 0 1 0
12 36 0 0 0
14 36 0 0 0
16 36 0 0 0
18 36 0 0 0
20 36 0 0 0
22 36 0 0 0
24 36 0 0 0
26 36 0 0 0
28 35 0 1 0
30 37 1 0 0
32 37 1 0 0
34 37 1 0 0
36 37 1 0 0
38 37 1 0 1
40 37 2 0 0
42 37 2 0 0
44 36 2 0 0
46 36 2 0 0
48 36 2 0 0
50 34 3 1 0
52 34 2 0 1
54 34 2 0 0
56 33 2 0 0
58 33 2 0 0
60 33 2 0 0
62 32 2 0 0
64 32 2 0 0
66 32 1 0 0
68 32 1 0 0
70 32 1 0 0
72 32 1 0 0
74 33 1 0 0
76 33 1 0 0
78 33 1 0 0
80 33 1 0 0
82 33 1 0 0
84 33 1 0 0
86 33 2 0 0
88 33 2 0 0
90 33 2 0 0
92 31 2 0 0
94 31 2 0 0
96 31 2 0 0
98 31 2 0 1
100 31 3 0 0
102 31 5 0 0
104 31 5 0 0
106 31 5 0 0
108 30 5 1 0
110 30 5 0 0
112 29 7 0 0
114 28 7 1 0
116 28 7 0 0
118 29 7 0 0
120 29 7 0 0
122 29 7 0 0
124 29 7 0 0
126 29 7 0 0
128 28 7 0 0
130 27 7 1 0
132 28 7 0 0
134 28 7 0 0
136 27 7 0 0
138 27 7 0 0
140 27 7 0 0
142 26 7 1 0
144 27 7 0 0
146 27 7 0 0
148 27 7 0 0
150 27 7 0 0
152 27 7 0 0
154 26 7 0 0
156 26 6 0 1
158 26 8 0 0
160 25 8 0 0
162 25 8 0 0
164 25 8 0 0
166 25 8 0 0
168 25 8 0 0
170 25 8 0 0
172 25 8 0 0
174 25 8 0 0
176 25 8 0 0
178 24 8 1 0
180 24 9 1 0
182 24 9 0 0
184 24 9 0 0
186 24 9 0 0
188 24 9 0 0
190 23 9 0 0
192 23 9 0 0
194 23 9 0 0
196 23 9 0 0
198 23 9 0 0
200 23 10 0 0
202 23 10 0 0
204 23 10 0 0
206 22 10 0 0
208 21 10 0 0
210 21 8 0 0
