0 47 0 0 0
2 46 0 0 0
4.00004 47 0 0 0
6 46 0 1 0
8 47 0 0 0
10 46 0 1 0
12 46 0 0 0
14 46 0 0 0
16 46 0 0 0
18 46 0 0 0
20 45 0 1 0
22 46 0 0 0
24 45 0 0 0
26 45 0 0 0
28 44 0 0 0
30 44 0 0 0
32 43 0 1 0
34 44 0 0 0
36 44 0 0 0
38 44 0 0 0
40 44 1 0 0
42 42 1 1 0
44 42 1 0 0
46 42 2 0 0
48 42 3 0 0
50 42 3 0 0
52 42 3 0 0
54 42 3 0 0
56 43 3 0 0
58 43 3 0 0
60 43 3 0 0
62 42 3 0 1
64 42 4 0 0
66 43 4 0 0
68 43 4 0 0
70 43 4 0 0
72 43 4 0 0
74 43 4 0 0
76 43 4 0 0
78 43 4 0 0
80 43 4 0 0
82 43 4 0 1
84 42 5 0 0
86 42 7 0 0
88 42 6 0 0
90 42 7 0 1
92 42 8 0 0
94 42 9 0 0
96 42 9 0 0
98 42 9 0 0
100 41 9 0 0
102 40 9 0 0
104 39 9 0 0
106 38 9 1 0
108 38 9 0 0
110 38 9 0 1
112 37 11 0 0
114 37 11 0 0
116 37 11 0 0
118 36 11 0 0
120 34 11 1 0
122 35 13 0 0
124 33 13 0 0
126 33 13 0 0
128 32 13 0 0
130 32 13 0 0
132 32 12 0 1
134 32 13 0 0
136 32 14 0 0
138 31 14 0 0
140 31 15 0 0
142 31 15 0 0
144 30 15 0 0
146 30 15 0 0
148 30 14 0 0
150 30 14 0 0
152 30 14 0 0
154 29 14 0 0
156 29 14 0 0
158 29 14 0 0
160 30 13 0 0
162 30 14 0 0
164 30 14 0 1
166 30 14 0 0
168 30 14 0 0
170 30 15 0 0
172 30 15 0 0
174 30 16 0 0
176 29 16 1 0
178 29 16 1 0
180 30 16 0 0
182 30 16 0 0
184 30 16 0 0
186 29 18 0 0
188 29 18 0 0
190 28 18 1 0
192 29 18 0 0
194 29 18 0 0
196 29 17 0 0
198 29 17 0 0
200 29 17 0 0
202 28 17 0 0
204 28 17 0 0
206 28 17 0 0
208 28 17 0 0
210 28 18 0 0
