0 61 0 0 0
2 59 0 1 0
4.00004 59 0 0 0
6 59 0 0 0
8 59 0 0 0
10 59 0 0 0
12 59 0 0 0
14 59 0 0 0
16 59 0 0 0
18 59 0 0 0
20 59 0 0 0
22 58 0 0 0
24 58 0 0 0
26 59 0 0 0
28 59 0 0 0
30 59 0 0 0
32 59 1 0 0
34 59 1 0 0
36 59 1 0 0
38 59 1 0 0
40 59 1 0 0
42 58 1 0 0
44 58 2 0 0
46 58 2 0 0
48 58 2 0 0
50 57 2 1 0
52 58 2 0 0
54 58 2 0 0
56 58 2 0 0
58 57 2 0 0
60 57 2 0 0
62 57 2 0 0
64 56 3 0 0
66 54 3 1 0
68 53 4 0 0
70 53 4 0 0
72 53 4 0 0
74 54 4 0 0
76 54 4 0 0
78 54 4 0 0
80 54 4 0 0
82 54 4 0 0
84 54 4 0 0
86 54 4 0 0
88 54 4 0 0
90 54 4 0 0
92 54 5 0 0
94 53 5 0 0
96 52 5 1 0
98 53 5 0 0
100 53 5 0 0
102 52 5 0 0
104 52 5 0 0
106 51 5 0 0
108 52 5 0 0
110 52 5 0 0
112 52 7 0 0
114 52 7 0 0
116 52 7 0 0
118 52 8 0 0
120 52 8 0 1
122 52 9 0 1
124 52 9 0 0
126 52 9 0 0
128 52 9 0 0
130 52 9 0 0
132 52 9 0 0
134 51 9 1 0
136 51 10 0 0
138 51 10 0 0
140 51 10 0 0
142 51 10 0 0
144 51 10 0 0
146 51 10 0 0
148 51 10 0 0
150 50 10 0 0
152 50 10 0 0
154 50 11 0 0
156 50 11 0 0
158 50 11 0 0
160 50 11 0 0
162 50 11 0 0
164 50 11 0 0
166 49 11 0 0
168 48 11 1 0
170 49 11 0 0
172 49 11 0 0
174 49 11 0 0
176 49 11 0 0
178 49 11 0 0
180 49 12 0 0
182 49 12 0 0
184 49 12 0 0
186 49 12 0 0
188 49 13 0 0
190 48 13 1 0
192 49 13 0 0
194 49 13 0 0
196 48 13 0 0
198 48 13 0 0
200 48 13 0 0
202 48 13 0 0
204 48 13 0 0
206 48 14 0 0
208 48 15 0 0
210 48 15 0 0
