0 38 0 0 0
2 37 0 0 0
4.00004 36 0 0 0
6 35 0 1 0
8 36 0 0 0
10 36 0 0 0
12 34 0 0 0
14 34 0 0 0
16 34 0 0 0
18 34 0 1 0
20 34 0 0 0
22 34 0 0 0
24 34 0 0 0
26 34 0 0 0
28 34 0 0 0
30 34 0 0 0
32 35 0 0 0
34 35 0 0 0
36 34 0 0 0
38 34 2 0 0
40 34 2 0 0
42 34 2 0 0
44 34 3 0 0
46 32 3 1 0
48 32 3 0 0
50 32 3 0 0
52 32 4 0 0
54 32 4 0 0
56 32 4 0 0
58 32 4 0 0
60 32 4 0 0
62 32 4 0 0
64 32 3 0 0
66 32 4 0 0
68 32 4 0 0
70 32 4 0 0
72 31 4 0 0
74 31 4 0 0
76 30 4 0 0
78 30 4 0 0
80 29 5 0 0
82 28 5 0 0
84 29 5 0 0
86 29 5 0 0
88 28 6 1 0
90 29 6 0 0
92 29 6 0 0
94 29 6 0 0
96 28 6 0 0
98 28 6 0 0
100 28 6 0 0
102 27 6 1 0
104 28 6 0 0
106 28 6 0 0
108 28 6 0 0
110 28 7 0 0
112 27 7 0 0
114 25 7 0 0
116 26 7 0 0
118 26 8 0 0
120 26 8 0 0
122 26 8 0 0
124 26 7 0 2
126 26 8 0 0
128 25 8 0 0
130 25 9 0 0
132 25 9 0 0
134 25 10 0 0
136 25 11 0 0
138 25 11 0 0
140 25 12 0 0
142 25 12 0 0
144 25 12 0 0
146 25 13 0 0
148 25 13 0 0
150 25 13 0 0
152 25 13 0 1
154 25 14 0 0
156 25 14 0 0
158 25 15 0 0
160 25 15 0 0
162 25 15 0 0
164 25 15 0 0
166 24 15 1 0
168 24 14 0 1
170 24 15 0 0
172 24 15 0 0
174 24 15 0 0
176 24 15 0 0
178 24 15 0 0
180 24 15 0 1
182 24 16 0 0
184 24 16 0 0
186 24 15 0 0
188 24 15 0 0
190 23 15 0 0
192 24 15 0 0
194 24 15 0 0
196 24 15 0 0
198 24 15 0 0
200 22 16 0 0
202 22 16 0 0
204 22 16 0 0
206 21 17 0 0
208 21 17 0 1
210 20 16 0 1
