0 117 0 0 0
2 117 0 0 0
4.00004 117 0 0 0
6 117 0 0 0
8 117 0 0 0
10 116 0 1 0
12 99 17 0 0
14 96 21 0 0
16 89 28 0 0
18 80 37 0 0
20 74 42 1 0
22 69 49 0 0
24 60 57 0 0
26 56 61 0 0
28 54 63 0 0
30 50 67 0 0
32 46 71 0 0
34 45 72 0 1
36 45 73 0 0
38 42 76 0 0
40 40 78 0 0
42 37 81 0 0
44 34 84 0 0
46 34 84 0 0
48 31 86 1 0
50 30 87 0 0
52 28 89 0 0
54 26 90 0 1
56 25 92 0 0
58 22 94 0 0
60 19 97 0 0
62 18 98 0 0
64 15 101 0 0
66 15 102 0 0
68 14 103 0 1
70 14 104 0 0
72 14 104 0 0
74 12 106 0 0
76 12 106 0 0
78 13 106 0 0
80 13 106 0 0
82 11 108 0 0
84 9 108 0 1
86 9 108 0 0
88 7 110 0 0
90 7 110 0 0
92 7 110 0 0
94 7 110 0 0
96 6 110 0 0
98 5 111 0 0
100 5 111 0 0
102 5 111 0 0
104 5 112 0 0
106 4 113 0 0
108 3 114 0 0
110 3 114 0 0
112 3 113 0 0
114 3 114 0 0
116 3 114 0 0
118 2 115 0 0
120 2 113 0 1
122 2 114 1 0
124 3 114 0 0
126 3 114 0 0
128 3 114 0 0
130 2 114 0 0
132 2 114 0 0
134 2 114 0 0
136 2 114 0 0
138 2 113 0 1
140 2 114 0 0
142 3 114 0 0
144 3 114 0 0
146 3 113 0 0
148 3 112 0 0
150 3 112 0 0
152 3 113 0 0
154 2 114 0 0
156 2 113 0 1
158 2 113 0 0
160 2 113 0 0
162 1 114 0 0
164 1 113 0 0
166 1 112 0 0
168 1 112 0 0
170 1 110 0 1
172 1 111 0 0
174 1 111 0 0
176 3 111 0 0
178 3 111 0 0
180 3 111 0 0
182 3 111 0 0
184 3 111 0 0
186 2 111 0 0
188 2 111 0 0
190 2 110 0 1
192 2 111 0 0
194 2 111 0 0
196 1 112 0 0
198 1 112 0 0
200 1 112 0 0
202 1 112 0 0
204 1 111 0 1
206 1 112 0 0
208 1 111 0 0
210 1 111 0 0
