0 116 0 0 0
2 116 0 0 0
4.00004 115 0 0 0
6 115 0 0 0
8 115 0 0 0
10 115 0 0 0
12 95 19 0 0
14 88 26 0 0
16 79 35 0 0
18 72 42 0 0
20 66 48 0 0
22 57 57 0 0
24 53 61 0 0
26 44 70 0 0
28 40 74 0 0
30 36 78 0 0
32 33 81 0 0
34 31 83 0 0
36 30 85 0 0
38 26 88 0 0
40 21 92 1 0
42 19 95 0 0
44 18 96 0 0
46 18 96 1 0
48 15 100 0 0
50 13 102 0 0
52 13 102 0 0
54 11 103 0 1
56 9 106 0 0
58 9 106 0 0
60 8 107 0 0
62 8 107 0 0
64 8 107 0 0
66 9 107 0 0
68 7 109 0 0
70 6 110 0 0
72 6 110 0 0
74 5 110 0 1
76 4 112 0 0
78 5 112 0 1
80 5 113 0 0
82 4 114 0 0
84 5 114 0 0
86 5 114 0 0
88 5 114 0 0
90 4 114 0 0
92 4 113 0 1
94 4 114 0 0
96 3 115 0 0
98 2 115 0 0
100 2 115 0 0
102 2 115 0 0
104 2 115 0 0
106 1 116 0 0
108 1 116 0 0
110 1 115 0 0
112 2 115 0 0
114 0 117 0 0
116 0 117 0 0
118 1 117 0 0
120 2 116 0 0
122 2 117 0 0
124 3 117 0 0
126 2 118 1 0
128 2 119 0 0
130 2 120 0 0
132 2 120 0 0
134 1 121 0 0
136 1 121 0 0
138 0 122 1 0
140 1 122 0 0
142 2 121 0 0
144 1 122 0 0
146 1 122 0 0
148 1 122 0 0
150 1 122 0 0
152 1 122 0 0
154 1 122 0 0
156 1 122 0 0
158 1 122 0 0
160 1 122 0 0
162 1 122 0 0
164 1 122 0 0
166 1 122 0 0
168 1 122 0 0
170 1 122 0 0
172 1 121 0 0
174 1 120 0 0
176 2 120 0 0
178 2 120 0 0
180 2 120 0 0
182 3 118 0 2
184 2 121 0 0
186 2 121 0 0
188 2 121 0 0
190 2 121 0 0
192 2 121 0 0
194 2 121 0 0
196 2 121 0 0
198 2 121 0 0
200 2 121 0 0
202 2 121 0 0
204 3 121 0 0
206 3 121 0 0
208 3 121 0 0
210 3 121 0 0
