0 939 0 0 0 0 0
2 890 11 0 22 0 15
4.00004 889 13 0 27 0 4
6 883 16 0 22 0 5
8 897 10 0 14 0 12
10 895 9 0 26 0 6
12 875 21 0 24 0 10
14 861 13 0 37 0 5
16 868 13 0 32 0 8
18 875 8 0 25 0 11
20 875 12 0 25 0 5
22 885 12 0 25 0 6
24 873 13 0 22 0 10
26 880 9 0 22 0 15
28 872 15 0 27 0 6
30 870 20 0 30 0 10
32 873 11 0 22 0 14
34 856 17 0 32 0 15
36 868 10 0 20 0 18
38 870 17 0 21 0 7
40 865 12 0 29 0 13
42 864 15 0 27 0 9
44 863 22 0 32 0 12
46 883 13 0 23 0 13
48 866 16 0 27 0 11
50 874 16 0 26 0 10
52 800 0 92 14 21 0
54 772 0 108 18 20 0
56 764 0 116 10 27 0
58 745 0 143 11 26 0
60 725 0 148 16 29 0
62 714 0 182 14 26 0
64 706 0 196 7 23 0
66 689 0 206 6 32 0
68 675 0 225 12 31 0
70 665 0 246 8 23 0
72 655 0 255 7 27 0
74 646 0 270 5 28 0
76 624 0 289 12 29 0
78 614 0 296 2 29 0
80 591 0 319 9 31 0
82 586 0 333 5 24 0
84 572 0 330 10 31 0
86 565 0 343 6 25 0
88 556 0 362 4 23 0
90 538 0 370 7 31 0
92 531 0 386 6 22 0
94 515 0 390 7 23 0
96 501 0 408 5 26 0
98 486 0 411 9 26 0
100 484 0 425 2 24 2
102 477 0 413 5 34 0
104 457 0 435 11 28 0
106 449 0 449 2 38 0
108 438 0 464 2 26 0
110 424 0 476 6 34 0
112 409 0 504 7 23 0
114 398 0 503 7 32 0
116 390 0 513 6 21 1
118 372 0 529 11 31 0
120 365 0 545 5 30 0
122 358 0 550 1 37 0
124 346 0 564 2 30 0
126 333 0 559 6 34 0
128 324 0 566 3 41 0
130 323 0 582 3 39 0
132 315 0 587 2 33 0
134 311 0 586 0 38 0
136 307 0 595 2 35 0
138 297 0 601 4 32 0
140 294 0 604 2 34 0
142 285 0 608 4 38 0
144 279 0 635 3 33 0
146 274 0 636 3 36 0
148 265 0 647 4 32 0
150 259 0 657 0 37 0
152 251 0 661 3 43 0
154 249 0 653 3 47 0
156 244 0 674 2 34 0
158 239 0 689 2 32 0
160 232 0 684 3 31 0
162 221 0 691 4 32 0
164 219 0 693 1 36 0
166 212 0 694 4 38 0
168 208 0 704 0 33 0
170 200 0 715 4 32 0
172 194 0 723 5 34 0
174 191 0 721 2 40 0
176 182 0 723 8 40 0
178 183 0 736 1 32 0
180 176 0 745 3 28 0
182 172 0 739 4 26 0
184 163 0 742 4 29 0
186 162 0 749 2 28 0
188 156 0 754 4 34 0
190 159 0 760 0 29 0
192 154 0 759 2 27 0
194 152 0 760 0 26 0
196 149 1 763 0 20 0
198 145 0 757 1 30 0
200 139 1 761 3 29 0
