0 1068 0 0 0 0 0
2 1054 6 0 11 0 6
4.00004 1044 13 0 15 0 7
6 1039 11 0 14 0 10
8 1042 9 0 12 0 8
10 1027 8 0 16 0 12
12 1039 9 0 11 0 3
14 1034 14 0 14 0 6
16 1037 9 0 16 0 4
18 1042 10 0 13 0 4
20 1041 17 0 19 0 2
22 1034 16 0 11 0 14
24 1029 11 0 20 0 9
26 1030 11 0 19 0 9
28 1030 12 0 20 0 5
30 1034 13 0 13 0 5
32 1037 6 0 16 0 7
34 1032 16 0 21 0 3
36 1024 12 0 18 0 9
38 1025 20 0 18 0 6
40 1038 9 0 20 0 1
42 1038 8 0 16 0 4
44 1026 13 0 19 0 12
46 1030 9 0 18 0 8
48 1029 16 0 10 0 7
50 1036 11 0 19 0 5
52 950 0 87 11 22 0
54 932 0 119 5 17 0
56 920 0 126 6 12 0
58 907 0 139 8 16 0
60 893 0 161 8 13 0
62 887 0 168 9 13 0
64 870 0 178 9 18 0
66 855 0 185 11 19 0
68 846 0 208 8 12 0
70 837 0 209 5 15 0
72 827 0 223 6 13 0
74 817 0 236 9 14 0
76 806 0 245 9 13 0
78 795 0 254 10 17 0
80 788 0 269 4 22 0
82 777 0 273 7 12 0
84 772 0 273 8 23 0
86 762 0 279 8 20 0
88 752 0 300 8 17 0
90 742 0 311 9 17 0
92 730 0 324 9 14 0
94 723 0 339 10 12 0
96 720 0 335 6 24 0
98 712 0 345 5 17 0
100 704 0 359 5 13 1
102 692 0 358 6 26 0
104 692 0 366 4 14 0
106 688 0 365 3 23 0
108 676 0 373 6 24 0
110 674 0 387 4 20 0
112 669 0 401 3 22 0
114 653 0 410 9 19 0
116 646 0 419 6 19 0
118 642 0 422 1 21 0
120 633 0 423 4 22 0
122 626 0 433 5 13 0
124 617 0 442 5 13 0
126 613 0 456 4 13 0
128 607 0 446 3 18 0
130 595 0 456 6 23 0
132 580 0 472 6 22 0
134 572 0 485 7 17 0
136 562 0 497 5 16 1
138 558 0 496 5 19 0
140 554 0 491 5 16 0
142 553 0 503 3 15 0
144 547 0 505 2 18 0
146 539 0 526 3 19 0
148 534 0 525 3 20 0
150 524 0 539 3 18 0
152 521 1 541 0 22 0
154 515 0 546 1 20 0
156 508 0 543 1 23 0
158 503 0 544 6 23 0
160 497 0 560 4 18 0
162 490 0 557 7 21 0
164 491 0 560 2 15 0
166 481 0 575 4 14 0
168 483 0 584 0 8 0
170 476 0 580 4 19 0
172 471 0 585 5 19 0
174 467 0 584 4 24 0
176 466 0 598 1 18 0
178 461 0 590 1 21 0
180 450 0 597 3 16 0
182 446 0 616 1 10 0
184 438 0 607 4 23 0
186 435 0 612 5 21 0
188 429 0 614 4 24 0
190 428 0 614 4 24 0
192 422 0 635 5 16 0
194 415 0 637 3 22 0
196 412 0 639 2 25 0
198 404 0 642 3 21 0
200 400 0 652 2 20 0
