0 1076 0 0 0 0 0
2 1008 29 0 18 0 6
4.00004 1007 42 0 15 0 4
6 1009 32 0 15 0 7
8 1005 32 0 19 0 6
10 1002 32 0 7 0 6
12 995 30 0 15 0 9
14 996 30 0 12 0 8
16 1001 32 0 12 0 4
18 1005 18 0 16 0 6
20 994 29 0 15 0 5
22 991 24 0 15 0 4
24 987 20 0 18 0 5
26 972 29 0 17 0 10
28 981 31 0 8 0 8
30 976 28 0 16 0 6
32 973 21 0 14 0 8
34 987 28 0 11 0 4
36 982 30 0 9 0 5
38 973 33 0 11 0 5
40 976 18 0 19 0 3
42 968 32 0 21 0 3
44 970 24 0 14 0 7
46 958 39 0 13 0 6
48 950 35 0 20 0 5
50 958 29 0 6 0 5
52 930 0 43 10 18 0
54 912 0 76 3 12 0
56 886 0 85 3 23 0
58 869 0 92 5 24 0
60 854 0 127 4 13 0
62 832 0 136 7 16 0
64 819 0 152 4 11 0
66 802 0 172 4 14 0
68 780 0 193 3 11 0
70 762 0 206 4 15 0
72 745 0 230 5 10 0
74 728 0 240 3 13 0
76 715 0 257 2 12 1
78 701 0 265 5 14 0
80 685 0 287 3 14 1
82 669 0 292 7 16 0
84 660 0 313 2 13 0
86 644 0 314 5 17 0
88 631 0 334 4 20 0
90 625 0 348 2 14 0
92 610 0 369 1 16 0
94 599 0 379 1 16 0
96 585 0 392 1 23 0
98 572 0 403 2 17 0
100 559 0 415 2 19 0
102 541 0 430 5 19 0
104 529 0 440 2 15 0
106 510 0 467 5 22 0
108 505 0 457 1 23 0
110 492 0 485 3 19 0
112 486 0 491 2 23 0
114 476 0 501 3 21 0
116 467 0 510 2 17 0
118 457 0 528 2 19 0
120 450 0 528 3 17 0
122 438 0 536 4 23 0
124 437 0 552 3 10 0
126 430 0 552 5 16 0
128 421 0 563 3 18 0
130 413 0 575 4 19 0
132 404 0 585 2 19 0
134 399 0 589 1 16 0
136 380 0 603 5 20 0
138 372 0 615 2 18 0
140 369 0 616 1 18 0
142 359 0 623 5 15 0
144 353 0 632 2 16 0
146 343 0 636 1 22 0
148 337 0 642 0 21 0
150 331 0 658 3 20 1
152 327 0 664 1 22 0
154 318 0 666 3 19 0
156 310 0 667 2 21 0
158 305 0 681 1 19 0
160 299 0 678 1 15 0
162 296 0 672 2 12 0
164 291 0 683 2 15 0
166 284 0 683 1 19 0
168 277 0 696 2 16 0
170 268 0 702 1 16 0
172 263 0 703 3 15 0
174 261 0 694 2 19 0
176 253 0 705 2 21 0
178 244 0 710 0 22 0
180 236 0 731 1 11 0
182 235 0 726 0 22 0
184 232 0 732 1 18 0
186 227 0 731 2 15 0
188 224 0 740 3 10 0
190 216 0 739 1 15 0
192 213 0 743 0 17 1
194 208 0 747 1 11 0
196 205 0 748 0 16 0
198 200 0 751 1 15 0
200 195 0 747 1 18 0
