0 809 0 0 0 0 0
2 798 0 0 10 0 0
4.00004 797 0 0 11 0 0
6 802 0 0 13 0 0
8 803 0 0 13 0 0
10 798 0 0 14 0 0
12 805 0 0 5 0 0
14 800 0 0 12 0 0
16 799 0 0 17 0 0
18 793 0 0 18 0 0
20 795 0 0 10 0 0
22 798 0 0 9 0 0
24 799 0 0 9 0 0
26 804 0 0 6 0 0
28 795 0 0 13 0 0
30 796 0 0 14 0 0
32 795 0 0 8 0 0
34 797 0 0 20 0 0
36 805 0 0 14 0 0
38 805 0 0 7 0 0
40 806 0 0 11 0 0
42 802 0 0 15 0 0
44 805 0 0 11 0 0
46 812 0 0 10 0 0
48 812 0 0 10 0 0
50 808 0 0 16 0 0
52 799 0 13 6 6 0
54 787 0 19 7 6 0
56 773 0 34 8 6 0
58 766 0 37 8 6 0
60 769 0 51 3 3 0
62 762 0 51 4 6 0
64 749 0 58 10 7 0
66 747 0 58 6 6 0
68 735 0 69 9 5 0
70 730 0 73 6 3 0
72 722 0 77 9 6 0
74 712 0 90 13 5 0
76 716 0 94 4 2 0
78 710 0 96 7 6 0
80 710 0 99 3 8 0
82 698 0 103 9 9 0
84 689 0 117 6 6 0
86 681 0 126 7 6 0
88 677 0 131 3 6 0
90 669 0 137 7 6 0
92 668 0 143 3 4 0
94 656 0 153 10 3 0
96 658 0 155 4 7 0
98 650 0 161 7 5 0
100 646 0 166 3 4 0
102 642 0 173 4 4 0
104 635 0 180 5 6 0
106 629 0 185 7 9 0
108 626 0 189 6 6 0
110 626 0 197 1 6 0
112 612 0 201 10 9 0
114 606 0 201 7 6 0
116 603 0 214 6 6 0
118 593 0 214 8 5 0
120 590 0 217 4 5 0
122 584 0 219 3 6 0
124 577 0 225 7 8 0
126 574 0 235 5 8 0
128 572 0 234 1 4 0
130 561 0 246 6 4 0
132 559 0 254 8 6 0
134 555 0 255 7 6 0
136 552 0 261 6 5 0
138 545 0 262 9 6 0
140 537 0 260 8 2 0
142 538 0 262 4 5 0
144 528 0 276 5 2 0
146 522 0 278 3 7 0
148 517 0 286 5 8 0
150 513 0 290 6 4 0
152 513 0 292 4 7 0
154 510 0 302 4 8 0
156 505 0 303 5 8 0
158 501 0 310 7 8 0
160 500 0 321 2 8 0
162 496 0 320 4 13 0
164 495 0 333 3 6 0
166 483 0 344 7 5 0
168 475 0 348 8 9 0
170 475 0 357 4 6 0
172 471 0 354 8 8 0
174 471 0 366 5 8 0
176 470 0 372 0 8 0
178 459 0 385 7 3 0
180 455 0 380 6 14 0
182 450 0 395 6 11 0
184 449 0 392 3 14 0
186 440 0 389 8 8 0
188 437 0 392 6 8 0
190 428 0 397 5 11 0
192 420 0 398 7 10 0
194 424 0 413 1 5 0
196 414 0 420 3 9 0
198 411 0 422 5 6 0
200 404 0 427 7 8 0
