0 1042 0 0 0 0 0
2 999 9 0 25 0 7
4.00004 993 13 0 33 0 7
6 999 15 0 20 0 13
8 1014 9 0 18 0 9
10 1021 10 0 18 0 8
12 1001 17 0 26 0 6
14 1009 8 0 22 0 9
16 1012 13 0 19 0 6
18 1010 14 0 17 0 8
20 1006 13 0 27 0 8
22 1004 14 0 21 0 14
24 1007 6 0 24 0 8
26 1013 9 0 22 0 7
28 1000 22 0 21 0 4
30 1010 11 0 19 0 2
32 999 15 0 27 0 6
34 1000 13 0 27 0 10
36 1005 22 0 19 0 7
38 1017 14 0 26 0 7
40 1011 10 0 29 0 8
42 1019 16 0 20 0 8
44 1026 13 0 21 0 6
46 1009 16 0 24 0 8
48 1019 11 0 20 0 13
50 1023 11 0 27 0 8
52 937 0 109 10 15 0
54 904 0 126 15 27 0
56 890 0 154 8 21 0
58 878 0 174 11 18 0
60 865 0 170 7 27 0
62 851 0 185 9 21 0
64 832 0 208 15 20 0
66 823 0 211 7 24 1
68 802 0 232 8 20 0
70 797 0 225 7 30 0
72 793 0 254 5 22 0
74 773 0 267 9 27 0
76 766 0 270 9 23 0
78 748 0 296 7 26 0
80 735 0 298 6 35 0
82 726 0 314 6 33 0
84 713 0 313 8 32 0
86 702 0 322 9 30 0
88 697 0 337 9 23 0
90 682 0 353 12 23 0
92 674 0 371 6 18 0
94 662 0 387 7 20 1
96 653 0 398 8 20 0
98 649 0 406 1 21 0
100 641 0 405 3 23 0
102 621 0 423 5 29 0
104 612 0 421 4 29 0
106 601 0 448 7 21 0
108 599 0 445 3 37 0
110 590 0 463 3 25 0
112 577 0 462 9 23 0
114 567 0 466 8 27 0
116 555 0 489 5 23 0
118 548 0 480 9 31 0
120 545 0 484 4 27 0
122 534 0 497 8 27 0
124 520 0 507 10 34 0
126 513 0 536 4 19 0
128 495 0 545 9 18 0
130 489 0 549 6 27 0
132 479 0 545 11 30 0
134 477 0 566 3 33 0
136 465 0 579 6 30 0
138 462 0 585 5 25 0
140 453 0 597 8 28 0
142 444 0 609 7 27 0
144 438 0 608 5 29 0
146 434 0 605 3 29 0
148 425 0 612 6 31 0
150 424 0 594 7 28 0
152 413 0 625 4 30 0
154 410 0 620 2 30 0
156 399 0 629 3 40 0
158 394 0 644 2 29 0
160 385 0 644 3 25 0
162 379 0 646 4 28 0
164 379 0 643 4 28 0
166 369 0 648 5 26 0
168 365 0 655 6 28 0
170 352 0 668 5 27 0
172 344 0 682 5 24 0
174 337 0 689 7 26 0
176 336 0 701 3 21 0
178 332 0 704 4 17 0
180 327 0 709 3 20 0
182 320 0 715 3 30 0
184 314 0 717 7 24 0
186 312 0 723 5 26 0
188 311 0 725 2 29 0
190 303 0 737 2 22 0
192 295 0 743 3 19 1
194 296 0 731 2 32 0
196 289 0 733 6 30 0
198 288 0 732 3 31 0
200 284 0 753 3 27 0
