0 838 0 0 0 0 0
2 810 0 0 20 0 0
4.00004 798 0 0 34 0 0
6 805 0 0 28 0 0
8 800 0 0 33 0 0
10 806 0 0 27 0 0
12 797 0 0 38 0 0
14 799 0 0 29 0 0
16 805 0 0 29 0 0
18 788 0 0 30 0 0
20 797 0 0 24 0 0
22 796 0 0 30 0 0
24 801 0 0 23 0 0
26 791 0 0 38 0 0
28 790 0 0 39 0 0
30 806 0 0 19 0 0
32 800 0 0 25 0 0
34 799 0 0 27 0 0
36 792 0 0 30 0 0
38 798 0 0 16 0 0
40 785 0 0 27 0 0
42 795 0 0 20 0 0
44 787 0 0 21 0 0
46 787 0 0 26 0 0
48 786 0 0 22 0 0
50 780 0 0 32 0 0
52 777 0 17 25 2 0
54 775 0 26 19 5 0
56 753 0 38 34 4 0
58 748 0 35 27 9 0
60 746 0 41 20 8 0
62 735 0 46 18 6 0
64 723 0 61 17 6 0
66 721 0 64 10 11 0
68 696 0 73 26 13 0
70 700 0 75 15 9 0
72 690 0 84 11 11 0
74 683 0 102 14 9 0
76 671 0 105 22 12 0
78 671 0 98 13 15 0
80 668 0 108 10 10 0
82 660 0 116 15 15 0
84 658 0 116 9 15 0
86 650 0 116 11 16 0
88 638 0 124 19 12 0
90 635 0 125 15 10 0
92 631 0 137 14 9 0
94 621 0 131 17 11 0
96 619 0 140 14 15 0
98 610 0 149 14 11 0
100 610 0 145 10 21 0
102 599 0 161 13 11 0
104 593 0 172 18 17 0
106 588 0 182 17 16 0
108 590 0 183 9 14 0
110 584 0 181 13 15 0
112 577 0 185 12 18 0
114 580 0 183 11 14 0
116 571 0 182 20 20 0
118 563 0 197 21 12 0
120 566 0 189 17 16 0
122 565 0 194 12 15 0
124 561 0 195 5 20 0
126 546 0 208 14 17 0
128 544 0 220 13 13 0
130 542 0 228 11 15 0
132 541 0 243 10 11 0
134 529 0 241 15 18 0
136 523 0 242 12 22 0
138 511 0 253 18 12 0
140 518 0 258 8 12 0
142 513 0 254 9 16 0
144 512 0 264 6 17 0
146 507 0 267 7 18 0
148 487 0 283 18 17 0
150 490 0 274 8 23 0
152 482 0 295 8 12 0
154 477 0 295 9 11 0
156 468 0 300 12 10 0
158 467 0 288 11 15 0
160 463 0 294 10 11 0
162 461 0 304 6 19 0
164 457 0 312 8 17 0
166 449 0 324 14 10 0
168 450 0 329 8 7 0
170 445 0 328 9 14 0
172 443 0 332 6 19 0
174 431 0 330 15 20 0
176 432 0 340 11 16 0
178 426 0 351 14 16 0
180 425 0 364 7 16 0
182 423 0 354 6 26 0
184 422 0 372 2 17 0
186 412 0 368 8 14 0
188 407 0 372 9 19 0
190 402 0 372 9 21 0
192 396 0 379 10 20 0
194 397 0 387 5 20 0
196 396 0 389 3 15 0
198 387 0 388 10 22 0
200 385 0 382 9 21 0
