0 824 0 0 0 0 0
2 819 0 0 20 0 0
4.00004 813 0 0 19 0 0
6 813 0 0 24 0 0
8 819 0 0 19 0 0
10 830 0 0 23 0 0
12 832 0 0 19 0 0
14 831 0 0 23 0 0
16 839 0 0 12 0 0
18 840 0 0 15 0 0
20 840 0 0 17 0 0
22 849 0 0 17 0 0
24 853 0 0 17 0 0
26 857 0 0 15 0 0
28 857 0 0 15 0 0
30 850 0 0 24 0 0
32 860 0 0 24 0 0
34 858 0 0 12 0 0
36 858 0 0 16 0 0
38 865 0 0 13 0 0
40 862 0 0 22 0 0
42 859 0 0 17 0 0
44 872 0 0 13 0 0
46 860 0 0 24 0 0
48 867 0 0 23 0 0
50 884 0 0 18 0 0
52 863 0 22 10 4 0
54 848 0 31 10 8 0
56 839 0 51 9 4 0
58 821 0 71 10 8 0
60 810 0 76 8 8 0
62 798 0 93 10 8 0
64 791 0 103 7 13 0
66 781 0 114 6 7 0
68 764 0 130 11 8 0
70 754 0 140 9 10 0
72 748 0 144 9 9 0
74 739 0 162 6 9 0
76 731 0 171 5 6 0
78 721 0 169 7 18 0
80 712 0 182 3 13 0
82 701 0 197 7 11 0
84 696 0 196 5 15 0
86 686 0 212 7 15 0
88 675 0 216 8 12 0
90 667 0 222 10 12 0
92 660 0 227 8 9 0
94 651 0 237 9 8 0
96 643 0 240 5 11 0
98 632 0 255 7 12 0
100 628 0 266 2 9 0
102 615 0 265 7 18 0
104 613 0 278 5 18 0
106 599 0 283 8 6 0
108 593 0 300 7 14 0
110 578 0 302 7 14 0
112 569 0 313 7 9 0
114 566 0 324 4 5 0
116 557 0 331 4 12 0
118 549 0 330 3 12 0
120 537 0 341 10 14 0
122 536 0 342 5 16 0
124 528 0 351 3 16 0
126 515 0 361 8 13 0
128 505 0 371 8 11 0
130 499 0 376 5 9 0
132 493 0 380 2 15 0
134 484 0 391 5 15 0
136 471 0 401 7 13 0
138 468 0 406 5 14 0
140 456 0 412 8 20 0
142 449 0 431 3 15 0
144 444 0 434 3 16 0
146 438 0 444 4 12 0
148 434 0 449 4 13 0
150 424 0 443 4 16 0
152 417 0 456 2 11 0
154 408 0 467 8 11 0
156 410 0 474 3 13 0
158 402 0 476 5 11 0
160 401 0 492 1 13 0
162 390 0 505 7 16 0
164 389 0 501 3 16 0
166 385 0 511 2 15 0
168 377 0 510 5 17 0
170 378 0 523 1 11 0
172 374 0 532 3 7 0
174 370 0 539 5 10 0
176 360 0 537 9 13 0
178 355 0 552 4 13 0
180 351 0 549 4 17 0
182 344 0 561 3 9 0
184 340 0 561 2 14 0
186 336 0 575 3 11 0
188 329 0 577 7 10 0
190 326 0 581 4 18 0
192 316 0 590 7 13 0
194 315 0 597 2 19 0
196 309 0 599 4 19 0
198 307 0 611 0 15 0
200 302 0 617 5 15 0
