0 37 0 0 0 2
2 32 0 5 0 3
4.00004 37 0 2 0 4
6 40 0 2 0 4
8 42 0 0 0 6
10 41 0 4 0 5
12 41 0 1 0 7
14 39 0 2 0 7
16 39 0 2 1 4
18 37 1 3 0 4
20 38 1 3 0 6
22 36 1 3 0 7
24 36 3 4 0 7
26 40 4 1 1 4
28 38 4 2 1 6
30 33 5 3 0 3
32 37 6 3 0 6
34 36 8 3 0 5
36 33 7 4 2 5
38 32 10 3 0 5
40 31 10 2 0 8
42 29 10 2 0 7
44 28 10 2 0 3
46 25 10 3 1 5
48 27 13 1 0 8
50 25 11 3 1 2
52 27 11 2 1 6
54 25 12 2 0 7
56 28 13 0 2 7
58 26 14 1 1 4
60 25 14 2 1 1
62 26 13 0 4 5
64 23 14 2 3 6
66 22 17 3 0 5
68 23 17 2 0 3
70 23 15 2 0 7
72 22 16 3 0 6
74 24 16 1 0 7
76 24 19 1 2 7
78 22 21 2 1 5
80 21 20 2 1 7
82 23 20 1 0 5
84 21 19 2 1 6
86 21 20 2 2 5
88 20 25 1 0 4
90 20 24 1 2 5
92 19 23 1 2 5
94 19 23 1 2 5
96 18 26 0 0 5
98 18 24 1 1 6
100 18 26 0 2 5
102 18 27 1 1 6
104 15 23 0 5 6
106 14 25 0 7 6
108 14 29 1 2 4
110 11 29 3 4 4
112 10 32 3 2 7
114 12 33 1 2 5
116 12 31 2 2 6
118 13 30 1 5 9
120 11 34 0 4 5
122 11 33 0 2 6
124 10 35 1 3 6
126 10 34 0 2 3
128 8 36 1 2 6
130 8 36 1 4 3
132 7 33 0 5 4
134 7 35 0 1 6
136 6 36 0 3 6
138 6 33 0 3 5
140 5 33 1 1 4
142 5 29 0 5 3
144 4 30 0 1 5
146 4 31 0 1 6
148 4 31 0 2 5
150 4 31 0 1 5
152 4 31 0 0 5
154 4 30 0 4 3
156 4 30 0 4 6
158 4 34 0 1 5
160 4 35 0 0 3
162 4 28 0 6 3
164 3 33 1 2 7
166 3 32 1 4 7
168 4 33 0 4 5
170 3 34 1 4 2
172 4 34 0 4 5
174 4 35 0 3 8
176 4 34 0 4 8
178 4 38 0 1 2
180 4 35 0 3 6
182 4 38 0 0 7
184 4 33 0 7 2
186 4 34 0 2 4
188 4 35 0 2 6
190 4 35 0 1 5
192 4 33 0 3 6
194 4 29 0 3 5
196 3 28 0 3 5
198 3 32 0 2 5
200 3 33 0 2 3
202 3 34 0 1 5
204 2 35 1 1 5
206 3 36 0 2 5
208 2 35 0 2 6
210 1 36 0 2 5
