0 114 0 0 0 7
2 108 0 4 0 2
4.00004 106 0 3 0 6
6 106 0 4 0 6
8 107 0 4 0 4
10 107 0 2 0 5
12 92 11 2 1 7
14 85 17 3 0 7
16 76 25 5 0 6
18 66 38 3 2 4
20 54 47 4 3 2
22 51 58 2 0 6
24 36 65 8 3 5
26 41 64 2 4 4
28 41 73 0 0 4
30 40 75 1 1 4
32 37 76 1 1 2
34 34 78 2 3 2
36 27 82 1 2 5
38 26 84 1 0 6
40 23 83 2 2 5
42 20 87 2 1 3
44 18 87 0 3 5
46 18 82 1 7 5
48 17 86 0 2 2
50 15 81 2 6 5
52 14 85 1 2 6
54 15 86 1 3 4
56 14 87 1 1 5
58 10 89 2 5 5
60 10 91 0 1 5
62 10 89 0 2 7
64 8 93 1 1 5
66 9 92 1 4 6
68 8 92 1 3 6
70 9 93 0 1 4
72 8 93 2 2 4
74 7 93 0 2 6
76 7 86 0 6 6
78 6 88 1 6 6
80 7 89 0 4 5
82 7 91 0 2 5
84 5 95 0 4 7
86 6 89 0 5 3
88 6 92 0 1 6
90 5 91 0 3 7
92 5 91 0 4 6
94 6 90 1 2 6
96 8 89 0 4 3
98 7 92 0 5 3
100 5 98 0 3 5
102 5 97 0 7 7
104 5 93 0 1 3
106 4 93 1 2 9
108 5 89 0 3 8
110 5 96 1 1 3
112 6 95 0 1 5
114 4 97 0 4 5
116 4 98 0 3 5
118 2 96 1 1 8
120 3 96 0 3 5
122 3 99 0 3 4
124 3 99 0 0 5
126 2 103 0 0 5
128 1 101 1 4 5
130 2 104 0 0 4
132 3 101 0 5 1
134 1 105 0 3 7
136 1 108 0 3 7
138 1 108 0 1 6
140 2 104 0 0 4
142 2 103 0 6 6
144 2 108 0 3 7
146 2 101 1 5 9
148 1 104 0 6 5
150 1 104 0 4 4
152 1 109 0 4 8
154 1 106 0 3 6
156 1 104 1 2 5
158 2 105 0 2 5
160 1 104 0 2 4
162 1 108 0 1 7
164 1 106 1 2 7
166 1 103 0 3 3
168 0 102 0 1 4
170 0 104 0 1 5
172 0 106 0 3 4
174 0 107 0 2 3
176 0 107 0 4 5
178 0 106 0 3 6
180 0 100 0 7 7
182 0 106 0 0 3
184 0 100 0 7 4
186 0 102 0 3 6
188 0 99 0 6 7
190 0 99 0 5 6
192 0 97 0 5 4
194 0 94 0 8 5
196 0 94 0 5 7
198 0 96 0 2 6
200 0 95 0 7 6
202 0 101 0 2 4
204 0 97 1 6 4
206 0 102 0 1 5
208 0 102 0 5 4
210 0 104 0 4 6
