0 99 0 0 0 4
2 97 0 3 0 8
4.00004 100 0 5 0 5
6 99 0 3 0 3
8 99 0 3 0 4
10 100 0 1 0 5
12 84 11 2 1 5
14 74 19 2 0 6
16 68 27 2 0 6
18 56 35 1 1 4
20 56 39 1 1 5
22 56 40 3 0 5
24 56 42 2 0 5
26 58 40 2 3 3
28 50 47 5 1 5
30 46 53 2 1 5
32 45 51 0 3 5
34 44 53 1 1 1
36 40 57 0 1 1
38 36 59 2 1 3
40 33 62 1 0 3
42 30 61 1 3 8
44 26 65 0 1 8
46 23 68 1 3 7
48 24 66 0 2 4
50 23 71 1 1 4
52 21 71 0 3 5
54 19 74 0 3 3
56 19 73 1 0 6
58 15 78 0 1 7
60 15 77 0 2 4
62 15 71 0 4 3
64 14 75 0 2 4
66 13 74 1 1 2
68 13 71 1 3 1
70 13 76 0 0 3
72 13 73 1 3 4
74 14 77 0 3 3
76 12 81 0 2 9
78 10 79 0 3 6
80 9 82 1 3 7
82 10 83 0 2 2
84 11 83 1 2 8
86 9 88 1 1 5
88 10 88 0 2 6
90 10 86 0 2 4
92 9 89 1 2 4
94 9 88 1 2 3
96 7 90 3 1 3
98 8 89 0 3 4
100 9 94 0 0 3
102 6 92 0 2 5
104 6 91 0 2 5
106 6 89 0 1 5
108 6 92 0 0 7
110 6 89 0 1 5
112 5 86 0 2 3
114 6 85 0 4 5
116 5 87 1 3 6
118 8 90 0 1 5
120 8 92 1 1 4
122 10 89 0 4 3
124 7 93 2 3 6
126 7 96 0 4 6
128 5 98 0 2 4
130 5 98 0 3 2
132 5 94 0 5 2
134 5 94 0 2 6
136 4 95 0 2 7
138 5 94 1 3 6
140 6 95 0 2 5
142 6 97 0 1 6
144 5 98 1 2 6
146 5 96 0 1 4
148 3 98 2 1 5
150 5 98 0 4 5
152 4 99 0 4 5
154 3 95 1 3 8
156 2 98 1 2 4
158 4 97 0 1 7
160 4 95 0 2 4
162 4 94 0 3 2
164 3 97 0 2 5
166 4 100 0 1 3
168 3 98 0 1 5
170 4 94 0 5 5
172 4 99 0 2 2
174 3 98 0 1 3
176 3 97 0 2 6
178 3 96 0 3 7
180 3 96 0 2 5
182 3 93 1 5 4
184 4 96 0 1 3
186 4 91 0 2 5
188 4 90 0 1 7
190 4 83 0 5 4
192 2 86 1 4 4
194 2 89 1 1 4
196 1 88 1 5 7
198 2 92 0 3 5
200 2 95 1 0 3
202 2 91 1 3 7
204 3 96 0 3 4
206 3 96 0 3 4
208 3 93 0 3 4
210 4 92 0 2 3
