0 90 0
2 81 9
4.00004 72 18
6 64 26
8 56 35
10 51 40
12 48 43
14 43 49
16 43 50
18 39 54
20 37 56
22 36 58
24 32 61
26 28 65
28 26 67
30 25 68
32 22 71
34 20 73
36 19 75
38 16 77
40 15 78
42 15 78
44 14 79
46 13 80
48 11 82
50 10 83
52 9 85
54 7 87
56 7 87
58 6 88
60 7 88
62 7 88
64 5 90
66 5 90
68 5 90
70 5 90
72 5 90
74 5 89
76 4 90
78 5 90
80 4 90
82 4 89
84 4 89
86 3 90
88 3 88
90 3 88
92 3 88
94 3 88
96 3 88
98 3 88
100 3 88
102 3 88
104 3 88
106 2 89
108 2 89
110 1 90
112 1 90
114 1 90
116 1 90
118 1 90
120 1 90
122 1 90
124 1 90
126 0 91
128 0 91
130 0 91
132 0 91
134 0 91
136 0 91
138 0 91
140 0 91
142 0 91
144 0 91
146 0 91
148 0 91
150 0 91
152 0 91
154 0 91
156 0 91
158 1 91
160 1 91
162 1 91
164 1 91
166 1 92
168 1 92
170 1 92
172 1 92
174 1 92
176 2 92
178 2 92
180 2 92
182 2 91
184 2 91
186 2 90
188 2 90
190 2 90
192 3 90
194 2 91
196 2 91
198 3 91
200 3 91
202 3 91
204 3 91
206 5 91
208 5 91
210 4 92
212 4 92
214 4 92
216 4 92
218 3 93
220 3 93
222 3 92
224 2 93
226 2 92
228 2 92
230 2 92
232 2 92
234 2 92
236 2 92
238 2 92
240 1 93
242 1 93
244 1 93
246 1 92
248 1 91
250 1 91
252 1 91
254 1 90
256 1 90
258 1 90
260 1 90
262 1 89
264 1 89
266 1 89
268 0 90
270 0 90
272 0 90
274 0 90
276 0 90
278 0 90
280 0 89
282 0 89
284 0 89
286 0 89
288 1 88
290 1 88
292 1 88
294 1 88
296 1 88
298 1 88
300 1 88
