0 80 0
2 80 0
4.00004 80 0
6 80 0
8 80 0
10 81 0
12 81 0
14 82 0
16 82 0
18 82 0
20 82 1
22 82 1
24 82 1
26 82 1
28 82 1
30 82 1
32 82 1
34 82 1
36 82 1
38 82 1
40 82 1
42 82 1
44 82 2
46 82 2
48 81 2
50 81 1
52 81 1
54 81 1
56 81 1
58 81 1
60 81 1
62 81 1
64 80 1
66 79 1
68 79 1
70 79 1
72 78 1
74 78 1
76 77 2
78 77 2
80 77 2
82 77 2
84 77 2
86 77 2
88 77 2
90 77 2
92 77 2
94 77 2
96 77 3
98 76 3
100 76 3
102 76 3
104 76 2
106 76 3
108 76 3
110 76 4
112 76 4
114 76 4
116 76 4
118 76 4
120 76 4
122 76 4
124 76 5
126 76 4
128 76 4
130 76 4
132 76 4
134 76 4
136 76 4
138 76 4
140 76 4
142 76 4
144 76 4
146 76 4
148 76 4
150 76 4
152 76 4
154 76 4
156 76 4
158 76 5
160 76 5
162 76 5
164 74 5
166 74 5
168 74 5
170 74 5
172 74 5
174 74 5
176 74 5
178 74 5
180 74 5
182 74 5
184 74 5
186 74 5
188 74 5
190 74 5
192 74 5
194 74 5
196 73 5
198 73 5
200 73 6
202 73 6
204 73 6
206 72 6
208 72 6
210 72 6
212 72 6
214 72 6
216 72 6
218 72 6
220 72 6
222 72 6
224 72 6
226 72 6
228 72 6
230 71 6
232 71 6
234 70 6
236 70 5
238 70 5
240 70 5
242 70 5
244 70 6
246 70 6
248 70 7
250 70 7
252 69 7
254 69 7
256 69 8
258 68 8
260 68 8
262 68 8
264 68 8
266 68 9
268 68 9
270 68 10
272 68 10
274 68 10
276 68 9
278 68 9
280 68 9
282 68 9
284 68 9
286 67 9
288 67 9
290 67 9
292 67 9
294 67 9
296 67 9
298 67 9
300 67 9
