0 76 0
2 67 9
4.00004 57 19
6 46 30
8 41 35
10 37 39
12 31 45
14 27 50
16 24 53
18 20 57
20 18 59
22 12 65
24 9 68
26 8 69
28 9 69
30 9 70
32 8 70
34 8 71
36 8 71
38 6 73
40 5 74
42 5 73
44 5 73
46 5 73
48 5 73
50 5 72
52 3 74
54 4 74
56 4 74
58 3 74
60 3 74
62 1 76
64 2 76
66 2 75
68 2 75
70 2 75
72 2 75
74 2 75
76 2 75
78 2 75
80 2 75
82 2 75
84 1 76
86 1 76
88 1 76
90 1 76
92 1 76
94 2 76
96 1 76
98 1 76
100 0 77
102 0 76
104 0 76
106 0 76
108 0 76
110 0 76
112 0 76
114 0 76
116 0 76
118 0 76
120 0 76
122 1 76
124 1 76
126 1 76
128 1 76
130 0 77
132 0 77
134 0 77
136 0 77
138 0 77
140 0 77
142 1 77
144 1 77
146 2 77
148 1 77
150 1 77
152 1 77
154 1 77
156 1 77
158 1 77
160 1 77
162 1 78
164 1 78
166 1 78
168 1 77
170 2 76
172 2 76
174 2 76
176 2 76
178 2 76
180 2 76
182 3 76
184 3 76
186 3 76
188 3 75
190 3 76
192 3 76
194 3 76
196 2 77
198 2 77
200 1 78
202 1 79
204 1 79
206 1 79
208 3 79
210 2 79
212 2 79
214 3 79
216 2 78
218 2 78
220 1 79
222 1 79
224 0 79
226 1 79
228 1 79
230 1 79
232 1 79
234 2 79
236 2 78
238 3 78
240 3 78
242 2 78
244 2 78
246 2 78
248 2 78
250 1 79
252 2 79
254 1 80
256 1 80
258 1 80
260 1 80
262 1 80
264 3 80
266 3 80
268 3 80
270 3 80
272 3 81
274 3 81
276 3 80
278 2 81
280 1 82
282 1 82
284 0 81
286 0 80
288 0 80
290 1 79
292 1 79
294 1 79
296 1 78
298 0 79
300 0 79
