0 80 0
2 63 17
4.00004 52 28
6 47 33
8 42 39
10 32 49
12 29 53
14 29 54
16 24 59
18 23 60
20 21 62
22 16 66
24 15 68
26 14 70
28 13 71
30 12 72
32 10 74
34 10 74
36 10 74
38 8 76
40 8 78
42 8 79
44 8 79
46 7 79
48 5 81
50 6 81
52 4 83
54 3 84
56 3 83
58 3 82
60 4 82
62 4 82
64 4 82
66 4 83
68 4 83
70 4 83
72 4 83
74 3 84
76 3 84
78 3 84
80 3 83
82 2 84
84 2 83
86 2 83
88 2 82
90 2 83
92 2 83
94 2 83
96 2 83
98 2 84
100 2 84
102 2 84
104 2 83
106 2 83
108 1 83
110 1 84
112 1 84
114 2 84
116 1 85
118 1 85
120 1 85
122 1 84
124 1 84
126 1 84
128 1 84
130 1 84
132 1 84
134 1 84
136 1 84
138 1 84
140 2 83
142 2 83
144 0 85
146 0 85
148 0 85
150 0 84
152 0 84
154 0 84
156 0 84
158 0 84
160 0 84
162 0 84
164 0 84
166 1 84
168 1 84
170 1 84
172 1 84
174 1 83
176 1 83
178 1 82
180 1 82
182 0 83
184 0 83
186 0 83
188 0 83
190 2 83
192 2 83
194 2 81
196 2 81
198 2 81
200 2 81
202 2 81
204 2 81
206 2 81
208 2 81
210 2 81
212 2 81
214 2 81
216 1 82
218 1 82
220 1 82
222 0 83
224 0 83
226 0 83
228 0 83
230 0 82
232 0 82
234 0 81
236 0 80
238 0 80
240 0 80
242 1 80
244 1 80
246 1 80
248 1 80
250 1 79
252 2 80
254 2 80
256 2 80
258 2 80
260 2 80
262 2 80
264 2 80
266 2 79
268 3 79
270 2 78
272 1 79
274 1 78
276 1 78
278 1 78
280 1 78
282 2 78
284 2 78
286 1 79
288 1 79
290 1 80
292 1 80
294 2 80
296 2 80
298 1 81
300 1 81
