0 82 0
2 66 16
4.00004 61 20
6 53 28
8 44 37
10 40 41
12 37 44
14 33 48
16 28 54
18 26 56
20 24 57
22 19 62
24 16 65
26 10 71
28 9 72
30 7 74
32 7 74
34 7 74
36 5 76
38 5 76
40 5 76
42 5 76
44 4 77
46 4 77
48 5 77
50 4 78
52 4 78
54 3 79
56 3 79
58 3 78
60 3 78
62 2 78
64 2 78
66 2 79
68 2 79
70 1 79
72 1 79
74 1 79
76 2 79
78 2 79
80 2 79
82 2 79
84 1 80
86 1 81
88 1 81
90 1 81
92 1 81
94 1 81
96 2 81
98 2 81
100 2 81
102 1 82
104 1 82
106 2 82
108 2 82
110 2 82
112 2 82
114 1 83
116 0 84
118 0 84
120 0 84
122 1 84
124 1 84
126 1 84
128 1 84
130 1 84
132 0 85
134 0 85
136 0 85
138 0 85
140 0 85
142 0 85
144 0 85
146 0 85
148 0 85
150 0 84
152 1 85
154 2 85
156 2 85
158 2 85
160 0 86
162 0 84
164 0 83
166 0 83
168 0 83
170 0 83
172 0 83
174 0 84
176 0 84
178 0 84
180 1 83
182 1 83
184 2 83
186 2 83
188 3 83
190 3 82
192 3 82
194 2 83
196 2 83
198 2 83
200 2 83
202 1 84
204 1 84
206 1 84
208 1 84
210 3 84
212 4 84
214 4 84
216 4 84
218 4 84
220 3 85
222 4 85
224 3 86
226 3 85
228 3 85
230 3 85
232 3 86
234 3 85
236 3 85
238 3 84
240 4 84
242 3 84
244 3 84
246 4 84
248 3 85
250 3 84
252 3 84
254 3 84
256 3 84
258 3 85
260 3 84
262 3 85
264 2 86
266 2 85
268 1 86
270 2 86
272 2 85
274 2 86
276 3 86
278 3 85
280 2 86
282 2 86
284 1 87
286 1 87
288 0 88
290 0 86
292 0 86
294 2 86
296 2 85
298 2 84
300 3 84
