0 1071 0 0 0 0 0
2 993 0 0 80 0 0
4.00004 967 0 0 121 0 0
6 929 0 0 156 0 0
8 919 0 0 158 0 0
10 899 0 0 181 0 0
12 881 0 0 202 0 0
14 864 0 0 222 0 0
16 852 0 0 237 0 0
18 852 0 0 223 0 0
20 835 0 0 236 0 0
22 841 0 0 250 0 0
24 831 0 0 251 0 0
26 825 0 0 268 0 0
28 818 0 0 274 0 0
30 813 0 0 274 0 0
32 809 0 0 269 0 0
34 825 0 0 250 0 0
36 810 0 0 274 0 0
38 821 0 0 254 0 0
40 810 0 0 266 0 0
42 788 0 0 297 0 0
44 760 0 0 321 0 0
46 779 0 0 295 0 0
48 782 0 0 292 0 0
50 803 0 0 263 0 0
52 801 0 0 254 1 0
54 791 0 0 268 6 0
56 785 0 0 271 15 0
58 791 0 1 260 19 0
60 781 0 4 253 29 0
62 770 0 6 252 29 0
64 782 0 6 231 38 0
66 764 0 9 231 40 0
68 772 0 14 214 52 0
70 757 0 15 222 67 0
72 745 0 19 220 65 0
74 744 0 26 206 64 0
76 749 0 30 203 69 0
78 734 0 35 208 70 0
80 752 0 39 186 75 0
82 746 0 38 178 82 0
84 729 0 45 188 85 0
86 732 0 50 181 92 0
88 719 0 55 188 98 0
90 708 0 61 186 104 0
92 677 0 69 210 101 0
94 681 0 73 182 104 0
96 683 0 80 176 101 0
98 673 0 85 183 91 0
100 683 0 84 165 99 0
102 669 0 83 163 122 0
104 666 0 95 159 119 0
106 655 0 101 165 107 0
108 658 0 105 155 121 0
110 647 0 117 163 109 0
112 649 0 124 152 102 0
114 652 0 137 143 108 0
116 633 0 140 153 117 0
118 632 0 154 139 108 0
120 618 0 146 151 119 0
122 613 0 155 151 115 0
124 619 0 150 133 127 0
126 617 0 157 136 116 0
128 616 0 165 133 126 0
130 594 0 168 142 134 0
132 595 0 182 134 128 0
134 590 0 195 130 123 0
136 572 0 200 136 123 0
138 559 0 200 143 136 0
140 581 0 196 122 149 0
142 564 0 214 136 146 0
144 551 0 217 138 146 0
146 545 0 212 141 161 0
148 544 0 219 133 148 0
150 541 0 227 127 138 0
152 528 0 233 137 140 0
154 543 0 219 116 169 0
156 513 0 226 139 172 0
158 518 0 233 132 166 0
160 509 0 242 141 155 0
162 508 0 252 130 160 0
164 499 0 251 139 162 0
166 496 0 265 135 142 0
168 500 0 271 124 137 0
170 495 0 273 124 147 0
172 495 0 278 116 147 0
174 498 0 284 109 134 0
176 480 0 285 122 154 0
178 489 0 286 112 166 0
180 476 0 285 116 164 0
182 475 0 294 121 164 0
184 479 0 288 105 173 0
186 468 0 301 114 184 0
188 459 0 324 114 155 0
190 461 0 324 104 173 0
192 458 0 321 106 175 0
194 448 0 334 113 161 0
196 436 0 331 121 178 0
198 430 0 330 120 192 0
200 413 0 352 137 163 0
