0 1118 0 0 0 0 0
2 1081 0 0 46 0 0
4.00004 1053 0 0 71 0 0
6 1035 0 0 78 0 0
8 1015 0 0 101 0 0
10 1013 0 0 111 0 0
12 1000 0 0 120 0 0
14 981 0 0 142 0 0
16 997 0 0 122 0 0
18 980 0 0 133 0 0
20 983 0 0 129 0 0
22 987 0 0 130 0 0
24 981 0 0 129 0 0
26 961 0 0 148 0 0
28 970 0 0 140 0 0
30 954 0 0 163 0 0
32 944 0 0 173 0 0
34 962 0 0 159 0 0
36 960 0 0 160 0 0
38 957 0 0 167 0 0
40 959 0 0 140 0 0
42 947 0 0 151 0 0
44 946 0 0 161 0 0
46 936 0 0 177 0 0
48 951 0 0 154 0 0
50 948 0 0 157 0 0
52 942 0 0 165 1 0
54 931 0 0 170 13 0
56 930 0 2 158 14 0
58 929 0 1 148 25 0
60 921 0 5 144 30 0
62 923 0 8 141 35 0
64 918 0 13 140 46 0
66 916 0 17 130 42 0
68 904 0 21 139 47 0
70 899 0 26 134 55 0
72 888 0 31 136 58 0
74 883 0 44 130 54 0
76 886 0 47 117 53 0
78 882 0 58 116 42 0
80 885 0 60 110 45 0
82 859 0 65 119 56 0
84 859 0 74 108 54 0
86 856 0 76 107 57 0
88 847 0 84 112 58 0
90 841 0 91 107 57 0
92 827 0 90 116 70 0
94 834 0 95 99 69 0
96 828 0 102 106 61 0
98 819 0 108 98 67 0
100 809 0 119 101 59 0
102 817 0 121 94 77 0
104 816 0 118 88 81 0
106 804 0 136 102 70 0
108 790 0 140 108 67 0
110 790 0 143 99 72 0
112 776 0 153 115 67 0
114 773 0 156 109 71 0
116 766 0 160 103 66 0
118 753 0 165 106 66 0
120 758 0 176 94 68 0
122 741 0 176 102 64 0
124 731 0 183 108 64 0
126 726 0 186 105 72 0
128 717 0 187 110 68 0
130 721 0 191 100 76 0
132 709 0 197 100 66 0
134 709 0 205 97 66 0
136 719 0 204 80 66 0
138 699 0 202 101 79 0
140 697 0 202 95 77 0
142 692 0 200 85 87 0
144 692 0 214 91 87 0
146 686 0 218 85 89 0
148 674 0 231 91 82 0
150 677 0 238 82 76 0
152 658 0 241 100 85 0
154 658 0 238 92 87 0
156 654 0 245 98 84 0
158 652 0 252 92 87 0
160 651 0 255 90 90 0
162 640 0 263 92 98 0
164 640 0 259 88 100 0
166 635 0 267 86 103 0
168 641 0 275 71 94 0
170 634 0 280 76 99 0
172 628 0 278 75 109 0
174 630 0 294 70 86 0
176 615 0 295 80 89 0
178 610 0 303 84 84 0
180 598 0 308 95 84 0
182 590 0 308 96 87 0
184 576 0 307 98 91 0
186 573 0 316 99 84 0
188 568 0 311 97 95 0
190 577 0 310 83 91 0
192 579 0 315 78 106 0
194 576 0 320 72 102 0
196 566 0 316 73 116 0
198 551 0 330 84 117 0
200 540 0 347 91 90 0
