0 939 0 0 0 0 0
2 873 0 0 30 0 44
4.00004 862 0 0 37 0 52
6 857 0 0 49 0 56
8 851 0 0 68 0 57
10 880 0 0 56 0 53
12 872 0 0 75 0 48
14 871 0 0 59 0 61
16 881 0 0 58 0 55
18 886 0 0 56 0 54
20 902 0 0 42 0 50
22 902 0 0 60 0 46
24 903 0 0 40 0 57
26 886 0 0 63 0 48
28 904 0 0 49 0 50
30 916 0 0 46 0 47
32 908 0 0 50 0 55
34 918 0 0 63 0 56
36 912 0 0 57 0 65
38 927 0 0 53 0 55
40 918 0 0 49 0 70
42 920 0 0 65 0 48
44 922 0 0 49 0 64
46 917 0 0 63 0 60
48 933 0 0 56 0 54
50 942 0 0 45 0 66
52 795 0 155 4 95 1
54 688 0 263 14 103 1
56 596 0 368 7 95 2
58 531 0 449 6 90 1
60 464 0 518 10 99 0
62 401 0 561 5 113 0
64 351 0 628 4 106 0
66 305 0 661 7 116 0
68 260 0 696 5 112 0
70 226 0 732 7 109 1
72 195 0 775 6 116 1
74 178 0 818 5 101 0
76 151 0 833 3 106 0
78 131 0 834 6 115 0
80 112 0 849 8 112 0
82 96 0 879 1 106 0
84 91 0 872 3 114 0
86 78 0 900 4 103 0
88 65 0 932 0 91 0
90 59 0 923 4 101 0
92 47 0 927 3 121 0
94 42 0 945 2 99 0
96 38 0 933 6 102 0
98 32 0 944 4 100 1
100 29 0 955 0 90 0
102 24 0 950 3 104 0
104 22 0 940 3 103 0
106 20 0 951 2 103 1
108 18 0 947 0 120 0
110 14 0 961 3 94 0
112 13 0 958 4 102 0
114 8 0 968 3 93 0
116 8 0 958 3 119 0
118 7 0 969 3 97 0
120 6 0 970 3 109 0
122 5 0 976 2 97 0
124 4 0 976 3 106 0
126 4 0 986 1 101 0
128 4 0 979 2 104 0
130 4 0 978 1 108 0
132 4 0 981 1 106 0
134 2 0 993 0 97 0
136 2 0 996 0 97 0
138 2 0 982 1 101 0
140 2 0 995 0 89 0
142 2 0 970 1 104 0
144 2 0 964 1 111 0
146 2 0 962 1 116 0
148 2 0 969 4 112 0
150 1 0 964 2 118 0
152 1 0 963 1 109 0
154 0 0 972 2 99 0
156 0 0 964 1 105 0
158 0 0 956 1 112 0
160 0 0 941 1 133 0
162 0 0 947 0 115 0
164 0 0 942 2 115 0
166 0 0 950 0 105 0
168 0 0 959 1 96 0
170 0 0 962 0 101 0
172 0 0 946 1 120 0
174 0 0 947 2 107 0
176 0 0 942 0 101 0
178 0 0 931 1 118 0
180 0 0 936 0 124 0
182 0 0 951 2 100 0
184 0 0 946 1 102 0
186 0 0 938 0 121 0
188 0 0 964 0 97 0
190 0 0 962 2 118 0
192 0 0 955 2 120 0
194 0 0 962 0 112 0
196 0 0 970 0 105 0
198 0 0 963 0 110 0
200 0 0 956 0 107 0
