0 1161 0 0 0 0 0
2 1077 0 0 76 0 0
4.00004 1049 0 0 100 0 0
6 1029 0 0 109 0 0
8 1015 0 0 109 0 0
10 1000 0 0 111 0 0
12 999 0 0 106 0 0
14 991 0 0 118 0 0
16 989 0 0 117 0 0
18 989 0 0 115 0 0
20 990 0 0 116 0 0
22 980 0 0 112 0 0
24 1002 0 0 98 0 0
26 992 0 0 111 0 0
28 995 0 0 102 0 0
30 1001 0 0 90 0 0
32 978 0 0 109 0 0
34 975 0 0 88 0 0
36 975 0 0 91 0 0
38 962 0 0 103 0 0
40 957 0 0 106 0 0
42 958 0 0 109 0 0
44 953 0 0 112 0 0
46 952 0 0 108 0 0
48 953 0 0 104 0 0
50 949 0 0 98 0 0
52 928 0 14 69 39 0
54 870 0 36 82 43 0
56 844 0 62 65 61 0
58 821 0 99 52 51 0
60 795 0 114 50 50 0
62 771 0 145 51 53 0
64 747 0 163 52 49 0
66 729 0 182 46 54 0
68 691 0 207 65 64 0
70 686 0 230 48 61 0
72 663 0 242 38 64 0
74 636 0 267 42 53 0
76 624 0 293 32 58 0
78 599 0 319 34 62 0
80 561 0 340 42 76 0
82 541 0 360 42 75 0
84 528 0 386 35 71 0
86 508 0 398 33 76 0
88 501 0 410 30 71 0
90 486 0 424 27 76 0
92 474 0 441 27 60 0
94 460 0 450 25 77 0
96 453 0 484 19 65 0
98 429 0 483 33 74 0
100 415 0 497 36 78 0
102 414 0 510 16 79 0
104 384 0 518 34 96 0
106 371 0 532 27 93 0
108 354 0 552 28 81 0
110 351 0 573 20 84 0
112 339 0 589 20 75 0
114 324 0 598 24 82 0
116 310 0 598 23 81 0
118 291 0 618 27 88 0
120 280 0 622 21 89 0
122 272 0 638 23 87 0
124 265 0 625 21 100 0
126 260 0 642 16 90 0
128 259 0 646 9 97 0
130 252 0 651 11 95 0
132 242 0 658 14 94 0
134 232 0 667 18 91 0
136 224 0 673 19 89 0
138 214 0 684 21 95 0
140 216 0 709 13 76 0
142 213 0 708 8 94 0
144 201 0 706 13 102 0
146 193 0 711 11 104 0
148 183 0 729 11 90 0
150 179 0 724 9 103 0
152 171 0 739 14 102 0
154 163 0 745 16 103 0
156 165 0 768 8 89 0
158 155 0 768 12 96 0
160 150 0 777 9 89 0
162 152 0 777 3 106 0
164 145 0 788 4 104 0
166 139 0 795 10 101 0
168 139 0 809 5 91 0
170 137 0 814 6 80 0
172 127 0 812 11 83 0
174 120 0 813 9 102 0
176 113 0 798 12 134 0
178 110 0 826 9 105 0
180 110 0 840 7 83 0
182 106 0 823 5 113 0
184 98 0 842 10 101 0
186 93 0 833 9 106 0
188 90 0 836 6 107 0
190 82 0 851 10 75 0
192 80 0 834 8 101 0
194 85 0 835 2 104 0
196 82 0 842 4 97 0
198 78 0 844 7 98 0
200 74 0 848 9 106 0
