0 1177 0 0 0 0 0
2 1145 0 0 43 0 0
4.00004 1134 0 0 59 0 0
6 1104 0 0 87 0 0
8 1093 0 0 92 0 0
10 1094 0 0 97 0 0
12 1078 0 0 115 0 0
14 1075 0 0 120 0 0
16 1071 0 0 124 0 0
18 1069 0 0 123 0 0
20 1072 0 0 121 0 0
22 1067 0 0 120 0 0
24 1064 0 0 137 0 0
26 1060 0 0 140 0 0
28 1057 0 0 143 0 0
30 1038 0 0 169 0 0
32 1038 0 0 166 0 0
34 1038 0 0 162 0 0
36 1029 0 0 167 0 0
38 1032 0 0 171 0 0
40 1028 0 0 172 0 0
42 1036 0 0 163 0 0
44 1028 0 0 176 0 0
46 1028 0 0 160 0 0
48 1026 0 0 150 0 0
50 1029 0 0 162 0 0
52 1032 0 0 166 1 0
54 1022 0 0 178 4 0
56 1023 0 1 167 10 0
58 1035 0 3 149 11 0
60 1033 0 3 155 17 0
62 1027 0 3 152 24 0
64 1034 0 4 129 26 0
66 1040 0 8 120 30 0
68 1023 0 11 132 35 0
70 1027 0 16 126 36 0
72 1021 0 19 127 36 0
74 1025 0 22 118 39 0
76 1023 0 26 118 41 0
78 1012 0 29 116 45 0
80 1018 0 28 105 58 0
82 1005 0 29 113 57 0
84 1016 0 36 97 62 0
86 1009 0 42 99 59 0
88 1008 0 48 96 68 0
90 999 0 52 103 59 0
92 998 0 62 95 57 0
94 967 0 65 119 53 0
96 973 0 69 108 59 0
98 973 0 67 106 72 0
100 958 0 79 106 64 0
102 947 0 80 111 58 0
104 948 0 83 104 55 0
106 948 0 85 107 56 0
108 948 0 90 92 58 0
110 955 0 94 79 56 0
112 935 0 91 100 77 0
114 929 0 93 101 79 0
116 925 0 93 96 80 0
118 916 0 101 101 76 0
120 914 0 113 100 70 0
122 917 0 114 93 71 0
124 915 0 127 90 58 0
126 925 0 132 77 61 0
128 907 0 134 85 70 0
130 893 0 139 95 65 0
132 890 0 146 98 60 0
134 893 0 153 94 56 0
136 877 0 161 106 57 0
138 879 0 163 95 55 0
140 862 0 165 104 65 0
142 871 0 167 90 63 0
144 872 0 168 82 62 0
146 856 0 173 94 71 0
148 842 0 172 108 71 0
150 838 0 179 106 66 0
152 834 0 184 101 73 0
154 828 0 189 100 74 0
156 832 0 194 92 79 0
158 823 0 207 97 79 0
160 812 0 208 103 79 0
162 807 0 214 103 73 0
164 814 0 215 94 90 0
166 803 0 218 98 82 0
168 797 0 225 101 82 0
170 795 0 230 90 83 0
172 796 0 236 81 71 0
174 781 0 249 97 68 0
176 773 0 248 101 70 0
178 770 0 250 98 72 0
180 779 0 256 87 69 0
182 770 0 255 96 74 0
184 774 0 255 95 79 0
186 776 0 265 82 76 0
188 776 0 266 83 76 0
190 764 0 272 86 75 0
192 763 0 280 84 82 0
194 764 0 279 78 82 0
196 766 0 278 72 81 0
198 769 0 283 71 79 0
200 760 0 285 79 81 0
