0 86 0 0 0
2 86 0 1 0
4.00004 85 0 3 0
6 86 0 2 0
8 89 0 1 0
10 87 0 2 0
12 90 0 1 0
14 88 0 2 0
16 86 0 3 0
18 87 0 2 0
20 87 0 2 0
22 88 0 1 0
24 88 0 2 0
26 88 0 2 0
28 88 0 1 0
30 88 0 2 0
32 88 0 2 0
34 87 0 3 0
36 87 0 4 0
38 86 0 4 0
40 88 0 3 0
42 88 0 2 0
44 87 0 3 0
46 88 0 4 0
48 89 0 2 0
50 88 0 3 0
52 72 16 3 0
54 58 30 2 0
56 50 38 2 0
58 48 41 3 0
60 45 44 2 0
62 36 53 2 0
64 34 55 3 0
66 33 57 1 0
68 27 62 1 1
70 24 66 1 0
72 22 66 1 2
74 17 72 1 1
76 13 76 1 1
78 12 78 0 1
80 10 78 1 2
82 10 77 1 3
84 9 79 1 1
86 8 80 0 1
88 4 84 1 1
90 3 86 1 0
92 3 86 1 0
94 2 86 1 1
96 2 85 0 2
98 1 86 0 2
100 1 87 0 1
102 1 86 1 2
104 0 86 1 3
106 0 85 0 4
108 0 85 1 4
110 0 85 1 4
112 0 86 1 3
114 0 86 0 3
116 0 87 0 2
118 0 86 0 3
120 0 85 0 4
122 0 86 1 2
124 0 85 1 3
126 0 86 1 2
128 0 85 1 3
130 0 85 1 3
132 0 84 0 4
134 0 86 0 2
136 0 86 0 2
138 0 86 1 2
140 0 85 0 3
142 0 87 0 1
144 0 88 0 0
146 0 86 0 2
148 0 86 1 2
150 0 88 1 0
152 0 88 1 0
154 0 88 0 0
156 0 88 0 0
158 0 86 1 2
160 0 85 1 3
162 0 84 1 4
164 0 85 1 3
166 0 87 2 1
168 0 85 2 2
170 0 85 0 2
172 0 87 1 0
174 0 87 0 0
176 0 85 0 2
178 0 85 0 2
180 0 83 1 5
182 0 85 0 3
184 0 84 0 4
186 0 85 1 2
188 0 85 1 3
190 0 84 2 4
192 0 85 1 3
194 0 85 1 3
196 0 86 0 2
198 0 83 1 4
200 0 84 2 3
202 0 84 1 3
204 0 84 1 3
206 0 84 1 3
208 1 84 0 3
210 1 84 0 4
212 1 86 0 2
214 1 86 0 2
216 1 85 1 3
218 1 86 0 2
220 1 86 4 2
222 1 84 2 4
224 1 86 3 2
226 1 86 2 1
228 1 86 1 2
230 1 86 2 2
232 1 85 3 2
234 2 86 1 1
236 2 87 1 0
238 2 86 1 1
240 2 87 2 0
242 2 86 2 1
244 2 85 2 2
246 2 85 3 3
248 2 86 2 2
250 2 87 1 1
252 2 86 1 2
254 3 86 0 1
256 3 86 0 2
258 3 85 0 2
260 2 87 0 1
262 1 88 0 1
264 1 88 0 1
266 1 88 0 1
268 1 88 0 1
270 1 87 0 2
272 1 87 0 2
274 1 86 0 3
276 0 88 0 2
278 0 88 0 2
280 0 88 0 2
282 0 90 0 0
284 0 90 0 0
286 0 87 0 3
288 0 89 0 1
290 0 88 0 2
292 0 88 1 2
294 0 87 1 3
296 0 87 1 1
298 0 88 2 1
300 0 87 2 1
302 0 87 1 1
304 0 87 2 1
306 0 88 2 0
308 0 87 2 1
310 0 87 1 1
312 0 88 1 0
314 0 88 1 1
316 0 88 0 1
318 0 88 0 1
320 0 87 1 2
322 0 88 1 1
324 0 88 1 1
326 0 87 1 2
328 0 88 1 1
330 0 87 1 2
332 0 88 1 1
334 0 88 1 1
336 0 88 1 1
338 0 88 1 1
340 1 86 0 3
342 1 88 1 1
344 1 87 0 2
346 1 85 0 4
348 1 87 1 1
350 1 87 1 1
