0 85 0 0 0
2 85 0 0 0
4.00004 83 0 1 0
6 84 0 0 0
8 84 0 1 0
10 84 0 1 0
12 82 0 3 0
14 83 0 2 0
16 83 0 2 0
18 82 0 3 0
20 82 0 3 0
22 84 0 1 0
24 84 0 1 0
26 83 0 3 0
28 83 0 2 0
30 84 0 0 0
32 83 0 1 0
34 81 0 3 0
36 82 0 2 0
38 82 0 2 0
40 81 0 3 0
42 83 0 1 0
44 81 0 3 0
46 81 0 3 0
48 81 0 3 0
50 81 0 2 0
52 68 14 2 0
54 52 30 2 0
56 44 36 4 0
58 35 46 2 1
60 32 51 1 0
62 30 53 2 0
64 27 56 1 0
66 21 62 1 0
68 19 63 1 1
70 14 69 2 0
72 12 71 1 0
74 12 71 3 0
76 9 75 1 0
78 9 74 0 1
80 8 73 0 3
82 7 74 0 3
84 7 75 0 0
86 6 76 1 0
88 5 77 0 0
90 5 77 0 1
92 3 78 1 2
94 3 77 1 3
96 3 78 1 1
98 2 79 0 1
100 1 80 0 2
102 1 79 2 3
104 2 80 1 1
106 2 80 1 1
108 2 79 1 2
110 3 81 0 0
112 3 80 1 1
114 3 80 0 1
116 3 80 1 0
118 3 79 1 1
120 2 81 1 0
122 2 79 2 2
124 3 79 1 1
126 3 79 1 1
128 3 78 0 2
130 1 80 0 2
132 1 82 0 1
134 1 81 1 2
136 0 82 0 2
138 0 83 2 0
140 0 81 1 3
142 0 83 1 1
144 0 83 1 0
146 0 83 2 1
148 0 82 2 2
150 0 83 2 1
152 2 84 0 0
154 2 84 0 0
156 2 83 0 1
158 2 82 0 2
160 2 82 1 2
162 2 82 0 2
164 2 81 0 2
166 2 81 0 2
168 1 83 0 1
170 1 84 0 0
172 1 84 0 0
174 1 81 0 3
176 1 82 0 2
178 0 80 0 5
180 0 81 1 5
182 0 82 1 4
184 0 83 1 3
186 0 81 1 4
188 1 83 0 2
190 1 82 0 2
192 1 83 0 1
194 1 84 1 0
196 0 85 2 0
198 1 84 2 1
200 2 83 1 2
202 2 85 0 1
204 2 83 0 3
206 1 81 0 6
208 1 81 1 4
210 1 80 1 4
212 1 80 0 6
214 1 79 0 7
216 1 81 1 3
218 1 80 2 3
220 0 80 0 4
222 0 79 0 5
224 0 78 0 5
226 0 80 0 1
228 0 80 0 1
230 1 80 0 3
232 1 79 0 3
234 1 79 0 1
236 1 78 1 3
238 1 78 0 2
240 1 78 1 2
242 1 78 1 3
244 0 79 1 3
246 0 80 1 2
248 0 82 1 0
250 0 79 1 3
252 1 80 0 2
254 1 81 0 1
256 1 79 0 3
258 0 80 0 3
260 0 82 0 1
262 0 80 0 2
264 0 81 0 1
266 0 81 0 2
268 0 81 0 2
270 0 82 0 1
272 0 82 0 1
274 0 83 0 0
276 0 82 0 1
278 0 80 0 2
280 0 81 0 1
282 0 81 0 1
284 0 81 0 2
286 0 80 0 3
288 0 82 0 0
290 0 80 1 2
292 0 82 0 0
294 0 78 0 4
296 0 80 0 2
298 0 81 1 2
300 0 81 1 2
302 0 80 1 3
304 1 80 0 4
306 1 80 0 3
308 0 81 0 3
310 0 81 1 4
312 0 82 1 3
314 0 80 0 5
316 0 81 0 3
318 0 80 0 4
320 0 81 0 3
322 0 82 0 2
324 0 83 0 1
326 0 84 0 0
328 0 84 0 0
330 0 82 0 2
332 0 82 0 2
334 0 82 0 2
336 0 82 0 2
338 0 82 0 1
340 0 80 0 2
342 0 81 0 1
344 0 79 0 3
346 0 80 0 3
348 0 80 0 3
350 0 80 0 3
