0 63 0 0 0
2 63 0 1 0
4.00004 67 0 0 0
6 64 0 1 0
8 64 0 0 0
10 63 0 1 0
12 62 0 2 0
14 62 0 2 0
16 62 0 2 0
18 63 0 1 0
20 63 0 1 0
22 63 0 1 0
24 63 0 1 0
26 63 0 1 0
28 63 0 1 0
30 63 0 1 0
32 62 0 2 0
34 63 0 1 0
36 64 0 0 0
38 64 0 0 0
40 62 0 2 0
42 62 0 2 0
44 63 0 1 0
46 63 0 1 0
48 63 0 0 0
50 63 0 1 0
52 63 0 0 0
54 63 0 0 0
56 62 0 1 0
58 61 0 2 0
60 60 0 4 0
62 62 0 1 0
64 62 0 1 0
66 62 0 1 0
68 62 0 1 1
70 62 0 1 1
72 61 0 3 1
74 61 1 3 0
76 63 1 1 0
78 61 1 3 0
80 61 1 3 0
82 62 1 3 0
84 63 1 2 0
86 64 1 1 0
88 64 1 0 0
90 63 1 1 0
92 62 1 3 0
94 63 1 2 0
96 64 1 1 0
98 62 1 3 0
100 64 1 1 0
102 61 1 4 0
104 61 1 4 0
106 61 1 4 0
108 63 1 2 0
110 64 1 1 0
112 64 1 1 0
114 65 1 0 0
116 65 1 0 0
118 65 1 0 1
120 64 1 1 1
122 65 1 0 1
124 64 1 1 1
126 64 2 1 0
128 64 2 1 0
130 64 2 1 0
132 64 2 0 0
134 64 2 1 0
136 63 2 1 0
138 64 2 1 0
140 63 2 2 0
142 63 2 1 0
144 62 2 3 0
146 62 2 3 0
148 63 2 2 0
150 65 2 0 0
152 63 2 2 0
154 64 2 1 0
156 64 2 1 0
158 63 2 2 0
160 64 2 0 0
162 64 2 0 2
164 63 2 1 0
166 61 2 3 0
168 58 2 6 0
170 61 2 2 0
172 61 2 1 1
174 61 3 2 1
176 58 3 5 0
178 61 3 1 0
180 59 3 3 0
182 58 3 4 0
184 59 3 3 0
186 60 3 2 0
188 59 3 3 0
190 60 3 1 0
192 60 2 2 1
194 59 3 3 0
196 58 3 3 0
198 59 3 3 0
200 60 3 3 0
202 60 3 3 0
204 60 3 2 0
206 59 3 3 0
208 59 3 3 0
210 59 3 4 0
212 59 3 4 0
214 58 3 4 0
216 58 3 5 1
218 58 3 4 1
220 57 3 4 1
222 56 4 5 1
224 57 4 5 1
226 57 4 5 1
228 57 4 3 1
230 59 4 1 1
232 58 4 1 1
234 59 4 2 1
236 58 4 3 1
238 58 4 3 2
240 58 4 3 1
242 58 4 2 1
244 58 4 3 3
246 60 4 0 2
248 58 5 2 1
250 59 5 1 1
252 59 5 1 1
254 58 4 2 1
256 60 4 0 1
258 57 4 3 1
260 59 4 1 1
262 57 4 3 1
264 57 4 3 1
266 58 4 2 1
268 56 4 3 1
270 56 4 3 1
272 55 4 3 1
274 56 4 3 1
276 56 4 3 1
278 56 4 3 0
280 57 4 1 1
282 57 4 1 0
284 57 4 1 1
286 57 4 1 1
288 56 4 2 1
290 55 4 2 0
292 56 4 2 1
294 56 4 2 1
296 57 5 0 0
298 57 5 0 0
300 55 5 2 0
302 57 5 0 1
304 57 5 0 0
306 55 5 2 1
308 56 5 1 0
310 56 4 1 2
312 55 5 2 1
314 56 5 0 0
316 56 5 0 0
318 56 5 0 0
320 56 5 0 0
322 54 5 2 1
324 55 5 1 1
326 56 5 0 0
328 55 5 1 1
330 54 5 2 1
332 55 5 1 0
334 54 5 2 1
336 54 5 1 1
338 54 4 1 3
340 55 5 0 0
342 54 5 1 2
344 54 5 1 1
346 55 5 0 1
348 55 5 0 1
350 55 5 0 0
