0 64 0 0 0
2 63 0 1 0
4.00004 63 0 1 0
6 63 0 1 0
8 65 0 0 0
10 65 0 0 0
12 64 0 1 0
14 63 0 2 0
16 62 0 2 0
18 61 0 3 0
20 61 0 2 0
22 60 0 3 0
24 60 0 2 0
26 60 0 2 0
28 59 0 2 0
30 59 0 2 0
32 59 0 2 0
34 59 0 2 0
36 59 0 4 0
38 59 0 4 0
40 59 0 2 0
42 59 0 3 0
44 59 0 3 0
46 58 0 4 0
48 58 0 4 0
50 59 0 3 0
52 59 0 3 0
54 58 0 3 0
56 59 0 2 0
58 60 0 1 0
60 60 0 1 0
62 59 0 1 0
64 59 0 1 0
66 58 0 2 0
68 58 0 4 0
70 59 0 2 0
72 57 0 4 1
74 58 0 2 1
76 57 0 3 1
78 57 0 2 0
80 58 0 2 0
82 59 0 1 0
84 59 0 1 0
86 60 0 0 0
88 59 0 2 0
90 57 0 4 0
92 59 0 2 0
94 59 0 2 2
96 59 0 1 1
98 59 0 2 2
100 60 0 0 2
102 60 0 0 3
104 59 0 2 2
106 59 0 2 3
108 60 0 1 1
110 58 0 3 2
112 59 0 2 2
114 60 2 1 1
116 60 2 0 1
118 60 2 1 2
120 59 2 2 2
122 59 2 2 2
124 59 3 3 0
126 60 3 2 0
128 58 3 3 0
130 60 2 2 1
132 60 3 2 0
134 59 3 3 0
136 58 3 3 0
138 61 3 0 0
140 61 3 0 0
142 59 3 2 0
144 59 3 2 0
146 58 3 3 0
148 58 3 3 0
150 59 3 1 0
152 59 3 1 0
154 59 3 2 0
156 59 3 1 0
158 60 3 0 0
160 60 3 1 0
162 59 3 2 1
164 59 3 2 1
166 60 3 1 2
168 59 3 1 2
170 58 3 1 2
172 59 3 1 1
174 58 4 2 0
176 58 4 3 1
178 58 4 3 2
180 58 4 2 1
182 58 5 1 0
184 57 5 2 1
186 58 5 2 1
188 57 6 2 1
190 58 6 1 1
192 58 6 1 1
194 59 6 1 1
196 59 6 0 1
198 59 5 0 1
200 59 5 1 1
202 58 5 2 1
204 59 5 1 2
206 58 5 3 2
208 58 5 1 2
210 57 5 2 2
212 55 5 5 2
214 56 5 4 2
216 55 6 4 1
218 55 7 4 0
220 55 7 4 0
222 56 7 1 0
224 55 7 2 0
226 55 7 2 1
228 55 7 2 1
230 56 7 1 1
232 55 7 2 0
234 56 7 1 0
236 55 7 2 0
238 55 7 2 1
240 56 7 1 1
242 57 7 0 1
244 57 7 0 1
246 57 7 0 1
248 57 7 0 1
250 56 7 1 1
252 54 7 3 1
254 54 8 3 0
256 53 8 4 0
258 55 8 1 0
260 55 8 1 1
262 55 8 1 1
264 56 8 0 1
266 55 7 1 2
268 56 8 1 1
270 55 9 2 0
272 56 9 1 0
274 56 9 1 0
276 56 9 1 0
278 56 9 0 0
280 56 9 1 0
282 56 9 1 0
284 55 7 1 2
286 54 9 2 0
288 56 9 0 0
290 55 9 1 0
292 55 9 1 0
294 56 9 0 0
296 56 9 0 0
298 56 9 0 0
300 56 9 0 0
302 56 9 0 0
304 56 9 0 0
306 56 9 0 0
308 55 9 1 0
310 55 9 0 0
312 55 9 0 0
314 54 9 1 0
316 54 9 1 0
318 55 9 0 1
320 54 9 1 1
322 55 9 0 1
324 55 9 0 0
326 55 9 0 0
328 54 9 1 1
330 53 9 2 1
332 53 9 2 1
334 53 10 2 0
336 54 10 1 0
338 53 9 2 1
340 52 9 3 1
342 53 9 1 1
344 53 9 0 0
346 51 9 3 1
348 52 9 2 1
350 51 9 2 2
