0 1212 0 0 0 0 830
2 1188 7 0 17 0 789
4.00004 1189 6 0 13 0 785
6 1191 5 0 11 0 782
8 1178 7 0 20 0 793
10 1180 5 0 20 0 792
12 1172 6 0 22 0 824
14 1181 10 0 15 0 791
16 1181 5 0 21 0 810
18 1172 9 0 16 0 792
20 1182 7 0 19 0 787
22 1175 3 0 20 0 803
24 1162 9 0 22 0 797
26 1149 12 0 32 0 785
28 1176 5 0 21 0 818
30 1157 6 0 34 0 801
32 1173 4 0 19 0 800
34 1175 3 0 21 0 785
36 1149 10 0 20 0 792
38 1139 10 0 26 0 804
40 1142 7 0 20 0 810
42 1137 9 0 17 0 777
44 1138 8 0 19 0 814
46 1130 6 0 24 0 792
48 1143 4 0 18 0 790
50 1132 9 0 26 0 823
52 975 0 169 18 1 822
54 872 0 268 22 0 790
56 792 0 348 11 5 792
58 708 0 423 15 6 813
60 654 0 484 14 2 805
62 581 0 547 18 9 781
64 531 0 603 13 8 781
66 485 0 653 5 8 806
68 439 1 703 10 7 763
70 411 0 737 8 11 801
72 381 0 765 10 12 801
74 362 0 787 8 8 772
76 334 0 813 6 16 801
78 315 0 844 7 9 813
80 299 0 859 9 16 793
82 270 0 883 7 15 797
84 248 0 912 5 15 806
86 225 0 941 3 13 823
88 203 0 949 6 18 829
90 186 0 961 8 9 811
92 185 1 959 4 21 788
94 164 0 989 3 11 777
96 156 0 991 6 11 823
98 151 0 1003 2 14 781
100 143 0 1018 5 11 800
102 147 0 1015 4 19 815
104 138 0 1016 3 14 800
106 143 0 1017 3 14 823
108 137 0 1023 6 18 794
110 128 0 1025 7 15 801
112 119 0 1038 3 13 776
114 121 0 1049 1 9 790
116 113 0 1051 4 10 794
118 104 0 1045 4 14 788
120 105 0 1038 2 20 786
122 98 0 1052 2 18 779
124 97 0 1059 3 16 804
126 100 0 1057 5 19 800
128 95 0 1064 7 19 782
130 98 0 1068 0 16 807
132 94 0 1071 3 16 819
134 88 0 1082 2 12 801
136 87 0 1089 2 12 806
138 76 0 1091 4 17 785
140 67 0 1105 2 15 820
142 65 0 1109 4 14 805
144 76 0 1099 0 17 797
146 70 0 1096 2 17 802
148 65 0 1094 6 22 811
150 77 0 1095 3 18 802
152 67 0 1099 4 24 798
154 63 0 1096 4 19 803
156 66 0 1103 1 15 803
158 61 0 1101 5 16 781
160 65 0 1103 0 15 798
162 57 1 1114 3 19 833
164 59 0 1120 4 16 789
166 55 0 1118 1 21 776
168 52 0 1107 1 14 807
170 51 0 1097 2 16 804
172 50 0 1101 2 17 812
174 50 0 1100 3 14 810
176 52 0 1096 2 16 772
178 53 0 1089 0 15 808
180 52 1 1086 2 20 800
182 51 0 1095 0 13 810
184 45 0 1096 8 21 789
186 55 0 1101 1 16 801
188 56 0 1097 2 16 794
190 55 0 1097 1 16 784
192 52 0 1094 3 21 812
194 49 1 1105 0 16 798
196 44 0 1107 1 15 818
198 44 0 1116 1 14 796
200 38 0 1112 4 24 788
