0 688 0 0 0 0 770
2 665 0 0 23 0 811
4.00004 672 0 0 20 0 815
6 674 0 0 19 0 818
8 680 0 0 15 0 807
10 679 0 0 16 0 808
12 673 0 0 27 0 776
14 681 0 0 13 0 809
16 672 0 0 21 0 790
18 685 0 0 18 0 808
20 673 0 0 19 0 813
22 675 0 0 27 0 797
24 687 0 0 20 0 803
26 678 0 0 29 0 815
28 665 0 0 33 0 782
30 678 0 0 25 0 799
32 686 0 0 18 0 800
34 683 0 0 18 0 815
36 699 0 0 22 0 808
38 708 0 0 17 0 796
40 701 0 0 30 0 790
42 713 0 0 24 0 823
44 706 0 0 29 0 786
46 718 0 0 22 0 808
48 715 0 0 20 0 810
50 711 0 0 22 0 777
52 714 0 0 23 0 778
54 713 0 1 24 0 810
56 714 0 2 28 0 808
58 723 0 8 15 2 787
60 701 0 14 29 2 795
62 708 0 21 16 0 819
64 693 0 25 25 2 819
66 689 0 33 26 1 794
68 685 0 35 18 2 837
70 664 0 41 25 3 799
72 665 0 49 16 2 799
74 657 0 59 11 8 828
76 638 0 68 23 2 799
78 630 0 74 19 2 787
80 619 0 76 16 6 807
82 607 0 90 18 10 803
84 597 0 97 21 5 794
86 592 0 104 18 4 777
88 591 0 114 14 5 771
90 575 0 128 22 11 789
92 566 0 141 19 4 812
94 564 0 146 18 5 823
96 558 0 157 15 6 777
98 548 0 158 16 8 819
100 528 0 156 25 14 800
102 523 0 165 20 7 785
104 519 0 188 15 7 800
106 492 0 199 24 8 777
108 490 0 208 12 6 806
110 477 0 224 17 7 799
112 470 0 227 21 9 824
114 472 0 230 12 6 810
116 459 0 232 19 12 806
118 461 0 245 13 14 812
120 454 0 258 12 11 814
122 447 0 259 12 12 821
124 436 0 272 11 6 796
126 417 0 277 13 12 800
128 406 0 290 10 9 818
130 397 0 298 12 11 793
132 385 0 303 16 12 781
134 386 0 308 8 14 799
136 375 0 321 11 3 794
138 371 0 319 10 12 815
140 363 0 327 13 8 780
142 366 0 328 5 9 795
144 353 0 333 9 13 803
146 349 0 351 7 8 798
148 331 0 357 16 9 789
150 321 0 363 12 11 798
152 324 0 366 6 10 802
154 310 0 379 17 12 797
156 316 0 385 4 10 797
158 303 0 393 11 10 819
160 304 0 395 8 10 802
162 295 0 382 12 17 767
164 294 0 382 7 18 811
166 289 0 399 7 10 824
168 286 0 420 6 14 793
170 278 0 437 7 12 796
172 274 0 436 6 14 788
174 267 0 439 10 17 790
176 261 0 453 9 11 828
178 258 0 464 8 13 792
180 255 0 461 6 17 800
182 256 0 465 3 17 790
184 243 0 462 9 16 811
186 237 0 465 8 17 799
188 231 0 473 9 16 806
190 233 0 483 2 13 816
192 226 0 480 5 19 788
194 227 0 476 2 24 802
196 217 0 487 9 20 782
198 212 0 486 7 20 804
200 207 0 492 6 17 812
