0 1407 0 0 0 0 774
2 1407 11 0 17 0 828
4.00004 1436 6 0 19 0 810
6 1440 14 0 21 0 806
8 1455 9 0 26 0 804
10 1476 13 0 26 0 785
12 1482 10 0 23 0 789
14 1497 11 0 18 0 779
16 1521 5 0 18 0 788
18 1517 11 0 24 0 786
20 1537 13 0 18 0 784
22 1537 11 0 29 0 802
24 1543 17 0 29 0 791
26 1564 13 0 14 0 793
28 1576 11 0 18 0 806
30 1588 12 0 9 0 800
32 1587 11 0 27 0 801
34 1601 14 0 10 0 817
36 1604 6 0 19 0 788
38 1602 13 0 20 0 839
40 1605 13 0 28 0 802
42 1618 12 0 19 0 785
44 1618 11 0 22 0 814
46 1634 3 0 20 0 789
48 1617 14 0 17 0 787
50 1620 15 0 18 0 826
52 1366 0 275 13 2 826
54 1185 1 453 20 3 828
56 1037 1 605 14 7 797
58 890 0 751 11 7 801
60 767 0 867 20 8 773
62 666 2 975 11 9 796
64 601 0 1050 5 9 799
66 538 0 1122 6 8 793
68 467 0 1187 4 9 796
70 419 0 1240 4 9 806
72 378 0 1285 7 13 791
74 337 1 1316 5 22 792
76 300 0 1362 6 18 786
78 261 1 1409 6 14 800
80 234 0 1426 3 24 816
82 207 0 1446 7 20 825
84 198 0 1459 3 19 801
86 178 1 1487 2 17 794
88 152 0 1510 5 19 771
90 131 0 1523 6 13 788
92 116 0 1527 2 20 778
94 116 0 1535 1 21 808
96 105 0 1552 2 13 790
98 99 0 1552 2 17 799
100 87 0 1563 1 24 776
102 70 0 1581 4 19 802
104 67 0 1585 2 20 803
106 62 0 1599 3 21 828
108 58 0 1616 2 15 772
110 53 0 1599 0 24 789
112 43 0 1613 2 17 782
114 40 0 1614 2 19 842
116 37 0 1620 1 17 792
118 36 0 1627 2 16 810
120 36 0 1618 1 18 816
122 34 0 1619 1 22 796
124 29 0 1620 1 26 817
126 24 0 1639 1 15 824
128 27 0 1642 1 15 811
130 27 0 1639 1 27 823
132 23 0 1638 0 28 816
134 23 0 1647 0 15 798
136 22 0 1646 1 17 799
138 23 0 1641 0 21 788
140 21 0 1639 0 20 806
142 19 0 1641 1 21 824
144 19 0 1651 0 17 810
146 17 0 1653 2 14 785
148 13 0 1645 1 20 798
150 12 0 1644 0 23 814
152 10 0 1655 0 17 768
154 9 0 1646 0 26 790
156 9 0 1654 0 23 809
158 10 0 1654 0 34 780
160 9 0 1665 1 27 798
162 8 0 1656 0 33 803
164 7 0 1672 0 11 780
166 5 0 1667 0 28 799
168 4 0 1678 0 21 816
170 3 0 1673 0 17 822
172 3 0 1649 0 35 809
174 2 0 1653 0 28 767
176 2 0 1675 0 15 778
178 2 0 1680 0 14 781
180 1 0 1673 0 24 792
182 1 0 1673 0 22 833
184 1 0 1672 0 22 786
186 1 0 1666 0 26 787
188 1 0 1672 0 21 804
190 1 0 1663 0 23 815
192 0 0 1664 0 15 803
194 0 0 1657 0 22 799
196 0 0 1656 0 20 805
198 0 0 1655 0 28 795
200 0 0 1663 0 20 829
