0 980 0 0 0 0 0
2 936 0 0 41 0 9
4.00004 926 0 0 44 0 10
6 926 2 0 40 0 10
8 927 0 0 44 0 12
10 944 0 0 35 0 8
12 928 1 0 42 0 7
14 928 0 0 38 0 8
16 939 1 0 42 0 6
18 935 2 0 40 0 13
20 946 1 0 30 0 13
22 944 1 0 39 0 8
24 953 2 0 35 0 5
26 943 1 0 46 0 8
28 950 0 0 38 0 7
30 964 1 0 39 0 4
32 956 0 0 33 0 10
34 945 3 0 42 0 10
36 950 2 0 31 0 9
38 936 1 0 40 0 14
40 945 1 0 49 0 6
42 948 0 0 38 0 14
44 933 2 0 44 0 15
46 940 0 0 24 0 14
48 924 0 0 42 0 9
50 939 0 0 37 0 8
52 888 0 49 30 20 0
54 883 0 53 17 27 0
56 873 0 76 18 22 0
58 855 0 87 21 32 0
60 850 0 97 19 31 0
62 827 0 105 29 32 0
64 814 0 116 27 43 0
66 808 0 142 20 35 0
68 800 0 145 14 40 0
70 789 0 149 14 47 0
72 769 0 180 21 37 0
74 750 0 197 25 26 1
76 743 0 212 21 28 0
78 724 0 234 22 35 0
80 726 0 239 11 33 0
82 720 0 238 10 40 0
84 709 0 253 13 38 0
86 693 0 266 20 49 0
88 687 0 280 17 44 0
90 677 0 305 19 33 0
92 672 0 316 16 28 0
94 661 0 322 19 34 0
96 654 0 330 15 35 0
98 654 0 338 9 42 0
100 644 0 345 9 38 0
102 637 0 348 11 45 0
104 631 0 357 14 36 0
106 626 0 372 12 26 0
108 612 0 380 15 26 0
110 601 0 381 15 38 0
112 594 0 379 15 41 0
114 585 0 395 13 38 0
116 571 0 402 13 44 0
118 561 0 422 13 47 0
120 554 0 425 13 34 0
122 542 0 429 14 46 0
124 532 0 450 16 33 0
126 529 0 452 8 36 0
128 516 0 450 14 41 0
130 515 0 480 3 36 0
132 503 0 472 11 39 0
134 493 0 489 12 35 0
136 487 0 497 13 35 0
138 478 0 486 12 45 0
140 474 0 504 14 36 0
142 465 0 503 16 41 0
144 462 0 501 12 40 0
146 456 0 515 10 42 1
148 454 0 514 10 45 0
150 445 0 529 12 43 0
152 439 0 535 11 43 0
154 432 0 528 10 39 0
156 429 0 534 7 40 0
158 416 0 547 13 32 0
160 416 0 561 7 35 0
162 412 0 561 5 39 0
164 398 0 570 7 48 0
166 390 0 577 9 47 0
168 386 0 587 8 53 0
170 376 0 585 13 52 0
172 370 0 598 15 47 0
174 368 0 596 8 59 0
176 361 0 606 8 51 0
178 356 0 630 6 38 0
180 340 0 642 13 44 0
182 336 0 639 10 38 0
184 329 0 642 10 49 0
186 328 0 665 5 35 0
188 320 0 662 7 37 0
190 313 0 653 10 46 0
192 312 0 670 3 44 0
194 302 0 665 8 52 0
196 301 0 691 5 39 1
198 291 0 685 8 56 0
200 282 0 694 14 54 0
