0 1159 0 0 0 0 0
2 1086 2 0 67 0 17
4.00004 1076 3 0 68 0 17
6 1050 4 0 90 0 16
8 1062 3 0 88 0 11
10 1074 0 0 65 0 17
12 1066 0 0 76 0 18
14 1050 1 0 95 0 18
16 1044 4 0 106 0 14
18 1069 4 0 82 0 23
20 1057 4 0 91 0 18
22 1057 3 0 94 0 14
24 1073 3 0 77 0 21
26 1067 2 0 91 0 25
28 1060 3 0 80 0 22
30 1052 4 0 82 0 26
32 1050 2 0 95 0 26
34 1049 6 0 96 0 21
36 1083 1 0 83 0 17
38 1060 2 0 82 0 21
40 1058 4 0 93 0 18
42 1037 2 0 102 0 23
44 1048 3 0 94 0 31
46 1051 4 0 92 0 23
48 1058 1 0 89 0 20
50 1052 4 0 98 0 23
52 1002 0 57 44 65 1
54 968 0 82 49 71 0
56 940 0 131 50 62 0
58 906 0 139 50 73 0
60 875 0 181 47 59 0
62 846 0 194 45 79 0
64 821 0 210 36 88 0
66 788 0 237 39 88 0
68 764 0 271 37 70 0
70 742 1 300 29 70 0
72 715 0 327 28 89 0
74 689 0 338 35 92 0
76 685 0 360 17 101 0
78 662 0 388 23 71 0
80 632 0 406 35 86 0
82 610 0 426 35 73 0
84 593 0 458 29 80 0
86 573 0 457 29 87 0
88 552 0 470 36 90 0
90 542 0 480 25 98 0
92 531 0 499 19 95 1
94 506 0 511 20 112 0
96 489 0 537 23 94 0
98 477 0 545 17 94 0
100 459 0 562 18 88 0
102 445 0 581 17 100 0
104 434 0 580 16 117 0
106 422 0 596 16 107 0
108 408 0 613 20 95 0
110 398 0 634 19 90 0
112 394 0 638 10 104 0
114 380 0 670 16 82 0
116 376 0 670 8 95 0
118 359 0 681 18 86 0
120 349 0 690 15 87 0
122 346 0 691 11 86 0
124 334 0 695 15 82 0
126 331 0 698 12 85 0
128 321 0 707 13 95 0
130 308 0 704 15 98 0
132 291 0 746 20 91 0
134 283 0 735 15 112 0
136 277 0 766 11 94 0
138 259 0 769 16 99 0
140 255 0 770 14 104 0
142 248 0 781 12 112 0
144 243 0 791 12 112 0
146 236 0 801 10 106 0
148 233 0 791 6 117 0
150 223 0 797 12 118 0
152 214 0 835 11 99 0
154 205 0 821 8 117 0
156 198 0 826 11 118 0
158 189 0 826 16 115 0
160 190 0 846 4 106 0
162 181 0 831 12 113 0
164 176 0 851 11 95 0
166 169 0 828 12 116 0
168 167 0 844 9 112 0
170 156 0 850 7 108 0
172 151 0 853 7 103 0
174 147 0 857 8 90 0
176 143 0 855 5 98 0
178 137 0 848 6 107 0
180 134 0 871 6 95 0
182 127 0 869 7 109 0
184 125 0 878 9 110 0
186 126 0 885 6 98 0
188 123 0 874 7 109 0
190 120 0 893 6 108 0
192 113 0 881 7 109 0
194 109 0 888 6 105 0
196 101 0 875 9 121 0
198 100 0 895 5 105 0
200 100 0 893 3 114 0
