0 1149 0 0 0 0 0
2 1066 2 0 60 0 20
4.00004 1058 1 0 73 0 21
6 1045 0 0 74 0 17
8 1025 1 0 89 0 18
10 1024 1 0 93 0 14
12 1040 0 0 75 0 19
14 1028 1 0 73 0 21
16 1039 0 0 70 0 25
18 1059 0 0 66 0 19
20 1044 3 0 79 0 18
22 1037 5 0 79 0 23
24 1036 1 0 86 0 19
26 1026 1 0 100 0 16
28 1031 3 0 76 0 23
30 1016 1 0 96 0 24
32 1025 4 0 87 0 21
34 1046 0 0 68 0 19
36 1033 5 0 83 0 19
38 1033 0 0 90 0 13
40 1035 0 0 86 0 19
42 1032 2 0 100 0 24
44 1039 1 0 85 0 11
46 1064 2 0 76 0 16
48 1052 1 0 79 0 21
50 1045 0 0 77 0 24
52 965 1 75 56 37 0
54 941 0 97 45 62 0
56 923 0 137 37 54 0
58 899 0 169 40 51 0
60 876 0 198 34 57 0
62 852 0 205 36 64 0
64 823 0 232 42 49 0
66 795 0 268 43 56 0
68 789 0 289 30 59 0
70 751 0 298 50 71 0
72 740 0 341 30 57 0
74 728 0 361 17 75 0
76 698 0 380 23 71 0
78 678 0 408 26 69 0
80 652 0 428 35 68 0
82 638 0 436 32 69 0
84 609 0 452 35 71 0
86 598 0 468 32 87 0
88 584 0 510 26 80 0
90 569 0 519 30 85 0
92 558 0 539 29 84 0
94 549 0 535 24 91 0
96 533 0 578 27 73 0
98 521 0 582 22 84 0
100 504 0 565 24 88 0
102 480 0 593 32 83 0
104 470 0 592 25 84 0
106 455 0 624 23 77 0
108 433 0 624 27 87 0
110 428 1 643 17 72 0
112 418 0 637 19 77 0
114 404 0 630 21 98 0
116 399 0 674 14 76 0
118 380 0 678 24 97 0
120 371 0 689 21 84 0
122 362 0 706 17 81 0
124 353 0 717 16 75 0
126 341 0 707 15 79 0
128 331 0 722 17 78 0
130 325 0 727 19 77 0
132 328 0 725 9 87 0
134 313 0 730 12 76 0
136 297 0 741 18 79 1
138 305 0 730 4 93 0
140 290 0 746 8 98 0
142 281 0 755 14 93 0
144 277 0 753 9 95 0
146 269 0 745 11 111 0
148 262 0 767 15 85 0
150 254 0 765 14 99 0
152 247 0 765 17 98 0
154 237 0 772 18 92 0
156 233 0 797 9 96 0
158 226 0 781 10 106 0
160 217 0 796 12 87 0
162 210 0 786 12 98 0
164 203 0 814 11 76 0
166 200 0 792 7 97 0
168 194 0 817 9 84 0
170 189 0 831 10 80 0
172 181 0 838 12 88 0
174 175 0 843 9 109 0
176 170 0 846 8 103 0
178 166 0 857 7 96 0
180 162 0 866 5 92 0
182 155 0 833 10 118 0
184 153 0 845 9 101 0
186 150 0 876 9 87 0
188 150 0 858 4 116 0
190 141 0 872 9 84 0
192 139 0 880 6 102 0
194 138 0 882 4 86 0
196 132 0 892 7 90 0
198 130 0 891 5 96 0
200 130 0 882 3 99 0
