0 1108 0 0 0 0 0
2 1050 1 0 49 0 11
4.00004 1043 1 0 57 0 9
6 1056 1 0 50 0 10
8 1046 0 0 52 0 10
10 1035 4 0 57 0 9
12 1039 1 0 56 0 10
14 1040 0 0 50 0 17
16 1012 3 0 62 0 16
18 1018 2 0 46 0 21
20 1031 0 0 51 0 16
22 1013 2 0 47 0 20
24 1016 1 0 51 0 12
26 1003 0 0 52 0 15
28 995 2 0 54 0 14
30 999 1 0 53 0 21
32 1004 4 0 50 0 12
34 993 0 0 52 0 15
36 975 1 0 64 0 12
38 986 1 0 54 0 18
40 985 3 0 50 0 16
42 974 2 0 64 0 13
44 983 2 0 54 0 15
46 984 1 0 66 0 16
48 985 3 0 56 0 15
50 991 1 0 53 0 13
52 937 0 63 32 37 0
54 905 0 86 28 36 0
56 891 0 107 25 40 0
58 867 0 108 31 56 0
60 853 1 135 24 46 1
62 824 1 162 33 51 0
64 823 0 179 21 45 0
66 809 0 184 24 37 0
68 798 0 188 17 53 0
70 778 0 213 20 52 0
72 776 0 226 14 44 0
74 748 0 248 20 41 0
76 738 0 268 16 51 0
78 709 0 289 31 59 0
80 705 0 286 20 61 0
82 697 0 316 15 53 0
84 681 0 323 17 45 0
86 670 0 315 17 63 0
88 662 1 328 12 52 0
90 642 0 368 20 41 0
92 630 0 385 17 39 0
94 614 0 394 22 48 0
96 610 0 391 10 56 0
98 587 0 417 19 54 0
100 591 0 445 10 53 0
102 577 0 435 15 57 0
104 571 0 449 7 60 0
106 556 0 464 12 52 0
108 551 0 469 10 60 0
110 527 0 491 13 55 0
112 519 0 504 14 51 0
114 512 0 506 13 58 0
116 501 0 502 11 59 0
118 491 0 498 14 68 0
120 483 0 543 9 48 0
122 472 0 541 9 60 0
124 466 0 552 3 62 0
126 452 0 560 10 51 0
128 436 0 558 16 69 0
130 435 0 578 10 61 0
132 427 0 586 13 55 0
134 420 0 605 11 57 0
136 415 0 603 13 55 0
138 415 0 617 10 52 0
140 403 0 626 10 50 0
142 388 0 635 17 46 0
144 392 0 624 6 72 0
146 382 0 644 6 60 0
148 373 0 649 12 64 0
150 371 0 653 8 59 0
152 363 0 649 11 68 0
154 356 0 640 13 76 0
156 352 0 675 12 55 0
158 343 0 690 12 41 0
160 334 0 678 8 69 0
162 328 0 689 8 54 0
164 321 0 689 8 62 0
166 310 0 701 10 56 0
168 306 0 705 8 62 0
170 296 0 702 11 55 0
172 298 0 708 4 59 0
174 283 0 719 10 53 0
176 279 0 709 7 68 0
178 271 0 721 9 69 0
180 266 0 725 6 63 0
182 261 0 727 7 57 0
184 255 0 740 7 55 0
186 253 0 749 2 53 0
188 246 0 736 8 73 0
190 241 0 761 9 57 0
192 239 0 752 4 64 0
194 229 0 745 7 83 0
196 223 0 763 10 67 0
198 225 0 778 3 63 0
200 218 0 800 8 51 0
