0 1176 0 0 0 0 0
2 1132 2 0 31 0 16
4.00004 1121 4 0 29 0 15
6 1124 3 0 30 0 18
8 1125 2 0 35 0 15
10 1115 1 0 39 0 21
12 1110 2 0 45 0 24
14 1133 1 0 33 0 15
16 1146 1 0 30 0 20
18 1132 2 0 36 0 22
20 1158 0 0 28 0 16
22 1149 5 0 35 0 11
24 1154 1 0 34 0 17
26 1139 0 0 36 0 25
28 1141 1 0 35 0 24
30 1147 0 0 33 0 21
32 1142 3 0 33 0 19
34 1158 1 0 37 0 18
36 1144 1 0 45 0 13
38 1154 1 0 32 0 22
40 1154 1 0 45 0 20
42 1157 2 0 45 0 25
44 1161 3 0 44 0 16
46 1155 5 0 33 0 14
48 1151 0 0 23 0 14
50 1161 3 0 31 0 18
52 1082 0 75 13 41 0
54 1040 0 114 22 36 0
56 1005 0 146 15 50 0
58 983 0 166 10 51 0
60 959 0 214 4 38 0
62 912 0 257 11 41 0
64 875 0 281 22 36 0
66 863 0 309 8 37 1
68 821 0 337 11 42 0
70 791 0 369 10 39 0
72 769 0 392 6 53 0
74 742 0 428 9 49 0
76 714 0 438 6 56 0
78 685 0 469 12 51 0
80 666 0 498 12 34 0
82 641 0 502 12 59 0
84 619 0 545 11 38 0
86 602 0 571 8 39 1
88 585 0 585 6 45 1
90 568 0 608 5 36 1
92 549 0 622 6 46 0
94 528 0 643 8 42 0
96 505 0 674 10 45 0
98 492 0 686 7 50 0
100 485 0 677 3 51 0
102 460 0 709 9 46 0
104 452 0 717 7 46 0
106 433 0 739 7 45 0
108 424 0 737 6 46 0
110 410 0 738 8 51 1
112 401 0 769 6 38 0
114 391 0 768 1 55 0
116 380 0 783 6 39 0
118 355 0 811 12 36 0
120 348 0 804 7 46 0
122 341 0 811 4 47 0
124 332 0 805 5 53 0
126 318 0 817 8 55 0
128 302 0 826 10 56 0
130 298 0 851 4 41 0
132 284 0 863 4 47 0
134 277 0 868 3 58 0
136 268 0 882 7 48 0
138 262 0 886 5 60 0
140 253 0 903 3 57 0
142 244 0 922 2 54 0
144 237 0 928 3 49 0
146 232 0 943 1 50 0
148 220 0 942 4 60 0
150 215 1 948 5 47 0
152 205 0 966 4 38 0
154 196 0 961 1 52 0
156 190 0 971 1 56 0
158 185 0 967 1 61 0
160 174 0 981 3 45 0
162 170 0 993 4 43 0
164 163 0 984 1 50 0
166 158 0 1000 2 40 0
168 158 0 984 1 62 0
170 149 0 988 6 56 0
172 144 0 1010 4 50 0
174 142 0 1024 0 41 0
176 136 0 1023 3 47 0
178 135 0 1027 0 50 0
180 131 0 1023 1 53 0
182 127 0 1031 2 45 0
184 120 0 1030 1 52 0
186 115 0 1053 3 37 0
188 115 0 1051 1 35 0
190 113 0 1054 0 51 0
192 110 0 1056 0 45 0
194 110 0 1064 0 44 0
196 107 0 1050 3 52 0
198 105 0 1076 2 39 0
200 102 0 1076 0 37 0
