0 946 0 0 0 0 0
2 861 3 0 61 0 23
4.00004 860 1 0 68 0 18
6 840 3 0 81 0 23
8 846 2 0 74 0 22
10 844 1 0 81 0 26
12 855 1 0 77 0 23
14 852 1 0 100 0 25
16 845 3 0 108 0 13
18 853 2 0 93 0 27
20 863 3 0 100 0 22
22 877 3 0 95 0 21
24 875 0 0 89 0 25
26 862 0 0 83 0 25
28 856 0 0 102 0 38
30 872 2 0 95 0 29
32 873 1 0 94 0 23
34 870 0 0 97 0 24
36 872 3 0 90 0 27
38 887 1 0 82 0 34
40 889 1 0 77 0 18
42 873 1 0 86 0 21
44 867 0 0 76 0 29
46 863 2 0 94 0 31
48 881 1 0 79 0 31
50 872 1 0 90 0 38
52 806 0 80 37 50 0
54 767 0 98 46 72 0
56 747 0 125 41 79 0
58 723 0 146 36 87 0
60 712 0 185 27 74 0
62 683 0 203 33 80 0
64 664 0 226 34 76 0
66 636 0 259 33 79 0
68 616 0 279 29 83 0
70 590 0 303 37 80 0
72 590 0 315 23 77 0
74 557 0 326 32 88 0
76 525 0 353 37 78 0
78 509 0 367 31 92 1
80 501 0 403 24 103 0
82 479 0 424 28 92 1
84 464 0 426 26 107 0
86 452 0 458 16 92 0
88 428 0 460 19 95 0
90 410 0 489 17 88 0
92 404 0 506 16 95 0
94 390 0 514 20 98 0
96 380 0 540 18 91 0
98 373 0 556 9 87 0
100 359 0 553 13 97 0
102 340 0 568 20 99 0
104 326 0 588 13 108 0
106 304 0 592 19 114 0
108 300 0 606 15 124 0
110 295 0 612 13 100 0
112 280 0 611 16 108 0
114 277 0 633 9 107 0
116 264 0 611 15 107 0
118 261 0 636 9 102 0
120 256 0 650 7 102 1
122 243 0 670 10 95 0
124 234 0 678 9 108 0
126 226 0 693 12 95 0
128 219 0 681 12 114 0
130 214 0 699 9 103 0
132 205 0 710 16 108 0
134 199 0 713 11 111 0
136 194 0 728 9 95 0
138 184 0 710 6 127 0
140 173 0 733 8 120 0
142 167 0 766 7 104 0
144 162 0 753 5 122 0
146 154 0 768 7 126 0
148 147 0 774 7 109 0
150 143 0 785 7 117 0
152 134 0 777 10 109 0
154 137 0 786 3 112 0
156 130 0 778 6 123 0
158 129 0 780 5 128 0
160 121 0 801 10 124 0
162 113 0 808 11 126 0
164 108 0 810 8 128 0
166 105 0 803 9 143 0
168 104 0 826 6 123 0
170 99 0 849 3 111 0
172 95 0 842 3 115 0
174 93 0 830 4 136 0
176 89 0 867 5 115 0
178 86 0 844 5 127 0
180 82 0 862 6 119 0
182 79 0 847 4 133 0
184 77 0 862 4 122 0
186 78 0 858 1 130 0
188 76 0 864 2 108 0
190 74 0 863 4 101 0
192 71 0 865 6 109 0
194 73 0 864 3 106 0
196 70 0 864 4 109 0
198 69 0 845 2 122 0
200 67 0 865 4 111 0
