0 876 0 0 0 0 0
2 801 2 0 53 0 18
4.00004 799 0 0 65 0 11
6 802 0 0 62 0 16
8 808 0 0 50 0 10
10 804 0 0 43 0 13
12 806 1 0 45 0 9
14 798 0 0 53 0 21
16 804 1 0 59 0 12
18 811 0 0 53 0 11
20 804 2 0 54 0 9
22 800 0 0 51 0 13
24 797 2 0 61 0 16
26 808 0 0 55 0 9
28 817 1 0 52 0 10
30 808 1 0 54 0 8
32 813 0 0 53 0 13
34 809 1 0 50 0 13
36 796 0 0 56 0 10
38 810 0 0 41 0 13
40 820 0 0 48 0 10
42 800 0 0 64 0 13
44 826 0 0 36 0 8
46 805 0 0 50 0 11
48 805 1 0 52 0 12
50 805 1 0 50 0 10
52 747 0 58 36 35 0
54 732 0 85 32 25 0
56 717 0 90 30 37 1
58 708 0 107 22 34 0
60 692 0 113 22 44 0
62 679 0 130 27 43 0
64 675 0 151 21 35 0
66 660 0 157 23 33 0
68 652 0 155 20 41 0
70 642 0 175 25 35 0
72 631 0 181 22 27 0
74 613 0 205 25 24 0
76 591 0 211 31 44 0
78 576 0 230 24 42 0
80 574 0 244 14 38 0
82 565 0 261 13 39 0
84 543 0 255 22 52 0
86 544 0 273 15 38 0
88 529 0 282 22 38 0
90 518 0 297 18 36 0
92 509 0 300 19 35 0
94 500 0 327 13 23 0
96 485 0 306 21 47 0
98 477 0 316 19 50 1
100 469 0 347 16 37 0
102 458 0 361 14 44 0
104 448 0 366 15 44 0
106 438 0 372 15 45 0
108 428 0 383 14 56 0
110 422 0 396 15 47 0
112 406 0 411 17 53 0
114 393 0 421 19 56 0
116 390 0 417 18 60 0
118 385 0 430 10 50 0
120 369 0 435 16 45 0
122 370 0 442 11 47 0
124 366 0 452 9 42 0
126 359 0 444 8 52 0
128 345 0 460 17 48 0
130 335 0 468 20 60 0
132 336 0 480 13 49 0
134 334 0 488 9 57 0
136 328 0 496 12 48 0
138 323 0 507 11 54 0
140 316 0 510 10 48 0
142 312 0 506 6 60 0
144 297 0 520 14 54 0
146 294 0 528 11 41 0
148 289 0 523 12 45 0
150 276 0 530 16 54 0
152 283 0 536 7 54 0
154 273 0 547 14 54 0
156 269 0 547 10 67 0
158 265 0 559 10 53 0
160 260 0 561 12 65 0
162 254 0 582 12 49 0
164 248 0 587 12 50 0
166 247 0 582 8 58 0
168 240 0 602 5 61 0
170 235 0 596 5 60 0
172 226 0 606 8 65 0
174 220 0 608 8 67 0
176 208 0 625 13 55 0
178 210 0 627 8 57 0
180 204 0 618 10 66 0
182 199 0 633 8 61 0
184 194 0 634 6 59 0
186 184 0 653 13 54 0
188 186 0 659 4 56 0
190 177 0 641 7 68 0
192 173 0 667 6 50 0
194 167 0 667 7 57 0
196 169 0 681 4 51 0
198 163 0 664 8 67 0
200 155 0 679 10 58 0
