0 1238 0 0 0 0 0
2 1187 0 0 40 0 7
4.00004 1192 1 0 28 0 12
6 1173 4 0 52 0 20
8 1199 2 0 42 0 21
10 1210 1 0 47 0 24
12 1201 0 0 39 0 21
14 1197 2 0 37 0 28
16 1198 3 0 39 0 15
18 1205 0 0 40 0 18
20 1185 1 0 43 0 31
22 1197 0 0 48 0 15
24 1195 2 0 41 0 21
26 1181 1 0 42 0 24
28 1204 1 0 30 0 21
30 1192 1 0 30 0 27
32 1182 1 0 42 0 23
34 1190 1 0 52 0 18
36 1206 0 0 34 0 22
38 1189 1 0 60 0 14
40 1198 1 0 53 0 26
42 1201 0 0 47 0 22
44 1208 2 0 44 0 23
46 1210 1 0 39 0 18
48 1178 4 0 54 0 24
50 1199 0 0 44 0 15
52 1115 0 92 18 39 0
54 1063 0 135 20 47 0
56 1027 0 183 18 42 0
58 989 1 207 23 40 0
60 959 0 248 18 61 0
62 919 0 286 19 52 0
64 881 0 337 24 39 0
66 843 0 363 23 39 0
68 814 0 382 18 52 0
70 774 0 427 21 51 0
72 746 0 464 12 46 0
74 716 0 486 14 44 0
76 681 0 521 17 58 0
78 649 0 533 15 58 0
80 625 0 563 9 56 0
82 601 0 587 10 64 0
84 578 0 606 10 68 0
86 554 0 640 10 47 0
88 522 0 659 14 50 0
90 505 0 682 10 55 0
92 482 0 685 14 69 0
94 468 0 703 8 67 0
96 443 0 727 14 56 0
98 434 0 732 6 58 0
100 422 0 775 4 58 0
102 400 0 778 6 62 0
104 393 1 796 4 55 0
106 384 0 819 3 43 0
108 370 0 828 5 55 0
110 344 0 863 11 50 0
112 331 0 873 9 48 1
114 326 0 872 4 56 0
116 313 0 881 5 70 0
118 298 0 910 4 49 0
120 288 0 915 3 62 0
122 277 0 935 4 49 0
124 268 0 952 6 57 0
126 259 0 953 3 64 0
128 249 0 964 3 67 0
130 241 0 966 3 70 0
132 233 0 987 0 71 0
134 226 0 989 3 54 0
136 213 0 980 9 63 0
138 209 0 1003 3 53 0
140 187 0 998 8 78 1
142 183 0 1012 3 61 0
144 178 0 1034 6 50 0
146 173 0 1032 2 57 0
148 167 0 1037 2 60 0
150 154 0 1055 4 56 0
152 152 0 1051 2 61 0
154 145 0 1060 3 62 0
156 140 0 1061 2 57 0
158 133 0 1080 3 56 0
160 127 0 1075 2 64 0
162 122 0 1093 3 61 0
164 117 0 1098 3 57 0
166 109 0 1096 5 72 0
168 104 0 1087 4 72 0
170 106 0 1100 0 59 0
172 102 0 1101 1 64 0
174 95 0 1107 5 64 0
176 98 0 1104 1 65 0
178 93 0 1115 1 61 0
180 92 0 1121 1 53 0
182 88 0 1117 3 53 0
184 84 0 1138 2 56 0
186 79 0 1133 0 71 0
188 73 0 1139 3 74 0
190 72 0 1133 1 77 0
192 68 0 1138 1 79 0
194 62 0 1148 3 68 0
196 61 0 1145 1 52 0
198 55 0 1154 4 72 0
200 58 0 1169 0 64 0
