0 1022 0 0 0 0 0
2 927 3 0 77 0 15
4.00004 927 1 0 70 0 21
6 915 1 0 85 0 11
8 931 1 0 76 0 6
10 929 0 0 65 0 12
12 928 2 0 68 0 12
14 914 2 0 68 0 12
16 927 1 0 71 0 18
18 930 1 0 71 0 14
20 915 1 0 87 0 10
22 928 1 0 87 0 10
24 929 1 0 85 0 10
26 923 0 0 90 0 11
28 934 2 0 81 0 10
30 922 3 0 82 0 11
32 924 5 0 88 0 14
34 935 0 0 83 0 11
36 933 1 0 86 0 9
38 926 1 0 93 0 11
40 933 3 0 82 0 10
42 943 0 0 71 0 15
44 924 2 0 91 0 11
46 933 0 0 84 0 12
48 941 0 0 81 0 10
50 949 1 0 73 0 9
52 893 0 37 59 26 0
54 874 0 65 51 31 0
56 872 0 72 39 39 0
58 848 0 76 53 42 0
60 842 0 96 39 48 0
62 820 0 118 51 45 0
64 813 0 125 46 57 0
66 806 0 144 43 52 0
68 803 0 146 37 51 0
70 791 0 162 38 54 0
72 764 0 169 49 59 0
74 765 0 182 35 58 0
76 755 0 191 37 54 0
78 748 0 204 34 59 0
80 737 0 203 36 63 0
82 716 0 219 47 58 0
84 717 0 224 41 53 0
86 720 0 239 30 54 0
88 706 0 248 38 49 0
90 699 0 251 38 53 1
92 696 0 272 34 49 0
94 681 0 279 40 49 0
96 679 0 275 31 63 0
98 667 0 293 34 63 0
100 664 0 306 30 61 0
102 646 0 319 41 59 0
104 642 0 328 30 55 0
106 625 0 325 34 63 0
108 621 0 324 30 70 0
110 616 0 334 30 85 0
112 608 0 369 23 63 0
114 589 0 369 30 81 0
116 585 0 370 30 68 0
118 567 0 377 40 61 0
120 571 0 383 25 55 0
122 562 0 403 25 56 0
124 548 0 422 27 60 0
126 535 0 418 33 66 0
128 532 0 403 29 84 0
130 529 0 428 23 74 0
132 507 0 439 37 68 0
134 511 0 450 27 72 0
136 495 0 458 33 65 0
138 489 0 478 29 69 0
140 482 0 475 27 66 0
142 479 0 484 21 71 0
144 465 0 485 30 78 0
146 457 0 512 31 61 0
148 456 0 492 24 75 0
150 444 0 505 24 72 0
152 434 0 526 21 67 0
154 426 0 516 23 77 0
156 422 0 532 23 64 0
158 419 0 518 21 84 0
160 410 0 543 23 68 0
162 409 0 540 19 66 0
164 400 0 545 23 77 0
166 394 0 549 24 75 0
168 392 0 560 19 71 0
170 379 0 564 25 76 0
172 374 0 572 23 64 0
174 364 0 572 23 82 0
176 360 0 573 23 91 0
178 359 0 598 18 78 0
180 353 0 578 19 100 0
182 352 0 593 15 80 0
184 338 0 589 22 88 0
186 337 0 600 16 86 0
188 335 0 597 14 87 0
190 331 0 621 12 61 0
192 326 0 613 10 73 0
194 319 0 609 13 80 0
196 312 0 637 16 75 0
198 314 0 639 13 64 0
200 302 0 637 19 83 0
