0 1099 0 0 0 0 0
2 1021 2 0 70 0 12
4.00004 1019 0 0 77 0 13
6 1019 2 0 78 0 14
8 1013 0 0 86 0 18
10 1015 1 0 79 0 16
12 1004 2 0 90 0 14
14 1024 0 0 79 0 18
16 1035 0 0 64 0 15
18 1022 1 0 74 0 20
20 1020 2 0 88 0 16
22 1033 1 0 84 0 13
24 1028 0 0 71 0 17
26 1019 1 0 85 0 21
28 1012 1 0 70 0 19
30 998 3 0 83 0 22
32 995 1 0 88 0 22
34 999 1 0 87 0 22
36 1009 1 0 81 0 17
38 989 3 0 90 0 20
40 991 1 0 87 0 22
42 991 1 0 84 0 20
44 991 2 0 80 0 20
46 964 1 0 95 0 18
48 984 1 0 76 0 19
50 982 0 0 81 0 16
52 899 0 81 63 47 0
54 870 1 120 54 40 0
56 843 0 132 48 55 0
58 814 0 160 49 55 0
60 792 0 173 42 64 0
62 768 0 202 50 61 0
64 752 0 206 44 65 0
66 736 0 241 35 61 0
68 709 0 257 42 72 0
70 695 0 275 34 77 0
72 689 0 288 22 68 0
74 666 0 317 36 59 0
76 660 0 338 26 52 0
78 641 0 359 29 49 0
80 616 0 377 33 58 0
82 597 0 382 35 64 0
84 579 0 394 35 51 0
86 558 0 377 38 70 0
88 552 0 398 21 66 0
90 535 0 425 20 59 0
92 518 0 440 25 63 0
94 504 0 451 25 69 0
96 494 0 473 21 58 0
98 476 0 470 24 75 0
100 469 0 493 20 80 0
102 455 0 487 19 104 0
104 436 0 512 24 93 0
106 430 0 537 22 68 0
108 415 0 558 23 63 0
110 416 0 567 14 78 0
112 402 0 575 20 74 0
114 391 0 589 20 83 0
116 390 0 588 13 79 0
118 373 0 595 17 84 0
120 359 0 607 23 85 0
122 351 0 641 19 60 0
124 343 0 642 20 77 0
126 339 0 640 15 80 0
128 326 0 638 18 85 0
130 324 0 618 14 90 0
132 312 0 645 12 80 0
134 298 0 653 18 90 0
136 292 0 668 16 77 0
138 283 0 651 18 86 0
140 280 0 671 14 85 0
142 275 0 674 12 98 0
144 263 0 705 10 91 0
146 247 0 706 14 86 0
148 238 0 716 16 85 0
150 227 0 692 17 104 0
152 226 0 739 10 73 0
154 222 0 726 9 94 0
156 211 0 732 11 95 0
158 208 0 744 10 84 0
160 206 0 752 5 78 0
162 191 0 736 15 81 0
164 189 0 755 12 78 0
166 181 0 747 16 97 0
168 188 0 773 4 67 0
170 175 0 771 16 76 0
172 177 0 757 10 95 0
174 167 0 773 11 81 0
176 164 0 782 7 84 0
178 163 0 808 4 83 0
180 152 0 804 10 95 0
182 149 0 827 6 75 0
184 147 0 817 4 82 0
186 143 0 822 5 80 0
188 138 0 829 8 85 0
190 137 0 813 5 99 0
192 130 0 828 7 88 0
194 127 1 817 5 105 0
196 120 0 837 7 83 1
198 119 0 840 5 83 0
200 110 0 837 8 98 0
