0 1072 0 0 0 0 0
2 1013 1 0 42 0 9
4.00004 1001 0 0 56 0 17
6 1008 0 0 50 0 15
8 1008 0 0 40 0 14
10 1013 2 0 42 0 13
12 1008 0 0 42 0 13
14 999 1 0 58 0 10
16 1001 1 0 52 0 11
18 987 1 0 78 0 8
20 991 3 0 54 0 24
22 1002 1 0 53 0 11
24 988 2 0 65 0 15
26 1019 1 0 50 0 7
28 1006 0 0 49 0 19
30 998 1 0 54 0 15
32 993 1 0 58 0 10
34 1019 1 0 41 0 13
36 988 2 0 58 0 17
38 998 0 0 58 0 14
40 997 2 0 50 0 8
42 1007 0 0 53 0 18
44 1007 0 0 65 0 11
46 1005 2 0 68 0 10
48 1011 2 0 55 0 15
50 1010 0 0 46 0 18
52 947 0 44 44 28 0
54 932 0 71 30 24 0
56 917 0 80 30 33 0
58 897 0 106 32 30 0
60 885 0 116 34 44 0
62 866 0 148 37 38 0
64 850 0 147 32 44 0
66 846 0 170 19 41 0
68 828 0 190 25 35 0
70 807 0 192 31 44 0
72 782 0 229 34 45 0
74 783 0 242 22 41 0
76 767 0 249 18 47 0
78 752 0 257 24 44 0
80 741 0 272 23 41 0
82 727 0 279 29 48 0
84 717 0 287 28 51 0
86 709 0 309 21 53 0
88 684 0 313 35 51 0
90 693 0 332 20 40 0
92 680 0 336 18 58 0
94 674 0 353 14 41 0
96 665 0 365 13 50 0
98 651 1 374 13 49 0
100 639 0 375 12 57 0
102 615 0 389 24 61 0
104 612 0 403 16 52 0
106 597 0 423 17 43 0
108 589 0 415 19 51 0
110 576 0 421 23 54 0
112 565 0 432 20 62 0
114 553 0 447 21 60 0
116 551 0 454 16 54 0
118 545 0 462 12 49 0
120 531 0 456 17 59 0
122 524 0 480 14 55 0
124 517 0 482 14 59 0
126 509 0 493 17 68 0
128 497 0 519 14 62 0
130 485 0 524 16 60 0
132 466 0 542 23 58 0
134 464 0 556 14 59 0
136 458 0 562 13 60 0
138 454 0 564 6 72 0
140 444 0 575 11 57 0
142 433 0 586 17 60 0
144 428 0 592 13 67 1
146 426 0 598 9 60 0
148 417 0 607 13 57 0
150 412 0 617 10 68 0
152 401 0 628 16 51 0
154 401 0 642 12 48 0
156 398 0 641 8 62 0
158 384 0 650 17 54 0
160 380 0 661 13 64 0
162 375 0 664 13 58 0
164 364 0 675 12 62 0
166 357 0 676 15 59 0
168 352 0 687 11 63 0
170 343 0 702 10 52 0
172 334 0 695 14 67 0
174 325 0 696 18 56 0
176 327 0 694 8 58 0
178 324 0 717 7 57 0
180 309 0 723 17 64 0
182 305 0 739 10 62 0
184 302 0 734 9 70 0
186 301 0 760 7 62 0
188 296 0 747 8 68 0
190 286 0 761 12 63 0
192 281 0 783 8 53 0
194 277 0 777 6 62 0
196 268 0 789 8 58 0
198 265 0 801 8 49 0
200 261 0 781 8 63 0
