0 1099 0 0 0 0 0
2 1006 0 0 71 0 16
4.00004 1010 1 0 78 0 10
6 998 1 0 87 0 15
8 1005 0 0 67 0 17
10 996 1 0 75 0 18
12 1007 2 0 69 0 7
14 988 0 0 84 0 8
16 1007 0 0 58 0 21
18 995 0 0 83 0 6
20 997 0 0 81 0 16
22 982 0 0 92 0 10
24 983 4 0 78 0 16
26 981 2 0 86 0 17
28 992 2 0 67 0 16
30 997 1 0 77 0 15
32 990 0 0 65 0 16
34 984 0 0 67 0 14
36 1002 0 0 63 0 18
38 998 0 0 72 0 14
40 992 1 0 73 0 10
42 976 1 0 86 0 15
44 988 0 0 83 0 14
46 994 1 0 73 0 14
48 972 2 0 88 0 16
50 1005 2 0 71 0 17
52 942 0 46 65 38 0
54 924 0 58 57 44 0
56 906 0 75 53 54 0
58 891 0 87 48 53 0
60 873 0 101 49 62 0
62 877 0 119 36 50 0
64 858 0 135 40 43 0
66 852 0 142 31 58 0
68 837 0 157 36 50 0
70 820 0 167 46 51 0
72 817 0 180 36 49 0
74 810 0 189 30 44 0
76 800 0 179 28 50 0
78 778 0 196 36 50 0
80 769 0 207 35 54 0
82 758 0 216 30 63 0
84 739 0 226 37 54 0
86 726 0 222 34 66 0
88 717 0 246 30 49 0
90 701 0 250 36 55 0
92 697 0 268 33 57 0
94 692 0 270 24 74 0
96 684 0 281 24 63 0
98 672 0 288 28 54 0
100 658 0 300 36 48 0
102 655 0 309 27 55 0
104 642 0 320 31 62 0
106 634 0 337 27 60 0
108 638 0 353 21 51 0
110 624 0 355 26 54 0
112 620 0 343 22 74 0
114 614 0 355 24 61 0
116 606 0 363 24 55 0
118 595 0 389 22 46 0
120 587 0 391 25 45 0
122 585 0 385 21 52 0
124 582 0 388 16 60 0
126 570 0 402 21 43 0
128 554 0 400 30 66 0
130 545 0 423 24 59 0
132 534 0 436 30 57 0
134 527 0 438 31 68 0
136 523 0 439 22 69 0
138 514 0 446 26 64 0
140 517 0 446 17 74 0
142 509 0 446 19 83 0
144 493 0 470 26 67 0
146 488 0 460 26 72 0
148 476 0 473 28 66 0
150 479 0 483 17 66 0
152 466 0 494 19 56 0
154 462 0 500 14 60 0
156 450 0 505 19 66 0
158 441 0 521 20 72 1
160 433 0 509 20 85 0
162 425 0 521 21 72 0
164 415 0 532 24 82 0
166 416 0 537 15 75 0
168 414 0 549 11 66 0
170 400 0 542 20 68 0
172 402 0 542 14 78 0
174 394 0 556 17 77 0
176 389 0 558 14 70 0
178 385 0 569 14 70 0
180 378 0 561 16 78 0
182 374 0 574 12 74 0
184 361 0 594 20 63 0
186 360 0 575 19 71 0
188 348 0 583 24 61 0
190 342 0 584 23 77 0
192 339 0 585 22 65 0
194 339 0 589 14 67 0
196 333 0 608 13 53 0
198 325 0 601 14 69 0
200 329 0 597 7 77 0
