0 869 0 0 0 0 0
2 874 0 0 0 0 0
4.00004 871 0 0 1 0 0
6 867 0 0 3 0 0
8 868 0 0 0 0 0
10 870 0 0 0 0 0
12 872 0 0 2 0 0
14 873 0 0 0 0 0
16 870 0 0 1 0 0
18 870 0 0 1 0 0
20 868 0 0 3 0 0
22 867 0 0 0 0 0
24 865 0 0 2 0 0
26 869 0 0 1 0 0
28 862 0 0 0 0 0
30 859 0 0 1 0 0
32 859 0 0 2 0 0
34 859 0 0 1 0 0
36 852 0 0 3 0 0
38 856 0 0 0 0 0
40 856 0 0 2 0 0
42 852 0 0 3 0 0
44 855 0 0 1 0 0
46 855 0 0 0 0 0
48 852 0 0 0 0 0
50 847 0 0 2 0 0
52 840 0 4 2 1 0
54 831 0 8 0 3 0
56 821 0 18 1 1 0
58 815 0 27 0 0 0
60 814 0 28 0 0 0
62 804 0 32 2 2 0
64 803 0 35 1 1 0
66 801 0 37 1 1 0
68 791 0 42 1 0 0
70 785 0 45 1 1 0
72 774 0 51 2 1 0
74 768 0 59 1 0 0
76 767 0 65 0 0 0
78 761 0 70 1 0 0
80 756 0 74 2 0 0
82 751 0 82 2 0 0
84 746 0 82 1 0 0
86 743 0 91 1 0 0
88 740 0 92 1 0 0
90 738 0 92 0 0 0
92 731 0 95 1 0 0
94 727 0 96 0 0 0
96 727 0 100 1 2 0
98 720 0 105 2 0 0
100 715 0 112 1 0 0
102 711 0 116 2 1 0
104 707 0 129 1 1 0
106 704 0 133 0 0 0
108 698 0 139 1 0 0
110 695 0 142 0 0 0
112 691 0 143 1 1 0
114 686 0 146 1 0 0
116 679 0 151 1 1 0
118 674 0 154 1 0 0
120 670 0 157 3 1 0
122 669 0 162 0 1 0
124 666 0 165 0 3 0
126 661 0 170 2 0 0
128 661 0 172 0 1 0
130 655 0 176 1 1 0
132 649 0 176 0 0 0
134 645 0 177 1 0 0
136 642 0 181 0 1 0
138 640 0 185 0 4 0
140 632 0 191 2 2 0
142 631 0 198 0 0 0
144 627 0 200 1 1 0
146 627 0 203 0 1 0
148 625 0 209 0 2 0
150 622 0 209 0 1 0
152 620 0 212 0 3 0
154 618 0 219 0 0 0
156 613 0 226 1 0 0
158 610 0 229 1 0 0
160 605 0 230 1 0 0
162 603 0 233 0 1 0
164 600 0 238 1 0 0
166 598 0 239 0 0 0
168 597 0 240 0 1 0
170 592 0 242 1 0 0
172 590 0 243 1 1 0
174 590 0 250 0 2 0
176 587 0 255 0 0 0
178 581 0 253 1 1 0
180 578 0 256 2 0 0
182 576 0 255 0 1 0
184 573 0 264 0 0 0
186 571 0 264 0 1 0
188 563 0 271 3 1 0
190 564 0 271 0 1 0
192 562 0 276 1 0 0
194 559 0 277 1 2 0
196 555 0 284 0 0 0
198 552 0 291 0 0 0
200 551 0 294 0 2 0
