0 967 0 0 0 0 0
2 942 28 0 0 0 0
4.00004 933 38 0 0 0 0
6 930 37 0 1 0 0
8 929 37 0 4 0 0
10 927 39 0 2 0 0
12 937 37 0 1 0 0
14 942 32 0 1 0 0
16 943 25 0 1 0 0
18 941 22 0 2 0 0
20 941 24 0 2 0 0
22 924 44 0 2 0 0
24 934 39 0 0 0 0
26 929 43 0 1 0 0
28 940 32 0 0 0 0
30 938 40 0 1 0 0
32 940 34 0 1 0 0
34 926 41 0 2 0 0
36 930 30 0 4 0 0
38 938 25 0 2 0 0
40 929 33 0 0 0 0
42 928 34 0 1 0 0
44 925 38 0 1 0 0
46 915 43 0 3 0 0
48 924 33 0 2 0 0
50 928 27 0 2 0 0
52 796 1 160 1 2 0
54 699 0 257 0 1 0
56 636 0 325 0 2 0
58 580 0 387 1 0 0
60 510 0 463 0 0 0
62 460 0 506 0 3 0
64 416 0 549 0 4 0
66 373 0 596 0 0 0
68 338 0 627 0 2 0
70 299 0 671 0 0 0
72 266 0 703 0 0 0
74 229 0 736 0 1 0
76 200 0 763 1 0 0
78 187 1 765 0 2 0
80 174 0 778 0 2 0
82 161 0 784 0 2 0
84 146 0 801 2 0 0
86 127 0 814 0 2 0
88 108 0 831 0 2 0
90 100 1 837 0 0 0
92 85 0 851 1 0 0
94 79 0 857 0 5 0
96 70 0 865 0 1 0
98 59 0 876 0 1 0
100 53 0 883 0 1 0
102 49 0 884 0 1 0
104 40 0 895 0 1 0
106 37 0 897 1 2 0
108 33 0 907 0 2 0
110 32 0 903 0 1 0
112 31 0 906 0 2 0
114 28 0 912 0 0 0
116 26 0 916 0 0 0
118 25 0 919 0 0 0
120 22 0 930 0 0 0
122 19 0 924 0 2 0
124 18 0 923 0 1 0
126 17 0 924 0 0 0
128 17 0 915 0 2 0
130 17 0 917 0 0 0
132 14 0 925 0 2 0
134 14 0 927 0 1 0
136 14 0 920 0 2 0
138 13 0 922 0 0 0
140 11 0 920 0 0 0
142 9 0 922 0 3 0
144 8 0 923 0 1 0
146 7 0 915 0 3 0
148 7 0 911 0 3 0
150 7 0 912 0 1 0
152 6 0 910 0 2 0
154 3 0 916 0 0 0
156 5 0 915 0 0 0
158 2 0 912 0 1 0
160 1 0 914 1 3 0
162 1 0 914 1 0 0
164 1 0 910 0 3 0
166 1 0 912 0 1 0
168 1 0 911 1 2 0
170 1 1 911 0 1 0
172 1 0 914 0 0 0
174 0 0 912 0 3 0
176 0 0 906 0 3 0
178 0 0 903 0 3 0
180 0 0 905 0 1 0
182 0 0 908 0 2 0
184 0 0 911 0 1 0
186 0 0 910 0 0 0
188 0 0 911 0 1 0
190 0 0 918 0 1 0
192 0 0 916 0 3 0
194 0 0 919 0 2 0
196 0 0 921 1 0 0
198 0 0 924 0 1 0
200 0 0 924 0 1 0
