0 891 0 0 0 0 0
2 891 0 0 1 0 0
4.00004 889 0 0 3 0 0
6 890 0 0 1 0 0
8 885 0 0 5 0 0
10 884 0 0 2 0 0
12 877 0 0 5 0 0
14 884 0 0 1 0 0
16 881 0 0 2 0 0
18 886 0 0 1 0 0
20 883 0 0 1 0 0
22 888 0 0 1 0 0
24 888 0 0 3 0 0
26 889 0 0 3 0 0
28 886 0 0 2 0 0
30 888 0 0 5 0 0
32 893 0 0 1 0 0
34 893 0 0 0 0 0
36 885 0 0 4 0 0
38 882 0 0 5 0 0
40 880 0 0 3 0 0
42 887 0 0 3 0 0
44 887 0 0 4 0 0
46 884 0 0 2 0 0
48 889 0 0 3 0 0
50 885 0 0 4 0 0
52 880 0 1 1 0 0
54 869 0 9 3 1 0
56 863 0 15 1 0 0
58 858 0 18 0 0 0
60 849 0 27 4 0 0
62 843 0 30 1 1 0
64 840 0 34 1 1 0
66 832 0 41 4 0 0
68 828 0 45 2 0 0
70 823 0 48 1 1 0
72 817 0 55 2 0 0
74 806 0 58 2 0 0
76 804 0 66 0 0 0
78 792 0 69 1 2 0
80 786 0 81 2 1 0
82 776 0 87 4 1 0
84 771 0 93 2 0 0
86 764 0 97 0 1 0
88 758 0 102 0 2 0
90 752 0 105 1 0 0
92 746 0 109 2 2 0
94 743 0 110 1 1 0
96 735 0 117 1 3 0
98 728 0 123 1 1 0
100 719 0 125 2 1 0
102 717 0 132 1 0 0
104 709 0 140 0 4 0
106 703 0 146 2 2 0
108 694 0 150 1 0 0
110 687 0 152 2 2 0
112 684 0 158 0 1 0
114 674 0 167 1 0 0
116 659 0 175 4 0 0
118 656 0 182 0 1 0
120 651 0 192 1 2 0
122 648 0 198 1 1 0
124 644 0 206 2 0 0
126 643 0 207 1 2 0
128 637 0 211 1 0 0
130 631 0 211 3 0 0
132 631 0 215 1 2 0
134 628 0 223 1 2 0
136 623 0 229 2 0 0
138 623 0 234 1 0 0
140 620 0 236 0 3 0
142 614 0 241 1 0 0
144 608 0 242 2 2 0
146 602 0 254 2 1 0
148 598 0 262 0 0 0
150 595 0 264 0 4 0
152 588 0 274 2 4 0
154 584 0 281 1 0 0
156 579 0 287 3 0 0
158 576 0 291 1 0 0
160 575 0 291 2 1 0
162 573 0 298 2 2 0
164 566 0 299 2 1 0
166 562 0 302 1 0 0
168 561 0 310 0 0 0
170 557 0 315 1 0 0
172 549 0 314 2 3 0
174 545 0 326 1 0 0
176 540 0 332 1 2 0
178 539 0 340 0 1 0
180 536 0 345 0 2 0
182 533 0 348 0 0 0
184 530 0 352 0 1 0
186 523 0 357 0 0 0
188 519 0 361 1 1 0
190 517 0 360 0 1 0
192 509 0 364 0 1 0
194 500 0 371 1 1 0
196 496 0 376 0 1 0
198 496 0 377 0 0 0
200 491 0 378 0 2 0
