0 1168 0 0 0 0 0
2 1136 32 0 1 0 0
4.00004 1137 35 0 1 0 0
6 1143 29 0 1 0 0
8 1138 33 0 0 0 0
10 1138 34 0 1 0 0
12 1135 32 0 0 0 0
14 1136 29 0 3 0 0
16 1123 38 0 2 0 0
18 1125 28 0 2 0 0
20 1111 42 0 3 0 0
22 1124 29 0 1 0 0
24 1123 28 0 1 0 0
26 1108 37 0 0 0 0
28 1100 38 0 1 0 0
30 1093 42 0 0 0 0
32 1095 41 0 3 0 0
34 1089 43 0 2 0 0
36 1095 34 0 1 0 0
38 1092 32 0 3 0 0
40 1089 33 0 3 0 0
42 1100 31 0 1 0 0
44 1099 34 0 0 0 0
46 1096 39 0 1 0 0
48 1091 39 0 2 0 0
50 1109 26 0 1 0 0
52 970 0 162 0 1 0
54 873 0 261 3 3 0
56 795 0 342 2 0 0
58 719 0 420 0 2 0
60 668 0 469 0 1 0
62 612 0 522 0 0 0
64 572 0 562 1 2 0
66 531 0 602 1 1 0
68 486 0 640 1 2 0
70 444 0 677 0 0 0
72 403 0 712 0 1 0
74 371 0 749 1 1 0
76 343 0 768 0 2 0
78 312 0 795 0 3 0
80 286 0 821 0 2 0
82 265 0 846 0 0 0
84 243 0 866 0 1 0
86 217 0 889 0 3 0
88 190 0 913 0 1 0
90 172 0 938 0 1 0
92 152 1 956 0 3 0
94 135 0 975 1 1 0
96 121 0 989 0 0 0
98 116 0 989 0 3 0
100 105 0 998 0 0 0
102 93 0 1009 1 2 0
104 83 0 1021 0 0 0
106 75 0 1024 1 0 0
108 71 0 1023 0 1 0
110 67 0 1030 0 1 0
112 60 0 1025 0 4 0
114 58 0 1026 0 3 0
116 55 0 1025 1 2 0
118 49 0 1036 0 0 0
120 46 0 1036 0 1 0
122 43 0 1035 1 1 0
124 39 0 1041 1 0 0
126 38 0 1041 0 1 0
128 35 0 1042 0 2 0
130 29 0 1047 0 1 0
132 24 0 1054 1 4 0
134 24 0 1056 0 2 0
136 23 0 1060 0 2 0
138 23 0 1055 1 2 0
140 23 0 1049 0 2 0
142 20 0 1052 0 1 0
144 18 0 1050 1 1 0
146 16 0 1051 0 2 0
148 15 0 1055 0 3 0
150 14 0 1058 0 1 0
152 14 0 1059 0 5 0
154 13 0 1062 1 1 0
156 13 0 1062 0 0 0
158 13 0 1053 1 3 0
160 13 0 1053 0 0 0
162 12 0 1053 1 1 0
164 11 0 1051 0 0 0
166 9 0 1049 0 1 0
168 7 0 1051 0 1 0
170 7 0 1054 0 0 0
172 7 0 1051 1 1 0
174 6 0 1054 0 2 0
176 4 0 1059 0 1 0
178 2 0 1063 1 0 0
180 1 0 1062 0 2 0
182 2 1 1063 0 0 0
184 1 0 1053 0 2 0
186 1 0 1043 0 3 0
188 0 0 1044 0 4 0
190 0 0 1050 0 0 0
192 0 0 1049 0 0 0
194 1 0 1045 2 3 0
196 0 0 1052 0 1 0
198 0 0 1050 0 4 0
200 0 0 1049 0 0 0
