0 1036 0 0 0 0 0
2 991 40 0 0 0 0
4.00004 995 33 0 1 0 0
6 985 44 0 3 0 0
8 987 44 0 1 0 0
10 973 52 0 1 0 0
12 982 46 0 2 0 0
14 980 43 0 4 0 0
16 987 40 0 4 0 0
18 980 46 0 3 0 0
20 992 36 0 3 0 0
22 994 36 0 1 0 0
24 982 49 0 3 0 0
26 996 34 0 0 0 0
28 995 39 0 2 0 0
30 980 54 0 1 0 0
32 995 41 0 2 0 0
34 997 37 0 1 0 0
36 987 49 0 0 0 0
38 984 51 0 0 0 0
40 993 41 0 0 0 0
42 992 42 0 2 0 0
44 990 42 0 0 0 0
46 981 47 0 5 0 0
48 993 38 0 2 0 0
50 985 53 0 2 0 0
52 766 2 272 0 2 0
54 672 0 364 4 3 0
56 588 0 448 0 2 0
58 511 0 529 0 4 0
60 456 0 587 1 0 0
62 402 0 639 0 0 0
64 356 0 685 0 0 0
66 311 1 729 1 3 0
68 262 1 776 1 1 0
70 234 0 802 1 1 0
72 216 0 823 0 2 0
74 193 1 840 0 1 0
76 162 1 869 0 0 0
78 145 0 888 0 0 0
80 128 0 903 0 0 0
82 111 0 919 2 0 0
84 99 0 929 1 3 0
86 85 0 932 0 1 0
88 77 0 943 0 2 0
90 69 0 948 0 2 0
92 60 0 953 0 0 0
94 51 0 955 0 4 0
96 50 0 959 1 0 0
98 43 0 965 2 1 0
100 39 0 968 1 0 0
102 32 0 978 0 1 0
104 32 0 976 0 2 0
106 25 0 980 0 2 0
108 24 1 982 0 2 0
110 23 0 982 1 1 0
112 17 0 985 0 2 0
114 14 0 984 1 3 0
116 13 0 993 0 1 0
118 13 0 991 1 1 0
120 10 0 984 0 0 0
122 9 0 985 1 1 0
124 7 0 985 1 3 0
126 5 0 994 2 1 0
128 2 0 1002 0 0 0
130 2 0 1004 0 1 0
132 3 0 1002 0 2 0
134 1 0 999 0 4 0
136 1 0 999 1 1 0
138 1 0 999 1 1 0
140 2 0 998 1 1 0
142 1 0 997 0 1 0
144 2 0 1000 0 3 0
146 1 0 1007 0 2 0
148 1 0 1007 0 0 0
150 2 0 1003 0 2 0
152 1 1 1004 0 0 0
154 1 0 1002 0 3 0
156 1 0 1003 1 3 0
158 1 0 997 1 1 0
160 2 0 994 0 3 0
162 3 0 995 0 4 0
164 3 0 998 1 0 0
166 2 0 997 0 2 0
168 1 0 995 0 0 0
170 1 0 990 1 1 0
172 3 0 994 0 1 0
174 1 0 992 0 3 0
176 2 0 988 0 5 0
178 1 0 981 0 6 0
180 1 0 980 0 0 0
182 1 0 980 0 2 0
184 2 0 986 0 1 0
186 1 0 987 0 3 0
188 1 0 995 0 2 0
190 3 0 994 0 0 0
192 1 0 989 0 2 0
194 0 0 993 0 0 0
196 0 0 988 0 1 0
198 0 0 986 1 0 0
200 2 0 995 0 1 0
