0 756 0 0 0 0 0
2 742 0 0 4 0 0
4.00004 737 0 0 3 0 0
6 737 0 0 2 0 0
8 735 0 0 3 0 0
10 735 0 0 3 0 0
12 736 0 0 2 0 0
14 740 0 0 1 0 0
16 740 0 0 3 0 0
18 742 0 0 1 0 0
20 740 0 0 4 0 0
22 742 0 0 2 0 0
24 745 0 0 2 0 0
26 740 0 0 2 0 0
28 744 0 0 1 0 0
30 746 0 0 2 0 0
32 742 0 0 1 0 0
34 747 0 0 0 0 0
36 743 0 0 3 0 0
38 746 0 0 0 0 0
40 741 0 0 2 0 0
42 742 0 0 2 0 0
44 743 0 0 3 0 0
46 744 0 0 3 0 0
48 741 0 0 3 0 0
50 734 0 0 2 0 0
52 729 0 11 1 2 0
54 726 0 19 0 0 0
56 721 0 32 1 0 0
58 716 0 35 0 1 0
60 708 0 37 0 0 0
62 702 0 41 2 1 0
64 698 0 50 0 0 0
66 689 0 57 1 0 0
68 686 0 70 0 1 0
70 677 0 79 3 0 0
72 673 0 84 1 0 0
74 669 0 92 1 1 0
76 663 0 101 1 0 0
78 661 0 104 0 0 0
80 653 0 109 2 0 0
82 643 0 112 1 0 0
84 639 0 118 1 0 0
86 630 0 125 1 1 0
88 627 0 127 2 1 0
90 623 0 129 2 0 0
92 617 0 138 1 2 0
94 610 0 147 2 1 0
96 604 0 149 0 1 0
98 600 0 153 1 1 0
100 594 0 164 0 0 0
102 588 0 166 1 2 0
104 575 0 171 2 1 0
106 571 0 179 1 2 0
108 562 0 185 3 0 0
110 560 0 190 1 3 0
112 556 0 198 1 0 0
114 549 0 204 0 0 0
116 541 0 205 0 3 0
118 539 0 215 1 0 0
120 532 0 219 0 2 0
122 525 0 228 2 1 0
124 518 0 232 0 1 0
126 514 0 239 1 2 0
128 513 0 245 1 0 0
130 508 0 257 3 3 0
132 504 0 265 0 2 0
134 499 0 276 0 0 0
136 493 0 281 1 1 0
138 488 0 283 0 3 0
140 482 0 282 0 3 0
142 474 0 286 2 2 0
144 470 0 304 1 0 0
146 467 0 306 2 0 0
148 459 0 312 0 2 0
150 453 0 319 2 1 0
152 447 0 324 0 1 0
154 441 0 330 2 2 0
156 437 0 333 3 1 0
158 436 0 339 0 0 0
160 434 0 339 1 2 0
162 431 0 342 1 0 0
164 429 0 342 1 1 0
166 423 0 345 1 0 0
168 418 0 349 1 0 0
170 408 0 359 1 2 0
172 408 0 365 0 0 0
174 404 0 368 0 0 0
176 399 0 372 1 2 0
178 398 0 377 1 3 0
180 396 0 383 0 0 0
182 390 0 382 3 3 0
184 390 0 383 0 3 0
186 382 0 396 3 2 0
188 380 0 403 0 0 0
190 378 0 409 1 2 0
192 375 0 410 0 0 0
194 371 0 413 2 2 0
196 372 0 418 0 2 0
198 365 0 425 2 2 0
200 356 0 436 2 1 0
