0 732 0 0 0 0 0
2 730 0 0 1 0 0
4.00004 726 0 0 1 0 0
6 726 0 0 1 0 0
8 728 0 0 1 0 0
10 727 0 0 0 0 0
12 730 0 0 3 0 0
14 731 0 0 1 0 0
16 736 0 0 1 0 0
18 745 0 0 0 0 0
20 743 0 0 1 0 0
22 745 0 0 1 0 0
24 748 0 0 0 0 0
26 754 0 0 1 0 0
28 761 0 0 0 0 0
30 764 0 0 1 0 0
32 758 0 0 3 0 0
34 766 0 0 0 0 0
36 770 0 0 0 0 0
38 773 0 0 0 0 0
40 775 0 0 0 0 0
42 766 0 0 2 0 0
44 764 0 0 3 0 0
46 763 0 0 1 0 0
48 767 0 0 1 0 0
50 764 0 0 0 0 0
52 759 0 5 2 1 0
54 753 0 6 1 0 0
56 747 0 10 1 3 0
58 744 0 15 0 0 0
60 740 0 21 1 0 0
62 736 0 28 0 2 0
64 730 0 33 0 0 0
66 724 0 41 0 0 0
68 721 0 48 1 1 0
70 719 0 57 2 1 0
72 718 0 65 1 0 0
74 712 0 66 0 0 0
76 710 0 77 0 0 0
78 706 0 81 1 2 0
80 700 0 89 2 0 0
82 696 0 92 1 0 0
84 692 0 97 1 0 0
86 689 0 101 1 0 0
88 688 0 104 2 2 0
90 681 0 108 0 0 0
92 672 0 113 2 1 0
94 664 0 124 0 0 0
96 661 0 128 1 0 0
98 657 0 134 1 0 0
100 655 0 139 1 2 0
102 652 0 143 0 0 0
104 646 0 148 1 1 0
106 644 0 155 0 1 0
108 642 0 160 2 1 0
110 638 0 163 1 0 0
112 636 0 173 0 2 0
114 632 0 179 0 2 0
116 625 0 188 2 2 0
118 623 0 191 0 1 0
120 620 0 196 1 0 0
122 617 0 200 3 0 0
124 616 0 203 0 0 0
126 615 0 205 0 0 0
128 611 0 209 1 0 0
130 607 0 214 2 0 0
132 604 0 211 1 1 0
134 604 0 213 0 1 0
136 597 0 215 2 1 0
138 597 0 221 0 1 0
140 591 0 233 1 1 0
142 592 0 235 0 0 0
144 589 0 240 0 1 0
146 587 0 242 0 2 0
148 582 0 244 0 1 0
150 576 0 249 1 1 0
152 569 0 252 1 0 0
154 563 0 259 0 1 0
156 558 0 266 0 1 0
158 556 0 274 0 0 0
160 552 0 279 2 1 0
162 548 0 284 0 1 0
164 547 0 290 1 0 0
166 546 0 293 1 1 0
168 544 0 295 2 0 0
170 541 0 298 0 0 0
172 536 0 303 0 1 0
174 534 0 302 0 2 0
176 529 0 304 1 2 0
178 525 0 307 0 2 0
180 523 0 311 0 1 0
182 518 0 314 0 2 0
184 515 0 328 1 0 0
186 514 0 336 1 2 0
188 511 0 340 1 0 0
190 508 0 340 2 0 0
192 505 0 344 0 2 0
194 496 0 350 3 0 0
196 491 0 356 0 0 0
198 488 0 355 0 3 0
200 488 0 362 0 1 0
