0 4028 0 972 0
2.0001 3279 787 852 82
4 2695 1406 698 201
6.0001 2219 1825 604 352
8.0001 1832 2188 505 475
10.0001 1495 2520 426 559
12.0001 1240 2786 354 620
14.0001 1026 3010 278 686
16.0001 868 3191 214 727
18.0001 687 3366 193 754
20.0001 592 3484 142 782
22.0001 473 3608 135 784
24.0001 389 3639 114 858
26.0001 323 3720 92 865
28.0001 270 3745 69 916
30.0001 225 3820 66 889
32.0001 192 3860 53 895
34 182 3878 29 911
36 134 3893 35 938
38 108 3942 29 921
40 91 3912 19 978
42 73 4011 17 899
44 62 3994 12 932
46 49 3967 14 970
48 39 3996 12 953
50 33 3966 9 992
52 30 4007 6 957
54 20 4018 6 956
56 21 4000 1 978
58 14 4017 2 967
60 11 4068 2 919
62 8 4001 1 990
64 7 4050 0 943
66 5 4027 1 967
68 3 4089 3 905
70 5 4055 1 939
72 5 4030 0 965
74 5 4034 0 961
76 2 4083 2 913
78 4 4047 0 949
80 3 4023 0 974
82 1 4075 2 922
84 2 4092 1 905
86 2 4054 0 943
88 2 4039 0 959
90 2 3994 0 1004
92 1 4011 0 988
94 1 4025 0 974
96 1 4040 0 959
98 1 4045 0 954
100 1 4050 0 949
