0 4054 0 946 0
2.0001 3232 852 834 82
4 2665 1392 733 210
6.0001 2229 1815 594 362
8.0001 1830 2215 507 448
10.0001 1510 2522 400 567
12.0001 1236 2825 338 601
14.0001 1000 3052 283 665
16.0001 815 3196 239 750
18.0001 673 3400 184 743
20.0001 564 3475 152 808
22.0001 475 3551 123 851
24.0001 400 3669 105 826
26.0001 325 3709 95 871
28.0001 282 3777 67 874
30.0001 242 3825 55 878
32.0001 199 3846 48 907
34 162 3899 42 896
36 139 3953 35 873
38 112 3932 32 924
40 103 3950 22 925
42 89 3992 22 897
44 65 3941 30 964
46 57 4024 18 901
48 56 4007 12 925
50 45 4015 15 925
52 32 3996 18 954
54 32 4061 11 896
56 31 4011 7 951
58 23 3982 11 984
60 21 3987 7 985
62 18 3975 6 1000
64 19 4034 3 944
66 14 4045 2 939
68 12 4004 0 984
70 7 4040 2 951
72 6 4018 1 975
74 4 4063 3 930
76 3 4060 0 937
78 3 4065 0 932
80 1 4060 1 938
82 1 4037 1 961
84 1 4020 1 978
86 0 4064 1 935
88 1 4069 0 930
90 1 4042 0 957
92 1 4007 0 992
94 0 4001 1 998
96 0 4045 1 954
98 1 4061 0 938
100 1 4035 0 964
