0 4019 0 981 0
2.0001 3288 797 833 82
4 2669 1382 745 203
6.0001 2189 1838 622 351
8.0001 1809 2252 500 439
10.0001 1535 2550 361 554
12.0001 1238 2832 316 614
14.0001 1013 3069 252 666
16.0001 771 3218 237 774
18.0001 674 3356 178 792
20.0001 540 3517 142 801
22.0001 442 3558 120 880
24.0001 346 3650 113 891
26.0001 305 3786 72 837
28.0001 236 3803 79 882
30.0001 221 3774 47 958
32.0001 182 3894 36 888
34 142 3899 29 930
36 110 3993 31 866
38 89 3955 29 927
40 72 3993 25 910
42 63 4020 17 900
44 45 4037 21 897
46 48 4005 12 935
48 41 4006 12 941
50 34 4007 13 945
52 33 4049 4 914
54 21 3983 4 992
56 14 4097 6 883
58 11 4061 4 924
60 8 4056 3 933
62 5 4041 3 951
64 6 4069 2 923
66 5 4037 1 957
68 5 4049 0 946
70 4 4010 1 985
72 4 4016 0 980
74 3 4015 0 982
76 2 4023 0 974
78 1 4051 0 948
80 1 4020 0 979
82 0 4047 0 953
84 0 4020 0 980
86 0 3992 0 1008
88 0 4047 0 953
90 0 4053 0 947
92 0 4044 0 956
94 0 4064 0 936
96 0 4043 0 956
98 0 3997 0 1003
100 0 4060 0 940
