0 4024 0 976 0
2.0001 3269 801 832 98
4 2639 1339 762 260
6.0001 2193 1835 584 388
8.0001 1781 2216 516 487
10.0001 1473 2626 406 495
12.0001 1208 2841 339 612
14.0001 991 3000 268 741
16.0001 819 3216 220 745
18.0001 668 3370 177 785
20.0001 554 3471 146 829
22.0001 446 3574 142 838
24.0001 383 3681 107 829
26.0001 317 3741 89 853
28.0001 269 3757 62 912
30.0001 228 3790 53 929
32.0001 183 3902 49 865
34 145 3904 45 905
36 123 3886 25 966
38 95 3924 25 956
40 84 3964 13 938
42 59 3940 20 981
44 58 3975 9 958
46 46 3966 12 976
48 35 3986 9 970
50 23 4024 14 939
52 28 3994 4 974
54 15 4012 8 965
56 11 4084 5 900
58 12 4095 2 891
60 7 4066 3 924
62 8 3982 1 1009
64 4 4001 3 992
66 5 4081 2 912
68 5 4029 1 965
70 4 4036 1 959
72 2 4047 0 951
74 2 4109 0 889
76 0 4024 1 975
78 1 4076 0 923
80 0 4029 1 970
82 0 4059 1 940
84 1 3987 0 1012
86 1 4060 0 939
88 1 4061 0 938
90 0 4035 0 965
92 0 4050 0 950
94 0 4057 0 943
96 0 4036 0 964
98 0 4008 0 992
100 0 4033 0 967
