0 4095 0 905 0
2.0001 3246 768 877 108
4 2611 1362 780 247
6.0001 2244 1812 595 349
8.0001 1842 2199 496 463
10.0001 1507 2523 408 562
12.0001 1267 2785 343 605
14.0001 1065 2973 257 705
16.0001 869 3147 212 772
18.0001 742 3319 182 757
20.0001 606 3442 153 799
22.0001 501 3525 127 847
24.0001 414 3601 111 874
26.0001 332 3758 89 820
28.0001 273 3786 70 871
30.0001 215 3832 68 885
32.0001 187 3851 50 912
34 160 3858 36 946
36 120 3936 41 903
38 106 3907 31 956
40 81 3970 31 918
42 67 4007 25 901
44 49 4026 21 904
46 44 3999 15 942
48 43 4005 9 943
50 31 3966 14 989
52 20 4000 15 965
54 26 4024 6 944
56 23 4019 4 954
58 15 3999 10 976
60 12 4059 6 923
62 14 4025 1 960
64 11 3998 2 988
66 10 4060 0 930
68 6 4017 4 973
70 8 4027 1 964
72 6 4026 1 967
74 6 4025 1 968
76 5 4044 0 951
78 5 3994 0 1001
80 3 4027 2 968
82 3 4031 1 965
84 3 4074 0 923
86 3 4081 0 916
88 3 4025 0 971
90 2 4020 1 977
92 2 4046 1 951
94 1 4005 1 992
96 2 4062 0 936
98 2 4062 0 936
100 0 4020 0 980
