0 4033 0 967 0
2.0001 3291 764 868 77
4 2706 1358 726 210
6.0001 2301 1736 602 360
8.0001 1906 2130 516 448
10.0001 1603 2487 407 503
12.0001 1297 2760 325 618
14.0001 1052 2979 273 696
16.0001 827 3164 248 761
18.0001 713 3344 180 763
20.0001 575 3477 154 794
22.0001 475 3569 120 836
24.0001 364 3677 106 853
26.0001 304 3737 80 879
28.0001 236 3840 72 852
30.0001 198 3831 61 910
32.0001 163 3863 51 923
34 145 3866 29 960
36 109 3863 37 991
38 97 3936 28 939
40 88 3981 16 915
42 73 3916 14 997
44 55 3963 16 966
46 49 3968 9 974
48 43 3994 8 955
50 27 4033 13 927
52 29 4064 4 903
54 20 4015 6 959
56 21 4039 2 938
58 14 3998 8 980
60 15 4042 4 939
62 11 4008 4 977
64 11 4061 1 927
66 7 3988 2 1003
68 5 4025 2 968
70 6 4050 1 943
72 3 4003 2 992
74 4 4043 0 953
76 3 4060 0 937
78 2 4015 1 982
80 2 4028 1 969
82 3 4048 0 949
84 2 4081 0 917
86 0 4080 0 920
88 0 4053 0 947
90 0 4077 0 923
92 0 4071 0 929
94 0 4071 0 929
96 0 4009 0 991
98 0 4035 0 965
100 0 4055 0 945
