0 4019 0 981 0
2.0001 3240 815 855 90
4 2633 1426 705 236
6.0001 2129 1860 607 404
8.0001 1768 2257 504 471
10.0001 1477 2599 392 532
12.0001 1197 2878 322 603
14.0001 986 3059 251 704
16.0001 786 3260 236 718
18.0001 678 3394 162 766
20.0001 536 3510 139 815
22.0001 426 3609 130 835
24.0001 350 3652 108 890
26.0001 291 3755 90 864
28.0001 242 3801 76 881
30.0001 206 3837 59 898
32.0001 173 3889 50 888
34 147 3892 40 921
36 130 3926 26 918
38 99 3929 22 950
40 79 3974 19 927
42 52 4013 23 911
44 43 4009 15 933
46 31 4062 11 896
48 27 3978 8 987
50 25 4051 6 917
52 20 3978 5 997
54 17 4029 4 950
56 11 4025 6 958
58 13 3946 3 1038
60 8 3986 5 1001
62 6 4038 4 952
64 4 4027 2 966
66 4 4051 2 942
68 3 4046 2 949
70 4 4074 1 921
72 5 4029 0 965
74 5 4043 0 952
76 5 4058 0 937
78 3 3983 0 1014
80 3 4056 0 941
82 3 4064 0 933
84 3 4030 0 967
86 2 4024 1 973
88 2 3953 1 1044
90 0 4038 1 961
92 0 4039 0 961
94 0 3999 0 1000
96 0 4032 0 968
98 0 4005 0 995
100 0 4066 0 934
