0 4055 0 945 0
2.0001 3272 795 849 84
4 2657 1422 724 197
6.0001 2112 1872 637 379
8.0001 1760 2242 506 492
10.0001 1475 2540 405 580
12.0001 1181 2809 339 671
14.0001 958 2962 319 761
16.0001 812 3194 247 747
18.0001 709 3295 184 812
20.0001 577 3472 170 781
22.0001 476 3574 136 814
24.0001 402 3631 106 861
26.0001 339 3715 84 862
28.0001 280 3769 77 874
30.0001 228 3889 60 823
32.0001 187 3858 47 908
34 153 3873 42 932
36 128 3910 31 931
38 107 3971 33 889
40 86 3985 28 901
42 76 3956 12 956
44 52 4002 15 931
46 38 3983 13 966
48 34 4003 9 954
50 28 4049 5 918
52 21 4030 4 945
54 19 4010 4 967
56 12 4062 4 922
58 8 4053 5 934
60 5 4057 3 935
62 6 4023 2 969
64 5 4078 2 915
66 2 4099 5 894
68 6 4081 1 912
70 3 4077 1 919
72 4 4019 0 977
74 3 4089 0 908
76 3 4030 0 967
78 1 4022 2 975
80 3 4021 0 976
82 3 4075 0 922
84 1 4042 0 957
86 1 4012 0 987
88 1 4019 0 980
90 0 4001 1 998
92 0 4101 1 898
94 1 4029 0 969
96 0 4051 0 949
98 0 4044 0 956
100 0 4030 0 970
