0 4042 0 958 0
2.0001 3255 772 882 91
4 2695 1372 717 216
6.0001 2233 1807 600 360
8.0001 1851 2224 468 457
10.0001 1515 2522 400 563
12.0001 1227 2779 352 642
14.0001 1024 3002 283 690
16.0001 843 3205 224 728
18.0001 678 3344 194 784
20.0001 568 3443 151 838
22.0001 486 3540 122 852
24.0001 389 3651 107 853
26.0001 337 3744 88 831
28.0001 273 3809 76 842
30.0001 236 3841 50 873
32.0001 188 3855 47 910
34 151 3946 43 860
36 130 3992 24 854
38 95 3963 28 914
40 81 3941 23 955
42 72 3962 12 954
44 61 3984 12 943
46 49 3960 8 983
48 30 3983 13 974
50 27 4001 8 964
52 21 4024 6 949
54 19 4021 6 954
56 13 4042 6 939
58 11 3999 4 986
60 11 4048 3 938
62 6 4043 5 946
64 6 4041 3 950
66 6 4062 1 931
68 2 4082 2 914
70 2 4057 0 941
72 0 4071 0 929
74 0 4063 0 937
76 0 4024 0 976
78 0 4050 0 950
80 0 4050 0 950
82 0 4010 0 990
84 0 4034 0 966
86 0 4008 0 992
88 0 4017 0 983
90 0 4097 0 903
92 0 4067 0 933
94 0 4032 0 968
96 0 4002 0 997
98 0 4050 0 950
100 0 4050 0 950
