0 4046 0 954 0
2.0001 3229 820 871 80
4 2646 1382 719 253
6.0001 2145 1845 631 379
8.0001 1781 2282 505 432
10.0001 1472 2589 405 534
12.0001 1225 2834 333 607
14.0001 1061 3039 263 637
16.0001 860 3190 214 736
18.0001 696 3389 181 734
20.0001 559 3467 183 791
22.0001 477 3593 147 783
24.0001 407 3667 106 820
26.0001 336 3720 91 853
28.0001 267 3783 76 874
30.0001 230 3799 59 912
32.0001 189 3846 49 916
34 157 3893 42 908
36 140 3968 37 855
38 106 3956 34 904
40 98 3951 20 931
42 81 3993 17 908
44 60 3953 19 968
46 51 3988 11 950
48 37 4019 16 928
50 34 4035 10 921
52 28 3980 12 980
54 27 3969 8 996
56 20 4007 5 968
58 17 3999 4 980
60 17 4027 2 954
62 8 4038 7 947
64 9 4043 3 945
66 7 4072 0 921
68 5 4099 1 895
70 4 4044 2 950
72 4 4081 2 913
74 4 4005 2 988
76 3 4026 2 969
78 3 4062 0 935
80 3 4068 0 929
82 2 3972 1 1025
84 2 4091 0 907
86 0 4061 1 938
88 1 4089 0 910
90 1 4078 0 921
92 1 4001 0 998
94 1 3984 0 1015
96 0 4062 0 938
98 0 4062 0 938
100 0 4001 0 999
