0 4070 0 930 0
2.0001 3232 806 867 95
4 2652 1395 711 242
6.0001 2213 1890 554 343
8.0001 1803 2243 471 483
10.0001 1480 2575 382 563
12.0001 1173 2832 353 642
14.0001 992 3066 257 685
16.0001 818 3247 229 705
18.0001 680 3376 186 758
20.0001 586 3473 140 801
22.0001 456 3621 136 787
24.0001 378 3673 108 841
26.0001 311 3739 78 871
28.0001 269 3799 64 868
30.0001 214 3866 63 857
32.0001 179 3850 49 922
34 151 3865 41 943
36 115 3933 32 920
38 90 3981 26 903
40 70 3968 23 939
42 58 3989 18 935
44 47 4007 12 934
46 38 4004 13 944
48 30 4011 12 947
50 24 3947 10 1019
52 27 3992 5 976
54 23 4105 5 867
56 16 4020 9 955
58 10 4022 8 960
60 11 4001 6 982
62 10 3991 4 995
64 10 4032 3 954
66 8 4014 3 975
68 6 3974 4 1016
70 10 4062 0 928
72 5 4135 1 859
74 4 4047 0 949
76 3 4050 0 947
78 0 4028 1 971
80 1 4019 0 980
82 0 4058 1 941
84 0 4044 1 954
86 0 4055 1 944
88 1 4065 0 934
90 1 3990 0 1009
92 1 4018 0 981
94 1 4113 0 886
96 1 4027 0 972
98 1 4075 0 924
100 1 4050 0 949
