0 4050 0 950 0
2.0001 3249 789 875 87
4 2648 1377 753 222
6.0001 2216 1843 602 339
8.0001 1803 2259 501 437
10.0001 1482 2574 393 551
12.0001 1210 2885 309 596
14.0001 955 3075 272 698
16.0001 816 3271 194 719
18.0001 678 3361 161 800
20.0001 558 3503 137 802
22.0001 485 3559 105 851
24.0001 394 3622 93 890
26.0001 344 3672 73 911
28.0001 263 3765 77 895
30.0001 216 3819 58 907
32.0001 176 3878 48 898
34 141 3872 41 946
36 119 3903 33 944
38 101 3927 22 950
40 76 3961 19 944
42 63 3957 16 964
44 50 3937 15 998
46 42 3979 10 969
48 32 4014 8 946
50 22 4058 8 912
52 21 3994 4 981
54 17 4004 3 976
56 14 4040 2 944
58 8 4032 2 958
60 6 4036 1 957
62 6 4077 1 916
64 6 4054 0 940
66 5 4043 1 950
68 3 4035 2 960
70 4 4009 1 986
72 2 4034 0 964
74 1 4029 1 969
76 2 4016 0 982
78 2 4002 0 996
80 1 4044 1 954
82 0 4037 1 962
84 1 4072 0 927
86 0 4065 1 934
88 1 4097 0 902
90 1 4045 0 954
92 0 4030 1 969
94 0 4055 0 945
96 0 4052 0 948
98 0 4066 0 934
100 0 4016 0 984
