0 4066 0 934 0
2.0001 3221 792 896 91
4 2698 1322 726 254
6.0001 2230 1837 597 336
8.0001 1855 2234 484 427
10.0001 1537 2503 390 570
12.0001 1226 2792 369 613
14.0001 1001 3069 288 642
16.0001 834 3202 214 750
18.0001 664 3402 186 748
20.0001 563 3540 140 757
22.0001 460 3576 119 845
24.0001 383 3655 92 870
26.0001 319 3712 68 901
28.0001 259 3790 64 887
30.0001 204 3872 64 860
32.0001 176 3838 51 935
34 138 3919 45 898
36 105 3875 37 983
38 89 3959 23 929
40 69 3953 20 958
42 52 3969 23 956
44 47 4007 14 932
46 36 3969 14 981
48 31 4035 9 925
50 31 4051 5 913
52 23 4058 6 913
54 19 4008 5 968
56 18 4018 2 962
58 10 4021 3 966
60 8 4042 3 947
62 9 4023 1 967
64 6 4059 2 932
66 5 4077 1 917
68 3 4063 2 932
70 4 4057 0 939
72 3 4033 1 963
74 3 4054 0 943
76 1 4048 1 950
78 2 4033 0 965
80 2 4043 0 955
82 1 4027 1 971
84 0 4021 2 977
86 2 4056 0 942
88 2 4076 0 922
90 2 4041 0 957
92 2 4071 0 927
94 0 4014 1 985
96 1 4035 0 964
98 0 4091 0 909
100 0 4043 0 957
