0 790 0 0 0 0
2 756 0 0 29 0
4.00004 752 0 0 33 0
6 758 0 0 33 0
8 752 0 0 43 0
10 747 0 0 36 0
12 740 0 0 47 0
14 765 0 0 33 0
16 761 0 0 35 0
18 750 0 0 43 0
20 753 0 0 39 0
22 763 0 0 34 0
24 745 0 0 40 0
26 752 0 0 28 0
28 751 0 0 33 0
30 754 0 0 34 0
32 752 0 0 38 0
34 764 0 0 38 0
36 765 0 0 33 0
38 765 0 0 37 0
40 775 0 0 34 0
42 769 0 0 32 0
44 755 0 0 41 0
46 756 0 0 36 0
48 736 0 0 53 0
50 735 0 0 40 0
52 751 0 0 37 0
54 763 0 0 39 0
56 762 0 1 32 1
58 751 0 2 38 4
60 739 0 6 39 1
62 722 0 11 44 0
64 707 0 16 48 3
66 718 0 28 31 5
68 700 0 33 38 5
70 698 0 43 29 2
72 675 0 43 32 7
74 674 0 51 40 9
76 672 0 62 34 8
78 673 0 62 25 8
80 651 0 86 36 4
82 653 0 91 23 13
84 642 0 103 24 8
86 624 0 116 28 12
88 625 0 127 29 14
90 614 0 144 29 10
92 609 0 154 32 12
94 610 0 155 23 14
96 585 0 163 37 7
98 581 0 177 29 18
100 564 0 181 30 23
102 557 0 189 29 15
104 549 0 193 22 16
106 544 0 203 21 12
108 534 0 203 21 19
110 521 0 209 34 21
112 519 0 209 27 16
114 514 0 222 19 19
116 509 0 227 24 25
118 506 0 248 21 12
120 498 0 253 24 25
122 486 0 260 33 19
124 477 0 262 26 22
126 469 0 273 23 25
128 458 0 280 25 17
130 458 0 282 15 30
132 453 0 288 14 23
134 451 0 299 16 26
136 436 0 309 19 28
138 433 0 312 18 25
140 413 0 312 24 28
142 411 0 328 17 22
144 412 0 338 13 28
146 402 0 355 18 21
148 396 0 364 14 15
150 392 0 357 12 23
152 362 0 374 27 20
154 367 0 375 12 16
156 359 0 379 17 22
158 351 0 378 19 30
160 348 0 395 11 17
162 333 0 388 24 24
164 336 0 395 13 20
166 334 0 396 9 30
168 313 0 404 21 17
170 320 0 416 13 26
172 323 0 412 8 29
174 314 0 426 8 21
176 298 0 417 22 26
178 295 0 420 13 24
180 287 0 426 13 25
182 284 0 443 6 26
184 273 0 446 16 22
186 270 0 453 11 30
188 266 0 460 10 15
190 262 0 462 14 32
192 258 0 470 9 25
194 257 0 466 12 30
196 256 0 474 14 28
198 253 0 490 9 26
200 245 0 486 14 22
