0 967 0 0 0 0
2 920 5 0 41 0
4.00004 917 4 0 56 0
6 936 5 0 30 0
8 906 7 0 57 0
10 918 2 0 43 0
12 912 4 0 39 0
14 891 6 0 61 0
16 913 5 0 51 0
18 908 2 0 47 0
20 904 6 0 46 0
22 912 4 0 46 0
24 910 9 0 40 0
26 915 8 0 32 0
28 918 4 0 34 0
30 907 6 0 46 0
32 915 5 0 35 0
34 890 7 0 61 0
36 901 4 0 52 0
38 919 1 0 38 0
40 904 6 0 51 0
42 898 5 0 48 0
44 903 10 0 40 0
46 918 5 0 28 0
48 896 7 0 45 0
50 897 6 0 35 0
52 778 0 128 35 0
54 681 1 221 34 2
56 578 0 314 37 5
58 532 1 374 25 4
60 468 1 426 22 11
62 418 0 475 27 9
64 366 0 519 26 11
66 345 0 541 27 17
68 300 0 580 31 12
70 270 0 615 33 11
72 244 1 633 28 24
74 224 0 659 17 22
76 204 0 681 23 16
78 187 0 693 19 17
80 172 0 700 24 21
82 165 0 704 18 28
84 156 0 725 17 17
86 150 0 739 22 14
88 136 0 737 13 25
90 129 0 742 15 26
92 112 0 754 16 20
94 111 0 756 15 20
96 96 0 768 15 19
98 84 0 764 18 28
100 93 0 769 5 23
102 88 0 770 12 26
104 84 0 768 4 31
106 82 0 781 8 24
108 81 0 780 13 27
110 77 0 795 10 21
112 73 0 782 12 39
114 70 0 787 14 27
116 70 0 801 4 31
118 65 1 811 7 26
120 60 0 810 15 25
122 58 0 813 17 24
124 59 1 800 10 36
126 62 0 798 8 34
128 62 0 806 10 27
130 54 0 804 15 27
132 55 0 806 12 30
134 66 0 804 6 31
136 60 0 803 10 32
138 61 0 801 9 34
140 57 0 808 8 22
142 62 0 808 5 26
144 57 0 808 12 29
146 53 0 805 13 38
148 52 0 815 9 33
150 54 0 822 8 24
152 53 0 812 12 28
154 55 0 799 13 40
156 61 0 810 2 27
158 57 0 800 9 38
160 60 0 813 10 27
162 52 0 809 10 34
164 46 0 817 11 31
166 52 0 806 6 36
168 56 0 825 5 20
170 48 0 814 11 33
172 49 0 823 10 29
174 55 0 825 13 25
176 46 0 825 19 25
178 43 0 828 12 24
180 46 0 818 3 31
182 54 0 831 7 26
184 48 0 826 9 25
186 49 0 823 12 24
188 57 0 827 6 24
190 50 0 812 5 32
192 51 0 825 6 24
194 43 0 830 8 28
196 51 0 820 7 37
198 51 0 831 12 25
200 58 0 832 5 32
