0 951 0 0 0 0
2 894 0 0 46 0
4.00004 898 0 0 55 0
6 903 0 0 40 0
8 891 0 0 44 0
10 909 0 0 38 0
12 897 0 0 54 0
14 893 0 0 50 0
16 894 0 0 54 0
18 893 0 0 56 0
20 892 0 0 46 0
22 873 0 0 71 0
24 897 0 0 48 0
26 890 0 0 48 0
28 888 0 0 56 0
30 895 0 0 48 0
32 896 0 0 53 0
34 897 0 0 45 0
36 881 0 0 49 0
38 898 0 0 38 0
40 908 0 0 36 0
42 889 0 0 54 0
44 902 0 0 42 0
46 889 0 0 57 0
48 895 0 0 52 0
50 899 0 0 42 0
52 902 0 0 44 0
54 885 0 0 56 0
56 900 0 0 40 0
58 885 0 1 52 1
60 891 0 3 47 1
62 897 0 3 45 1
64 890 0 4 48 1
66 882 0 7 46 1
68 876 0 10 48 3
70 879 0 11 37 5
72 879 0 17 49 1
74 869 0 21 47 6
76 863 0 24 43 8
78 861 0 29 35 8
80 838 0 35 44 7
82 854 0 31 30 13
84 839 0 36 44 7
86 832 0 36 43 10
88 828 0 47 50 8
90 839 0 51 28 14
92 824 0 60 34 14
94 815 0 69 36 10
96 819 0 74 29 10
98 815 0 74 32 15
100 805 0 82 35 8
102 795 0 81 36 17
104 798 0 89 34 14
106 793 0 96 38 15
108 784 0 110 44 19
110 781 0 122 44 12
112 781 0 119 41 19
114 769 0 125 39 14
116 773 0 119 31 27
118 759 0 134 41 10
120 756 0 137 39 16
122 740 0 144 48 12
124 739 0 148 40 16
126 735 0 144 37 19
128 734 0 149 29 21
130 727 0 154 28 31
132 722 0 163 35 19
134 713 0 167 33 22
136 713 0 171 31 23
138 709 0 182 30 19
140 707 0 184 29 21
142 689 0 201 35 18
144 695 0 196 32 26
146 695 0 205 38 26
148 698 0 213 28 19
150 689 0 203 29 32
152 684 0 222 34 18
154 670 0 221 42 23
156 669 0 234 34 16
158 673 0 239 27 17
160 675 0 247 28 19
162 664 0 242 28 25
164 659 0 256 28 17
166 653 0 261 30 15
168 643 0 255 34 17
170 645 0 256 24 23
172 640 0 274 28 19
174 634 0 267 36 31
176 640 0 275 25 24
178 631 0 286 27 19
180 615 0 279 27 27
182 618 0 285 25 31
184 609 0 297 26 26
186 597 0 303 33 17
188 600 0 310 28 20
190 591 0 314 28 20
192 590 0 317 26 14
194 580 0 314 33 24
196 583 0 314 30 28
198 574 0 322 31 23
200 576 0 317 24 27
