0 1111 0 0 0 0
2 1037 5 0 58 0
4.00004 1042 4 0 54 0
6 1043 10 0 53 0
8 1021 7 0 70 0
10 1031 8 0 66 0
12 1041 6 0 53 0
14 1017 6 0 75 0
16 1029 9 0 59 0
18 1029 9 0 55 0
20 1033 5 0 54 0
22 1011 3 0 79 0
24 1007 6 0 71 0
26 1009 5 0 64 0
28 993 9 0 72 0
30 993 11 0 68 0
32 987 9 0 76 0
34 1002 3 0 68 0
36 989 6 0 61 0
38 980 8 0 72 0
40 990 6 0 68 0
42 982 9 0 66 0
44 973 8 0 66 0
46 979 2 0 57 0
48 960 4 0 65 0
50 957 6 0 63 0
52 793 1 156 71 2
54 681 0 277 53 5
56 593 1 359 51 6
58 547 0 430 39 10
60 479 0 491 44 16
62 410 0 545 37 20
64 338 1 603 41 32
66 288 0 646 48 32
68 269 0 674 46 28
70 249 0 693 38 32
72 241 0 704 34 35
74 220 0 722 29 32
76 203 1 731 24 45
78 177 0 760 24 42
80 164 0 776 27 32
82 149 1 797 20 27
84 136 0 786 22 50
86 132 0 817 21 30
88 134 0 797 18 52
90 118 0 816 20 40
92 114 0 813 25 43
94 113 0 812 18 51
96 108 0 829 21 37
98 100 0 832 19 37
100 95 0 832 24 43
102 114 0 828 18 45
104 111 0 826 26 44
106 107 1 824 18 46
108 92 1 842 28 34
110 95 0 832 17 51
112 90 0 841 21 45
114 94 0 836 15 54
116 83 0 829 21 66
118 81 0 842 22 51
120 71 0 842 21 59
122 82 0 851 14 46
124 81 0 851 14 48
126 68 0 846 22 55
128 74 0 862 15 41
130 64 0 868 17 45
132 66 0 870 21 48
134 65 0 876 15 47
136 67 0 880 18 48
138 72 0 875 12 59
140 67 0 875 12 41
142 69 0 863 12 53
144 74 0 857 10 54
146 66 0 862 17 47
148 60 0 859 15 58
150 47 0 881 13 44
152 46 0 869 8 63
154 54 0 871 7 56
156 48 0 882 14 35
158 47 0 872 18 50
160 54 1 875 9 51
162 48 0 869 12 47
164 44 0 865 24 63
166 59 0 868 15 64
168 62 0 873 13 58
170 60 0 879 20 52
172 70 0 894 8 50
174 64 0 887 13 44
176 66 0 882 14 50
178 66 0 876 16 53
180 68 0 887 14 47
182 59 0 883 16 39
184 76 0 883 9 48
186 71 0 876 9 46
188 69 0 860 19 53
190 67 0 869 14 51
192 74 0 870 11 62
194 80 0 867 12 60
196 71 0 870 11 53
198 73 0 860 16 61
200 71 0 865 11 61
