0 1042 0 0 0 0
2 987 3 0 51 0
4.00004 989 1 0 47 0
6 987 4 0 50 0
8 986 6 0 50 0
10 970 6 0 50 0
12 976 4 0 58 0
14 979 4 0 62 0
16 983 3 0 57 0
18 959 7 0 68 0
20 969 3 0 74 0
22 998 3 0 64 0
24 979 4 0 69 0
26 985 2 0 68 0
28 983 5 0 66 0
30 983 8 0 57 0
32 988 6 0 67 0
34 988 4 0 54 0
36 974 4 0 62 0
38 974 4 0 62 0
40 968 10 0 61 0
42 971 4 0 58 0
44 971 3 0 55 0
46 979 5 0 55 0
48 964 7 0 61 0
50 948 5 0 75 0
52 848 1 130 64 0
54 757 0 210 71 6
56 687 0 308 46 9
58 594 0 374 56 12
60 541 0 446 41 10
62 476 1 490 55 12
64 447 0 538 38 16
66 395 0 583 33 17
68 362 0 619 35 24
70 341 0 655 35 17
72 322 0 676 33 26
74 290 0 705 41 21
76 276 0 729 26 21
78 250 0 749 34 32
80 234 0 776 23 27
82 210 0 796 26 31
84 199 0 802 20 35
86 191 0 804 24 39
88 174 0 815 26 39
90 158 0 817 36 40
92 151 0 828 28 39
94 149 0 834 22 39
96 143 0 838 23 39
98 144 0 836 18 44
100 127 0 826 25 49
102 129 0 854 20 38
104 121 0 865 20 36
106 116 0 857 11 44
108 114 0 863 23 44
110 98 0 865 19 38
112 100 0 850 19 50
114 111 0 856 14 45
116 100 0 857 17 41
118 106 0 868 15 42
120 98 0 880 18 28
122 98 0 851 18 57
124 94 0 861 18 44
126 99 0 861 11 46
128 92 0 861 15 51
130 101 0 863 14 45
132 89 0 867 16 43
134 82 0 886 15 36
136 72 0 881 17 46
138 81 0 895 12 38
140 75 0 883 16 48
142 70 0 892 13 40
144 70 1 894 7 37
146 58 0 892 16 37
148 67 0 888 13 44
150 64 0 881 16 52
152 70 0 891 13 40
154 68 0 889 17 52
156 77 0 874 9 49
158 79 0 883 8 43
160 83 0 868 10 48
162 69 0 890 13 39
164 69 0 883 11 45
166 72 0 890 12 43
168 67 0 882 15 43
170 66 0 880 13 48
172 68 0 888 11 37
174 65 0 886 16 45
176 64 0 905 9 39
178 69 0 879 10 58
180 62 0 886 10 44
182 63 0 901 8 35
184 61 0 892 15 48
186 65 0 898 15 45
188 76 0 900 18 49
190 84 0 904 14 45
192 81 0 913 19 33
194 87 0 900 15 41
196 88 0 900 16 49
198 84 0 910 13 51
200 81 0 930 9 42
