0 999 0 0 0 0
2 968 2 0 34 0
4.00004 963 5 0 39 0
6 959 4 0 45 0
8 971 5 0 34 0
10 957 8 0 36 0
12 959 5 0 33 0
14 963 7 0 40 0
16 971 6 0 36 0
18 963 5 0 34 0
20 970 10 0 33 0
22 964 4 0 28 0
24 953 3 0 39 0
26 953 8 0 26 0
28 958 6 0 30 0
30 951 7 0 40 0
32 962 7 0 23 0
34 965 8 0 20 0
36 954 4 0 33 0
38 956 1 0 42 0
40 953 7 0 36 0
42 952 6 0 32 0
44 950 7 0 30 0
46 951 6 0 31 0
48 953 3 0 39 0
50 961 4 0 32 0
52 845 1 112 32 0
54 749 0 213 27 1
56 682 0 278 34 1
58 620 0 338 28 4
60 557 0 398 31 4
62 496 0 455 28 6
64 453 0 500 31 7
66 416 0 541 24 7
68 365 0 579 36 10
70 333 0 621 18 16
72 293 0 645 29 17
74 272 0 677 17 12
76 268 0 692 15 16
78 239 0 713 27 18
80 224 0 734 21 20
82 205 0 750 23 19
84 195 0 765 15 19
86 169 1 794 18 9
88 166 0 795 11 20
90 148 0 799 21 23
92 148 0 811 16 22
94 144 0 820 8 27
96 129 1 837 14 17
98 116 0 849 14 20
100 112 0 848 13 21
102 105 0 862 12 18
104 105 0 860 14 26
106 94 0 869 18 20
108 93 0 872 14 20
110 97 0 876 12 18
112 92 0 869 13 25
114 91 0 879 15 22
116 98 0 890 6 18
118 93 0 889 10 23
120 87 0 895 7 22
122 84 0 891 9 20
124 78 0 885 7 29
126 74 0 882 4 30
128 73 0 892 4 25
130 61 0 902 9 18
132 63 0 887 6 36
134 60 0 904 9 27
136 57 0 914 9 24
138 63 0 912 4 22
140 62 0 909 8 24
142 56 0 886 11 36
144 66 0 902 2 28
146 65 0 902 7 35
148 53 0 902 14 31
150 57 0 908 10 27
152 55 0 902 8 31
154 46 0 905 13 35
156 55 0 910 9 26
158 50 0 904 11 36
160 51 0 918 7 27
162 45 0 922 11 20
164 50 0 910 10 27
166 51 0 907 7 31
168 50 0 913 1 29
170 43 0 917 7 25
172 51 0 919 10 28
174 52 0 907 10 35
176 56 0 908 9 21
178 52 0 912 6 33
180 44 0 911 11 33
182 50 0 917 3 22
184 51 0 918 5 23
186 45 0 912 4 28
188 46 0 918 5 24
190 46 0 915 8 30
192 43 0 925 6 22
194 43 0 917 11 23
196 50 0 917 9 25
198 48 0 917 9 21
200 47 0 901 8 37
