0 1037 0 0 0 0
2 989 6 0 50 0
4.00004 992 3 0 43 0
6 985 0 0 49 0
8 984 7 0 41 0
10 991 8 0 35 0
12 989 6 0 34 0
14 986 4 0 57 0
16 994 8 0 37 0
18 989 6 0 46 0
20 986 8 0 41 0
22 988 1 0 42 0
24 988 6 0 35 0
26 1002 2 0 38 0
28 996 2 0 33 0
30 992 2 0 41 0
32 984 3 0 44 0
34 972 8 0 44 0
36 985 2 0 41 0
38 987 6 0 41 0
40 993 1 0 43 0
42 997 4 0 32 0
44 987 8 0 38 0
46 997 4 0 40 0
48 1007 2 0 37 0
50 990 13 0 37 0
52 863 1 140 36 0
54 780 0 234 38 2
56 706 0 305 31 2
58 622 1 387 32 7
60 553 0 456 25 11
62 487 0 526 30 6
64 454 0 557 31 18
66 413 1 601 27 13
68 362 0 646 35 11
70 330 0 679 29 17
72 305 0 701 22 29
74 287 0 732 22 16
76 259 0 764 20 14
78 231 0 797 18 14
80 212 0 799 12 24
82 191 0 827 20 20
84 179 0 829 15 31
86 168 0 850 17 27
88 163 0 855 15 24
90 152 0 855 21 21
92 155 0 854 16 31
94 142 0 873 13 23
96 119 1 884 22 23
98 119 0 902 9 17
100 108 0 893 19 33
102 99 0 910 12 26
104 90 0 909 12 26
106 77 0 908 10 31
108 76 0 913 9 26
110 69 0 919 10 29
112 62 0 912 18 32
114 60 0 921 11 30
116 68 0 924 10 27
118 62 0 919 8 30
120 53 0 919 17 32
122 56 0 928 6 26
124 47 0 932 8 27
126 53 0 909 5 39
128 49 0 925 11 23
130 51 0 919 9 26
132 56 0 928 7 18
134 54 0 917 6 27
136 54 0 903 7 38
138 58 0 911 6 25
140 55 0 903 7 34
142 50 0 919 8 28
144 52 0 907 9 35
146 53 0 900 9 33
148 54 0 908 12 33
150 56 0 915 9 22
152 56 0 902 9 32
154 49 0 917 10 29
156 51 0 907 6 30
158 39 0 913 6 25
160 44 0 906 6 33
162 45 0 911 9 32
164 53 0 922 6 23
166 51 0 908 10 31
168 52 0 912 5 25
170 52 0 916 9 28
172 52 0 907 14 31
174 57 0 901 4 35
176 47 0 917 11 27
178 57 0 919 6 26
180 50 0 917 6 32
182 58 0 916 9 39
184 56 0 914 6 34
186 56 0 917 5 26
188 50 0 908 7 35
190 52 0 908 9 34
192 44 0 915 11 28
194 47 0 909 8 29
196 41 0 908 9 32
198 45 0 902 11 45
200 47 0 910 9 26
