0 1321 0 0 0 0 186
2 1260 13 0 13 0 199
4.00004 1255 5 0 11 0 191
6 1241 9 0 20 0 198
8 1231 13 0 13 0 197
10 1225 6 0 13 0 217
12 1205 7 0 14 0 208
14 1197 8 0 16 0 208
16 1195 1 0 11 0 209
18 1166 6 0 17 0 207
20 1156 5 0 10 0 199
22 1137 10 0 6 0 189
24 1125 6 0 24 0 202
26 1115 11 0 8 0 205
28 1130 5 0 9 0 176
30 1115 6 0 15 0 183
32 1122 6 0 16 0 206
34 1115 4 0 11 0 218
36 1092 6 0 15 0 198
38 1076 6 0 16 0 197
40 1078 6 0 18 0 208
42 1099 7 0 14 0 206
44 1078 7 0 13 0 194
46 1070 10 0 19 0 215
48 1079 10 0 19 0 209
50 1072 6 0 17 0 208
52 900 0 177 16 1 191
54 813 0 269 19 4 188
56 719 0 357 14 2 196
58 636 0 438 11 3 203
60 570 0 502 16 6 200
62 524 0 546 12 3 201
64 467 0 595 5 9 197
66 426 0 641 9 6 182
68 377 0 675 10 9 204
70 360 0 693 10 8 195
72 334 0 728 4 7 179
74 291 0 766 12 4 194
76 280 0 774 7 12 192
78 271 0 784 9 8 200
80 260 0 793 5 11 192
82 239 0 816 6 8 211
84 229 0 833 12 4 199
86 217 0 840 6 17 195
88 201 0 861 4 14 205
90 192 0 869 4 15 202
92 184 0 885 4 10 191
94 163 0 892 5 15 182
96 159 0 891 5 8 209
98 143 1 897 8 12 211
100 153 0 899 3 12 212
102 147 0 916 4 12 219
104 133 0 912 9 16 204
106 122 0 914 9 14 200
108 143 0 906 4 18 188
110 132 0 920 3 8 202
112 135 0 917 4 11 206
114 122 0 943 10 8 200
116 128 0 944 1 16 191
118 115 0 971 3 10 204
120 111 0 973 3 13 179
122 109 0 974 3 8 202
124 100 0 981 1 14 201
126 90 0 981 3 12 201
128 90 0 972 6 13 209
130 88 0 976 1 8 205
132 81 0 958 3 16 202
134 86 0 969 0 10 202
136 81 0 969 1 12 196
138 75 0 970 3 8 189
140 73 0 977 5 15 210
142 67 0 984 2 16 188
144 62 0 962 5 20 187
146 61 0 976 0 14 190
148 61 0 994 3 13 200
150 62 0 989 3 19 211
152 63 0 993 1 18 215
154 62 0 990 0 12 212
156 62 0 986 2 8 196
158 58 0 994 4 19 206
160 58 0 1008 1 11 204
162 51 0 1014 1 16 212
164 56 0 1006 1 13 201
166 52 0 1004 1 12 198
168 47 0 1004 4 8 200
170 52 0 1000 2 21 207
172 54 0 1029 2 12 216
174 53 1 1025 1 10 199
176 45 1 1021 0 17 193
178 44 0 1014 0 14 211
180 40 0 1015 3 17 192
182 44 0 1006 1 12 205
184 41 0 1008 0 11 200
186 39 0 1012 2 14 212
188 41 0 1016 0 16 190
190 36 0 1014 0 12 210
192 28 0 1021 4 12 199
194 24 0 1020 0 15 190
196 25 0 1000 0 20 210
198 22 0 1003 3 17 211
200 23 0 1008 1 21 206
