0 1388 0 0 0 0 206
2 1396 18 0 14 0 209
4.00004 1427 10 0 17 0 200
6 1439 12 0 16 0 185
8 1447 13 0 27 0 212
10 1469 9 0 23 0 198
12 1490 8 0 20 0 203
14 1488 16 0 31 0 185
16 1511 11 0 26 0 197
18 1541 8 0 16 0 186
20 1531 14 0 25 0 206
22 1550 14 0 14 0 216
24 1557 10 0 13 0 195
26 1563 10 0 14 0 204
28 1558 14 0 29 0 193
30 1571 11 0 18 0 199
32 1564 11 0 27 0 210
34 1573 13 0 26 0 204
36 1580 9 0 19 0 195
38 1584 7 0 26 0 201
40 1587 4 0 24 0 185
42 1589 10 0 22 0 192
44 1590 11 0 20 0 207
46 1583 13 0 20 0 193
48 1611 10 0 20 0 203
50 1601 12 0 23 0 212
52 1343 0 274 22 0 199
54 1155 0 468 15 5 193
56 1002 0 620 11 8 208
58 894 0 730 11 10 201
60 781 0 844 7 12 214
62 687 1 941 10 9 207
64 604 0 1020 10 10 192
66 528 0 1100 9 12 204
68 458 0 1158 11 12 193
70 408 1 1227 6 10 200
72 362 0 1272 1 18 212
74 313 1 1313 6 16 202
76 268 0 1352 7 15 214
78 242 1 1382 6 18 201
80 219 1 1408 2 23 203
82 190 0 1441 1 26 198
84 158 0 1476 4 19 204
86 145 0 1481 1 21 203
88 130 0 1499 3 19 202
90 125 0 1506 2 15 198
92 112 0 1526 3 15 208
94 101 0 1534 3 21 197
96 87 1 1546 1 18 201
98 78 0 1548 2 17 197
100 75 0 1546 1 20 208
102 66 0 1552 0 16 196
104 57 0 1559 2 21 207
106 54 0 1562 2 22 201
108 53 0 1565 0 23 195
110 47 0 1568 1 16 189
112 48 0 1568 0 22 194
114 43 0 1582 1 12 202
116 42 0 1571 1 22 203
118 38 0 1572 0 21 187
120 35 0 1569 0 19 206
122 30 0 1572 0 19 182
124 29 0 1570 1 18 201
126 30 0 1558 2 24 215
128 27 0 1551 1 21 191
130 25 0 1569 0 14 202
132 22 0 1570 2 16 202
134 22 0 1580 1 24 199
136 21 0 1580 0 23 180
138 22 0 1581 1 17 198
140 22 0 1587 0 18 195
142 17 0 1599 1 22 211
144 17 0 1583 0 25 195
146 16 0 1590 0 15 203
148 14 0 1595 1 18 184
150 11 0 1606 1 19 200
152 13 0 1606 0 21 192
154 11 0 1615 0 22 204
156 10 0 1619 0 23 209
158 8 0 1624 1 22 213
160 6 0 1627 0 23 216
162 5 0 1636 0 25 210
164 5 0 1637 0 20 207
166 4 0 1644 0 17 201
168 2 0 1630 0 25 209
170 2 0 1640 0 18 203
172 1 0 1651 0 13 213
174 1 0 1648 0 21 200
176 2 0 1655 0 19 205
178 2 0 1651 0 18 194
180 3 0 1634 0 19 208
182 3 0 1633 0 12 199
184 2 0 1621 0 24 202
186 3 0 1621 0 23 206
188 3 0 1637 0 18 206
190 1 0 1618 1 30 204
192 3 0 1625 0 19 198
194 3 0 1624 0 27 190
196 3 0 1624 0 17 190
198 3 0 1622 0 18 187
200 3 0 1633 0 22 197
