0 1530 0 0 0 0 211
2 1430 8 0 15 0 197
4.00004 1377 13 0 11 0 205
6 1335 7 0 13 0 192
8 1295 12 0 10 0 193
10 1250 12 0 21 0 212
12 1252 6 0 11 0 190
14 1218 9 0 13 0 207
16 1188 8 0 8 0 192
18 1168 5 0 9 0 206
20 1134 5 0 11 0 197
22 1118 7 0 14 0 204
24 1104 10 0 10 0 193
26 1081 2 0 9 0 193
28 1054 6 0 15 0 199
30 1045 7 0 12 0 194
32 1044 6 0 13 0 206
34 1023 12 0 13 0 205
36 1017 5 0 12 0 197
38 1010 8 0 12 0 196
40 1004 6 0 8 0 194
42 975 7 0 9 0 217
44 968 4 0 12 0 191
46 959 4 0 6 0 200
48 940 6 0 18 0 185
50 934 6 0 8 0 208
52 810 0 124 10 0 183
54 711 0 226 16 0 186
56 657 2 283 14 4 193
58 590 0 347 7 1 206
60 539 0 393 13 4 202
62 495 0 428 14 2 203
64 450 0 469 7 2 199
66 424 0 495 8 4 217
68 390 0 516 4 4 202
70 369 0 530 6 5 176
72 351 0 544 11 2 191
74 331 0 553 9 5 192
76 332 0 567 6 4 206
78 308 1 592 9 3 195
80 279 0 609 6 5 208
82 277 0 619 10 2 204
84 244 0 641 7 6 188
86 238 0 644 6 9 194
88 232 0 647 4 4 218
90 230 0 642 9 7 206
92 237 0 654 3 7 202
94 227 0 670 3 2 190
96 221 0 680 3 6 189
98 219 0 689 4 9 199
100 219 0 684 5 5 196
102 209 0 692 5 9 213
104 202 1 690 3 14 202
106 200 0 704 2 6 205
108 195 0 700 4 9 201
110 186 0 710 1 8 195
112 191 0 725 5 4 206
114 159 0 747 7 6 206
116 161 0 751 5 4 192
118 132 0 769 6 9 193
120 125 0 782 3 9 176
122 121 0 786 4 10 182
124 110 0 783 4 17 201
126 116 0 787 2 6 208
128 116 0 777 1 14 205
130 120 0 782 3 13 191
132 116 0 778 3 5 212
134 112 0 763 6 7 198
136 111 0 764 2 6 212
138 115 0 774 5 11 185
140 113 0 779 3 8 179
142 120 0 769 3 13 183
144 115 1 778 3 6 202
146 105 0 796 4 6 199
148 100 0 812 2 7 196
150 96 0 805 1 15 214
152 93 0 822 0 9 226
154 90 0 819 2 11 205
156 81 0 819 0 12 211
158 82 0 816 4 9 203
160 75 1 824 2 10 192
162 82 0 828 2 6 195
164 87 0 821 3 8 202
166 83 0 834 1 12 201
168 73 0 843 2 12 195
170 71 0 840 2 12 199
172 70 0 853 3 6 197
174 66 0 857 2 3 211
176 58 0 853 1 9 204
178 55 0 856 2 8 197
180 52 0 849 3 12 205
182 57 0 843 0 6 193
184 62 0 845 0 14 183
186 63 0 837 1 10 188
188 57 0 837 2 13 210
190 49 0 857 2 7 205
192 53 0 846 1 13 201
194 56 0 847 3 14 200
196 57 0 851 1 13 199
198 56 0 858 0 8 180
200 47 1 862 2 12 183
