0 658 0 0 0 0 195
2 635 0 0 16 0 205
4.00004 618 0 0 14 0 190
6 609 0 0 8 0 208
8 581 0 0 13 0 194
10 577 0 0 14 0 212
12 564 0 0 16 0 195
14 551 0 0 14 0 201
16 530 0 0 13 0 191
18 523 0 0 10 0 203
20 516 0 0 11 0 208
22 505 0 0 12 0 182
24 499 0 0 18 0 192
26 495 0 0 19 0 197
28 478 0 0 15 0 189
30 488 0 0 15 0 192
32 496 0 0 15 0 211
34 493 0 0 15 0 204
36 488 0 0 10 0 218
38 487 0 0 8 0 208
40 472 0 0 17 0 210
42 472 0 0 7 0 213
44 460 0 0 14 0 199
46 455 0 0 8 0 199
48 445 0 0 11 0 194
50 445 0 0 13 0 185
52 439 0 0 14 0 195
54 441 0 3 10 1 202
56 432 0 7 9 2 192
58 422 0 11 4 1 210
60 414 0 22 9 2 196
62 397 0 28 11 2 197
64 393 0 34 6 0 207
66 370 0 41 9 1 208
68 357 0 54 6 1 194
70 346 0 64 6 1 208
72 326 0 73 9 3 194
74 326 0 84 6 1 205
76 310 0 88 5 6 207
78 296 0 101 9 1 190
80 286 0 106 7 7 192
82 277 0 107 3 2 209
84 264 0 115 5 3 205
86 265 0 128 3 1 197
88 251 0 138 7 3 194
90 245 0 148 3 8 196
92 237 0 162 8 7 190
94 220 0 165 7 6 216
96 213 0 168 3 12 206
98 204 0 191 6 5 212
100 197 0 201 4 4 223
102 185 0 200 5 10 200
104 176 0 203 3 10 195
106 166 0 209 6 7 196
108 158 0 212 3 6 191
110 145 0 222 5 8 202
112 138 0 224 5 12 212
114 141 0 235 1 5 188
116 133 0 243 3 9 203
118 128 0 244 3 5 220
120 122 0 243 1 7 200
122 114 0 247 2 6 206
124 111 0 245 3 9 204
126 113 0 249 2 7 182
128 110 0 243 0 12 190
130 101 0 251 3 8 197
132 103 0 253 1 7 206
134 102 0 259 1 9 210
136 95 0 263 0 14 211
138 93 0 287 3 6 220
140 93 0 290 0 7 191
142 91 0 294 0 9 221
144 84 0 295 1 9 206
146 76 0 296 3 11 199
148 79 0 298 0 6 201
150 76 0 304 0 8 214
152 72 0 298 1 10 209
154 66 0 295 3 12 206
156 68 0 291 0 5 201
158 64 0 294 0 5 217
160 59 0 293 1 9 182
162 55 0 310 1 7 191
164 50 0 314 0 2 196
166 50 0 305 1 14 196
168 50 0 310 1 6 215
170 47 0 306 0 8 207
172 49 0 308 0 9 187
174 47 0 304 1 10 204
176 45 0 304 2 7 208
178 43 0 298 0 10 204
180 40 0 303 1 8 196
182 35 0 305 1 8 209
184 34 0 311 1 6 203
186 34 0 317 0 5 206
188 31 0 315 0 12 202
190 32 0 318 1 10 206
192 32 0 330 0 7 196
194 31 0 327 1 4 225
196 29 0 317 0 10 201
198 26 0 326 0 8 203
200 26 0 332 0 14 195
