0 338 0 0 0 0 185
2 281 0 0 39 0 202
4.00004 279 0 0 32 0 202
6 262 0 0 47 0 212
8 257 0 0 25 0 198
10 253 0 0 33 0 194
12 256 0 0 37 0 201
14 254 0 0 34 0 211
16 257 0 0 36 0 196
18 250 0 0 40 0 213
20 256 0 0 31 0 211
22 244 0 0 30 0 200
24 233 0 0 32 0 199
26 224 0 0 28 0 205
28 238 0 0 28 0 193
30 247 0 0 30 0 201
32 244 0 0 33 0 202
34 255 0 0 37 0 201
36 247 0 0 38 0 198
38 246 0 0 37 0 189
40 250 0 0 31 0 208
42 240 0 0 39 0 204
44 219 0 0 31 0 192
46 210 0 0 38 0 194
48 225 0 0 28 0 198
50 239 0 0 35 0 199
52 240 0 0 33 0 204
54 212 0 1 29 1 201
56 225 0 10 18 6 201
58 209 0 22 31 3 200
60 186 0 28 38 7 192
62 183 0 39 30 5 203
64 177 0 55 25 9 196
66 165 0 69 31 11 190
68 165 0 72 29 12 198
70 153 0 84 19 13 189
72 135 0 95 18 13 202
74 123 0 101 15 16 201
76 108 0 112 19 12 203
78 104 0 122 14 13 202
80 91 0 139 10 16 202
82 86 0 140 11 23 196
84 71 0 147 13 19 204
86 62 0 159 8 23 188
88 63 0 164 7 22 192
90 55 0 168 8 28 206
92 56 0 175 6 32 198
94 54 0 186 9 26 193
96 54 0 173 6 31 188
98 50 0 174 3 29 207
100 46 0 177 8 26 191
102 42 0 175 4 33 203
104 41 0 194 6 37 188
106 37 0 200 9 24 204
108 38 0 214 5 35 204
110 35 0 210 4 31 213
112 31 0 207 3 33 201
114 28 0 196 3 27 203
116 24 0 195 4 25 203
118 25 0 214 5 42 212
120 25 0 221 2 30 202
122 24 0 217 2 33 203
124 20 0 220 2 35 193
126 19 0 207 3 33 196
128 15 0 207 2 34 190
130 15 0 193 0 36 184
132 14 0 198 1 26 211
134 13 0 199 2 39 209
136 13 0 205 1 34 199
138 10 0 209 2 28 201
140 9 0 212 0 30 195
142 6 0 206 1 28 196
144 6 0 195 1 38 203
146 4 0 190 1 34 201
148 6 0 195 1 40 202
150 5 0 202 0 33 205
152 4 0 210 0 28 201
154 4 0 204 0 39 202
156 2 0 216 1 33 222
158 1 0 208 0 36 202
160 0 0 218 1 34 209
162 0 0 233 0 36 191
164 1 0 216 0 43 210
166 3 0 224 0 32 195
168 2 0 220 0 29 197
170 1 0 217 0 30 205
172 1 0 195 1 32 217
174 1 0 195 1 22 195
176 1 0 203 0 26 190
178 1 0 212 0 25 199
180 1 0 208 0 26 204
182 0 0 209 0 26 204
184 1 0 225 0 23 202
186 2 0 226 0 39 206
188 2 0 215 0 35 207
190 2 0 225 0 23 201
192 2 0 238 0 27 204
194 1 0 240 0 31 208
196 1 0 237 0 34 200
198 0 0 239 0 30 208
200 0 0 225 0 38 214
