0 513 0 0 0 0 180
2 482 0 0 34 0 207
4.00004 487 0 0 39 0 222
6 484 0 0 30 0 209
8 471 0 0 43 0 207
10 472 0 0 41 0 203
12 465 0 0 48 0 210
14 464 0 0 42 0 201
16 462 0 0 38 0 204
18 458 0 0 44 0 201
20 464 0 0 34 0 205
22 460 0 0 46 0 191
24 466 0 0 34 0 206
26 458 0 0 40 0 173
28 453 0 0 46 0 199
30 459 0 0 33 0 205
32 456 0 0 37 0 216
34 444 0 0 45 0 199
36 449 0 0 46 0 197
38 441 0 0 45 0 207
40 449 0 0 44 0 205
42 447 0 0 44 0 197
44 450 0 0 39 0 209
46 447 0 0 49 0 197
48 462 0 0 40 0 197
50 469 0 0 31 0 198
52 463 0 0 41 0 196
54 466 0 1 42 0 187
56 458 0 2 46 0 201
58 466 0 3 38 0 213
60 464 0 7 37 1 182
62 458 0 11 39 0 206
64 467 0 12 25 4 191
66 441 0 17 40 6 200
68 435 0 25 44 5 216
70 430 0 33 46 7 178
72 424 0 44 41 3 198
74 412 0 55 48 4 202
76 420 0 60 34 6 207
78 409 0 72 37 7 203
80 413 0 73 25 6 199
82 411 0 81 27 8 196
84 393 0 85 33 12 184
86 381 0 96 35 5 209
88 374 0 94 37 12 205
90 369 0 108 37 9 200
92 364 0 118 32 15 210
94 367 0 135 27 8 204
96 359 0 131 28 17 191
98 351 0 140 29 10 213
100 332 0 145 34 15 202
102 334 0 160 22 17 180
104 316 0 166 28 11 200
106 317 0 174 22 9 209
108 312 0 177 21 17 188
110 302 0 182 28 19 201
112 299 0 184 22 17 205
114 288 0 192 30 16 213
116 293 0 185 18 30 208
118 286 0 201 21 19 209
120 272 0 201 28 24 192
122 274 0 205 23 22 193
124 268 0 212 19 21 192
126 268 0 222 17 21 205
128 261 0 226 16 20 188
130 255 0 237 20 24 207
132 250 0 238 17 22 199
134 253 0 239 11 27 201
136 245 0 250 18 19 214
138 245 0 249 14 23 201
140 234 0 251 20 22 216
142 219 0 254 27 19 202
144 215 0 259 23 25 196
146 216 0 262 16 23 191
148 209 0 267 19 25 204
150 208 0 280 16 18 193
152 200 0 283 19 20 185
154 203 0 284 13 23 199
156 193 0 281 19 24 206
158 188 0 281 18 28 192
160 186 0 284 18 25 178
162 192 0 285 11 26 204
164 185 0 284 14 33 204
166 181 0 304 15 27 193
168 178 0 302 15 31 214
170 176 0 318 13 22 207
172 172 0 310 17 44 194
174 165 0 327 21 31 196
176 167 0 320 12 33 200
178 156 0 326 15 32 199
180 152 0 327 13 33 195
182 139 0 322 22 37 197
184 146 0 334 11 24 215
186 144 0 317 8 39 214
188 138 0 336 9 31 203
190 135 0 335 11 29 207
192 133 0 342 8 29 215
194 124 0 334 17 34 191
196 133 0 329 5 39 216
198 129 0 340 7 33 197
200 125 0 338 7 32 199
