0 520 0 0 0 0 199
2 487 0 0 42 0 207
4.00004 488 0 0 34 0 196
6 493 0 0 36 0 197
8 498 0 0 35 0 208
10 491 0 0 42 0 192
12 504 0 0 36 0 188
14 507 0 0 37 0 202
16 510 0 0 44 0 183
18 501 0 0 50 0 194
20 496 0 0 44 0 199
22 487 0 0 44 0 208
24 486 0 0 44 0 198
26 480 0 0 54 0 207
28 490 0 0 55 0 202
30 513 0 0 37 0 214
32 526 0 0 30 0 199
34 521 0 0 41 0 199
36 530 0 0 42 0 213
38 516 0 0 54 0 200
40 530 0 0 45 0 212
42 539 0 0 40 0 200
44 540 0 0 36 0 198
46 543 0 0 45 0 199
48 549 0 0 39 0 182
50 533 0 0 46 0 186
52 541 0 1 47 0 195
54 554 0 3 39 1 191
56 535 0 7 58 2 197
58 539 0 15 43 1 211
60 535 0 23 43 1 204
62 516 0 27 47 3 201
64 505 0 36 45 4 204
66 491 0 40 49 7 196
68 485 0 48 49 10 207
70 479 0 67 42 9 215
72 460 0 76 47 8 204
74 463 0 93 33 9 191
76 461 0 107 29 8 230
78 447 0 112 37 9 198
80 431 0 127 41 6 192
82 435 0 130 29 10 205
84 422 0 136 34 9 202
86 421 0 136 30 18 208
88 403 0 142 33 15 215
90 405 0 145 20 18 206
92 390 0 156 30 15 211
94 376 0 164 32 15 187
96 363 0 172 29 17 196
98 359 0 181 30 11 199
100 357 0 180 25 15 196
102 346 0 188 25 20 193
104 336 0 205 23 18 206
106 317 0 228 24 14 187
108 306 0 233 23 18 213
110 293 0 240 27 18 189
112 297 0 234 20 27 200
114 291 0 246 18 22 208
116 279 0 254 18 26 202
118 266 0 260 24 26 194
120 258 0 273 25 21 207
122 257 0 273 21 33 208
124 250 0 285 24 22 210
126 246 0 284 20 29 204
128 247 0 296 16 25 190
130 244 0 304 17 34 196
132 237 0 311 15 26 205
134 226 0 312 20 26 211
136 224 0 329 13 24 191
138 220 0 336 12 26 197
140 209 0 340 21 26 185
142 206 0 346 17 28 201
144 196 0 344 18 32 196
146 194 0 355 13 34 193
148 189 0 359 17 31 195
150 185 0 366 13 32 203
152 177 0 379 15 31 203
154 172 0 374 14 44 205
156 170 0 384 13 36 201
158 169 0 389 9 37 216
160 156 0 394 17 43 208
162 156 0 403 14 34 208
164 156 0 403 10 35 200
166 155 0 413 8 34 201
168 150 0 410 12 41 199
170 141 0 413 18 34 219
172 140 0 403 14 39 213
174 140 0 407 10 41 207
176 141 0 418 7 38 197
178 138 0 427 9 39 189
180 136 0 423 10 52 207
182 139 0 438 3 36 200
184 136 0 444 6 41 194
186 129 0 442 11 43 203
188 120 0 437 13 46 195
190 115 0 438 13 44 215
192 113 0 451 13 39 212
194 111 0 445 13 42 208
196 106 0 440 15 47 196
198 107 0 455 8 35 193
200 109 0 441 7 40 204
