0 68 0
2 68 0
4.00004 68 0
6 68 0
8 68 0
10 67 0
12 67 0
14 69 0
16 69 0
18 69 0
20 69 0
22 68 0
24 68 0
26 68 1
28 68 1
30 68 1
32 68 1
34 68 1
36 68 1
38 67 1
40 67 1
42 67 1
44 67 1
46 67 1
48 67 1
50 67 1
52 67 1
54 67 1
56 66 1
58 66 1
60 66 1
62 65 1
64 65 1
66 65 1
68 65 1
70 65 1
72 63 1
74 63 1
76 63 2
78 62 2
80 62 2
82 62 2
84 61 2
86 61 2
88 61 2
90 62 2
92 62 2
94 62 2
96 62 2
98 62 2
100 61 2
102 61 2
104 61 2
106 61 2
108 61 2
110 61 3
112 61 3
114 61 4
116 61 4
118 61 4
120 60 4
122 60 4
124 60 4
126 60 4
128 59 4
130 58 5
132 58 5
134 58 8
136 58 8
138 58 9
140 58 9
142 58 9
144 58 9
146 58 11
148 58 11
150 58 11
152 58 11
154 58 11
156 58 11
158 58 11
160 58 11
162 57 11
164 56 12
166 56 12
168 56 12
170 56 12
172 56 13
174 56 13
176 56 13
178 56 13
180 56 13
182 56 13
184 56 14
186 56 14
188 55 14
190 56 14
192 56 14
194 56 14
196 56 14
198 56 14
200 56 14
202 56 14
204 56 14
206 56 14
208 56 15
210 56 16
212 56 16
214 56 16
216 56 16
218 56 16
220 55 17
222 54 17
224 53 17
226 53 16
228 53 16
230 54 16
232 54 17
234 54 18
236 54 18
238 54 18
240 54 18
242 54 18
244 54 17
246 54 17
248 54 17
250 54 17
252 54 17
254 53 17
256 53 17
258 53 17
260 53 17
262 53 17
264 53 17
266 53 17
268 53 17
270 53 17
272 53 18
274 52 19
276 52 19
278 51 19
280 51 20
282 50 20
284 50 20
286 50 21
288 50 21
290 50 21
292 50 21
294 50 21
296 49 21
298 48 21
300 48 21
