0 67 0
2 66 0
4.00004 67 0
6 67 0
8 67 0
10 65 1
12 66 1
14 64 1
16 64 1
18 65 1
20 64 1
22 64 1
24 64 1
26 64 1
28 64 1
30 64 1
32 64 1
34 63 1
36 63 1
38 62 1
40 63 2
42 63 2
44 63 2
46 63 2
48 63 2
50 63 3
52 63 3
54 63 2
56 63 2
58 63 2
60 63 2
62 63 2
64 63 3
66 63 3
68 63 3
70 63 4
72 63 5
74 63 5
76 63 5
78 63 5
80 63 6
82 63 6
84 63 6
86 63 6
88 63 6
90 63 6
92 63 6
94 63 6
96 63 6
98 63 6
100 63 6
102 63 6
104 63 6
106 63 7
108 63 7
110 63 7
112 62 8
114 62 8
116 62 8
118 62 8
120 61 8
122 61 8
124 61 8
126 60 8
128 60 8
130 60 9
132 60 9
134 60 9
136 60 10
138 60 10
140 59 10
142 58 10
144 58 10
146 58 10
148 58 10
150 58 10
152 55 10
154 54 10
156 54 10
158 53 10
160 53 10
162 53 10
164 53 10
166 53 10
168 53 10
170 53 10
172 53 10
174 53 10
176 53 10
178 53 10
180 53 10
182 53 10
184 53 10
186 53 10
188 53 10
190 53 11
192 53 11
194 53 12
196 53 13
198 53 12
200 53 12
202 53 13
204 53 11
206 52 11
208 52 11
210 52 11
212 52 11
214 52 11
216 52 11
218 52 11
220 52 12
222 52 12
224 52 13
226 52 13
228 52 13
230 52 13
232 52 13
234 52 13
236 52 13
238 52 12
240 52 13
242 52 14
244 52 14
246 52 14
248 52 14
250 52 15
252 52 15
254 51 15
256 51 15
258 51 15
260 51 15
262 51 15
264 51 16
266 51 16
268 51 16
270 51 16
272 51 16
274 51 16
276 51 16
278 51 17
280 50 17
282 50 17
284 50 17
286 50 18
288 50 18
290 49 17
292 48 19
294 48 19
296 47 19
298 46 19
300 45 19
