0 69 0
2 68 0
4.00004 68 0
6 68 0
8 68 0
10 68 0
12 68 0
14 68 0
16 69 0
18 69 0
20 69 0
22 69 0
24 69 1
26 69 1
28 69 1
30 69 1
32 69 1
34 69 1
36 69 1
38 69 1
40 68 1
42 68 1
44 68 1
46 68 1
48 68 1
50 68 1
52 68 1
54 68 1
56 67 1
58 67 2
60 67 2
62 67 2
64 66 2
66 66 2
68 66 2
70 66 2
72 66 2
74 66 2
76 66 3
78 66 3
80 65 3
82 65 3
84 65 4
86 65 4
88 65 5
90 65 6
92 65 8
94 65 8
96 65 8
98 65 9
100 65 9
102 65 9
104 65 9
106 65 9
108 65 9
110 64 9
112 63 10
114 64 10
116 64 10
118 64 10
120 64 10
122 64 10
124 64 11
126 64 11
128 64 11
130 64 11
132 64 11
134 64 11
136 63 11
138 63 11
140 63 11
142 62 11
144 62 11
146 62 11
148 62 11
150 61 11
152 61 12
154 61 12
156 60 12
158 60 12
160 60 12
162 60 12
164 60 12
166 60 12
168 60 12
170 59 12
172 59 12
174 59 12
176 59 12
178 60 12
180 60 12
182 59 12
184 59 12
186 59 12
188 59 12
190 59 12
192 59 12
194 59 12
196 58 12
198 58 12
200 58 12
202 58 12
204 57 11
206 57 11
208 57 11
210 57 11
212 57 11
214 57 11
216 56 11
218 56 11
220 56 11
222 56 11
224 56 11
226 55 11
228 55 11
230 55 11
232 55 11
234 55 12
236 55 12
238 55 12
240 55 11
242 54 12
244 54 13
246 54 13
248 54 14
250 54 14
252 54 14
254 54 15
256 54 15
258 54 15
260 54 15
262 54 15
264 54 15
266 54 16
268 54 16
270 54 17
272 53 18
274 53 18
276 53 19
278 53 19
280 53 19
282 53 19
284 53 19
286 52 18
288 52 18
290 52 18
292 52 18
294 52 17
296 52 17
298 52 18
300 52 18
