0 430 0 0 0 0
2 385 0 0 25 0
4.00004 361 0 0 34 0
6 360 0 0 20 0
8 343 0 0 27 0
10 335 0 0 22 0
12 331 0 0 17 0
14 317 0 0 27 0
16 323 0 0 23 0
18 315 0 0 14 0
20 312 0 0 20 0
22 305 0 0 19 0
24 309 0 0 18 0
26 305 0 0 16 0
28 303 0 0 18 0
30 309 0 0 18 0
32 290 0 0 20 0
34 295 0 0 19 0
36 279 0 0 18 0
38 270 0 0 22 0
40 257 0 0 16 0
42 245 0 0 16 0
44 241 0 0 13 0
46 243 0 0 14 0
48 251 0 0 11 0
50 234 0 0 12 0
52 232 0 0 17 1
54 234 0 7 13 2
56 228 0 9 9 1
58 237 0 18 8 1
60 213 0 29 16 4
62 207 0 40 13 3
64 188 0 56 10 4
66 188 0 61 7 5
68 165 0 70 13 5
70 153 0 80 14 8
72 142 0 84 7 11
74 138 0 96 8 10
76 139 0 117 7 9
78 128 0 131 6 8
80 126 0 127 4 13
82 124 0 146 1 13
84 112 0 146 4 9
86 111 0 152 5 6
88 110 0 158 5 12
90 94 0 169 7 6
92 87 0 168 6 14
94 85 0 174 4 10
96 78 0 174 4 13
98 66 0 177 6 12
100 62 0 179 4 16
102 51 0 184 4 17
104 47 0 201 2 14
106 45 0 205 1 8
108 46 0 211 0 14
110 41 0 219 1 11
112 40 0 228 1 25
114 32 0 240 2 15
116 30 0 231 1 11
118 28 0 229 2 6
120 27 0 227 1 15
122 25 0 231 0 16
124 22 0 229 1 21
126 19 0 241 2 11
128 18 0 239 3 17
130 19 0 236 2 18
132 17 0 246 2 18
134 16 0 247 1 12
136 14 0 258 3 12
138 16 0 242 1 18
140 15 0 235 1 24
142 15 0 264 0 12
144 12 0 268 0 11
146 10 0 253 0 13
148 10 0 249 0 14
150 10 0 246 1 18
152 11 0 255 1 9
154 8 0 263 0 7
156 5 0 260 0 6
158 5 0 265 0 14
160 5 0 262 0 20
162 4 0 265 0 16
164 4 0 259 0 17
166 2 0 259 1 12
168 4 0 255 0 9
170 4 0 251 0 13
172 4 0 260 0 13
174 4 0 245 0 18
176 1 0 247 1 22
178 0 0 236 0 14
180 0 0 246 0 14
182 0 0 271 0 11
184 1 0 267 0 19
186 1 0 285 0 12
188 1 0 294 0 15
190 0 0 282 0 22
192 0 0 285 0 14
194 0 0 288 0 19
196 0 0 282 0 19
198 0 0 293 0 24
200 0 0 278 0 23
