0 1459 0 0 0 0
2 1435 4 0 20 0
4.00004 1443 12 0 34 0
6 1450 7 0 29 0
8 1455 13 0 26 0
10 1482 9 0 25 0
12 1475 16 0 16 0
14 1472 18 0 26 0
16 1473 11 0 27 0
18 1489 11 0 15 0
20 1467 9 0 21 0
22 1493 6 0 26 0
24 1488 14 0 19 0
26 1472 13 0 23 0
28 1479 5 0 28 0
30 1475 6 0 16 0
32 1465 10 0 26 0
34 1469 13 0 25 0
36 1493 10 0 19 0
38 1502 6 0 23 0
40 1497 8 0 27 0
42 1514 9 0 20 0
44 1504 12 0 26 0
46 1481 13 0 30 0
48 1478 11 0 19 0
50 1476 9 0 25 0
52 1256 0 230 21 1
54 1101 1 388 20 1
56 961 0 531 17 2
58 828 0 658 15 5
60 759 0 737 15 10
62 667 0 813 17 10
64 597 0 893 12 12
66 535 0 961 12 15
68 475 0 1013 13 15
70 427 0 1056 8 9
72 377 0 1095 11 18
74 359 1 1136 6 11
76 323 0 1162 10 13
78 307 0 1189 7 14
80 278 0 1214 9 20
82 268 1 1232 7 16
84 237 1 1254 9 12
86 223 1 1267 9 26
88 204 0 1296 4 15
90 186 0 1296 4 16
92 164 0 1305 8 24
94 168 0 1301 9 22
96 161 0 1288 10 25
98 153 0 1308 5 23
100 145 0 1333 5 30
102 137 0 1335 4 28
104 130 0 1355 5 22
106 133 0 1368 3 28
108 126 0 1362 2 24
110 118 0 1358 7 26
112 115 0 1365 1 21
114 98 0 1379 5 19
116 93 0 1381 6 31
118 94 0 1416 1 17
120 90 0 1427 1 21
122 86 0 1432 0 18
124 76 0 1423 2 18
126 68 0 1433 3 20
128 62 0 1428 2 24
130 60 0 1438 3 28
132 52 0 1437 0 35
134 45 0 1445 4 23
136 43 0 1462 1 28
138 36 0 1470 2 24
140 37 0 1474 1 22
142 36 0 1473 0 27
144 30 0 1481 1 30
146 31 0 1478 0 38
148 35 0 1471 0 38
150 33 0 1474 2 31
152 30 0 1463 1 27
154 28 0 1461 1 24
156 24 0 1481 2 30
158 26 0 1477 0 25
160 20 0 1483 1 21
162 22 0 1472 0 28
164 25 0 1475 2 27
166 20 0 1468 1 24
168 19 0 1461 0 23
170 16 0 1460 1 16
172 17 0 1448 1 26
174 13 0 1454 0 27
176 10 0 1469 0 20
178 10 0 1457 0 33
180 11 0 1469 0 25
182 14 0 1433 0 37
184 14 0 1470 0 18
186 15 0 1461 0 29
188 15 0 1459 0 19
190 14 0 1464 0 24
192 14 0 1449 0 28
194 10 0 1439 0 16
196 8 0 1431 2 24
198 6 0 1434 0 21
200 6 0 1415 0 20
