0 406 0 0 0 0
2 377 0 0 22 0
4.00004 387 0 0 27 0
6 383 0 0 24 0
8 388 0 0 21 0
10 387 0 0 18 0
12 393 0 0 30 0
14 391 0 0 25 0
16 381 0 0 23 0
18 369 0 0 22 0
20 378 0 0 29 0
22 384 0 0 24 0
24 383 0 0 19 0
26 371 0 0 22 0
28 354 0 0 23 0
30 363 0 0 17 0
32 369 0 0 21 0
34 367 0 0 16 0
36 370 0 0 26 0
38 380 0 0 17 0
40 367 0 0 24 0
42 369 0 0 20 0
44 386 0 0 18 0
46 365 0 0 24 0
48 380 0 0 22 0
50 374 0 0 21 0
52 376 0 3 20 0
54 358 0 10 21 2
56 350 0 18 15 5
58 351 0 31 20 6
60 343 0 41 16 5
62 313 0 51 15 3
64 298 0 66 25 9
66 306 0 84 16 5
68 292 0 111 13 5
70 268 0 119 15 6
72 271 0 130 6 13
74 247 0 147 16 11
76 228 0 161 14 7
78 219 0 152 5 12
80 217 0 167 4 12
82 202 0 183 7 9
84 190 0 188 14 10
86 180 0 199 7 7
88 169 0 198 8 16
90 148 0 220 9 14
92 153 0 219 2 17
94 138 0 224 8 16
96 130 0 237 6 18
98 119 0 255 5 17
100 111 0 246 6 25
102 109 0 260 6 18
104 113 0 266 3 16
106 94 0 279 7 18
108 84 0 273 3 16
110 82 0 276 0 16
112 79 0 287 5 11
114 71 0 290 1 21
116 64 0 291 5 9
118 60 0 287 1 22
120 49 0 299 5 17
122 51 0 284 2 17
124 49 0 293 1 13
126 44 0 296 1 17
128 37 0 307 1 17
130 40 0 318 3 15
132 38 0 320 0 16
134 33 0 314 2 10
136 32 0 310 1 16
138 29 0 315 2 18
140 29 0 337 3 12
142 29 0 333 2 17
144 29 0 325 1 22
146 28 0 331 1 16
148 18 0 345 2 22
150 21 0 354 1 20
152 20 0 353 1 28
154 20 0 376 2 18
156 20 0 376 1 19
158 17 0 358 1 14
160 19 0 358 0 15
162 15 0 350 0 21
164 13 0 349 0 23
166 11 0 357 1 15
168 9 0 351 0 19
170 9 0 358 0 16
172 12 0 350 0 16
174 12 0 345 0 29
176 12 0 367 0 14
178 12 0 352 0 18
180 11 0 358 0 9
182 11 0 344 0 20
184 8 0 338 2 31
186 8 0 350 0 19
188 8 0 347 0 18
190 5 0 352 0 29
192 4 0 360 0 24
194 3 0 353 0 17
196 4 0 334 0 28
198 4 0 357 0 16
200 4 0 370 0 16
