0 521 0 0 0 0
2 509 0 0 17 0
4.00004 507 0 0 14 0
6 524 0 0 20 0
8 538 0 0 17 0
10 535 0 0 31 0
12 527 0 0 27 0
14 532 0 0 15 0
16 523 0 0 19 0
18 526 0 0 25 0
20 541 0 0 17 0
22 540 0 0 23 0
24 537 0 0 15 0
26 531 0 0 19 0
28 542 0 0 13 0
30 552 0 0 21 0
32 567 0 0 16 0
34 541 0 0 23 0
36 556 0 0 26 0
38 551 0 0 30 0
40 540 0 0 22 0
42 546 0 0 24 0
44 574 0 0 28 0
46 566 0 0 18 0
48 575 0 0 25 0
50 579 0 0 29 0
52 587 0 0 19 0
54 569 0 3 20 1
56 541 0 12 23 3
58 534 0 25 27 3
60 536 0 31 19 5
62 521 0 42 19 2
64 500 0 56 20 3
66 485 0 71 21 1
68 460 0 81 19 5
70 454 0 98 20 9
72 443 0 110 18 9
74 433 0 137 11 5
76 408 0 153 13 12
78 389 0 179 15 6
80 377 0 174 10 11
82 350 0 192 16 9
84 334 0 200 10 9
86 318 0 225 8 10
88 297 0 243 19 10
90 280 0 254 14 12
92 263 0 280 8 12
94 247 0 298 13 11
96 244 0 311 6 11
98 230 0 335 7 17
100 224 0 341 6 19
102 212 0 367 7 13
104 208 0 364 8 25
106 199 0 369 5 13
108 186 0 379 3 12
110 172 0 377 7 20
112 164 0 396 1 17
114 150 0 402 9 15
116 142 0 408 1 23
118 135 0 415 7 14
120 131 0 407 5 25
122 122 0 423 10 13
124 117 0 430 6 20
126 115 0 449 0 17
128 107 0 445 4 20
130 106 0 463 2 19
132 101 0 464 2 13
134 97 0 459 3 19
136 89 0 463 5 25
138 87 0 476 5 19
140 79 0 486 2 20
142 71 0 487 3 14
144 71 0 498 1 16
146 67 0 502 3 18
148 67 0 497 1 26
150 64 0 505 1 31
152 60 0 513 1 21
154 57 0 521 1 13
156 52 0 518 2 24
158 46 0 510 5 22
160 43 0 494 0 24
162 41 0 496 1 26
164 42 0 510 0 35
166 35 0 526 2 16
168 31 0 539 1 23
170 29 0 548 0 21
172 29 0 553 0 24
174 29 0 540 1 32
176 28 0 553 0 11
178 24 0 560 1 26
180 21 0 562 3 22
182 23 0 559 0 25
184 25 0 552 0 24
186 24 0 550 0 17
188 20 0 536 1 20
190 21 0 537 0 20
192 16 0 541 0 25
194 13 0 553 1 23
196 15 0 544 1 23
198 14 0 539 1 17
200 16 0 540 0 17
