0 1601 0 0 0 0
2 1574 7 0 14 0
4.00004 1558 10 0 16 0
6 1546 3 0 24 0
8 1533 14 0 17 0
10 1535 7 0 9 0
12 1541 10 0 17 0
14 1533 9 0 22 0
16 1515 8 0 11 0
18 1522 5 0 13 0
20 1511 4 0 14 0
22 1522 11 0 16 0
24 1518 8 0 22 0
26 1520 9 0 26 0
28 1527 15 0 18 0
30 1548 4 0 14 0
32 1545 6 0 11 0
34 1531 14 0 22 0
36 1550 7 0 13 0
38 1536 8 0 22 0
40 1551 4 0 17 0
42 1530 8 0 29 0
44 1546 7 0 15 0
46 1534 7 0 17 0
48 1524 10 0 20 0
50 1522 13 0 16 0
52 1287 0 230 23 1
54 1141 1 374 20 2
56 1014 1 488 18 3
58 925 1 583 14 7
60 821 1 686 9 3
62 750 0 768 15 6
64 691 0 832 16 5
66 634 0 883 3 8
68 581 0 937 10 6
70 524 2 982 13 11
72 481 1 1032 8 9
74 448 0 1071 7 8
76 412 0 1103 8 7
78 378 1 1126 7 8
80 352 0 1166 2 4
82 312 1 1204 9 6
84 299 0 1227 4 6
86 275 0 1234 4 12
88 254 0 1257 5 11
90 235 0 1274 4 7
92 230 0 1281 5 13
94 210 0 1297 4 7
96 195 0 1301 4 15
98 192 0 1310 5 10
100 190 0 1307 2 11
102 182 0 1326 5 13
104 173 1 1345 3 13
106 163 1 1350 3 13
108 154 0 1358 6 18
110 143 0 1372 5 14
112 136 0 1382 6 14
114 136 0 1378 5 21
116 128 0 1393 5 13
118 128 0 1408 2 21
120 120 0 1416 2 9
122 114 0 1418 3 16
124 111 0 1424 4 10
126 103 1 1444 0 12
128 92 0 1450 1 19
130 91 0 1458 0 11
132 81 0 1453 0 10
134 79 0 1463 2 7
136 74 0 1461 1 18
138 63 0 1475 0 16
140 53 0 1478 2 16
142 43 0 1479 2 17
144 46 0 1472 1 17
146 47 0 1476 1 8
148 48 0 1462 2 14
150 48 0 1464 0 12
152 48 1 1458 0 16
154 44 0 1478 0 14
156 46 0 1475 0 14
158 45 0 1485 0 13
160 40 0 1471 2 16
162 37 0 1474 0 14
164 33 0 1463 1 17
166 34 0 1457 0 25
168 33 0 1466 1 18
170 29 0 1469 1 20
172 30 0 1465 0 16
174 29 0 1466 1 17
176 26 0 1451 0 22
178 25 0 1455 0 19
180 27 0 1467 0 16
182 23 0 1480 1 18
184 23 0 1482 1 17
186 25 0 1478 1 11
188 23 0 1479 0 21
190 20 0 1492 0 17
192 18 0 1507 0 12
194 17 0 1513 1 15
196 14 0 1506 2 21
198 13 0 1503 1 7
200 14 0 1502 0 15
