0 1591 0 0 0 0
2 1542 8 0 26 0
4.00004 1548 8 0 21 0
6 1549 8 0 22 0
8 1546 14 0 24 0
10 1556 8 0 15 0
12 1558 12 0 18 0
14 1546 14 0 26 0
16 1548 11 0 21 0
18 1535 11 0 32 0
20 1533 6 0 23 0
22 1531 6 0 14 0
24 1516 10 0 30 0
26 1537 9 0 18 0
28 1525 11 0 34 0
30 1519 5 0 30 0
32 1525 8 0 29 0
34 1518 11 0 20 0
36 1503 10 0 24 0
38 1501 4 0 19 0
40 1495 8 0 34 0
42 1499 7 0 27 0
44 1492 13 0 29 0
46 1473 15 0 30 0
48 1482 11 0 21 0
50 1475 8 0 36 0
52 1281 1 219 17 1
54 1138 0 361 20 2
56 989 0 507 24 4
58 878 2 627 9 5
60 806 0 712 13 6
62 689 0 813 15 13
64 603 0 891 12 14
66 565 0 925 18 9
68 547 0 936 13 17
70 497 0 998 14 15
72 453 0 1034 13 11
74 419 0 1067 12 13
76 390 0 1080 12 16
78 359 0 1119 11 12
80 344 0 1122 10 20
82 323 0 1153 8 22
84 305 1 1184 7 16
86 271 1 1216 6 21
88 264 0 1254 8 13
90 230 0 1278 7 23
92 202 0 1323 4 16
94 195 0 1319 3 20
96 188 1 1333 2 13
98 179 0 1327 6 17
100 170 0 1349 8 19
102 161 0 1366 7 17
104 158 0 1373 6 25
106 153 0 1388 8 17
108 139 0 1402 5 19
110 131 0 1400 4 19
112 119 0 1417 6 25
114 102 0 1423 6 17
116 98 0 1425 3 19
118 95 0 1419 8 21
120 86 0 1428 4 19
122 78 0 1418 1 18
124 69 0 1435 1 18
126 66 0 1437 2 26
128 60 0 1441 1 22
130 58 0 1439 2 33
132 52 0 1445 2 30
134 52 0 1448 1 26
136 49 0 1450 2 30
138 51 0 1452 3 34
140 55 0 1447 1 21
142 51 0 1455 3 24
144 43 0 1466 2 27
146 39 0 1470 2 23
148 39 0 1444 2 29
150 33 0 1436 2 25
152 25 0 1421 1 39
154 25 0 1415 0 18
156 29 0 1417 1 34
158 31 0 1420 3 27
160 33 0 1422 0 25
162 31 0 1446 1 21
164 27 0 1434 2 34
166 26 0 1453 1 21
168 25 0 1477 0 19
170 20 0 1481 2 27
172 25 0 1489 0 23
174 23 0 1483 0 28
176 23 0 1483 1 23
178 16 0 1476 3 33
180 14 0 1479 0 27
182 17 0 1500 0 19
184 19 0 1494 1 24
186 18 0 1502 2 18
188 19 0 1489 2 27
190 18 0 1477 1 31
192 17 0 1489 1 29
194 17 0 1492 0 26
196 15 0 1497 0 26
198 12 0 1496 0 27
200 11 0 1500 1 29
