0 1076 0 0 0 0 0
2 1039 29 0 4 0 0
4.00004 1038 31 0 2 0 0
6 1039 35 0 2 0 0
8 1036 25 0 3 0 0
10 1030 34 0 6 0 0
12 1025 46 0 5 0 0
14 1029 41 0 5 0 0
16 1035 37 0 4 0 0
18 1041 40 0 6 0 0
20 1024 52 0 6 0 0
22 1029 37 0 2 0 0
24 1024 44 0 4 0 0
26 1032 44 0 2 0 0
28 1039 36 0 8 0 0
30 1034 37 0 0 0 0
32 1016 49 0 8 0 0
34 1016 50 0 5 0 0
36 1013 51 0 6 0 0
38 1016 41 0 3 0 0
40 1018 41 0 4 0 0
42 1009 50 0 8 0 0
44 1019 36 0 4 0 0
46 1014 39 0 3 0 0
48 1004 41 0 2 0 0
50 995 48 0 3 0 0
52 905 0 126 0 4 0
54 860 0 178 0 2 0
56 817 0 226 0 3 0
58 781 0 264 0 4 0
60 745 0 299 1 2 0
62 702 0 344 1 1 0
64 670 0 382 1 3 0
66 638 0 415 1 5 0
68 613 0 443 0 2 0
70 584 0 467 0 4 0
72 549 0 496 2 4 0
74 521 0 532 2 1 0
76 494 0 552 1 4 0
78 466 0 575 0 4 0
80 450 0 597 0 2 0
82 427 0 616 0 1 0
84 409 0 629 1 2 0
86 386 0 641 2 5 0
88 362 0 664 0 2 0
90 348 0 671 0 3 0
92 334 0 684 1 2 0
94 324 0 696 0 1 0
96 307 0 714 1 7 0
98 291 0 734 1 2 0
100 276 0 757 0 6 0
102 263 0 771 1 1 0
104 254 0 768 2 5 0
106 242 0 783 0 3 0
108 230 0 785 0 9 0
110 221 0 805 0 2 0
112 216 0 812 0 4 0
114 208 0 823 0 2 0
116 198 0 831 0 4 0
118 185 0 849 1 6 0
120 173 0 856 1 2 0
122 166 0 860 0 5 0
124 157 0 861 1 3 0
126 149 0 872 0 0 0
128 143 0 872 0 5 0
130 138 0 878 0 1 0
132 133 0 885 0 1 0
134 128 0 885 1 2 0
136 120 0 891 0 2 0
138 117 0 898 0 1 0
140 114 0 899 0 2 0
142 110 0 907 1 2 0
144 105 0 909 2 3 0
146 99 0 916 0 2 0
148 94 0 911 0 6 0
150 90 0 919 1 1 0
152 85 0 927 1 2 0
154 82 0 933 0 3 0
156 76 0 939 0 1 0
158 74 0 936 0 5 0
160 71 0 943 1 4 0
162 65 0 959 2 2 0
164 62 0 960 0 2 0
166 59 0 965 0 3 0
168 56 0 965 0 2 0
170 53 0 966 0 5 0
172 52 0 968 0 5 0
174 50 0 970 1 2 0
176 48 0 959 1 3 0
178 44 0 964 1 1 0
180 42 0 963 0 2 0
182 41 0 966 0 4 0
184 38 0 970 0 4 0
186 35 0 968 1 4 0
188 34 0 967 0 2 0
190 33 0 971 0 2 0
192 32 0 967 0 6 0
194 29 0 972 0 0 0
196 29 0 968 0 6 0
198 28 0 975 1 1 0
200 27 0 977 0 2 0
