0 1203 0 0 0 0 0
2 1162 37 0 3 0 0
4.00004 1166 34 0 4 0 0
6 1155 60 0 2 0 0
8 1163 60 0 3 0 0
10 1167 48 0 4 0 0
12 1155 54 0 4 0 0
14 1174 52 0 1 0 0
16 1164 61 0 6 0 0
18 1175 50 0 3 0 0
20 1167 67 0 6 0 0
22 1178 54 0 4 0 0
24 1192 46 0 2 0 0
26 1197 45 0 5 0 0
28 1178 47 0 6 0 0
30 1167 59 0 3 0 0
32 1184 36 0 2 0 0
34 1170 47 0 4 0 0
36 1171 53 0 4 0 0
38 1178 48 0 3 0 0
40 1169 47 0 4 0 0
42 1155 58 0 2 0 0
44 1151 61 0 9 0 0
46 1148 57 0 7 0 0
48 1165 45 0 3 0 0
50 1167 45 0 5 0 0
52 1040 0 175 0 3 0
54 975 0 229 1 4 0
56 922 0 277 1 3 0
58 877 0 315 0 4 0
60 834 0 355 0 5 0
62 802 0 386 0 3 0
64 764 1 421 2 5 0
66 724 0 463 0 6 0
68 694 1 493 0 0 0
70 656 0 528 0 5 0
72 617 1 561 1 4 0
74 591 0 591 1 1 0
76 552 0 621 0 6 0
78 521 0 657 1 7 0
80 496 0 680 0 3 0
82 473 0 698 0 5 0
84 447 1 725 1 4 0
86 419 0 743 2 6 0
88 402 0 765 0 3 0
90 391 0 782 1 3 0
92 366 0 798 1 1 0
94 346 0 810 1 4 0
96 330 0 815 2 6 0
98 301 0 846 1 5 0
100 290 0 861 0 4 0
102 281 0 877 0 3 0
104 270 1 890 0 1 0
106 259 0 907 0 6 0
108 244 0 933 0 1 0
110 234 0 940 1 4 0
112 227 0 945 0 3 0
114 217 0 963 2 3 0
116 204 0 983 1 2 0
118 193 0 993 0 3 0
120 180 0 1011 0 4 0
122 170 0 1027 0 4 0
124 163 0 1039 0 2 0
126 158 0 1040 0 8 0
128 147 0 1046 1 4 0
130 133 0 1061 0 8 0
132 129 0 1059 0 1 0
134 123 0 1072 1 3 0
136 120 0 1070 0 4 0
138 111 0 1076 1 7 0
140 104 0 1091 0 3 0
142 102 0 1082 2 4 0
144 95 0 1086 0 5 0
146 91 0 1092 0 0 0
148 86 0 1094 0 4 0
150 82 0 1099 0 5 0
152 75 0 1099 0 2 0
154 73 0 1102 0 2 0
156 72 0 1109 0 3 0
158 67 0 1112 1 6 0
160 62 0 1124 0 3 0
162 60 0 1125 0 4 0
164 60 0 1121 1 1 0
166 57 0 1123 0 5 0
168 53 0 1132 1 5 0
170 49 0 1145 0 5 0
172 46 1 1154 0 7 0
174 44 0 1156 0 3 0
176 42 0 1150 0 6 0
178 41 0 1153 0 3 0
180 40 0 1144 1 6 0
182 37 0 1149 0 3 0
184 37 0 1144 0 2 0
186 36 0 1141 0 0 0
188 35 0 1145 0 5 0
190 32 0 1148 1 5 0
192 32 0 1157 2 3 0
194 32 0 1155 0 6 0
196 30 0 1151 0 7 0
198 30 0 1155 0 3 0
200 29 0 1147 1 3 0
