0 976 0 0 0 0 0
2 973 0 0 4 0 0
4.00004 972 0 0 3 0 0
6 974 0 0 4 0 0
8 971 0 0 3 0 0
10 972 0 0 5 0 0
12 978 0 0 2 0 0
14 983 0 0 7 0 0
16 982 0 0 2 0 0
18 979 0 0 3 0 0
20 979 0 0 5 0 0
22 975 0 0 3 0 0
24 974 0 0 5 0 0
26 981 0 0 1 0 0
28 975 0 0 5 0 0
30 974 0 0 4 0 0
32 980 0 0 2 0 0
34 982 0 0 1 0 0
36 978 0 0 1 0 0
38 977 0 0 2 0 0
40 971 0 0 3 0 0
42 975 0 0 3 0 0
44 969 0 0 3 0 0
46 974 0 0 2 0 0
48 974 0 0 1 0 0
50 978 0 0 2 0 0
52 969 0 6 2 0 0
54 960 0 20 2 2 0
56 949 0 33 1 2 0
58 939 0 45 2 2 0
60 926 0 51 0 2 0
62 913 0 61 4 3 0
64 906 0 73 2 0 0
66 898 0 81 2 1 0
68 892 0 89 1 1 0
70 884 0 94 0 1 0
72 879 0 97 0 1 0
74 870 0 106 3 2 0
76 866 0 116 0 3 0
78 858 0 130 1 3 0
80 853 0 138 2 2 0
82 849 0 144 1 0 0
84 838 0 159 2 1 0
86 833 0 166 1 2 0
88 824 0 186 1 2 0
90 815 0 194 0 2 0
92 808 0 200 0 0 0
94 798 0 205 3 0 0
96 796 0 211 1 2 0
98 793 0 220 0 1 0
100 785 0 228 1 2 0
102 778 0 232 1 1 0
104 773 0 241 0 1 0
106 765 0 249 1 3 0
108 764 0 257 0 2 0
110 753 0 263 3 4 0
112 748 0 270 2 2 0
114 740 0 276 1 1 0
116 731 0 282 2 1 0
118 720 0 294 1 1 0
120 714 0 296 2 2 0
122 712 0 294 0 1 0
124 708 0 306 1 3 0
126 703 0 316 1 3 0
128 697 0 323 1 2 0
130 687 0 327 1 2 0
132 675 0 334 3 2 0
134 668 0 352 1 3 0
136 662 0 359 3 2 0
138 663 0 361 0 0 0
140 658 0 362 0 1 0
142 648 0 370 2 2 0
144 646 0 376 0 1 0
146 643 0 380 1 0 0
148 640 0 388 0 3 0
150 636 0 388 1 4 0
152 628 0 391 1 2 0
154 620 0 398 1 9 0
156 615 0 407 1 2 0
158 609 0 414 1 1 0
160 600 0 426 2 2 0
162 596 0 435 1 1 0
164 591 0 437 2 6 0
166 587 0 443 1 2 0
168 581 0 456 1 2 0
170 571 0 461 1 3 0
172 565 0 474 0 2 0
174 564 0 484 0 1 0
176 558 0 488 0 5 0
178 553 0 491 1 4 0
180 547 0 499 1 1 0
182 543 0 508 1 2 0
184 540 0 513 0 2 0
186 533 0 519 0 1 0
188 530 0 533 1 1 0
190 527 0 538 0 1 0
192 522 0 540 0 0 0
194 515 0 543 1 4 0
196 512 0 547 2 1 0
198 507 0 548 1 0 0
200 504 0 555 0 1 0
