0 1182 0 0 0 0 0
2 1147 30 0 0 0 3
4.00004 1141 35 0 1 0 1
6 1151 24 0 2 0 0
8 1138 31 0 5 0 0
10 1130 34 0 6 0 0
12 1124 38 0 4 0 1
14 1129 36 0 4 0 0
16 1126 40 0 2 0 1
18 1125 40 0 3 0 0
20 1133 38 0 3 0 1
22 1138 29 0 5 0 1
24 1134 27 0 3 0 0
26 1123 44 0 2 0 1
28 1133 33 0 1 0 1
30 1144 20 0 1 0 1
32 1132 34 0 2 0 1
34 1135 30 0 3 0 2
36 1127 43 0 1 0 0
38 1141 24 0 2 0 0
40 1137 26 0 5 0 0
42 1135 32 0 3 0 0
44 1142 26 0 3 0 0
46 1134 37 0 3 0 0
48 1130 37 0 5 0 1
50 1129 31 0 2 0 1
52 1036 0 115 1 1 0
54 991 0 165 0 1 0
56 936 1 210 0 3 0
58 889 0 254 2 4 0
60 837 1 308 0 4 0
62 784 0 359 0 3 0
64 738 0 402 0 3 0
66 709 0 429 0 4 0
68 677 1 464 0 3 0
70 644 0 500 1 6 0
72 613 0 528 0 2 0
74 589 0 545 0 2 0
76 554 0 583 2 2 0
78 531 0 609 1 2 0
80 505 0 633 0 3 0
82 474 0 665 0 1 0
84 458 0 684 0 1 0
86 432 0 703 0 2 0
88 408 0 726 0 3 0
90 388 0 751 1 4 0
92 361 0 780 1 2 0
94 348 0 786 0 4 0
96 331 0 806 0 2 0
98 316 0 813 1 2 0
100 303 0 821 1 5 0
102 284 0 838 1 2 0
104 274 0 844 1 2 0
106 264 0 839 1 3 0
108 248 0 852 1 2 0
110 239 0 866 1 2 0
112 228 0 883 1 1 0
114 221 0 889 0 4 0
116 212 0 904 0 2 0
118 199 1 916 1 3 0
120 188 0 933 0 4 0
122 182 0 940 1 0 0
124 181 0 940 2 3 0
126 170 0 952 1 3 0
128 158 0 968 0 3 0
130 155 0 972 0 3 0
132 148 0 978 1 0 0
134 142 0 982 0 1 0
136 134 0 997 0 3 0
138 125 0 1010 1 2 0
140 119 1 1014 0 2 0
142 113 0 1023 0 2 0
144 110 0 1027 0 3 0
146 106 0 1024 0 0 0
148 101 0 1029 1 1 0
150 96 0 1037 0 0 0
152 94 0 1044 0 3 0
154 90 0 1053 2 1 0
156 84 0 1055 1 3 0
158 81 0 1057 0 5 0
160 81 0 1056 0 5 0
162 76 0 1061 0 0 0
164 72 0 1070 1 4 0
166 70 0 1072 0 4 0
168 66 0 1077 0 3 0
170 63 0 1078 1 3 0
172 60 0 1079 0 4 0
174 59 0 1081 0 1 0
176 55 0 1065 0 7 0
178 55 0 1069 1 4 0
180 52 0 1071 0 4 0
182 52 0 1073 0 4 0
184 51 0 1073 0 2 0
186 47 0 1078 0 3 0
188 45 0 1078 0 5 0
190 44 0 1076 0 2 0
192 42 0 1082 0 1 0
194 39 0 1086 0 3 0
196 39 0 1080 0 5 0
198 37 0 1086 0 3 0
200 37 0 1080 0 7 0
