0 1181 0 0 0 0 0
2 1145 33 0 3 0 0
4.00004 1147 35 0 6 0 0
6 1150 33 0 1 0 0
8 1146 35 0 1 0 0
10 1152 26 0 1 0 0
12 1143 39 0 1 0 0
14 1154 28 0 1 0 0
16 1152 31 0 5 0 0
18 1156 29 0 3 0 0
20 1165 31 0 1 0 0
22 1151 41 0 2 0 0
24 1142 44 0 2 0 0
26 1149 41 0 1 0 0
28 1157 32 0 3 0 0
30 1158 30 0 3 0 0
32 1146 45 0 4 0 0
34 1139 48 0 4 0 0
36 1151 36 0 8 0 0
38 1158 35 0 2 0 0
40 1149 29 0 6 0 0
42 1135 38 0 4 0 0
44 1128 43 0 4 0 0
46 1138 38 0 2 0 0
48 1137 33 0 5 0 0
50 1137 37 0 2 0 0
52 1048 0 131 0 2 0
54 1014 0 170 0 0 0
56 985 0 197 0 2 0
58 953 0 232 1 1 0
60 912 0 275 0 2 0
62 879 0 312 0 3 0
64 856 0 341 1 2 0
66 823 0 372 0 5 0
68 802 0 396 0 2 0
70 772 0 419 0 1 0
72 746 0 440 2 0 0
74 721 0 461 1 2 0
76 694 0 495 0 0 0
78 664 0 524 1 5 0
80 637 0 549 0 1 0
82 624 0 561 0 1 0
84 604 0 582 0 1 0
86 586 0 595 0 4 0
88 569 0 622 1 4 0
90 552 0 646 1 0 0
92 535 0 669 0 0 0
94 520 0 680 0 1 0
96 502 0 700 0 1 0
98 483 0 712 0 4 0
100 472 0 720 1 3 0
102 456 0 734 1 3 0
104 439 0 754 1 2 0
106 421 0 776 0 2 0
108 406 0 787 0 3 0
110 385 0 814 1 1 0
112 371 0 832 0 0 0
114 363 0 830 1 6 0
116 354 0 847 2 0 0
118 339 0 861 2 6 0
120 330 0 878 0 2 0
122 321 0 888 0 0 0
124 312 1 895 0 3 0
126 303 0 907 0 2 0
128 290 0 917 1 2 0
130 281 0 933 2 1 0
132 274 0 937 0 4 0
134 268 0 941 1 2 0
136 260 0 954 1 2 0
138 252 0 964 0 0 0
140 242 1 970 0 0 0
142 232 0 980 0 3 0
144 226 0 981 1 1 0
146 222 0 990 0 4 0
148 212 0 999 0 4 0
150 207 0 1002 0 4 0
152 203 0 1013 1 1 0
154 199 0 1011 1 3 0
156 190 0 1025 0 4 0
158 184 0 1033 0 3 0
160 175 0 1044 0 2 0
162 169 0 1047 0 4 0
164 161 0 1049 0 4 0
166 158 0 1053 0 2 0
168 153 0 1051 1 1 0
170 151 0 1049 0 0 0
172 143 0 1057 0 7 0
174 138 1 1062 0 2 0
176 138 0 1067 0 2 0
178 133 0 1071 0 1 0
180 129 0 1072 1 3 0
182 128 0 1081 0 2 0
184 123 1 1082 2 3 0
186 115 0 1098 0 3 0
188 112 0 1105 0 5 0
190 108 0 1101 0 6 0
192 107 0 1101 0 0 0
194 102 0 1105 0 2 0
196 98 0 1109 1 5 0
198 92 0 1119 0 3 0
200 91 0 1124 0 2 0
