0 1031 0 0 0 0 0
2 1022 0 0 10 0 0
4.00004 1030 0 0 3 0 0
6 1033 0 0 2 0 0
8 1038 0 0 2 0 0
10 1032 0 0 2 0 0
12 1024 0 0 3 0 0
14 1021 0 0 5 0 0
16 1013 0 0 8 0 0
18 1020 0 0 3 0 0
20 1022 0 0 6 0 0
22 1022 0 0 4 0 0
24 1022 0 0 1 0 0
26 1016 0 0 5 0 0
28 1020 0 0 2 0 0
30 1017 0 0 2 0 0
32 1011 0 0 5 0 0
34 1023 0 0 3 0 0
36 1012 0 0 7 0 0
38 1009 0 0 4 0 0
40 1011 0 0 2 0 0
42 1018 0 0 1 0 0
44 1025 0 0 2 0 0
46 1024 0 0 4 0 0
48 1023 0 0 2 0 0
50 1019 0 0 4 0 0
52 1016 0 11 3 1 0
54 1007 0 25 1 0 0
56 989 0 40 1 2 0
58 982 0 58 2 2 0
60 972 0 72 1 2 0
62 959 0 90 2 0 0
64 951 0 100 3 1 0
66 940 0 118 2 2 0
68 934 0 137 2 1 0
70 922 0 148 1 2 0
72 915 0 157 1 2 0
74 910 0 167 2 1 0
76 899 0 172 3 1 0
78 888 0 182 1 2 0
80 880 0 192 0 1 0
82 865 0 207 2 3 0
84 856 0 222 2 1 0
86 851 0 229 0 4 0
88 837 0 243 1 2 0
90 827 0 255 1 0 0
92 818 0 255 2 2 0
94 805 0 253 1 3 0
96 795 0 266 1 5 0
98 789 0 276 1 2 0
100 783 0 281 2 3 0
102 771 0 294 2 2 0
104 764 0 299 4 2 0
106 756 0 307 1 0 0
108 749 0 312 2 2 0
110 739 0 319 1 3 0
112 727 0 332 1 1 0
114 721 0 339 0 2 0
116 706 0 341 1 1 0
118 703 0 343 0 0 0
120 692 0 348 1 2 0
122 687 0 352 0 3 0
124 680 0 365 0 1 0
126 672 0 368 4 3 0
128 666 0 368 4 5 0
130 655 0 375 3 5 0
132 651 0 386 1 2 0
134 641 0 400 3 2 0
136 631 0 408 2 2 0
138 629 0 408 0 3 0
140 625 0 417 1 2 0
142 616 0 426 3 2 0
144 606 0 435 0 2 0
146 601 0 443 0 0 0
148 590 0 446 5 4 0
150 582 0 452 0 4 0
152 578 0 466 0 2 0
154 573 0 469 2 2 0
156 566 0 471 2 3 0
158 558 0 471 0 1 0
160 551 0 479 1 4 0
162 542 0 482 1 1 0
164 537 0 489 2 1 0
166 532 0 490 0 1 0
168 525 0 496 2 7 0
170 519 0 504 0 7 0
172 510 0 517 1 3 0
174 505 0 515 3 2 0
176 505 0 523 1 5 0
178 502 0 523 0 4 0
180 495 0 528 0 5 0
182 489 0 534 1 3 0
184 483 0 544 1 4 0
186 479 0 556 1 4 0
188 474 0 556 1 0 0
190 465 0 555 3 6 0
192 461 0 562 3 4 0
194 458 0 576 0 2 0
196 453 0 587 1 4 0
198 451 0 590 1 3 0
200 445 0 598 3 6 0
