0 733 0 0 0 0 0
2 712 0 0 31 0 0
4.00004 707 0 0 33 0 0
6 707 0 0 34 0 0
8 707 0 0 35 0 0
10 714 0 0 29 0 0
12 718 0 0 32 0 0
14 718 0 0 40 0 0
16 720 0 0 37 0 0
18 726 0 0 30 0 0
20 718 0 0 42 0 0
22 730 0 0 41 0 0
24 718 0 0 47 0 0
26 729 0 0 44 0 0
28 720 0 0 49 0 0
30 725 0 0 43 0 0
32 724 0 0 44 0 0
34 726 0 0 37 0 0
36 723 0 0 51 0 0
38 725 0 0 48 0 0
40 730 0 0 44 0 0
42 733 0 0 46 0 0
44 734 0 0 44 0 0
46 737 0 0 41 0 0
48 739 0 0 34 0 0
50 736 0 0 49 0 0
52 734 0 3 26 17 0
54 732 0 8 22 21 0
56 723 0 16 23 19 0
58 709 0 24 27 25 0
60 706 0 31 19 20 0
62 687 0 43 22 32 0
64 672 0 60 28 26 0
66 674 0 72 18 25 0
68 655 0 84 27 29 0
70 653 0 93 19 25 0
72 645 0 105 22 33 0
74 644 0 114 13 23 0
76 633 0 124 18 28 0
78 618 0 133 22 21 0
80 612 0 141 20 26 0
82 603 0 152 21 28 0
84 605 0 158 16 25 0
86 603 0 166 13 23 0
88 595 0 174 18 23 0
90 584 0 185 16 28 0
92 580 0 194 12 28 0
94 573 0 204 15 24 0
96 563 0 212 19 24 0
98 551 0 219 23 21 0
100 552 0 221 14 36 0
102 545 0 225 17 36 0
104 537 0 233 22 31 0
106 536 0 245 14 32 0
108 528 0 256 14 19 0
110 519 0 259 17 28 0
112 512 0 264 19 39 0
114 499 0 275 18 48 0
116 489 0 280 18 47 0
118 481 0 288 18 60 0
120 472 0 304 18 43 0
122 469 0 311 15 39 0
124 455 0 320 20 42 0
126 452 0 326 14 44 0
128 439 0 340 18 25 0
130 442 0 337 13 35 0
132 428 0 338 22 37 0
134 426 0 349 12 34 0
136 427 0 349 5 36 0
138 422 0 358 7 36 0
140 410 0 373 13 29 0
142 396 0 381 18 37 0
144 395 0 382 13 38 0
146 393 0 397 10 28 0
148 393 0 392 5 32 0
150 389 0 399 3 41 0
152 379 0 403 12 31 0
154 376 0 404 8 39 0
156 373 0 406 9 39 0
158 367 0 415 11 46 0
160 362 0 424 10 40 0
162 355 0 427 10 45 0
164 357 0 437 4 44 0
166 344 0 446 13 36 0
168 339 0 456 13 28 0
170 336 0 455 10 37 0
172 334 0 462 10 44 0
174 329 0 467 12 49 0
176 323 0 487 14 30 0
178 321 0 478 13 39 0
180 324 0 485 9 37 0
182 323 0 494 7 42 0
184 318 0 501 7 44 0
186 314 0 500 9 46 0
188 307 0 497 10 47 0
190 308 0 508 7 36 0
192 302 0 515 8 36 0
194 297 0 512 9 36 0
196 285 0 533 13 30 0
198 280 0 532 11 41 0
200 277 0 538 9 39 0
