0 843 0 0 0 0 0
2 821 0 0 34 0 0
4.00004 813 0 0 31 0 0
6 798 0 0 46 0 0
8 793 0 0 52 0 0
10 794 0 0 47 0 0
12 803 0 0 42 0 0
14 794 0 0 57 0 0
16 793 0 0 54 0 0
18 795 0 0 47 0 0
20 800 0 0 46 0 0
22 790 0 0 57 0 0
24 800 0 0 51 0 0
26 800 0 0 50 0 0
28 807 0 0 46 0 0
30 802 0 0 59 0 0
32 799 0 0 65 0 0
34 803 0 0 54 0 0
36 813 0 0 44 0 0
38 814 0 0 45 0 0
40 808 0 0 52 0 0
42 815 0 0 44 0 0
44 813 0 0 50 0 0
46 801 0 0 59 0 0
48 806 0 0 61 0 0
50 809 0 0 61 0 0
52 801 0 1 50 21 0
54 802 0 3 38 27 0
56 783 0 13 46 25 0
58 781 0 26 35 19 0
60 780 0 30 24 28 0
62 764 0 36 35 36 0
64 754 0 36 39 31 0
66 752 0 42 33 32 0
68 758 0 46 23 27 0
70 756 0 52 23 30 0
72 742 0 58 34 30 0
74 741 0 62 32 22 0
76 747 0 66 21 29 0
78 736 0 70 30 26 0
80 729 0 74 30 23 0
82 728 0 78 22 27 0
84 721 0 86 25 32 0
86 719 0 87 24 30 0
88 712 0 96 27 24 0
90 711 0 99 24 27 0
92 709 0 101 20 27 0
94 705 0 106 20 26 0
96 695 0 115 22 29 0
98 683 0 118 29 36 0
100 676 0 125 28 30 0
102 674 0 132 25 25 0
104 670 0 131 23 31 0
106 660 0 132 29 33 0
108 655 0 138 27 27 0
110 650 0 136 27 38 0
112 651 0 145 20 38 0
114 648 0 150 17 40 0
116 639 0 153 22 41 0
118 640 0 160 17 38 0
120 630 0 166 24 30 0
122 627 0 170 25 27 0
124 611 0 172 37 27 0
126 613 0 175 25 34 0
128 606 0 179 26 35 0
130 605 0 181 25 36 0
132 604 0 187 19 30 0
134 597 0 192 18 29 0
136 594 0 193 16 33 0
138 590 0 196 19 30 0
140 594 0 200 10 31 0
142 592 0 204 9 35 0
144 580 0 208 19 32 0
146 581 0 217 14 30 0
148 575 0 220 18 27 0
150 574 0 224 16 33 0
152 565 0 230 20 35 0
154 559 0 234 24 34 0
156 562 0 242 18 28 0
158 562 0 241 14 28 0
160 563 0 243 12 33 0
162 562 0 252 9 28 0
164 553 0 258 17 29 0
166 556 0 257 11 34 0
168 549 0 260 17 33 0
170 542 0 267 19 35 0
172 539 0 267 18 33 0
174 543 0 269 10 35 0
176 535 0 277 17 32 0
178 530 0 276 20 41 0
180 525 0 275 22 43 0
182 527 0 279 16 37 0
184 522 0 281 16 41 0
186 516 0 280 21 49 0
188 520 0 289 14 56 0
190 519 0 296 12 41 0
192 513 0 299 14 48 0
194 509 0 305 17 44 0
196 504 0 311 20 39 0
198 495 0 315 25 35 0
200 495 0 317 24 37 0
