0 924 0 0 0 0 0
2 890 27 0 17 0 0
4.00004 876 17 0 33 0 0
6 870 15 0 39 0 3
8 887 4 0 27 0 6
10 885 3 0 38 0 3
12 877 3 0 43 0 7
14 876 3 0 43 0 5
16 873 0 0 49 0 9
18 869 0 0 48 0 11
20 871 1 0 48 0 14
22 864 1 0 63 0 10
24 874 0 0 46 0 12
26 857 0 0 63 0 18
28 868 0 0 55 0 11
30 863 0 0 58 0 11
32 856 0 0 66 0 14
34 871 0 0 58 0 10
36 865 0 0 62 0 12
38 868 0 0 55 0 16
40 867 0 0 66 0 10
42 863 0 0 63 0 23
44 861 0 0 79 0 12
46 868 0 0 67 0 15
48 873 0 0 66 0 10
50 876 0 0 65 0 10
52 872 0 0 40 35 0
54 876 0 2 27 45 1
56 876 0 4 18 56 0
58 867 0 11 25 57 0
60 854 0 15 36 56 0
62 854 0 22 30 56 0
64 848 0 27 31 65 0
66 851 0 36 24 54 0
68 840 0 39 34 56 0
70 829 0 46 32 58 0
72 829 0 55 23 60 0
74 824 0 59 21 70 0
76 816 0 65 22 64 0
78 809 0 70 23 56 0
80 804 0 78 25 48 0
82 803 0 82 21 53 0
84 788 0 85 29 59 0
86 786 0 90 27 59 0
88 780 0 97 25 62 0
90 776 0 107 28 59 0
92 775 0 113 25 57 0
94 767 0 119 25 52 0
96 761 0 122 27 54 0
98 765 0 128 18 47 0
100 756 0 132 23 44 0
102 753 0 136 19 48 0
104 749 0 142 21 43 0
106 744 0 145 22 49 0
108 739 0 153 20 48 0
110 729 0 166 25 46 0
112 727 0 169 20 49 0
114 716 0 179 23 52 0
116 710 0 188 23 48 0
118 708 0 194 22 44 0
120 707 0 198 15 48 0
122 695 0 205 25 48 0
124 691 0 210 25 49 0
126 685 0 215 24 54 0
128 682 0 221 22 57 1
130 681 0 234 19 48 0
132 673 0 240 22 48 0
134 668 0 245 22 50 0
136 669 0 248 19 50 0
138 662 0 253 24 48 0
140 664 0 258 19 42 0
142 659 0 252 18 61 0
144 652 0 257 22 52 0
146 653 0 265 19 54 0
148 640 0 264 27 54 0
150 640 0 261 21 58 0
152 641 0 259 16 63 0
154 639 0 275 15 48 0
156 636 0 272 14 65 0
158 624 0 270 20 72 1
160 618 0 289 22 56 0
162 610 0 290 24 63 0
164 608 0 298 21 57 0
166 604 0 299 17 64 0
168 602 0 304 14 58 0
170 599 0 307 12 57 0
172 594 0 312 12 61 0
174 584 0 315 18 58 0
176 581 0 319 16 56 0
178 576 0 324 16 57 0
180 569 0 324 16 60 0
182 559 0 321 22 69 0
184 562 0 327 14 64 0
186 555 0 338 19 58 0
188 548 0 344 20 59 0
190 544 0 351 21 56 0
192 550 0 350 12 64 0
194 546 0 351 10 55 0
196 533 0 350 22 63 0
198 533 0 354 16 65 0
200 520 0 362 23 67 0
