0 792 0 0 0 0 0
2 774 0 0 26 0 0
4.00004 771 0 0 28 0 0
6 769 0 0 27 0 0
8 776 0 0 28 0 0
10 779 0 0 27 0 0
12 776 0 0 31 0 0
14 776 0 0 32 0 0
16 775 0 0 33 0 0
18 778 0 0 28 0 0
20 782 0 0 27 0 0
22 777 0 0 37 0 0
24 771 0 0 37 0 0
26 771 0 0 37 0 0
28 768 0 0 38 0 0
30 772 0 0 26 0 0
32 775 0 0 21 0 0
34 782 0 0 19 0 0
36 784 0 0 21 0 0
38 780 0 0 29 0 0
40 778 0 0 35 0 0
42 782 0 0 31 0 0
44 781 0 0 31 0 0
46 771 0 0 49 0 0
48 778 0 0 34 0 0
50 771 0 0 36 0 0
52 773 0 1 17 20 0
54 774 0 9 10 21 0
56 764 0 16 15 13 0
58 756 0 23 17 19 0
60 744 0 32 20 18 0
62 738 0 37 19 22 0
64 733 0 43 17 19 0
66 727 0 50 17 15 0
68 721 0 52 16 22 0
70 714 0 61 17 20 0
72 709 0 69 13 21 0
74 698 0 76 19 24 0
76 692 0 91 18 20 0
78 690 0 105 14 21 0
80 682 0 109 16 24 0
82 681 0 113 11 23 0
84 677 0 120 10 22 0
86 666 0 127 16 28 0
88 659 0 134 14 26 0
90 655 0 146 12 18 0
92 643 0 154 16 13 0
94 640 0 151 13 23 0
96 637 0 157 12 20 0
98 634 0 166 10 20 0
100 629 0 169 9 22 0
102 622 0 176 9 26 0
104 613 0 191 17 15 0
106 604 0 195 21 10 0
108 604 0 200 12 9 0
110 600 0 201 12 15 0
112 596 0 204 14 16 0
114 594 0 210 9 21 0
116 589 0 216 10 18 0
118 579 0 217 14 20 0
120 578 0 228 10 23 0
122 574 0 233 7 17 0
124 574 0 231 7 22 0
126 566 0 242 12 19 0
128 554 0 251 21 17 0
130 547 0 251 19 16 0
132 550 0 252 13 23 0
134 549 0 257 6 16 0
136 541 0 258 10 20 0
138 535 0 268 11 16 0
140 535 0 274 6 17 0
142 521 0 272 15 25 0
144 513 0 272 16 28 0
146 509 0 281 9 25 0
148 502 0 287 13 21 0
150 494 0 292 13 30 0
152 491 0 298 11 25 0
154 488 0 305 7 17 0
156 480 0 304 13 25 0
158 479 0 314 8 23 0
160 479 0 316 6 20 0
162 472 0 312 10 26 0
164 468 0 317 8 32 0
166 465 0 331 5 24 0
168 454 0 332 14 25 0
170 451 0 336 12 19 0
172 447 0 337 9 23 0
174 440 0 344 12 19 0
176 444 0 345 6 27 0
178 434 0 355 12 25 0
180 436 0 356 6 27 0
182 432 0 363 8 23 0
184 429 0 363 6 30 0
186 425 0 376 10 15 0
188 416 0 378 17 19 0
190 417 0 374 8 25 0
192 412 0 372 9 28 0
194 407 0 381 8 28 0
196 406 0 386 7 24 0
198 398 0 394 11 18 0
200 392 0 395 11 23 0
