0 1103 0 0 0 0 0
2 1065 14 0 23 0 1
4.00004 1056 8 0 33 0 6
6 1050 5 0 38 0 11
8 1050 2 0 35 0 11
10 1045 0 0 44 0 9
12 1042 0 0 37 0 15
14 1044 0 0 41 0 7
16 1041 0 0 43 0 9
18 1049 0 0 30 0 14
20 1050 0 0 35 0 12
22 1045 0 0 32 0 16
24 1049 0 0 38 0 11
26 1042 0 0 49 0 12
28 1041 0 0 43 0 18
30 1040 0 0 52 0 12
32 1036 0 0 45 0 19
34 1041 0 0 38 0 11
36 1041 0 0 37 0 15
38 1043 0 0 38 0 7
40 1036 0 0 51 0 6
42 1050 0 0 34 0 12
44 1052 0 0 32 0 6
46 1055 0 0 28 0 11
48 1045 0 0 40 0 8
50 1052 0 0 37 0 13
52 1040 0 2 20 32 0
54 1029 0 7 23 38 0
56 1019 0 13 25 37 0
58 1019 0 20 13 44 0
60 1001 0 32 25 41 0
62 1004 0 43 16 34 0
64 992 0 46 16 41 0
66 983 0 57 21 38 0
68 979 0 66 13 41 0
70 967 0 71 19 41 0
72 969 0 81 15 33 0
74 957 0 90 18 31 0
76 947 0 98 19 40 0
78 934 0 110 28 31 0
80 936 0 115 16 35 0
82 923 0 120 20 41 0
84 919 0 129 19 34 0
86 908 0 133 25 33 1
88 902 0 141 21 43 0
90 898 0 146 19 45 0
92 894 0 152 15 47 0
94 883 0 160 17 38 0
96 881 0 166 14 28 0
98 864 0 173 24 31 0
100 864 0 178 13 39 1
102 849 0 182 22 41 0
104 847 0 187 15 44 0
106 838 0 192 21 42 0
108 838 0 198 13 36 0
110 826 0 199 16 46 0
112 826 0 208 8 45 0
114 819 0 222 11 34 0
116 811 0 225 11 42 0
118 804 0 233 12 33 0
120 796 0 239 10 44 0
122 791 0 245 13 39 0
124 780 0 246 17 49 0
126 780 0 248 13 48 0
128 773 0 256 16 43 0
130 776 0 259 10 44 0
132 764 0 262 15 52 0
134 761 0 272 9 41 0
136 758 0 281 8 36 0
138 754 0 287 10 32 0
140 748 0 289 13 40 0
142 740 0 294 18 35 0
144 740 0 295 15 40 0
146 736 0 299 8 45 0
148 725 0 304 18 37 0
150 720 0 305 13 45 0
152 720 0 314 6 40 0
154 715 0 311 7 48 0
156 708 0 322 10 40 0
158 696 0 328 17 47 0
160 697 0 334 10 45 0
162 693 0 335 7 39 0
164 688 0 338 10 45 0
166 683 0 347 9 42 0
168 682 0 351 8 37 0
170 676 0 350 14 43 0
172 674 0 361 10 36 0
174 670 0 365 9 39 0
176 665 0 372 12 33 0
178 661 0 372 11 40 0
180 656 0 376 14 44 0
182 649 0 388 15 41 0
184 648 0 395 9 46 0
186 643 0 402 9 44 0
188 636 0 405 12 44 0
190 632 0 406 12 49 0
192 624 0 413 14 52 0
194 613 0 425 17 50 0
196 616 0 430 8 43 0
198 613 0 433 8 42 0
200 607 0 442 12 37 0
