0 912 0 0 0 0 0
2 891 0 0 20 0 0
4.00004 876 0 0 39 0 0
6 875 0 0 43 0 0
8 873 0 0 37 0 0
10 856 0 0 63 0 0
12 866 0 0 49 0 0
14 865 0 0 49 0 0
16 873 0 0 44 0 0
18 872 0 0 50 0 0
20 875 0 0 37 0 0
22 871 0 0 40 0 0
24 866 0 0 38 0 0
26 858 0 0 47 0 0
28 857 0 0 42 0 0
30 850 0 0 59 0 0
32 855 0 0 57 0 0
34 860 0 0 53 0 0
36 866 0 0 49 0 0
38 866 0 0 55 0 0
40 876 0 0 43 0 0
42 872 0 0 47 0 0
44 870 0 0 43 0 0
46 874 0 0 40 0 0
48 873 0 0 40 0 0
50 868 0 0 43 0 0
52 867 0 0 38 21 0
54 864 0 3 30 27 0
56 866 0 7 25 24 0
58 856 0 13 29 21 0
60 847 0 17 30 25 0
62 849 0 22 23 26 0
64 838 0 29 27 26 0
66 825 0 32 38 30 0
68 828 0 40 31 26 0
70 831 0 45 19 33 0
72 818 0 50 30 32 0
74 816 0 61 26 28 0
76 818 0 67 22 27 0
78 811 0 66 24 36 0
80 806 0 74 24 31 0
82 804 0 80 21 30 0
84 800 0 86 23 30 0
86 788 0 90 28 36 0
88 790 0 97 18 39 0
90 778 0 103 27 31 0
92 770 0 110 29 29 0
94 774 0 121 21 29 0
96 766 0 125 24 27 0
98 763 0 128 20 34 0
100 751 0 132 29 32 0
102 744 0 136 30 30 0
104 742 0 137 27 40 0
106 734 0 144 27 36 0
108 738 0 148 19 38 0
110 728 0 157 22 30 0
112 730 0 158 17 30 0
114 719 0 165 25 28 0
116 714 0 167 25 38 0
118 711 0 172 25 27 0
120 707 0 176 23 27 0
122 697 0 180 26 25 0
124 697 0 185 24 28 0
126 689 0 189 21 29 0
128 687 0 191 19 37 0
130 679 0 195 22 37 0
132 668 0 203 27 33 0
134 658 0 210 31 32 0
136 657 0 212 26 34 0
138 650 0 220 26 35 0
140 651 0 227 22 30 0
142 644 0 231 26 30 0
144 643 0 240 23 20 0
146 645 0 243 14 22 0
148 643 0 244 16 22 0
150 629 0 248 28 24 0
152 624 0 255 28 16 0
154 631 0 255 15 23 0
156 614 0 254 26 34 0
158 613 0 262 22 31 0
160 613 0 266 16 28 0
162 603 0 268 21 29 0
164 608 0 272 11 30 0
166 601 0 276 16 29 0
168 597 0 270 18 39 0
170 590 0 281 22 32 0
172 591 0 285 13 34 0
174 585 0 292 17 30 0
176 576 0 298 20 28 0
178 573 0 301 20 34 0
180 570 0 302 18 37 0
182 565 0 300 21 40 0
184 560 0 311 21 30 0
186 559 0 313 16 35 0
188 555 0 317 16 30 0
190 559 0 317 8 40 0
192 545 0 322 22 39 0
194 542 0 326 21 39 0
196 536 0 327 22 48 0
198 537 0 335 16 46 0
200 530 0 342 18 41 0
