0 946 0 0 0 0 0
2 913 0 0 43 0 0
4.00004 888 0 0 60 0 0
6 883 0 0 58 0 0
8 873 0 0 75 0 0
10 879 0 0 80 0 0
12 871 0 0 80 0 0
14 860 0 0 92 0 0
16 862 0 0 92 0 0
18 849 0 0 100 0 0
20 844 0 0 112 0 0
22 841 0 0 118 0 0
24 848 0 0 105 0 0
26 840 0 0 109 0 0
28 827 0 0 122 0 0
30 835 0 0 117 0 0
32 835 0 0 116 0 0
34 819 0 0 134 0 0
36 819 0 0 134 0 0
38 807 0 0 141 0 0
40 817 0 0 138 0 0
42 814 0 0 132 0 0
44 814 0 0 126 0 0
46 828 0 0 111 0 0
48 814 0 0 130 0 0
50 808 0 0 122 0 0
52 810 0 0 114 11 0
54 803 0 0 112 22 0
56 812 0 1 100 27 0
58 796 0 2 107 31 0
60 797 0 2 99 41 0
62 796 0 6 92 44 0
64 795 0 6 88 49 0
66 796 0 8 84 48 0
68 791 0 12 80 51 0
70 775 0 13 90 59 0
72 780 0 15 76 66 0
74 771 0 19 82 64 0
76 767 0 25 79 61 0
78 765 0 24 81 65 0
80 771 0 28 70 63 0
82 760 0 32 77 63 0
84 754 0 35 77 65 0
86 755 0 42 71 63 0
88 745 0 44 75 64 0
90 746 0 46 73 71 0
92 744 0 48 71 75 0
94 728 0 50 83 67 0
96 725 0 53 80 70 0
98 731 0 59 69 61 0
100 730 0 60 68 63 0
102 716 0 64 76 66 0
104 714 0 70 70 68 0
106 709 0 75 68 66 0
108 705 0 77 68 70 0
110 700 0 82 68 67 0
112 703 0 85 63 71 0
114 704 0 94 54 68 0
116 692 0 98 63 61 0
118 682 0 98 71 66 0
120 677 0 105 70 55 0
122 675 0 108 67 65 0
124 675 0 108 65 65 0
126 674 0 111 63 58 0
128 674 0 115 59 63 0
130 671 0 120 58 66 0
132 660 0 120 66 65 0
134 654 0 117 70 70 0
136 656 0 121 62 74 0
138 653 0 126 62 66 0
140 650 0 133 60 66 0
142 647 0 129 56 76 0
144 649 0 138 55 73 0
146 642 0 139 58 82 0
148 630 0 145 67 73 0
150 631 0 143 65 80 0
152 633 0 147 60 79 0
154 627 0 156 62 67 0
156 622 0 157 63 76 0
158 612 0 160 71 77 0
160 616 0 166 61 68 0
162 613 0 171 60 72 0
164 616 0 164 51 86 0
166 606 0 170 59 86 0
168 599 0 179 62 73 0
170 589 0 181 62 80 0
172 595 0 184 55 77 0
174 591 0 191 52 68 0
176 580 0 198 59 65 0
178 571 0 199 64 67 0
180 582 0 203 50 66 0
182 579 0 199 51 73 0
184 569 0 201 57 75 0
186 566 0 205 56 72 0
188 562 0 201 58 77 0
190 556 0 206 61 80 0
192 559 0 208 56 88 0
194 560 0 211 53 95 0
196 553 0 217 59 97 0
198 552 0 224 56 90 0
200 548 0 233 59 75 0
