0 1007 0 0 0 0 0
2 952 17 0 30 0 1
4.00004 954 5 0 38 0 4
6 959 1 0 38 0 2
8 951 0 0 42 0 9
10 943 1 0 45 0 14
12 944 0 0 46 0 11
14 931 1 0 54 0 16
16 928 0 0 66 0 6
18 938 0 0 55 0 13
20 930 0 0 65 0 15
22 927 0 0 70 0 17
24 917 0 0 67 0 24
26 916 0 0 75 0 14
28 908 0 0 82 0 20
30 918 0 0 76 0 20
32 921 0 0 69 0 19
34 912 0 0 76 0 15
36 908 0 0 82 0 16
38 914 0 0 73 0 17
40 901 0 0 81 0 17
42 918 0 0 58 0 18
44 909 0 0 72 0 14
46 899 0 0 84 0 17
48 888 0 0 94 0 19
50 893 0 0 87 0 20
52 884 0 1 48 60 0
54 876 0 12 44 55 0
56 876 0 21 32 57 0
58 858 0 29 37 58 0
60 851 0 39 30 60 0
62 852 0 47 20 64 0
64 842 0 55 26 64 0
66 836 0 62 28 61 0
68 822 0 75 30 59 0
70 807 0 85 33 66 0
72 811 0 92 22 71 0
74 803 0 101 22 67 0
76 790 0 110 26 81 1
78 778 0 119 33 68 0
80 782 0 121 24 67 0
82 777 0 137 21 58 0
84 762 0 137 30 69 0
86 751 0 146 31 66 0
88 742 0 154 30 65 0
90 732 0 162 31 54 0
92 733 0 169 20 71 0
94 722 0 175 23 77 0
96 707 0 188 32 67 0
98 693 0 197 32 70 0
100 692 0 202 25 65 0
102 682 0 212 26 65 0
104 674 0 215 26 73 0
106 666 0 227 31 65 0
108 668 0 239 23 62 0
110 668 0 252 19 56 0
112 657 0 253 26 57 0
114 644 0 258 34 59 0
116 636 0 254 35 71 0
118 638 0 260 24 73 0
120 635 0 263 23 70 0
122 630 0 268 26 71 0
124 629 0 279 18 71 0
126 616 0 285 28 70 0
128 615 0 289 18 80 0
130 610 0 305 17 71 0
132 603 0 301 20 75 0
134 601 0 314 17 74 0
136 596 0 322 18 72 1
138 580 0 328 26 66 0
140 583 0 332 16 77 0
142 569 0 332 23 86 0
144 563 0 348 23 68 0
146 558 0 350 23 77 0
148 556 0 350 18 79 0
150 548 0 364 22 59 0
152 541 0 374 22 58 0
154 539 0 369 18 75 0
156 538 0 383 13 68 1
158 530 0 385 14 67 0
160 517 0 386 25 76 0
162 515 0 385 22 68 0
164 505 0 389 27 78 0
166 495 0 390 31 74 0
168 499 0 400 22 77 0
170 493 0 405 19 81 0
172 488 0 408 19 90 0
174 482 0 410 19 94 0
176 488 0 424 10 89 0
178 481 0 432 16 81 0
180 477 0 442 13 76 0
182 468 0 449 19 67 0
184 460 0 441 20 90 0
186 462 0 447 14 75 0
188 452 0 463 17 67 0
190 437 0 466 22 73 0
192 429 0 468 21 93 0
194 424 0 469 21 82 0
196 426 0 469 15 86 0
198 418 0 488 20 76 0
200 418 0 488 15 87 0
