0 976 0 0 0 0 0
2 937 0 0 29 0 0
4.00004 941 0 0 33 0 0
6 925 0 0 48 0 0
8 922 0 0 54 0 0
10 916 0 0 55 0 0
12 915 0 0 55 0 0
14 912 0 0 61 0 0
16 902 0 0 67 0 0
18 898 0 0 74 0 0
20 888 0 0 78 0 0
22 894 0 0 68 0 0
24 877 0 0 91 0 0
26 880 0 0 82 0 0
28 869 0 0 97 0 0
30 874 0 0 94 0 0
32 873 0 0 91 0 0
34 882 0 0 79 0 0
36 874 0 0 87 0 0
38 874 0 0 87 0 0
40 871 0 0 86 0 0
42 865 0 0 86 0 0
44 872 0 0 76 0 0
46 864 0 0 86 0 0
48 866 0 0 85 0 0
50 862 0 0 87 0 0
52 865 0 0 76 12 0
54 860 0 1 67 21 0
56 854 0 2 66 24 0
58 853 0 3 53 31 0
60 849 0 5 53 32 0
62 850 0 5 48 35 0
64 830 0 5 63 31 0
66 838 0 11 52 34 0
68 840 0 12 44 35 0
70 830 0 20 49 36 0
72 823 0 25 47 38 0
74 825 0 26 37 38 0
76 817 0 35 40 41 0
78 813 0 38 41 50 0
80 802 0 39 48 56 0
82 797 0 47 51 46 0
84 800 0 49 43 47 0
86 793 0 56 42 47 0
88 795 0 57 38 46 0
90 794 0 62 31 43 0
92 795 0 69 28 38 0
94 790 0 73 30 44 0
96 777 0 77 42 40 0
98 775 0 77 40 50 0
100 772 0 82 39 52 0
102 766 0 91 43 44 0
104 767 0 91 40 47 0
106 755 0 95 46 44 0
108 763 0 99 32 46 0
110 755 0 105 34 40 0
112 757 0 109 31 38 0
114 750 0 107 36 37 0
116 750 0 114 34 33 0
118 749 0 117 30 36 0
120 736 0 119 39 38 0
122 734 0 125 38 30 0
124 726 0 129 40 30 0
126 715 0 127 44 36 0
128 712 0 128 40 37 0
130 711 0 130 38 39 0
132 710 0 127 35 45 0
134 708 0 135 36 36 0
136 702 0 131 39 42 0
138 701 0 135 36 41 0
140 690 0 138 44 45 0
142 699 0 144 30 37 0
144 689 0 140 37 51 0
146 687 0 143 36 43 0
148 685 0 146 36 48 0
150 677 0 151 41 51 0
152 676 0 155 39 51 0
154 678 0 160 37 48 0
156 678 0 158 32 45 0
158 678 0 167 30 38 0
160 674 0 165 30 46 0
162 674 0 171 26 42 0
164 674 0 170 23 49 0
166 662 0 175 31 48 0
168 665 0 171 27 59 0
170 658 0 178 29 60 0
172 661 0 184 23 53 0
174 658 0 192 26 49 0
176 647 0 195 36 50 0
178 650 0 200 31 46 0
180 637 0 197 36 61 0
182 629 0 197 40 63 0
184 632 0 204 36 61 0
186 627 0 209 35 59 0
188 629 0 216 28 56 0
190 621 0 221 35 51 0
192 622 0 226 33 43 0
194 608 0 224 44 62 0
196 619 0 223 30 60 0
198 615 0 227 34 56 0
200 604 0 235 40 49 0
