0 988 0 0 0 0 0
2 957 10 0 17 0 5
4.00004 942 7 0 32 0 4
6 951 1 0 23 0 7
8 948 4 0 32 0 6
10 941 0 0 31 0 9
12 932 0 0 38 0 15
14 932 0 0 41 0 13
16 939 0 0 31 0 13
18 937 0 0 31 0 10
20 942 0 0 35 0 11
22 948 0 0 31 0 10
24 948 0 0 38 0 10
26 942 0 0 44 0 9
28 945 0 0 44 0 12
30 956 0 0 27 0 8
32 948 0 0 29 0 11
34 938 0 0 35 0 14
36 938 0 0 38 0 9
38 938 0 0 30 0 11
40 943 0 0 28 0 10
42 933 0 0 40 0 8
44 938 0 0 36 0 13
46 934 0 0 40 0 12
48 929 0 0 42 0 16
50 929 0 0 43 0 17
52 918 0 5 24 27 0
54 917 0 13 19 27 0
56 912 0 20 18 28 0
58 907 0 24 15 35 0
60 897 0 34 14 36 0
62 899 0 39 6 36 0
64 888 0 45 10 37 0
66 873 0 59 18 25 0
68 870 0 64 13 28 0
70 859 0 69 15 29 0
72 848 0 74 21 27 0
74 848 0 75 12 34 0
76 829 0 86 22 29 0
78 829 0 92 12 30 0
80 815 0 99 17 34 0
82 805 0 106 18 36 0
84 802 0 107 14 38 0
86 801 0 115 10 32 0
88 792 0 119 13 32 0
90 781 0 126 20 34 0
92 776 0 126 17 43 0
94 762 0 134 18 41 0
96 756 0 144 15 43 0
98 747 0 158 15 35 0
100 737 0 155 13 51 0
102 736 0 164 9 51 0
104 726 0 169 14 45 0
106 715 0 186 18 40 0
108 714 0 195 14 34 0
110 712 0 198 12 41 0
112 704 0 201 14 46 0
114 702 0 214 10 37 0
116 690 0 220 19 27 0
118 684 0 226 16 39 0
120 682 0 228 11 46 0
122 676 0 235 13 48 0
124 667 0 240 17 42 0
126 670 0 245 10 47 0
128 666 0 254 7 39 0
130 656 0 262 11 38 0
132 648 0 262 11 48 0
134 641 0 271 12 45 0
136 642 0 276 6 47 0
138 637 0 281 8 43 0
140 631 0 287 11 41 0
142 623 0 295 15 36 0
144 626 0 305 10 33 0
146 621 0 298 7 50 0
148 611 0 309 14 41 0
150 611 0 316 10 33 1
152 609 0 325 5 38 0
154 604 0 328 8 36 0
156 602 0 326 7 37 0
158 594 0 331 8 39 0
160 588 0 337 12 40 0
162 584 0 339 9 47 0
164 567 0 343 20 49 0
166 568 0 354 13 43 0
168 571 0 358 6 41 0
170 563 0 363 12 37 0
172 553 0 371 13 40 0
174 553 0 376 9 38 0
176 547 0 380 10 41 0
178 543 0 393 11 25 0
180 540 0 395 10 28 0
182 531 0 394 11 38 0
184 525 0 395 8 50 0
186 527 0 404 4 42 0
188 522 0 405 5 50 0
190 519 0 416 3 38 0
192 505 0 412 9 46 0
194 497 0 417 10 48 0
196 496 0 422 6 43 0
198 491 0 430 5 40 0
200 486 0 437 7 39 0
