0 1057 0 0 0 0 0
2 1007 8 0 27 0 3
4.00004 1008 2 0 35 0 11
6 1013 2 0 34 0 7
8 1017 1 0 30 0 7
10 1000 1 0 46 0 12
12 994 0 0 49 0 12
14 998 0 0 43 0 8
16 995 1 0 43 0 14
18 997 0 0 46 0 15
20 989 1 0 48 0 16
22 995 0 0 45 0 13
24 996 0 0 40 0 13
26 989 0 0 51 0 10
28 988 0 0 46 0 13
30 991 0 0 42 0 6
32 979 0 0 47 0 10
34 987 0 0 37 0 19
36 982 0 0 47 0 14
38 979 0 0 42 0 20
40 987 0 0 38 0 15
42 981 0 0 48 0 12
44 980 0 0 43 0 14
46 968 0 0 59 0 13
48 969 0 0 50 0 14
50 966 0 0 48 0 16
52 964 0 3 18 41 1
54 962 0 10 12 46 0
56 938 0 26 25 44 0
58 931 0 35 23 50 0
60 918 0 47 21 52 0
62 903 0 51 24 51 0
64 894 0 70 19 57 0
66 888 0 78 13 62 0
68 874 0 97 21 54 0
70 862 0 103 27 47 0
72 851 0 114 30 41 0
74 842 0 119 31 51 0
76 848 0 125 19 45 0
78 841 0 132 18 47 0
80 827 0 146 24 46 1
82 826 0 157 13 48 1
84 819 0 172 15 30 0
86 813 0 175 15 37 0
88 810 0 183 12 36 0
90 795 0 186 23 35 0
92 794 0 199 16 34 0
94 788 0 204 16 35 0
96 771 0 208 21 39 0
98 764 0 216 17 37 0
100 758 0 232 13 38 0
102 749 0 229 15 51 0
104 748 0 243 11 43 0
106 741 0 248 13 44 0
108 730 0 263 20 40 0
110 724 0 261 20 44 0
112 712 0 263 25 46 0
114 712 0 267 17 49 0
116 710 0 268 14 53 0
118 704 0 279 17 45 0
120 702 0 284 16 48 0
122 688 0 289 23 51 0
124 682 0 304 23 44 0
126 679 0 302 20 52 0
128 676 0 321 13 44 0
130 666 0 328 20 39 0
132 667 0 338 14 41 0
134 660 0 343 18 43 0
136 655 0 351 16 42 0
138 649 0 356 12 48 0
140 634 0 360 24 47 0
142 634 0 363 16 47 0
144 630 0 363 16 52 0
146 626 0 367 16 49 0
148 618 0 372 18 52 0
150 603 0 384 26 40 0
152 608 0 391 12 39 0
154 598 0 393 17 41 0
156 595 0 391 15 49 0
158 585 0 400 19 51 0
160 579 0 407 20 43 0
162 586 0 413 7 43 0
164 570 0 406 17 50 0
166 562 0 414 15 51 0
168 555 0 418 15 53 0
170 559 0 427 10 41 0
172 549 0 428 13 53 0
174 543 0 433 10 57 0
176 531 0 439 16 53 0
178 530 0 445 9 49 0
180 520 0 451 13 51 0
182 515 0 457 13 54 2
184 508 0 458 16 58 0
186 506 0 459 12 57 0
188 503 0 465 13 40 0
190 501 0 467 8 56 0
192 492 0 472 9 53 0
194 495 0 475 2 53 0
196 485 0 480 11 50 0
198 483 0 485 11 51 0
200 482 0 484 8 53 0
