0 38 0 0 0 53
2 32 0 5 0 57
4.00004 32 0 5 0 54
6 31 0 6 0 66
8 30 0 7 0 59
10 29 0 8 0 51
12 33 0 4 0 52
14 33 0 4 0 64
16 32 0 5 0 57
18 32 0 4 0 53
20 34 0 2 0 53
22 32 0 4 0 63
24 27 0 9 0 63
26 28 0 8 0 61
28 29 0 7 0 55
30 27 0 9 0 61
32 28 0 8 0 63
34 29 0 7 0 59
36 31 0 5 0 61
38 28 0 8 0 59
40 28 0 8 0 59
42 28 0 8 0 59
44 24 0 12 0 53
46 30 0 6 0 58
48 30 0 6 0 68
50 28 0 8 0 53
52 30 0 6 0 64
54 25 0 11 0 61
56 21 0 15 0 53
58 25 0 11 0 61
60 30 0 6 0 69
62 35 0 1 0 62
64 32 0 4 0 63
66 26 0 10 0 64
68 31 0 5 0 72
70 30 0 6 0 62
72 25 0 11 0 70
74 29 0 7 0 52
76 24 0 12 0 63
78 30 0 6 0 69
80 25 0 11 0 66
82 32 0 4 0 57
84 29 0 7 0 61
86 29 1 7 0 57
88 26 1 10 0 62
90 25 1 11 0 62
92 29 1 7 0 61
94 25 1 11 0 58
96 30 1 6 0 60
98 33 1 3 0 53
100 31 1 5 0 63
102 28 1 8 0 58
104 28 1 8 0 53
106 29 1 7 0 55
108 25 1 11 0 59
110 27 1 9 0 68
112 28 1 8 0 64
114 30 1 6 0 59
116 26 1 10 0 54
118 29 1 7 0 67
120 31 1 5 0 56
122 31 1 5 0 59
124 29 1 7 0 57
126 27 1 9 0 64
128 23 1 13 0 44
130 26 1 10 0 54
132 29 1 7 0 58
134 31 1 5 0 67
136 27 1 9 0 66
138 26 1 10 0 73
140 31 1 5 0 55
142 27 1 9 0 45
144 28 1 8 0 63
146 27 1 9 0 63
148 22 1 14 0 49
150 24 1 12 0 57
152 29 1 7 0 62
154 26 0 10 1 56
156 25 0 11 1 51
158 31 1 5 0 59
160 26 1 10 0 56
162 29 1 7 0 57
164 28 1 8 0 55
166 27 1 9 0 69
168 24 1 12 0 65
170 29 1 7 0 54
172 30 1 6 0 67
174 24 1 12 0 54
176 28 1 8 0 52
178 27 1 9 0 60
180 32 1 4 0 58
182 30 1 6 0 57
184 28 0 8 1 64
186 26 1 10 0 51
188 26 1 10 0 64
190 23 0 13 1 48
192 29 0 7 1 55
194 31 1 5 0 60
196 29 1 7 0 60
198 30 1 6 0 56
200 30 1 6 0 59
202 27 2 9 0 53
204 27 2 9 0 40
206 28 1 8 1 59
208 31 2 5 0 57
210 31 2 5 0 69
