0 43 0 0 0 52
2 38 0 5 0 57
4.00004 37 0 6 0 60
6 40 0 3 0 65
8 35 0 8 0 59
10 35 0 8 0 63
12 37 0 6 0 62
14 34 0 9 0 61
16 35 0 8 0 60
18 39 0 4 0 61
20 33 0 10 0 53
22 34 0 9 0 61
24 31 0 12 0 63
26 34 0 9 0 56
28 36 0 7 0 66
30 39 0 4 0 54
32 30 0 13 0 58
34 27 0 16 0 54
36 36 0 7 1 56
38 35 1 8 0 65
40 36 1 7 1 63
42 40 1 3 1 62
44 36 1 7 1 65
46 33 1 10 1 53
48 33 1 10 1 64
50 37 2 6 0 64
52 35 1 8 1 53
54 38 2 5 0 59
56 38 1 5 1 57
58 34 2 9 0 56
60 27 2 16 0 54
62 33 1 10 2 56
64 32 2 11 1 64
66 29 3 14 0 49
68 32 2 11 1 62
70 35 3 8 0 51
72 34 3 8 0 65
74 35 2 7 1 51
76 31 2 11 1 59
78 33 2 9 1 58
80 32 2 10 1 71
82 33 2 9 1 66
84 40 3 2 0 58
86 31 2 11 1 61
88 33 2 9 1 55
90 37 2 5 3 58
92 34 5 8 0 56
94 33 5 9 0 59
96 31 5 11 1 62
98 30 5 12 2 59
100 33 7 8 0 63
102 31 7 10 0 50
104 32 4 9 3 60
106 33 6 8 1 67
108 35 7 6 0 57
110 33 5 8 2 55
112 33 5 8 2 57
114 31 5 10 2 69
116 30 4 11 3 58
118 27 6 14 1 67
120 33 7 7 1 63
122 34 7 6 1 64
124 37 6 3 2 66
126 34 7 6 1 62
128 30 7 10 1 66
130 27 7 13 1 59
132 32 7 8 1 66
134 28 6 12 2 50
136 28 5 12 3 63
138 27 7 13 1 54
140 29 8 11 0 56
142 32 7 8 1 64
144 33 8 7 0 63
146 31 6 9 2 61
148 31 6 9 2 51
150 28 6 12 2 57
152 33 7 7 1 59
154 34 8 6 0 63
156 33 7 7 1 57
158 32 7 8 1 59
160 33 8 7 0 63
162 34 5 6 3 60
164 32 8 8 0 61
166 32 6 8 2 57
168 28 4 12 4 59
170 31 4 9 4 56
172 32 6 8 2 71
174 30 6 10 2 66
176 36 6 4 2 59
178 30 5 10 3 61
180 26 6 14 2 58
182 28 5 12 3 48
184 32 7 8 1 67
186 35 8 5 0 62
188 35 6 5 2 65
190 32 6 8 2 49
192 33 6 7 2 59
194 30 7 9 1 56
196 28 7 11 1 62
198 31 6 8 2 65
200 33 5 6 3 57
202 32 6 7 2 63
204 31 5 8 3 67
206 27 6 12 2 61
208 32 7 7 1 65
210 25 8 14 0 57
