0 41 0
2 41 0
4.00004 41 0
6 41 0
8 41 0
10 41 1
12 41 1
14 40 2
16 40 3
18 40 3
20 40 3
22 40 4
24 40 4
26 40 4
28 40 4
30 40 4
32 40 4
34 40 4
36 40 4
38 40 4
40 40 5
42 40 6
44 40 6
46 40 6
48 39 6
50 39 6
52 39 6
54 39 6
56 39 6
58 39 6
60 39 8
62 39 8
64 38 8
66 37 8
68 37 8
70 37 9
72 37 9
74 37 9
76 37 9
78 37 9
80 37 10
82 37 10
84 37 10
86 37 10
88 37 10
90 37 10
92 37 11
94 37 11
96 37 11
98 37 11
100 37 11
102 37 11
104 37 11
106 37 11
108 37 11
110 37 11
112 37 11
114 37 11
116 37 11
118 37 11
120 37 11
122 37 11
124 37 11
126 37 11
128 37 11
130 37 11
132 37 11
134 37 11
136 37 11
138 37 11
140 37 11
142 37 11
144 37 11
146 36 11
148 36 12
150 36 13
152 36 13
154 36 12
156 36 13
158 36 13
160 36 13
162 36 13
164 35 13
166 35 13
168 35 13
170 35 13
172 34 13
174 34 13
176 33 14
178 33 15
180 33 15
182 33 15
184 33 15
186 33 16
188 33 16
190 33 16
192 33 18
194 33 18
196 33 19
198 33 19
200 32 19
