0 108 0
2 99 9
4.00004 88 20
6 79 29
8 71 37
10 68 41
12 63 46
14 57 52
16 50 59
18 45 65
20 44 66
22 39 71
24 36 74
26 31 79
28 29 81
30 26 84
32 25 86
34 23 88
36 24 88
38 23 89
40 23 89
42 20 91
44 20 91
46 18 93
48 17 93
50 17 93
52 16 94
54 16 94
56 16 94
58 15 95
60 15 95
62 14 96
64 11 98
66 9 100
68 9 100
70 8 101
72 8 101
74 8 100
76 6 102
78 6 102
80 6 101
82 6 100
84 6 99
86 6 99
88 5 100
90 4 101
92 4 100
94 4 100
96 4 100
98 4 100
100 4 99
102 2 102
104 1 103
106 0 104
108 0 104
110 0 104
112 0 104
114 0 104
116 0 104
118 0 105
120 0 105
122 0 105
124 0 105
126 1 105
128 2 103
130 2 103
132 2 102
134 4 102
136 4 102
138 3 103
140 3 103
142 2 104
144 2 104
146 2 104
148 3 103
150 3 103
152 3 103
154 3 103
156 3 104
158 3 104
160 3 104
162 3 104
164 2 105
166 1 106
168 1 107
170 1 107
172 1 107
174 1 107
176 2 107
178 2 107
180 2 107
182 2 107
184 1 107
186 1 107
188 1 107
190 1 107
192 1 107
194 2 107
196 2 107
198 2 107
200 2 107
