0 111 0
2 98 13
4.00004 90 21
6 84 27
8 82 30
10 77 35
12 74 38
14 68 44
16 63 49
18 59 53
20 59 54
22 56 57
24 54 59
26 49 63
28 45 65
30 44 68
32 40 72
34 36 75
36 33 78
38 30 80
40 30 80
42 30 81
44 29 82
46 28 83
48 26 85
50 24 86
52 24 86
54 24 86
56 24 87
58 21 91
60 21 91
62 20 92
64 18 94
66 18 95
68 16 96
70 13 99
72 12 100
74 12 101
76 10 103
78 10 103
80 10 103
82 10 103
84 7 106
86 7 106
88 6 107
90 5 108
92 5 108
94 3 110
96 3 110
98 3 109
100 2 110
102 2 110
104 2 110
106 3 109
108 2 110
110 2 110
112 2 110
114 2 110
116 2 110
118 2 110
120 3 110
122 3 110
124 2 112
126 2 112
128 3 112
130 3 112
132 3 112
134 4 112
136 3 113
138 3 113
140 4 113
142 3 113
144 3 113
146 3 113
148 3 113
150 3 113
152 2 114
154 2 114
156 2 114
158 2 114
160 2 114
162 2 114
164 2 113
166 2 113
168 2 113
170 2 112
172 2 112
174 2 112
176 3 112
178 1 114
180 1 113
182 1 113
184 1 113
186 1 113
188 1 113
190 1 112
192 1 112
194 1 112
196 1 112
198 1 112
200 1 112
