0 119 0
2 104 15
4.00004 96 23
6 85 33
8 77 41
10 77 41
12 65 53
14 61 57
16 58 60
18 54 64
20 53 66
22 49 71
24 48 71
26 45 74
28 42 77
30 42 77
32 40 79
34 37 82
36 34 85
38 32 87
40 31 88
42 28 91
44 27 92
46 23 96
48 22 98
50 18 104
52 18 104
54 16 106
56 16 106
58 15 107
60 15 107
62 13 109
64 13 109
66 13 110
68 11 112
70 11 113
72 10 114
74 10 114
76 10 114
78 9 114
80 8 115
82 8 115
84 9 115
86 9 116
88 7 118
90 7 118
92 7 119
94 6 119
96 6 118
98 7 117
100 6 118
102 6 118
104 5 119
106 5 119
108 4 120
110 4 120
112 4 119
114 4 119
116 4 119
118 5 119
120 5 119
122 5 119
124 5 119
126 5 119
128 4 120
130 3 121
132 3 121
134 3 121
136 3 119
138 3 119
140 3 118
142 3 119
144 3 118
146 2 119
148 2 119
150 2 119
152 2 119
154 3 119
156 2 120
158 3 119
160 3 119
162 3 119
164 3 119
166 3 119
168 3 119
170 3 119
172 3 119
174 3 119
176 3 119
178 2 119
180 2 119
182 2 119
184 2 119
186 1 120
188 1 120
190 1 120
192 1 120
194 1 121
196 2 121
198 2 122
200 2 122
