0 908 0 0 0 0 0
2 876 34 0 2 0 0
4.00004 872 34 0 2 0 0
6 867 29 0 7 0 0
8 867 28 0 3 0 0
10 856 40 0 2 0 0
12 846 52 0 4 0 0
14 867 37 0 1 0 0
16 870 37 0 0 0 0
18 872 33 0 3 0 0
20 883 28 0 3 0 0
22 880 34 0 2 0 0
24 886 30 0 3 0 0
26 892 32 0 3 0 0
28 896 32 0 6 0 0
30 893 35 0 1 0 0
32 894 34 0 2 0 0
34 884 38 0 0 0 0
36 892 31 0 2 0 0
38 879 40 0 2 0 0
40 877 43 0 4 0 0
42 886 31 0 3 0 0
44 880 36 0 6 0 0
46 890 33 0 4 0 0
48 886 35 0 2 0 0
50 890 38 0 1 0 0
52 761 0 162 4 2 0
54 703 0 221 1 1 0
56 656 0 268 1 2 0
58 604 0 324 0 2 0
60 558 1 365 0 2 0
62 517 0 410 1 3 0
64 482 0 444 1 1 0
66 448 0 475 1 2 0
68 412 0 508 0 1 0
70 380 0 549 1 1 0
72 360 0 569 3 4 0
74 338 0 597 0 1 0
76 315 0 618 0 0 0
78 293 0 636 0 1 0
80 277 0 650 1 6 0
82 267 0 669 0 0 0
84 251 0 682 3 1 0
86 239 0 700 0 1 0
88 226 0 711 1 5 0
90 212 1 729 1 1 0
92 192 0 744 2 2 0
94 181 0 758 1 1 0
96 162 0 770 1 0 0
98 157 0 778 1 0 0
100 146 0 789 1 3 0
102 137 0 792 0 1 0
104 128 0 794 2 2 0
106 119 0 812 2 0 0
108 111 0 825 2 4 0
110 101 0 847 0 1 0
112 96 0 851 0 1 0
114 90 0 860 0 2 0
116 89 0 860 0 0 0
118 82 0 867 1 1 0
120 78 0 876 0 2 0
122 75 1 884 0 5 0
124 71 0 889 1 3 0
126 65 0 900 0 2 0
128 64 0 896 1 2 0
130 62 0 897 0 4 0
132 59 0 907 0 2 0
134 59 0 913 0 5 0
136 51 0 921 1 1 0
138 49 0 918 1 3 0
140 42 0 932 0 1 0
142 39 0 936 1 2 0
144 35 0 936 1 5 0
146 31 0 945 0 2 0
148 29 0 935 1 2 0
150 29 0 932 0 0 0
152 25 0 938 2 4 0
154 23 0 949 0 2 0
156 23 0 948 1 2 0
158 20 0 946 1 3 0
160 21 0 941 2 4 0
162 20 0 945 3 2 0
164 16 0 952 0 4 0
166 15 0 951 4 3 0
168 15 0 949 1 1 0
170 14 0 951 1 2 0
172 12 0 948 2 8 0
174 11 0 949 0 2 0
176 10 0 951 2 3 0
178 11 0 956 2 3 0
180 8 0 958 0 2 0
182 10 0 961 1 1 0
184 7 0 968 1 0 0
186 7 0 963 0 2 0
188 7 0 963 0 4 0
190 7 0 952 0 9 0
192 7 0 961 0 4 0
194 7 0 962 0 3 0
196 7 0 964 1 1 0
198 6 0 956 0 3 0
200 6 0 953 1 1 0
