0 1067 0 0 0 0 0
2 1062 0 0 4 0 0
4.00004 1062 0 0 3 0 0
6 1065 0 0 2 0 0
8 1064 0 0 2 0 0
10 1064 0 0 2 0 0
12 1061 0 0 4 0 0
14 1063 0 0 1 0 0
16 1058 0 0 3 0 0
18 1067 0 0 1 0 0
20 1063 0 0 2 0 0
22 1065 0 0 3 0 0
24 1061 0 0 2 0 0
26 1060 0 0 4 0 0
28 1060 0 0 6 0 0
30 1057 0 0 3 0 0
32 1062 0 0 5 0 0
34 1058 0 0 3 0 0
36 1059 0 0 1 0 0
38 1065 0 0 1 0 0
40 1064 0 0 1 0 0
42 1068 0 0 2 0 0
44 1066 0 0 3 0 0
46 1069 0 0 3 0 0
48 1064 0 0 3 0 0
50 1068 0 0 2 0 0
52 1062 0 7 1 0 0
54 1056 0 15 2 0 0
56 1046 0 24 1 0 0
58 1036 0 29 1 0 0
60 1031 0 34 1 2 0
62 1023 0 43 3 1 0
64 1018 0 53 2 0 0
66 1004 0 65 0 3 0
68 995 0 73 1 3 0
70 986 0 86 5 0 0
72 984 0 89 0 2 0
74 978 0 100 0 0 0
76 969 0 104 2 0 0
78 963 0 108 1 0 0
80 954 0 112 1 0 0
82 946 0 118 1 0 0
84 940 0 122 1 4 0
86 934 0 135 2 0 0
88 930 0 148 1 0 0
90 926 0 150 1 3 0
92 922 0 154 1 0 0
94 917 0 159 2 1 0
96 911 0 167 1 2 0
98 907 0 172 0 0 0
100 903 0 170 1 3 0
102 893 0 178 1 1 0
104 889 0 180 0 1 0
106 883 0 183 2 1 0
108 875 0 192 0 1 0
110 868 0 195 2 2 0
112 866 0 198 0 1 0
114 860 0 212 1 1 0
116 852 0 213 0 1 0
118 844 0 221 1 1 0
120 843 0 234 0 0 0
122 841 0 240 0 1 0
124 834 0 242 2 0 0
126 831 0 242 0 0 0
128 824 0 252 2 0 0
130 818 0 257 2 0 0
132 807 0 269 4 0 0
134 799 0 269 0 0 0
136 796 0 281 0 2 0
138 790 0 285 0 2 0
140 781 0 286 1 0 0
142 772 0 291 3 3 0
144 772 0 295 0 5 0
146 765 0 301 2 1 0
148 762 0 300 0 1 0
150 757 0 305 2 0 0
152 754 0 307 1 1 0
154 750 0 314 0 0 0
156 742 0 317 2 2 0
158 732 0 324 2 0 0
160 727 0 327 0 1 0
162 724 0 336 0 2 0
164 719 0 342 1 2 0
166 710 0 351 2 2 0
168 705 0 356 1 2 0
170 699 0 361 0 0 0
172 696 0 363 0 0 0
174 692 0 365 1 0 0
176 688 0 373 2 1 0
178 681 0 378 2 0 0
180 672 0 375 3 2 0
182 662 0 383 2 1 0
184 657 0 389 2 2 0
186 651 0 392 1 2 0
188 649 0 390 0 2 0
190 643 0 397 2 1 0
192 638 0 405 0 1 0
194 632 0 408 1 0 0
196 628 0 413 1 1 0
198 622 0 416 2 1 0
200 615 0 421 1 3 0
