0 1031 0 0 0 0 0
2 1030 0 0 3 0 0
4.00004 1028 0 0 4 0 0
6 1036 0 0 1 0 0
8 1035 0 0 5 0 0
10 1043 0 0 2 0 0
12 1038 0 0 2 0 0
14 1046 0 0 3 0 0
16 1053 0 0 2 0 0
18 1053 0 0 4 0 0
20 1045 0 0 3 0 0
22 1040 0 0 0 0 0
24 1031 0 0 4 0 0
26 1035 0 0 0 0 0
28 1033 0 0 2 0 0
30 1031 0 0 2 0 0
32 1028 0 0 2 0 0
34 1023 0 0 4 0 0
36 1027 0 0 5 0 0
38 1030 0 0 2 0 0
40 1040 0 0 2 0 0
42 1039 0 0 5 0 0
44 1037 0 0 2 0 0
46 1043 0 0 0 0 0
48 1039 0 0 1 0 0
50 1034 0 0 5 0 0
52 1019 0 8 0 4 0
54 1011 0 18 2 1 0
56 1003 0 27 2 4 0
58 989 0 41 2 1 0
60 973 0 45 5 1 0
62 970 0 60 1 3 0
64 958 0 68 1 3 0
66 947 0 77 2 2 0
68 938 0 90 4 2 0
70 931 0 104 3 1 0
72 925 0 114 1 3 0
74 915 0 119 1 2 0
76 905 0 124 2 1 0
78 902 0 134 1 2 0
80 894 0 144 1 1 0
82 890 0 150 2 0 0
84 878 0 160 1 3 0
86 873 0 161 1 1 0
88 863 0 171 2 1 0
90 855 0 177 3 0 0
92 846 0 181 0 4 0
94 842 0 187 0 3 0
96 835 0 194 1 0 0
98 831 0 204 2 3 0
100 826 0 209 2 2 0
102 824 0 214 1 0 0
104 817 0 216 1 2 0
106 809 0 224 2 0 0
108 805 0 233 3 2 0
110 796 0 233 2 3 0
112 787 0 232 0 5 0
114 779 0 245 1 0 0
116 775 0 256 1 4 0
118 772 0 259 0 3 0
120 769 0 275 0 1 0
122 759 0 281 2 1 0
124 754 0 286 2 1 0
126 749 0 299 1 0 0
128 742 0 307 0 1 0
130 734 0 305 2 2 0
132 727 0 317 1 1 0
134 723 0 322 1 2 0
136 712 0 324 1 6 0
138 709 0 343 1 1 0
140 705 0 350 0 3 0
142 701 0 352 1 0 0
144 697 0 351 0 5 0
146 688 0 358 2 1 0
148 688 0 370 1 3 0
150 679 0 379 3 2 0
152 677 0 389 0 0 0
154 671 0 389 2 3 0
156 665 0 397 1 1 0
158 664 0 396 0 6 0
160 661 0 399 1 1 0
162 651 0 403 0 2 0
164 647 0 408 0 5 0
166 641 0 411 0 4 0
168 632 0 419 3 0 0
170 627 0 428 4 1 0
172 623 0 435 0 1 0
174 612 0 445 0 3 0
176 607 0 451 1 4 0
178 603 0 462 0 3 0
180 594 0 464 2 1 0
182 592 0 471 1 1 0
184 583 0 469 2 1 0
186 579 0 479 1 1 0
188 573 0 489 1 2 0
190 566 0 490 1 1 0
192 565 0 499 0 1 0
194 560 0 507 1 3 0
196 557 0 510 1 2 0
198 552 0 513 0 3 0
200 550 0 514 0 2 0
