0 996 0 0 0 0 0
2 952 40 0 3 0 0
4.00004 962 35 0 0 0 0
6 956 31 0 3 0 0
8 961 30 0 1 0 0
10 954 40 0 2 0 0
12 965 32 0 1 0 0
14 952 37 0 1 0 0
16 955 33 0 2 0 0
18 956 28 0 3 0 0
20 951 45 0 3 0 0
22 944 43 0 3 0 0
24 951 35 0 6 0 0
26 953 37 0 2 0 0
28 963 33 0 6 0 0
30 967 31 0 5 0 0
32 963 40 0 2 0 0
34 979 39 0 3 0 0
36 981 40 0 5 0 0
38 996 27 0 4 0 0
40 985 38 0 9 0 0
42 978 50 0 4 0 0
44 995 34 0 5 0 0
46 988 49 0 6 0 0
48 995 44 0 4 0 0
50 986 51 0 6 0 0
52 848 0 190 0 3 0
54 796 0 240 0 1 0
56 746 0 290 0 3 0
58 707 0 334 1 1 0
60 665 0 372 0 3 0
62 623 1 408 0 2 0
64 583 0 440 2 4 0
66 551 0 478 1 2 0
68 511 0 518 1 4 0
70 474 0 555 1 5 0
72 440 0 595 1 3 0
74 416 1 613 0 3 0
76 389 0 640 0 4 0
78 367 0 663 1 0 0
80 344 0 689 1 3 0
82 324 0 711 1 2 0
84 300 0 734 1 4 0
86 285 0 753 0 4 0
88 270 0 775 0 4 0
90 255 0 793 2 0 0
92 245 1 802 0 4 0
94 226 0 821 0 4 0
96 222 0 824 1 2 0
98 211 0 839 0 3 0
100 200 0 851 0 3 0
102 189 0 859 0 6 0
104 180 0 866 0 4 0
106 170 0 877 1 1 0
108 156 0 895 0 3 0
110 145 0 907 1 1 0
112 135 0 919 2 1 0
114 127 0 925 1 2 0
116 117 0 932 0 3 0
118 112 0 934 1 3 0
120 104 0 945 0 3 0
122 96 0 954 0 1 0
124 93 0 952 0 3 0
126 90 0 954 2 1 0
128 90 1 964 0 1 0
130 84 0 970 0 1 0
132 80 0 981 0 0 0
134 73 0 986 0 2 0
136 67 0 994 0 3 0
138 64 0 997 0 3 0
140 60 0 995 0 3 0
142 59 0 985 1 2 0
144 54 0 989 0 2 0
146 54 0 984 1 4 0
148 50 0 992 1 3 0
150 48 0 999 0 3 0
152 46 0 997 0 3 0
154 40 0 1009 2 1 0
156 38 0 1018 0 1 0
158 37 0 1017 0 3 0
160 35 0 1021 1 5 0
162 32 1 1030 0 1 0
164 30 0 1029 0 5 0
166 28 0 1032 0 6 0
168 26 0 1036 0 3 0
170 26 0 1033 1 5 0
172 23 0 1036 0 2 0
174 23 0 1025 1 4 0
176 21 0 1040 0 4 0
178 20 0 1045 2 3 0
180 19 0 1050 0 4 0
182 18 0 1050 1 3 0
184 17 0 1054 0 2 0
186 14 0 1055 0 2 0
188 13 0 1059 1 3 0
190 11 0 1062 0 3 0
192 11 0 1058 0 2 0
194 14 0 1057 0 2 0
196 12 0 1050 1 3 0
198 10 0 1050 0 3 0
200 9 0 1049 0 5 0
