0 942 0 0 0 0 0
2 892 41 0 5 0 0
4.00004 878 55 0 5 0 0
6 883 45 0 12 0 0
8 884 44 0 6 0 0
10 883 43 0 7 0 0
12 877 60 0 3 0 0
14 886 45 0 6 0 0
16 879 56 0 7 0 0
18 894 51 0 3 0 0
20 880 66 0 3 0 0
22 893 59 0 5 0 0
24 895 53 0 10 0 0
26 897 62 0 2 0 0
28 900 53 0 9 0 0
30 907 49 0 7 0 0
32 904 55 0 5 0 0
34 919 44 0 8 0 0
36 908 59 0 7 0 0
38 922 57 0 4 0 0
40 925 49 0 4 0 0
42 922 49 0 3 0 0
44 923 52 0 5 0 0
46 932 51 0 7 0 0
48 929 58 0 6 0 0
50 933 56 0 6 0 0
52 774 0 209 4 6 0
54 699 0 279 1 6 0
56 633 1 347 0 2 0
58 564 1 424 0 1 0
60 509 0 476 3 2 0
62 462 0 519 3 6 0
64 410 0 570 2 7 0
66 377 0 609 1 8 0
68 342 0 649 2 4 0
70 321 0 673 1 3 0
72 291 0 704 2 2 0
74 258 1 730 0 2 0
76 226 0 758 1 4 0
78 216 0 774 0 4 0
80 200 0 786 0 5 0
82 183 0 801 1 5 0
84 174 0 807 2 6 0
86 160 0 814 0 7 0
88 146 0 839 2 3 0
90 138 1 850 2 3 0
92 126 0 868 0 5 0
94 110 0 894 3 4 0
96 100 0 896 1 1 0
98 94 0 892 1 4 0
100 81 1 905 1 2 0
102 72 0 907 0 2 0
104 64 0 915 1 6 0
106 58 0 924 1 5 0
108 52 0 933 0 3 0
110 47 0 929 0 12 0
112 43 0 946 1 5 0
114 40 0 955 3 3 0
116 34 0 961 1 8 0
118 34 0 956 0 4 0
120 30 1 963 1 2 0
122 25 0 967 0 3 0
124 22 0 964 0 4 0
126 20 0 979 0 2 0
128 19 0 969 2 2 0
130 20 0 967 1 5 0
132 15 0 970 3 10 0
134 14 0 970 0 4 0
136 12 0 974 0 4 0
138 11 0 965 1 9 0
140 10 0 977 0 4 0
142 10 0 988 0 2 0
144 9 1 987 1 7 0
146 9 0 994 0 6 0
148 9 0 989 0 2 0
150 8 0 989 1 2 0
152 5 0 997 0 4 0
154 5 0 987 1 6 0
156 5 0 996 0 5 0
158 5 0 986 0 10 0
160 3 0 988 2 4 0
162 3 0 996 0 3 0
164 2 0 995 1 0 0
166 2 0 988 0 6 0
168 1 0 993 1 0 0
170 1 0 989 0 8 0
172 3 0 982 1 5 0
174 2 0 987 1 0 0
176 1 0 988 0 4 0
178 1 0 985 4 3 0
180 1 0 984 1 4 0
182 1 0 979 0 2 0
184 3 0 977 0 2 0
186 1 0 987 2 4 0
188 1 0 983 0 6 0
190 1 0 985 1 7 0
192 2 0 988 2 4 0
194 2 0 991 0 3 0
196 2 0 995 1 6 0
198 1 0 991 0 9 0
200 1 0 997 0 6 0
