0 828 0 0 0 0 0
2 766 57 0 5 0 0
4.00004 767 50 0 8 0 0
6 759 61 0 4 0 0
8 773 52 0 6 0 0
10 752 59 0 11 0 0
12 750 67 0 6 0 0
14 755 63 0 2 0 0
16 773 44 0 2 0 0
18 766 53 0 6 0 0
20 752 59 0 4 0 0
22 751 47 0 3 0 0
24 737 65 0 2 0 0
26 726 67 0 7 0 0
28 734 56 0 4 0 0
30 720 62 0 5 0 0
32 713 70 0 4 0 0
34 729 57 0 4 0 0
36 714 66 0 3 0 0
38 717 65 0 2 0 0
40 726 68 0 6 0 0
42 719 71 0 7 0 0
44 721 73 0 5 0 0
46 716 78 0 6 0 0
48 729 72 0 4 0 0
50 749 53 0 4 0 0
52 598 0 200 1 6 0
54 529 2 265 0 8 0
56 463 0 339 1 5 0
58 396 0 397 3 5 0
60 332 0 456 3 5 0
62 300 0 492 0 7 0
64 258 0 528 0 5 0
66 223 0 573 2 6 0
68 193 0 598 0 9 0
70 170 0 635 0 7 0
72 144 0 667 1 4 0
74 127 0 692 0 3 0
76 103 0 716 0 7 0
78 92 0 725 0 4 0
80 82 0 734 2 6 0
82 74 0 745 0 4 0
84 64 0 754 1 5 0
86 55 0 761 2 4 0
88 44 1 768 1 5 0
90 43 0 782 3 2 0
92 37 0 787 0 7 0
94 29 0 793 0 8 0
96 25 0 797 1 4 0
98 22 0 798 0 4 0
100 19 0 802 1 5 0
102 17 0 816 0 4 0
104 15 0 813 1 2 0
106 14 0 802 1 9 0
108 12 0 805 1 6 0
110 11 0 814 3 7 0
112 10 0 827 0 0 0
114 10 0 821 2 5 0
116 8 0 817 1 5 0
118 8 0 826 0 0 0
120 8 0 828 0 1 0
122 9 0 812 1 5 0
124 8 0 812 0 7 0
126 6 0 815 1 6 0
128 6 1 810 1 3 0
130 5 1 814 0 6 0
132 5 0 823 1 1 0
134 3 0 819 0 7 0
136 3 0 821 0 7 0
138 3 0 824 1 3 0
140 4 0 823 1 3 0
142 2 0 833 1 3 0
144 3 0 837 0 8 0
146 2 0 828 0 5 0
148 2 0 834 0 3 0
150 2 0 819 0 4 0
152 2 0 818 1 5 0
154 1 0 827 1 4 0
156 1 0 838 1 3 0
158 1 0 828 1 4 0
160 0 0 832 0 4 0
162 1 1 825 0 3 0
164 0 0 824 1 3 0
166 0 0 819 1 4 0
168 0 0 823 1 5 0
170 0 0 818 0 7 0
172 0 0 817 1 7 0
174 0 0 821 0 3 0
176 0 0 823 0 4 0
178 0 0 820 0 2 0
180 0 0 818 1 2 0
182 0 0 809 1 7 0
184 0 0 817 1 4 0
186 0 0 813 0 4 0
188 0 0 803 0 8 0
190 0 0 809 2 5 0
192 0 0 807 1 6 0
194 0 0 819 1 3 0
196 0 0 815 0 7 0
198 0 0 809 0 7 0
200 0 0 812 0 3 0
