0 932 0 0 0 0 0
2 891 33 0 5 0 0
4.00004 887 42 0 3 0 0
6 906 36 0 1 0 0
8 906 28 0 2 0 0
10 892 51 0 4 0 0
12 901 44 0 3 0 0
14 906 42 0 4 0 0
16 915 41 0 2 0 0
18 913 45 0 5 0 0
20 924 39 0 5 0 0
22 920 47 0 2 0 0
24 932 39 0 1 0 0
26 932 41 0 3 0 0
28 939 42 0 5 0 0
30 944 40 0 4 0 0
32 935 50 0 5 0 0
34 937 46 0 4 0 0
36 945 42 0 4 0 0
38 949 42 0 3 0 0
40 927 56 0 7 0 0
42 945 38 0 3 0 0
44 937 49 0 6 0 0
46 950 45 0 5 0 0
48 953 34 0 4 0 0
50 946 45 0 2 0 0
52 799 1 189 1 2 0
54 721 0 274 1 1 0
56 655 0 343 0 2 0
58 605 1 397 1 0 0
60 559 2 440 0 2 0
62 511 0 491 2 3 0
64 471 0 537 1 1 0
66 429 0 580 2 4 0
68 400 0 620 0 2 0
70 365 0 654 0 2 0
72 333 0 677 0 3 0
74 314 0 711 2 3 0
76 278 0 751 0 1 0
78 260 0 767 2 4 0
80 237 0 795 1 4 0
82 212 0 821 1 1 0
84 196 0 847 0 4 0
86 183 0 863 0 0 0
88 170 0 869 3 4 0
90 157 0 887 2 6 0
92 138 0 918 1 3 0
94 123 0 933 0 7 0
96 112 0 952 1 3 0
98 100 0 968 0 5 0
100 90 0 979 0 4 0
102 85 0 985 2 4 0
104 79 0 998 0 2 0
106 69 1 1008 1 1 0
108 58 1 1020 0 7 0
110 53 0 1034 1 4 0
112 47 0 1050 0 3 0
114 44 0 1039 1 5 0
116 42 0 1048 1 1 0
118 38 0 1045 1 4 0
120 37 0 1041 1 5 0
122 33 0 1041 2 4 0
124 30 0 1054 0 4 0
126 27 1 1059 0 3 0
128 26 0 1055 0 4 0
130 24 0 1058 0 7 0
132 22 0 1065 0 2 0
134 18 0 1065 1 5 0
136 16 0 1065 0 4 0
138 16 0 1065 1 3 0
140 13 0 1067 0 2 0
142 12 0 1067 2 4 0
144 11 0 1069 0 3 0
146 9 0 1060 1 3 0
148 9 0 1058 0 4 0
150 7 0 1058 0 6 0
152 7 0 1062 2 3 0
154 6 0 1063 0 3 0
156 6 0 1061 0 4 0
158 6 0 1060 1 5 0
160 5 0 1064 0 1 0
162 4 0 1063 1 3 0
164 2 0 1073 0 2 0
166 2 0 1078 0 1 0
168 3 0 1073 1 4 0
170 2 0 1078 2 2 0
172 1 0 1074 0 2 0
174 1 0 1085 0 4 0
176 2 0 1091 0 4 0
178 1 0 1090 2 4 0
180 1 0 1087 2 2 0
182 2 0 1089 0 3 0
184 1 0 1083 0 3 0
186 1 0 1090 0 1 0
188 1 0 1088 1 5 0
190 2 0 1086 1 3 0
192 1 0 1086 0 2 0
194 1 0 1089 0 6 0
196 0 0 1087 0 6 0
198 0 0 1097 0 3 0
200 1 0 1097 0 1 0
