0 933 0 0 0 0
2 870 0 0 61 0
4.00004 849 0 0 82 0
6 879 0 0 58 0
8 870 0 0 69 0
10 873 0 0 69 0
12 870 0 0 72 0
14 875 0 0 68 0
16 865 0 0 86 0
18 878 0 0 66 0
20 898 0 0 64 0
22 885 0 0 78 0
24 873 0 0 79 0
26 882 0 0 68 0
28 886 0 0 76 0
30 885 0 0 75 0
32 888 0 0 72 0
34 892 0 0 67 0
36 888 0 0 77 0
38 878 0 0 81 0
40 899 0 0 68 0
42 893 0 0 77 0
44 891 0 0 79 0
46 899 0 0 77 0
48 883 0 0 85 0
50 896 0 0 68 0
52 880 0 0 83 0
54 875 0 1 89 1
56 887 0 1 70 1
58 885 0 7 68 3
60 870 0 4 79 6
62 887 0 5 68 5
64 869 0 11 75 6
66 873 0 15 64 8
68 867 0 16 66 8
70 878 0 18 53 13
72 856 0 24 58 17
74 847 0 41 64 16
76 842 0 47 64 20
78 841 0 60 57 14
80 812 0 62 72 11
82 807 0 72 62 14
84 805 0 73 52 14
86 802 0 78 54 19
88 806 0 88 45 14
90 787 0 85 53 24
92 785 0 100 49 22
94 764 0 109 62 24
96 763 0 118 58 22
98 759 0 124 51 25
100 762 0 129 48 33
102 749 0 144 52 18
104 744 0 149 45 24
106 738 0 159 49 30
108 721 0 180 59 19
110 737 0 176 41 35
112 725 0 199 40 25
114 703 0 206 49 30
116 709 0 209 40 29
118 707 0 217 38 27
120 699 0 225 45 37
122 700 0 230 41 38
124 688 0 242 47 34
126 673 0 250 46 30
128 686 0 248 29 33
130 678 0 263 41 26
132 670 0 267 43 29
134 665 0 261 44 36
136 653 0 275 42 29
138 646 0 275 38 36
140 633 0 287 51 28
142 629 0 283 40 43
144 624 0 288 35 40
146 614 0 305 40 37
148 613 0 303 36 46
150 606 0 324 37 32
152 598 0 327 41 37
154 600 0 337 31 27
156 577 0 327 37 43
158 585 0 338 30 39
160 569 0 343 41 39
162 568 0 358 39 37
164 567 0 363 30 43
166 554 0 372 39 31
168 556 0 358 38 44
170 555 0 364 38 39
172 540 0 360 54 43
174 546 0 374 35 34
176 540 0 378 31 41
178 531 0 388 26 36
180 519 0 374 33 56
182 498 0 390 41 45
184 501 0 396 38 42
186 493 0 394 37 58
188 499 0 394 26 51
190 480 0 412 37 43
192 483 0 415 28 39
194 486 0 428 24 30
196 472 0 404 29 51
198 468 0 429 29 48
200 464 0 441 30 33
