0 1024 0 0 0 0
2 972 0 0 53 0
4.00004 978 0 0 61 0
6 979 0 0 58 0
8 976 0 0 64 0
10 977 0 0 58 0
12 975 0 0 63 0
14 964 0 0 65 0
16 954 0 0 59 0
18 961 0 0 55 0
20 957 0 0 62 0
22 948 0 0 68 0
24 954 0 0 64 0
26 958 0 0 62 0
28 955 0 0 66 0
30 958 0 0 52 0
32 938 0 0 63 0
34 948 0 0 68 0
36 947 0 0 69 0
38 930 0 0 74 0
40 931 0 0 73 0
42 934 0 0 75 0
44 945 0 0 64 0
46 942 0 0 58 0
48 934 0 0 71 0
50 930 0 0 65 0
52 931 0 0 71 0
54 940 0 0 55 0
56 924 0 0 78 0
58 940 0 1 59 0
60 942 0 3 65 0
62 936 0 3 64 0
64 942 0 2 56 1
66 933 0 4 67 3
68 937 0 6 71 4
70 947 0 8 58 2
72 957 0 12 51 3
74 949 0 10 64 7
76 938 0 12 57 7
78 932 0 15 63 5
80 932 0 16 55 6
82 929 0 22 51 5
84 912 0 21 58 9
86 925 0 23 46 11
88 914 0 30 56 5
90 917 0 29 52 5
92 916 0 34 54 10
94 931 0 34 38 7
96 904 0 37 59 8
98 903 0 41 55 7
100 908 0 43 55 8
102 918 0 45 46 10
104 890 0 52 56 7
106 891 0 48 45 14
108 897 0 45 40 14
110 883 0 55 49 15
112 890 0 58 49 14
114 876 0 63 52 11
116 863 0 77 58 12
118 877 0 74 45 22
120 873 0 87 41 18
122 870 0 94 44 19
124 860 0 101 50 18
126 872 0 97 38 17
128 855 0 100 52 17
130 863 0 96 42 26
132 856 0 108 45 23
134 846 0 108 50 18
136 837 0 126 46 10
138 846 0 119 39 16
140 832 0 125 49 20
142 833 0 125 45 20
144 831 0 129 41 22
146 815 0 140 49 20
148 805 0 137 55 26
150 802 0 141 52 27
152 806 0 151 42 17
154 797 0 155 43 23
156 789 0 159 47 21
158 801 0 160 35 23
160 797 0 160 32 23
162 792 0 168 41 18
164 780 0 162 42 25
166 780 0 174 40 21
168 774 0 175 48 19
170 781 0 172 32 25
172 771 0 173 37 29
174 770 0 182 38 20
176 769 0 189 37 19
178 765 0 193 42 24
180 759 0 206 41 19
182 759 0 206 40 23
184 759 0 207 33 21
186 761 0 200 30 35
188 752 0 213 37 25
190 754 0 221 32 24
192 756 0 224 28 21
194 739 0 219 41 30
196 740 0 223 35 33
198 752 0 235 27 28
200 736 0 237 45 21
