0 912 0 0 0 0
2 846 0 0 65 0
4.00004 855 0 0 62 0
6 850 0 0 53 0
8 852 0 0 52 0
10 864 0 0 47 0
12 864 0 0 55 0
14 878 0 0 49 0
16 866 0 0 72 0
18 866 0 0 63 0
20 873 0 0 57 0
22 881 0 0 52 0
24 865 0 0 64 0
26 876 0 0 55 0
28 866 0 0 63 0
30 867 0 0 67 0
32 895 0 0 42 0
34 875 0 0 70 0
36 877 0 0 57 0
38 891 0 0 44 0
40 874 0 0 62 0
42 870 0 0 77 0
44 879 0 0 60 0
46 878 0 0 56 0
48 867 0 0 62 0
50 885 0 0 61 0
52 879 0 0 64 0
54 881 0 0 53 0
56 889 0 0 50 0
58 877 0 0 53 0
60 882 0 0 52 0
62 869 0 0 68 2
64 874 0 3 64 1
66 867 0 4 61 1
68 869 0 11 48 1
70 868 0 9 46 3
72 851 0 17 56 9
74 856 0 16 41 6
76 852 0 24 51 2
78 856 0 29 44 4
80 848 0 28 54 9
82 836 0 37 54 10
84 826 0 39 52 16
86 812 0 50 54 8
88 823 0 54 44 8
90 803 0 61 56 11
92 806 0 71 48 12
94 790 0 73 56 12
96 791 0 74 42 13
98 795 0 87 30 12
100 779 0 78 40 12
102 775 0 79 40 18
104 768 0 80 48 21
106 747 0 80 46 19
108 745 0 94 46 14
110 740 0 101 47 20
112 744 0 109 40 22
114 733 0 120 48 23
116 734 0 117 46 17
118 747 0 126 33 16
120 740 0 124 39 23
122 723 0 128 46 19
124 723 0 140 37 17
126 723 0 137 36 19
128 719 0 145 35 13
130 711 0 146 32 22
132 704 0 159 34 20
134 690 0 169 44 18
136 698 0 167 33 18
138 687 0 172 37 18
140 694 0 173 27 17
142 679 0 188 38 16
144 676 0 190 34 25
146 665 0 198 39 26
148 652 0 208 40 24
150 646 0 203 39 30
152 646 0 216 30 22
154 643 0 218 32 34
156 639 0 227 34 30
158 624 0 232 42 29
160 632 0 237 28 23
162 634 0 241 22 23
164 620 0 255 26 24
166 616 0 256 31 25
168 613 0 263 35 29
170 611 0 270 31 23
172 607 0 265 32 36
174 599 0 275 35 28
176 599 0 275 32 25
178 589 0 276 31 28
180 583 0 274 27 27
182 579 0 288 30 23
184 582 0 297 25 29
186 572 0 306 28 25
188 570 0 305 28 24
190 556 0 312 35 25
192 556 0 317 37 29
194 556 0 317 34 40
196 546 0 328 35 34
198 550 0 339 21 20
200 532 0 336 31 28
