0 916 0 0 0 0
2 842 0 0 64 0
4.00004 857 0 0 52 0
6 847 0 0 63 0
8 839 0 0 64 0
10 843 0 0 52 0
12 851 0 0 59 0
14 844 0 0 68 0
16 861 0 0 53 0
18 837 0 0 67 0
20 850 0 0 68 0
22 847 0 0 71 0
24 860 0 0 58 0
26 852 0 0 62 0
28 857 0 0 65 0
30 857 0 0 65 0
32 868 0 0 65 0
34 857 0 0 81 0
36 868 0 0 73 0
38 872 0 0 72 0
40 859 0 0 79 0
42 869 0 0 67 0
44 866 0 0 61 0
46 861 0 0 62 0
48 862 0 0 60 0
50 852 0 0 66 0
52 849 0 0 57 0
54 850 0 0 62 0
56 850 0 2 61 3
58 853 0 2 61 0
60 840 0 5 74 2
62 848 0 9 66 2
64 845 0 7 69 6
66 870 0 7 49 4
68 854 0 12 61 6
70 834 0 20 72 5
72 862 0 24 47 8
74 841 0 25 66 10
76 857 0 34 55 12
78 841 0 42 58 10
80 835 0 44 56 16
82 836 0 53 49 8
84 816 0 50 61 18
86 832 0 63 52 12
88 816 0 67 57 18
90 825 0 78 44 22
92 814 0 93 51 11
94 803 0 99 50 15
96 790 0 99 47 29
98 789 0 113 41 19
100 779 0 125 50 21
102 774 0 132 45 27
104 768 0 143 45 27
106 773 0 135 32 32
108 765 0 164 36 16
110 751 0 172 42 21
112 739 0 183 44 18
114 737 0 186 41 27
116 729 0 186 43 31
118 730 0 187 46 37
120 732 0 207 44 24
122 730 0 212 41 21
124 723 0 213 41 24
126 713 0 214 49 27
128 713 0 223 38 27
130 700 0 229 41 33
132 689 0 235 46 28
134 682 0 244 38 26
136 670 0 239 41 28
138 680 0 250 34 25
140 658 0 263 44 27
142 663 0 261 30 35
144 652 0 274 32 38
146 655 0 280 33 29
148 645 0 283 34 27
150 636 0 286 33 35
152 637 0 287 25 30
154 619 0 296 38 27
156 624 0 289 33 32
158 613 0 296 40 31
160 615 0 311 32 34
162 614 0 314 32 31
164 612 0 326 29 34
166 602 0 320 34 41
168 597 0 328 36 38
170 591 0 319 32 38
172 576 0 334 46 26
174 582 0 338 36 29
176 586 0 345 29 31
178 572 0 352 33 29
180 571 0 355 24 25
182 561 0 352 33 29
184 554 0 353 41 36
186 562 0 356 26 31
188 542 0 364 35 35
190 551 0 373 29 28
192 539 0 378 42 27
194 540 0 376 35 38
196 525 0 386 40 37
198 523 0 387 36 37
200 522 0 394 35 37
