0 985 0 0 0 0
2 927 0 0 52 0
4.00004 944 0 0 40 0
6 932 0 0 61 0
8 928 0 0 59 0
10 934 0 0 74 0
12 954 0 0 57 0
14 941 0 0 65 0
16 947 0 0 68 0
18 957 0 0 59 0
20 944 0 0 69 0
22 951 0 0 61 0
24 943 0 0 64 0
26 916 0 0 78 0
28 941 0 0 56 0
30 947 0 0 52 0
32 932 0 0 70 0
34 927 0 0 64 0
36 941 0 0 59 0
38 946 0 0 59 0
40 937 0 0 64 0
42 941 0 0 64 0
44 946 0 0 57 0
46 940 0 0 55 0
48 926 0 0 55 0
50 936 0 0 48 0
52 930 0 0 63 0
54 943 0 0 59 0
56 941 0 2 60 2
58 924 0 5 66 0
60 927 0 6 67 1
62 942 0 9 50 0
64 926 0 11 67 4
66 951 0 17 55 4
68 917 0 21 71 6
70 925 0 27 53 2
72 906 0 23 66 8
74 907 0 30 63 6
76 890 0 32 77 7
78 896 0 43 67 6
80 900 0 51 50 9
82 894 0 58 54 10
84 869 0 63 62 11
86 879 0 65 51 14
88 877 0 79 54 12
90 860 0 78 64 17
92 864 0 85 53 18
94 864 0 97 52 16
96 863 0 100 48 14
98 850 0 104 48 18
100 831 0 115 51 12
102 837 0 120 50 19
104 837 0 130 48 18
106 839 0 138 41 17
108 828 0 138 44 18
110 817 0 148 48 16
112 816 0 157 34 15
114 792 0 147 56 31
116 808 0 159 39 19
118 797 0 166 44 18
120 795 0 180 47 21
122 789 0 186 50 27
124 786 0 183 41 26
126 788 0 185 42 26
128 772 0 204 45 15
130 778 0 204 45 16
132 777 0 208 41 16
134 762 0 217 45 22
136 748 0 220 50 24
138 758 0 227 40 26
140 728 0 225 52 31
142 721 0 225 48 30
144 728 0 245 35 21
146 726 0 256 34 20
148 714 0 266 37 22
150 708 0 259 38 27
152 702 0 267 31 24
154 700 0 264 41 28
156 693 0 268 47 22
158 694 0 278 37 19
160 692 0 272 27 30
162 677 0 265 36 31
164 660 0 277 42 27
166 654 0 280 39 30
168 647 0 287 34 42
170 646 0 295 37 32
172 646 0 311 30 28
174 641 0 314 32 24
176 638 0 323 37 25
178 632 0 323 39 29
180 629 0 321 31 40
182 623 0 334 24 35
184 618 0 343 32 33
186 619 0 359 28 28
188 602 0 359 33 27
190 597 0 349 35 46
192 590 0 369 40 35
194 601 0 376 29 25
196 575 0 374 40 38
198 577 0 383 30 30
200 589 0 395 28 24
