0 915 0 0 0 0
2 867 0 0 44 0
4.00004 882 0 0 37 0
6 885 0 0 44 0
8 900 0 0 37 0
10 899 0 0 57 0
12 904 0 0 47 0
14 910 0 0 45 0
16 906 0 0 43 0
18 926 0 0 40 0
20 911 0 0 48 0
22 926 0 0 58 0
24 933 0 0 41 0
26 939 0 0 44 0
28 939 0 0 51 0
30 943 0 0 41 0
32 960 0 0 48 0
34 955 0 0 53 0
36 960 0 0 40 0
38 960 0 0 43 0
40 970 0 0 45 0
42 980 0 0 48 0
44 976 0 0 48 0
46 980 0 0 49 0
48 983 0 0 44 0
50 982 0 0 49 0
52 993 0 0 48 0
54 1001 0 0 38 1
56 989 0 2 43 1
58 985 0 6 43 4
60 974 0 10 39 4
62 972 0 14 38 9
64 967 0 26 32 13
66 960 0 36 41 7
68 947 0 53 49 8
70 944 0 65 49 11
72 936 0 73 39 14
74 936 0 87 31 11
76 919 0 97 40 11
78 913 0 104 36 19
80 912 0 125 30 14
82 893 0 135 33 16
84 878 0 145 33 19
86 860 0 156 39 13
88 853 0 169 29 14
90 841 0 170 27 21
92 829 0 188 30 19
94 826 0 204 24 18
96 821 0 218 17 12
98 795 0 217 24 22
100 783 0 235 30 18
102 784 0 243 27 16
104 772 0 254 21 20
106 770 0 265 16 23
108 778 0 278 12 24
110 757 0 286 13 21
112 739 0 298 28 27
114 723 0 302 28 27
116 712 0 308 24 25
118 700 0 315 29 29
120 691 0 331 24 23
122 686 0 350 27 21
124 671 0 354 30 16
126 664 0 358 28 21
128 658 0 365 23 28
130 651 0 371 16 25
132 640 0 390 30 20
134 644 0 401 18 23
136 632 0 407 25 30
138 623 0 425 28 26
140 620 0 445 20 24
142 608 0 441 22 27
144 601 0 455 22 35
146 597 0 460 20 29
148 591 0 472 17 28
150 571 0 478 31 32
152 581 0 482 14 33
154 570 0 501 21 26
156 563 0 509 16 26
158 552 0 511 19 29
160 539 0 523 26 26
162 534 0 527 15 32
164 526 0 535 23 34
166 526 0 546 16 27
168 514 0 551 17 27
170 504 0 560 24 24
172 504 0 573 19 22
174 492 0 576 21 28
176 480 0 582 23 32
178 471 0 582 31 30
180 465 0 593 23 32
182 465 0 598 15 37
184 464 0 628 16 29
186 459 0 623 16 45
188 448 0 626 21 35
190 442 0 646 17 24
192 442 0 640 18 31
194 441 0 639 12 40
196 434 0 651 14 43
198 432 0 663 18 38
200 425 0 674 16 38
