0 1040 0 0 0 0
2 1002 0 0 40 0
4.00004 1005 0 0 42 0
6 994 0 0 48 0
8 995 0 0 45 0
10 998 0 0 43 0
12 982 0 0 58 0
14 1012 0 0 40 0
16 999 0 0 58 0
18 1003 0 0 55 0
20 1002 0 0 52 0
22 994 0 0 64 0
24 1002 0 0 63 0
26 1009 0 0 56 0
28 1002 0 0 53 0
30 1025 0 0 41 0
32 1011 0 0 51 0
34 1012 0 0 52 0
36 1017 0 0 52 0
38 1032 0 0 36 0
40 1021 0 0 50 0
42 1016 0 0 60 0
44 1020 0 0 57 0
46 1021 0 0 43 0
48 1017 0 0 45 0
50 1012 0 0 54 0
52 1021 0 0 55 0
54 1021 0 0 55 0
56 1034 0 0 44 0
58 1023 0 0 56 1
60 1029 0 1 39 1
62 1033 0 5 30 2
64 1014 0 7 47 3
66 1011 0 9 57 2
68 1007 0 8 55 2
70 1015 0 18 41 4
72 1002 0 22 58 3
74 1013 0 24 40 7
76 997 0 30 50 2
78 1006 0 38 36 10
80 984 0 39 48 6
82 975 0 42 40 6
84 969 0 40 48 10
86 959 0 49 46 10
88 961 0 55 41 9
90 961 0 62 39 7
92 959 0 72 30 9
94 952 0 63 43 17
96 953 0 72 40 12
98 950 0 70 37 13
100 949 0 84 28 12
102 946 0 84 31 11
104 935 0 86 30 12
106 921 0 85 41 22
108 933 0 100 29 15
110 911 0 96 45 18
112 915 0 110 35 7
114 908 0 119 35 14
116 914 0 125 33 16
118 909 0 132 32 15
120 903 0 128 37 21
122 896 0 145 37 11
124 893 0 138 31 22
126 896 0 144 26 21
128 896 0 158 27 15
130 902 0 164 19 16
132 892 0 164 24 20
134 881 0 168 28 12
136 867 0 187 39 11
138 871 0 182 31 28
140 862 0 201 37 13
142 856 0 204 30 14
144 849 0 200 29 12
146 845 0 192 35 16
148 837 0 196 37 18
150 839 0 202 26 17
152 830 0 211 33 16
154 834 0 210 27 18
156 823 0 220 36 17
158 821 0 218 31 25
160 817 0 228 32 15
162 810 0 240 31 11
164 808 0 232 29 18
166 794 0 233 41 22
168 798 0 239 33 19
170 795 0 242 36 15
172 794 0 243 34 14
174 790 0 244 29 20
176 769 0 250 45 18
178 768 0 257 44 13
180 776 0 262 32 12
182 769 0 260 29 19
184 763 0 255 28 21
186 752 0 257 30 24
188 760 0 260 20 17
190 751 0 275 21 23
192 731 0 275 38 28
194 730 0 280 30 26
196 734 0 287 27 20
198 714 0 286 42 23
200 721 0 289 28 21
