0 1210 0 0 0 0 0
2 1121 22 0 48 0 13
4.00004 1107 16 0 53 0 20
6 1113 18 0 48 0 12
8 1101 27 0 49 0 19
10 1093 17 0 72 0 15
12 1092 26 0 67 0 11
14 1100 22 0 65 0 14
16 1094 20 0 64 0 21
18 1083 20 0 65 0 19
20 1072 29 0 61 0 24
22 1080 23 0 53 0 20
24 1078 24 0 55 0 20
26 1069 23 0 66 0 21
28 1077 18 0 66 0 15
30 1082 22 0 60 0 17
32 1077 26 0 63 0 14
34 1068 23 0 65 0 12
36 1070 21 0 64 0 19
38 1061 19 0 73 0 19
40 1066 19 0 67 0 14
42 1069 26 0 56 0 14
44 1049 14 0 83 0 20
46 1052 27 0 62 0 18
48 1054 23 0 57 0 19
50 1070 16 0 56 0 8
52 1017 0 69 26 44 0
54 976 0 108 22 46 0
56 951 0 127 15 61 0
58 913 0 179 13 56 0
60 871 0 213 18 63 0
62 844 0 256 15 57 0
64 804 0 283 15 67 0
66 781 0 317 14 51 0
68 745 0 349 17 60 0
70 721 1 384 4 63 0
72 681 1 409 15 70 0
74 651 0 449 11 66 1
76 629 1 460 14 69 0
78 603 0 502 8 58 0
80 574 0 504 14 80 0
82 556 0 541 9 69 0
84 533 0 556 13 68 0
86 508 0 576 16 67 0
88 491 0 596 7 76 0
90 466 0 620 10 61 0
92 447 0 647 9 58 0
94 425 1 658 10 63 0
96 408 0 679 2 67 0
98 390 0 697 8 66 0
100 374 0 712 7 65 1
102 358 0 725 10 70 0
104 340 0 735 13 72 0
106 326 0 765 5 70 0
108 305 0 765 6 89 0
110 296 1 788 6 76 0
112 284 0 824 3 53 0
114 270 0 822 5 70 0
116 259 0 826 4 65 0
118 249 0 839 6 63 0
120 245 0 836 6 54 0
122 238 0 845 5 64 0
124 230 0 846 8 73 0
126 218 0 857 11 76 0
128 215 0 861 3 80 0
130 213 0 873 3 74 0
132 207 0 887 3 71 0
134 197 0 913 4 52 0
136 181 0 893 7 75 0
138 175 0 931 6 52 0
140 174 0 928 5 74 0
142 165 0 944 3 70 0
144 157 0 944 2 79 0
146 146 1 944 4 84 0
148 137 0 965 2 76 0
150 134 0 983 4 73 0
152 132 0 986 3 78 0
154 128 0 997 2 79 0
156 121 0 992 3 93 0
158 119 0 1015 0 68 0
160 113 0 1011 1 79 0
162 110 0 1022 1 72 0
164 106 0 1018 1 81 0
166 98 0 1031 1 73 0
168 90 0 1025 5 79 0
170 82 0 1034 3 74 0
172 83 0 1031 1 71 0
174 80 0 1031 1 77 0
176 78 0 1043 0 72 0
178 76 0 1035 1 68 0
180 74 0 1046 4 62 0
182 74 0 1039 0 72 0
184 73 0 1048 3 70 0
186 67 0 1034 4 82 0
188 65 0 1049 3 71 0
190 65 1 1045 3 76 0
192 63 0 1048 1 77 0
194 58 0 1057 1 72 0
196 59 0 1051 1 67 0
198 53 0 1062 3 71 0
200 50 0 1074 2 65 0
