0 1112 0 0 0 0 0
2 1004 0 0 99 0 0
4.00004 1029 0 0 85 0 0
6 1024 0 0 84 0 0
8 1003 0 0 119 0 0
10 1009 0 0 100 0 0
12 1001 0 0 103 0 0
14 986 0 0 119 0 0
16 1004 0 0 95 0 0
18 997 0 0 114 0 0
20 1019 0 0 103 0 0
22 999 0 0 89 0 0
24 965 0 0 125 0 0
26 988 0 0 124 0 0
28 972 0 0 133 0 0
30 972 0 0 136 0 0
32 976 0 0 129 0 0
34 983 0 0 111 0 0
36 973 0 0 119 0 0
38 971 0 0 102 0 0
40 976 0 0 131 0 0
42 983 0 0 119 0 0
44 964 0 0 119 0 0
46 979 0 0 128 0 0
48 976 0 0 129 0 0
50 972 0 0 130 0 0
52 954 0 15 106 9 0
54 918 0 28 109 31 0
56 923 0 47 78 45 0
58 893 0 78 79 54 0
60 869 0 104 77 42 0
62 853 0 114 74 54 0
64 828 0 132 77 53 0
66 821 0 141 63 52 0
68 804 0 166 64 46 0
70 782 0 172 66 52 0
72 789 0 181 50 52 0
74 780 0 189 45 61 0
76 750 0 209 52 63 0
78 719 0 215 56 75 0
80 696 0 244 67 59 0
82 683 0 241 55 66 0
84 664 0 276 52 65 0
86 653 0 278 49 74 0
88 621 0 288 62 78 0
90 615 0 307 60 64 0
92 608 0 309 52 78 0
94 593 0 330 42 75 0
96 567 0 343 50 80 0
98 557 0 352 43 75 0
100 556 0 357 39 84 0
102 544 0 385 42 78 0
104 535 0 390 41 87 0
106 519 0 401 44 87 0
108 508 0 414 47 82 0
110 484 0 426 50 88 0
112 478 0 443 38 83 0
114 463 0 443 38 86 0
116 448 0 463 40 71 0
118 444 0 473 41 73 0
120 439 0 473 34 91 0
122 420 0 491 43 76 0
124 420 0 510 26 69 0
126 406 0 524 32 77 0
128 403 0 527 25 82 0
130 398 0 529 24 93 0
132 386 0 560 23 88 0
134 372 0 549 39 109 0
136 350 0 554 41 104 0
138 344 0 567 32 113 0
140 341 0 574 29 114 0
142 338 0 607 24 101 0
144 329 0 630 23 89 0
146 320 0 621 19 95 0
148 313 0 618 22 105 0
150 302 0 646 23 97 0
152 291 0 642 24 112 0
154 285 0 637 25 100 0
156 288 0 677 17 95 0
158 273 0 665 23 99 0
160 264 0 670 26 100 0
162 260 0 688 19 106 0
164 253 0 706 19 106 0
166 246 0 712 16 95 0
168 237 0 731 25 110 0
170 232 0 715 24 121 0
172 230 0 715 23 116 0
174 221 0 726 25 103 0
176 227 0 716 13 117 0
178 213 0 733 20 95 0
180 210 0 730 23 93 0
182 203 0 735 20 97 0
184 195 0 738 21 100 0
186 200 0 744 16 98 0
188 195 0 730 16 110 0
190 192 0 731 13 110 0
192 183 0 733 13 111 0
194 176 0 735 14 118 0
196 173 0 755 15 103 0
198 172 0 734 11 109 0
200 162 0 757 21 95 0
