0 1309 0 0 0 0 0
2 1221 20 0 40 0 9
4.00004 1239 21 0 21 0 13
6 1232 26 0 31 0 17
8 1218 26 0 40 0 13
10 1217 31 0 30 0 9
12 1196 24 0 39 0 18
14 1202 23 0 32 0 15
16 1183 31 0 44 0 16
18 1200 26 0 32 0 11
20 1179 33 0 36 0 8
22 1187 29 0 37 0 11
24 1153 34 0 40 0 16
26 1148 39 0 51 0 9
28 1159 24 0 47 0 13
30 1154 31 0 41 0 14
32 1155 28 0 37 0 10
34 1152 25 0 48 0 9
36 1142 33 0 40 0 17
38 1156 27 0 28 0 8
40 1148 20 0 37 0 14
42 1128 32 0 48 0 14
44 1140 24 0 42 0 14
46 1140 30 0 29 0 11
48 1126 28 0 43 0 15
50 1128 14 0 46 0 19
52 1036 0 112 17 33 0
54 972 0 175 9 40 0
56 928 0 221 7 38 0
58 882 0 254 10 40 1
60 832 0 291 6 49 0
62 793 0 351 5 42 0
64 752 0 384 6 33 1
66 697 0 426 11 46 0
68 666 0 461 8 45 0
70 629 0 503 3 37 0
72 588 0 519 2 47 0
74 552 0 554 6 49 0
76 523 0 577 4 40 0
78 499 0 600 7 44 0
80 465 0 632 5 43 0
82 442 0 638 2 53 0
84 417 0 679 3 34 0
86 390 0 709 2 42 1
88 369 0 722 3 35 0
90 349 0 734 0 43 0
92 334 0 741 3 42 0
94 321 0 772 1 37 0
96 307 0 770 2 49 0
98 285 0 788 7 43 0
100 270 0 807 0 45 0
102 250 0 811 5 56 0
104 235 0 823 4 54 0
106 224 0 826 1 56 0
108 211 1 846 0 52 0
110 204 0 858 0 47 0
112 185 0 869 4 38 0
114 178 0 883 4 35 0
116 169 0 896 2 44 0
118 163 0 894 3 48 0
120 153 0 907 2 50 0
122 145 0 915 2 51 0
124 130 0 932 2 46 0
126 125 0 948 0 34 0
128 116 0 949 3 28 0
130 110 0 944 1 48 0
132 102 0 958 4 48 0
134 98 0 970 2 43 0
136 93 0 971 1 42 0
138 86 0 977 1 43 0
140 81 0 961 2 60 0
142 81 0 979 2 41 0
144 75 0 985 1 47 0
146 72 0 986 0 41 0
148 70 0 974 0 45 0
150 67 0 987 1 44 0
152 63 0 981 3 45 0
154 61 0 983 2 43 0
156 59 0 990 0 52 0
158 58 1 994 1 51 0
160 55 0 998 1 42 0
162 53 0 1018 1 48 0
164 52 0 1018 2 48 0
166 52 0 1024 2 36 0
168 50 0 1021 0 46 0
170 47 0 1024 1 60 1
172 44 0 1041 1 32 0
174 42 0 1045 2 40 0
176 38 0 1023 0 58 0
178 37 0 1026 1 53 0
180 34 0 1038 0 52 0
182 34 0 1039 0 47 0
184 33 0 1033 0 43 0
186 32 0 1041 0 50 0
188 31 0 1041 1 39 0
190 31 0 1045 0 41 0
192 29 0 1032 1 44 0
194 26 0 1031 0 47 0
196 25 0 1019 0 54 0
198 24 0 1017 0 44 0
200 23 0 1029 1 45 0
