0 1101 0 0 0 0 0
2 996 28 0 47 0 21
4.00004 992 19 0 56 0 18
6 1008 16 0 53 0 11
8 977 25 0 69 0 20
10 994 33 0 56 0 11
12 991 19 0 72 0 10
14 978 27 0 74 0 16
16 990 30 0 72 0 15
18 988 41 0 60 0 15
20 975 36 0 66 0 19
22 985 18 0 63 0 18
24 977 27 0 78 0 14
26 980 33 0 68 0 16
28 990 39 0 54 0 11
30 991 37 0 66 0 13
32 985 36 0 64 0 10
34 996 27 0 67 0 15
36 982 29 0 72 0 18
38 1002 30 0 59 0 18
40 990 30 0 78 0 15
42 985 32 0 64 0 18
44 991 26 0 62 0 10
46 973 28 0 85 0 11
48 977 36 0 71 0 11
50 989 32 0 75 0 11
52 923 0 101 29 57 0
54 869 0 158 21 53 1
56 832 0 195 14 60 0
58 789 0 234 13 69 0
60 749 0 267 13 81 0
62 714 0 311 20 56 0
64 685 0 337 23 71 0
66 649 0 390 11 63 0
68 619 0 405 13 67 0
70 591 0 420 14 82 0
72 568 1 446 16 74 0
74 539 0 485 18 70 0
76 517 0 512 15 75 0
78 499 0 549 12 63 0
80 472 0 563 8 67 0
82 455 0 586 11 64 0
84 444 1 601 15 61 0
86 415 0 621 16 66 0
88 397 1 641 10 78 0
90 383 0 661 5 79 0
92 364 0 687 7 77 0
94 354 0 679 8 83 0
96 333 0 702 13 78 1
98 319 0 727 10 72 0
100 307 0 748 4 63 0
102 291 0 735 10 80 0
104 276 0 748 13 72 0
106 265 0 762 7 76 0
108 250 0 769 11 77 0
110 245 0 797 5 84 0
112 229 0 783 10 96 0
114 217 0 808 7 87 0
116 208 0 834 8 78 0
118 195 0 827 5 90 0
120 182 0 853 6 86 0
122 178 0 865 7 83 0
124 174 0 857 4 85 0
126 163 0 878 1 75 0
128 154 0 882 2 86 0
130 147 0 904 7 59 0
132 145 0 896 4 79 0
134 136 0 911 5 74 0
136 130 0 918 4 82 0
138 127 0 912 7 74 0
140 124 0 914 3 82 0
142 123 0 909 6 96 0
144 114 0 919 2 88 0
146 113 0 933 4 90 0
148 101 0 947 7 79 0
150 97 0 961 3 76 0
152 101 0 957 3 85 0
154 92 0 969 4 70 0
156 85 0 974 5 78 0
158 85 0 978 2 75 0
160 77 0 976 6 76 0
162 74 0 968 1 77 0
164 74 0 967 3 80 0
166 69 0 977 4 80 0
168 62 0 975 6 86 0
170 63 0 975 4 98 0
172 57 0 1004 2 72 0
174 53 0 991 2 67 0
176 54 0 975 3 90 0
178 53 0 981 1 87 0
180 54 0 994 1 71 0
182 48 0 997 5 78 0
184 47 0 1004 8 81 0
186 49 0 1007 1 82 0
188 49 0 1004 6 80 0
190 44 0 1001 2 80 0
192 43 0 1013 2 77 0
194 43 0 1019 2 66 0
196 38 0 1023 2 66 0
198 37 0 1025 1 74 0
200 36 0 1022 4 95 0
