0 911 0 0 0 0 0
2 851 0 0 54 0 0
4.00004 869 0 0 53 0 0
6 863 0 0 63 0 0
8 860 0 0 70 0 0
10 859 0 0 69 0 0
12 863 0 0 64 0 0
14 867 0 0 59 0 0
16 856 0 0 65 0 0
18 854 0 0 75 0 0
20 863 0 0 61 0 0
22 864 0 0 56 0 0
24 864 0 0 63 0 0
26 864 0 0 65 0 0
28 861 0 0 61 0 0
30 860 0 0 79 0 0
32 885 0 0 49 0 0
34 889 0 0 46 0 0
36 874 0 0 69 0 0
38 893 0 0 55 0 0
40 885 0 0 54 0 0
42 884 0 0 63 0 0
44 882 0 0 65 0 0
46 879 0 0 71 0 0
48 871 0 0 68 0 0
50 872 0 0 62 0 0
52 868 0 5 57 7 0
54 864 0 18 47 10 0
56 853 0 26 49 21 0
58 843 0 39 48 23 0
60 832 0 53 45 25 0
62 829 0 59 37 22 0
64 818 0 64 35 26 0
66 792 0 86 54 27 0
68 786 0 89 48 27 0
70 775 0 100 47 28 0
72 768 0 106 42 30 0
74 764 0 120 29 28 0
76 752 0 123 34 33 0
78 744 0 143 30 28 0
80 739 0 160 26 28 0
82 730 0 159 31 38 0
84 710 0 171 44 37 0
86 715 0 177 34 29 0
88 701 0 186 36 27 0
90 704 0 192 30 40 0
92 681 0 215 41 22 0
94 666 0 217 45 37 0
96 668 0 234 43 35 0
98 660 0 234 34 40 0
100 655 0 259 31 29 0
102 654 0 265 22 41 0
104 650 0 272 18 25 0
106 635 0 282 30 34 0
108 632 0 297 25 30 0
110 637 0 303 17 34 0
112 628 0 315 22 32 0
114 611 0 322 28 33 0
116 614 0 318 21 37 0
118 610 0 328 20 36 0
120 602 0 332 23 36 0
122 595 0 341 23 39 0
124 583 0 351 24 41 0
126 587 0 356 13 45 0
128 575 0 360 20 52 0
130 561 0 385 24 31 0
132 567 0 384 17 39 0
134 557 0 396 21 36 0
136 547 0 399 25 30 0
138 535 0 401 28 38 0
140 531 0 404 23 37 0
142 526 0 405 22 36 0
144 510 0 408 30 45 0
146 499 0 425 28 39 0
148 504 0 418 21 53 0
150 487 0 422 31 57 0
152 477 0 439 30 37 0
154 478 0 426 26 40 0
156 466 0 431 29 53 0
158 473 0 462 18 30 0
160 463 0 456 18 38 0
162 458 0 470 19 42 0
164 449 0 474 24 39 0
166 447 0 479 22 38 0
168 440 0 485 22 36 0
170 434 0 498 21 40 0
172 426 0 505 25 45 0
174 429 0 514 16 43 0
176 423 0 511 18 43 0
178 420 0 515 17 37 0
180 410 0 527 15 30 0
182 410 0 526 9 45 0
184 402 0 541 13 39 0
186 389 0 547 19 36 0
188 387 0 540 21 43 0
190 385 0 551 16 41 0
192 377 0 567 14 36 0
194 372 0 568 14 41 0
196 366 0 564 17 52 0
198 361 0 590 17 46 0
200 353 0 580 22 58 0
