0 1131 0 0 0 0 0
2 1035 25 0 77 0 8
4.00004 1025 27 0 75 0 5
6 1029 23 0 64 0 12
8 1016 32 0 67 0 7
10 1008 36 0 61 0 10
12 1005 22 0 69 0 17
14 988 27 0 73 0 7
16 1004 27 0 65 0 7
18 1003 37 0 56 0 4
20 975 39 0 84 0 6
22 971 36 0 66 0 11
24 990 21 0 61 0 10
26 983 29 0 69 0 8
28 966 47 0 62 0 6
30 968 38 0 69 0 12
32 958 33 0 82 0 7
34 968 39 0 68 0 5
36 962 38 0 72 0 4
38 958 39 0 66 0 15
40 976 30 0 66 0 9
42 963 38 0 77 0 9
44 961 33 0 67 0 12
46 970 36 0 70 0 5
48 970 29 0 63 0 11
50 952 46 0 80 0 6
52 874 0 126 29 52 0
54 826 0 166 21 61 0
56 785 0 204 20 68 0
58 756 2 249 16 58 1
60 716 0 282 21 57 0
62 690 1 303 23 55 0
64 654 1 338 22 51 0
66 634 0 363 18 64 0
68 602 0 374 15 80 0
70 584 0 416 17 63 0
72 553 0 456 16 60 0
74 533 0 477 17 55 0
76 507 0 510 11 68 0
78 469 0 523 15 81 0
80 447 0 545 14 82 0
82 435 0 575 13 69 0
84 403 0 602 9 67 1
86 387 0 603 11 62 0
88 372 0 625 8 59 1
90 351 0 631 11 72 0
92 339 1 646 8 73 0
94 317 0 657 7 59 0
96 310 0 679 9 55 0
98 304 1 673 8 79 0
100 291 0 696 9 52 0
102 285 0 705 9 58 1
104 271 0 704 4 66 0
106 263 0 719 9 63 0
108 253 0 723 8 65 0
110 252 0 731 9 51 0
112 242 0 744 5 66 0
114 232 0 747 7 70 0
116 226 0 750 7 66 0
118 217 0 750 7 84 0
120 201 0 773 7 62 0
122 194 0 775 8 73 0
124 182 0 785 12 65 0
126 173 0 804 10 69 0
128 158 0 808 3 82 0
130 159 0 829 2 68 0
132 148 0 834 9 64 0
134 141 0 839 3 74 0
136 138 0 837 10 72 0
138 132 0 836 6 81 0
140 128 0 838 3 82 0
142 117 0 850 13 83 0
144 119 0 870 5 69 0
146 111 0 835 5 97 0
148 99 0 853 5 79 0
150 92 0 854 5 86 0
152 91 0 866 5 64 0
154 88 0 857 4 79 0
156 86 0 860 4 75 0
158 84 0 878 5 73 0
160 78 0 883 5 65 0
162 82 0 873 4 85 0
164 78 0 868 5 91 0
166 71 0 895 7 61 0
168 64 0 885 4 82 0
170 64 0 887 3 72 0
172 60 0 900 2 58 0
174 57 0 888 2 76 0
176 52 0 896 3 74 0
178 52 0 910 3 76 0
180 47 0 895 7 88 0
182 46 0 888 3 80 0
184 49 0 907 5 74 0
186 46 0 905 4 80 0
188 41 0 905 4 73 0
190 41 0 908 4 69 0
192 43 0 907 0 74 0
194 40 0 911 2 79 0
196 40 0 924 0 83 0
198 37 0 912 5 80 0
200 41 0 919 1 75 0
