0 999 0 0 0 0 0
2 940 0 0 68 0 0
4.00004 941 0 0 74 0 0
6 937 0 0 75 0 0
8 945 0 0 64 0 0
10 921 0 0 85 0 0
12 923 0 0 85 0 0
14 915 0 0 90 0 0
16 912 0 0 81 0 0
18 910 0 0 86 0 0
20 904 0 0 100 0 0
22 916 0 0 100 0 0
24 902 0 0 102 0 0
26 915 0 0 88 0 0
28 931 0 0 75 0 0
30 913 0 0 80 0 0
32 915 0 0 90 0 0
34 906 0 0 89 0 0
36 902 0 0 97 0 0
38 907 0 0 84 0 0
40 890 0 0 97 0 0
42 900 0 0 101 0 0
44 917 0 0 94 0 0
46 923 0 0 80 0 0
48 908 0 0 97 0 0
50 912 0 0 81 0 0
52 894 0 7 81 8 0
54 885 0 31 69 13 0
56 868 0 39 68 24 0
58 848 0 50 70 27 0
60 836 0 61 69 24 0
62 816 0 75 66 42 0
64 808 0 84 56 36 0
66 803 0 96 47 41 0
68 788 0 132 48 28 0
70 767 0 139 53 34 0
72 756 0 157 48 34 0
74 736 0 159 53 40 0
76 726 0 168 45 42 0
78 707 0 188 43 39 0
80 705 0 197 36 52 0
82 681 0 219 49 35 0
84 677 0 222 34 45 0
86 653 0 224 50 55 0
88 650 0 242 37 44 0
90 639 0 248 34 51 0
92 614 0 267 45 39 0
94 612 0 279 38 47 0
96 609 0 297 29 38 0
98 599 0 296 31 46 0
100 588 0 308 31 51 0
102 578 0 323 28 55 0
104 550 0 331 50 60 0
106 553 0 345 41 51 0
108 540 0 356 39 58 0
110 523 0 362 42 42 0
112 526 0 385 29 42 0
114 517 0 380 34 50 0
116 507 0 377 37 51 0
118 497 0 379 37 70 0
120 488 0 385 40 60 0
122 486 0 396 30 55 0
124 482 0 408 30 60 0
126 476 0 410 33 64 0
128 465 0 408 38 65 0
130 458 0 435 27 63 0
132 454 0 447 25 50 0
134 449 0 445 18 62 0
136 426 0 463 37 40 0
138 422 0 463 31 64 0
140 415 0 471 33 58 0
142 406 0 466 31 63 0
144 402 0 480 32 63 0
146 397 0 474 26 63 0
148 390 0 485 30 61 0
150 377 0 497 33 56 0
152 369 0 495 31 59 0
154 362 0 506 29 68 0
156 365 0 511 20 62 0
158 356 0 522 23 59 0
160 355 0 525 19 66 0
162 360 0 539 15 66 0
164 348 0 544 21 63 0
166 346 0 537 17 70 0
168 335 0 556 20 60 0
170 327 0 554 18 61 0
172 321 0 552 20 72 0
174 318 0 581 17 71 0
176 313 0 576 17 72 0
178 303 0 588 25 62 0
180 306 0 603 15 56 0
182 289 0 583 25 75 0
184 291 0 591 13 65 0
186 289 0 612 13 47 0
188 281 0 595 12 73 0
190 272 0 610 19 72 0
192 265 0 607 19 74 0
194 261 0 621 19 69 0
196 255 0 624 22 70 0
198 254 0 609 20 80 0
200 250 0 619 16 58 0
