0 985 0 0 0 0 0
2 945 0 0 37 0 0
4.00004 943 0 0 37 0 0
6 952 0 0 35 0 0
8 947 0 0 42 0 0
10 952 0 0 34 0 0
12 954 0 0 31 0 0
14 935 0 0 49 0 0
16 951 0 0 35 0 0
18 963 0 0 25 0 0
20 946 0 0 43 0 0
22 954 0 0 38 0 0
24 954 0 0 40 0 0
26 954 0 0 36 0 0
28 956 0 0 42 0 0
30 954 0 0 40 0 0
32 958 0 0 49 0 0
34 965 0 0 38 0 0
36 959 0 0 40 0 0
38 967 0 0 34 0 0
40 961 0 0 35 0 0
42 965 0 0 42 0 0
44 968 0 0 37 0 0
46 956 0 0 47 0 0
48 961 0 0 45 0 0
50 977 0 0 28 0 0
52 963 0 5 48 0 0
54 958 0 5 48 0 0
56 954 0 18 40 2 0
58 957 0 20 27 4 0
60 941 0 24 35 6 0
62 949 0 33 17 6 0
64 938 0 42 19 5 0
66 928 0 42 27 10 0
68 920 0 49 26 12 0
70 914 0 59 28 10 0
72 900 0 55 34 12 0
74 905 0 57 19 8 0
76 901 0 68 20 11 0
78 892 0 75 25 6 0
80 892 0 76 21 13 0
82 889 0 79 19 17 0
84 882 0 88 19 10 0
86 885 0 88 12 12 0
88 857 0 97 36 11 0
90 870 0 96 23 24 0
92 865 0 99 22 16 0
94 860 0 117 24 9 0
96 858 0 114 22 13 0
98 857 0 120 21 11 0
100 853 0 124 22 13 0
102 841 0 120 29 23 0
104 848 0 127 22 17 0
106 841 0 131 25 9 0
108 836 0 123 25 16 0
110 834 0 134 19 14 0
112 832 0 131 17 19 0
114 826 0 135 20 22 0
116 822 0 140 20 21 0
118 820 0 159 18 12 0
120 818 0 154 18 11 0
122 816 0 150 13 10 0
124 814 0 151 14 9 0
126 795 0 150 25 21 0
128 802 0 148 13 27 0
130 786 0 165 26 12 0
132 787 0 172 23 6 0
134 793 0 172 14 13 0
136 778 0 168 23 15 0
138 775 0 181 18 18 0
140 771 0 196 19 14 0
142 770 0 200 17 18 0
144 760 0 208 24 14 0
146 763 0 210 14 18 0
148 748 0 205 22 22 0
150 744 0 214 25 21 0
152 748 0 224 16 19 0
154 743 0 226 19 11 0
156 740 0 212 17 24 0
158 731 0 219 21 23 0
160 733 0 216 14 21 0
162 722 0 224 24 12 0
164 731 0 225 15 17 0
166 726 0 236 16 15 0
168 726 0 239 14 15 0
170 717 0 242 18 20 0
172 712 0 255 19 16 0
174 711 0 247 19 23 0
176 708 0 249 15 27 0
178 700 0 256 22 24 0
180 702 0 261 15 19 0
182 700 0 259 16 16 0
184 687 0 258 29 14 0
186 693 0 258 25 21 0
188 696 0 263 17 14 0
190 693 0 267 16 17 0
192 680 0 267 24 18 0
194 685 0 276 17 19 0
196 671 0 283 25 17 0
198 672 0 290 21 18 0
200 669 0 292 19 19 0
