0 1102 0 0 0 0 0
2 1087 0 0 19 0 0
4.00004 1089 0 0 19 0 0
6 1081 0 0 22 0 0
8 1083 0 0 11 0 0
10 1074 0 0 21 0 0
12 1077 0 0 15 0 0
14 1074 0 0 18 0 0
16 1073 0 0 19 0 0
18 1079 0 0 18 0 0
20 1075 0 0 20 0 0
22 1078 0 0 21 0 0
24 1077 0 0 23 0 0
26 1075 0 0 24 0 0
28 1069 0 0 26 0 0
30 1067 0 0 25 0 0
32 1075 0 0 17 0 0
34 1065 0 0 20 0 0
36 1062 0 0 18 0 0
38 1068 0 0 21 0 0
40 1073 0 0 14 0 0
42 1074 0 0 19 0 0
44 1070 0 0 26 0 0
46 1075 0 0 23 0 0
48 1085 0 0 20 0 0
50 1076 0 0 22 0 0
52 1068 0 8 21 1 0
54 1056 0 10 23 2 0
56 1054 0 18 14 8 0
58 1052 0 26 10 4 0
60 1047 0 32 12 2 0
62 1040 0 37 12 6 0
64 1026 0 41 18 8 0
66 1026 0 38 12 11 0
68 1026 0 47 10 9 0
70 1013 0 58 12 8 0
72 1010 0 74 7 4 0
74 998 0 68 11 7 0
76 992 0 77 11 6 0
78 996 0 80 6 10 0
80 990 0 87 6 9 0
82 980 0 86 11 7 0
84 978 0 91 11 10 0
86 979 0 97 8 4 0
88 966 0 97 16 7 0
90 971 0 105 7 12 0
92 968 0 112 7 6 0
94 962 0 110 9 7 0
96 953 0 111 13 10 0
98 949 0 118 11 8 0
100 948 0 128 6 4 0
102 947 0 126 2 9 0
104 934 0 129 11 10 0
106 927 0 138 14 7 0
108 927 0 143 9 8 0
110 921 0 139 12 15 0
112 916 0 149 12 8 0
114 914 0 160 5 16 0
116 906 0 163 10 10 0
118 905 0 159 7 6 0
120 896 0 158 12 12 0
122 895 0 170 7 7 0
124 889 0 175 9 9 0
126 892 0 172 4 17 0
128 885 0 180 8 13 0
130 876 0 191 14 5 0
132 879 0 188 10 13 0
134 875 0 183 12 17 0
136 874 0 192 9 13 0
138 872 0 206 5 14 0
140 866 0 213 9 9 0
142 860 0 218 11 11 0
144 852 0 223 11 10 0
146 855 0 226 3 9 0
148 844 0 234 11 6 0
150 846 0 229 8 13 0
152 842 0 230 8 15 0
154 829 0 237 15 15 0
156 829 0 237 7 10 0
158 819 0 241 11 14 0
160 813 0 250 12 12 0
162 813 0 253 7 9 0
164 806 0 248 9 13 0
166 802 0 256 6 6 0
168 793 0 261 13 11 0
170 792 0 263 11 12 0
172 784 0 272 11 9 0
174 782 0 274 9 17 0
176 776 0 282 10 14 0
178 774 0 288 9 14 0
180 771 0 290 9 17 0
182 766 0 299 10 12 0
184 761 0 294 10 12 0
186 762 0 306 7 8 0
188 759 0 306 8 9 0
190 757 0 309 6 8 0
192 756 0 312 2 18 0
194 751 0 325 5 8 0
196 740 0 320 11 17 0
198 736 0 325 10 7 0
200 730 0 337 9 6 0
