0 751 0 0 0 0 0
2 701 36 0 17 0 0
4.00004 696 30 0 21 0 0
6 696 34 0 12 0 0
8 696 31 0 21 0 0
10 701 31 0 16 0 0
12 703 36 0 17 0 0
14 708 47 0 9 0 0
16 708 34 0 16 0 0
18 714 35 0 14 0 0
20 718 32 0 19 0 0
22 709 42 0 23 0 0
24 716 40 0 21 0 0
26 717 42 0 17 0 0
28 713 45 0 12 0 0
30 710 42 0 16 0 0
32 714 38 0 20 0 0
34 711 46 0 19 0 0
36 713 47 0 16 0 0
38 729 43 0 9 0 0
40 734 26 0 19 0 0
42 743 28 0 16 0 0
44 742 36 0 15 0 0
46 758 24 0 13 0 0
48 764 27 0 11 0 0
50 760 35 0 18 0 0
52 737 0 65 7 5 0
54 723 0 72 4 11 0
56 700 0 95 7 11 0
58 678 0 124 8 7 0
60 667 0 129 5 7 0
62 649 0 158 3 9 0
64 637 0 170 3 10 0
66 616 0 186 7 13 0
68 604 0 193 5 22 0
70 588 0 212 9 13 0
72 572 0 228 5 13 0
74 567 0 248 1 11 0
76 553 0 255 2 9 0
78 535 0 269 7 16 0
80 528 0 282 3 15 0
82 515 0 291 5 15 0
84 506 0 311 3 8 0
86 492 0 328 9 10 0
88 474 0 350 6 18 0
90 464 0 364 3 10 0
92 448 0 380 3 11 0
94 436 0 393 2 17 0
96 429 0 396 3 6 0
98 419 0 409 2 12 0
100 407 0 417 6 12 0
102 395 0 428 4 21 0
104 387 0 442 4 12 0
106 380 0 445 7 12 0
108 377 0 457 1 4 0
110 365 0 463 4 9 0
112 355 0 459 3 17 0
114 347 0 457 3 18 0
116 338 0 484 0 12 0
118 332 0 485 1 15 0
120 324 0 495 3 8 0
122 320 0 482 3 12 0
124 312 0 497 2 13 0
126 302 0 516 2 11 0
128 296 0 527 1 11 0
130 287 0 542 1 14 0
132 280 0 537 4 13 0
134 275 0 546 2 9 0
136 262 0 546 5 6 0
138 259 0 558 2 11 0
140 254 0 571 1 8 0
142 249 0 562 3 16 0
144 241 0 573 3 13 0
146 237 0 579 3 13 0
148 227 0 580 0 16 0
150 224 0 589 1 13 0
152 216 0 595 3 14 0
154 211 0 587 2 13 0
156 211 0 597 0 12 0
158 207 0 599 1 10 0
160 202 0 601 1 12 0
162 196 0 612 3 14 0
164 192 0 627 0 12 0
166 189 0 615 1 19 0
168 183 0 625 4 12 0
170 183 0 632 1 13 0
172 180 0 633 0 13 0
174 177 0 639 2 16 0
176 172 0 637 1 22 0
178 167 0 643 2 22 0
180 161 0 663 1 15 0
182 158 0 663 0 10 0
184 154 0 652 0 20 0
186 151 0 653 0 16 0
188 148 0 663 1 16 0
190 141 1 670 2 16 0
192 140 0 662 0 18 0
194 134 0 677 1 12 0
196 128 0 672 1 24 0
198 119 0 687 1 15 0
200 116 0 680 3 14 0
