0 1084 0 0 0 0 0
2 1054 0 0 32 0 0
4.00004 1055 0 0 33 0 0
6 1058 0 0 31 0 0
8 1050 0 0 40 0 0
10 1050 0 0 34 0 0
12 1043 0 0 40 0 0
14 1051 0 0 30 0 0
16 1048 0 0 37 0 0
18 1057 0 0 34 0 0
20 1059 0 0 34 0 0
22 1054 0 0 27 0 0
24 1049 0 0 30 0 0
26 1055 0 0 32 0 0
28 1046 0 0 33 0 0
30 1045 0 0 33 0 0
32 1054 0 0 34 0 0
34 1044 0 0 34 0 0
36 1032 0 0 46 0 0
38 1055 0 0 24 0 0
40 1039 0 0 34 0 0
42 1051 0 0 27 0 0
44 1061 0 0 27 0 0
46 1036 0 0 42 0 0
48 1043 0 0 30 0 0
50 1033 0 0 38 0 0
52 1028 0 7 27 4 0
54 1012 0 28 27 2 0
56 994 0 39 27 8 0
58 988 0 50 20 9 0
60 984 0 61 16 10 0
62 968 0 70 16 12 0
64 954 0 86 18 7 0
66 945 0 88 19 14 0
68 939 0 99 22 11 0
70 928 0 107 24 14 0
72 921 0 116 23 16 0
74 915 0 128 21 11 0
76 903 0 127 25 13 0
78 899 0 135 14 13 0
80 886 0 150 16 12 0
82 866 0 152 15 15 0
84 849 0 164 23 11 0
86 844 0 159 16 24 0
88 834 0 170 22 15 0
90 830 0 177 19 16 0
92 823 0 174 17 17 0
94 816 0 184 16 17 0
96 808 0 185 14 14 0
98 798 0 201 17 13 0
100 798 0 203 12 16 0
102 785 0 205 18 19 0
104 787 0 206 12 16 0
106 780 0 208 14 22 0
108 782 0 226 8 16 0
110 769 0 225 17 22 0
112 759 0 231 22 16 0
114 762 0 248 12 8 0
116 754 0 247 15 15 0
118 747 0 249 13 19 0
120 739 0 267 15 14 0
122 730 0 271 20 16 0
124 731 0 274 13 20 0
126 730 0 283 9 14 0
128 726 0 283 12 12 0
130 714 0 284 19 14 0
132 710 0 291 18 17 0
134 708 0 297 17 14 0
136 708 0 303 14 16 0
138 700 0 308 18 18 0
140 702 0 316 10 16 0
142 697 0 316 10 19 0
144 690 0 338 13 10 0
146 682 0 342 18 19 0
148 684 0 349 8 16 0
150 676 0 366 13 9 0
152 674 0 352 10 15 0
154 663 0 359 11 21 0
156 659 0 362 13 12 0
158 654 0 368 12 20 0
160 645 0 369 17 18 0
162 645 0 388 16 9 0
164 645 0 381 12 18 0
166 635 0 391 16 26 0
168 634 0 406 10 12 0
170 625 0 409 12 18 0
172 625 0 402 8 20 0
174 603 0 407 22 18 0
176 604 0 417 15 14 0
178 597 0 426 15 15 0
180 597 0 413 7 26 0
182 587 0 425 11 19 0
184 574 0 432 18 18 0
186 574 0 422 15 26 0
188 572 0 448 13 11 0
190 564 0 430 15 23 0
192 566 0 443 8 17 0
194 551 0 446 18 20 0
196 551 0 454 12 19 0
198 545 0 463 14 13 0
200 547 0 461 9 21 0
