0 902 0 0 0 0 0
2 864 6 0 25 0 7
4.00004 856 10 0 26 0 10
6 862 12 0 18 0 10
8 868 8 0 21 0 6
10 867 13 0 26 0 5
12 867 19 0 14 0 8
14 874 11 0 24 0 7
16 873 19 0 23 0 7
18 877 14 0 22 0 6
20 876 9 0 20 0 7
22 876 13 0 24 0 8
24 879 13 0 19 0 8
26 889 11 0 14 0 4
28 884 8 0 20 0 6
30 885 13 0 13 0 7
32 879 18 0 12 0 7
34 872 12 0 19 0 4
36 875 13 0 21 0 7
38 887 10 0 16 0 7
40 876 9 0 19 0 11
42 883 11 0 18 0 4
44 886 7 0 20 0 5
46 889 15 0 12 0 8
48 882 17 0 12 0 6
50 873 7 0 24 0 11
52 819 1 77 7 16 1
54 799 0 102 7 12 1
56 782 0 118 11 20 0
58 777 0 136 7 19 0
60 760 0 152 6 22 0
62 750 0 157 7 26 0
64 730 0 171 9 22 0
66 718 0 185 8 27 0
68 710 0 200 8 20 0
70 701 0 213 4 22 0
72 687 0 223 7 23 0
74 664 0 248 14 21 0
76 667 0 253 5 20 0
78 648 0 263 10 18 0
80 646 0 278 4 19 0
82 627 0 291 9 13 0
84 621 0 296 12 12 0
86 618 0 297 4 21 0
88 608 0 327 4 15 0
90 598 0 341 5 22 0
92 584 0 339 6 27 0
94 578 0 354 4 20 0
96 565 0 364 6 26 0
98 562 0 362 4 29 0
100 550 0 385 2 25 0
102 546 0 392 4 20 0
104 532 0 396 5 22 0
106 517 0 405 8 20 0
108 512 0 412 2 28 0
110 501 0 424 5 20 0
112 494 0 419 5 24 0
114 484 0 431 6 22 0
116 481 0 437 2 25 0
118 478 0 451 6 11 0
120 469 0 450 8 15 0
122 464 0 456 6 19 0
124 456 0 464 7 21 0
126 453 0 479 6 15 0
128 444 0 475 7 18 0
130 437 0 486 4 22 0
132 426 0 491 7 17 0
134 423 0 499 2 21 0
136 416 0 505 6 20 0
138 419 0 507 3 23 0
140 411 0 520 3 24 0
142 397 0 527 5 22 0
144 393 0 513 2 35 0
146 386 0 523 4 27 0
148 380 0 538 5 23 0
150 375 1 548 4 19 0
152 368 0 545 5 27 0
154 362 0 551 5 25 0
156 357 0 573 4 21 0
158 353 0 575 3 20 0
160 350 0 578 3 19 0
162 336 0 587 4 25 0
164 335 0 589 3 29 0
166 327 0 599 6 20 0
168 323 0 597 4 27 0
170 311 0 615 8 18 0
172 314 0 615 1 19 1
174 305 0 630 7 16 0
176 301 0 637 0 23 0
178 292 0 628 6 29 0
180 289 0 636 4 23 0
182 284 0 648 2 21 0
184 280 0 643 4 31 0
186 278 0 653 3 19 0
188 273 0 656 2 23 0
190 263 0 653 6 26 0
192 263 0 658 1 28 0
194 258 0 664 1 23 0
196 256 0 676 2 19 0
198 255 0 663 0 38 0
200 249 0 682 7 19 0
