0 927 0 0 0 0 0
2 889 10 0 32 0 4
4.00004 889 13 0 21 0 9
6 895 9 0 16 0 8
8 891 14 0 18 0 5
10 894 11 0 17 0 5
12 900 12 0 26 0 5
14 895 10 0 21 0 8
16 897 11 0 24 0 3
18 900 8 0 20 0 6
20 901 12 0 14 0 8
22 894 16 0 24 0 7
24 897 10 0 22 0 12
26 900 20 0 22 0 6
28 907 19 0 26 0 12
30 915 12 0 22 0 10
32 911 12 0 13 0 7
34 903 17 0 14 0 7
36 901 11 0 19 0 14
38 901 12 0 30 0 6
40 914 12 0 20 0 10
42 914 10 0 20 0 7
44 912 9 0 18 0 8
46 902 10 0 22 0 7
48 906 16 0 19 0 7
50 909 15 0 23 0 11
52 845 0 90 6 17 1
54 822 0 97 13 19 0
56 804 0 114 15 21 0
58 795 0 124 8 27 0
60 779 0 139 8 25 1
62 762 0 144 12 25 1
64 748 0 175 5 18 1
66 734 0 185 5 18 0
68 715 0 190 13 20 1
70 702 0 207 10 23 0
72 691 0 221 6 23 1
74 674 0 236 11 23 0
76 664 0 241 4 32 0
78 651 0 266 4 25 0
80 639 0 288 4 21 0
82 625 0 295 6 20 0
84 608 0 310 8 24 0
86 599 0 312 3 34 1
88 582 0 339 8 22 0
90 572 0 334 6 28 0
92 567 0 351 3 25 0
94 550 0 357 4 28 0
96 538 0 381 5 24 0
98 530 0 397 7 21 0
100 514 0 389 9 32 0
102 508 0 408 3 26 0
104 493 0 415 14 28 0
106 489 0 413 9 34 0
108 476 0 425 8 28 0
110 469 0 430 9 28 0
112 469 0 447 2 21 0
114 456 0 451 3 30 0
116 448 0 459 2 27 0
118 438 0 473 2 21 0
120 430 0 473 3 19 0
122 423 0 476 4 30 0
124 413 0 490 9 16 0
126 408 0 506 4 27 0
128 398 0 516 4 27 0
130 389 0 519 3 35 0
132 380 0 536 6 25 0
134 373 0 534 7 27 0
136 366 0 549 4 27 0
138 360 0 552 2 32 0
140 356 0 556 6 26 0
142 351 0 562 4 29 0
144 341 0 578 2 27 0
146 336 0 569 1 41 0
148 329 0 579 6 26 0
150 322 0 580 5 31 0
152 314 0 597 4 29 0
154 305 0 616 3 23 0
156 293 0 628 8 24 0
158 292 0 624 3 26 0
160 288 0 635 4 26 0
162 279 0 637 1 41 0
164 274 0 648 0 35 0
166 263 0 657 7 27 0
168 264 0 668 3 24 0
170 256 0 663 5 34 0
172 251 0 672 4 31 0
174 240 0 665 6 31 0
176 231 0 680 6 37 0
178 225 1 687 4 27 0
180 221 0 692 4 30 0
182 221 0 698 2 27 0
184 214 0 705 2 35 0
186 207 0 722 5 31 0
188 201 0 734 2 28 0
190 195 0 729 4 33 0
192 189 0 733 3 34 0
194 183 0 724 3 29 0
196 181 0 742 0 34 0
198 174 0 748 2 36 0
200 169 0 770 3 25 0
