0 888 0 0 0 0 0
2 856 11 0 22 0 9
4.00004 858 9 0 21 0 12
6 851 11 0 22 0 12
8 854 9 0 23 0 13
10 858 13 0 18 0 13
12 862 7 0 29 0 7
14 859 13 0 19 0 15
16 852 11 0 28 0 12
18 858 13 0 30 0 7
20 857 7 0 15 0 13
22 858 9 0 25 0 4
24 855 10 0 30 0 5
26 857 17 0 16 0 7
28 863 9 0 24 0 7
30 837 7 0 32 0 10
32 839 9 0 29 0 11
34 846 6 0 28 0 13
36 846 9 0 20 0 15
38 861 10 0 13 0 9
40 858 11 0 15 0 5
42 862 2 0 24 0 11
44 857 15 0 22 0 12
46 855 9 0 26 0 12
48 852 9 0 21 0 18
50 857 9 0 19 0 12
52 757 0 99 20 20 0
54 741 0 117 12 20 0
56 724 0 134 11 26 0
58 710 0 157 8 17 0
60 697 0 170 5 22 0
62 676 0 189 5 26 0
64 663 0 189 12 20 0
66 654 0 199 8 28 0
68 640 0 210 7 27 0
70 626 0 223 11 26 0
72 615 1 231 11 27 0
74 603 0 259 8 18 0
76 589 0 256 6 24 0
78 576 0 278 7 33 0
80 554 0 309 9 29 0
82 546 0 315 6 28 1
84 535 0 314 10 28 0
86 528 0 324 10 22 0
88 527 0 342 3 17 0
90 508 0 349 7 38 0
92 503 1 367 6 22 0
94 475 0 391 10 32 0
96 468 0 386 7 30 0
98 449 0 395 7 30 0
100 447 0 412 3 29 0
102 433 0 416 4 36 0
104 429 0 426 2 27 0
106 418 0 444 3 24 0
108 410 0 444 5 33 0
110 394 0 457 7 30 0
112 393 0 461 3 30 0
114 390 0 456 1 28 0
116 375 0 474 7 34 0
118 363 0 487 8 28 0
120 358 0 492 5 34 0
122 351 0 508 7 24 0
124 349 0 507 4 22 0
126 344 0 509 2 24 0
128 337 0 527 5 22 0
130 326 0 531 9 31 0
132 326 0 537 1 31 1
134 319 0 527 2 42 0
136 315 0 540 3 31 0
138 309 0 535 4 43 0
140 300 0 549 3 33 0
142 295 0 557 1 29 0
144 287 0 540 7 29 0
146 289 0 558 4 16 0
148 281 0 560 7 25 0
150 274 0 569 2 25 0
152 263 0 585 4 26 0
154 259 0 586 2 31 0
156 250 0 605 2 26 1
158 242 0 614 3 27 0
160 236 0 605 3 32 0
162 235 0 619 3 24 0
164 228 0 609 6 25 0
166 227 0 613 2 25 0
168 222 0 618 3 23 0
170 217 0 617 1 29 0
172 211 0 619 5 24 0
174 206 0 631 4 27 0
176 206 0 619 0 31 0
178 196 0 619 4 45 0
180 194 0 646 0 29 0
182 188 0 636 2 36 0
184 181 0 638 3 24 0
186 177 0 638 4 22 0
188 168 0 644 5 30 0
190 159 0 657 2 30 0
192 158 0 659 2 23 0
194 151 0 660 3 21 0
196 150 0 650 1 35 0
198 147 0 648 1 43 0
200 147 0 663 2 29 0
