0 933 0 0 0 0 0
2 910 0 0 26 0 0
4.00004 918 0 0 15 0 0
6 909 0 0 24 0 0
8 927 0 0 19 0 0
10 919 0 0 25 0 0
12 919 0 0 18 0 0
14 909 0 0 26 0 0
16 915 0 0 20 0 0
18 917 0 0 21 0 0
20 910 0 0 25 0 0
22 908 0 0 21 0 0
24 909 0 0 21 0 0
26 908 0 0 19 0 0
28 899 0 0 20 0 0
30 901 0 0 23 0 0
32 904 0 0 12 0 0
34 900 0 0 23 0 0
36 906 0 0 18 0 0
38 902 0 0 16 0 0
40 891 0 0 27 0 0
42 903 0 0 22 0 0
44 904 0 0 19 0 0
46 914 0 0 14 0 0
48 914 0 0 17 0 0
50 917 0 0 13 0 0
52 901 0 9 17 1 0
54 892 0 15 17 1 0
56 889 0 20 13 3 0
58 866 0 22 21 6 0
60 863 0 35 19 9 0
62 861 0 45 16 6 0
64 858 0 46 13 7 0
66 849 0 62 11 4 0
68 842 0 63 12 7 0
70 832 0 74 16 5 0
72 820 0 70 21 15 0
74 822 0 82 15 6 0
76 813 0 83 17 7 0
78 815 0 91 12 6 0
80 807 0 97 14 7 0
82 811 0 99 6 9 0
84 793 0 94 18 9 0
86 780 0 103 25 9 0
88 777 0 113 19 10 0
90 779 0 116 12 9 0
92 776 0 121 9 9 0
94 767 0 123 9 10 0
96 753 0 119 14 5 0
98 745 0 121 19 14 0
100 748 0 131 9 4 0
102 742 0 133 10 14 0
104 739 0 138 9 6 0
106 736 0 141 9 5 0
108 730 0 147 8 8 0
110 722 0 165 10 11 0
112 721 0 174 8 8 0
114 710 0 172 16 13 0
116 715 0 174 6 12 0
118 712 0 177 4 10 0
120 705 0 185 11 10 0
122 702 0 187 9 9 0
124 698 0 189 11 9 0
126 692 0 202 10 7 0
128 690 0 209 10 10 0
130 691 0 206 8 10 0
132 684 0 212 11 10 0
134 679 0 212 7 12 0
136 673 0 212 11 17 0
138 677 0 221 6 8 0
140 665 0 221 11 7 0
142 663 0 228 10 9 0
144 649 0 223 19 14 0
146 657 0 225 9 13 0
148 648 0 241 12 9 0
150 642 0 239 14 8 0
152 638 0 243 13 12 0
154 641 0 243 7 16 0
156 636 0 253 9 14 0
158 636 0 261 4 14 0
160 628 0 258 11 10 0
162 618 0 263 17 10 0
164 624 0 260 6 10 0
166 620 0 260 8 19 0
168 617 0 277 6 11 0
170 613 0 274 6 11 0
172 608 0 274 9 12 0
174 593 0 282 11 11 0
176 591 0 294 10 10 0
178 590 0 281 10 15 0
180 583 0 297 12 11 0
182 580 0 303 10 16 0
184 574 0 311 13 15 0
186 579 0 310 4 15 0
188 569 0 315 15 10 0
190 570 0 322 12 17 0
192 574 0 328 5 16 0
194 571 0 334 5 14 0
196 569 0 349 6 6 0
198 560 0 352 11 8 0
200 558 0 353 9 7 0
