0 852 0 0 0 0 0
2 834 2 0 18 0 5
4.00004 835 6 0 16 0 4
6 827 4 0 13 0 12
8 842 2 0 10 0 9
10 823 5 0 16 0 4
12 820 6 0 17 0 4
14 827 2 0 11 0 9
16 828 2 0 13 0 5
18 822 3 0 14 0 7
20 827 11 0 13 0 6
22 832 4 0 15 0 6
24 831 3 0 21 0 8
26 833 6 0 16 0 8
28 842 3 0 10 0 9
30 827 6 0 21 0 7
32 840 4 0 15 0 7
34 833 5 0 23 0 10
36 850 5 0 12 0 7
38 834 3 0 20 0 9
40 842 2 0 20 0 5
42 845 6 0 15 0 5
44 833 4 0 23 0 9
46 840 4 0 17 0 9
48 839 6 0 11 0 7
50 830 6 0 22 0 4
52 786 0 45 11 14 0
54 772 0 66 8 18 0
56 761 0 79 7 16 0
58 754 0 91 6 20 0
60 745 0 98 2 16 0
62 732 0 109 5 10 0
64 724 0 110 5 19 0
66 713 0 126 3 18 0
68 705 0 133 2 14 0
70 697 0 136 3 19 0
72 688 0 154 5 8 0
74 680 0 160 4 11 0
76 669 0 170 6 16 0
78 659 0 178 2 16 0
80 646 0 189 10 17 0
82 642 0 200 3 16 0
84 636 0 201 3 16 0
86 628 0 204 5 19 0
88 618 0 213 4 14 0
90 615 0 220 4 13 0
92 612 0 234 1 16 0
94 603 0 238 3 19 0
96 596 0 241 4 19 0
98 593 0 247 3 12 0
100 585 0 241 4 27 0
102 578 0 249 5 19 0
104 567 0 254 4 21 0
106 563 0 270 2 15 0
108 552 0 277 7 13 0
110 542 0 291 6 16 0
112 536 0 294 4 29 0
114 525 0 323 3 20 0
116 518 0 322 3 23 0
118 509 0 329 1 28 0
120 499 0 334 6 19 0
122 488 0 345 8 20 0
124 491 0 349 3 17 0
126 484 0 350 4 15 0
128 476 0 352 5 18 0
130 474 0 365 2 19 0
132 460 0 380 5 21 0
134 456 0 384 1 30 0
136 449 0 391 3 19 0
138 443 0 397 2 20 0
140 438 0 406 2 23 0
142 433 0 411 3 19 0
144 429 0 429 1 15 0
146 421 0 426 4 21 1
148 409 0 438 10 18 0
150 404 0 453 1 21 0
152 400 0 454 3 22 0
154 393 0 457 5 20 0
156 391 0 473 1 17 0
158 389 0 477 5 13 0
160 382 0 487 1 19 0
162 374 0 492 4 20 0
164 360 0 505 5 18 0
166 358 0 502 0 22 0
168 354 1 514 0 18 0
170 346 0 521 1 26 0
172 337 0 521 5 21 0
174 330 0 520 5 32 0
176 325 0 545 1 20 0
178 321 0 545 1 24 0
180 312 0 556 4 26 0
182 308 0 566 5 16 0
184 302 0 566 1 21 0
186 298 0 575 2 16 0
188 293 0 577 1 14 0
190 290 0 580 1 15 0
192 287 0 586 1 18 0
194 286 0 583 0 23 0
196 278 0 593 0 19 0
198 273 0 604 4 14 0
200 272 0 606 2 22 0
