0 763 0 0 0 0 0
2 689 53 0 17 0 0
4.00004 697 40 0 15 0 0
6 689 46 0 15 0 0
8 695 33 0 15 0 0
10 683 41 0 23 0 0
12 682 54 0 13 0 0
14 681 48 0 20 0 0
16 688 52 0 14 0 0
18 680 50 0 19 0 0
20 670 43 0 21 0 0
22 674 42 0 22 0 0
24 681 38 0 18 0 0
26 675 38 0 18 0 0
28 679 50 0 16 0 0
30 667 46 0 25 0 0
32 678 39 0 19 0 0
34 681 43 0 13 0 0
36 671 49 0 17 0 0
38 675 48 0 20 0 0
40 674 44 0 22 0 0
42 668 47 0 22 0 0
44 672 42 0 20 0 0
46 679 46 0 12 0 0
48 674 43 0 13 0 0
50 664 42 0 16 0 0
52 621 0 83 6 5 0
54 609 0 97 6 6 0
56 586 0 109 3 17 0
58 575 0 136 4 10 0
60 558 0 145 4 11 0
62 539 0 166 7 10 0
64 532 0 164 4 18 0
66 512 0 190 5 11 0
68 493 0 210 6 13 0
70 484 0 221 6 10 0
72 467 0 239 4 18 0
74 454 0 255 2 15 0
76 437 0 259 4 16 0
78 428 0 273 3 20 0
80 418 0 291 4 11 0
82 405 0 303 4 14 0
84 391 0 323 5 7 0
86 381 0 321 4 15 0
88 374 0 333 1 11 0
90 356 0 347 3 16 0
92 349 0 351 4 9 0
94 343 0 355 1 12 0
96 327 0 358 4 15 0
98 322 0 377 3 13 0
100 310 0 385 3 18 0
102 301 0 393 4 12 0
104 290 0 411 1 6 0
106 279 0 414 2 15 0
108 268 1 434 4 8 0
110 261 0 433 4 18 0
112 245 0 448 1 14 0
114 240 0 445 2 20 0
116 232 0 452 3 18 0
118 225 0 461 1 14 0
120 219 0 468 1 18 0
122 209 0 478 5 16 0
124 208 0 487 0 13 0
126 200 0 488 2 16 0
128 198 0 488 1 16 0
130 193 0 489 4 23 0
132 192 0 497 1 14 0
134 185 0 492 5 14 0
136 183 0 506 0 12 0
138 182 0 508 1 12 0
140 176 0 515 1 12 0
142 162 0 527 1 14 0
144 154 0 532 3 12 0
146 150 0 540 1 11 0
148 147 0 535 1 19 0
150 144 0 545 0 10 0
152 137 0 551 1 13 0
154 134 0 553 2 16 0
156 130 0 567 1 12 0
158 123 0 559 2 20 0
160 121 0 567 1 10 0
162 119 0 580 0 16 0
164 116 0 579 1 13 0
166 111 0 583 2 15 0
168 107 0 578 0 21 0
170 103 0 577 1 21 0
172 100 0 586 4 14 0
174 95 0 593 3 11 0
176 93 0 582 1 12 0
178 90 0 581 2 13 0
180 89 0 579 1 18 0
182 88 0 584 1 16 0
184 84 0 592 0 15 0
186 82 0 590 0 17 0
188 79 0 588 2 16 0
190 77 0 587 2 13 0
192 76 0 590 0 15 0
194 75 0 597 0 18 0
196 75 1 597 0 13 0
198 70 0 605 1 21 0
200 65 0 620 0 17 0
