0 902 0 0 0 0 0
2 857 8 0 25 0 12
4.00004 874 7 0 17 0 5
6 864 12 0 22 0 10
8 872 9 0 22 0 8
10 877 9 0 18 0 8
12 862 11 0 16 0 13
14 867 9 0 21 0 3
16 860 12 0 14 0 9
18 858 13 0 19 0 10
20 867 11 0 23 0 4
22 880 17 0 13 0 8
24 876 12 0 21 0 9
26 879 13 0 18 0 2
28 880 15 0 17 0 6
30 862 18 0 17 0 11
32 860 16 0 18 0 13
34 873 10 0 18 0 5
36 867 9 0 14 0 10
38 877 12 0 14 0 6
40 865 11 0 27 0 10
42 878 9 0 13 0 8
44 865 7 0 23 0 13
46 877 7 0 15 0 10
48 873 12 0 19 0 9
50 874 8 0 23 0 9
52 791 0 104 13 19 0
54 775 0 122 4 20 0
56 752 0 135 14 17 0
58 739 0 150 5 15 0
60 723 0 148 12 16 0
62 715 0 163 2 24 0
64 698 0 173 7 22 0
66 680 0 190 9 30 0
68 671 0 213 7 23 0
70 652 0 237 9 21 0
72 641 0 246 4 24 0
74 632 0 252 6 22 0
76 623 0 275 4 18 0
78 610 0 275 3 33 0
80 602 0 276 4 23 0
82 588 0 300 7 17 0
84 576 0 304 6 34 0
86 559 0 316 13 22 0
88 558 1 319 5 22 0
90 553 0 324 4 24 0
92 540 0 338 10 18 0
94 536 0 348 2 19 0
96 523 0 354 3 26 0
98 512 0 371 6 17 0
100 505 0 381 1 18 0
102 490 0 379 7 20 0
104 477 0 392 5 21 0
106 478 0 392 3 20 0
108 470 0 396 7 24 0
110 468 0 399 3 31 0
112 450 0 420 7 26 0
114 446 0 415 3 30 0
116 441 0 420 3 25 0
118 438 0 438 3 22 0
120 427 0 454 7 18 0
122 421 0 449 3 27 0
124 413 0 464 5 18 0
126 397 0 456 9 29 0
128 402 0 472 0 28 0
130 393 0 481 4 23 0
132 384 0 491 6 19 0
134 381 0 478 6 32 0
136 378 0 495 2 27 0
138 374 0 502 3 21 0
140 368 0 501 3 19 0
142 363 0 512 3 20 0
144 354 0 496 7 33 0
146 352 0 512 6 23 0
148 345 0 525 5 20 0
150 341 0 528 6 16 0
152 330 0 537 5 18 1
154 327 0 542 4 21 0
156 320 0 547 4 28 0
158 318 0 561 1 15 0
160 310 0 567 3 21 0
162 308 0 573 3 19 0
164 310 0 566 0 21 0
166 297 0 572 7 23 0
168 294 0 586 2 24 0
170 288 0 592 5 21 0
172 288 0 591 2 21 0
174 282 0 609 1 12 0
176 276 0 605 1 26 0
178 269 0 614 5 21 0
180 265 0 614 4 25 0
182 263 0 617 4 22 0
184 258 0 620 2 25 0
186 246 0 624 9 27 0
188 246 0 633 2 31 0
190 242 0 633 1 23 0
192 238 0 632 2 31 0
194 233 0 643 2 26 0
196 230 0 638 3 29 0
198 226 0 638 2 27 0
200 222 0 635 2 30 0
