0 945 0 0 0 0 0
2 873 28 0 32 0 6
4.00004 879 30 0 32 0 1
6 900 18 0 29 0 1
8 891 23 0 24 0 5
10 896 21 0 34 0 0
12 897 23 0 30 0 4
14 906 19 0 27 0 2
16 907 27 0 27 0 6
18 901 31 0 36 0 2
20 895 20 0 31 0 4
22 894 25 0 27 0 7
24 895 25 0 32 0 6
26 888 31 0 29 0 0
28 889 23 0 30 0 3
30 898 26 0 22 0 6
32 897 22 0 30 0 3
34 889 24 0 36 0 5
36 905 27 0 25 0 4
38 900 22 0 33 0 5
40 900 32 0 27 0 1
42 901 22 0 37 0 7
44 909 25 0 33 0 3
46 909 30 0 27 0 4
48 907 37 0 28 0 2
50 904 31 0 36 0 1
52 861 0 75 20 14 0
54 848 0 98 9 21 0
56 834 0 113 14 21 0
58 824 0 115 12 22 0
60 798 0 133 15 23 0
62 794 0 140 10 25 0
64 782 0 158 16 14 0
66 776 0 159 13 22 0
68 770 0 171 12 13 0
70 756 0 180 13 17 0
72 744 0 193 14 18 0
74 729 0 195 15 26 0
76 728 0 203 8 24 0
78 714 0 211 12 20 0
80 716 0 214 10 22 0
82 703 0 227 10 19 0
84 695 0 233 11 27 0
86 691 0 248 7 17 0
88 680 0 248 9 24 0
90 677 0 248 9 29 0
92 671 0 256 10 24 0
94 664 0 259 14 22 0
96 660 0 268 11 25 0
98 659 0 271 4 27 0
100 644 0 276 10 30 0
102 638 0 295 8 30 0
104 631 0 307 7 24 0
106 624 0 319 6 19 0
108 610 0 320 8 28 0
110 607 0 328 11 25 0
112 602 0 326 8 23 0
114 590 0 335 11 24 0
116 579 0 351 12 16 0
118 569 0 355 9 27 0
120 562 0 372 10 18 0
122 568 0 363 4 28 0
124 550 0 382 9 19 0
126 537 0 389 8 25 1
128 535 0 388 8 28 0
130 531 0 395 6 30 0
132 522 0 412 11 22 0
134 522 0 416 4 23 0
136 510 1 417 8 28 0
138 510 0 421 8 22 0
140 497 0 435 12 29 0
142 489 0 440 11 26 0
144 487 0 455 8 17 0
146 485 0 448 4 29 0
148 475 0 463 7 19 0
150 467 0 465 11 19 0
152 464 0 475 7 22 0
154 459 0 482 9 22 0
156 453 0 486 9 28 0
158 452 0 492 7 23 0
160 448 0 493 8 23 0
162 445 0 498 7 28 0
164 437 0 522 6 18 0
166 435 0 509 5 28 0
168 433 0 520 5 29 0
170 427 0 514 5 32 0
172 422 0 525 5 31 0
174 417 0 533 5 26 0
176 411 0 531 3 25 0
178 409 0 538 5 22 0
180 409 0 537 2 23 0
182 399 0 538 6 28 0
184 404 0 543 4 20 0
186 398 0 545 5 31 0
188 391 0 554 10 26 0
190 393 0 556 7 24 0
192 387 0 556 10 28 0
194 380 0 570 8 31 0
196 379 0 574 4 27 0
198 369 0 574 11 27 0
200 371 0 577 4 32 0
