0 1052 0 0 0 0 0
2 1026 0 0 28 0 0
4.00004 1037 0 0 18 0 0
6 1025 0 0 27 0 0
8 1040 0 0 14 0 0
10 1025 0 0 20 0 0
12 1023 0 0 24 0 0
14 1028 0 0 30 0 0
16 1040 0 0 21 0 0
18 1035 0 0 23 0 0
20 1044 0 0 16 0 0
22 1041 0 0 14 0 0
24 1032 0 0 27 0 0
26 1044 0 0 17 0 0
28 1042 0 0 22 0 0
30 1034 0 0 28 0 0
32 1038 0 0 25 0 0
34 1029 0 0 30 0 0
36 1032 0 0 31 0 0
38 1039 0 0 27 0 0
40 1039 0 0 24 0 0
42 1028 0 0 27 0 0
44 1041 0 0 23 0 0
46 1053 0 0 19 0 0
48 1043 0 0 35 0 0
50 1038 0 0 35 0 0
52 1032 0 17 23 3 0
54 1015 0 33 24 3 0
56 1010 0 50 17 9 0
58 997 0 67 18 7 0
60 984 0 71 15 14 0
62 972 0 84 21 14 0
64 964 0 83 20 17 0
66 961 0 94 18 10 0
68 963 0 102 8 11 0
70 953 0 101 13 9 0
72 947 0 110 13 12 0
74 945 0 111 11 12 0
76 938 0 108 12 12 0
78 920 0 117 17 13 0
80 916 0 131 15 11 0
82 918 0 132 10 8 0
84 912 0 133 13 19 0
86 903 0 142 15 14 0
88 893 0 157 17 10 0
90 896 0 161 11 15 0
92 893 0 172 10 17 0
94 887 0 176 9 12 0
96 881 0 175 9 15 0
98 863 0 183 15 14 0
100 863 0 191 10 15 0
102 853 0 204 15 12 0
104 850 0 205 13 16 0
106 833 0 207 21 14 0
108 836 0 216 12 11 0
110 833 0 216 9 7 0
112 827 0 219 12 17 0
114 820 0 229 15 10 0
116 818 0 234 9 12 0
118 818 0 238 5 11 0
120 808 0 239 12 18 0
122 803 0 250 11 13 0
124 797 0 253 12 19 0
126 792 0 266 10 10 0
128 784 0 268 15 10 0
130 784 0 272 12 14 0
132 778 0 271 9 15 0
134 774 0 272 7 14 0
136 768 0 290 8 9 0
138 762 0 291 5 11 0
140 750 0 285 12 13 0
142 744 0 294 14 10 0
144 744 0 290 9 9 0
146 743 0 282 5 16 0
148 730 0 286 12 16 0
150 728 0 298 10 17 0
152 724 0 310 10 16 0
154 721 0 313 11 14 0
156 718 0 326 8 9 0
158 715 0 333 9 13 0
160 707 0 328 13 20 0
162 707 0 336 9 12 0
164 701 0 338 8 11 0
166 695 0 344 11 14 0
168 696 0 350 7 14 0
170 691 0 351 8 21 0
172 689 0 370 8 14 0
174 677 0 383 16 16 0
176 682 0 389 8 12 0
178 678 0 391 4 12 0
180 666 0 396 11 15 0
182 664 0 392 11 24 0
184 665 0 404 5 20 0
186 661 0 401 7 18 0
188 659 0 408 8 15 0
190 651 0 415 11 11 0
192 651 0 421 9 10 0
194 647 0 412 9 13 0
196 640 0 415 11 17 0
198 647 0 414 4 26 0
200 638 0 413 9 25 0
