0 112 0
2 96 16
4.00004 86 26
6 79 35
8 71 43
10 66 47
12 61 52
14 57 56
16 50 63
18 48 64
20 42 70
22 38 74
24 34 78
26 33 79
28 30 82
30 26 86
32 22 89
34 23 89
36 20 92
38 18 94
40 15 97
42 13 98
44 11 99
46 11 99
48 10 100
50 10 100
52 10 100
54 11 100
56 11 100
58 11 99
60 10 100
62 9 102
64 8 103
66 6 106
68 5 107
70 6 107
72 7 107
74 7 106
76 7 106
78 6 107
80 6 106
82 6 106
84 5 106
86 5 106
88 4 107
90 5 107
92 4 108
94 4 108
96 5 108
98 5 108
100 5 108
102 5 107
104 4 108
106 3 109
108 3 109
110 3 109
112 3 109
114 3 109
116 1 111
118 2 112
120 3 112
122 4 112
124 3 113
126 4 113
128 5 113
130 3 115
132 3 115
134 3 115
136 2 116
138 2 116
140 2 115
142 2 115
144 2 115
146 2 115
148 2 115
150 1 116
152 1 116
154 1 116
156 1 115
158 1 115
160 1 115
162 1 115
164 0 116
166 0 116
168 0 116
170 0 116
172 0 116
174 0 116
176 1 115
178 1 115
180 1 115
182 1 115
184 0 116
186 0 116
188 0 116
190 0 116
192 0 116
194 0 116
196 0 116
198 0 116
200 0 116
