0 119 0
2 111 8
4.00004 107 13
6 99 21
8 86 34
10 83 37
12 79 41
14 73 47
16 65 55
18 61 59
20 57 62
22 51 68
24 48 71
26 46 74
28 43 77
30 40 80
32 37 83
34 36 84
36 32 88
38 31 89
40 29 91
42 26 93
44 24 95
46 24 96
48 21 99
50 20 100
52 20 100
54 19 101
56 18 102
58 17 104
60 15 106
62 14 106
64 13 108
66 12 109
68 11 109
70 10 110
72 9 112
74 9 112
76 8 112
78 6 114
80 6 112
82 7 112
84 5 114
86 5 113
88 4 114
90 4 114
92 4 113
94 4 113
96 4 113
98 5 113
100 4 113
102 4 112
104 4 112
106 3 113
108 3 113
110 3 113
112 3 113
114 4 113
116 4 113
118 4 113
120 4 113
122 3 114
124 3 114
126 3 114
128 3 114
130 4 114
132 4 115
134 3 116
136 3 116
138 3 116
140 1 118
142 1 118
144 1 117
146 1 117
148 1 118
150 1 118
152 1 118
154 1 118
156 1 118
158 1 118
160 1 118
162 0 119
164 0 118
166 0 118
168 0 118
170 0 118
172 0 118
174 0 118
176 0 118
178 0 118
180 0 118
182 0 118
184 0 118
186 0 118
188 0 118
190 0 118
192 0 118
194 0 118
196 0 117
198 1 117
200 0 118
