0 43 0
2 0 44
4.00004 0 44
6 0 44
8 0 44
10 0 44
12 0 44
14 0 45
16 0 45
18 0 45
20 0 45
22 0 45
24 0 45
26 0 45
28 0 45
30 0 45
32 0 45
34 0 46
36 0 46
38 0 45
40 0 45
42 0 45
44 0 45
46 0 45
48 0 45
50 0 45
52 0 45
54 0 45
56 0 45
58 0 45
60 0 45
62 0 46
64 0 46
66 0 46
68 0 46
70 0 46
72 0 46
74 0 46
76 0 46
78 0 46
80 0 46
82 0 45
84 0 45
86 0 45
88 0 45
90 0 45
92 0 46
94 0 46
96 0 46
98 0 46
100 0 46
102 0 45
104 0 45
106 0 45
108 0 45
110 0 45
112 0 45
114 0 44
116 0 44
118 0 44
120 0 45
122 0 45
124 0 44
126 0 43
128 0 43
130 0 43
132 0 44
134 0 44
136 0 44
138 0 44
140 0 45
142 0 45
144 0 45
146 0 45
148 0 45
150 0 45
152 0 45
154 0 46
156 0 46
158 0 46
160 0 46
162 0 46
164 0 46
166 0 46
168 0 46
170 0 46
172 0 46
174 0 46
176 0 47
178 0 47
180 0 47
182 0 46
184 0 43
186 0 43
188 0 43
190 0 43
192 0 43
194 0 42
196 0 42
198 0 42
200 0 43
