0 94 0
2 77 15
4.00004 67 25
6 60 33
8 54 38
10 48 44
12 46 45
14 45 46
16 39 53
18 37 55
20 37 55
22 37 55
24 33 59
26 31 61
28 30 62
30 28 65
32 27 66
34 27 66
36 25 68
38 24 69
40 21 72
42 19 74
44 19 74
46 17 75
48 16 76
50 15 77
52 14 78
54 12 80
56 10 82
58 9 83
60 9 84
62 9 84
64 8 85
66 6 87
68 6 87
70 6 87
72 6 87
74 6 87
76 6 87
78 4 89
80 3 90
82 4 90
84 4 90
86 3 91
88 3 91
90 2 92
92 2 92
94 1 93
96 1 93
98 1 93
100 0 94
102 1 94
104 1 94
106 1 94
108 0 94
110 0 95
112 1 95
114 1 94
116 1 94
118 1 94
120 1 94
122 1 94
124 1 94
126 2 94
128 2 94
130 3 94
132 3 94
134 3 94
136 3 94
138 3 94
140 3 94
142 4 94
144 4 94
146 4 94
148 4 94
150 3 95
152 4 95
154 3 95
156 4 95
158 3 96
160 3 95
162 3 94
164 3 94
166 3 93
168 3 93
170 3 93
172 3 93
174 2 94
176 2 94
178 1 95
180 1 95
182 1 95
184 2 95
186 1 96
188 1 96
190 1 96
192 1 96
194 0 97
196 1 97
198 1 97
200 0 98
