0 106 0
2 95 11
4.00004 86 20
6 76 30
8 65 41
10 55 51
12 49 57
14 43 63
16 40 67
18 36 71
20 32 74
22 30 76
24 29 78
26 29 78
28 27 79
30 24 82
32 22 84
34 22 84
36 19 86
38 16 89
40 16 89
42 15 90
44 15 90
46 13 92
48 11 94
50 9 96
52 6 98
54 7 98
56 4 101
58 3 102
60 2 103
62 2 103
64 2 103
66 2 103
68 2 103
70 2 103
72 2 104
74 0 106
76 0 105
78 0 105
80 1 105
82 2 105
84 2 105
86 2 104
88 2 104
90 1 105
92 0 106
94 0 106
96 0 106
98 0 106
100 0 105
102 0 105
104 0 105
106 0 105
108 0 104
110 0 104
112 0 104
114 0 103
116 0 103
118 0 103
120 1 103
122 1 103
124 0 103
126 0 103
128 0 103
130 0 103
132 0 103
134 0 103
136 1 103
138 1 103
140 2 103
142 2 103
144 2 103
146 3 103
148 3 103
150 3 103
152 4 103
154 5 103
156 6 102
158 6 102
160 4 104
162 5 103
164 5 103
166 3 105
168 3 105
170 3 105
172 3 105
174 1 107
176 1 107
178 1 107
180 0 108
182 0 107
184 0 106
186 0 106
188 0 105
190 0 105
192 0 105
194 0 104
196 0 104
198 0 103
200 0 103
