0 34 0
2 34 0
4.00004 34 0
6 34 0
8 34 0
10 34 1
12 34 1
14 34 1
16 34 1
18 34 1
20 34 1
22 34 1
24 34 1
26 33 1
28 33 1
30 33 1
32 33 1
34 33 1
36 33 1
38 33 1
40 34 1
42 33 1
44 32 1
46 32 1
48 33 3
50 33 3
52 33 3
54 33 3
56 33 3
58 33 3
60 33 3
62 33 3
64 33 3
66 33 3
68 33 3
70 33 4
72 33 5
74 33 5
76 33 5
78 33 5
80 32 5
82 32 5
84 32 5
86 31 5
88 31 5
90 31 5
92 31 5
94 30 5
96 30 5
98 30 5
100 30 5
102 30 6
104 30 6
106 30 6
108 30 6
110 30 6
112 30 6
114 30 7
116 30 7
118 30 7
120 30 7
122 30 7
124 30 7
126 29 7
128 29 6
130 29 6
132 29 6
134 29 6
136 29 6
138 29 6
140 29 6
142 29 6
144 28 6
146 28 6
148 28 7
150 28 8
152 28 8
154 28 8
156 27 8
158 27 8
160 27 8
162 26 9
164 26 9
166 26 9
168 26 9
170 25 9
172 25 9
174 25 9
176 25 9
178 25 9
180 25 9
182 25 9
184 25 9
186 25 9
188 25 8
190 25 9
192 25 9
194 24 9
196 24 9
198 24 9
200 24 11
