0 1127 0 0 0 0 0
2 1057 15 0 43 0 14
4.00004 1032 17 0 72 0 14
6 1002 27 0 96 0 8
8 994 18 0 104 0 20
10 991 18 0 105 0 10
12 955 29 0 130 0 10
14 966 20 0 122 0 11
16 957 24 0 135 0 15
18 957 25 0 121 0 15
20 965 21 0 124 0 15
22 963 25 0 120 0 15
24 963 28 0 131 0 9
26 955 22 0 128 0 17
28 956 26 0 142 0 11
30 947 30 0 128 0 11
32 935 26 0 169 0 13
34 948 22 0 143 0 12
36 963 14 0 137 0 12
38 960 17 0 132 0 15
40 942 25 0 147 0 17
42 943 23 0 143 0 15
44 948 19 0 152 0 11
46 957 22 0 143 0 9
48 966 23 0 135 0 5
50 954 20 0 132 0 23
52 723 2 250 77 66 0
54 578 2 389 82 84 0
56 467 0 510 53 92 0
58 372 1 605 46 98 0
60 283 0 680 38 108 0
62 225 0 722 44 134 1
64 182 0 781 39 124 0
66 149 0 822 39 117 0
68 112 0 855 38 126 0
70 89 0 895 36 112 0
72 74 0 903 35 114 0
74 62 0 922 42 112 0
76 51 0 958 45 100 0
78 42 0 962 48 112 0
80 36 0 952 44 125 0
82 30 0 972 37 108 0
84 24 0 957 33 123 0
86 19 0 968 38 118 0
88 16 1 968 30 121 0
90 14 0 971 27 116 0
92 13 0 966 30 131 0
94 13 0 957 33 131 0
96 11 0 956 40 141 0
98 9 0 945 39 152 0
100 8 0 956 24 148 0
102 6 0 934 35 167 0
104 4 0 951 35 143 1
106 4 0 957 29 146 0
108 4 0 964 35 140 0
110 4 0 969 30 144 0
112 1 0 960 32 156 0
114 1 0 963 24 155 0
116 1 0 957 36 154 0
118 1 0 963 22 134 0
120 0 0 966 28 144 0
122 0 0 974 28 143 0
124 0 0 977 35 139 0
126 0 0 976 25 153 0
128 0 0 986 27 148 0
130 0 0 991 30 132 0
132 0 0 992 27 130 0
134 0 0 987 31 140 0
136 0 0 993 25 130 0
138 0 0 992 28 140 0
140 0 0 987 19 136 0
142 0 0 1002 26 128 0
144 0 0 998 28 127 0
146 0 0 1002 26 135 0
148 0 0 1007 18 125 0
150 0 0 994 19 128 0
152 0 0 986 12 146 0
154 0 0 990 17 137 0
156 0 0 1003 19 129 0
158 0 0 991 20 145 0
160 0 0 1005 26 131 0
162 0 0 1001 13 144 0
164 0 0 996 16 143 0
166 0 0 1013 15 126 0
168 0 0 1011 14 131 0
170 0 0 1010 26 133 0
172 0 0 1004 26 137 0
174 0 0 988 22 149 0
176 0 0 1000 16 150 0
178 0 0 1000 19 152 0
180 0 0 1004 19 139 0
182 0 0 1002 19 140 0
184 0 0 991 19 156 0
186 0 0 1002 16 137 0
188 0 0 1011 15 136 0
190 0 0 1011 20 143 0
192 0 0 1019 17 132 0
194 0 0 1024 18 135 0
196 0 0 1028 12 130 0
198 0 0 1026 12 140 0
200 0 0 1016 13 138 0
