0 1139 0 0 0 0 0
2 1055 23 0 39 0 15
4.00004 1048 14 0 63 0 11
6 1018 25 0 73 0 18
8 1003 25 0 93 0 16
10 985 25 0 114 0 13
12 966 29 0 130 0 19
14 950 29 0 119 0 31
16 944 15 0 160 0 18
18 932 27 0 156 0 19
20 930 18 0 169 0 13
22 915 23 0 154 0 24
24 941 22 0 149 0 12
26 927 17 0 152 0 20
28 912 23 0 158 0 21
30 924 17 0 148 0 18
32 913 25 0 161 0 12
34 914 28 0 146 0 19
36 908 15 0 155 0 23
38 915 18 0 148 0 18
40 920 12 0 141 0 18
42 887 32 0 171 0 14
44 891 20 0 166 0 24
46 901 17 0 168 0 20
48 910 17 0 169 0 12
50 900 19 0 160 0 20
52 682 0 249 90 73 0
54 545 0 387 81 91 1
56 434 0 492 59 106 0
58 349 0 575 45 116 0
60 282 0 633 60 133 0
62 228 0 683 61 138 0
64 187 0 729 47 134 0
66 151 0 776 45 126 0
68 112 0 806 31 146 0
70 98 0 823 33 137 0
72 76 0 830 40 149 0
74 67 0 839 40 150 0
76 56 0 850 36 143 0
78 45 0 856 31 143 0
80 30 0 863 34 150 0
82 23 0 853 27 167 0
84 16 0 865 34 170 0
86 14 0 858 31 174 0
88 11 0 884 32 144 0
90 10 0 876 30 153 0
92 9 0 876 33 160 0
94 9 0 870 37 171 0
96 9 0 868 34 181 1
98 8 0 873 29 168 0
100 7 0 867 35 173 0
102 4 0 873 35 181 0
104 3 0 876 19 180 0
106 2 0 884 26 157 0
108 1 0 881 35 161 0
110 1 0 886 28 156 0
112 1 0 898 26 143 0
114 1 0 877 28 164 0
116 1 0 873 25 170 0
118 1 0 899 23 142 0
120 1 0 888 27 155 0
122 1 0 887 25 141 0
124 1 0 881 26 141 0
126 1 0 882 23 151 0
128 1 0 870 22 158 0
130 1 0 860 27 162 0
132 1 0 844 29 180 0
134 0 0 858 23 168 0
136 0 0 859 23 162 0
138 0 0 853 31 156 0
140 0 0 860 25 165 0
142 0 0 862 23 149 0
144 0 0 861 31 157 0
146 0 0 863 25 149 0
148 0 0 867 26 146 0
150 0 0 853 32 154 0
152 0 0 847 25 158 0
154 0 0 854 13 154 0
156 0 0 860 15 138 0
158 0 0 852 23 159 0
160 0 0 857 22 154 0
162 0 0 848 18 164 0
164 0 0 846 20 157 0
166 0 0 856 23 142 0
168 0 0 852 20 136 0
170 0 0 849 23 144 0
172 0 0 833 23 160 0
174 0 0 837 26 161 0
176 0 0 837 28 147 0
178 0 0 851 29 143 0
180 0 0 843 28 143 0
182 0 0 845 22 153 0
184 0 0 841 22 162 0
186 0 0 834 23 164 0
188 0 0 841 27 149 0
190 0 0 841 26 139 0
192 0 0 834 30 147 1
194 0 0 834 23 158 0
196 0 0 829 24 154 0
198 0 0 825 22 161 0
200 0 0 829 20 172 0
