0 987 0 0 0 0 0
2 873 0 0 93 0 0
4.00004 852 0 0 110 0 0
6 822 0 0 137 0 0
8 797 0 0 171 0 0
10 786 0 0 178 0 0
12 780 0 0 189 0 0
14 775 0 0 191 0 0
16 756 0 0 211 0 0
18 746 0 0 221 0 0
20 745 0 0 214 0 0
22 730 0 0 241 0 0
24 744 0 0 226 0 0
26 745 0 0 238 0 0
28 728 0 0 255 0 0
30 718 0 0 265 0 0
32 728 0 0 261 0 0
34 722 0 0 263 0 0
36 717 0 0 263 0 0
38 701 0 0 285 0 0
40 689 0 0 294 0 0
42 693 0 0 277 0 0
44 702 0 0 270 0 0
46 695 0 0 292 0 0
48 692 0 0 296 0 0
50 692 0 0 286 0 0
52 706 0 0 274 0 0
54 713 0 0 262 1 0
56 717 0 0 271 8 0
58 713 0 0 267 14 0
60 713 0 0 247 17 0
62 724 0 0 232 16 0
64 715 0 5 228 15 0
66 716 0 9 233 29 0
68 714 0 11 231 38 0
70 711 0 13 225 46 0
72 707 0 15 216 58 0
74 705 0 19 218 71 0
76 707 0 25 207 71 0
78 714 0 29 195 76 0
80 719 0 39 180 65 0
82 711 0 41 189 70 0
84 705 0 43 196 72 0
86 702 0 49 198 74 0
88 691 0 50 191 85 0
90 679 0 62 197 81 0
92 661 0 58 204 88 0
94 650 0 67 201 96 0
96 648 0 70 193 110 0
98 657 0 74 178 112 0
100 651 0 85 182 109 0
102 641 0 89 187 105 0
104 633 0 104 190 111 0
106 635 0 113 174 106 0
108 627 0 117 183 106 0
110 628 0 127 175 100 0
112 639 0 132 154 109 0
114 632 0 140 161 111 0
116 610 0 148 184 105 0
118 620 0 149 165 119 0
120 635 0 158 146 111 0
122 615 0 162 154 125 0
124 612 0 165 155 130 0
126 600 0 170 157 121 0
128 582 0 174 174 122 0
130 571 0 171 181 131 0
132 570 0 179 176 122 0
134 559 0 183 183 121 0
136 568 0 191 173 125 0
138 559 0 194 172 124 0
140 551 0 199 176 120 0
142 562 0 196 148 139 0
144 548 0 203 149 135 0
146 551 0 203 150 144 0
148 543 0 207 157 148 0
150 524 0 219 172 147 0
152 520 0 223 167 147 0
154 522 0 232 163 143 0
156 511 0 240 175 154 0
158 527 0 249 142 150 0
160 520 0 250 143 147 0
162 520 0 250 141 155 0
164 514 0 252 144 158 0
166 519 0 250 141 169 0
168 515 0 257 133 154 0
170 515 0 256 128 166 0
172 497 0 262 147 165 0
174 490 0 268 150 167 0
176 483 0 277 143 157 0
178 482 0 279 139 147 0
180 488 0 284 131 146 0
182 487 0 291 121 154 0
184 486 0 296 119 159 0
186 473 0 302 133 173 0
188 467 0 305 130 166 0
190 462 0 312 135 162 0
192 438 0 317 151 164 0
194 439 0 334 151 141 0
196 432 0 336 149 145 0
198 443 0 327 134 164 0
200 436 0 342 140 145 0
