0 1215 0 0 0 0 0
2 1137 30 0 35 0 10
4.00004 1110 39 0 58 0 12
6 1107 26 0 77 0 10
8 1099 31 0 78 0 13
10 1101 29 0 74 0 16
12 1094 34 0 79 0 14
14 1093 27 0 97 0 8
16 1081 30 0 101 0 11
18 1073 22 0 113 0 16
20 1060 30 0 114 0 11
22 1065 23 0 120 0 11
24 1062 36 0 101 0 11
26 1051 26 0 104 0 20
28 1045 34 0 116 0 6
30 1032 27 0 125 0 15
32 1035 27 0 128 0 8
34 1031 37 0 115 0 15
36 1025 37 0 121 0 7
38 1027 25 0 126 0 15
40 1026 28 0 116 0 14
42 1039 22 0 119 0 13
44 1031 35 0 111 0 6
46 1025 23 0 124 0 16
48 1002 40 0 116 0 22
50 1023 30 0 114 0 14
52 769 0 270 83 69 1
54 614 0 423 69 87 0
56 484 0 560 49 95 0
58 376 0 660 39 105 0
60 299 1 756 29 93 0
62 240 0 814 30 93 0
64 191 0 853 31 97 0
66 159 0 888 38 92 0
68 128 0 918 30 99 0
70 110 0 939 30 103 0
72 89 0 954 27 112 1
74 65 1 978 31 104 0
76 48 0 998 28 108 0
78 41 0 1008 25 115 0
80 35 0 1014 31 111 0
82 27 0 1027 28 105 0
84 22 0 1024 26 116 0
86 14 1 1033 38 127 0
88 12 0 1038 30 127 0
90 9 0 1040 21 119 0
92 8 0 1050 27 108 0
94 6 0 1046 34 112 0
96 5 0 1057 27 96 0
98 4 0 1054 26 104 0
100 4 0 1044 21 117 0
102 2 0 1062 25 100 0
104 2 0 1063 28 98 0
106 2 0 1065 22 84 0
108 1 0 1060 18 103 1
110 1 0 1061 21 116 0
112 1 0 1056 27 107 0
114 1 0 1049 25 115 0
116 1 0 1046 22 120 0
118 1 0 1049 20 119 0
120 0 0 1058 19 108 0
122 0 0 1043 23 115 0
124 0 0 1043 25 108 0
126 0 0 1039 25 111 0
128 0 0 1040 22 111 0
130 0 0 1041 17 103 0
132 0 0 1027 15 119 0
134 0 0 1042 19 102 0
136 0 0 1039 13 102 0
138 0 0 1046 15 100 0
140 0 0 1041 17 107 0
142 0 0 1021 14 126 0
144 0 0 1033 11 114 0
146 0 0 1044 16 98 0
148 0 0 1036 12 107 0
150 0 0 1047 18 92 0
152 0 0 1022 19 118 0
154 0 0 1027 19 113 0
156 0 0 1013 21 110 0
158 0 0 1005 21 117 0
160 0 0 1025 14 102 0
162 0 0 1017 23 111 0
164 0 0 1015 15 112 0
166 0 0 1006 19 118 0
168 0 0 1007 21 116 0
170 0 0 1003 14 117 0
172 0 0 1017 21 111 0
174 0 0 1019 19 102 0
176 0 0 1011 20 115 0
178 0 0 1020 16 107 0
180 0 0 1021 17 114 0
182 0 0 1009 16 116 0
184 0 0 1018 18 101 0
186 0 0 1010 23 111 0
188 0 0 1006 19 123 0
190 0 0 1018 21 95 0
192 0 0 1024 14 96 0
194 0 0 1028 15 101 0
196 0 0 1013 15 113 0
198 0 0 1011 16 108 0
200 0 0 1014 24 100 0
