0 860 0 0 0 0 0
2 798 0 0 59 0 0
4.00004 770 0 0 88 0 0
6 753 0 0 98 0 0
8 751 0 0 109 0 0
10 741 0 0 119 0 0
12 733 0 0 126 0 0
14 730 0 0 135 0 0
16 746 0 0 113 0 0
18 738 0 0 126 0 0
20 735 0 0 130 0 0
22 739 0 0 113 0 0
24 725 0 0 119 0 0
26 734 0 0 124 0 0
28 730 0 0 118 0 0
30 717 0 0 135 0 0
32 721 0 0 126 0 0
34 719 0 0 133 0 0
36 708 0 0 143 0 0
38 716 0 0 124 0 0
40 723 0 0 134 0 0
42 728 0 0 117 0 0
44 713 0 0 148 0 0
46 723 0 0 128 0 0
48 723 0 0 118 0 0
50 712 0 0 128 0 0
52 713 0 0 110 11 0
54 705 0 5 99 11 0
56 703 0 13 78 30 0
58 686 0 26 81 37 0
60 678 0 33 70 52 0
62 663 0 44 74 47 0
64 663 0 57 65 43 0
66 650 0 73 68 49 0
68 643 0 96 56 30 0
70 639 0 103 52 47 0
72 612 0 105 67 62 0
74 600 0 113 68 62 0
76 599 0 126 58 67 0
78 572 0 142 67 59 0
80 558 0 161 66 51 0
82 546 0 173 64 55 0
84 534 0 188 55 49 0
86 509 0 193 68 57 0
88 503 0 209 57 54 0
90 493 0 223 60 52 0
92 483 0 224 54 64 0
94 480 0 239 51 67 0
96 464 0 253 55 62 0
98 449 0 258 60 65 0
100 438 0 274 57 71 0
102 444 0 277 46 72 0
104 435 0 294 47 69 0
106 426 0 297 46 75 0
108 422 0 311 39 72 0
110 415 0 317 39 66 0
112 408 0 322 43 70 0
114 391 0 330 50 75 0
116 388 0 332 40 81 0
118 375 0 358 39 72 0
120 373 0 359 35 80 0
122 363 0 357 33 87 0
124 353 0 370 41 93 0
126 347 0 380 40 93 0
128 346 0 390 30 84 0
130 336 0 401 32 82 0
132 329 0 413 28 75 0
134 320 0 415 32 94 0
136 308 0 422 37 94 0
138 302 0 423 37 82 0
140 299 0 420 39 86 0
142 303 0 431 23 84 0
144 292 0 427 30 76 0
146 286 0 439 28 86 0
148 286 0 444 25 83 0
150 276 0 448 28 79 0
152 266 0 446 31 90 0
154 272 0 446 19 104 0
156 263 0 454 22 90 0
158 256 0 455 28 97 0
160 246 0 457 34 96 0
162 243 0 451 33 103 0
164 244 0 450 28 108 0
166 236 0 464 31 112 0
168 231 0 480 33 100 0
170 228 0 487 28 85 0
172 227 0 488 28 88 0
174 219 0 481 32 92 0
176 229 0 495 18 83 0
178 229 0 499 19 84 0
180 222 0 494 23 97 0
182 220 0 495 19 105 0
184 202 0 500 32 108 0
186 200 0 498 30 106 0
188 199 0 498 25 104 0
190 194 0 500 19 103 0
192 185 0 506 23 102 0
194 179 0 527 23 87 0
196 177 0 538 20 81 0
198 169 0 550 22 85 0
200 171 0 553 14 83 0
