0 1020 0 0 0 0 0
2 954 0 0 77 0 0
4.00004 928 0 0 104 0 0
6 928 0 0 110 0 0
8 922 0 0 101 0 0
10 900 0 0 117 0 0
12 880 0 0 137 0 0
14 892 0 0 124 0 0
16 896 0 0 126 0 0
18 899 0 0 121 0 0
20 897 0 0 116 0 0
22 887 0 0 119 0 0
24 891 0 0 114 0 0
26 893 0 0 122 0 0
28 891 0 0 112 0 0
30 893 0 0 111 0 0
32 889 0 0 115 0 0
34 883 0 0 130 0 0
36 887 0 0 130 0 0
38 892 0 0 134 0 0
40 908 0 0 118 0 0
42 895 0 0 127 0 0
44 904 0 0 132 0 0
46 907 0 0 133 0 0
48 904 0 0 133 0 0
50 905 0 0 130 0 0
52 916 0 0 119 12 0
54 916 0 6 108 15 0
56 894 0 9 104 34 0
58 897 0 19 85 44 0
60 881 0 31 92 41 0
62 875 0 36 80 45 0
64 859 0 46 78 41 0
66 837 0 63 91 47 0
68 826 0 70 85 52 0
70 813 0 82 74 62 0
72 801 0 94 76 61 0
74 801 0 108 62 71 0
76 780 0 128 73 66 0
78 762 0 137 79 65 0
80 757 0 151 73 75 0
82 738 0 168 68 74 0
84 722 0 179 74 70 0
86 719 0 187 66 69 0
88 715 0 201 58 72 0
90 711 0 217 58 72 0
92 692 0 227 69 71 0
94 689 0 246 66 57 0
96 676 0 257 65 66 0
98 677 0 263 52 65 0
100 681 0 284 43 54 0
102 665 0 294 51 60 0
104 655 0 302 56 62 0
106 651 0 322 51 58 0
108 637 0 320 55 62 0
110 618 0 323 67 64 0
112 597 0 325 62 73 0
114 592 0 337 63 66 0
116 592 0 343 50 76 0
118 577 0 357 62 74 0
120 573 0 360 54 75 0
122 543 0 376 76 72 0
124 543 0 386 64 67 0
126 539 0 389 55 74 0
128 536 0 380 49 87 0
130 526 0 388 49 91 0
132 528 0 403 36 76 0
134 517 0 408 42 84 0
136 516 0 423 40 77 0
138 509 0 421 35 84 0
140 501 0 424 41 84 0
142 490 0 421 45 106 0
144 485 0 441 45 96 0
146 488 0 448 36 83 0
148 482 0 463 38 76 0
150 460 0 465 50 78 0
152 459 0 475 45 88 0
154 464 0 479 31 80 0
156 439 0 489 47 82 0
158 435 0 486 43 81 0
160 430 0 497 43 81 0
162 425 0 504 40 84 0
164 417 0 519 36 79 0
166 414 0 514 36 95 0
168 413 0 523 29 95 0
170 400 0 543 36 81 0
172 404 0 559 24 78 0
174 394 0 562 30 86 0
176 397 0 572 19 79 0
178 377 0 567 42 96 0
180 382 0 572 24 103 0
182 382 0 572 24 105 0
184 375 0 574 26 108 0
186 369 0 575 31 96 0
188 360 0 573 36 96 0
190 358 0 567 27 110 0
192 354 0 587 26 91 0
194 346 0 585 25 104 0
196 336 0 600 35 91 0
198 334 0 606 27 101 0
200 336 0 626 25 86 0
