0 1047 0 0 0 0 0
2 957 0 0 77 0 0
4.00004 926 0 0 107 0 0
6 909 0 0 136 0 0
8 874 0 0 166 0 0
10 859 0 0 176 0 0
12 852 0 0 199 0 0
14 842 0 0 193 0 0
16 848 0 0 187 0 0
18 837 0 0 200 0 0
20 831 0 0 208 0 0
22 830 0 0 208 0 0
24 843 0 0 185 0 0
26 840 0 0 186 0 0
28 827 0 0 193 0 0
30 847 0 0 174 0 0
32 821 0 0 201 0 0
34 814 0 0 213 0 0
36 807 0 0 219 0 0
38 809 0 0 225 0 0
40 808 0 0 222 0 0
42 803 0 0 219 0 0
44 802 0 0 216 0 0
46 812 0 0 206 0 0
48 818 0 0 196 0 0
50 809 0 0 193 0 0
52 804 0 0 205 2 0
54 804 0 1 196 14 0
56 788 0 1 198 26 0
58 798 0 3 179 39 0
60 780 0 11 181 46 0
62 781 0 16 157 51 0
64 772 0 21 151 46 0
66 764 0 22 148 49 0
68 758 0 29 139 66 0
70 749 0 35 137 72 0
72 732 0 44 137 73 0
74 715 0 55 150 76 0
76 712 0 69 132 71 0
78 693 0 79 132 84 0
80 681 0 86 137 81 0
82 673 0 88 130 103 0
84 673 0 106 113 95 0
86 677 0 121 106 92 0
88 658 0 134 121 93 0
90 644 0 138 123 106 0
92 640 0 150 118 106 0
94 625 0 172 124 94 0
96 621 0 167 120 112 0
98 619 0 180 124 104 0
100 603 0 195 117 99 0
102 587 0 203 129 98 0
104 588 0 217 112 92 0
106 584 0 225 118 104 0
108 580 0 230 115 121 0
110 571 0 239 113 123 0
112 572 0 236 102 136 0
114 544 0 246 127 132 0
116 546 0 256 115 119 0
118 542 0 263 109 136 0
120 544 0 266 99 134 0
122 547 0 282 93 115 0
124 528 0 290 103 109 0
126 530 0 287 96 124 0
128 530 0 302 81 105 0
130 525 0 318 84 117 0
132 504 0 320 97 117 0
134 496 0 317 98 111 0
136 487 0 323 98 114 0
138 489 0 311 93 142 0
140 486 0 316 86 147 0
142 484 0 323 87 142 0
144 478 0 362 91 110 0
146 466 0 354 95 117 0
148 451 0 355 107 123 0
150 459 0 362 84 126 0
152 446 0 368 99 122 0
154 447 0 382 93 117 0
156 447 0 386 85 114 0
158 437 0 382 89 136 0
160 440 0 381 77 140 0
162 429 0 395 80 133 0
164 443 0 396 63 144 0
166 428 0 406 68 144 0
168 412 0 411 72 144 0
170 401 0 415 84 136 0
172 392 0 410 81 154 0
174 395 0 425 76 136 0
176 390 0 439 76 125 0
178 386 0 436 72 132 0
180 377 0 429 76 133 0
182 372 0 421 81 147 0
184 368 0 414 78 162 0
186 361 0 415 75 158 0
188 361 0 428 69 154 0
190 353 0 435 70 150 0
192 350 0 437 67 143 0
194 348 0 447 64 137 0
196 349 0 451 56 137 0
198 341 0 445 57 154 0
200 341 0 458 57 148 0
