0 1306 0 0 0 0 0
2 1205 25 0 48 0 35
4.00004 1178 21 0 81 0 29
6 1169 19 0 96 0 28
8 1150 20 0 113 0 28
10 1148 9 0 118 0 30
12 1127 21 0 121 0 29
14 1111 33 0 116 0 42
16 1127 22 0 118 0 35
18 1113 33 0 120 0 29
20 1120 14 0 127 0 37
22 1114 27 0 117 0 39
24 1120 30 0 127 0 26
26 1118 17 0 120 0 29
28 1113 21 0 105 0 37
30 1104 15 0 135 0 25
32 1096 22 0 127 0 30
34 1094 23 0 109 0 29
36 1110 21 0 129 0 25
38 1112 18 0 112 0 30
40 1095 18 0 122 0 26
42 1096 16 0 114 0 33
44 1076 31 0 121 0 32
46 1103 18 0 110 0 26
48 1103 18 0 96 0 36
50 1120 22 0 95 0 17
52 849 1 287 51 76 0
54 699 0 428 41 91 0
56 552 0 584 31 95 0
58 427 0 694 34 115 0
60 344 0 790 29 108 0
62 267 0 849 21 128 0
64 203 0 921 28 121 0
66 163 0 951 26 118 0
68 128 0 975 19 140 0
70 104 0 998 21 126 0
72 77 0 1016 26 140 0
74 60 0 1053 33 128 0
76 48 0 1071 22 120 0
78 39 0 1073 32 130 0
80 31 1 1076 31 133 0
82 28 0 1071 17 137 0
84 19 0 1092 13 131 0
86 17 0 1076 20 142 0
88 15 0 1076 20 133 0
90 12 0 1090 19 130 0
92 8 0 1079 17 149 0
94 8 0 1095 22 134 0
96 5 0 1089 17 146 1
98 4 0 1109 17 131 0
100 3 0 1115 9 116 0
102 1 0 1104 17 135 0
104 1 0 1094 19 139 0
106 0 0 1107 14 123 0
108 0 0 1106 15 127 0
110 0 0 1110 13 124 0
112 0 0 1101 19 128 0
114 0 0 1105 13 117 0
116 0 0 1109 16 122 0
118 0 0 1110 15 116 0
120 0 0 1106 17 141 0
122 0 0 1107 20 131 0
124 0 0 1110 21 115 0
126 0 0 1101 23 136 0
128 0 0 1100 13 149 0
130 0 0 1106 10 154 0
132 0 0 1116 11 140 0
134 0 0 1103 13 131 0
136 0 0 1114 13 127 0
138 0 0 1090 13 149 0
140 0 0 1103 8 128 0
142 0 0 1099 16 144 0
144 0 0 1112 16 132 0
146 0 0 1118 11 135 0
148 0 0 1124 10 131 0
150 0 0 1120 7 144 1
152 0 0 1132 9 143 0
154 0 0 1133 6 136 0
156 0 0 1132 10 137 0
158 0 0 1121 7 136 0
160 0 0 1136 6 116 0
162 0 0 1122 8 145 0
164 0 0 1120 8 158 0
166 0 0 1137 8 121 0
168 0 0 1115 15 144 0
170 0 0 1121 9 147 0
172 0 0 1129 4 141 0
174 0 0 1116 6 149 0
176 0 0 1131 6 124 0
178 0 0 1110 5 146 0
180 0 0 1107 13 156 0
182 0 0 1117 4 149 0
184 0 0 1121 12 143 0
186 0 0 1120 15 153 0
188 0 0 1126 9 140 0
190 0 0 1123 11 128 0
192 0 0 1112 6 163 0
194 0 0 1124 7 141 0
196 0 0 1125 9 135 0
198 0 0 1113 7 131 0
200 0 0 1101 8 160 0
