0 965 0 0 0 0 0
2 901 23 0 30 0 17
4.00004 862 15 0 68 0 19
6 860 24 0 66 0 17
8 835 15 0 90 0 19
10 824 13 0 109 0 12
12 828 16 0 110 0 8
14 808 10 0 120 0 24
16 810 12 0 112 0 16
18 810 9 0 127 0 18
20 797 17 0 135 0 19
22 789 15 0 155 0 19
24 781 21 0 144 0 17
26 778 14 0 160 0 18
28 776 13 0 177 0 19
30 771 13 0 183 0 14
32 778 17 0 174 0 11
34 783 15 0 166 0 17
36 787 12 0 170 0 20
38 776 22 0 170 0 16
40 777 15 0 176 0 21
42 764 9 0 190 0 26
44 769 6 0 192 0 23
46 780 17 0 183 0 14
48 785 14 0 175 0 15
50 771 13 0 190 0 20
52 626 0 162 149 62 0
54 526 0 254 127 91 0
56 447 0 342 112 95 0
58 374 0 416 113 106 0
60 320 0 474 109 113 0
62 273 0 520 104 114 0
64 229 0 553 98 134 0
66 185 0 604 92 133 0
68 158 0 633 91 136 0
70 140 0 656 100 138 0
72 112 0 687 90 140 0
74 100 0 702 85 138 0
76 84 2 726 68 134 0
78 66 0 751 72 140 0
80 58 0 767 69 136 0
82 53 0 767 70 149 0
84 44 0 778 77 145 0
86 40 0 780 82 145 0
88 35 0 789 70 145 0
90 27 0 819 62 129 0
92 22 0 818 68 136 0
94 18 0 817 67 150 0
96 14 0 830 64 147 0
98 11 0 825 60 157 0
100 9 0 827 57 161 0
102 8 0 838 72 147 0
104 8 0 844 63 154 0
106 8 0 826 63 174 0
108 8 0 836 62 168 0
110 8 0 842 53 165 0
112 7 0 847 62 156 0
114 7 0 832 52 169 0
116 5 0 844 45 162 0
118 4 0 842 60 167 0
120 4 0 841 55 169 0
122 4 0 845 53 164 0
124 4 0 853 57 159 0
126 3 0 852 50 165 0
128 2 0 857 46 166 0
130 2 0 847 52 180 0
132 2 0 841 44 182 0
134 2 0 834 43 181 0
136 1 0 841 46 187 0
138 1 0 851 43 164 0
140 1 0 844 50 169 0
142 1 0 862 51 157 0
144 1 0 845 55 171 0
146 1 0 856 44 162 0
148 1 0 852 46 160 0
150 0 0 853 44 172 0
152 0 0 851 40 178 0
154 0 0 858 57 167 0
156 0 0 857 56 169 0
158 0 0 866 57 163 0
160 0 0 857 53 173 0
162 0 0 865 42 164 0
164 0 0 869 38 165 0
166 0 0 868 40 159 0
168 0 0 847 43 184 0
170 0 0 849 36 183 0
172 0 0 853 39 184 0
174 0 0 862 43 171 0
176 0 0 843 38 191 0
178 0 0 843 44 195 0
180 0 0 846 48 187 0
182 0 0 841 52 211 0
184 0 0 858 55 183 0
186 0 0 855 54 189 0
188 0 0 861 53 181 0
190 0 0 871 52 173 0
192 0 0 866 53 180 0
194 0 0 866 48 178 0
196 0 0 860 37 187 0
198 0 0 860 37 196 0
200 0 0 843 43 211 0
