0 942 0 0 0 0 0
2 857 0 0 81 0 0
4.00004 834 0 0 117 0 0
6 803 0 0 142 0 0
8 788 0 0 162 0 0
10 780 0 0 167 0 0
12 779 0 0 175 0 0
14 753 0 0 190 0 0
16 733 0 0 211 0 0
18 734 0 0 198 0 0
20 737 0 0 186 0 0
22 730 0 0 191 0 0
24 748 0 0 187 0 0
26 730 0 0 193 0 0
28 726 0 0 204 0 0
30 725 0 0 219 0 0
32 730 0 0 219 0 0
34 730 0 0 213 0 0
36 732 0 0 208 0 0
38 727 0 0 219 0 0
40 728 0 0 207 0 0
42 718 0 0 232 0 0
44 718 0 0 226 0 0
46 722 0 0 220 0 0
48 729 0 0 208 0 0
50 730 0 0 211 0 0
52 736 0 0 207 2 0
54 735 0 0 212 5 0
56 723 0 0 201 17 0
58 710 0 3 193 15 0
60 715 0 5 181 27 0
62 702 0 9 190 29 0
64 692 0 18 192 38 0
66 697 0 17 177 52 0
68 675 0 21 185 45 0
70 655 0 22 203 60 0
72 652 0 30 183 59 0
74 654 0 36 170 61 0
76 657 0 41 148 74 0
78 651 0 46 150 79 0
80 641 0 55 159 76 0
82 634 0 63 159 76 0
84 644 0 75 131 64 0
86 638 0 76 122 72 0
88 633 0 81 134 84 0
90 624 0 92 136 96 0
92 618 0 97 129 89 0
94 618 0 98 118 97 0
96 614 0 114 117 88 0
98 629 0 117 95 92 0
100 612 0 125 105 89 0
102 605 0 128 109 104 0
104 610 0 138 103 99 0
106 586 0 145 122 96 0
108 562 0 154 134 91 0
110 571 0 167 118 96 0
112 559 0 182 124 100 0
114 550 0 179 118 105 0
116 543 0 189 123 98 0
118 543 0 191 117 96 0
120 541 0 194 121 107 0
122 538 0 198 115 113 0
124 532 0 205 99 92 0
126 527 0 212 104 100 0
128 521 0 219 107 105 0
130 516 0 223 105 118 0
132 515 0 224 96 116 0
134 509 0 225 103 125 0
136 500 0 235 100 124 0
138 501 0 235 87 122 0
140 495 0 237 96 122 0
142 495 0 241 87 119 0
144 497 0 238 85 129 0
146 488 0 241 91 121 0
148 479 0 257 88 122 0
150 470 0 267 96 108 0
152 465 0 275 90 116 0
154 450 0 286 99 117 0
156 447 0 290 102 110 0
158 439 0 301 105 113 0
160 438 0 296 98 121 0
162 445 0 296 90 129 0
164 438 0 310 97 123 0
166 432 0 323 93 104 0
168 425 0 324 95 119 0
170 430 0 327 79 116 0
172 421 0 327 82 119 0
174 431 0 325 68 124 0
176 423 0 328 77 132 0
178 418 0 342 70 124 0
180 401 0 327 88 141 0
182 399 0 323 82 147 0
184 391 0 332 82 157 0
186 379 0 334 88 159 0
188 367 0 344 95 145 0
190 356 0 354 99 150 0
192 352 0 351 94 159 0
194 351 0 361 90 154 0
196 342 0 367 89 152 0
198 346 0 367 79 156 0
200 337 0 369 90 150 0
