0 1167 0 0 0 0 0
2 1036 34 0 64 0 23
4.00004 989 35 0 112 0 28
6 971 35 0 127 0 20
8 935 31 0 148 0 35
10 935 39 0 153 0 32
12 892 30 0 209 0 37
14 879 28 0 220 0 38
16 894 26 0 219 0 33
18 884 29 0 204 0 35
20 880 37 0 222 0 29
22 897 30 0 200 0 29
24 892 28 0 211 0 22
26 879 39 0 214 0 27
28 884 28 0 221 0 27
30 885 22 0 236 0 21
32 882 38 0 205 0 41
34 897 29 0 214 0 25
36 878 28 0 231 0 32
38 877 22 0 227 0 33
40 879 29 0 209 0 28
42 856 28 0 226 0 31
44 854 28 0 228 0 27
46 846 24 0 233 0 34
48 859 30 0 217 0 29
50 845 35 0 221 0 31
52 649 0 226 163 98 0
54 520 0 345 120 148 0
56 420 1 448 86 171 0
58 349 1 522 83 175 0
60 290 1 585 85 172 0
62 247 0 639 88 165 0
64 202 0 683 80 177 0
66 168 0 710 70 191 0
68 141 0 739 67 188 0
70 114 0 787 62 177 0
72 88 0 808 60 204 0
74 71 1 818 46 203 0
76 54 0 829 43 215 0
78 47 0 851 47 192 0
80 36 0 876 60 184 0
82 30 0 862 59 206 0
84 23 0 869 59 209 0
86 18 0 884 58 208 0
88 16 0 882 57 213 0
90 15 0 877 51 205 0
92 12 0 878 57 208 0
94 11 0 878 55 201 0
96 8 0 896 44 192 0
98 6 0 901 44 180 0
100 4 0 912 44 184 1
102 3 0 916 42 177 0
104 3 0 910 33 186 0
106 1 0 894 37 199 0
108 1 0 889 35 198 0
110 1 0 892 43 199 0
112 0 0 900 38 196 0
114 0 0 888 39 200 0
116 0 0 883 41 208 0
118 0 0 878 44 196 0
120 0 0 875 37 201 0
122 0 0 875 42 202 0
124 0 0 870 45 198 0
126 0 0 864 44 218 0
128 0 0 860 49 217 0
130 0 0 870 46 208 0
132 0 0 861 51 218 1
134 0 0 850 36 233 0
136 0 0 861 36 222 0
138 0 0 871 40 211 0
140 0 0 852 43 232 0
142 0 0 837 46 247 0
144 0 0 857 36 233 0
146 0 0 863 32 230 0
148 0 0 881 36 214 0
150 0 0 881 31 205 0
152 0 0 885 32 205 0
154 0 0 872 33 215 0
156 0 0 879 35 192 0
158 0 0 879 37 192 0
160 0 0 887 28 182 0
162 0 0 865 35 213 0
164 0 0 866 29 225 0
166 0 0 862 27 228 0
168 0 0 863 28 226 0
170 0 0 875 38 217 0
172 0 0 855 33 227 1
174 0 0 863 33 234 0
176 0 0 880 28 220 0
178 0 0 874 26 223 1
180 0 0 878 24 222 0
182 0 0 885 23 209 0
184 0 0 886 25 212 0
186 0 0 890 24 220 0
188 0 0 896 24 214 0
190 0 0 876 27 233 0
192 0 0 884 28 222 0
194 0 0 867 27 235 0
196 0 0 872 23 224 0
198 0 0 882 25 215 0
200 0 0 883 28 214 0
