0 975 0 0 0 0 0
2 907 0 0 59 0 0
4.00004 877 0 0 90 0 0
6 859 0 0 99 0 0
8 840 0 0 115 0 0
10 833 0 0 115 0 0
12 825 0 0 125 0 0
14 819 0 0 140 0 0
16 822 0 0 139 0 0
18 818 0 0 150 0 0
20 818 0 0 147 0 0
22 840 0 0 137 0 0
24 836 0 0 137 0 0
26 829 0 0 145 0 0
28 830 0 0 138 0 0
30 831 0 0 144 0 0
32 825 0 0 147 0 0
34 815 0 0 158 0 0
36 805 0 0 164 0 0
38 795 0 0 168 0 0
40 799 0 0 184 0 0
42 808 0 0 172 0 0
44 810 0 0 163 0 0
46 808 0 0 170 0 0
48 802 0 0 169 0 0
50 808 0 0 169 0 0
52 798 0 0 184 3 0
54 814 0 1 163 9 0
56 805 0 1 156 18 0
58 799 0 2 153 26 0
60 805 0 5 137 28 0
62 803 0 7 137 39 0
64 803 0 12 130 33 0
66 806 0 18 122 34 0
68 794 0 26 130 36 0
70 777 0 34 129 40 0
72 787 0 39 115 38 0
74 783 0 44 118 46 0
76 783 0 49 114 53 0
78 776 0 57 114 55 0
80 770 0 64 124 52 0
82 776 0 73 114 50 0
84 765 0 76 118 64 0
86 768 0 85 106 50 0
88 748 0 89 117 57 0
90 754 0 91 103 59 0
92 731 0 98 121 63 0
94 729 0 109 114 54 0
96 735 0 113 103 51 0
98 727 0 116 110 56 0
100 710 0 127 108 55 0
102 710 0 129 105 55 0
104 710 0 135 107 49 0
106 698 0 142 112 55 0
108 705 0 142 96 60 0
110 690 0 145 103 66 0
112 682 0 154 105 77 0
114 683 0 154 95 77 0
116 673 0 168 95 66 0
118 660 0 173 98 76 0
120 646 0 181 117 80 0
122 668 0 179 88 88 0
124 658 0 186 94 84 0
126 652 0 186 104 84 0
128 652 0 205 92 78 0
130 643 0 210 98 76 0
132 633 0 208 92 87 0
134 626 0 221 97 82 0
136 620 0 230 90 72 0
138 618 0 234 89 79 0
140 610 0 244 80 81 0
142 602 0 258 89 79 0
144 598 0 257 90 81 0
146 587 0 255 95 87 0
148 593 0 258 78 91 0
150 580 0 268 84 88 0
152 572 0 277 86 86 0
154 567 0 273 84 86 0
156 557 0 278 88 88 0
158 546 0 297 88 86 0
160 546 0 289 89 90 0
162 542 0 301 82 86 0
164 546 0 293 77 107 0
166 544 0 307 74 99 0
168 546 0 312 69 102 0
170 559 0 319 54 93 0
172 545 0 326 67 92 0
174 536 0 335 64 92 0
176 538 0 341 59 90 0
178 529 0 345 67 96 0
180 529 0 352 65 100 0
182 525 0 342 64 113 0
184 513 0 351 75 115 0
186 505 0 363 79 102 0
188 501 0 362 77 102 0
190 495 0 370 76 107 0
192 486 0 373 82 109 0
194 482 0 385 83 107 0
196 487 0 383 68 105 0
198 483 0 389 72 106 0
200 466 0 396 83 102 0
