0 951 0 0 0 0 0
2 934 0 0 32 0 0
4.00004 902 0 0 53 0 0
6 895 0 0 66 0 0
8 886 0 0 66 0 0
10 874 0 0 76 0 0
12 875 0 0 73 0 0
14 862 0 0 84 0 0
16 863 0 0 85 0 0
18 860 0 0 86 0 0
20 863 0 0 83 0 0
22 847 0 0 95 0 0
24 841 0 0 97 0 0
26 841 0 0 102 0 0
28 839 0 0 101 0 0
30 851 0 0 98 0 0
32 846 0 0 95 0 0
34 837 0 0 104 0 0
36 845 0 0 97 0 0
38 836 0 0 105 0 0
40 830 0 0 105 0 0
42 825 0 0 115 0 0
44 826 0 0 117 0 0
46 834 0 0 108 0 0
48 826 0 0 119 0 0
50 837 0 0 116 0 0
52 823 0 0 134 0 0
54 821 0 0 132 1 0
56 819 0 0 132 4 0
58 820 0 0 132 4 0
60 835 0 0 106 6 0
62 820 0 0 124 10 0
64 811 0 0 123 18 0
66 812 0 0 122 19 0
68 825 0 3 103 19 0
70 814 0 4 106 23 0
72 816 0 6 107 23 0
74 815 0 6 102 26 0
76 810 0 8 102 24 0
78 801 0 7 113 26 0
80 803 0 8 111 37 0
82 800 0 9 103 32 0
84 804 0 11 99 27 0
86 793 0 15 106 31 0
88 796 0 17 97 34 0
90 789 0 21 103 32 0
92 795 0 20 98 39 0
94 786 0 22 100 35 0
96 790 0 23 93 42 0
98 797 0 28 87 36 0
100 798 0 31 84 37 0
102 794 0 31 85 36 0
104 787 0 35 92 40 0
106 790 0 38 84 36 0
108 772 0 41 97 41 0
110 774 0 42 93 43 0
112 780 0 46 84 40 0
114 767 0 47 97 40 0
116 774 0 52 86 38 0
118 771 0 56 87 39 0
120 768 0 57 93 35 0
122 771 0 56 87 30 0
124 758 0 56 97 41 0
126 763 0 54 90 46 0
128 767 0 55 83 49 0
130 768 0 59 79 53 0
132 762 0 60 86 59 0
134 765 0 67 78 50 0
136 752 0 70 92 41 0
138 754 0 73 88 53 0
140 742 0 77 95 46 0
142 753 0 78 82 46 0
144 745 0 81 83 47 0
146 743 0 79 81 50 0
148 746 0 82 73 53 0
150 747 0 80 73 60 0
152 742 0 86 74 49 0
154 746 0 88 68 59 0
156 747 0 92 70 57 0
158 737 0 97 78 54 0
160 735 0 96 77 54 0
162 735 0 100 81 54 0
164 727 0 106 83 52 0
166 725 0 104 82 57 0
168 734 0 107 74 51 0
170 721 0 103 87 61 0
172 724 0 108 80 55 0
174 727 0 108 79 62 0
176 730 0 116 73 48 0
178 737 0 116 63 53 0
180 733 0 117 65 51 0
182 726 0 121 66 50 0
184 729 0 127 60 44 0
186 718 0 130 69 43 0
188 724 0 125 63 52 0
190 718 0 129 64 53 0
192 714 0 130 68 60 0
194 712 0 135 69 56 0
196 714 0 137 65 54 0
198 715 0 140 64 55 0
200 708 0 140 73 58 0
