0 1084 0 0 0 0 0
2 1063 0 0 30 0 0
4.00004 1047 0 0 42 0 0
6 1039 0 0 51 0 0
8 1026 0 0 67 0 0
10 1029 0 0 64 0 0
12 1019 0 0 77 0 0
14 1017 0 0 78 0 0
16 1011 0 0 89 0 0
18 1014 0 0 83 0 0
20 1018 0 0 80 0 0
22 1007 0 0 82 0 0
24 993 0 0 101 0 0
26 988 0 0 97 0 0
28 991 0 0 97 0 0
30 992 0 0 93 0 0
32 996 0 0 96 0 0
34 996 0 0 94 0 0
36 994 0 0 102 0 0
38 1014 0 0 74 0 0
40 996 0 0 92 0 0
42 1001 0 0 87 0 0
44 999 0 0 92 0 0
46 1008 0 0 81 0 0
48 1004 0 0 85 0 0
50 994 0 0 102 0 0
52 991 0 0 115 0 0
54 996 0 0 99 3 0
56 988 0 1 102 8 0
58 971 0 2 111 14 0
60 977 0 3 96 11 0
62 979 0 3 85 21 0
64 972 0 4 95 25 0
66 965 0 5 105 28 0
68 971 0 7 92 27 0
70 977 0 12 76 26 0
72 970 0 13 78 27 0
74 968 0 15 81 26 0
76 959 0 18 83 29 0
78 943 0 20 95 29 0
80 939 0 26 95 30 0
82 957 0 31 77 34 0
84 951 0 35 76 29 0
86 953 0 39 68 29 0
88 939 0 45 74 26 0
90 933 0 45 77 30 0
92 930 0 50 76 22 0
94 921 0 52 92 35 0
96 930 0 56 72 32 0
98 929 0 59 67 36 0
100 928 0 61 72 35 0
102 932 0 63 60 29 0
104 940 0 67 52 31 0
106 933 0 69 53 33 0
108 924 0 72 61 29 0
110 933 0 76 55 36 0
112 926 0 83 57 31 0
114 922 0 83 56 29 0
116 912 0 88 66 32 0
118 898 0 89 75 35 0
120 911 0 94 59 27 0
122 906 0 96 60 35 0
124 890 0 102 71 31 0
126 887 0 106 80 31 0
128 887 0 107 78 32 0
130 881 0 112 77 26 0
132 873 0 115 79 30 0
134 872 0 118 75 33 0
136 867 0 118 82 36 0
138 872 0 126 74 30 0
140 872 0 122 68 43 0
142 869 0 123 68 48 0
144 865 0 126 73 46 0
146 866 0 134 67 44 0
148 869 0 136 65 44 0
150 857 0 138 70 43 0
152 856 0 142 69 44 0
154 858 0 143 61 43 0
156 848 0 148 70 36 0
158 840 0 149 78 35 0
160 845 0 153 66 38 0
162 840 0 157 66 36 0
164 840 0 157 64 43 0
166 837 0 163 59 32 0
168 835 0 162 62 34 0
170 825 0 166 69 31 0
172 827 0 161 60 43 0
174 831 0 168 48 40 0
176 826 0 173 51 39 0
178 820 0 170 60 43 0
180 813 0 172 61 45 0
182 804 0 173 68 38 0
184 800 0 180 68 34 0
186 793 0 181 71 36 0
188 798 0 189 63 36 0
190 793 0 192 60 37 0
192 788 0 191 63 40 0
194 788 0 188 59 46 0
196 785 0 193 51 48 0
198 785 0 196 56 51 0
200 780 0 196 53 51 0
