0 1025 0 0 0 0 0
2 995 0 0 44 0 0
4.00004 975 0 0 61 0 0
6 966 0 0 73 0 0
8 947 0 0 87 0 0
10 948 0 0 90 0 0
12 945 0 0 98 0 0
14 948 0 0 93 0 0
16 939 0 0 100 0 0
18 937 0 0 106 0 0
20 931 0 0 94 0 0
22 933 0 0 93 0 0
24 939 0 0 87 0 0
26 948 0 0 83 0 0
28 941 0 0 94 0 0
30 929 0 0 101 0 0
32 920 0 0 118 0 0
34 929 0 0 104 0 0
36 931 0 0 101 0 0
38 911 0 0 118 0 0
40 914 0 0 111 0 0
42 912 0 0 114 0 0
44 906 0 0 113 0 0
46 906 0 0 107 0 0
48 910 0 0 112 0 0
50 910 0 0 100 0 0
52 917 0 0 100 0 0
54 895 0 0 118 10 0
56 901 0 0 98 19 0
58 913 0 3 87 21 0
60 907 0 6 90 33 0
62 906 0 8 83 33 0
64 898 0 15 80 33 0
66 883 0 19 98 28 0
68 893 0 21 89 30 0
70 878 0 27 94 30 0
72 882 0 34 82 35 0
74 879 0 37 75 32 0
76 876 0 38 69 41 0
78 867 0 42 73 42 0
80 853 0 45 84 49 0
82 852 0 57 77 42 0
84 846 0 55 79 43 0
86 834 0 60 82 42 0
88 843 0 66 67 40 0
90 839 0 67 67 41 0
92 821 0 70 87 41 0
94 814 0 83 91 41 0
96 807 0 88 90 37 0
98 816 0 92 75 35 0
100 811 0 99 78 32 0
102 806 0 98 79 30 0
104 816 0 105 63 25 0
106 813 0 110 64 31 0
108 808 0 112 64 34 0
110 799 0 117 71 31 0
112 808 0 121 60 36 0
114 805 0 117 57 36 0
116 794 0 125 61 29 0
118 796 0 125 52 38 0
120 788 0 132 59 41 0
122 793 0 132 55 45 0
124 782 0 137 59 45 0
126 775 0 136 65 44 0
128 767 0 146 68 39 0
130 756 0 156 76 32 0
132 762 0 162 57 33 0
134 751 0 165 69 30 0
136 747 0 164 68 41 0
138 744 0 166 63 49 0
140 746 0 171 52 38 0
142 743 0 173 56 38 0
144 728 0 167 68 50 0
146 730 0 174 64 46 0
148 731 0 171 58 62 0
150 728 0 178 55 57 0
152 720 0 176 59 60 0
154 716 0 181 56 51 0
156 711 0 188 58 50 0
158 695 0 195 65 57 0
160 681 0 204 77 47 0
162 696 0 212 53 42 0
164 689 0 212 56 46 0
166 691 0 221 50 42 0
168 676 0 221 65 51 0
170 685 0 229 53 53 0
172 667 0 234 71 47 0
174 676 0 241 59 46 0
176 669 0 246 63 47 0
178 660 0 249 70 50 0
180 655 0 249 61 50 0
182 653 0 251 55 55 0
184 641 0 260 66 50 0
186 645 0 265 56 50 0
188 634 0 271 57 42 0
190 638 0 266 45 54 0
192 630 0 271 48 59 0
194 631 0 277 43 50 0
196 623 0 280 43 44 0
198 623 0 287 43 34 0
200 609 0 291 54 43 0
