0 978 0 0 0 0 0
2 950 3 0 14 0 13
4.00004 945 0 0 20 0 12
6 944 1 0 21 0 11
8 952 0 0 20 0 10
10 940 0 0 28 0 12
12 933 0 0 34 0 12
14 937 0 0 26 0 11
16 929 0 0 31 0 15
18 921 0 0 38 0 19
20 925 0 0 34 0 22
22 925 0 0 30 0 20
24 924 0 0 26 0 19
26 920 0 0 27 0 19
28 923 0 0 30 0 19
30 922 0 0 29 0 14
32 924 0 0 23 0 13
34 930 0 0 27 0 11
36 930 0 0 29 0 11
38 938 0 0 21 0 12
40 933 0 0 23 0 16
42 921 0 0 30 0 17
44 928 0 0 33 0 11
46 932 0 0 29 0 12
48 927 0 0 28 0 19
50 929 0 0 28 0 13
52 843 0 83 15 31 0
54 787 0 145 14 36 0
56 736 0 197 7 45 0
58 696 0 243 9 39 1
60 642 0 297 6 41 0
62 588 0 353 7 35 0
64 551 0 398 7 29 0
66 516 0 432 9 30 1
68 486 0 458 8 38 0
70 452 0 494 8 35 1
72 423 0 513 6 37 1
74 396 0 547 6 37 0
76 361 0 577 5 43 0
78 338 0 595 3 49 0
80 314 0 613 6 44 0
82 294 0 624 6 44 0
84 280 0 641 8 42 0
86 263 0 660 10 28 0
88 244 0 671 6 45 0
90 231 0 694 8 30 1
92 217 0 707 7 41 0
94 205 0 722 7 38 0
96 192 0 734 6 44 0
98 179 0 760 6 32 0
100 169 0 770 5 38 0
102 157 0 781 5 37 0
104 145 0 789 2 44 0
106 132 0 808 9 33 0
108 114 0 824 3 45 0
110 109 0 827 7 42 0
112 98 0 836 5 49 0
114 88 0 847 4 44 0
116 87 0 858 6 42 0
118 86 0 861 6 37 0
120 82 0 857 5 47 0
122 77 0 866 5 43 0
124 72 0 860 2 51 0
126 69 0 869 3 42 0
128 67 0 874 5 47 0
130 61 0 880 4 41 0
132 58 0 883 6 44 0
134 54 0 887 4 43 0
136 52 0 889 0 48 0
138 50 0 903 4 33 0
140 45 0 901 9 40 0
142 42 0 904 3 44 0
144 38 0 908 1 39 0
146 32 0 913 6 37 0
148 32 0 907 6 44 0
150 32 0 907 6 43 0
152 31 0 916 2 37 0
154 28 0 912 7 40 0
156 27 0 909 4 45 0
158 24 0 918 0 45 0
160 22 0 914 1 43 0
162 20 0 922 0 35 0
164 19 0 919 1 45 0
166 16 0 923 5 45 0
168 15 0 921 3 46 0
170 15 0 925 4 35 0
172 15 0 923 5 42 0
174 13 0 922 5 41 0
176 12 0 911 2 57 0
178 11 0 920 4 46 0
180 9 0 921 4 47 0
182 8 0 928 4 35 0
184 8 0 933 4 28 0
186 6 0 927 5 42 0
188 6 0 920 5 48 0
190 6 0 928 3 40 0
192 5 0 924 1 40 0
194 4 0 923 1 44 0
196 4 0 927 3 37 0
198 4 0 930 5 39 0
200 2 0 918 4 47 0
