0 807 0 0 0 0 0
2 774 7 0 8 0 14
4.00004 781 1 0 19 0 10
6 769 0 0 31 0 10
8 768 0 0 36 0 8
10 764 0 0 39 0 9
12 763 0 0 38 0 8
14 762 0 0 37 0 11
16 752 0 0 46 0 17
18 760 0 0 37 0 9
20 758 0 0 41 0 11
22 756 0 0 44 0 11
24 757 0 0 46 0 6
26 749 0 0 45 0 12
28 748 0 0 48 0 8
30 742 0 0 50 0 12
32 751 0 0 54 0 12
34 754 0 0 48 0 13
36 751 0 0 52 0 19
38 769 0 0 41 0 11
40 766 0 0 45 0 10
42 764 0 0 39 0 16
44 768 0 0 45 0 7
46 765 0 0 38 0 12
48 753 0 0 55 0 8
50 758 0 0 37 0 19
52 711 0 42 23 32 0
54 672 0 84 20 37 0
56 630 0 134 15 36 0
58 594 0 171 11 33 1
60 559 0 206 10 39 0
62 529 0 234 15 36 0
64 496 0 270 13 36 0
66 462 0 297 8 48 0
68 443 0 320 8 42 0
70 425 0 338 10 47 0
72 399 0 364 7 50 0
74 379 0 379 11 51 0
76 360 0 394 8 49 0
78 339 0 415 10 50 0
80 320 0 435 8 51 1
82 300 0 455 12 50 0
84 275 0 476 15 50 0
86 258 0 499 5 40 0
88 244 0 506 11 48 0
90 238 0 522 8 50 0
92 227 0 538 5 39 0
94 218 0 539 6 47 1
96 202 0 557 5 47 0
98 191 0 564 11 52 0
100 179 0 575 3 54 0
102 175 0 583 11 47 0
104 166 0 579 7 57 0
106 154 0 585 7 61 0
108 150 0 596 6 52 0
110 144 0 603 4 55 0
112 135 0 616 8 49 0
114 124 0 631 6 50 0
116 121 0 634 3 47 0
118 116 0 647 6 48 0
120 102 0 657 6 46 0
122 93 0 657 9 55 1
124 86 0 668 4 53 0
126 82 0 682 5 42 0
128 79 0 689 4 36 0
130 70 0 696 7 40 0
132 66 0 704 5 36 0
134 63 0 705 5 35 0
136 59 0 709 8 43 0
138 58 0 692 3 55 0
140 53 0 703 3 45 0
142 50 0 699 7 54 0
144 47 0 703 7 49 0
146 44 0 706 8 49 0
148 42 0 699 5 56 0
150 39 0 704 10 55 0
152 38 0 713 8 43 0
154 36 0 707 10 54 0
156 33 0 707 12 60 0
158 29 0 715 11 58 0
160 27 0 709 7 64 0
162 25 0 711 11 63 0
164 25 0 721 4 59 0
166 25 0 726 9 51 0
168 25 0 725 10 52 0
170 23 0 729 9 53 0
172 23 0 734 6 49 0
174 23 0 736 5 48 0
176 23 0 739 6 47 0
178 22 0 736 6 53 0
180 19 0 746 7 43 0
182 18 0 746 3 47 0
184 17 0 745 5 45 0
186 16 0 737 7 55 0
188 14 0 738 9 58 0
190 14 0 740 8 56 0
192 13 0 742 7 60 0
194 10 0 751 6 43 0
196 9 0 754 10 44 0
198 8 0 758 7 39 0
200 6 0 759 10 40 0
