0 982 0 0 0 0 0
2 956 0 0 25 0 0
4.00004 943 0 0 43 0 0
6 925 0 0 50 0 0
8 910 0 0 69 0 0
10 914 0 0 69 0 0
12 916 0 0 74 0 0
14 915 0 0 80 0 0
16 907 0 0 92 0 0
18 891 0 0 97 0 0
20 901 0 0 87 0 0
22 900 0 0 85 0 0
24 882 0 0 98 0 0
26 894 0 0 82 0 0
28 903 0 0 85 0 0
30 893 0 0 87 0 0
32 885 0 0 97 0 0
34 882 0 0 106 0 0
36 885 0 0 101 0 0
38 875 0 0 104 0 0
40 874 0 0 102 0 0
42 885 0 0 95 0 0
44 878 0 0 99 0 0
46 877 0 0 108 0 0
48 876 0 0 109 0 0
50 879 0 0 100 0 0
52 885 0 0 90 0 0
54 865 0 0 110 0 0
56 879 0 0 102 3 0
58 880 0 0 91 7 0
60 879 0 0 86 11 0
62 886 0 0 81 12 0
64 878 0 0 83 19 0
66 875 0 2 85 20 0
68 877 0 6 81 21 0
70 880 0 6 76 20 0
72 876 0 9 80 22 0
74 875 0 8 78 23 0
76 871 0 9 74 29 0
78 870 0 12 70 28 0
80 869 0 16 67 23 0
82 862 0 19 69 20 0
84 864 0 20 65 21 0
86 868 0 22 59 18 0
88 861 0 24 68 19 0
90 865 0 25 64 23 0
92 852 0 26 74 25 0
94 844 0 29 81 26 0
96 845 0 30 73 28 0
98 841 0 33 77 28 0
100 835 0 36 75 27 0
102 821 0 39 84 23 0
104 824 0 37 80 29 0
106 815 0 43 85 24 0
108 812 0 45 77 28 0
110 818 0 46 67 36 0
112 812 0 47 76 35 0
114 804 0 47 77 41 0
116 806 0 48 72 38 0
118 794 0 54 85 35 0
120 791 0 56 84 31 0
122 791 0 56 76 30 0
124 793 0 57 73 37 0
126 784 0 62 76 31 0
128 785 0 63 80 34 0
130 780 0 65 79 29 0
132 783 0 68 68 31 0
134 777 0 72 75 26 0
136 771 0 74 84 31 0
138 769 0 79 82 25 0
140 769 0 83 76 21 0
142 765 0 86 75 28 0
144 755 0 89 81 32 0
146 749 0 91 91 27 0
148 747 0 94 84 29 0
150 740 0 93 87 32 0
152 748 0 95 73 27 0
154 738 0 97 76 30 0
156 738 0 95 73 40 0
158 723 0 98 88 39 0
160 731 0 102 75 28 0
162 735 0 106 70 29 0
164 728 0 107 74 29 0
166 736 0 111 67 28 0
168 730 0 112 73 29 0
170 724 0 114 70 29 0
172 715 0 118 78 28 0
174 723 0 116 69 33 0
176 712 0 118 75 38 0
178 712 0 120 69 38 0
180 705 0 119 71 39 0
182 711 0 127 61 36 0
184 697 0 129 72 37 0
186 692 0 132 80 32 0
188 689 0 130 78 44 0
190 690 0 136 78 41 0
192 690 0 134 69 44 0
194 683 0 131 75 43 0
196 690 0 132 67 47 0
198 688 0 139 69 42 0
200 685 0 143 66 41 0
