0 1003 0 0 0 0 0
2 973 0 0 28 0 0
4.00004 961 0 0 40 0 0
6 934 0 0 62 0 0
8 941 0 0 63 0 0
10 918 0 0 78 0 0
12 923 0 0 66 0 0
14 913 0 0 82 0 0
16 906 0 0 83 0 0
18 909 0 0 82 0 0
20 893 0 0 91 0 0
22 899 0 0 88 0 0
24 902 0 0 91 0 0
26 898 0 0 88 0 0
28 895 0 0 104 0 0
30 897 0 0 103 0 0
32 907 0 0 94 0 0
34 910 0 0 81 0 0
36 903 0 0 96 0 0
38 904 0 0 92 0 0
40 906 0 0 94 0 0
42 895 0 0 99 0 0
44 906 0 0 89 0 0
46 912 0 0 93 0 0
48 906 0 0 93 0 0
50 911 0 0 92 0 0
52 919 0 0 89 3 0
54 903 0 0 99 5 0
56 901 0 0 98 11 0
58 902 0 1 90 17 0
60 904 0 1 89 15 0
62 907 0 2 75 19 0
64 896 0 4 87 27 0
66 900 0 4 80 32 0
68 898 0 10 72 32 0
70 900 0 16 62 27 0
72 901 0 20 58 23 0
74 890 0 23 63 21 0
76 891 0 25 57 24 0
78 882 0 27 66 32 0
80 888 0 31 62 33 0
82 886 0 32 56 29 0
84 874 0 34 67 40 0
86 870 0 38 63 32 0
88 871 0 41 66 28 0
90 873 0 45 61 27 0
92 870 0 50 61 23 0
94 868 0 53 57 23 0
96 870 0 51 51 30 0
98 870 0 58 49 27 0
100 857 0 63 56 31 0
102 859 0 66 56 31 0
104 860 0 70 49 27 0
106 856 0 74 48 28 0
108 851 0 73 47 28 0
110 836 0 77 63 25 0
112 833 0 77 55 29 0
114 825 0 83 62 29 0
116 823 0 81 57 31 0
118 811 0 85 66 25 0
120 814 0 90 58 24 0
122 817 0 95 53 27 0
124 808 0 95 59 31 0
126 808 0 99 59 31 0
128 811 0 105 51 42 0
130 805 0 103 56 43 0
132 796 0 110 63 39 0
134 786 0 112 62 41 0
136 786 0 112 59 43 0
138 787 0 120 58 37 0
140 789 0 116 50 43 0
142 774 0 120 62 47 0
144 773 0 121 56 43 0
146 770 0 127 55 45 0
148 766 0 135 57 42 0
150 756 0 137 66 39 0
152 762 0 144 57 31 0
154 753 0 147 59 29 0
156 758 0 150 54 28 0
158 747 0 152 57 26 0
160 747 0 152 53 30 0
162 732 0 152 56 34 0
164 731 0 154 60 38 0
166 737 0 157 50 37 0
168 729 0 158 55 43 0
170 724 0 158 61 51 0
172 722 0 168 63 42 0
174 726 0 171 55 44 0
176 734 0 177 43 44 0
178 713 0 180 60 48 0
180 711 0 183 58 44 0
182 715 0 187 53 43 0
184 708 0 190 56 46 0
186 713 0 190 50 39 0
188 715 0 188 48 39 0
190 706 0 196 54 33 0
192 699 0 201 54 32 0
194 698 0 205 51 33 0
196 690 0 201 57 37 0
198 695 0 201 45 49 0
200 697 0 205 42 46 0
