0 770 0 0 0 0 0
2 735 3 0 19 0 18
4.00004 732 1 0 35 0 16
6 730 0 0 32 0 18
8 721 0 0 36 0 23
10 713 0 0 50 0 20
12 710 0 0 54 0 18
14 711 0 0 49 0 21
16 709 0 0 48 0 30
18 720 0 0 48 0 14
20 731 0 0 37 0 10
22 714 0 0 41 0 30
24 717 0 0 43 0 28
26 725 0 0 51 0 20
28 726 0 0 52 0 13
30 730 0 0 45 0 22
32 731 0 0 37 0 27
34 727 0 0 49 0 16
36 729 0 0 45 0 15
38 724 0 0 39 0 16
40 721 0 0 46 0 26
42 733 0 0 37 0 14
44 730 0 0 35 0 21
46 715 0 0 39 0 29
48 724 0 0 36 0 22
50 727 0 0 35 0 19
52 639 0 79 15 41 1
54 572 0 140 12 50 1
56 510 0 194 15 58 1
58 460 0 248 9 56 0
60 412 0 291 11 57 0
62 369 0 334 11 58 0
64 335 0 368 7 52 1
66 307 0 390 11 63 0
68 274 0 426 3 59 0
70 248 0 444 9 69 0
72 231 0 470 9 52 0
74 208 0 493 12 56 0
76 197 0 518 11 44 0
78 172 0 522 7 68 0
80 158 0 544 12 57 0
82 141 0 558 4 54 0
84 133 0 576 8 52 0
86 119 0 579 5 60 0
88 112 0 589 8 52 0
90 106 0 600 8 49 0
92 88 0 616 11 52 0
94 81 0 619 4 68 0
96 69 0 622 9 71 0
98 61 0 642 4 55 0
100 56 0 644 7 52 0
102 49 0 656 6 54 0
104 42 0 656 4 64 0
106 37 0 655 2 60 0
108 34 0 657 5 61 0
110 30 0 663 6 55 1
112 28 0 671 2 51 0
114 27 0 672 12 49 0
116 26 0 673 11 63 0
118 24 0 673 4 63 0
120 24 0 674 3 60 0
122 22 0 686 9 46 0
124 20 0 680 9 45 0
126 18 0 676 12 59 0
128 16 0 687 5 54 0
130 15 0 690 4 54 0
132 13 0 694 4 54 0
134 13 0 692 4 52 0
136 12 0 685 2 59 0
138 12 0 689 2 50 0
140 11 0 683 6 54 0
142 11 0 684 8 51 0
144 8 0 676 9 56 0
146 7 0 676 5 59 0
148 6 0 687 6 57 0
150 6 0 679 5 63 0
152 6 0 689 3 48 0
154 5 0 694 8 43 0
156 5 0 684 4 52 0
158 4 0 683 3 53 0
160 4 0 686 8 45 0
162 4 0 679 6 49 0
164 4 0 675 3 61 0
166 3 0 670 9 53 0
168 3 0 664 10 66 0
170 3 0 673 7 58 0
172 3 0 679 3 52 0
174 2 0 673 5 59 0
176 2 0 686 4 47 0
178 2 0 683 6 55 0
180 1 0 684 10 64 0
182 1 0 700 5 47 0
184 1 0 698 6 52 1
186 1 0 689 2 66 0
188 1 0 684 2 71 0
190 0 0 692 3 61 0
192 0 0 699 5 56 0
194 0 0 695 5 65 0
196 0 0 707 4 45 0
198 0 0 701 7 53 0
200 0 0 701 4 59 0
