0 492 0 0 0 0 583
2 444 0 0 20 0 583
4.00004 439 0 0 10 0 583
6 419 0 0 12 0 583
8 398 0 0 17 0 583
10 402 0 0 15 0 583
12 400 0 0 21 0 583
14 394 0 0 11 0 583
16 391 0 0 15 0 583
18 381 0 0 10 0 583
20 382 0 0 13 0 583
22 367 0 0 18 0 583
24 370 0 0 15 0 583
26 353 0 0 17 0 583
28 343 0 0 15 0 583
30 327 0 0 13 0 583
32 334 0 0 15 0 583
34 331 0 0 10 0 583
36 325 0 0 15 0 583
38 336 0 0 11 0 583
40 318 0 0 13 0 583
42 321 0 0 13 0 583
44 330 0 0 8 0 583
46 329 0 0 17 0 583
48 327 0 0 4 0 583
50 302 0 0 14 0 583
52 300 0 0 12 0 583
54 301 0 7 8 2 583
56 297 0 18 11 2 583
58 285 0 33 11 3 583
60 265 0 43 11 2 583
62 251 0 47 11 5 583
64 243 0 52 7 2 583
66 233 0 68 6 1 583
68 216 0 82 4 7 583
70 203 0 88 7 6 583
72 182 0 106 8 4 583
74 166 0 114 6 4 583
76 162 0 124 5 6 583
78 149 0 142 8 1 583
80 145 0 153 4 7 583
82 136 0 166 1 6 583
84 134 0 180 1 7 583
86 122 0 183 4 6 583
88 115 0 199 1 7 583
90 105 0 206 1 8 583
92 103 0 225 1 5 583
94 94 0 229 3 5 583
96 84 0 234 2 11 583
98 73 0 249 3 8 583
100 58 0 242 5 11 583
102 59 0 246 1 11 583
104 53 0 248 3 11 583
106 49 0 257 1 12 583
108 45 0 257 1 8 583
110 40 0 248 1 15 583
112 36 0 271 3 5 583
114 31 0 273 2 5 583
116 27 0 276 1 11 583
118 24 0 284 1 5 583
120 26 0 288 0 7 583
122 23 0 277 1 9 583
124 23 0 268 2 11 583
126 20 0 274 1 6 583
128 19 0 278 0 6 583
130 19 0 278 0 15 583
132 16 0 281 0 13 583
134 15 0 290 0 11 583
136 13 0 289 0 10 583
138 12 0 284 1 14 583
140 8 0 281 2 10 583
142 9 0 281 0 15 583
144 8 0 290 0 11 583
146 9 0 286 0 9 583
148 8 0 285 0 11 583
150 6 0 279 0 12 583
152 5 0 293 0 8 583
154 5 0 293 0 8 583
156 4 0 282 0 10 583
158 4 0 291 0 12 583
160 4 0 315 0 11 583
162 3 0 303 0 18 583
164 2 0 292 1 18 583
166 2 0 313 1 19 583
168 2 0 301 0 16 583
170 2 0 310 0 10 583
172 2 0 303 0 17 583
174 1 0 311 0 16 583
176 1 0 310 0 14 583
178 1 0 310 0 14 583
180 1 0 313 0 12 583
182 1 0 297 0 11 583
184 1 0 298 0 15 583
186 1 0 306 0 16 583
188 1 0 307 0 15 583
190 1 0 311 0 6 583
192 0 0 287 1 18 583
194 1 0 283 0 11 583
196 1 0 271 0 10 583
198 2 0 274 0 10 583
200 1 0 265 0 7 583
