0 38 0 0 0 51
2 35 0 3 0 43
4.00004 37 0 1 0 36
6 35 0 3 0 48
8 37 0 3 0 43
10 39 0 1 0 41
12 37 0 3 0 46
14 34 0 4 0 41
16 35 0 3 0 61
18 35 0 3 0 53
20 36 0 2 0 45
22 37 1 1 0 44
24 35 1 3 0 47
26 35 1 3 0 44
28 34 1 2 0 49
30 34 1 2 0 58
32 32 1 4 0 42
34 33 2 3 0 51
36 31 2 3 0 54
38 28 2 4 0 49
40 27 2 5 0 49
42 29 2 3 0 50
44 30 4 2 0 47
46 29 3 2 1 45
48 31 3 0 1 41
50 31 4 0 0 46
52 27 4 3 0 40
54 27 4 2 0 44
56 27 4 1 0 42
58 27 4 1 0 42
60 27 4 1 0 38
62 25 4 3 0 47
64 27 3 1 1 49
66 27 4 1 0 40
68 26 4 2 0 35
70 26 3 2 1 44
72 25 4 3 0 36
74 26 4 1 0 43
76 26 4 1 0 48
78 26 4 1 0 42
80 24 5 2 0 53
82 24 5 2 0 48
84 26 5 0 0 48
86 21 5 5 1 48
88 25 6 0 0 39
90 25 6 0 0 47
92 25 6 0 0 44
94 22 6 2 0 49
96 24 7 0 1 29
98 24 9 0 0 45
100 22 9 2 0 52
102 23 8 1 2 38
104 22 7 2 3 44
106 20 9 4 1 46
108 22 11 2 0 37
110 22 11 2 0 37
112 20 12 3 0 53
114 22 11 0 1 53
116 19 12 2 0 52
118 21 11 0 1 43
120 20 10 1 2 50
122 20 12 1 0 52
124 19 12 2 0 40
126 18 10 2 2 40
128 19 10 1 2 45
130 16 11 3 1 47
132 17 11 1 2 43
134 17 13 1 0 38
136 16 12 2 1 44
138 15 13 3 1 49
140 14 14 4 0 54
142 17 11 1 3 44
144 17 14 1 0 45
146 18 12 0 2 51
148 18 14 0 0 39
150 18 13 0 2 43
152 15 14 2 1 39
154 17 14 0 1 52
156 15 12 2 3 42
158 17 14 0 1 53
160 15 15 2 0 52
162 13 18 3 0 45
164 14 16 3 2 40
166 14 15 3 3 43
168 16 15 1 3 45
170 16 16 1 0 45
172 15 14 2 2 46
174 16 14 1 2 31
176 16 16 0 1 39
178 14 16 2 1 43
180 16 18 0 0 34
182 13 16 3 2 45
184 14 17 2 1 49
186 14 18 2 0 44
188 16 15 0 3 43
190 12 17 3 1 49
192 14 18 1 0 48
194 15 17 0 1 44
196 14 17 1 1 46
198 14 18 1 1 47
200 14 19 1 0 42
202 14 18 1 2 50
204 15 17 0 3 56
206 14 19 1 1 44
208 14 17 1 2 44
210 13 17 1 2 43
