0 111 0 0 0 52
2 110 0 1 0 38
4.00004 108 0 3 0 44
6 111 0 0 0 42
8 110 0 1 0 51
10 109 0 2 0 47
12 95 13 3 0 49
14 85 22 4 0 43
16 82 25 4 0 50
18 77 32 2 0 37
20 70 39 2 0 41
22 66 43 1 1 46
24 61 48 0 2 53
26 50 58 2 1 55
28 49 61 0 1 44
30 45 65 0 1 42
32 42 68 0 1 41
34 39 72 0 0 45
36 34 77 0 0 41
38 32 75 1 3 55
40 31 74 1 6 53
42 29 79 0 5 56
44 27 86 0 0 48
46 23 89 1 0 49
48 23 87 0 3 54
50 20 89 0 4 42
52 19 94 0 0 45
54 15 94 1 3 44
56 18 96 0 1 49
58 16 97 0 1 46
60 13 98 0 2 41
62 12 99 0 1 37
64 11 95 1 6 47
66 12 97 1 4 45
68 10 101 1 2 47
70 10 101 1 2 48
72 10 102 1 1 40
74 11 100 0 3 35
76 11 100 0 3 57
78 10 101 0 3 41
80 9 103 0 2 54
82 8 105 0 1 52
84 8 106 1 0 41
86 9 106 0 0 42
88 8 105 0 2 44
90 8 106 0 1 47
92 7 106 0 2 43
94 5 105 1 5 43
96 7 106 0 4 40
98 6 110 0 1 46
100 6 108 0 3 44
102 4 107 1 5 48
104 5 107 0 5 48
106 4 112 0 1 44
108 3 110 0 4 44
110 3 112 0 2 45
112 3 111 0 3 50
114 3 109 0 5 45
116 2 110 0 5 39
118 1 113 1 2 47
120 2 115 0 0 36
122 2 112 0 3 42
124 2 113 0 2 38
126 2 114 0 1 45
128 2 112 0 3 44
130 2 115 0 0 50
132 2 114 0 2 47
134 1 114 0 3 53
136 1 116 0 1 55
138 1 117 0 0 45
140 1 116 0 1 46
142 1 114 0 3 46
144 1 116 0 1 45
146 1 112 1 3 47
148 1 113 0 3 45
150 1 112 0 4 40
152 1 110 0 6 45
154 1 115 0 1 43
156 1 115 0 1 43
158 0 113 0 2 47
160 0 108 0 7 44
162 0 112 0 2 49
164 0 112 0 2 44
166 0 111 0 3 40
168 0 111 0 3 36
170 0 109 1 5 48
172 1 114 0 0 57
174 0 113 0 2 39
176 0 113 0 2 56
178 0 111 0 4 52
180 0 113 0 2 47
182 0 114 0 1 47
184 0 115 0 0 44
186 0 113 0 1 45
188 1 113 2 1 41
190 3 114 0 1 45
192 2 114 0 2 42
194 2 111 0 3 40
196 2 114 0 0 45
198 2 114 0 0 45
200 2 113 0 1 48
202 2 110 0 3 42
204 2 111 0 2 44
206 1 108 0 6 46
208 1 109 0 5 43
210 1 108 0 6 47
