0 41 0 0 0 34
2 36 0 4 0 46
4.00004 40 0 2 0 42
6 40 0 3 0 48
8 42 0 2 0 46
10 40 0 5 0 56
12 43 0 2 0 45
14 41 0 4 0 40
16 41 0 4 0 42
18 41 0 5 0 36
20 43 0 3 0 41
22 46 0 0 0 43
24 39 0 7 0 48
26 43 0 3 0 46
28 45 1 1 0 47
30 41 1 3 0 46
32 39 2 5 0 44
34 40 2 4 0 38
36 39 2 5 1 40
38 36 3 8 0 43
40 41 3 2 0 52
42 41 3 2 0 46
44 42 3 1 0 49
46 38 3 5 0 40
48 42 3 1 0 49
50 40 3 3 0 41
52 42 4 1 1 42
54 40 5 3 0 36
56 42 5 1 0 37
58 41 5 2 0 40
60 42 3 1 2 51
62 41 4 2 1 42
64 41 4 2 1 51
66 40 5 3 0 46
68 39 5 4 0 47
70 39 5 3 0 46
72 39 4 3 0 50
74 38 4 4 0 48
76 38 4 3 0 46
78 35 4 6 0 46
80 39 4 2 0 38
82 36 4 5 0 42
84 36 4 4 0 49
86 37 4 2 0 49
88 37 4 1 0 49
90 36 5 2 0 39
92 37 5 1 0 52
94 37 4 1 1 45
96 37 5 1 0 45
98 32 5 6 0 37
100 33 5 5 0 53
102 33 5 5 0 45
104 34 5 4 0 42
106 36 6 2 0 46
108 37 6 0 0 41
110 35 5 2 1 42
112 35 7 2 0 39
114 33 7 3 0 40
116 34 7 2 0 47
118 34 7 2 0 42
120 33 7 3 0 48
122 33 8 3 0 40
124 34 7 2 2 53
126 34 9 2 0 43
128 32 9 4 1 41
130 36 10 0 0 49
132 32 9 4 2 42
134 34 12 2 0 43
136 32 12 3 1 46
138 31 12 4 1 45
140 30 13 5 0 51
142 34 15 1 1 41
144 29 15 5 1 49
146 33 16 1 0 46
148 29 15 5 2 47
150 31 14 3 3 43
152 34 14 0 3 53
154 33 17 1 0 43
156 32 15 2 2 42
158 34 15 0 2 52
160 34 13 0 4 42
162 34 15 0 2 48
164 29 17 5 0 45
166 33 16 1 1 48
168 33 14 1 3 52
170 32 16 2 2 45
172 32 17 2 1 39
174 32 17 1 1 42
176 34 17 0 1 41
178 31 17 3 2 43
180 30 15 4 3 45
182 32 18 1 0 42
184 28 18 5 0 51
186 32 18 1 2 45
188 29 17 4 3 40
190 32 20 1 0 41
192 32 18 1 2 39
194 30 19 2 1 48
196 30 17 2 2 33
198 29 18 2 1 43
200 27 18 4 1 38
202 30 17 1 2 53
204 29 19 2 0 46
206 30 18 1 1 37
208 30 19 1 1 49
210 29 18 2 2 44
