0 111 0 0 0 47
2 109 0 3 0 51
4.00004 110 0 1 0 38
6 110 0 1 0 49
8 109 0 2 0 45
10 104 0 7 0 58
12 91 14 5 1 48
14 80 28 2 0 38
16 72 35 1 2 47
18 66 42 1 0 45
20 60 44 3 2 46
22 55 53 1 0 44
24 53 56 0 0 51
26 49 56 1 3 42
28 45 61 0 3 49
30 39 62 2 6 46
32 35 71 1 1 45
34 32 76 1 0 51
36 27 80 0 2 44
38 27 80 0 2 41
40 25 83 0 2 48
42 22 85 1 3 49
44 19 87 1 4 43
46 17 92 0 2 50
48 16 93 1 2 46
50 14 95 1 3 45
52 14 94 0 5 46
54 14 95 0 4 48
56 14 95 0 4 48
58 12 97 0 4 41
60 11 100 0 2 49
62 9 99 0 5 48
64 8 104 0 1 46
66 7 104 0 2 44
68 5 105 1 2 47
70 6 104 0 2 35
72 4 102 0 5 47
74 3 108 0 0 45
76 2 106 0 3 41
78 2 106 1 2 42
80 3 106 0 3 50
82 2 107 0 3 53
84 0 106 1 5 35
86 2 108 0 3 44
88 1 104 1 6 40
90 2 108 0 2 40
92 2 110 0 0 52
94 2 106 0 3 49
96 0 108 0 3 41
98 0 108 0 3 44
100 0 109 0 2 49
102 0 109 0 2 45
104 0 111 1 0 42
106 1 107 0 4 45
108 1 107 0 4 50
110 1 106 0 5 49
112 1 110 0 1 44
114 1 107 0 4 49
116 1 107 0 3 42
118 1 105 0 4 40
120 1 105 0 4 45
122 0 106 1 3 47
124 1 107 0 2 47
126 1 107 0 2 41
128 1 107 0 2 44
130 1 108 0 2 42
132 1 108 0 2 53
134 1 106 0 3 52
136 1 107 0 2 50
138 1 107 0 2 38
140 1 106 0 3 40
142 1 106 0 2 39
144 1 104 0 4 47
146 1 107 0 1 38
148 1 103 0 5 46
150 1 107 0 1 52
152 2 103 2 4 47
154 3 105 1 2 48
156 2 106 1 2 48
158 3 106 0 2 43
160 2 109 0 0 45
162 3 106 0 2 47
164 2 105 0 4 44
166 3 107 0 1 47
168 1 108 0 2 49
170 1 109 0 1 55
172 1 109 0 1 50
174 1 108 0 2 45
176 1 104 0 6 49
178 1 109 0 2 49
180 0 111 0 1 47
182 0 111 0 0 47
184 0 107 0 4 44
186 0 108 0 3 45
188 0 107 0 4 53
190 0 108 0 3 49
192 0 107 1 4 38
194 1 107 0 4 49
196 1 110 0 2 52
198 1 105 0 6 46
200 0 106 0 6 44
202 0 108 0 4 51
204 0 109 0 3 44
206 0 111 0 1 51
208 0 109 0 2 43
210 0 109 0 2 51
