0 1558 0 0 0 0 416
2 1533 8 0 20 0 416
4.00004 1526 14 0 18 0 416
6 1542 5 0 17 0 416
8 1536 8 0 22 0 416
10 1533 9 0 13 0 416
12 1537 10 0 16 0 416
14 1539 8 0 19 0 416
16 1524 14 0 19 0 416
18 1526 6 0 19 0 416
20 1534 6 0 15 0 416
22 1516 7 0 20 0 416
24 1517 8 0 20 0 416
26 1521 8 0 14 0 416
28 1506 13 0 14 0 416
30 1530 6 0 11 0 416
32 1526 5 0 18 0 416
34 1509 10 0 18 0 416
36 1509 5 0 22 0 416
38 1520 7 0 18 0 416
40 1511 5 0 26 0 416
42 1510 20 0 8 0 416
44 1522 6 0 15 0 416
46 1514 14 0 12 0 416
48 1521 9 0 22 0 416
50 1513 10 0 22 0 416
52 1323 1 201 23 0 416
54 1175 0 337 22 3 416
56 1054 0 453 22 1 416
58 977 1 527 7 6 416
60 880 0 628 15 2 416
62 794 1 695 12 7 416
64 748 0 758 8 5 416
66 691 0 825 13 12 416
68 625 0 895 13 7 416
70 569 0 960 10 8 416
72 524 0 1009 8 8 416
74 471 0 1052 8 4 416
76 422 0 1087 13 12 416
78 398 0 1112 7 14 416
80 362 1 1157 6 7 416
82 333 0 1171 6 13 416
84 312 1 1187 7 12 416
86 286 0 1215 5 12 416
88 265 0 1250 7 7 416
90 259 0 1254 2 15 416
92 235 0 1276 5 9 416
94 217 0 1298 4 11 416
96 197 0 1311 4 14 416
98 182 1 1326 2 18 416
100 173 0 1334 4 16 416
102 161 0 1339 7 12 416
104 159 0 1343 3 18 416
106 140 0 1373 4 14 416
108 134 0 1378 2 22 416
110 127 0 1388 2 17 416
112 108 0 1397 2 16 416
114 110 0 1396 1 27 416
116 104 0 1411 3 19 416
118 91 0 1436 2 11 416
120 89 0 1427 2 27 416
122 78 0 1444 2 18 416
124 77 0 1441 0 14 416
126 68 0 1435 2 21 416
128 56 0 1458 1 17 416
130 54 0 1460 1 17 416
132 59 0 1465 0 14 416
134 58 0 1481 2 17 416
136 62 0 1480 0 18 416
138 56 0 1485 2 14 416
140 48 0 1490 2 16 416
142 46 0 1481 1 16 416
144 43 0 1482 0 17 416
146 39 0 1487 1 11 416
148 39 0 1487 0 11 416
150 35 0 1478 0 20 416
152 30 0 1501 0 11 416
154 27 0 1498 0 17 416
156 24 0 1511 1 17 416
158 24 0 1494 0 26 416
160 22 0 1515 0 16 416
162 20 0 1506 0 17 416
164 18 0 1512 1 21 416
166 19 0 1504 1 16 416
168 20 0 1514 0 20 416
170 18 0 1500 0 10 416
172 17 0 1497 1 11 416
174 17 0 1484 0 20 416
176 17 0 1498 0 22 416
178 14 0 1508 0 12 416
180 16 0 1508 0 17 416
182 12 0 1493 0 18 416
184 9 0 1504 1 15 416
186 9 0 1504 0 20 416
188 10 0 1505 0 17 416
190 9 0 1501 0 21 416
192 10 0 1496 0 22 416
194 9 0 1500 0 22 416
196 8 0 1517 0 17 416
198 8 0 1510 0 16 416
200 8 0 1532 0 9 416
