0 489 0 0 0 0 385
2 480 0 0 19 0 385
4.00004 481 0 0 17 0 385
6 477 0 0 19 0 385
8 468 0 0 22 0 385
10 485 0 0 17 0 385
12 475 0 0 25 0 385
14 483 0 0 12 0 385
16 511 0 0 14 0 385
18 502 0 0 26 0 385
20 491 0 0 22 0 385
22 492 0 0 21 0 385
24 482 0 0 15 0 385
26 471 0 0 16 0 385
28 469 0 0 19 0 385
30 461 0 0 26 0 385
32 460 0 0 21 0 385
34 462 0 0 23 0 385
36 458 0 0 12 0 385
38 445 0 0 18 0 385
40 451 0 0 19 0 385
42 450 0 0 19 0 385
44 454 0 0 19 0 385
46 461 0 0 13 0 385
48 453 0 0 13 0 385
50 451 0 0 15 0 385
52 442 0 0 21 1 385
54 450 0 5 16 0 385
56 440 0 12 18 0 385
58 435 0 17 19 1 385
60 437 0 20 10 2 385
62 416 0 33 18 4 385
64 389 0 43 15 4 385
66 375 0 63 7 4 385
68 363 0 72 10 10 385
70 336 0 88 15 4 385
72 335 0 107 10 3 385
74 329 0 124 13 9 385
76 313 0 141 11 11 385
78 305 0 166 14 4 385
80 280 0 182 13 9 385
82 261 0 194 6 13 385
84 251 0 212 6 9 385
86 227 0 226 5 11 385
88 214 0 241 9 16 385
90 211 0 242 5 15 385
92 201 0 247 8 11 385
94 189 0 253 3 12 385
96 176 0 260 10 15 385
98 170 0 270 5 13 385
100 159 0 267 6 14 385
102 153 0 288 3 5 385
104 141 0 288 4 11 385
106 135 0 299 6 17 385
108 128 0 297 4 13 385
110 121 0 302 2 15 385
112 118 0 311 3 16 385
114 110 0 327 1 16 385
116 101 0 331 8 18 385
118 93 0 343 5 13 385
120 84 0 341 6 17 385
122 85 0 353 2 15 385
124 80 0 347 3 22 385
126 72 0 353 3 17 385
128 66 0 353 2 17 385
130 65 0 355 1 19 385
132 60 0 349 1 18 385
134 58 0 359 0 12 385
136 56 0 360 2 19 385
138 54 0 371 0 18 385
140 49 0 368 3 18 385
142 45 0 367 1 14 385
144 44 0 372 2 14 385
146 37 0 386 0 12 385
148 34 0 389 1 13 385
150 33 0 387 0 14 385
152 33 0 397 1 11 385
154 37 0 417 0 14 385
156 35 0 425 1 13 385
158 32 0 437 2 18 385
160 32 0 452 1 20 385
162 33 0 444 0 20 385
164 30 0 442 1 21 385
166 28 0 457 0 12 385
168 28 0 425 0 22 385
170 22 0 430 1 11 385
172 17 0 427 2 19 385
174 19 0 435 0 12 385
176 18 0 449 1 20 385
178 15 0 448 2 21 385
180 15 0 449 2 19 385
182 16 0 442 1 16 385
184 16 0 443 1 21 385
186 15 0 447 2 20 385
188 11 0 449 1 16 385
190 10 0 444 1 14 385
192 10 0 449 0 14 385
194 9 0 427 0 21 385
196 9 0 428 0 16 385
198 8 0 420 1 19 385
200 8 0 411 0 18 385
