0 1437 0 0 0 0 374
2 1409 8 0 31 0 374
4.00004 1424 13 0 20 0 374
6 1442 11 0 16 0 374
8 1441 10 0 30 0 374
10 1422 14 0 23 0 374
12 1442 8 0 28 0 374
14 1449 11 0 26 0 374
16 1468 5 0 7 0 374
18 1458 7 0 14 0 374
20 1450 9 0 19 0 374
22 1455 7 0 27 0 374
24 1456 5 0 26 0 374
26 1476 14 0 18 0 374
28 1463 11 0 27 0 374
30 1489 3 0 23 0 374
32 1487 9 0 21 0 374
34 1481 7 0 24 0 374
36 1491 11 0 14 0 374
38 1486 10 0 20 0 374
40 1485 7 0 24 0 374
42 1483 8 0 21 0 374
44 1477 9 0 21 0 374
46 1471 11 0 26 0 374
48 1480 9 0 21 0 374
50 1474 9 0 20 0 374
52 1254 0 240 20 2 374
54 1087 0 400 12 2 374
56 969 1 515 16 5 374
58 873 0 615 10 4 374
60 786 0 708 11 6 374
62 706 1 779 12 11 374
64 635 0 840 15 13 374
66 567 0 909 12 11 374
68 513 1 956 6 9 374
70 474 0 992 12 16 374
72 426 0 1048 13 12 374
74 371 0 1088 12 15 374
76 345 0 1126 9 10 374
78 323 1 1143 9 16 374
80 299 0 1173 10 8 374
82 278 0 1210 3 15 374
84 267 1 1210 4 15 374
86 255 0 1222 6 11 374
88 229 0 1229 4 24 374
90 213 1 1250 10 15 374
92 203 0 1247 6 14 374
94 190 0 1268 6 10 374
96 190 0 1284 2 20 374
98 175 0 1297 3 18 374
100 164 1 1306 1 14 374
102 147 0 1342 6 17 374
104 125 0 1371 4 18 374
106 121 0 1387 1 21 374
108 109 0 1383 3 22 374
110 110 0 1383 1 20 374
112 95 0 1400 3 14 374
114 89 0 1404 0 18 374
116 84 1 1390 2 32 374
118 80 0 1389 3 15 374
120 72 0 1383 0 25 374
122 68 0 1392 1 17 374
124 60 0 1395 1 20 374
126 56 0 1417 1 18 374
128 49 0 1417 2 23 374
130 53 0 1420 3 20 374
132 51 0 1423 1 22 374
134 49 0 1426 0 22 374
136 48 0 1436 1 22 374
138 46 0 1437 0 13 374
140 44 0 1434 0 17 374
142 36 0 1416 0 17 374
144 32 0 1437 0 27 374
146 32 0 1450 0 18 374
148 29 0 1453 1 26 374
150 27 0 1451 0 28 374
152 27 0 1474 0 18 374
154 22 0 1472 1 22 374
156 18 0 1486 1 19 374
158 15 0 1490 0 21 374
160 12 0 1490 2 15 374
162 11 0 1482 0 19 374
164 11 0 1477 0 22 374
166 11 0 1463 0 33 374
168 13 0 1462 0 19 374
170 14 0 1456 2 30 374
172 14 0 1482 0 12 374
174 10 0 1478 0 15 374
176 12 0 1462 0 17 374
178 9 0 1449 1 20 374
180 12 0 1465 0 19 374
182 10 0 1479 2 20 374
184 10 0 1465 0 19 374
186 7 0 1461 1 22 374
188 5 0 1465 0 23 374
190 7 0 1483 0 20 374
192 6 0 1473 2 28 374
194 6 0 1461 0 24 374
196 4 0 1460 1 23 374
198 5 0 1458 0 24 374
200 4 0 1457 0 18 374
