0 358 0 0 0 0 381
2 329 0 0 23 0 381
4.00004 300 0 0 24 0 381
6 282 0 0 18 0 381
8 277 0 0 28 0 381
10 252 0 0 33 0 381
12 246 0 0 25 0 381
14 242 0 0 29 0 381
16 245 0 0 26 0 381
18 245 0 0 25 0 381
20 249 0 0 23 0 381
22 231 0 0 27 0 381
24 221 0 0 21 0 381
26 226 0 0 23 0 381
28 228 0 0 17 0 381
30 227 0 0 24 0 381
32 223 0 0 23 0 381
34 223 0 0 24 0 381
36 223 0 0 14 0 381
38 219 0 0 16 0 381
40 220 0 0 23 0 381
42 214 0 0 24 0 381
44 203 0 0 29 0 381
46 206 0 0 21 0 381
48 208 0 0 26 0 381
50 221 0 0 12 0 381
52 211 0 0 25 1 381
54 214 0 6 22 1 381
56 209 0 19 13 1 381
58 198 0 22 22 2 381
60 192 0 34 13 11 381
62 170 0 53 16 4 381
64 165 0 55 16 9 381
66 159 0 75 19 5 381
68 156 0 78 10 9 381
70 149 0 85 7 14 381
72 131 0 110 4 12 381
74 118 0 110 15 7 381
76 122 0 118 11 8 381
78 107 0 118 8 12 381
80 105 0 132 9 17 381
82 104 0 125 4 15 381
84 91 0 147 5 16 381
86 86 0 158 8 19 381
88 75 0 159 8 15 381
90 73 0 164 2 11 381
92 56 0 171 7 14 381
94 53 0 185 3 14 381
96 47 0 185 5 31 381
98 41 0 184 4 14 381
100 39 0 182 3 11 381
102 39 0 188 4 14 381
104 30 0 177 3 19 381
106 36 0 186 1 14 381
108 31 0 192 2 18 381
110 30 0 187 4 16 381
112 29 0 187 1 17 381
114 29 0 196 2 23 381
116 21 0 192 3 19 381
118 17 0 211 2 14 381
120 16 0 218 1 15 381
122 17 0 227 2 23 381
124 13 0 227 3 23 381
126 14 0 215 1 22 381
128 9 0 209 2 26 381
130 10 0 214 0 21 381
132 12 0 219 0 13 381
134 8 0 220 2 14 381
136 11 0 216 0 18 381
138 7 0 214 0 20 381
140 7 0 222 0 21 381
142 3 0 230 2 26 381
144 4 0 230 0 16 381
146 5 0 229 1 17 381
148 7 0 220 0 23 381
150 6 0 217 0 21 381
152 4 0 222 0 18 381
154 3 0 228 0 22 381
156 5 0 213 1 22 381
158 6 0 217 0 22 381
160 6 0 208 1 27 381
162 5 0 220 1 20 381
164 6 0 216 0 22 381
166 6 0 211 0 30 381
168 6 0 221 0 21 381
170 6 0 231 0 12 381
172 4 0 219 0 23 381
174 4 0 219 0 17 381
176 4 0 215 0 25 381
178 4 0 211 0 18 381
180 4 0 205 0 15 381
182 3 0 206 1 18 381
184 1 0 217 0 23 381
186 1 0 220 0 24 381
188 1 0 232 0 18 381
190 1 0 227 0 21 381
192 1 0 226 0 21 381
194 1 0 232 0 22 381
196 1 0 226 0 25 381
198 0 0 225 1 30 381
200 0 0 224 0 25 381
