0 112 0 0 0
2 112 0 0 0
4.00004 112 0 0 0
6 111 0 0 0
8 111 0 0 0
10 110 0 1 0
12 101 10 0 0
14 92 20 0 0
16 83 28 0 0
18 80 31 0 0
20 73 37 0 0
22 65 45 0 0
24 60 50 0 0
26 55 54 1 0
28 52 58 0 0
30 51 59 0 0
32 47 63 0 0
34 42 68 0 0
36 39 71 0 0
38 35 75 0 0
40 32 78 0 0
42 30 80 0 0
44 30 80 1 0
46 28 82 0 0
48 25 85 0 0
50 22 88 0 0
52 20 90 0 0
54 19 92 0 0
56 17 94 0 0
58 15 94 0 0
60 14 95 0 0
62 11 97 0 0
64 10 97 0 0
66 9 99 0 0
68 8 99 0 1
70 8 99 0 0
72 6 101 0 0
74 6 101 0 0
76 4 103 0 0
78 4 103 0 0
80 5 103 0 0
82 5 104 0 0
84 5 104 0 0
86 5 104 0 0
88 4 105 0 0
90 3 106 0 0
92 3 105 0 1
94 3 105 0 0
96 3 105 0 0
98 3 105 0 0
100 3 105 0 0
102 3 105 0 0
104 4 105 0 0
106 3 106 0 0
108 3 105 0 0
110 3 105 0 0
112 3 105 0 0
114 3 104 0 1
116 3 104 0 0
118 4 104 0 0
120 4 104 0 0
122 4 102 0 2
124 3 105 0 0
126 3 105 0 0
128 4 105 0 0
130 3 106 0 0
132 3 105 0 0
134 2 106 0 0
136 1 107 0 0
138 3 106 0 0
140 3 107 0 0
142 3 108 0 0
144 3 108 0 0
146 3 108 0 0
148 3 108 0 0
150 3 108 0 0
152 3 108 0 0
154 3 108 1 0
156 3 109 0 0
158 3 109 0 0
160 2 109 0 0
162 2 109 0 0
164 2 109 0 0
166 2 108 0 0
168 2 108 0 0
170 2 108 0 0
172 2 108 0 0
174 3 109 0 0
176 3 109 0 0
178 3 109 0 0
180 3 109 0 0
182 2 110 0 0
184 1 111 0 0
186 1 111 0 0
188 0 112 0 0
190 0 112 0 0
192 0 112 0 0
194 1 112 0 0
196 1 112 0 0
198 1 112 0 0
200 0 113 0 0
202 0 113 0 0
204 0 113 0 0
206 0 113 0 0
208 0 113 0 0
210 0 112 0 0
