0 103 0 0 0
2 103 0 0 0
4.00004 104 0 0 0
6 104 0 0 0
8 104 0 0 0
10 105 0 0 0
12 87 18 0 0
14 79 24 1 0
16 70 34 1 0
18 64 40 0 0
20 58 46 0 0
22 56 48 0 0
24 54 50 0 0
26 44 60 0 0
28 36 67 0 0
30 32 70 0 1
32 31 71 0 0
34 28 74 0 0
36 26 75 1 0
38 26 75 0 0
40 25 76 0 0
42 20 80 1 0
44 19 82 0 0
46 18 83 1 0
48 16 86 0 0
50 15 87 0 0
52 14 88 0 0
54 12 87 0 1
56 9 91 0 0
58 9 91 0 0
60 8 92 0 0
62 9 92 0 0
64 8 93 0 0
66 8 94 1 0
68 8 94 0 0
70 8 94 0 0
72 8 94 0 0
74 7 95 0 0
76 6 96 0 0
78 5 97 0 0
80 3 99 0 0
82 3 99 0 0
84 3 99 0 0
86 3 99 0 0
88 2 100 0 0
90 2 100 0 0
92 2 100 0 0
94 2 100 0 0
96 2 100 0 0
98 3 100 0 0
100 3 100 0 0
102 3 100 0 0
104 3 101 0 0
106 3 100 0 0
108 3 99 0 0
110 3 99 0 0
112 2 100 0 0
114 2 100 0 0
116 2 100 0 0
118 2 100 0 0
120 2 100 0 0
122 2 100 0 0
124 2 100 0 0
126 3 100 0 0
128 2 100 0 0
130 3 100 0 0
132 3 100 0 0
134 3 100 0 0
136 3 100 0 0
138 3 99 0 1
140 3 100 0 0
142 3 100 0 0
144 3 100 0 0
146 3 99 0 1
148 3 100 0 0
150 3 100 0 0
152 3 100 0 0
154 3 100 0 0
156 3 100 0 0
158 2 100 0 0
160 2 99 0 0
162 2 99 0 0
164 2 99 0 0
166 2 98 0 0
168 2 98 1 0
170 3 98 0 0
172 3 98 0 0
174 3 98 0 0
176 3 98 0 0
178 3 98 0 0
180 2 99 0 0
182 2 98 0 0
184 2 98 0 0
186 2 98 0 0
188 2 98 0 0
190 2 99 0 0
192 2 99 0 0
194 3 99 0 0
196 3 99 0 0
198 4 99 0 0
200 4 99 0 0
202 5 99 0 0
204 5 98 0 0
206 5 98 0 0
208 5 98 0 0
210 5 98 0 0
