0 124 0 0 0
2 125 0 0 0
4.00004 126 0 0 0
6 125 0 0 0
8 125 0 0 0
10 125 0 0 0
12 115 11 0 0
14 104 22 0 0
16 94 32 0 0
18 90 36 0 0
20 83 43 0 0
22 72 54 0 1
24 67 59 0 0
26 62 64 0 0
28 56 69 0 1
30 55 72 0 0
32 51 76 0 0
34 46 81 0 0
36 43 84 0 0
38 38 89 0 0
40 35 92 0 0
42 33 94 0 0
44 34 94 0 0
46 28 100 0 0
48 26 102 0 0
50 24 104 0 0
52 22 106 0 0
54 21 107 0 0
56 21 107 0 0
58 18 110 0 0
60 15 113 0 0
62 14 113 0 0
64 13 114 0 0
66 11 116 0 0
68 10 117 0 0
70 9 118 0 0
72 7 120 0 0
74 5 122 0 0
76 6 122 0 0
78 6 121 0 0
80 6 121 0 0
82 5 122 0 0
84 4 122 0 0
86 4 122 0 0
88 4 121 0 0
90 3 122 0 0
92 4 122 0 0
94 3 123 0 0
96 2 124 0 0
98 2 124 0 0
100 2 123 0 1
102 2 124 0 0
104 2 124 0 0
106 3 124 0 0
108 3 124 0 0
110 3 124 0 0
112 3 124 0 0
114 3 124 0 0
116 3 123 0 1
118 3 124 0 0
120 3 124 0 0
122 2 125 0 0
124 2 125 0 0
126 2 125 0 0
128 2 125 0 0
130 2 125 0 0
132 2 125 0 0
134 2 125 0 0
136 2 125 0 0
138 2 124 0 1
140 2 124 0 0
142 1 125 0 0
144 1 125 0 0
146 1 125 0 0
148 2 125 0 0
150 1 124 0 0
152 1 123 0 0
154 1 123 0 0
156 1 123 0 0
158 1 123 1 0
160 2 123 0 0
162 2 123 0 0
164 2 123 0 0
166 2 123 0 0
168 2 123 0 0
170 2 123 1 0
172 2 123 0 0
174 3 123 0 0
176 2 125 0 0
178 1 126 0 0
180 1 126 0 0
182 1 126 0 0
184 1 126 0 0
186 1 126 0 0
188 1 126 0 0
190 1 126 0 0
192 1 126 0 0
194 1 126 0 0
196 1 126 0 0
198 1 126 0 0
200 1 126 0 0
202 1 126 0 0
204 1 126 0 0
206 1 125 0 0
208 1 125 0 0
210 1 124 0 1
