0 904 0 0 0 0 0
2 861 17 0 23 0 2
4.00004 860 8 0 35 0 1
6 862 2 0 29 0 5
8 855 5 0 35 0 8
10 857 0 0 35 0 8
12 847 2 0 44 0 11
14 852 0 0 46 0 11
16 856 0 0 44 0 8
18 845 0 0 52 0 10
20 844 0 0 54 0 11
22 834 1 0 67 0 9
24 844 0 0 55 0 12
26 838 0 0 59 0 14
28 840 0 0 58 0 10
30 827 0 0 70 0 9
32 838 0 0 50 0 14
34 833 0 0 52 0 9
36 830 0 0 55 0 8
38 838 0 0 54 0 7
40 841 0 0 45 0 8
42 840 0 0 39 0 13
44 843 0 0 49 0 8
46 837 0 0 41 0 9
48 839 0 0 43 0 12
50 833 0 0 50 0 11
52 831 0 5 25 29 0
54 820 0 12 16 38 0
56 803 0 19 24 35 0
58 803 0 25 16 39 0
60 795 0 28 16 42 0
62 792 0 36 14 37 0
64 785 0 50 14 32 0
66 770 0 60 22 34 0
68 765 0 66 16 39 0
70 753 0 71 19 44 0
72 751 0 77 8 45 0
74 742 0 86 13 42 0
76 733 0 92 13 52 0
78 725 0 99 11 50 0
80 718 0 107 17 44 0
82 709 0 111 14 51 0
84 696 0 121 16 50 0
86 695 0 134 12 43 0
88 682 0 143 15 41 0
90 677 0 148 17 40 0
92 668 0 155 13 50 1
94 662 0 164 11 43 0
96 658 0 166 13 45 0
98 651 0 174 16 41 0
100 646 0 178 16 41 0
102 636 0 183 18 47 0
104 632 0 190 11 49 0
106 627 0 199 8 51 0
108 623 0 205 8 42 0
110 618 0 212 10 41 0
112 611 0 214 13 47 0
114 607 0 222 14 38 0
116 606 0 231 8 34 0
118 598 0 236 14 41 0
120 592 0 232 11 50 0
122 588 0 241 12 43 0
124 582 0 245 8 50 0
126 580 0 256 10 44 0
128 575 0 258 12 45 1
130 566 0 267 17 48 0
132 566 0 271 10 52 0
134 568 0 281 6 49 0
136 557 0 280 17 55 0
138 551 0 288 14 54 0
140 554 0 292 8 54 0
142 544 0 296 14 51 0
144 541 0 298 12 58 0
146 532 0 304 18 51 0
148 529 0 311 18 47 0
150 522 0 310 13 69 1
152 517 0 320 14 56 0
154 516 0 326 10 53 0
156 505 0 329 15 55 0
158 502 0 331 13 55 0
160 499 0 336 7 59 0
162 488 0 340 13 62 0
164 482 0 345 11 60 0
166 478 0 354 10 58 0
168 472 0 358 9 59 0
170 467 0 365 11 60 0
172 461 0 368 14 62 0
174 467 0 370 4 63 0
176 458 0 375 11 58 0
178 454 0 381 11 52 0
180 450 0 391 11 51 0
182 447 0 390 11 59 0
184 446 0 401 3 55 0
186 440 0 403 7 50 0
188 433 0 410 11 49 0
190 430 0 417 8 50 0
192 420 0 422 15 43 0
194 411 0 426 11 60 0
196 412 0 433 6 54 0
198 403 0 436 13 53 0
200 401 0 440 8 62 0
