0 798 0 0 0 0 0
2 761 6 0 17 0 9
4.00004 762 6 0 35 0 4
6 761 2 0 36 0 10
8 749 1 0 38 0 17
10 744 0 0 49 0 13
12 747 0 0 37 0 16
14 742 0 0 46 0 17
16 738 0 0 40 0 18
18 740 0 0 52 0 12
20 745 0 0 40 0 24
22 752 0 0 35 0 15
24 741 0 0 42 0 19
26 738 0 0 51 0 15
28 737 0 0 45 0 18
30 738 0 0 47 0 15
32 726 0 0 53 0 15
34 731 0 0 44 0 21
36 746 0 0 32 0 19
38 749 0 0 35 0 7
40 756 0 0 23 0 12
42 749 0 0 38 0 10
44 742 0 0 46 0 11
46 737 0 0 52 0 11
48 735 0 0 47 0 13
50 740 0 0 44 0 11
52 736 0 13 18 25 0
54 717 0 22 25 37 1
56 705 0 38 13 51 0
58 687 0 56 19 43 0
60 670 0 69 16 45 0
62 658 0 81 16 38 0
64 648 0 99 14 42 0
66 624 0 111 17 48 0
68 614 0 132 11 41 0
70 603 0 150 10 38 0
72 590 0 164 13 42 1
74 586 0 176 10 35 0
76 572 0 194 11 32 0
78 553 0 202 15 42 0
80 535 0 226 17 39 0
82 527 0 241 9 45 0
84 522 0 246 7 44 0
86 512 0 259 12 37 0
88 501 0 266 11 39 0
90 493 0 274 12 40 0
92 486 0 285 8 39 0
94 476 0 291 13 37 0
96 467 0 300 6 43 0
98 457 0 307 12 37 0
100 449 0 316 8 43 0
102 444 0 332 9 37 0
104 428 0 335 12 44 0
106 427 0 345 6 32 0
108 418 0 355 12 28 0
110 416 0 356 8 25 0
112 411 0 357 5 40 0
114 407 0 371 5 36 0
116 389 0 378 11 42 0
118 384 0 390 8 38 0
120 377 0 390 7 44 0
122 366 0 390 12 55 1
124 356 0 407 11 56 0
126 355 0 411 7 46 0
128 349 0 418 5 45 1
130 342 0 421 2 54 0
132 326 0 436 11 40 0
134 323 0 451 10 33 0
136 316 0 445 8 47 0
138 308 0 450 8 57 0
140 300 0 453 8 55 0
142 302 0 471 3 44 0
144 292 0 480 9 41 0
146 289 0 480 2 52 0
148 282 0 494 4 37 0
150 281 0 496 3 50 1
152 272 0 500 8 55 0
154 269 0 512 6 40 0
156 262 0 514 7 54 0
158 259 0 515 6 56 0
160 254 0 519 8 50 0
162 246 0 531 8 48 0
164 245 0 541 4 39 0
166 242 0 534 2 53 0
168 231 0 536 5 57 0
170 228 0 543 7 50 0
172 227 0 554 4 45 0
174 220 0 556 4 55 0
176 219 0 561 3 48 0
178 217 0 566 5 46 0
180 214 0 568 6 49 0
182 208 0 573 7 58 0
184 201 0 570 7 64 0
186 201 0 577 4 55 0
188 199 0 591 5 41 0
190 197 0 587 3 44 0
192 191 0 593 8 50 0
194 192 0 603 3 46 0
196 189 0 601 4 51 0
198 186 0 598 6 53 0
200 183 0 606 3 57 0
