0 777 0 0 0 0 0
2 719 9 0 31 0 11
4.00004 713 1 0 40 0 17
6 724 0 0 29 0 16
8 705 0 0 47 0 15
10 710 0 0 37 0 20
12 699 0 0 48 0 14
14 698 0 0 40 0 23
16 692 0 0 43 0 22
18 697 0 0 45 0 16
20 699 0 0 35 0 20
22 695 0 0 43 0 26
24 697 0 0 45 0 13
26 691 0 0 40 0 22
28 701 0 0 27 0 21
30 698 0 0 45 0 12
32 694 0 0 34 0 18
34 698 0 0 36 0 13
36 686 0 0 47 0 18
38 700 0 0 35 0 12
40 699 0 0 34 0 15
42 687 0 0 43 0 18
44 681 0 0 49 0 15
46 684 0 0 35 0 19
48 682 0 0 39 0 18
50 685 0 0 36 0 20
52 649 0 21 21 48 0
54 634 0 39 10 57 0
56 612 0 58 13 45 0
58 591 0 86 15 48 0
60 573 0 104 16 45 0
62 556 0 124 15 46 0
64 540 0 142 7 50 0
66 516 0 154 9 59 0
68 507 0 169 9 43 0
70 498 0 181 8 40 0
72 477 0 193 17 36 0
74 464 0 202 10 55 0
76 450 0 225 10 45 0
78 427 0 245 14 46 0
80 416 0 260 11 40 0
82 406 0 261 10 44 0
84 391 0 274 10 48 0
86 384 0 290 3 49 0
88 363 0 301 13 47 0
90 353 0 312 9 46 0
92 341 0 312 7 57 0
94 338 0 333 7 43 0
96 325 0 338 10 54 0
98 319 0 346 6 52 0
100 307 0 354 7 60 0
102 300 0 363 5 60 0
104 295 0 374 3 51 0
106 287 0 376 8 54 0
108 277 0 384 6 47 0
110 257 0 392 13 44 0
112 255 0 398 3 53 0
114 242 0 404 9 45 0
116 238 0 419 4 35 0
118 230 0 422 7 45 0
120 219 0 430 6 34 0
122 211 0 436 7 43 1
124 209 0 440 5 43 0
126 195 0 452 8 46 0
128 193 0 452 6 48 0
130 189 0 451 7 60 0
132 185 0 461 4 52 0
134 180 0 469 4 48 0
136 164 0 479 10 44 0
138 164 0 487 3 44 0
140 152 0 490 2 58 0
142 141 0 492 5 58 0
144 137 0 497 4 60 0
146 131 0 505 1 66 0
148 126 0 518 1 50 0
150 118 0 514 5 55 0
152 116 0 510 2 69 0
154 110 0 521 8 44 0
156 107 0 517 6 53 0
158 103 0 509 3 49 0
160 98 0 510 3 56 0
162 98 0 522 0 42 0
164 94 0 514 3 60 0
166 96 0 522 3 47 0
168 87 0 518 6 53 0
170 87 0 518 5 57 0
172 83 0 521 3 58 0
174 80 0 529 2 50 0
176 76 0 529 3 49 0
178 73 0 535 4 44 0
180 74 0 524 1 57 0
182 71 0 524 2 51 0
184 66 0 523 3 68 0
186 62 0 525 2 63 0
188 60 0 527 2 59 0
190 57 0 538 2 56 0
192 58 0 533 0 66 0
194 56 0 544 1 48 0
196 54 0 553 2 43 0
198 54 0 553 0 41 0
200 50 0 551 2 47 0
