0 1113 0 0 0 0 0
2 1096 0 0 24 0 0
4.00004 1082 0 0 27 0 0
6 1081 0 0 32 0 0
8 1082 0 0 34 0 0
10 1078 0 0 39 0 0
12 1079 0 0 36 0 0
14 1071 0 0 45 0 0
16 1084 0 0 34 0 0
18 1081 0 0 31 0 0
20 1081 0 0 32 0 0
22 1082 0 0 35 0 0
24 1078 0 0 31 0 0
26 1073 0 0 37 0 0
28 1075 0 0 41 0 0
30 1080 0 0 35 0 0
32 1080 0 0 36 0 0
34 1080 0 0 40 0 0
36 1098 0 0 27 0 0
38 1086 0 0 38 0 0
40 1086 0 0 33 0 0
42 1084 0 0 32 0 0
44 1077 0 0 41 0 0
46 1082 0 0 36 0 0
48 1086 0 0 35 0 0
50 1084 0 0 30 0 0
52 1079 0 2 19 14 0
54 1073 0 10 19 12 0
56 1062 0 16 24 17 0
58 1056 0 23 25 19 0
60 1057 0 33 17 15 0
62 1046 0 39 19 18 0
64 1046 0 45 15 13 0
66 1037 0 49 18 12 0
68 1020 0 58 22 13 0
70 1010 0 60 21 18 0
72 1011 0 68 16 20 0
74 996 0 79 21 13 0
76 985 0 83 23 26 0
78 971 0 94 29 25 0
80 968 0 106 20 22 0
82 968 0 118 15 17 0
84 953 0 125 27 16 0
86 951 0 130 21 13 0
88 947 0 134 17 18 0
90 936 0 137 23 20 0
92 932 0 141 17 18 0
94 918 0 145 23 16 0
96 918 0 151 18 13 0
98 907 0 150 14 18 0
100 890 0 154 22 31 0
102 892 0 166 15 24 0
104 881 0 171 22 19 0
106 881 0 178 18 11 0
108 877 0 176 19 22 0
110 873 0 186 18 13 0
112 866 0 190 19 17 0
114 854 0 193 23 16 0
116 851 0 198 21 23 0
118 844 0 203 21 20 0
120 838 0 207 20 18 0
122 838 0 213 15 15 0
124 830 0 217 17 15 0
126 820 0 220 22 22 0
128 823 0 224 16 23 0
130 813 0 231 18 30 0
132 807 0 237 17 32 0
134 808 0 246 8 20 0
136 799 0 254 14 19 0
138 792 0 263 18 12 0
140 792 0 267 14 15 0
142 779 0 270 24 13 0
144 785 0 269 11 21 0
146 775 0 271 15 28 0
148 767 0 286 16 20 0
150 763 0 292 17 18 0
152 761 0 297 13 12 0
154 755 0 298 14 14 0
156 747 0 299 17 19 0
158 747 0 307 9 17 0
160 740 0 312 12 17 0
162 732 0 316 15 18 0
164 730 0 320 11 19 0
166 724 0 323 12 26 0
168 724 0 326 8 25 0
170 709 0 331 17 21 0
172 708 0 341 15 19 0
174 709 0 349 10 17 0
176 700 0 355 13 15 0
178 697 0 350 15 20 0
180 694 0 352 15 21 0
182 690 0 350 11 21 0
184 684 0 353 13 33 0
186 680 0 360 14 23 0
188 685 0 368 8 17 0
190 678 0 375 13 18 0
192 665 0 380 19 24 0
194 662 0 388 18 22 0
196 662 0 394 13 19 0
198 659 0 393 12 26 0
200 652 0 398 15 22 0
