0 774 0 0 0 0 0
2 730 11 0 26 0 6
4.00004 728 6 0 25 0 8
6 725 1 0 34 0 8
8 736 1 0 29 0 5
10 728 0 0 36 0 9
12 726 0 0 35 0 9
14 722 0 0 40 0 12
16 722 1 0 42 0 11
18 731 0 0 34 0 7
20 733 0 0 39 0 8
22 726 0 0 47 0 7
24 723 0 0 46 0 9
26 730 0 0 36 0 6
28 728 0 0 34 0 12
30 729 0 0 34 0 13
32 733 0 0 37 0 13
34 722 0 0 44 0 14
36 720 0 0 33 0 22
38 714 0 0 39 0 22
40 716 0 0 53 0 7
42 724 0 0 26 0 18
44 726 0 0 34 0 11
46 722 0 0 37 0 14
48 720 0 0 47 0 8
50 720 0 0 42 0 12
52 716 0 3 15 48 0
54 706 0 16 13 40 0
56 703 0 23 15 36 0
58 689 0 33 13 36 0
60 676 0 43 18 36 0
62 672 0 53 13 35 0
64 662 0 58 13 35 0
66 652 0 64 16 39 0
68 647 0 68 11 47 0
70 637 0 84 10 38 0
72 628 0 95 10 33 0
74 621 0 103 10 42 0
76 602 0 105 14 51 1
78 595 0 116 11 50 0
80 589 0 129 11 35 0
82 579 0 137 10 37 0
84 571 0 146 8 34 0
86 561 0 148 9 42 0
88 547 0 165 14 34 0
90 539 0 167 12 42 0
92 529 0 170 10 54 0
94 520 0 180 10 45 0
96 514 0 186 11 45 0
98 501 0 201 13 44 0
100 494 0 210 10 44 0
102 478 0 221 10 49 0
104 473 0 226 10 53 0
106 468 0 233 10 51 0
108 463 0 246 8 37 0
110 458 0 245 12 37 0
112 448 0 252 12 44 0
114 449 0 256 8 47 0
116 449 0 264 5 46 0
118 435 0 275 8 43 0
120 430 0 278 9 48 0
122 422 0 284 12 49 0
124 419 0 296 7 43 0
126 415 0 302 7 44 0
128 409 0 303 6 44 0
130 400 0 313 10 38 0
132 393 0 324 11 34 0
134 388 0 327 7 43 0
136 384 0 324 9 47 0
138 381 0 333 7 40 0
140 375 0 343 8 34 0
142 367 0 336 11 51 0
144 359 0 346 9 48 0
146 362 0 356 4 36 0
148 356 0 358 5 44 0
150 352 0 365 6 46 0
152 351 0 364 4 48 0
154 347 0 374 5 41 0
156 338 0 387 6 38 0
158 331 0 382 7 46 0
160 331 0 380 4 46 0
162 319 0 385 11 49 0
164 321 0 393 4 37 0
166 313 0 388 10 45 0
168 311 0 395 8 47 0
170 308 0 402 5 39 0
172 299 0 403 13 43 0
174 298 0 406 9 36 0
176 299 0 404 4 51 0
178 289 0 409 8 53 0
180 288 0 416 8 48 0
182 277 0 426 13 38 0
184 276 0 424 6 57 0
186 274 0 432 5 53 0
188 270 0 434 6 58 0
190 262 0 438 10 61 0
192 254 0 443 11 63 1
194 247 0 459 7 61 0
196 247 0 461 7 56 0
198 244 0 468 4 47 0
200 241 0 473 5 49 0
