0 964 0 0 0 0 0
2 924 19 0 21 0 3
4.00004 914 7 0 33 0 2
6 918 2 0 30 0 5
8 909 3 0 37 0 7
10 899 5 0 45 0 2
12 896 2 0 47 0 7
14 895 2 0 43 0 8
16 894 1 0 43 0 8
18 885 0 0 52 0 10
20 880 0 0 56 0 8
22 886 0 0 51 0 10
24 890 0 0 47 0 9
26 888 0 0 49 0 7
28 885 0 0 54 0 11
30 889 0 0 43 0 13
32 873 0 0 60 0 10
34 875 0 0 61 0 6
36 882 0 0 43 0 15
38 875 0 0 62 0 10
40 872 0 0 58 0 15
42 874 0 0 59 0 13
44 877 0 0 52 0 15
46 883 0 0 52 0 13
48 877 0 0 60 0 10
50 878 0 0 57 0 5
52 865 0 1 33 48 0
54 852 0 8 33 56 0
56 848 0 20 23 59 0
58 853 0 24 12 63 0
60 833 0 35 25 52 0
62 830 0 39 19 59 0
64 815 0 52 28 53 0
66 814 0 56 21 59 0
68 805 0 66 30 54 0
70 805 0 73 18 51 1
72 796 0 80 17 54 0
74 792 0 88 20 44 1
76 787 0 98 24 45 0
78 791 0 102 12 45 0
80 777 0 105 22 49 0
82 765 0 109 25 51 0
84 764 0 119 20 45 0
86 759 0 123 17 48 1
88 751 0 126 20 47 0
90 744 0 131 23 53 0
92 741 0 137 21 49 0
94 730 0 142 24 56 0
96 721 0 148 25 65 0
98 719 0 152 17 60 0
100 719 0 161 18 56 0
102 707 0 165 21 63 0
104 703 0 169 22 61 0
106 702 0 182 15 56 0
108 687 0 184 23 52 0
110 684 0 192 18 51 1
112 675 0 199 25 53 0
114 664 0 204 25 56 0
116 664 0 209 14 56 0
118 656 0 218 16 59 0
120 653 0 229 14 53 0
122 648 0 234 15 52 0
124 643 0 242 15 50 0
126 636 0 249 18 39 0
128 630 0 250 18 52 0
130 630 0 253 18 57 0
132 625 0 259 14 59 0
134 615 0 264 18 61 0
136 609 0 270 15 57 0
138 606 0 273 14 61 0
140 598 0 280 13 68 0
142 589 0 289 18 55 0
144 591 0 297 11 51 0
146 585 0 303 13 50 0
148 577 0 306 16 55 0
150 574 0 314 11 60 0
152 568 0 314 13 54 0
154 565 0 328 15 42 0
156 562 0 334 11 46 0
158 562 0 337 7 42 0
160 553 0 339 14 44 0
162 550 0 337 14 50 0
164 547 0 338 9 56 0
166 543 0 341 13 56 0
168 536 0 348 18 53 1
170 530 0 350 12 57 0
172 524 0 356 11 53 0
174 514 0 349 18 64 0
176 510 0 353 19 65 0
178 502 0 363 15 66 0
180 493 0 375 22 60 0
182 490 0 384 20 56 0
184 482 0 387 17 61 0
186 481 0 397 13 64 0
188 478 0 398 11 67 0
190 477 0 406 10 60 0
192 474 0 405 8 63 0
194 466 0 404 9 77 0
196 465 0 416 7 59 0
198 462 0 422 12 54 0
200 457 0 422 15 62 0
