0 974 0 0 0 0 0
2 949 8 0 17 0 9
4.00004 950 1 0 22 0 13
6 945 0 0 35 0 9
8 941 0 0 29 0 15
10 941 0 0 31 0 15
12 956 0 0 19 0 8
14 945 0 0 22 0 16
16 938 0 0 30 0 15
18 939 0 0 23 0 11
20 932 0 0 36 0 13
22 939 0 0 28 0 9
24 935 0 0 26 0 9
26 941 0 0 24 0 11
28 931 0 0 23 0 20
30 933 0 0 22 0 15
32 932 0 0 35 0 9
34 924 0 0 34 0 21
36 933 0 0 28 0 15
38 936 0 0 30 0 15
40 938 0 0 24 0 16
42 945 0 0 18 0 15
44 943 0 0 16 0 18
46 945 0 0 23 0 13
48 944 0 0 28 0 11
50 944 0 0 32 0 6
52 917 0 11 13 43 0
54 897 0 33 12 35 0
56 884 0 54 6 32 0
58 865 0 70 8 40 0
60 848 0 90 10 32 0
62 827 0 102 10 42 0
64 811 0 117 13 37 0
66 801 0 134 8 34 0
68 779 0 154 11 38 1
70 767 0 176 4 46 0
72 750 0 195 10 36 0
74 742 0 214 4 33 0
76 717 0 229 9 33 0
78 708 0 237 7 32 0
80 696 0 248 11 32 0
82 680 0 266 12 33 0
84 665 0 280 11 35 0
86 658 0 294 5 35 0
88 644 0 310 10 33 0
90 633 0 317 6 38 0
92 617 0 323 12 43 0
94 616 0 343 2 43 1
96 602 0 351 6 49 0
98 586 0 372 8 40 0
100 575 0 379 7 50 0
102 565 0 394 6 37 0
104 549 0 400 8 41 0
106 541 0 410 5 38 0
108 523 0 425 10 36 0
110 513 0 438 5 40 0
112 505 0 442 8 47 0
114 493 0 456 6 44 0
116 480 0 467 7 42 0
118 470 0 474 9 45 0
120 462 0 493 5 30 0
122 457 0 491 5 39 0
124 443 0 497 6 44 0
126 435 0 508 6 46 0
128 422 0 520 4 38 0
130 415 0 514 2 52 0
132 408 0 533 5 37 0
134 404 0 533 5 41 0
136 396 0 542 2 44 0
138 383 0 560 6 37 0
140 378 0 562 3 37 0
142 369 0 575 4 30 0
144 360 0 576 3 44 0
146 356 0 577 1 37 0
148 346 0 581 5 45 0
150 343 0 586 5 38 0
152 341 0 594 6 31 0
154 335 0 593 5 39 0
156 328 0 583 3 51 0
158 320 0 592 4 45 0
160 318 0 595 5 45 0
162 314 0 603 3 36 0
164 304 0 606 3 47 0
166 301 0 617 3 41 0
168 293 0 628 5 40 0
170 284 0 632 5 43 0
172 281 0 636 4 32 0
174 280 0 637 2 44 0
176 277 0 639 3 37 0
178 266 0 646 7 43 0
180 263 0 654 2 41 1
182 256 0 665 4 30 0
184 254 0 667 3 32 0
186 245 0 672 4 41 0
188 239 0 681 2 41 0
190 230 0 695 2 44 0
192 229 0 697 0 37 0
194 227 0 695 4 48 0
196 224 0 704 2 43 0
198 218 0 699 2 45 0
200 216 0 712 2 37 0
