0 864 0 0 0 0
2 842 0 0 28 0
4.00004 823 0 0 42 0
6 814 0 0 51 0
8 808 0 0 60 0
10 809 0 0 60 0
12 807 0 0 66 0
14 800 0 0 67 0
16 797 0 0 70 0
18 798 0 0 64 0
20 789 0 0 75 0
22 782 0 0 85 0
24 788 0 0 81 0
26 783 0 0 90 0
28 781 0 0 89 0
30 790 0 0 84 0
32 788 0 0 83 0
34 788 0 0 84 0
36 778 0 0 92 0
38 778 0 0 95 0
40 777 0 0 84 0
42 783 0 0 86 0
44 785 0 0 81 0
46 780 0 0 87 0
48 776 0 0 91 0
50 765 0 0 109 0
52 757 0 0 121 0
54 769 0 0 103 0
56 756 0 0 129 0
58 766 0 0 115 1
60 754 0 0 125 0
62 755 0 0 122 3
64 766 0 0 101 3
66 778 0 0 89 2
68 778 0 0 80 5
70 761 0 0 95 7
72 761 0 0 101 6
74 757 0 0 93 9
76 763 0 0 86 8
78 765 0 1 79 8
80 764 0 2 79 7
82 759 0 2 79 12
84 759 0 2 80 18
86 759 0 3 83 14
88 752 0 4 84 12
90 742 0 6 89 10
92 742 0 7 81 12
94 746 0 8 76 10
96 739 0 9 80 7
98 727 0 9 80 12
100 730 0 12 83 11
102 733 0 11 86 15
104 733 0 12 68 16
106 726 0 12 71 19
108 715 0 15 77 21
110 721 0 17 74 26
112 720 0 16 74 28
114 716 0 24 83 18
116 712 0 26 78 24
118 712 0 28 75 24
120 708 0 28 81 21
122 702 0 31 81 22
124 699 0 36 77 17
126 704 0 38 69 19
128 704 0 42 70 20
130 690 0 45 85 19
132 693 0 42 78 25
134 698 0 44 70 29
136 691 0 47 75 26
138 707 0 51 54 30
140 697 0 49 64 32
142 687 0 54 75 28
144 679 0 55 75 34
146 677 0 57 78 27
148 683 0 62 74 31
150 684 0 64 69 26
152 682 0 63 71 31
154 684 0 68 67 29
156 677 0 72 70 28
158 661 0 72 85 35
160 665 0 77 78 38
162 659 0 83 72 31
164 660 0 81 72 30
166 662 0 85 63 26
168 653 0 93 74 28
170 655 0 93 73 33
172 654 0 93 70 34
174 659 0 97 66 31
176 657 0 103 57 26
178 652 0 107 60 26
180 643 0 104 75 37
182 650 0 110 68 34
184 644 0 112 67 36
186 642 0 116 64 34
188 648 0 122 61 35
190 648 0 123 57 31
192 647 0 125 61 28
194 634 0 126 66 25
196 634 0 125 61 28
198 638 0 127 58 35
200 628 0 123 69 41
