0 900 0 0 0 0
2 881 0 0 19 0
4.00004 882 0 0 22 0
6 882 0 0 22 0
8 879 0 0 27 0
10 872 0 0 39 0
12 870 0 0 35 0
14 863 0 0 46 0
16 869 0 0 39 0
18 868 0 0 43 0
20 866 0 0 38 0
22 862 0 0 45 0
24 858 0 0 49 0
26 855 0 0 51 0
28 861 0 0 42 0
30 863 0 0 43 0
32 871 0 0 41 0
34 856 0 0 52 0
36 869 0 0 37 0
38 864 0 0 44 0
40 870 0 0 45 0
42 861 0 0 53 0
44 862 0 0 53 0
46 866 0 0 48 0
48 867 0 0 44 0
50 871 0 0 40 0
52 876 0 0 43 0
54 875 0 0 36 0
56 867 0 0 48 0
58 871 0 0 39 1
60 871 0 0 38 1
62 873 0 0 36 0
64 875 0 0 31 0
66 870 0 0 35 3
68 863 0 0 40 4
70 866 0 1 36 3
72 868 0 2 33 6
74 865 0 2 38 4
76 860 0 2 43 5
78 856 0 2 45 10
80 859 0 4 47 10
82 864 0 5 33 9
84 868 0 7 26 4
86 862 0 8 41 9
88 859 0 8 40 7
90 854 0 9 44 14
92 856 0 11 36 13
94 854 0 12 34 10
96 853 0 14 36 9
98 845 0 15 42 9
100 850 0 15 35 9
102 850 0 15 37 12
104 840 0 16 42 9
106 843 0 16 39 12
108 838 0 18 45 9
110 844 0 17 36 14
112 842 0 18 36 14
114 839 0 21 37 14
116 840 0 23 32 16
118 841 0 27 32 11
120 842 0 27 28 11
122 838 0 29 28 11
124 835 0 31 34 16
126 837 0 36 31 12
128 841 0 34 26 16
130 842 0 36 21 14
132 832 0 39 34 10
134 838 0 39 29 14
136 831 0 41 34 10
138 832 0 44 24 7
140 825 0 45 31 9
142 834 0 44 22 12
144 827 0 43 30 12
146 825 0 45 32 10
148 828 0 49 22 8
150 820 0 49 31 11
152 814 0 50 33 10
154 811 0 51 36 9
156 810 0 51 35 10
158 806 0 51 38 11
160 810 0 51 30 10
162 809 0 52 27 9
164 806 0 52 31 12
166 801 0 53 30 13
168 802 0 58 26 11
170 789 0 59 39 9
172 799 0 60 28 9
174 796 0 62 27 9
176 794 0 60 29 16
178 793 0 63 30 16
180 792 0 67 28 15
182 788 0 66 35 16
184 790 0 69 33 14
186 777 0 69 40 11
188 780 0 71 36 12
190 780 0 73 34 13
192 778 0 73 36 11
194 780 0 76 33 11
196 770 0 80 36 9
198 762 0 78 44 11
200 771 0 82 28 7
