0 870 0 0 0 0
2 826 0 0 30 0
4.00004 821 0 0 37 0
6 817 0 0 44 0
8 816 0 0 48 0
10 814 0 0 43 0
12 809 0 0 55 0
14 801 0 0 62 0
16 800 0 0 64 0
18 796 0 0 65 0
20 802 0 0 58 0
22 796 0 0 67 0
24 801 0 0 66 0
26 796 0 0 64 0
28 801 0 0 67 0
30 798 0 0 64 0
32 793 0 0 63 0
34 802 0 0 51 0
36 793 0 0 54 0
38 786 0 0 65 0
40 784 0 0 71 0
42 786 0 0 70 0
44 787 0 0 68 0
46 793 0 0 71 0
48 795 0 0 69 0
50 799 0 0 69 0
52 802 0 0 59 0
54 797 0 0 68 0
56 797 0 0 69 0
58 797 0 0 68 0
60 803 0 0 61 0
62 795 0 0 67 2
64 797 0 0 63 0
66 804 0 0 61 1
68 799 0 0 60 4
70 805 0 0 56 6
72 798 0 1 59 3
74 786 0 2 70 7
76 793 0 2 56 12
78 788 0 2 58 13
80 784 0 3 66 12
82 777 0 4 60 11
84 782 0 5 58 16
86 767 0 6 71 22
88 775 0 9 55 20
90 761 0 14 73 20
92 760 0 14 71 23
94 769 0 16 48 20
96 768 0 17 47 22
98 762 0 19 53 22
100 764 0 22 48 23
102 758 0 25 54 20
104 766 0 28 43 23
106 754 0 31 52 20
108 746 0 32 61 22
110 754 0 36 45 17
112 739 0 38 57 13
114 745 0 39 53 11
116 749 0 42 39 13
118 740 0 43 45 10
120 742 0 40 44 20
122 734 0 42 49 22
124 736 0 45 48 23
126 737 0 51 42 20
128 734 0 55 40 21
130 721 0 61 53 18
132 723 0 62 46 19
134 722 0 67 44 16
136 721 0 69 42 17
138 723 0 71 38 18
140 717 0 74 43 19
142 714 0 76 45 19
144 717 0 76 39 18
146 709 0 78 43 22
148 702 0 79 51 20
150 709 0 82 40 17
152 711 0 86 41 14
154 706 0 87 45 16
156 701 0 89 45 13
158 703 0 92 35 14
160 708 0 95 31 12
162 711 0 95 26 18
164 699 0 97 38 21
166 689 0 100 41 19
168 689 0 101 40 17
170 688 0 98 40 26
172 693 0 98 33 26
174 679 0 102 43 24
176 672 0 108 45 13
178 674 0 108 45 16
180 671 0 107 52 21
182 672 0 112 44 22
184 672 0 110 37 28
186 671 0 112 39 31
188 665 0 116 40 27
190 662 0 118 41 28
192 668 0 119 35 28
194 666 0 122 35 25
196 667 0 125 37 23
198 661 0 128 41 24
200 657 0 130 42 27
