0 840 0 0 0 0
2 818 0 0 18 0
4.00004 815 0 0 27 0
6 804 0 0 30 0
8 807 0 0 30 0
10 799 0 0 34 0
12 789 0 0 39 0
14 792 0 0 39 0
16 786 0 0 45 0
18 783 0 0 50 0
20 784 0 0 47 0
22 776 0 0 54 0
24 781 0 0 48 0
26 782 0 0 46 0
28 776 0 0 50 0
30 767 0 0 61 0
32 767 0 0 60 0
34 773 0 0 52 0
36 766 0 0 58 0
38 762 0 0 59 0
40 761 0 0 59 0
42 761 0 0 60 0
44 761 0 0 59 0
46 749 0 0 73 0
48 755 0 0 66 0
50 757 0 0 68 0
52 760 0 0 71 0
54 756 0 0 66 0
56 755 0 0 65 0
58 760 0 0 63 0
60 764 0 0 55 2
62 754 0 0 63 3
64 754 0 1 63 2
66 760 0 1 52 3
68 759 0 1 53 3
70 763 0 2 47 6
72 754 0 2 58 6
74 762 0 2 50 8
76 764 0 2 40 6
78 764 0 3 44 7
80 748 0 3 65 7
82 755 0 4 59 5
84 753 0 4 54 8
86 750 0 5 53 5
88 753 0 6 48 8
90 747 0 7 50 7
92 750 0 8 46 9
94 745 0 9 50 10
96 749 0 8 41 10
98 747 0 8 52 11
100 749 0 8 45 15
102 749 0 7 42 16
104 746 0 11 40 17
106 747 0 12 41 18
108 747 0 19 39 11
110 749 0 20 33 16
112 737 0 22 45 16
114 729 0 23 53 17
116 737 0 24 43 17
118 728 0 24 47 17
120 732 0 27 41 12
122 734 0 28 41 12
124 739 0 32 34 14
126 724 0 31 52 13
128 730 0 33 39 12
130 726 0 36 41 15
132 712 0 36 51 17
134 714 0 38 52 16
136 716 0 39 45 18
138 711 0 39 52 19
140 714 0 40 48 18
142 714 0 43 41 16
144 710 0 45 46 15
146 710 0 47 46 14
148 705 0 49 46 13
150 701 0 51 51 11
152 687 0 55 58 10
154 684 0 54 58 12
156 679 0 54 63 11
158 690 0 55 46 13
160 689 0 56 47 12
162 676 0 55 60 16
164 676 0 59 62 9
166 676 0 57 54 14
168 671 0 58 55 16
170 668 0 59 56 16
172 675 0 61 49 14
174 671 0 61 45 15
176 669 0 60 47 13
178 667 0 60 48 15
180 661 0 59 54 19
182 657 0 63 55 13
184 645 0 64 60 11
186 652 0 66 54 15
188 655 0 68 46 14
190 659 0 70 42 8
192 651 0 68 47 16
194 646 0 70 51 12
196 648 0 71 45 18
198 646 0 74 49 15
200 646 0 72 42 20
