0 929 0 0 0 0
2 893 0 0 26 0
4.00004 875 0 0 47 0
6 874 0 0 46 0
8 883 0 0 38 0
10 874 0 0 49 0
12 874 0 0 54 0
14 881 0 0 54 0
16 883 0 0 56 0
18 888 0 0 47 0
20 884 0 0 57 0
22 885 0 0 56 0
24 881 0 0 50 0
26 876 0 0 64 0
28 895 0 0 45 0
30 887 0 0 55 0
32 888 0 0 56 0
34 879 0 0 60 0
36 883 0 0 47 0
38 889 0 0 40 0
40 889 0 0 48 0
42 889 0 0 47 0
44 886 0 0 52 0
46 881 0 0 56 0
48 891 0 0 41 0
50 884 0 0 45 0
52 878 0 0 55 0
54 875 0 0 56 0
56 880 0 0 50 0
58 883 0 0 47 1
60 884 0 0 50 1
62 875 0 0 57 3
64 881 0 0 52 5
66 881 0 0 46 7
68 871 0 2 52 9
70 867 0 3 60 8
72 876 0 3 44 10
74 864 0 6 57 6
76 865 0 7 51 12
78 867 0 13 47 8
80 865 0 13 45 10
82 873 0 16 37 11
84 868 0 16 41 13
86 858 0 18 45 10
88 854 0 20 47 13
90 849 0 25 43 18
92 847 0 29 43 17
94 842 0 33 46 19
96 833 0 36 49 18
98 837 0 41 41 9
100 836 0 42 46 10
102 844 0 45 32 12
104 836 0 48 37 12
106 839 0 48 35 13
108 826 0 48 41 20
110 827 0 51 39 14
112 822 0 54 41 17
114 815 0 56 46 22
116 809 0 63 52 21
118 811 0 65 43 19
120 809 0 68 40 20
122 806 0 74 38 17
124 806 0 74 34 18
126 809 0 75 30 12
128 805 0 80 35 14
130 811 0 85 27 18
132 806 0 88 27 23
134 802 0 89 34 20
136 801 0 89 37 20
138 807 0 92 25 19
140 799 0 95 32 21
142 797 0 96 32 25
144 800 0 102 29 24
146 793 0 101 34 25
148 793 0 105 33 19
150 793 0 109 28 24
152 791 0 112 31 25
154 782 0 112 42 20
156 780 0 114 32 20
158 785 0 118 29 22
160 778 0 118 32 25
162 778 0 123 33 26
164 771 0 128 34 28
166 766 0 131 40 17
168 766 0 133 35 19
170 768 0 136 33 20
172 766 0 137 30 18
174 760 0 137 33 31
176 756 0 144 34 24
178 755 0 145 29 24
180 747 0 147 31 20
182 745 0 148 33 30
184 741 0 150 33 33
186 734 0 155 37 30
188 721 0 165 45 23
190 727 0 165 38 23
192 723 0 169 39 22
194 726 0 171 33 26
196 726 0 174 34 21
198 725 0 177 30 22
200 714 0 174 38 26
