0 866 0 0 0 0
2 858 0 0 19 0
4.00004 846 0 0 27 0
6 845 0 0 27 0
8 850 0 0 25 0
10 842 0 0 35 0
12 842 0 0 34 0
14 846 0 0 26 0
16 846 0 0 23 0
18 847 0 0 23 0
20 837 0 0 30 0
22 822 0 0 50 0
24 834 0 0 40 0
26 836 0 0 42 0
28 837 0 0 43 0
30 846 0 0 31 0
32 849 0 0 31 0
34 846 0 0 39 0
36 854 0 0 35 0
38 848 0 0 42 0
40 851 0 0 36 0
42 855 0 0 30 0
44 853 0 0 33 0
46 843 0 0 47 0
48 849 0 0 37 0
50 854 0 0 34 0
52 847 0 0 40 0
54 842 0 0 35 0
56 847 0 0 36 1
58 848 0 0 25 2
60 839 0 0 33 4
62 832 0 1 44 5
64 829 0 3 42 7
66 827 0 6 41 6
68 831 0 7 37 5
70 833 0 10 35 5
72 840 0 11 29 10
74 837 0 12 27 9
76 827 0 17 33 9
78 824 0 17 36 14
80 822 0 17 31 17
82 827 0 25 24 14
84 822 0 31 28 11
86 824 0 32 30 11
88 824 0 35 25 7
90 820 0 37 27 12
92 827 0 39 9 13
94 822 0 42 19 11
96 817 0 47 27 9
98 819 0 47 22 9
100 821 0 54 21 10
102 817 0 56 25 7
104 816 0 56 24 14
106 820 0 60 16 8
108 814 0 63 22 15
110 812 0 64 24 16
112 808 0 68 23 7
114 809 0 68 21 15
116 799 0 70 27 12
118 792 0 72 30 22
120 790 0 76 25 20
122 786 0 82 32 14
124 799 0 88 16 13
126 797 0 86 17 16
128 793 0 91 20 11
130 791 0 90 21 10
132 787 0 89 24 8
134 790 0 86 16 15
136 786 0 92 17 12
138 777 0 94 29 13
140 770 0 96 32 16
142 775 0 99 23 16
144 766 0 99 28 16
146 774 0 100 18 17
148 767 0 103 22 14
150 772 0 105 17 12
152 765 0 108 24 10
154 766 0 110 21 14
156 769 0 112 17 15
158 770 0 116 13 13
160 762 0 117 19 14
162 760 0 125 23 13
164 756 0 127 21 16
166 749 0 131 23 10
168 738 0 134 36 9
170 741 0 135 24 12
172 738 0 137 26 17
174 733 0 138 31 19
176 733 0 142 25 13
178 728 0 145 31 10
180 725 0 148 27 14
182 723 0 151 29 12
184 719 0 155 25 6
186 719 0 156 24 17
188 717 0 157 25 23
190 718 0 166 24 12
192 704 0 170 36 12
194 712 0 171 22 14
196 713 0 171 19 11
198 707 0 173 27 14
200 708 0 174 26 11
