0 1033 0 0 0 0
2 1028 2 0 17 0
4.00004 1018 5 0 21 0
6 1018 6 0 27 0
8 1003 7 0 39 0
10 1005 6 0 37 0
12 1003 6 0 40 0
14 1005 4 0 51 0
16 1001 6 0 47 0
18 996 7 0 47 0
20 1004 6 0 44 0
22 1001 5 0 50 0
24 996 4 0 49 0
26 999 4 0 45 0
28 1001 8 0 37 0
30 1003 11 0 35 0
32 1002 5 0 39 0
34 1005 4 0 42 0
36 1003 4 0 44 0
38 994 6 0 56 0
40 988 9 0 56 0
42 987 4 0 55 0
44 995 6 0 41 0
46 1002 3 0 36 0
48 1000 7 0 35 0
50 990 7 0 50 0
52 852 1 138 47 2
54 741 0 257 42 2
56 650 0 337 45 8
58 578 0 416 43 7
60 490 0 503 37 9
62 433 0 550 46 17
64 380 0 611 42 12
66 332 0 657 37 14
68 287 1 706 32 15
70 240 0 756 30 17
72 216 0 777 19 23
74 190 0 803 23 21
76 173 0 817 21 25
78 155 0 835 24 24
80 142 0 845 20 29
82 131 0 865 14 26
84 114 0 879 13 27
86 101 0 892 18 25
88 91 0 904 15 24
90 86 0 904 15 32
92 74 0 919 13 25
94 68 0 922 15 29
96 58 0 931 17 23
98 53 0 939 14 28
100 46 0 948 9 26
102 40 0 952 14 29
104 34 0 961 15 24
106 34 0 960 15 32
108 31 0 961 16 31
110 29 0 963 18 28
112 32 0 956 17 38
114 33 0 958 13 35
116 28 0 957 12 39
118 24 0 971 8 32
120 20 0 974 8 35
122 20 0 975 12 29
124 20 0 974 15 33
126 23 0 971 14 34
128 18 0 980 17 27
130 19 0 974 15 37
132 18 0 969 16 44
134 12 0 981 21 38
136 14 0 979 11 38
138 12 0 984 15 33
140 14 0 988 13 31
142 15 0 984 10 32
144 16 0 984 9 26
146 13 0 989 13 32
148 12 0 985 11 38
150 12 0 985 9 35
152 13 0 974 9 39
154 13 0 981 14 30
156 12 0 979 14 33
158 15 0 972 9 39
160 14 0 973 14 37
162 14 0 974 14 38
164 15 0 972 18 44
166 15 0 971 12 42
168 16 0 960 13 53
170 14 0 976 18 37
172 15 0 970 18 42
174 17 0 974 15 40
176 17 0 968 15 44
178 17 0 972 16 38
180 13 0 976 16 32
182 13 0 981 11 34
184 13 0 984 10 29
186 12 0 979 15 35
188 10 0 983 10 36
190 9 0 990 11 29
192 11 0 981 9 37
194 10 0 994 8 23
196 8 0 996 10 24
198 8 0 993 7 24
200 6 0 991 9 30
