0 869 0 0 0 0
2 860 0 0 13 0
4.00004 848 0 0 28 0
6 857 0 0 22 0
8 856 0 0 20 0
10 851 0 0 16 0
12 848 0 0 22 0
14 849 0 0 27 0
16 851 0 0 25 0
18 856 0 0 22 0
20 861 0 0 19 0
22 860 0 0 25 0
24 868 0 0 20 0
26 875 0 0 23 0
28 879 0 0 17 0
30 885 0 0 18 0
32 885 0 0 18 0
34 881 0 0 22 0
36 886 0 0 20 0
38 881 0 0 28 0
40 887 0 0 25 0
42 890 0 0 19 0
44 892 0 0 21 0
46 892 0 0 20 0
48 888 0 0 33 0
50 898 0 0 18 0
52 896 0 0 20 0
54 900 0 0 20 0
56 909 0 0 12 2
58 905 0 0 22 2
60 898 0 2 21 3
62 891 0 4 25 3
64 901 0 7 16 3
66 899 0 9 12 6
68 894 0 14 20 5
70 895 0 15 18 7
72 887 0 24 19 7
74 875 0 30 25 6
76 867 0 34 24 4
78 864 0 39 29 5
80 865 0 42 21 6
82 864 0 47 17 4
84 857 0 51 18 8
86 860 0 57 14 10
88 859 0 62 19 6
90 857 0 68 14 7
92 855 0 72 12 7
94 853 0 74 10 7
96 848 0 74 11 10
98 847 0 79 10 16
100 842 0 88 11 5
102 831 0 89 19 11
104 827 0 89 13 8
106 823 0 100 16 5
108 823 0 107 11 4
110 812 0 113 18 9
112 810 0 114 14 11
114 813 0 122 10 5
116 810 0 123 13 13
118 804 0 135 13 7
120 806 0 139 11 5
122 798 0 137 16 8
124 794 0 143 11 6
126 784 0 145 17 10
128 784 0 154 14 6
130 777 0 156 13 6
132 774 0 160 15 6
134 767 0 162 19 8
136 762 0 163 21 8
138 763 0 164 20 8
140 763 0 165 14 13
142 750 0 171 22 10
144 748 0 176 13 10
146 746 0 178 14 8
148 742 0 181 16 7
150 740 0 182 12 7
152 734 0 183 17 10
154 731 0 189 19 9
156 728 0 196 16 13
158 717 0 198 18 16
160 713 0 207 15 13
162 708 0 217 14 6
164 706 0 219 11 8
166 692 0 222 16 11
168 691 0 227 15 9
170 684 0 229 15 9
172 685 0 229 10 16
174 671 0 240 23 3
176 671 0 238 19 12
178 668 0 242 13 12
180 672 0 248 8 12
182 664 0 251 12 13
184 657 0 254 14 12
186 653 0 257 13 14
188 650 0 264 13 11
190 642 0 264 19 16
192 649 0 270 10 20
194 645 0 276 9 10
196 642 0 282 8 8
198 636 0 282 12 19
200 635 0 292 9 13
