0 1053 0 0 0 0
2 1008 7 0 29 0
4.00004 994 7 0 48 0
6 984 7 0 47 0
8 980 4 0 53 0
10 969 7 0 60 0
12 971 7 0 59 0
14 965 11 0 53 0
16 971 3 0 56 0
18 970 5 0 64 0
20 960 15 0 59 0
22 976 8 0 49 0
24 970 6 0 55 0
26 961 8 0 65 0
28 976 6 0 51 0
30 964 7 0 58 0
32 976 5 0 53 0
34 959 7 0 61 0
36 955 4 0 68 0
38 945 4 0 74 0
40 937 10 0 71 0
42 951 8 0 65 0
44 947 6 0 67 0
46 938 6 0 71 0
48 940 7 0 65 0
50 951 5 0 54 0
52 786 1 161 60 2
54 672 0 286 50 5
56 561 1 371 61 11
58 500 0 445 49 13
60 434 0 514 42 11
62 366 0 570 43 21
64 317 0 621 44 21
66 292 0 653 33 24
68 257 0 687 33 24
70 222 0 716 29 28
72 197 0 741 31 34
74 171 0 772 27 25
76 153 0 787 22 29
78 131 0 795 28 39
80 124 0 813 18 36
82 108 0 823 25 44
84 96 0 837 26 39
86 90 0 851 26 27
88 81 0 858 20 30
90 78 0 858 18 35
92 74 0 865 22 35
94 76 0 860 22 40
96 70 0 872 18 40
98 64 0 867 20 47
100 57 0 875 20 47
102 46 0 878 21 54
104 40 0 880 27 52
106 42 0 881 26 53
108 47 0 886 19 48
110 47 0 890 14 47
112 41 0 902 13 39
114 30 0 905 14 45
116 31 0 901 10 47
118 27 0 910 13 36
120 24 0 903 16 45
122 28 0 902 11 52
124 24 0 897 18 47
126 25 0 901 17 48
128 25 0 904 16 44
130 25 0 899 23 46
132 31 0 884 20 57
134 32 0 885 17 59
136 34 0 889 15 57
138 33 0 888 15 56
140 29 0 896 15 49
142 30 0 904 7 42
144 26 0 911 10 39
146 21 0 910 15 41
148 23 0 912 12 35
150 22 0 904 8 44
152 20 0 890 14 57
154 22 0 896 13 48
156 20 0 901 14 39
158 19 0 905 16 34
160 21 0 896 16 44
162 23 0 883 18 53
164 23 0 889 14 43
166 21 0 884 10 56
168 21 0 879 13 57
170 22 0 879 18 56
172 24 0 872 16 63
174 26 0 880 14 53
176 19 0 891 18 41
178 19 0 888 18 49
180 23 0 885 19 47
182 27 0 878 12 49
184 28 0 883 13 42
186 29 0 888 15 39
188 26 0 882 16 48
190 24 0 878 16 43
192 24 0 874 12 48
194 26 0 876 18 37
196 29 0 867 14 45
198 24 0 870 14 46
200 25 0 867 16 46
