0 1034 0 0 0 0
2 995 10 0 18 0
4.00004 988 3 0 36 0
6 972 10 0 46 0
8 979 8 0 38 0
10 978 8 0 37 0
12 979 6 0 39 0
14 979 11 0 38 0
16 984 9 0 38 0
18 991 5 0 34 0
20 976 15 0 42 0
22 986 7 0 35 0
24 985 6 0 35 0
26 978 6 0 38 0
28 981 3 0 36 0
30 977 5 0 41 0
32 976 7 0 37 0
34 970 6 0 39 0
36 960 10 0 41 0
38 967 10 0 33 0
40 961 12 0 40 0
42 965 6 0 44 0
44 969 9 0 36 0
46 972 7 0 31 0
48 966 5 0 43 0
50 967 4 0 41 0
52 794 1 182 34 2
54 666 0 314 39 4
56 568 1 407 29 11
58 468 0 512 38 7
60 392 0 596 29 7
62 314 0 662 25 17
64 265 0 713 24 17
66 216 0 758 25 21
68 176 0 804 23 17
70 149 0 822 20 26
72 125 0 837 22 26
74 110 0 850 23 32
76 94 0 866 25 29
78 85 0 873 19 32
80 70 0 898 21 24
82 65 0 901 18 26
84 57 0 910 16 25
86 56 0 918 8 21
88 48 1 926 9 25
90 41 0 924 11 28
92 34 0 933 20 25
94 29 0 938 14 25
96 28 0 937 9 26
98 30 0 940 7 26
100 26 0 939 7 22
102 25 0 928 6 36
104 23 0 925 5 37
106 22 0 925 8 41
108 18 0 930 6 32
110 16 0 928 6 34
112 16 0 934 8 36
114 13 0 933 8 33
116 14 0 927 9 42
118 15 0 929 12 28
120 15 0 931 14 29
122 17 0 934 6 29
124 17 0 928 7 32
126 13 0 930 8 33
128 13 0 941 5 26
130 13 0 938 6 31
132 9 0 950 8 25
134 9 0 941 12 31
136 12 0 945 11 25
138 13 0 939 5 30
140 14 0 933 7 32
142 14 0 935 9 29
144 14 0 934 12 31
146 11 0 941 13 26
148 16 0 930 11 37
150 15 1 931 9 38
152 12 0 932 8 41
154 12 0 934 6 37
156 10 0 936 6 35
158 12 0 931 6 39
160 14 0 937 5 32
162 13 0 940 2 24
164 13 0 939 8 20
166 17 0 938 8 24
168 15 0 935 7 26
170 11 0 941 13 23
172 12 0 930 13 27
174 12 0 929 12 26
176 12 0 928 16 31
178 13 0 932 11 30
180 13 0 935 15 23
182 17 0 936 9 23
184 13 0 937 17 28
186 10 0 937 18 19
188 16 0 929 12 21
190 16 0 921 11 32
192 19 0 920 10 29
194 20 0 914 13 34
196 16 0 928 13 29
198 17 0 931 7 24
200 17 0 929 6 29
