0 847 0 0 0 0
2 814 0 0 42 0
4.00004 812 0 0 39 0
6 813 0 0 49 0
8 811 0 0 52 0
10 811 0 0 53 0
12 805 0 0 58 0
14 806 0 0 65 0
16 805 0 0 65 0
18 804 0 0 57 0
20 806 0 0 60 0
22 806 0 0 61 0
24 802 0 0 67 0
26 798 0 0 68 0
28 813 0 0 54 0
30 820 0 0 51 0
32 820 0 0 46 0
34 813 0 0 60 0
36 813 0 0 60 0
38 812 0 0 65 0
40 809 0 0 73 0
42 822 0 0 54 0
44 822 0 0 58 0
46 823 0 0 62 0
48 822 0 0 66 0
50 827 0 0 63 0
52 831 0 0 59 0
54 839 0 0 48 0
56 839 0 0 55 1
58 828 0 1 62 2
60 833 0 2 62 2
62 834 0 2 60 4
64 828 0 2 61 6
66 827 0 5 63 3
68 832 0 6 54 7
70 825 0 6 61 13
72 818 0 8 60 11
74 824 0 13 57 11
76 830 0 16 50 13
78 827 0 17 48 15
80 815 0 19 60 15
82 811 0 25 52 12
84 812 0 27 47 16
86 808 0 34 49 15
88 812 0 38 48 13
90 809 0 39 48 15
92 797 0 42 51 14
94 804 0 48 35 15
96 793 0 46 44 17
98 790 0 53 43 16
100 787 0 58 42 14
102 776 0 57 51 17
104 778 0 56 42 25
106 772 0 66 42 18
108 773 0 71 39 17
110 763 0 74 48 17
112 770 0 75 39 21
114 776 0 78 29 23
116 770 0 89 34 18
118 768 0 92 32 22
120 765 0 96 31 20
122 750 0 99 46 12
124 754 0 102 35 23
126 744 0 106 42 17
128 733 0 109 50 19
130 734 0 113 40 20
132 732 0 119 37 20
134 730 0 119 35 23
136 725 0 126 36 18
138 721 0 130 35 22
140 719 0 137 35 20
142 718 0 136 39 24
144 717 0 146 35 16
146 716 0 147 31 19
148 714 0 153 30 21
150 714 0 156 31 21
152 709 0 161 30 19
154 704 0 167 34 16
156 704 0 171 32 19
158 693 0 174 37 22
160 698 0 177 28 20
162 695 0 177 26 25
164 685 0 178 36 32
166 677 0 180 44 28
168 674 0 186 40 30
170 673 0 192 34 26
172 673 0 192 31 29
174 676 0 196 25 30
176 659 0 203 39 30
178 647 0 209 48 22
180 651 0 217 36 22
182 651 0 217 37 29
184 647 0 221 36 30
186 637 0 220 41 31
188 639 0 228 37 24
190 638 0 235 35 31
192 625 0 242 49 26
194 632 0 251 33 27
196 634 0 251 31 29
198 626 0 253 38 29
200 617 0 255 41 33
