0 53 0 0 0 12
2 48 0 6 0 14
4.00004 47 0 5 0 15
6 50 0 2 0 13
8 49 0 2 0 21
10 44 0 7 0 15
12 51 0 1 0 21
14 48 0 3 0 9
16 46 0 3 0 16
18 47 0 3 1 15
20 41 1 6 0 9
22 42 1 6 0 12
24 44 2 4 2 14
26 45 3 2 0 9
28 42 5 3 0 19
30 42 4 2 1 14
32 35 4 5 3 18
34 36 6 6 0 13
36 40 5 1 2 20
38 39 7 2 0 13
40 38 12 3 1 14
42 36 13 2 2 16
44 33 13 3 2 19
46 32 15 1 1 10
48 31 17 0 0 15
50 31 19 3 2 20
52 32 20 2 1 15
54 30 20 3 0 14
56 29 21 5 0 21
58 32 23 3 2 15
60 33 26 1 1 15
62 31 25 3 2 12
64 27 25 5 3 17
66 29 29 2 0 22
68 29 28 2 2 16
70 29 31 1 0 13
72 21 26 7 4 14
74 27 28 0 2 14
76 27 28 0 3 18
78 27 29 0 3 18
80 25 27 2 4 14
82 23 28 1 3 11
84 23 29 0 3 15
86 22 27 1 4 12
88 22 23 1 5 14
90 22 27 0 0 13
92 22 26 0 3 17
94 21 26 1 1 18
96 21 27 1 4 15
98 17 29 5 3 16
100 16 26 3 4 16
102 16 27 1 2 13
104 16 26 2 3 14
106 15 27 1 2 13
108 15 31 1 0 11
110 14 29 2 1 15
112 14 27 2 5 19
114 15 25 1 4 20
116 17 27 0 3 19
118 17 31 0 0 14
120 17 29 0 1 20
122 15 28 1 4 17
124 12 31 1 2 12
126 14 30 0 4 14
128 13 29 1 4 16
130 10 28 3 6 15
132 8 30 2 4 20
134 10 33 1 2 16
136 11 31 0 2 18
138 8 31 2 2 16
140 10 34 1 1 12
142 11 38 0 1 15
144 8 39 2 0 15
146 9 38 0 1 12
148 9 31 0 7 14
150 10 35 0 2 18
152 9 36 1 5 14
154 9 36 1 2 13
156 10 33 0 3 21
158 10 35 0 3 10
160 9 35 0 2 12
162 7 35 2 0 15
164 8 32 0 2 20
166 8 29 0 4 17
168 8 33 0 3 19
170 8 32 0 1 13
172 6 32 2 0 17
174 8 31 0 2 17
176 8 33 0 1 12
178 8 34 0 0 20
180 8 31 0 3 20
182 8 25 0 6 16
184 8 32 0 1 15
186 8 31 0 1 14
188 8 32 0 2 14
190 7 34 1 1 14
192 7 32 0 3 16
194 7 34 0 1 15
196 7 33 0 2 19
198 6 33 1 1 17
200 7 28 0 5 15
202 7 33 0 0 17
204 7 33 0 2 18
206 5 36 1 1 15
208 6 36 0 2 13
210 6 36 0 3 14
