0 42 0 0 0 19
2 38 0 5 0 14
4.00004 40 0 3 0 11
6 39 0 4 0 17
8 38 0 2 0 16
10 36 0 4 0 19
12 39 0 3 0 15
14 37 0 2 0 20
16 33 0 5 0 12
18 35 1 2 0 13
20 36 1 1 0 14
22 35 1 3 0 23
24 33 1 2 0 19
26 31 1 5 0 16
28 34 1 3 0 14
30 30 2 5 0 12
32 33 2 1 1 16
34 34 2 0 0 15
36 33 3 0 0 19
38 32 3 1 0 18
40 30 3 2 1 13
42 28 3 3 1 14
44 30 4 0 1 18
46 29 5 1 0 18
48 28 6 1 0 18
50 27 5 2 1 13
52 29 6 0 0 19
54 26 7 3 0 18
56 24 7 6 0 16
58 25 8 1 1 19
60 22 10 3 1 16
62 24 9 1 0 13
64 22 13 1 0 18
66 23 12 1 0 14
68 21 11 2 1 16
70 21 10 1 0 17
72 19 11 3 0 12
74 21 10 1 1 20
76 21 10 0 1 15
78 18 9 2 3 14
80 19 11 1 1 18
82 17 9 3 3 17
84 16 11 3 0 13
86 14 13 5 0 21
88 18 13 1 1 15
90 17 13 2 2 15
92 17 14 1 2 12
94 14 14 1 1 21
96 14 15 0 1 14
98 12 15 1 0 15
100 12 14 1 2 15
102 10 16 2 0 10
104 10 14 2 1 18
106 12 15 0 0 14
108 10 17 0 1 10
110 8 17 2 0 13
112 9 16 1 0 12
114 9 20 1 1 22
116 10 19 0 1 16
118 10 19 0 3 12
120 9 21 1 2 21
122 9 22 1 3 14
124 10 22 0 1 17
126 10 21 0 1 14
128 10 22 0 1 18
130 10 22 0 3 13
132 10 24 0 1 13
134 8 25 3 1 16
136 8 26 2 0 9
138 10 24 0 3 12
140 10 25 0 2 11
142 9 25 0 2 11
144 8 27 1 0 20
146 8 24 1 4 17
148 9 27 0 1 11
150 7 24 2 4 13
152 9 28 0 1 13
154 9 27 0 2 13
156 8 26 0 2 13
158 8 26 0 2 17
160 7 27 0 3 13
162 7 27 0 2 12
164 6 26 1 3 18
166 7 31 0 1 10
168 7 32 0 1 11
170 6 31 0 2 11
172 5 30 1 2 8
174 6 31 0 1 18
176 5 30 1 2 14
178 4 29 1 2 12
180 5 33 0 1 13
182 5 33 0 3 14
184 5 32 0 4 18
186 5 33 0 2 12
188 5 32 0 1 19
190 5 32 0 3 19
192 5 32 0 4 18
194 5 35 0 1 15
196 2 36 3 0 13
198 4 35 0 2 14
200 4 33 0 3 17
202 4 35 0 5 18
204 4 38 0 2 22
206 3 35 1 6 13
208 4 37 0 4 15
210 4 39 0 1 16
