0 97 0 0 0 18
2 91 0 5 0 16
4.00004 94 0 4 0 15
6 98 0 0 0 17
8 92 0 7 0 9
10 97 0 2 0 15
12 82 15 1 0 9
14 70 24 3 2 21
16 68 32 1 0 14
18 57 42 0 0 15
20 51 49 2 0 21
22 44 55 2 0 18
24 41 56 1 0 16
26 39 57 2 2 21
28 35 61 2 2 11
30 32 65 2 2 16
32 34 66 2 1 12
34 30 70 1 1 17
36 25 75 2 0 10
38 24 76 0 2 17
40 23 70 0 3 16
42 24 69 1 3 14
44 23 72 1 3 11
46 25 74 1 1 20
48 23 69 3 7 15
50 20 73 1 1 10
52 15 75 2 3 15
54 12 80 3 2 16
56 11 82 0 2 9
58 9 77 0 4 15
60 8 76 2 3 15
62 9 77 0 3 18
64 9 79 0 2 13
66 6 82 1 1 8
68 5 79 0 5 14
70 6 80 0 3 17
72 8 79 0 5 16
74 9 82 0 2 16
76 6 81 1 4 12
78 6 82 0 3 12
80 6 84 0 2 16
82 8 83 1 3 19
84 10 84 0 1 15
86 8 86 2 0 18
88 9 88 0 2 16
90 8 87 2 4 17
92 10 87 0 2 13
94 9 91 0 1 12
96 8 88 0 1 15
98 7 88 0 1 14
100 9 90 0 2 14
102 7 92 2 3 17
104 7 91 1 4 16
106 8 91 1 5 17
108 8 95 0 0 19
110 8 93 0 3 15
112 6 93 1 2 11
114 7 96 0 2 10
116 6 93 0 4 11
118 3 95 0 4 16
120 3 99 0 1 10
122 4 96 0 2 13
124 4 96 2 2 18
126 5 89 0 8 16
128 3 94 0 6 14
130 4 97 0 2 15
132 6 95 1 4 10
134 3 99 0 2 14
136 2 97 0 7 12
138 3 101 0 3 14
140 1 99 0 4 18
142 1 98 0 1 15
144 1 98 1 1 15
146 2 96 0 4 18
148 1 97 1 4 16
150 1 99 0 3 12
152 1 95 0 3 16
154 1 97 0 4 17
156 1 100 0 3 9
158 1 101 0 0 20
160 1 97 1 5 18
162 2 101 0 3 15
164 3 102 0 3 10
166 3 102 0 4 13
168 3 99 0 4 11
170 3 102 0 4 17
172 3 104 0 3 13
174 3 104 0 2 13
176 3 104 0 1 18
178 2 104 0 2 10
180 1 101 0 6 10
182 1 106 0 4 14
184 1 105 0 3 15
186 0 106 0 4 16
188 0 106 0 2 16
190 0 104 0 3 16
192 1 105 0 2 14
194 1 106 0 1 15
196 1 106 0 1 11
198 1 107 0 1 13
200 1 107 0 2 15
202 1 105 0 4 13
204 0 107 0 1 12
206 1 103 0 3 15
208 1 103 0 2 17
210 1 101 0 3 16
