0 112 0 0 0 15
2 110 0 3 0 14
4.00004 115 0 1 0 18
6 115 0 2 0 14
8 114 0 3 0 10
10 111 0 5 0 12
12 101 11 2 0 16
14 95 18 1 1 14
16 85 29 0 1 13
18 70 40 5 0 13
20 69 44 2 0 14
22 67 46 0 0 15
24 57 51 3 2 10
26 52 58 1 2 16
28 46 57 3 4 17
30 45 63 1 0 17
32 43 63 0 0 17
34 39 65 0 1 12
36 38 63 1 1 11
38 32 68 3 1 12
40 31 73 0 1 11
42 25 76 2 2 16
44 24 78 0 1 11
46 20 80 1 4 14
48 22 77 0 3 15
50 21 80 0 2 13
52 19 82 2 1 15
54 21 85 0 2 12
56 18 87 0 1 18
58 18 84 1 2 19
60 22 83 1 2 20
62 22 81 0 3 14
64 19 80 3 5 19
66 21 86 0 2 12
68 19 87 2 3 13
70 19 89 1 0 14
72 18 88 0 2 17
74 18 84 0 4 17
76 17 89 0 2 19
78 14 92 2 1 14
80 15 89 1 2 14
82 16 90 0 3 17
84 17 94 3 1 17
86 20 90 0 5 15
88 17 98 1 0 16
90 18 95 0 3 14
92 17 96 0 1 19
94 17 94 0 2 19
96 16 93 0 3 16
98 15 100 0 1 17
100 14 101 0 3 13
102 10 102 0 3 18
104 9 104 0 4 16
106 9 105 0 2 17
108 8 103 1 3 15
110 9 102 1 1 16
112 8 102 2 0 16
114 8 100 0 0 15
116 8 99 0 2 16
118 5 104 0 4 13
120 3 109 0 2 13
122 4 108 0 4 14
124 3 113 0 0 18
126 2 110 0 3 11
128 1 110 1 4 17
130 3 113 0 1 14
132 4 111 0 3 7
134 3 110 2 1 17
136 5 109 1 3 18
138 5 112 0 1 20
140 3 115 0 2 14
142 3 111 0 4 11
144 3 112 0 5 13
146 4 112 0 4 15
148 3 112 0 2 17
150 2 112 0 3 16
152 2 112 0 2 15
154 2 111 0 1 25
156 2 107 0 5 15
158 3 113 0 2 15
160 1 114 0 7 13
162 0 116 0 5 12
164 0 118 0 2 16
166 0 116 0 1 12
168 0 114 0 3 14
170 0 113 0 3 16
172 0 112 0 3 15
174 0 112 0 3 15
176 0 111 0 2 16
178 0 110 0 3 12
180 0 110 0 3 14
182 0 110 0 2 18
184 0 112 0 2 14
186 0 108 0 4 14
188 0 112 0 3 14
190 0 114 0 2 13
192 0 111 0 3 16
194 0 112 0 4 12
196 0 117 0 2 18
198 0 117 0 3 11
200 0 121 0 1 11
202 0 117 0 8 19
204 0 120 0 3 16
206 0 119 0 4 13
208 0 119 0 4 15
210 0 121 0 1 14
