0 35 0 0 0 17
2 30 0 4 0 15
4.00004 29 0 5 0 17
6 27 0 8 0 14
8 28 0 2 0 8
10 30 0 4 0 15
12 28 0 6 0 21
14 32 0 1 0 18
16 31 0 5 0 14
18 29 0 5 0 14
20 29 0 4 1 15
22 31 1 3 0 14
24 30 1 5 0 19
26 31 1 3 0 12
28 29 1 3 0 17
30 26 1 5 0 13
32 26 2 4 0 11
34 26 3 3 2 14
36 28 3 2 1 12
38 25 5 5 0 16
40 27 9 4 0 14
42 25 9 3 1 16
44 21 11 4 1 19
46 24 10 1 3 13
48 22 10 1 0 19
50 17 7 5 2 18
52 18 8 3 1 14
54 18 12 4 0 14
56 19 11 4 1 14
58 15 13 6 0 11
60 18 12 2 1 14
62 18 11 1 2 13
64 14 10 4 1 17
66 14 11 2 1 8
68 15 11 0 2 19
70 13 13 2 0 13
72 13 13 2 0 20
74 13 13 2 1 17
76 14 10 0 3 17
78 15 12 0 2 10
80 15 13 1 4 18
82 12 15 3 3 14
84 11 16 2 2 11
86 7 19 4 4 11
88 10 25 0 2 13
90 8 26 1 5 15
92 8 26 1 2 16
94 6 25 1 2 15
96 6 27 0 2 17
98 6 25 0 3 14
100 6 25 0 3 18
102 6 23 0 3 16
104 6 27 0 2 18
106 6 28 1 1 17
108 6 29 1 0 16
110 5 25 1 3 19
112 5 19 1 3 18
114 4 17 2 1 17
116 4 16 2 1 18
118 6 14 0 3 17
120 4 15 1 4 11
122 3 18 0 2 16
124 4 22 0 2 14
126 4 20 0 6 16
128 4 24 0 4 12
130 4 28 0 1 15
132 4 27 0 4 13
134 4 29 0 2 16
136 3 31 0 1 16
138 3 30 0 2 12
140 2 21 1 5 18
142 2 25 0 3 15
144 2 24 0 7 18
146 2 30 0 1 19
148 2 28 0 4 13
150 2 25 0 6 14
152 1 30 1 2 16
154 2 28 0 4 11
156 2 28 0 5 16
158 2 28 0 6 21
160 2 31 0 3 16
162 2 27 0 7 16
164 2 24 0 6 13
166 2 25 0 2 17
168 1 26 1 3 16
170 2 30 0 0 9
172 2 28 0 2 10
174 2 28 0 3 15
176 0 26 0 4 12
178 0 29 0 3 16
180 0 21 0 11 10
182 0 26 0 7 16
184 0 29 0 3 16
186 0 26 0 2 17
188 0 21 0 3 12
190 0 21 0 3 12
192 0 20 0 4 17
194 0 21 0 7 12
196 0 26 0 2 16
198 0 24 0 5 11
200 0 24 1 4 15
202 1 23 0 6 13
204 1 27 0 3 12
206 1 25 0 4 13
208 1 25 0 5 19
210 1 27 0 3 18
