0 61 0 0 0 483
2 56 0 6 0 514
4.00004 59 0 3 0 516
6 59 0 3 0 497
8 52 0 10 0 494
10 59 0 3 0 500
12 60 0 2 0 515
14 61 0 1 0 495
16 56 0 6 0 494
18 58 0 4 0 508
20 57 0 5 0 492
22 57 0 5 0 495
24 57 0 5 0 493
26 57 0 5 0 492
28 60 0 2 0 516
30 60 0 2 0 493
32 56 0 6 0 502
34 59 0 3 0 505
36 58 0 4 0 495
38 60 0 2 0 489
40 57 0 5 0 494
42 59 0 3 0 493
44 56 0 6 0 488
46 59 0 3 0 492
48 53 0 9 0 501
50 59 0 3 0 507
52 57 0 5 0 502
54 59 0 3 0 512
56 58 0 4 0 512
58 56 0 6 0 523
60 61 0 1 0 477
62 62 0 0 0 491
64 58 0 4 0 501
66 55 0 7 0 510
68 60 0 2 0 499
70 58 0 4 0 491
72 58 0 4 0 506
74 58 0 4 0 500
76 59 0 3 0 495
78 59 0 3 0 485
80 60 0 2 0 508
82 60 0 2 0 503
84 60 0 2 0 505
86 57 0 5 0 497
88 60 0 2 0 503
90 60 0 2 0 506
92 59 0 3 0 508
94 57 0 5 0 494
96 59 0 3 0 499
98 59 0 3 0 475
100 59 0 3 0 510
102 61 0 1 0 497
104 62 0 0 0 523
106 56 0 6 0 507
108 59 0 3 0 501
110 61 0 1 0 508
112 60 0 2 0 503
114 58 0 4 0 485
116 60 0 2 0 491
118 58 0 4 0 501
120 61 0 1 0 501
122 57 0 5 0 508
124 56 0 6 0 520
126 56 0 6 0 502
128 56 0 6 0 515
130 58 0 4 0 493
132 59 0 3 0 472
134 58 0 4 0 491
136 61 0 1 0 498
138 57 0 5 0 476
140 58 0 4 0 508
142 59 0 3 0 489
144 56 0 6 0 513
146 61 0 1 0 513
148 59 0 3 0 491
150 58 0 4 0 462
152 56 0 6 0 504
154 61 0 1 0 495
156 57 0 5 0 519
158 62 0 0 0 489
160 59 0 3 0 499
162 59 0 3 0 503
164 58 0 4 0 509
166 59 0 3 0 500
168 55 0 7 0 496
170 60 0 2 0 516
172 59 0 3 0 498
174 57 0 5 0 494
176 61 0 1 0 506
178 58 0 4 0 489
180 59 0 3 0 497
182 59 0 3 0 494
184 59 0 3 0 500
186 61 0 1 0 490
188 61 0 1 0 495
190 61 0 1 0 506
192 56 0 6 0 515
194 59 0 3 0 497
196 58 0 4 0 480
198 60 0 2 0 512
200 58 0 4 0 496
202 59 0 3 0 521
204 60 0 2 0 504
206 58 0 4 0 500
208 58 0 4 0 486
210 60 0 2 0 503
