0 43 0 0 0 485
2 42 0 3 0 517
4.00004 48 0 2 0 509
6 48 0 4 0 515
8 54 0 3 0 502
10 57 0 4 0 504
12 59 0 3 0 500
14 56 2 6 2 496
16 57 3 5 1 485
18 62 5 0 2 505
20 60 10 3 2 500
22 57 13 6 1 500
24 60 14 3 0 498
26 59 15 4 1 497
28 59 16 4 1 508
30 61 15 2 4 478
32 57 20 6 0 497
34 60 21 3 2 491
36 60 24 3 1 484
38 60 26 3 2 500
40 62 29 1 3 511
42 57 31 6 3 495
44 57 34 6 2 492
46 59 36 4 3 505
48 60 40 3 1 499
50 63 41 0 4 490
52 58 42 5 3 493
54 60 44 3 5 506
56 59 47 4 3 515
58 56 47 7 3 514
60 60 52 3 1 517
62 58 51 5 5 492
64 60 52 3 4 500
66 57 51 6 5 493
68 59 52 4 5 510
70 59 58 4 2 500
72 55 55 8 6 507
74 60 57 3 4 501
76 56 55 7 8 503
78 60 55 3 8 487
80 53 59 10 5 503
82 62 62 1 2 499
84 58 60 5 4 500
86 62 58 1 8 500
88 60 60 3 7 517
90 60 57 3 10 490
92 61 66 2 2 497
94 57 61 6 9 499
96 61 63 2 7 499
98 58 66 5 4 498
100 60 69 3 1 486
102 58 70 5 1 502
104 58 66 5 5 488
106 58 66 5 5 485
108 58 68 5 3 489
110 58 67 5 4 508
112 56 69 7 2 512
114 59 67 4 6 488
116 58 65 5 8 496
118 55 70 8 3 500
120 58 69 5 4 497
122 60 70 3 4 509
124 59 72 4 2 493
126 58 68 5 7 506
128 59 70 4 6 485
130 61 67 2 10 507
132 59 73 4 5 499
134 61 74 2 4 528
136 55 76 8 3 495
138 59 71 4 8 507
140 62 75 1 4 498
142 59 76 4 3 493
144 58 76 5 3 492
146 60 73 3 6 513
148 56 72 7 8 491
150 60 72 3 8 507
152 57 76 6 5 503
154 61 79 2 3 508
156 58 79 5 3 493
158 60 73 3 9 488
160 59 80 4 2 485
162 58 78 5 4 509
164 57 73 6 9 497
166 58 77 5 5 510
168 59 75 4 8 480
170 59 76 4 7 499
172 56 79 7 5 519
174 59 82 4 3 503
176 62 80 1 5 496
178 57 76 6 9 513
180 62 80 1 5 501
182 58 81 5 5 496
184 60 83 3 4 484
186 56 85 7 2 521
188 56 83 7 4 516
190 59 84 4 3 494
192 58 79 5 8 494
194 59 78 4 9 494
196 60 84 3 3 504
198 61 82 2 5 494
200 59 84 4 3 499
202 62 81 1 6 503
204 57 84 6 3 506
206 60 80 3 7 480
208 57 84 6 3 513
210 59 81 4 6 500
