0 38 0 0 0 514
2 35 0 4 0 505
4.00004 38 0 1 0 514
6 34 0 5 0 505
8 36 0 3 0 498
10 38 0 1 0 497
12 39 0 0 0 507
14 38 0 1 0 478
16 36 0 3 0 498
18 38 0 1 0 496
20 34 0 5 0 498
22 36 0 3 0 491
24 36 0 3 0 517
26 35 0 4 0 494
28 39 0 0 0 508
30 37 0 2 0 508
32 38 0 1 0 506
34 38 0 1 0 504
36 38 0 1 0 514
38 37 0 2 0 465
40 35 0 4 0 490
42 38 0 1 0 499
44 35 0 4 0 491
46 36 0 3 0 515
48 35 0 4 0 489
50 37 0 2 0 487
52 36 0 3 0 497
54 38 0 1 0 516
56 34 0 5 0 516
58 38 0 1 0 499
60 38 0 1 0 505
62 36 0 3 0 494
64 36 0 3 0 483
66 34 0 5 0 480
68 37 0 2 0 524
70 37 0 2 0 520
72 37 0 2 0 499
74 35 0 4 0 498
76 37 0 2 0 489
78 37 0 2 0 502
80 37 0 2 0 474
82 34 0 5 0 523
84 37 0 2 0 503
86 39 0 0 0 502
88 35 0 4 0 504
90 39 0 0 0 502
92 38 0 1 0 502
94 36 0 3 0 498
96 37 0 2 0 489
98 34 0 5 0 491
100 37 0 2 0 489
102 35 0 4 0 501
104 35 0 4 0 504
106 37 0 2 0 483
108 34 0 5 0 493
110 34 0 5 0 492
112 37 0 2 0 523
114 36 0 3 0 483
116 36 0 3 0 508
118 36 0 3 0 503
120 36 0 3 0 501
122 36 0 3 0 493
124 37 0 2 0 499
126 36 0 3 0 504
128 39 0 0 0 526
130 36 0 3 0 491
132 35 0 4 0 494
134 37 0 2 0 503
136 37 0 2 0 511
138 35 0 4 0 514
140 38 0 1 0 495
142 37 0 2 0 517
144 37 0 2 0 493
146 36 0 3 0 495
148 36 0 3 0 512
150 36 0 3 0 518
152 39 0 0 0 511
154 34 0 5 0 498
156 38 0 1 0 506
158 36 0 3 0 529
160 36 0 3 0 513
162 36 0 3 0 509
164 36 0 3 0 489
166 36 0 3 0 501
168 36 0 3 0 489
170 39 0 0 0 507
172 36 0 3 0 507
174 38 0 1 0 498
176 34 0 5 0 497
178 38 0 1 0 512
180 35 0 4 0 508
182 37 0 2 0 499
184 39 0 0 0 499
186 35 0 4 0 493
188 36 0 3 0 507
190 36 0 3 0 494
192 39 0 0 0 497
194 36 0 3 0 505
196 37 0 2 0 508
198 37 0 2 0 494
200 35 0 4 0 519
202 36 0 3 0 502
204 35 0 4 0 488
206 38 0 1 0 517
208 36 0 3 0 487
210 38 0 1 0 519
