0 1400 0 0 0 0
2 1382 11 0 5 0
4.00004 1384 10 0 4 0
6 1391 6 0 3 0
8 1387 7 0 6 0
10 1381 13 0 4 0
12 1388 7 0 4 0
14 1386 6 0 2 0
16 1381 9 0 5 0
18 1375 8 0 11 0
20 1382 6 0 5 0
22 1381 10 0 3 0
24 1383 5 0 5 0
26 1379 9 0 3 0
28 1387 2 0 2 0
30 1381 7 0 4 0
32 1378 8 0 4 0
34 1385 2 0 2 0
36 1370 12 0 4 0
38 1373 7 0 1 0
40 1373 7 0 10 0
42 1372 12 0 3 0
44 1380 5 0 3 0
46 1376 6 0 4 0
48 1365 13 0 5 0
50 1370 8 0 4 0
52 1220 0 157 2 0
54 1104 2 273 3 0
56 992 1 387 4 0
58 909 0 471 2 2
60 826 0 553 2 4
62 764 1 613 3 3
64 689 0 687 6 1
66 642 1 727 4 3
68 581 1 792 5 1
70 514 0 859 2 3
72 464 0 911 2 0
74 426 0 949 2 1
76 378 0 991 3 3
78 333 0 1036 4 0
80 304 1 1064 1 0
82 271 0 1095 3 4
84 244 0 1124 1 0
86 226 0 1140 2 3
88 202 0 1159 0 6
90 181 0 1181 1 4
92 158 0 1207 1 1
94 145 0 1218 4 2
96 142 0 1224 1 3
98 122 0 1245 0 1
100 104 0 1257 2 7
102 100 0 1269 2 3
104 94 0 1274 1 5
106 86 0 1283 1 5
108 73 0 1299 0 3
110 66 0 1301 2 3
112 65 0 1304 1 2
114 62 0 1303 0 4
116 58 0 1304 1 4
118 56 0 1308 1 4
120 47 0 1317 1 3
122 43 0 1323 2 4
124 45 0 1324 1 2
126 43 0 1323 1 3
128 43 0 1329 3 1
130 42 0 1329 0 0
132 41 0 1324 2 4
134 44 0 1325 1 0
136 46 0 1320 0 4
138 44 0 1323 1 1
140 43 0 1321 1 3
142 39 0 1322 0 4
144 40 0 1323 0 3
146 35 0 1325 0 3
148 34 0 1328 0 2
150 32 0 1327 1 5
152 29 0 1323 2 4
154 30 0 1320 1 2
156 28 0 1318 1 8
158 30 0 1318 1 7
160 29 0 1316 0 8
162 29 0 1317 0 2
164 28 0 1316 1 4
166 25 0 1317 0 5
168 25 0 1319 0 3
170 25 0 1321 0 2
172 28 0 1313 4 4
174 31 0 1314 1 2
176 31 0 1313 0 6
178 30 0 1317 0 2
180 31 0 1314 0 4
182 30 0 1314 0 2
184 29 0 1319 0 3
186 29 0 1321 1 2
188 27 0 1320 3 4
190 29 0 1321 0 2
192 29 0 1324 0 3
194 28 0 1322 0 3
196 28 0 1319 0 5
198 27 0 1329 0 0
200 27 0 1326 1 2
