0 500 0 0 0 0
2 499 0 0 3 0
4.00004 499 0 0 3 0
6 496 0 0 4 0
8 497 0 0 3 0
10 501 0 0 1 0
12 500 0 0 1 0
14 504 0 0 2 0
16 501 0 0 4 0
18 506 0 0 0 0
20 504 0 0 3 0
22 504 0 0 2 0
24 503 0 0 4 0
26 507 0 0 2 0
28 507 0 0 2 0
30 506 0 0 2 0
32 507 0 0 3 0
34 510 0 0 1 0
36 511 0 0 3 0
38 514 0 0 5 0
40 509 0 0 1 0
42 510 0 0 3 0
44 511 0 0 1 0
46 511 0 0 3 0
48 510 0 0 7 0
50 516 0 0 2 0
52 514 0 0 7 0
54 514 0 0 4 0
56 512 0 1 3 0
58 511 0 1 3 1
60 511 0 2 2 0
62 510 0 4 2 0
64 509 0 5 3 0
66 512 0 7 3 1
68 513 0 7 0 0
70 515 0 7 0 0
72 514 0 8 0 1
74 512 0 10 0 0
76 508 0 15 2 0
78 509 0 17 1 0
80 508 0 18 3 1
82 506 0 19 2 0
84 507 0 21 2 1
86 505 0 22 0 2
88 505 0 26 2 0
90 501 0 27 3 2
92 502 0 28 2 1
94 495 0 30 4 2
96 492 0 34 3 1
98 489 0 38 4 1
100 488 0 38 2 2
102 485 0 40 1 0
104 479 0 43 4 0
106 477 0 45 2 1
108 478 0 46 1 0
110 477 0 50 1 0
112 474 0 53 1 0
114 473 0 56 1 1
116 469 0 61 2 1
118 465 0 62 2 2
120 465 0 61 4 2
122 465 0 62 1 0
124 460 0 66 2 0
126 457 0 66 3 4
128 454 0 68 2 0
130 456 0 69 1 3
132 450 0 71 5 3
134 450 0 75 1 4
136 444 0 80 4 2
138 442 0 84 3 2
140 441 0 89 1 1
142 441 0 92 2 0
144 439 0 94 1 0
146 433 0 96 6 2
148 435 0 98 2 1
150 433 0 99 2 1
152 430 0 106 3 3
154 432 0 113 1 1
156 429 0 113 2 1
158 424 0 116 3 1
160 423 0 120 4 0
162 423 0 127 1 1
164 421 0 128 1 1
166 418 0 131 2 2
168 417 0 133 2 1
170 416 0 133 1 2
172 409 0 139 1 2
174 405 0 141 3 3
176 405 0 143 1 1
178 402 0 143 4 2
180 403 0 146 0 2
182 399 0 150 2 3
184 395 0 150 3 1
186 391 0 152 3 1
188 393 0 150 0 3
190 391 0 154 2 1
192 387 0 153 3 1
194 387 0 157 2 1
196 385 0 159 2 2
198 385 0 159 0 0
200 382 0 160 1 1
