0 1424 0 0 0 0
2 1416 7 0 1 0
4.00004 1412 9 0 2 0
6 1413 7 0 1 0
8 1413 7 0 5 0
10 1407 13 0 5 0
12 1418 9 0 1 0
14 1418 9 0 4 0
16 1417 8 0 5 0
18 1416 8 0 6 0
20 1419 5 0 5 0
22 1414 12 0 2 0
24 1420 7 0 3 0
26 1417 10 0 3 0
28 1418 9 0 5 0
30 1421 7 0 2 0
32 1419 6 0 3 0
34 1419 7 0 1 0
36 1411 8 0 3 0
38 1401 16 0 1 0
40 1407 7 0 0 0
42 1407 7 0 3 0
44 1410 4 0 1 0
46 1406 9 0 1 0
48 1402 7 0 7 0
50 1406 9 0 1 0
52 1198 0 216 0 0
54 1053 1 355 2 1
56 935 0 474 1 0
58 850 0 557 4 1
60 758 0 644 2 5
62 674 0 726 4 2
64 607 1 796 3 0
66 545 1 858 2 2
68 500 0 906 1 2
70 434 0 969 0 0
72 389 0 1011 2 3
74 356 0 1045 1 2
76 320 0 1082 2 2
78 285 0 1120 2 1
80 257 0 1146 4 2
82 229 0 1173 2 1
84 201 0 1200 1 2
86 186 0 1212 2 1
88 169 0 1226 1 4
90 152 0 1238 1 8
92 135 0 1263 2 1
94 125 0 1273 1 4
96 120 0 1280 0 3
98 107 0 1287 0 3
100 103 0 1289 1 4
102 93 0 1300 6 5
104 95 0 1302 0 5
106 87 0 1313 1 2
108 77 0 1322 0 4
110 75 0 1330 0 4
112 70 0 1332 1 3
114 69 0 1333 2 3
116 63 0 1342 0 1
118 56 0 1343 2 5
120 51 0 1348 1 4
122 50 0 1349 1 2
124 48 0 1350 1 4
126 40 0 1358 0 2
128 36 0 1356 0 3
130 35 0 1352 1 3
132 32 0 1353 1 2
134 31 0 1356 0 2
136 30 0 1357 1 5
138 27 0 1353 2 5
140 25 0 1354 0 2
142 22 0 1356 1 3
144 18 0 1356 0 5
146 21 0 1353 1 3
148 21 0 1352 2 7
150 20 0 1358 0 3
152 18 0 1357 1 4
154 19 0 1358 0 1
156 26 0 1349 0 5
158 23 0 1350 1 3
160 25 0 1352 0 2
162 22 0 1357 0 1
164 22 0 1362 0 0
166 21 0 1366 1 0
168 20 0 1367 0 1
170 20 0 1368 3 1
172 20 0 1367 0 3
174 18 0 1365 0 3
176 20 0 1366 3 1
178 25 0 1361 2 2
180 25 0 1357 0 3
182 23 0 1360 0 3
184 21 0 1360 2 3
186 19 0 1363 0 3
188 16 0 1363 1 4
190 22 0 1358 0 3
192 18 0 1361 2 2
194 17 0 1361 0 2
196 17 0 1365 0 1
198 15 0 1364 1 1
200 16 0 1361 0 4
