0 481 0 0 0 0
2 476 0 0 2 0
4.00004 474 0 0 7 0
6 474 0 0 3 0
8 476 0 0 2 0
10 474 0 0 2 0
12 471 0 0 2 0
14 469 0 0 3 0
16 467 0 0 6 0
18 471 0 0 4 0
20 473 0 0 5 0
22 471 0 0 3 0
24 473 0 0 2 0
26 473 0 0 3 0
28 469 0 0 6 0
30 471 0 0 3 0
32 470 0 0 5 0
34 473 0 0 7 0
36 476 0 0 4 0
38 474 0 0 7 0
40 473 0 0 3 0
42 476 0 0 1 0
44 475 0 0 6 0
46 484 0 0 5 0
48 483 0 0 4 0
50 486 0 0 5 0
52 488 0 0 2 0
54 484 0 1 1 0
56 485 0 1 2 0
58 486 0 2 6 0
60 489 0 3 2 0
62 482 0 3 8 0
64 481 0 5 5 0
66 478 0 8 3 1
68 479 0 11 3 1
70 474 0 12 3 1
72 472 0 15 2 0
74 469 0 16 7 0
76 468 0 17 3 1
78 466 0 21 2 2
80 462 0 27 4 1
82 460 0 30 2 2
84 458 0 35 2 0
86 453 0 39 4 1
88 448 0 42 5 3
90 447 0 46 2 3
92 444 0 50 2 0
94 439 0 50 2 0
96 437 0 51 3 0
98 437 0 52 2 0
100 434 0 49 3 2
102 435 0 51 0 2
104 431 0 54 3 2
106 426 0 58 3 1
108 427 0 63 3 1
110 425 0 67 3 1
112 427 0 71 0 1
114 424 0 75 2 2
116 420 0 79 4 2
118 420 0 84 2 3
120 412 0 89 5 0
122 413 0 89 1 0
124 408 0 90 2 1
126 401 0 92 7 2
128 401 0 96 2 0
130 396 0 98 2 2
132 394 0 99 2 0
134 388 0 101 3 0
136 387 0 98 1 2
138 383 0 102 3 2
140 382 0 105 3 1
142 380 0 107 2 2
144 373 0 110 4 1
146 370 0 112 4 0
148 365 0 114 5 1
150 367 0 116 1 2
152 366 0 116 1 1
154 362 0 118 3 1
156 363 0 118 1 2
158 363 0 122 1 3
160 362 0 127 1 0
162 359 0 126 2 0
164 358 0 130 0 1
166 354 0 133 2 4
168 352 0 142 3 2
170 347 0 143 5 2
172 344 0 142 4 4
174 345 0 146 2 6
176 342 0 151 2 3
178 342 0 157 1 2
180 339 0 158 3 3
182 341 0 162 1 2
184 337 0 160 3 2
186 337 0 159 3 2
188 335 0 163 2 1
190 336 0 166 1 3
192 331 0 170 3 2
194 332 0 175 3 1
196 328 0 180 4 0
198 327 0 182 3 1
200 327 0 182 2 0
