0 444 0 0 0 0
2 451 0 0 0 0
4.00004 450 0 0 1 0
6 446 0 0 3 0
8 448 0 0 9 0
10 455 0 0 2 0
12 457 0 0 4 0
14 458 0 0 2 0
16 460 0 0 2 0
18 457 0 0 3 0
20 453 0 0 4 0
22 453 0 0 4 0
24 447 0 0 7 0
26 451 0 0 5 0
28 451 0 0 3 0
30 450 0 0 3 0
32 451 0 0 2 0
34 455 0 0 1 0
36 451 0 0 2 0
38 453 0 0 2 0
40 452 0 0 2 0
42 452 0 0 2 0
44 452 0 0 4 0
46 450 0 0 5 0
48 453 0 0 4 0
50 457 0 0 0 0
52 455 0 0 5 0
54 452 0 0 5 1
56 451 0 1 3 0
58 448 0 4 5 0
60 447 0 5 3 0
62 445 0 6 3 0
64 446 0 7 1 0
66 444 0 8 5 1
68 446 0 9 1 1
70 448 0 11 2 1
72 443 0 13 5 0
74 448 0 16 0 0
76 443 0 17 2 1
78 440 0 18 4 1
80 440 0 20 4 0
82 441 0 21 3 2
84 441 0 25 2 1
86 439 0 27 3 0
88 441 0 29 1 1
90 435 0 34 4 0
92 435 0 35 2 0
94 433 0 38 3 0
96 428 0 39 5 2
98 429 0 42 3 1
100 424 0 42 4 2
102 427 0 45 0 1
104 424 0 46 1 1
106 421 0 50 3 1
108 420 0 54 1 3
110 418 0 57 2 2
112 416 0 59 1 2
114 412 0 61 3 4
116 410 0 67 1 3
118 404 0 68 3 2
120 403 0 76 3 1
122 400 0 78 5 0
124 401 0 81 2 1
126 400 0 85 3 1
128 400 0 91 0 1
130 396 0 91 3 0
132 394 0 93 1 3
134 391 0 98 3 1
136 390 0 102 1 1
138 388 0 106 4 1
140 382 0 109 5 1
142 381 0 110 2 2
144 383 0 110 2 3
146 383 0 118 1 2
148 379 0 121 3 2
150 380 0 130 1 1
152 378 0 130 2 0
154 368 0 129 6 2
156 372 0 136 2 2
158 370 0 140 3 1
160 369 0 146 1 1
162 365 0 147 3 4
164 364 0 151 3 2
166 360 0 155 6 3
168 360 0 157 1 2
170 356 0 160 4 4
172 352 0 162 3 2
174 351 0 163 2 1
176 350 0 163 1 0
178 348 0 164 2 1
180 346 0 168 1 3
182 345 0 166 2 4
184 346 0 178 1 0
186 346 0 180 0 1
188 342 0 182 3 4
190 341 0 184 2 2
192 338 0 183 3 1
194 339 0 184 2 3
196 337 0 188 2 0
198 332 0 188 2 1
200 333 0 191 3 1
