0 1500 0 0 0 0
2 1486 14 0 3 0
4.00004 1489 8 0 5 0
6 1487 9 0 4 0
8 1482 14 0 4 0
10 1491 6 0 3 0
12 1484 12 0 3 0
14 1490 7 0 2 0
16 1486 6 0 3 0
18 1481 10 0 5 0
20 1483 8 0 7 0
22 1484 10 0 3 0
24 1491 7 0 1 0
26 1490 6 0 2 0
28 1487 6 0 4 0
30 1482 9 0 2 0
32 1485 6 0 3 0
34 1475 16 0 1 0
36 1480 8 0 1 0
38 1478 8 0 3 0
40 1479 6 0 3 0
42 1477 12 0 0 0
44 1473 12 0 4 0
46 1476 10 0 6 0
48 1478 8 0 4 0
50 1479 7 0 5 0
52 1307 2 179 3 0
54 1179 0 308 6 0
56 1046 0 438 7 0
58 931 1 556 2 1
60 843 0 642 3 3
62 747 0 738 3 2
64 661 0 828 1 0
66 593 1 889 1 3
68 538 0 941 5 2
70 489 0 992 3 1
72 447 0 1041 2 0
74 401 1 1082 1 2
76 358 1 1125 0 2
78 322 0 1166 1 0
80 293 0 1195 1 0
82 260 0 1228 0 2
84 222 0 1262 5 3
86 198 0 1290 1 2
88 179 0 1310 0 0
90 167 0 1317 1 1
92 150 0 1334 2 1
94 131 0 1351 0 4
96 117 0 1365 2 1
98 109 0 1375 0 1
100 94 0 1386 0 3
102 86 0 1391 0 4
104 78 0 1396 1 7
106 73 0 1403 0 4
108 69 0 1408 2 2
110 67 0 1409 0 2
112 63 0 1410 2 5
114 65 0 1414 0 2
116 57 0 1421 0 2
118 52 0 1427 1 1
120 51 0 1426 0 2
122 46 0 1429 0 3
124 40 0 1430 0 5
126 37 0 1439 1 2
128 36 0 1439 1 3
130 40 0 1440 1 3
132 38 0 1437 0 5
134 37 0 1437 0 2
136 32 0 1440 1 3
138 29 0 1443 0 4
140 29 0 1447 0 2
142 26 0 1447 0 2
144 23 0 1449 0 3
146 25 0 1448 0 3
148 24 0 1447 2 4
150 24 0 1449 0 0
152 23 0 1445 0 1
154 24 0 1446 0 2
156 23 0 1446 0 2
158 24 0 1444 1 3
160 26 0 1447 1 1
162 28 0 1441 1 5
164 28 0 1445 2 1
166 30 0 1443 0 3
168 28 0 1443 0 4
170 22 0 1449 1 4
172 22 0 1448 0 1
174 20 0 1445 0 5
176 19 0 1450 1 2
178 19 0 1451 3 3
180 19 0 1455 0 1
182 18 0 1454 0 2
184 17 0 1454 0 3
186 20 0 1454 0 2
188 17 0 1454 2 3
190 17 0 1449 0 6
192 15 0 1457 1 2
194 15 1 1456 0 0
196 11 0 1459 0 4
198 10 0 1461 1 1
200 12 0 1459 1 3
