0 410 0 0 0 0
2 411 0 0 5 0
4.00004 409 0 0 6 0
6 414 0 0 3 0
8 412 0 0 3 0
10 413 0 0 2 0
12 413 0 0 2 0
14 415 0 0 0 0
16 411 0 0 8 0
18 419 0 0 2 0
20 420 0 0 3 0
22 420 0 0 4 0
24 421 0 0 4 0
26 420 0 0 5 0
28 420 0 0 6 0
30 422 0 0 3 0
32 422 0 0 5 0
34 422 0 0 4 0
36 418 0 0 3 0
38 416 0 0 5 0
40 409 0 0 4 0
42 413 0 0 5 0
44 410 0 0 3 0
46 417 0 0 2 0
48 413 0 0 8 0
50 418 0 0 2 0
52 413 0 0 4 0
54 413 0 0 2 0
56 409 0 1 3 0
58 411 0 2 3 0
60 406 0 3 4 0
62 407 0 2 5 1
64 406 0 3 7 1
66 406 0 5 4 0
68 405 0 7 2 1
70 404 0 10 1 1
72 403 0 13 1 0
74 400 0 14 2 2
76 394 0 16 3 0
78 395 0 19 2 0
80 389 0 19 4 1
82 387 0 21 3 0
84 386 0 22 1 0
86 384 0 26 1 0
88 379 0 26 5 2
90 379 0 28 2 1
92 376 0 31 2 1
94 374 0 38 2 0
96 371 0 38 3 1
98 367 0 43 4 2
100 362 0 47 1 1
102 361 0 46 2 0
104 357 0 50 1 2
106 355 0 51 4 3
108 354 0 53 2 2
110 353 0 54 1 2
112 350 0 56 2 0
114 345 0 55 3 3
116 336 0 56 4 3
118 331 0 57 4 1
120 327 0 59 3 1
122 325 0 62 3 2
124 325 0 66 1 2
126 320 0 68 1 2
128 312 0 71 6 0
130 310 0 73 3 0
132 309 0 75 1 0
134 304 0 76 5 2
136 299 0 81 5 3
138 301 0 83 1 0
140 298 0 82 1 2
142 293 0 87 3 0
144 294 0 89 1 2
146 293 0 90 2 4
148 291 0 92 0 0
150 290 0 93 0 1
152 285 0 95 2 3
154 282 0 98 1 1
156 279 0 100 0 2
158 278 0 99 1 4
160 275 0 104 3 0
162 274 0 105 1 0
164 271 0 102 3 5
166 267 0 105 5 4
168 267 0 108 2 2
170 263 0 111 2 1
172 262 0 113 0 3
174 255 0 119 3 0
176 248 0 121 4 1
178 245 0 122 3 1
180 247 0 123 0 0
182 246 0 125 1 3
184 246 0 127 1 2
186 242 0 127 3 3
188 244 0 132 0 0
190 243 0 133 0 1
192 242 0 132 1 3
194 241 0 138 2 1
196 238 0 138 2 3
198 233 0 143 4 1
200 231 0 144 3 1
