0 662 0 0 0 0 690
2 654 0 0 30 0 690
4.00004 651 0 0 29 0 690
6 658 0 0 14 0 690
8 654 0 0 25 0 690
10 653 0 0 24 0 690
12 631 0 0 28 0 690
14 610 0 0 24 0 690
16 614 0 0 20 0 690
18 611 0 0 23 0 690
20 621 0 0 15 0 690
22 612 0 0 30 0 690
24 616 0 0 20 0 690
26 634 0 0 22 0 690
28 646 0 0 22 0 690
30 644 0 0 30 0 690
32 658 0 0 24 0 690
34 659 0 0 20 0 690
36 646 0 0 20 0 690
38 640 0 0 15 0 690
40 642 0 0 20 0 690
42 638 0 0 18 0 690
44 626 0 0 26 0 690
46 638 0 0 21 0 690
48 645 0 0 23 0 690
50 661 0 0 18 0 690
52 663 0 0 22 1 690
54 663 0 3 26 0 690
56 658 0 10 23 1 690
58 641 0 19 22 1 690
60 612 0 27 22 6 690
62 591 0 44 29 2 690
64 575 0 54 27 5 690
66 554 0 70 25 2 690
68 552 0 70 9 6 690
70 545 0 79 19 8 690
72 532 0 98 22 5 690
74 524 0 114 12 4 690
76 527 0 119 12 10 690
78 509 0 142 19 5 690
80 502 0 158 15 10 690
82 500 0 176 13 14 690
84 473 0 200 20 4 690
86 445 0 199 14 17 690
88 429 0 219 11 15 690
90 412 0 237 12 5 690
92 404 0 243 11 9 690
94 394 0 261 3 8 690
96 364 0 260 8 9 690
98 349 0 275 18 15 690
100 343 0 291 9 8 690
102 337 0 310 7 12 690
104 320 0 327 7 17 690
106 311 0 336 8 13 690
108 304 0 339 6 12 690
110 297 0 335 7 12 690
112 282 0 352 8 15 690
114 272 0 359 8 15 690
116 256 0 375 9 16 690
118 251 0 370 5 19 690
120 247 0 388 2 15 690
122 236 0 406 6 10 690
124 227 0 411 3 12 690
126 216 0 418 5 9 690
128 206 0 419 5 21 690
130 194 0 419 6 20 690
132 194 0 412 3 16 690
134 189 0 431 6 13 690
136 183 0 437 3 13 690
138 173 0 442 7 18 690
140 173 0 447 3 17 690
142 165 0 454 5 16 690
144 158 0 468 4 14 690
146 156 0 466 2 18 690
148 143 0 488 6 10 690
150 139 0 481 6 13 690
152 145 0 490 0 18 690
154 136 0 507 4 19 690
156 133 0 519 3 18 690
158 126 0 518 8 26 690
160 124 0 521 3 20 690
162 118 0 530 2 21 690
164 118 0 533 2 20 690
166 114 0 536 2 17 690
168 107 0 538 5 12 690
170 102 0 535 0 17 690
172 95 0 534 4 19 690
174 91 0 550 2 17 690
176 85 0 555 4 17 690
178 87 0 562 2 13 690
180 81 0 568 5 17 690
182 85 0 562 1 24 690
184 79 0 557 4 20 690
186 82 0 568 0 28 690
188 75 0 569 3 21 690
190 75 0 574 1 22 690
192 69 0 582 1 23 690
194 65 0 582 1 20 690
196 62 0 580 3 29 690
198 62 0 582 0 25 690
200 61 0 579 0 16 690
