0 1536 0 0 0 0 723
2 1518 10 0 24 0 723
4.00004 1524 8 0 23 0 723
6 1533 8 0 36 0 723
8 1549 10 0 20 0 723
10 1549 10 0 27 0 723
12 1572 9 0 29 0 723
14 1598 7 0 16 0 723
16 1598 12 0 25 0 723
18 1611 14 0 21 0 723
20 1617 11 0 25 0 723
22 1641 8 0 20 0 723
24 1648 9 0 28 0 723
26 1643 12 0 30 0 723
28 1661 7 0 25 0 723
30 1663 10 0 24 0 723
32 1655 15 0 20 0 723
34 1656 9 0 33 0 723
36 1652 9 0 19 0 723
38 1638 12 0 26 0 723
40 1651 7 0 26 0 723
42 1654 7 0 19 0 723
44 1644 7 0 24 0 723
46 1643 13 0 23 0 723
48 1622 12 0 19 0 723
50 1616 12 0 29 0 723
52 1417 0 237 20 0 723
54 1278 0 377 21 2 723
56 1176 0 494 16 6 723
58 1055 0 606 14 2 723
60 954 1 686 16 7 723
62 861 1 804 12 7 723
64 776 0 882 11 10 723
66 706 0 948 17 10 723
68 642 0 1013 10 10 723
70 581 0 1068 9 10 723
72 524 0 1121 6 16 723
74 482 0 1173 12 8 723
76 470 0 1204 5 14 723
78 420 0 1252 8 17 723
80 381 2 1280 8 18 723
82 342 0 1319 8 18 723
84 305 0 1366 4 21 723
86 277 0 1401 9 18 723
88 249 0 1424 7 17 723
90 221 0 1438 7 22 723
92 204 0 1482 6 16 723
94 187 0 1492 4 16 723
96 167 0 1511 5 14 723
98 151 0 1530 1 22 723
100 142 1 1538 0 26 723
102 124 0 1558 3 16 723
104 116 0 1574 2 18 723
106 106 0 1583 0 23 723
108 92 0 1594 1 19 723
110 81 0 1591 0 19 723
112 80 0 1583 0 21 723
114 76 0 1590 1 24 723
116 66 0 1619 3 27 723
118 57 0 1612 0 23 723
120 46 0 1620 1 17 723
122 39 0 1626 1 10 723
124 41 0 1619 0 28 723
126 38 0 1635 1 20 723
128 35 0 1624 1 27 723
130 29 0 1620 1 19 723
132 23 0 1641 1 17 723
134 23 0 1652 0 27 723
136 23 0 1665 0 17 723
138 20 0 1643 0 24 723
140 17 0 1645 0 21 723
142 16 0 1651 0 25 723
144 14 0 1659 0 15 723
146 13 0 1647 0 21 723
148 12 0 1648 0 16 723
150 12 0 1629 1 25 723
152 11 0 1637 0 25 723
154 12 0 1631 0 28 723
156 12 0 1622 0 34 723
158 11 0 1619 0 23 723
160 10 0 1632 0 15 723
162 9 0 1618 1 21 723
164 9 0 1632 0 24 723
166 7 0 1658 0 24 723
168 6 0 1649 0 22 723
170 5 0 1660 0 16 723
172 4 0 1652 0 26 723
174 4 0 1649 0 21 723
176 4 0 1651 0 30 723
178 4 0 1659 0 24 723
180 3 0 1654 0 26 723
182 2 0 1657 0 28 723
184 2 0 1656 0 21 723
186 1 0 1667 0 22 723
188 1 0 1670 0 22 723
190 1 0 1649 0 35 723
192 1 0 1660 0 17 723
194 1 0 1659 0 19 723
196 1 0 1659 0 22 723
198 1 0 1658 0 22 723
200 1 0 1663 0 23 723
