0 1407 0 0 0 0 711
2 1403 11 0 20 0 711
4.00004 1400 12 0 13 0 711
6 1406 10 0 17 0 711
8 1411 4 0 15 0 711
10 1414 8 0 18 0 711
12 1415 10 0 25 0 711
14 1404 10 0 19 0 711
16 1404 9 0 21 0 711
18 1402 7 0 10 0 711
20 1403 7 0 19 0 711
22 1401 9 0 16 0 711
24 1407 10 0 12 0 711
26 1405 10 0 12 0 711
28 1407 7 0 12 0 711
30 1397 10 0 19 0 711
32 1399 17 0 23 0 711
34 1419 7 0 22 0 711
36 1419 10 0 17 0 711
38 1407 9 0 18 0 711
40 1405 5 0 13 0 711
42 1390 8 0 18 0 711
44 1386 6 0 21 0 711
46 1393 5 0 15 0 711
48 1382 9 0 24 0 711
50 1381 15 0 10 0 711
52 1207 0 181 20 1 711
54 1074 1 301 8 3 711
56 977 1 392 11 3 711
58 912 1 482 10 5 711
60 836 0 559 12 5 711
62 780 0 627 15 5 711
64 739 0 683 8 7 711
66 672 0 746 10 4 711
68 617 0 789 13 8 711
70 571 0 835 11 7 711
72 508 1 891 10 8 711
74 465 0 938 7 7 711
76 419 0 973 6 17 711
78 383 0 1011 5 10 711
80 366 0 1036 7 12 711
82 354 0 1057 8 10 711
84 330 0 1086 1 12 711
86 307 0 1109 2 10 711
88 273 0 1129 11 16 711
90 261 0 1158 3 7 711
92 242 0 1168 4 13 711
94 217 0 1195 4 18 711
96 205 0 1221 3 16 711
98 191 0 1236 3 17 711
100 179 0 1251 6 13 711
102 165 0 1262 4 13 711
104 163 0 1260 2 18 711
106 151 0 1279 2 10 711
108 143 0 1282 4 17 711
110 146 0 1302 3 10 711
112 141 0 1306 6 16 711
114 131 0 1312 6 19 711
116 131 0 1314 2 20 711
118 126 0 1327 4 13 711
120 123 0 1324 4 20 711
122 111 0 1332 6 15 711
124 99 0 1334 2 18 711
126 85 0 1344 3 22 711
128 86 0 1352 0 16 711
130 79 0 1354 3 10 711
132 71 0 1357 2 12 711
134 67 0 1343 0 16 711
136 59 0 1357 2 14 711
138 58 0 1365 0 18 711
140 56 0 1346 1 19 711
142 50 0 1359 3 19 711
144 50 0 1375 3 12 711
146 51 0 1383 0 12 711
148 49 0 1377 2 18 711
150 47 0 1364 1 21 711
152 48 0 1368 0 17 711
154 46 0 1366 4 13 711
156 46 0 1351 1 24 711
158 40 0 1358 3 18 711
160 41 0 1369 0 25 711
162 40 0 1382 0 14 711
164 37 0 1386 1 14 711
166 30 0 1373 2 25 711
168 27 0 1387 1 13 711
170 27 0 1362 0 20 711
172 23 0 1363 1 25 711
174 23 0 1363 1 21 711
176 23 0 1356 0 14 711
178 21 0 1354 0 13 711
180 21 0 1358 0 18 711
182 18 0 1362 2 22 711
184 18 0 1385 0 9 711
186 19 0 1385 0 18 711
188 20 0 1389 1 11 711
190 20 0 1395 0 10 711
192 21 0 1387 0 22 711
194 18 0 1389 0 15 711
196 18 0 1394 0 20 711
198 18 0 1410 0 22 711
200 15 0 1413 1 24 711
