0 378 0 0 0 0 699
2 349 0 0 12 0 699
4.00004 362 0 0 24 0 699
6 381 0 0 10 0 699
8 364 0 0 21 0 699
10 364 0 0 21 0 699
12 349 0 0 10 0 699
14 345 0 0 20 0 699
16 358 0 0 17 0 699
18 346 0 0 15 0 699
20 348 0 0 18 0 699
22 347 0 0 20 0 699
24 340 0 0 14 0 699
26 351 0 0 20 0 699
28 348 0 0 15 0 699
30 336 0 0 19 0 699
32 344 0 0 19 0 699
34 352 0 0 19 0 699
36 369 0 0 16 0 699
38 366 0 0 18 0 699
40 347 0 0 27 0 699
42 336 0 0 13 0 699
44 325 0 0 18 0 699
46 320 0 0 18 0 699
48 335 0 0 13 0 699
50 344 0 0 18 0 699
52 338 0 0 14 1 699
54 323 0 7 18 1 699
56 332 0 12 17 2 699
58 323 0 20 15 2 699
60 313 0 25 19 4 699
62 307 0 35 8 3 699
64 289 0 49 12 1 699
66 272 0 60 14 2 699
68 274 0 68 10 7 699
70 269 0 87 10 6 699
72 248 0 102 16 5 699
74 244 0 116 9 3 699
76 218 0 129 16 8 699
78 208 0 139 11 6 699
80 196 0 146 13 14 699
82 187 0 154 10 14 699
84 185 0 168 4 12 699
86 169 0 177 10 8 699
88 165 0 182 3 13 699
90 158 0 189 3 10 699
92 148 0 212 2 6 699
94 132 0 218 9 19 699
96 131 0 234 4 10 699
98 126 0 238 3 7 699
100 116 0 231 4 9 699
102 110 0 238 4 16 699
104 105 0 238 5 16 699
106 101 0 260 3 11 699
108 93 0 264 5 15 699
110 89 0 270 0 13 699
112 78 0 287 7 11 699
114 75 0 286 3 20 699
116 71 0 289 5 19 699
118 66 0 296 1 16 699
120 62 0 300 1 14 699
122 64 0 292 0 9 699
124 61 0 287 1 21 699
126 58 0 287 2 17 699
128 57 0 297 2 14 699
130 51 0 300 5 11 699
132 52 0 284 1 9 699
134 50 0 293 2 10 699
136 46 0 297 1 16 699
138 45 0 286 1 13 699
140 43 0 289 1 13 699
142 42 0 296 0 14 699
144 40 0 296 1 15 699
146 38 0 310 0 22 699
148 37 0 320 1 21 699
150 34 0 332 1 16 699
152 30 0 335 2 16 699
154 28 0 328 1 14 699
156 30 0 310 0 12 699
158 27 0 312 2 12 699
160 22 0 302 2 11 699
162 18 0 298 3 15 699
164 16 0 306 0 16 699
166 17 0 322 0 8 699
168 15 0 316 1 18 699
170 13 0 318 0 16 699
172 10 0 310 0 17 699
174 11 0 312 0 17 699
176 11 0 323 0 16 699
178 10 0 338 1 13 699
180 6 0 335 1 18 699
182 6 0 358 0 16 699
184 7 0 352 0 22 699
186 7 0 344 1 24 699
188 7 0 338 0 15 699
190 6 0 339 0 12 699
192 6 0 327 0 12 699
194 5 0 332 1 15 699
196 4 0 331 0 20 699
198 4 0 332 0 19 699
200 4 0 326 0 9 699
