0 25 0 0 0
2 23 0 1 0
4.00004 24 0 0 0
6 24 0 0 0
8 24 0 0 0
10 23 0 0 0
12 22 0 1 0
14 23 0 0 0
16 23 0 0 0
18 24 0 0 0
20 23 0 1 0
22 23 0 0 0
24 23 0 0 0
26 22 0 0 0
28 22 0 1 0
30 20 0 1 0
32 21 0 1 0
34 18 1 0 0
36 17 2 1 0
38 17 2 0 0
40 17 3 0 0
42 16 3 0 0
44 18 4 1 0
46 19 4 0 0
48 18 2 0 0
50 18 4 0 0
52 18 4 0 1
54 18 5 0 1
56 17 5 1 1
58 18 7 0 0
60 18 7 0 1
62 18 8 0 0
64 18 8 0 0
66 17 9 0 0
68 17 9 0 0
70 16 9 0 0
72 15 9 0 0
74 14 9 0 0
76 13 9 0 0
78 13 10 0 0
80 12 10 0 0
82 11 10 1 0
84 12 10 0 0
86 12 11 0 0
88 11 11 0 0
90 11 11 0 0
92 11 10 0 0
94 11 10 0 0
96 11 10 0 0
98 10 11 0 0
100 10 12 0 0
102 9 12 0 0
104 8 12 1 1
106 8 11 1 2
108 8 13 0 1
110 8 14 0 0
112 6 13 1 0
114 7 11 0 3
116 7 15 0 0
118 6 14 0 0
120 6 14 0 0
122 6 13 0 0
124 6 13 0 0
126 5 11 1 0
128 5 11 0 0
130 4 11 0 0
132 4 11 0 0
134 3 12 1 0
136 4 13 0 1
138 3 12 1 1
140 3 13 0 1
142 3 15 0 0
144 3 15 0 0
146 3 15 0 0
148 3 16 0 0
150 3 16 0 0
152 3 16 0 0
154 3 17 0 0
156 3 16 0 1
158 3 18 0 0
160 3 16 0 0
162 3 15 0 1
164 3 16 0 0
166 3 16 0 0
168 2 16 1 0
170 3 16 0 2
172 2 17 0 1
174 2 17 1 1
176 2 19 0 0
178 2 19 0 0
180 2 20 0 0
182 2 20 0 0
184 2 20 0 1
186 2 19 0 1
188 2 21 0 0
190 2 20 0 0
192 2 20 0 0
194 2 22 0 0
196 2 19 0 2
198 2 21 0 0
200 2 21 0 1
202 2 23 0 0
204 2 23 0 1
206 2 23 0 2
208 2 24 0 1
210 2 27 0 0
