0 44 0 0 0
2 42 0 1 0
4.00004 42 0 1 0
6 45 0 0 0
8 45 0 0 0
10 43 0 2 0
12 43 0 0 0
14 42 0 1 0
16 42 0 0 0
18 41 0 1 0
20 41 1 1 0
22 42 1 0 0
24 41 1 1 0
26 40 1 1 0
28 40 2 1 0
30 39 2 0 0
32 39 2 0 0
34 39 3 0 0
36 38 3 0 0
38 36 3 0 0
40 35 3 0 0
42 34 3 1 0
44 34 3 0 0
46 33 3 0 0
48 33 3 0 0
50 32 4 0 0
52 30 4 1 0
54 31 4 0 0
56 30 4 0 0
58 30 4 0 0
60 28 4 1 0
62 27 4 0 0
64 27 5 0 0
66 27 5 0 0
68 27 5 0 0
70 26 6 1 0
72 25 5 0 0
74 25 7 0 0
76 24 7 1 1
78 24 8 0 0
80 22 8 0 0
82 22 8 0 0
84 22 8 0 0
86 21 8 1 0
88 22 8 0 0
90 22 9 0 1
92 21 10 1 0
94 22 10 0 0
96 22 10 0 0
98 22 10 0 0
100 22 10 0 0
102 21 10 1 1
104 20 11 0 0
106 20 12 0 0
108 20 11 0 1
110 20 12 0 0
112 20 12 0 0
114 20 13 0 1
116 20 16 0 0
118 20 16 0 0
120 19 16 0 0
122 18 17 0 0
124 18 17 0 1
126 17 17 0 0
128 17 18 0 0
130 17 17 0 0
132 15 16 1 0
134 16 16 0 0
136 16 16 0 0
138 15 16 0 1
140 15 17 0 0
142 14 18 0 0
144 15 19 0 0
146 14 20 0 0
148 14 20 0 0
150 14 19 0 0
152 14 19 0 0
154 14 21 0 0
156 13 21 0 0
158 13 22 0 0
160 13 24 0 0
162 13 24 0 1
164 13 24 0 0
166 13 23 0 0
168 13 22 0 0
170 12 22 0 0
172 12 20 0 0
174 12 21 0 0
176 12 20 0 0
178 11 21 0 0
180 11 21 0 0
182 11 22 0 0
184 11 22 0 0
186 11 20 0 1
188 11 21 0 0
190 10 20 0 0
192 10 20 0 0
194 10 21 0 0
196 10 21 0 1
198 10 23 0 1
200 10 24 0 0
202 10 25 0 0
204 10 26 0 0
206 10 26 0 1
208 9 28 0 0
210 9 27 0 0
