0 96 0 0 0
2 95 0 0 0
4.00004 95 0 0 0
6 95 0 0 0
8 95 0 0 0
10 96 0 0 0
12 84 12 0 0
14 77 18 0 0
16 70 25 0 0
18 63 32 0 0
20 59 36 0 0
22 54 41 0 0
24 50 45 0 0
26 49 46 0 0
28 44 52 1 0
30 42 54 0 0
32 37 59 0 0
34 37 59 0 0
36 33 63 0 0
38 32 65 0 0
40 30 67 0 0
42 27 70 0 0
44 23 74 0 0
46 20 77 0 0
48 17 80 0 0
50 16 82 0 0
52 14 84 0 0
54 13 84 0 0
56 9 88 0 0
58 9 88 0 0
60 8 89 0 0
62 8 89 0 0
64 8 89 0 0
66 8 90 0 0
68 7 91 0 0
70 7 91 0 0
72 8 91 0 0
74 8 91 0 0
76 7 92 0 0
78 7 92 0 0
80 6 93 0 0
82 5 94 0 0
84 5 94 0 0
86 5 94 0 0
88 5 94 0 0
90 4 95 0 0
92 4 95 0 0
94 2 96 0 1
96 2 96 0 0
98 2 96 0 0
100 1 97 0 0
102 1 97 0 0
104 1 97 0 0
106 1 97 0 0
108 1 97 0 0
110 1 97 0 0
112 1 97 0 0
114 1 95 0 1
116 2 96 0 0
118 2 96 0 0
120 2 95 0 0
122 4 95 0 0
124 4 94 0 0
126 4 94 0 0
128 3 95 0 0
130 2 95 0 1
132 2 96 0 0
134 2 96 0 0
136 2 96 0 0
138 2 96 0 0
140 2 96 0 0
142 2 96 0 0
144 2 96 0 0
146 1 96 0 0
148 1 96 0 0
150 1 96 0 0
152 1 96 0 0
154 1 95 0 1
156 1 96 0 0
158 1 96 0 0
160 1 96 0 0
162 0 96 0 1
164 0 96 0 0
166 0 96 0 0
168 0 96 0 0
170 0 96 0 0
172 0 96 0 0
174 1 96 0 0
176 1 96 0 0
178 1 96 0 0
180 1 96 0 0
182 1 96 0 0
184 1 96 0 0
186 1 96 0 0
188 1 96 0 0
190 1 96 0 0
192 1 96 0 0
194 1 96 0 0
196 1 96 0 0
198 1 96 0 0
200 0 97 0 0
202 0 97 0 0
204 0 97 0 0
206 0 97 1 0
208 1 97 0 0
210 1 97 0 0
