0 94 0 0 0
2 93 0 1 0
4.00004 94 0 0 0
6 93 0 0 0
8 93 0 0 0
10 93 0 0 0
12 77 16 0 0
14 67 26 0 0
16 58 35 0 0
18 56 36 0 1
20 51 41 0 0
22 44 48 0 0
24 42 50 0 0
26 40 52 0 0
28 37 55 0 0
30 34 58 0 0
32 27 65 0 0
34 24 68 0 0
36 19 73 0 0
38 19 73 0 0
40 20 73 0 0
42 20 73 0 0
44 17 74 0 1
46 15 76 0 0
48 11 80 0 0
50 9 82 0 0
52 10 82 0 0
54 10 82 0 0
56 10 81 0 0
58 8 83 0 0
60 7 85 1 0
62 9 85 0 0
64 8 85 0 1
66 7 87 1 0
68 6 88 0 0
70 6 88 0 0
72 7 88 0 0
74 6 87 0 0
76 4 89 0 0
78 4 88 0 1
80 4 89 0 0
82 4 90 0 0
84 3 91 0 0
86 2 92 0 0
88 1 93 0 0
90 1 92 0 1
92 1 93 0 0
94 1 92 0 1
96 1 93 0 0
98 1 93 0 0
100 0 94 0 0
102 0 93 0 0
104 1 93 0 0
106 1 93 0 0
108 1 93 0 0
110 1 93 0 0
112 1 93 0 0
114 1 93 0 0
116 1 93 0 0
118 1 93 0 0
120 1 93 0 0
122 1 93 0 0
124 1 92 0 0
126 1 92 0 0
128 1 92 0 0
130 1 92 0 0
132 1 92 0 0
134 1 92 0 0
136 1 92 0 0
138 1 92 0 0
140 1 91 0 1
142 1 91 0 0
144 1 91 0 0
146 1 91 0 0
148 1 91 0 0
150 1 91 0 0
152 1 90 0 1
154 1 91 0 0
156 2 91 0 0
158 3 91 0 0
160 3 91 0 0
162 3 91 0 0
164 3 91 0 0
166 2 92 0 0
168 1 93 0 0
170 1 93 0 0
172 1 93 0 0
174 1 93 0 0
176 0 94 0 0
178 0 93 0 1
180 0 92 0 0
182 0 92 0 0
184 0 92 0 0
186 0 91 0 0
188 0 91 0 0
190 0 91 0 0
192 0 91 0 0
194 0 91 0 0
196 0 91 0 0
198 0 91 0 0
200 0 91 0 0
202 0 91 0 0
204 1 91 0 0
206 1 91 0 0
208 1 90 0 0
210 1 90 0 0
