0 101 0 0 0
2 102 0 1 0
4.00004 103 0 0 0
6 104 0 0 0
8 104 0 0 0
10 104 0 0 0
12 86 18 0 0
14 73 31 0 0
16 65 38 0 0
18 57 46 0 0
20 53 51 0 0
22 44 60 0 0
24 34 70 0 0
26 31 73 0 0
28 27 77 0 0
30 23 81 0 0
32 20 83 1 0
34 18 86 0 0
36 18 86 0 0
38 16 86 0 0
40 13 88 0 0
42 13 89 0 0
44 8 94 0 0
46 8 94 0 0
48 8 94 0 0
50 8 94 0 0
52 7 95 0 0
54 7 93 0 0
56 8 93 0 0
58 6 95 0 0
60 5 97 0 0
62 5 96 0 0
64 5 96 1 0
66 5 97 0 0
68 4 98 0 0
70 4 98 0 0
72 4 98 0 0
74 3 99 0 0
76 1 101 0 0
78 1 101 0 0
80 1 101 0 0
82 1 102 0 0
84 1 102 0 0
86 2 102 0 0
88 1 103 0 0
90 1 103 0 0
92 1 103 0 0
94 1 103 0 0
96 1 103 0 0
98 1 103 0 0
100 1 103 0 0
102 1 102 0 0
104 3 102 0 0
106 3 102 0 0
108 3 102 0 0
110 3 100 0 0
112 3 99 0 0
114 3 99 0 0
116 2 99 0 0
118 2 99 0 0
120 4 99 1 0
122 5 99 0 0
124 4 100 0 0
126 3 99 0 0
128 4 99 0 0
130 4 98 0 0
132 4 98 0 1
134 4 97 0 0
136 3 98 0 0
138 2 99 0 0
140 2 99 0 0
142 2 99 0 0
144 1 99 0 1
146 1 100 0 0
148 1 100 0 0
150 0 101 0 0
152 0 101 0 0
154 0 101 0 0
156 0 101 0 0
158 0 101 0 0
160 1 101 0 0
162 1 101 0 0
164 1 101 0 0
166 1 101 0 0
168 2 101 0 0
170 2 101 0 0
172 2 100 0 0
174 2 100 0 1
176 2 101 0 0
178 2 101 0 0
180 2 100 0 0
182 2 100 0 0
184 2 100 0 0
186 2 100 0 0
188 2 100 0 0
190 2 100 0 0
192 2 99 0 0
194 1 100 0 0
196 1 101 0 0
198 1 100 0 1
200 1 101 0 0
202 1 101 0 0
204 0 102 0 0
206 0 102 0 0
208 0 102 0 0
210 0 102 0 0
