0 118 0 0 0
2 117 0 0 0
4.00004 115 0 2 0
6 117 0 0 0
8 117 0 0 0
10 117 0 0 0
12 101 15 0 0
14 88 28 0 0
16 84 31 0 0
18 77 38 0 0
20 71 45 0 0
22 68 49 0 0
24 65 51 0 0
26 65 51 0 0
28 63 54 0 0
30 62 55 0 0
32 61 56 0 0
34 58 60 0 0
36 50 68 1 0
38 46 73 0 0
40 43 76 0 0
42 43 77 0 0
44 35 84 0 0
46 32 86 0 1
48 31 88 0 0
50 28 91 0 0
52 26 93 0 0
54 23 96 0 0
56 20 99 0 0
58 18 101 0 0
60 16 103 0 0
62 16 103 0 1
64 15 105 0 0
66 13 106 0 1
68 13 107 0 0
70 12 107 1 0
72 12 108 0 0
74 12 107 0 1
76 11 109 0 0
78 10 110 0 0
80 10 110 0 0
82 10 110 0 0
84 10 110 0 0
86 10 110 0 0
88 10 110 0 0
90 9 111 0 0
92 7 113 0 0
94 7 112 0 1
96 5 115 0 0
98 4 116 0 0
100 4 116 0 0
102 3 116 0 0
104 3 116 0 0
106 5 116 0 0
108 3 118 0 0
110 3 118 0 0
112 3 118 0 0
114 3 118 0 0
116 3 118 0 0
118 2 119 0 0
120 3 119 0 0
122 3 119 0 0
124 3 119 0 0
126 2 120 0 0
128 2 120 0 0
130 2 118 0 1
132 2 119 0 0
134 2 119 0 0
136 2 119 0 0
138 2 118 0 1
140 2 118 0 0
142 1 119 1 0
144 2 118 1 0
146 3 119 0 0
148 3 119 0 0
150 3 119 0 0
152 3 118 0 0
154 3 118 0 0
156 3 118 0 0
158 3 118 1 0
160 4 118 0 0
162 4 117 0 0
164 4 117 0 0
166 4 116 0 0
168 4 116 1 0
170 5 116 0 0
172 4 117 0 0
174 4 117 0 0
176 4 117 0 0
178 4 117 0 0
180 3 118 0 0
182 3 118 0 0
184 3 118 0 0
186 3 118 0 0
188 3 118 0 0
190 3 118 0 0
192 2 119 0 0
194 2 118 0 0
196 2 116 0 1
198 1 118 0 0
200 1 118 0 0
202 1 118 0 0
204 1 118 0 0
206 1 118 0 0
208 1 118 0 0
210 1 118 0 0
