0 109 0 0 0
2 108 0 0 0
4.00004 107 0 0 0
6 107 0 0 0
8 106 0 1 0
10 107 0 0 0
12 86 20 1 0
14 76 30 0 0
16 71 34 0 0
18 59 46 0 0
20 53 52 0 0
22 50 56 0 0
24 47 58 0 1
26 45 61 0 0
28 38 68 0 0
30 36 70 0 0
32 32 74 0 0
34 30 76 0 0
36 28 77 0 0
38 27 78 0 0
40 25 80 0 0
42 20 86 0 0
44 19 86 0 1
46 16 90 0 0
48 15 90 0 0
50 14 90 0 0
52 13 92 0 0
54 12 93 0 0
56 11 94 0 0
58 9 96 0 0
60 7 98 0 0
62 6 99 0 0
64 6 97 0 1
66 6 98 0 0
68 7 98 0 0
70 7 98 0 0
72 6 99 0 0
74 5 100 0 0
76 4 101 0 0
78 4 101 0 0
80 3 101 0 0
82 3 101 0 0
84 1 103 0 0
86 1 102 0 0
88 1 103 0 0
90 1 103 0 0
92 1 103 0 0
94 1 103 0 0
96 3 103 0 0
98 3 103 0 0
100 3 103 0 0
102 3 103 0 0
104 3 103 0 0
106 3 103 0 0
108 3 103 0 0
110 2 104 0 0
112 2 104 0 0
114 2 104 0 0
116 0 106 0 0
118 0 105 0 1
120 0 106 0 0
122 1 106 0 0
124 1 106 0 0
126 1 106 0 0
128 1 106 0 0
130 1 106 0 0
132 0 107 0 0
134 0 107 0 0
136 0 107 0 0
138 0 107 0 0
140 0 107 0 0
142 0 107 0 0
144 0 107 0 0
146 0 107 0 0
148 1 106 0 0
150 2 106 0 0
152 2 106 0 0
154 1 107 0 0
156 1 107 0 0
158 1 107 0 0
160 1 107 0 0
162 1 107 0 0
164 1 107 0 0
166 1 107 0 0
168 1 107 0 0
170 1 108 0 0
172 1 106 0 0
174 0 107 0 0
176 0 107 0 0
178 0 107 0 0
180 0 107 0 0
182 0 107 0 0
184 0 107 0 0
186 1 107 0 0
188 1 107 0 0
190 1 107 0 0
192 1 107 0 0
194 1 107 0 0
196 2 106 0 1
198 2 105 0 2
200 2 106 0 1
202 2 107 0 0
204 2 106 0 0
206 1 107 0 0
208 1 107 0 0
210 2 107 0 0
