0 106 0 0 0
2 104 0 1 0
4.00004 105 0 0 0
6 105 0 0 0
8 105 0 0 0
10 105 0 0 0
12 91 14 0 0
14 84 21 0 0
16 76 30 0 0
18 70 36 0 0
20 62 44 0 0
22 57 49 0 0
24 53 53 0 0
26 49 57 0 0
28 47 59 0 0
30 44 62 0 0
32 41 65 0 0
34 40 66 1 0
36 37 69 0 0
38 36 70 0 0
40 33 73 1 0
42 34 73 0 0
44 32 75 0 0
46 28 78 0 0
48 26 79 0 0
50 25 80 0 0
52 24 81 0 0
54 22 83 0 0
56 22 84 0 0
58 20 86 0 0
60 20 86 0 0
62 20 86 0 0
64 20 86 0 0
66 20 86 0 0
68 20 86 0 0
70 16 90 0 0
72 15 91 0 0
74 14 93 0 0
76 12 95 0 0
78 10 97 0 0
80 10 97 0 0
82 11 97 0 0
84 8 100 0 0
86 6 102 0 0
88 5 103 0 1
90 5 103 0 0
92 6 103 0 0
94 6 103 0 0
96 5 104 0 0
98 5 104 0 0
100 5 104 0 0
102 5 104 0 0
104 5 103 0 0
106 5 104 0 0
108 5 104 0 0
110 4 105 0 0
112 4 104 0 1
114 4 105 0 0
116 4 105 0 0
118 6 104 0 0
120 6 103 0 1
122 6 104 0 0
124 5 105 0 0
126 5 105 0 0
128 5 105 0 0
130 5 105 0 0
132 4 106 0 0
134 4 106 0 0
136 4 106 1 0
138 5 106 0 0
140 5 106 0 0
142 4 107 0 0
144 4 107 0 0
146 4 107 0 0
148 4 107 0 0
150 4 106 0 0
152 4 106 0 0
154 4 106 0 0
156 3 107 0 0
158 3 107 0 0
160 3 107 0 0
162 2 108 0 0
164 2 108 0 0
166 2 107 0 0
168 2 107 0 0
170 2 107 0 0
172 2 107 0 0
174 1 108 0 0
176 1 108 0 0
178 1 108 0 0
180 2 108 0 0
182 3 108 0 0
184 3 108 0 0
186 3 108 0 0
188 3 108 0 0
190 3 108 0 0
192 4 108 0 0
194 4 107 0 1
196 4 108 0 0
198 3 109 0 0
200 4 109 0 0
202 3 110 0 0
204 3 110 0 0
206 2 111 0 0
208 2 111 0 0
210 2 111 0 0
