0 884 0 0 0 0 0
2 852 0 0 24 0 0
4.00004 852 0 0 24 0 0
6 851 0 0 26 0 0
8 854 0 0 21 0 0
10 852 0 0 21 0 0
12 842 0 0 31 0 0
14 842 0 0 25 0 0
16 844 0 0 25 0 0
18 840 0 0 19 0 0
20 833 0 0 27 0 0
22 838 0 0 18 0 0
24 841 0 0 15 0 0
26 829 0 0 25 0 0
28 839 0 0 27 0 0
30 841 0 0 24 0 0
32 842 0 0 23 0 0
34 848 0 0 17 0 0
36 835 0 0 26 0 0
38 841 0 0 21 0 0
40 837 0 0 28 0 0
42 843 0 0 28 0 0
44 848 0 0 20 0 0
46 849 0 0 20 0 0
48 853 0 0 15 0 0
50 846 0 0 18 0 0
52 837 0 13 21 3 0
54 832 0 19 13 6 0
56 828 0 25 10 8 0
58 817 0 37 14 12 0
60 814 0 42 10 13 0
62 809 0 41 9 12 0
64 802 0 48 9 11 0
66 792 0 61 15 7 0
68 797 0 62 7 9 0
70 789 0 74 13 11 0
72 782 0 72 16 10 0
74 788 0 76 8 13 0
76 777 0 84 12 10 0
78 769 0 84 15 16 0
80 771 0 94 11 11 0
82 770 0 102 9 5 0
84 757 0 106 14 9 0
86 753 0 112 15 11 0
88 751 0 111 14 20 0
90 749 0 129 14 9 0
92 735 0 127 16 8 0
94 739 0 141 4 16 0
96 726 0 147 12 12 0
98 721 0 148 9 14 0
100 714 0 153 11 17 0
102 706 0 157 11 11 0
104 702 0 165 9 9 0
106 691 0 168 14 16 0
108 681 0 185 12 7 0
110 676 0 189 11 11 0
112 671 0 185 13 11 0
114 666 0 201 12 10 0
116 661 0 204 9 15 0
118 654 0 210 12 19 0
120 654 0 221 8 14 0
122 645 0 225 12 12 0
124 644 0 228 8 14 0
126 643 0 229 4 15 0
128 633 0 238 12 8 0
130 629 0 243 12 8 0
132 630 0 238 8 14 0
134 623 0 253 11 8 0
136 616 0 255 14 11 0
138 610 0 262 14 7 0
140 610 0 259 6 13 0
142 607 0 266 5 13 0
144 602 0 269 9 18 0
146 600 0 273 7 14 0
148 596 0 283 9 10 0
150 594 0 279 6 13 0
152 589 0 289 8 8 0
154 583 0 302 7 8 0
156 580 0 294 5 12 0
158 565 0 310 15 16 0
160 558 0 303 15 13 0
162 561 0 309 8 17 0
164 547 0 308 17 23 0
166 550 0 324 10 18 0
168 548 0 330 8 10 0
170 543 0 329 11 21 0
172 536 0 331 13 14 0
174 534 0 338 11 9 0
176 530 0 339 10 18 0
178 531 0 338 4 14 0
180 528 0 347 6 13 0
182 527 0 345 7 13 0
184 522 0 356 7 10 0
186 516 0 356 8 20 0
188 515 0 364 2 18 0
190 502 0 366 9 13 0
192 500 0 384 9 9 0
194 499 0 380 7 12 0
196 498 0 384 7 10 0
198 493 0 384 9 19 0
200 488 0 384 9 12 0
