0 1127 0 0 0 0 0
2 1054 31 0 35 0 4
4.00004 1050 32 0 36 0 5
6 1059 39 0 25 0 5
8 1065 28 0 23 0 6
10 1047 31 0 32 0 11
12 1049 39 0 30 0 4
14 1051 37 0 30 0 8
16 1056 39 0 28 0 5
18 1046 36 0 36 0 5
20 1042 37 0 34 0 4
22 1039 25 0 44 0 6
24 1039 37 0 33 0 8
26 1032 41 0 32 0 10
28 1042 34 0 27 0 6
30 1037 34 0 32 0 2
32 1038 37 0 30 0 8
34 1050 31 0 24 0 4
36 1044 32 0 27 0 6
38 1039 33 0 32 0 7
40 1034 29 0 34 0 7
42 1027 34 0 38 0 4
44 1024 40 0 29 0 8
46 1033 40 0 20 0 4
48 1020 36 0 37 0 2
50 1025 39 0 28 0 7
52 1009 0 54 16 18 0
54 993 0 59 19 21 0
56 976 0 86 17 22 0
58 972 0 104 6 30 0
60 955 0 119 13 16 0
62 943 0 112 12 34 0
64 932 0 125 12 25 0
66 918 0 132 15 21 1
68 904 0 148 11 22 0
70 888 0 157 13 19 1
72 874 0 163 14 21 0
74 862 0 163 18 24 0
76 865 0 177 9 24 0
78 848 0 194 14 17 0
80 840 0 202 10 18 0
82 831 0 215 7 16 0
84 830 0 223 4 18 0
86 812 0 230 11 19 0
88 809 0 232 10 13 0
90 797 0 236 13 19 0
92 785 0 252 13 16 0
94 769 0 257 15 27 0
96 761 0 267 12 23 0
98 756 0 279 13 22 0
100 747 0 293 13 21 0
102 736 0 308 12 19 0
104 730 0 320 10 22 0
106 722 0 324 11 20 0
108 715 0 322 8 24 0
110 698 0 335 11 22 0
112 690 0 337 9 25 0
114 685 0 352 10 18 0
116 684 0 355 4 26 0
118 674 0 372 6 18 0
120 663 0 373 8 28 0
122 654 0 387 11 17 0
124 654 0 386 4 32 0
126 639 0 404 11 24 0
128 627 0 414 13 26 0
130 618 0 427 12 23 0
132 607 0 437 8 27 0
134 602 0 441 5 37 0
136 593 0 455 5 32 0
138 585 0 457 7 28 0
140 579 0 465 9 28 0
142 577 0 478 5 20 0
144 572 0 475 5 23 0
146 562 0 491 6 18 0
148 551 0 493 9 31 0
150 542 0 487 13 33 0
152 538 0 504 6 28 0
154 526 0 508 7 30 0
156 519 0 520 10 26 0
158 511 0 524 7 33 0
160 505 0 530 4 29 0
162 496 0 533 9 31 0
164 496 0 533 6 32 0
166 493 0 541 3 34 0
168 481 0 543 10 35 0
170 482 0 543 6 38 0
172 478 0 555 6 26 0
174 469 0 553 10 40 0
176 470 0 556 4 29 0
178 464 0 557 7 27 0
180 464 0 565 3 24 0
182 454 0 581 6 24 0
184 451 0 581 4 27 0
186 445 0 583 7 24 0
188 435 0 590 8 17 0
190 434 0 580 2 37 0
192 427 0 601 4 22 0
194 415 0 613 9 22 0
196 406 0 615 8 30 0
198 405 0 610 2 41 0
200 400 0 629 4 30 0
