0 1147 0 0 0 0 0
2 1107 22 0 9 0 3
4.00004 1106 30 0 10 0 4
6 1103 27 0 13 0 3
8 1110 33 0 7 0 3
10 1113 24 0 11 0 6
12 1118 32 0 11 0 3
14 1120 28 0 12 0 1
16 1113 30 0 15 0 3
18 1133 25 0 16 0 8
20 1147 26 0 15 0 6
22 1151 27 0 11 0 1
24 1151 16 0 9 0 9
26 1146 22 0 10 0 6
28 1147 25 0 9 0 3
30 1138 21 0 15 0 8
32 1151 20 0 7 0 2
34 1149 17 0 12 0 12
36 1145 21 0 13 0 1
38 1153 17 0 6 0 6
40 1154 19 0 6 0 5
42 1156 22 0 10 0 3
44 1149 19 0 10 0 5
46 1152 15 0 7 0 4
48 1144 27 0 15 0 4
50 1137 40 0 16 0 1
52 1107 0 74 4 8 0
54 1084 0 84 8 9 0
56 1067 0 106 6 10 0
58 1048 0 131 7 8 1
60 1038 0 140 2 16 0
62 1023 0 157 4 7 0
64 1010 0 163 4 12 0
66 996 0 186 2 18 0
68 983 0 209 4 12 0
70 964 0 215 6 13 0
72 950 0 227 7 17 0
74 934 0 242 7 19 0
76 925 0 263 6 9 0
78 911 1 280 3 12 0
80 888 0 294 6 13 0
82 874 0 322 3 10 0
84 861 0 325 4 15 0
86 845 0 345 5 11 0
88 835 0 368 2 17 0
90 816 0 372 4 17 0
92 798 0 389 4 22 0
94 783 0 419 3 10 0
96 768 0 412 6 17 0
98 755 0 428 2 15 0
100 741 0 446 4 11 0
102 727 0 454 6 12 0
104 717 0 462 3 12 0
106 711 0 473 2 15 0
108 700 0 485 3 15 0
110 687 0 489 4 8 0
112 678 0 502 5 7 0
114 671 0 511 4 11 0
116 662 0 525 3 14 0
118 644 0 536 7 17 0
120 638 0 549 4 16 0
122 630 0 560 4 17 0
124 626 0 563 0 19 0
126 611 0 577 2 12 0
128 604 0 582 0 12 0
130 588 0 592 7 8 0
132 583 0 600 0 12 0
134 568 0 616 5 9 0
136 560 0 620 3 15 0
138 553 0 636 1 10 0
140 545 0 647 5 4 0
142 539 0 638 2 19 0
144 531 0 664 2 14 0
146 524 0 676 3 12 0
148 518 0 675 1 17 0
150 506 0 697 4 12 0
152 502 0 693 3 19 0
154 496 0 708 2 12 0
156 490 0 715 0 15 0
158 478 0 735 5 5 0
160 475 0 731 1 14 0
162 469 0 743 0 13 0
164 462 0 755 2 9 0
166 454 0 756 2 16 0
168 446 0 760 4 16 0
170 442 0 773 1 14 0
172 436 0 783 2 19 0
174 429 0 785 1 16 0
176 417 1 809 4 10 0
178 410 0 821 2 11 0
180 408 0 819 2 17 0
182 405 0 818 1 17 0
184 401 0 827 0 11 0
186 395 0 834 1 13 0
188 390 0 836 3 15 0
190 383 0 836 2 11 0
192 376 0 851 3 11 0
194 373 0 840 2 18 0
196 370 0 849 1 13 0
198 364 0 859 4 15 0
200 355 0 868 3 16 0
