0 874 0 0 0 0 0
2 834 0 0 32 0 0
4.00004 846 0 0 23 0 0
6 849 0 0 34 0 0
8 856 0 0 20 0 0
10 830 0 0 35 0 0
12 835 0 0 32 0 0
14 846 0 0 29 0 0
16 842 0 0 38 0 0
18 842 0 0 38 0 0
20 850 0 0 26 0 0
22 840 0 0 30 0 0
24 842 0 0 36 0 0
26 838 0 0 34 0 0
28 862 0 0 22 0 0
30 851 0 0 38 0 0
32 836 0 0 39 0 0
34 841 0 0 39 0 0
36 841 0 0 27 0 0
38 854 0 0 23 0 0
40 859 0 0 23 0 0
42 846 0 0 32 0 0
44 833 0 0 40 0 0
46 842 0 0 30 0 0
48 848 0 0 34 0 0
50 856 0 0 36 0 0
52 846 0 17 29 1 0
54 838 0 27 18 5 0
56 821 0 35 23 2 0
58 810 0 37 19 9 0
60 790 0 56 30 10 0
62 776 0 71 28 6 0
64 765 0 71 21 14 0
66 759 0 84 19 10 0
68 746 0 90 21 12 0
70 743 0 97 18 16 0
72 737 0 101 18 12 0
74 721 0 114 19 13 0
76 720 0 112 14 15 0
78 712 0 132 13 14 0
80 691 0 126 27 25 0
82 695 0 145 20 17 0
84 681 0 150 22 15 0
86 664 0 153 33 12 0
88 653 0 155 27 16 0
90 654 0 178 16 7 0
92 644 0 180 19 8 0
94 642 0 181 16 16 0
96 627 0 200 20 11 0
98 632 0 199 9 16 0
100 617 0 203 17 7 0
102 616 0 207 9 18 0
104 601 0 205 18 15 0
106 598 0 231 17 11 0
108 588 0 233 23 12 0
110 587 0 244 17 15 0
112 584 0 257 16 16 0
114 571 0 270 18 19 0
116 562 0 266 22 22 0
118 554 0 275 25 19 0
120 563 0 278 14 22 0
122 554 0 285 13 23 0
124 555 0 292 9 12 0
126 541 0 291 14 9 0
128 542 0 297 8 11 0
130 525 0 304 14 18 0
132 521 0 302 11 24 0
134 512 0 313 14 25 0
136 507 0 323 10 20 0
138 495 0 331 17 15 0
140 485 0 318 19 21 0
142 483 0 326 15 24 0
144 486 0 333 8 15 0
146 470 0 335 21 19 0
148 479 0 342 6 27 0
150 467 0 353 13 17 0
152 465 0 364 12 14 0
154 454 0 365 16 22 0
156 454 0 363 11 23 0
158 445 0 375 12 14 0
160 441 0 371 9 26 0
162 437 0 375 6 27 0
164 425 0 373 12 30 0
166 426 0 390 10 19 0
168 424 0 387 7 24 0
170 419 0 381 11 28 0
172 412 0 391 12 27 0
174 411 0 383 11 39 0
176 407 0 408 8 24 0
178 404 0 411 9 25 0
180 402 0 403 8 31 0
182 394 0 421 13 19 0
184 389 0 420 15 19 0
186 398 0 420 3 24 0
188 388 0 420 9 29 0
190 385 0 436 10 20 0
192 384 0 443 7 15 0
194 371 0 430 16 27 0
196 368 0 448 16 13 0
198 369 0 440 10 23 0
200 365 0 443 8 21 0
