0 1020 0 0 0 0 0
2 957 30 0 28 0 1
4.00004 951 36 0 33 0 1
6 960 28 0 31 0 0
8 964 33 0 24 0 3
10 971 30 0 19 0 1
12 964 34 0 25 0 1
14 957 31 0 30 0 5
16 963 38 0 24 0 2
18 957 36 0 31 0 2
20 967 23 0 26 0 0
22 960 29 0 22 0 1
24 949 36 0 32 0 0
26 955 35 0 26 0 0
28 947 40 0 24 0 1
30 952 29 0 31 0 0
32 945 39 0 32 0 1
34 958 38 0 17 0 3
36 952 29 0 34 0 3
38 953 35 0 24 0 3
40 946 36 0 36 0 1
42 950 35 0 22 0 1
44 945 33 0 28 0 1
46 935 39 0 27 0 1
48 939 33 0 30 0 2
50 949 32 0 22 0 2
52 929 0 45 18 10 0
54 921 1 55 12 17 0
56 910 0 65 11 19 0
58 905 0 67 9 20 0
60 899 0 81 11 23 0
62 894 0 78 12 18 0
64 878 0 92 13 16 0
66 864 0 98 18 15 0
68 867 0 96 11 17 0
70 855 1 109 11 19 0
72 853 0 114 11 14 0
74 840 0 123 16 19 0
76 836 0 137 10 12 0
78 825 0 143 13 16 0
80 818 0 146 12 14 0
82 806 0 160 10 17 0
84 797 0 167 8 24 0
86 783 0 182 9 16 0
88 776 0 181 13 21 0
90 775 0 188 8 18 0
92 762 0 191 7 24 0
94 751 0 204 10 17 0
96 753 0 210 2 11 0
98 746 0 205 7 13 0
100 737 0 218 8 12 0
102 732 0 215 9 21 0
104 726 0 228 7 18 0
106 715 0 228 12 26 0
108 713 0 237 8 16 0
110 704 0 253 6 19 0
112 693 0 251 8 22 0
114 686 0 267 9 12 0
116 678 0 267 9 16 0
118 664 0 280 13 20 0
120 667 0 284 5 18 0
122 658 0 291 9 13 0
124 650 0 297 9 20 0
126 651 0 294 4 19 0
128 642 0 301 7 19 0
130 638 0 308 6 11 0
132 633 0 307 6 17 0
134 628 0 304 7 22 0
136 622 0 319 7 14 1
138 616 0 323 7 15 0
140 604 1 335 9 15 0
142 600 0 347 8 9 0
144 595 0 345 5 11 0
146 593 0 355 5 14 0
148 586 0 356 9 19 0
150 580 1 368 8 15 0
152 575 0 359 8 16 0
154 566 0 373 9 17 1
156 565 0 378 4 14 0
158 555 0 376 9 18 0
160 552 0 382 7 26 0
162 545 0 385 10 23 0
164 539 0 398 8 16 0
166 528 0 399 11 23 0
168 529 0 409 5 23 0
170 522 0 416 7 12 0
172 516 0 418 6 22 0
174 511 0 415 8 24 0
176 509 0 419 5 17 0
178 499 0 431 8 18 0
180 498 0 440 2 16 0
182 491 0 450 4 12 0
184 485 0 442 8 25 0
186 486 0 460 3 12 0
188 477 0 468 5 14 0
190 471 0 474 4 18 0
192 469 0 482 3 16 0
194 463 0 487 5 10 0
196 456 0 478 8 21 0
198 456 0 487 3 20 0
200 453 0 491 3 21 0
