0 1103 0 0 0 0 0
2 1052 30 0 22 0 0
4.00004 1060 28 0 22 0 0
6 1048 41 0 30 0 0
8 1058 43 0 20 0 0
10 1050 37 0 27 0 0
12 1049 37 0 21 0 0
14 1038 37 0 28 0 0
16 1041 35 0 26 0 0
18 1041 34 0 23 0 0
20 1041 36 0 23 0 0
22 1027 36 0 31 0 0
24 1053 36 0 17 0 0
26 1034 39 0 31 0 0
28 1050 38 0 19 0 0
30 1035 39 0 28 0 0
32 1028 47 0 32 0 0
34 1062 38 0 11 0 0
36 1054 39 0 25 0 0
38 1043 46 0 28 0 0
40 1038 44 0 22 0 0
42 1033 51 0 26 0 0
44 1039 44 0 24 0 0
46 1042 41 0 20 0 0
48 1039 38 0 20 0 0
50 1043 37 0 18 0 0
52 991 1 84 13 7 0
54 990 1 89 5 13 0
56 976 0 94 13 13 0
58 972 0 105 12 15 0
60 961 0 133 5 17 0
62 949 0 136 8 23 0
64 927 0 156 12 14 0
66 918 0 164 11 17 0
68 904 0 176 14 13 0
70 902 0 176 9 21 0
72 892 0 183 11 25 0
74 888 0 196 8 10 0
76 879 0 203 10 18 0
78 873 0 213 8 13 0
80 873 0 219 3 14 0
82 866 0 219 8 16 0
84 859 0 221 7 17 0
86 852 0 232 5 12 0
88 847 0 226 6 22 0
90 841 0 233 9 19 0
92 836 0 246 6 12 0
94 827 0 257 8 16 0
96 815 0 265 14 17 0
98 817 0 265 3 17 0
100 801 0 273 10 16 0
102 801 0 281 6 13 0
104 796 0 280 7 20 0
106 790 0 282 8 16 0
108 788 1 294 4 21 0
110 777 0 292 6 24 0
112 768 0 297 9 26 0
114 767 0 305 6 18 0
116 762 0 317 3 19 0
118 758 0 334 3 17 0
120 744 0 342 8 13 0
122 742 0 347 2 21 0
124 733 0 367 8 10 0
126 726 1 362 7 20 0
128 724 0 377 4 20 0
130 723 0 371 3 20 0
132 713 0 380 7 22 0
134 711 0 388 2 14 0
136 706 0 388 5 15 0
138 699 0 399 8 12 0
140 695 0 400 6 16 0
142 683 0 412 13 10 0
144 679 0 413 7 14 0
146 675 0 423 7 17 0
148 672 0 433 4 19 0
150 665 0 449 6 24 0
152 659 0 459 6 15 0
154 654 0 448 5 18 0
156 653 0 457 4 12 0
158 644 0 443 7 24 0
160 643 0 456 3 16 0
162 639 0 456 4 21 0
164 634 0 465 7 21 0
166 629 0 473 5 25 0
168 621 0 488 5 17 0
170 613 1 499 7 16 0
172 613 0 497 2 26 0
174 601 0 500 10 15 0
176 594 0 511 7 24 0
178 589 0 520 5 24 0
180 581 0 523 8 15 0
182 576 0 520 7 23 0
184 568 0 539 9 14 0
186 560 0 531 10 16 0
188 562 0 525 2 22 0
190 554 0 526 6 27 0
192 553 0 541 4 16 0
194 551 0 545 4 16 0
196 545 0 556 6 12 0
198 539 0 557 6 11 0
200 535 0 555 7 12 0
