0 1020 0 0 0 0 0
2 965 45 0 28 0 0
4.00004 975 41 0 25 0 0
6 969 36 0 35 0 0
8 980 37 0 24 0 0
10 973 43 0 29 0 0
12 967 41 0 38 0 0
14 969 37 0 28 0 0
16 966 41 0 27 0 0
18 962 47 0 37 0 0
20 956 50 0 36 0 0
22 970 45 0 22 0 1
24 959 40 0 32 0 0
26 965 47 0 29 0 0
28 967 37 0 30 0 0
30 968 33 0 30 0 0
32 958 36 0 33 0 0
34 950 43 0 32 0 0
36 956 38 0 33 0 0
38 945 50 0 28 0 0
40 962 47 0 24 0 0
42 961 38 0 30 0 0
44 957 39 0 29 0 0
46 957 30 0 36 0 0
48 962 38 0 23 0 0
50 955 37 0 25 0 0
52 945 0 53 9 11 0
54 924 0 73 10 14 0
56 917 0 86 7 10 0
58 893 0 92 24 12 0
60 891 0 105 14 12 0
62 877 0 127 14 12 0
64 872 0 131 13 12 0
66 873 0 136 1 16 0
68 853 0 146 6 13 0
70 846 0 155 7 12 0
72 833 0 154 13 18 0
74 827 1 173 6 13 0
76 819 0 184 8 15 0
78 800 0 204 11 10 0
80 792 0 202 8 21 0
82 780 0 207 13 21 0
84 777 0 217 8 19 0
86 763 0 228 6 18 0
88 754 0 237 8 15 0
90 742 0 244 8 22 0
92 726 0 236 17 23 0
94 724 0 258 8 17 0
96 713 0 264 11 19 0
98 710 0 278 7 9 0
100 696 0 288 12 15 0
102 689 0 279 14 27 0
104 686 0 292 10 11 0
106 674 0 300 10 19 0
108 671 0 309 7 22 0
110 656 0 314 9 27 0
112 654 0 314 7 23 0
114 644 0 328 12 16 0
116 637 0 342 7 11 0
118 629 1 335 7 29 0
120 621 0 348 8 21 0
122 614 0 360 8 19 0
124 610 0 361 6 20 0
126 599 0 371 12 25 0
128 599 0 376 4 24 0
130 588 0 394 9 14 0
132 580 0 393 8 20 0
134 575 0 406 9 11 0
136 568 0 406 9 23 0
138 557 0 417 11 19 0
140 550 0 426 11 18 0
142 543 0 432 10 15 0
144 541 0 445 3 28 0
146 533 0 447 5 32 0
148 525 0 464 8 23 0
150 522 0 476 6 20 0
152 512 0 481 11 22 0
154 508 0 494 5 28 0
156 501 1 491 7 32 0
158 493 0 516 6 15 0
160 489 0 509 7 18 0
162 483 0 503 6 30 0
164 481 0 506 4 21 0
166 467 0 505 15 23 0
168 462 0 524 10 15 0
170 460 0 535 4 25 0
172 448 0 542 7 17 0
174 442 0 541 6 25 0
176 437 0 548 6 27 0
178 437 0 555 1 26 0
180 425 0 555 7 26 0
182 415 0 559 13 27 0
184 418 0 571 3 35 0
186 409 0 588 6 29 0
188 409 0 575 5 39 0
190 401 0 591 7 26 0
192 401 0 590 8 26 0
194 392 0 604 8 23 0
196 388 0 612 7 27 0
198 385 0 612 7 32 0
200 379 0 608 8 33 0
