0 1002 0 0 0 0 0
2 927 45 0 30 0 0
4.00004 932 54 0 32 0 0
6 945 37 0 30 0 1
8 939 36 0 31 0 0
10 933 42 0 31 0 0
12 932 47 0 30 0 0
14 937 43 0 31 0 0
16 938 41 0 26 0 0
18 946 42 0 31 0 0
20 949 43 0 32 0 0
22 935 59 0 28 0 1
24 939 50 0 31 0 0
26 944 47 0 30 0 1
28 945 48 0 38 0 1
30 955 47 0 31 0 2
32 958 53 0 28 0 0
34 955 46 0 32 0 0
36 962 40 0 37 0 0
38 965 45 0 34 0 1
40 958 49 0 30 0 1
42 963 45 0 30 0 0
44 954 50 0 31 0 0
46 949 47 0 35 0 0
48 952 52 0 29 0 0
50 965 57 0 29 0 0
52 927 0 94 18 18 0
54 916 0 105 14 13 0
56 891 0 113 17 30 0
58 878 1 131 13 19 0
60 865 0 155 17 16 0
62 856 0 158 9 21 0
64 850 0 175 9 19 0
66 847 0 167 7 26 0
68 841 0 177 7 23 0
70 830 0 185 13 21 0
72 821 0 205 9 24 0
74 808 0 221 8 28 0
76 794 0 218 16 17 0
78 786 1 240 13 16 0
80 782 0 251 8 15 0
82 774 0 256 4 20 0
84 760 1 259 9 30 0
86 755 0 283 10 22 0
88 746 0 283 9 29 0
90 733 0 311 10 18 0
92 726 0 301 8 22 0
94 719 0 300 8 29 0
96 706 0 318 9 33 0
98 697 1 338 8 19 0
100 688 0 355 2 21 0
102 674 0 355 11 27 0
104 669 0 373 7 26 0
106 661 0 387 6 21 0
108 656 0 393 4 20 0
110 639 0 400 10 22 0
112 630 0 407 10 21 0
114 623 0 414 10 21 0
116 611 0 436 12 23 0
118 606 0 436 8 28 0
120 595 0 441 9 24 0
122 578 0 452 17 22 0
124 578 0 469 6 27 0
126 569 0 484 7 24 0
128 562 0 505 8 19 0
130 554 0 494 9 24 0
132 551 0 504 10 24 0
134 544 0 515 5 23 0
136 535 0 512 9 30 0
138 535 0 517 3 18 0
140 527 1 525 4 24 0
142 525 1 524 4 39 0
144 516 0 546 6 30 0
146 516 0 540 0 28 0
148 506 0 544 6 16 0
150 504 0 545 3 25 0
152 496 0 537 8 31 0
154 495 0 554 3 23 0
156 492 0 553 6 22 0
158 487 0 558 6 26 0
160 484 0 571 2 25 0
162 476 0 576 3 22 0
164 474 0 580 5 29 0
166 462 0 599 13 23 0
168 456 0 600 13 35 0
170 449 0 617 8 29 0
172 442 0 616 6 35 0
174 439 0 617 7 36 0
176 440 0 636 4 23 0
178 428 0 635 8 27 0
180 424 0 637 8 23 0
182 421 0 621 4 44 0
184 413 0 644 10 27 0
186 412 0 638 4 35 0
188 409 0 651 3 26 0
190 408 1 665 3 19 0
192 401 0 668 6 26 0
194 395 0 676 4 27 0
196 391 0 679 5 24 0
198 388 0 671 4 28 0
200 379 0 677 8 29 0
