0 832 0 0 0 0 0
2 810 0 0 26 0 0
4.00004 818 0 0 23 0 0
6 809 0 0 31 0 0
8 802 0 0 26 0 0
10 790 0 0 39 0 0
12 808 0 0 25 0 0
14 804 0 0 29 0 0
16 806 0 0 27 0 0
18 806 0 0 21 0 0
20 799 0 0 24 0 0
22 805 0 0 24 0 0
24 789 0 0 42 0 0
26 802 0 0 26 0 0
28 798 0 0 26 0 0
30 796 0 0 24 0 0
32 792 0 0 23 0 0
34 792 0 0 25 0 0
36 790 0 0 36 0 0
38 794 0 0 31 0 0
40 798 0 0 24 0 0
42 798 0 0 24 0 0
44 791 0 0 27 0 0
46 784 0 0 34 0 0
48 789 0 0 30 0 0
50 801 0 0 27 0 0
52 789 0 11 19 4 0
54 766 0 30 25 4 0
56 759 0 40 22 7 0
58 753 0 63 15 4 0
60 741 0 63 18 10 0
62 738 0 69 16 8 0
64 735 0 73 14 10 0
66 730 0 72 18 17 0
68 724 0 81 17 8 0
70 718 0 77 18 10 0
72 713 0 86 18 12 0
74 703 0 100 18 15 0
76 704 0 97 12 12 0
78 691 0 107 15 12 0
80 693 0 117 9 12 0
82 689 0 117 12 13 0
84 684 0 121 11 12 0
86 676 0 120 15 21 0
88 657 0 135 26 11 0
90 656 0 146 21 13 0
92 657 0 148 14 9 0
94 645 0 147 20 13 0
96 637 0 148 21 21 0
98 638 0 164 12 14 0
100 631 0 167 16 13 0
102 624 0 172 17 13 0
104 614 0 179 19 16 0
106 619 0 180 11 14 0
108 610 0 187 11 10 0
110 607 0 190 14 9 0
112 604 0 197 8 12 0
114 592 0 203 10 16 0
116 584 0 205 15 8 0
118 584 0 212 12 15 0
120 579 0 215 13 11 0
122 573 0 224 12 11 0
124 564 0 232 16 16 0
126 552 0 244 21 17 0
128 562 0 241 6 15 0
130 553 0 258 13 10 0
132 548 0 256 16 24 0
134 547 0 265 11 13 0
136 542 0 257 12 22 0
138 535 0 266 13 18 0
140 526 0 276 12 14 0
142 514 0 271 18 27 0
144 511 0 285 14 22 0
146 513 0 294 8 13 0
148 505 0 303 10 13 0
150 499 0 301 11 11 0
152 497 0 296 9 21 0
154 492 0 303 11 11 0
156 489 0 303 9 13 0
158 484 0 305 7 13 0
160 475 0 308 12 13 0
162 471 0 300 11 22 0
164 477 0 315 5 10 0
166 468 0 307 11 16 0
168 460 0 309 11 22 0
170 462 0 325 6 13 0
172 456 0 329 11 15 0
174 456 0 327 7 20 0
176 446 0 332 12 10 0
178 443 0 343 10 13 0
180 438 0 344 10 18 0
182 443 0 349 5 12 0
184 430 0 349 11 16 0
186 430 0 350 9 20 0
188 427 0 358 9 14 0
190 426 0 351 9 20 0
192 421 0 355 7 20 0
194 413 0 365 10 14 0
196 408 0 365 12 21 0
198 403 0 382 11 24 0
200 396 0 388 13 19 0
