0 937 0 0 0 0 0
2 918 0 0 26 0 0
4.00004 921 0 0 26 0 0
6 920 0 0 36 0 0
8 916 0 0 27 0 0
10 905 0 0 27 0 0
12 903 0 0 31 0 0
14 908 0 0 30 0 0
16 918 0 0 30 0 0
18 915 0 0 24 0 0
20 908 0 0 30 0 0
22 916 0 0 20 0 0
24 915 0 0 16 0 0
26 908 0 0 23 0 0
28 910 0 0 28 0 0
30 914 0 0 23 0 0
32 913 0 0 25 0 0
34 911 0 0 29 0 0
36 904 0 0 44 0 0
38 924 0 0 26 0 0
40 917 0 0 44 0 0
42 938 0 0 22 0 0
44 926 0 0 27 0 0
46 921 0 0 25 0 0
48 916 0 0 27 0 0
50 913 0 0 26 0 0
52 900 0 9 21 3 0
54 892 0 22 18 6 0
56 880 0 29 12 6 0
58 869 0 43 16 6 0
60 853 0 47 21 6 0
62 852 0 52 13 7 0
64 839 0 62 19 7 0
66 832 0 64 18 10 0
68 833 0 76 13 10 0
70 823 0 82 18 11 0
72 818 0 91 19 11 0
74 819 0 95 12 5 0
76 814 0 106 11 13 0
78 795 0 107 21 16 0
80 802 0 109 9 15 0
82 794 0 119 14 11 0
84 785 0 130 14 10 0
86 783 0 131 11 14 0
88 779 0 139 11 9 0
90 778 0 152 9 12 0
92 773 0 166 10 10 0
94 767 0 170 12 14 0
96 757 0 171 12 13 0
98 756 0 170 12 13 0
100 753 0 173 11 13 0
102 751 0 182 9 9 0
104 741 0 192 12 7 0
106 731 0 195 17 11 0
108 727 0 203 14 7 0
110 724 0 199 11 11 0
112 717 0 200 12 18 0
114 715 0 206 11 11 0
116 715 0 212 8 11 0
118 707 0 213 11 11 0
120 704 0 222 10 8 0
122 693 0 221 15 11 0
124 688 0 236 13 12 0
126 674 0 235 19 18 0
128 674 0 239 9 13 0
130 667 0 242 14 17 0
132 668 0 258 8 12 0
134 662 0 267 13 9 0
136 658 0 261 10 10 0
138 653 0 270 9 15 0
140 645 0 264 10 11 0
142 643 0 268 8 16 0
144 635 0 275 12 10 0
146 637 0 275 7 13 0
148 630 0 279 11 18 0
150 630 0 281 3 18 0
152 613 0 292 14 16 0
154 612 0 302 12 17 0
156 606 0 306 15 10 0
158 608 0 314 7 14 0
160 600 0 327 9 15 0
162 596 0 328 11 15 0
164 594 0 330 8 14 0
166 583 0 324 13 23 0
168 576 0 333 16 18 0
170 570 0 339 17 16 0
172 574 0 342 7 18 0
174 562 0 348 11 19 0
176 556 0 350 14 17 0
178 547 0 361 19 15 0
180 548 0 364 12 16 0
182 543 0 365 14 20 0
184 535 0 367 17 16 0
186 532 0 370 12 20 0
188 531 0 388 9 13 0
190 532 0 378 8 19 0
192 529 0 396 7 16 0
194 530 0 397 5 13 0
196 519 0 403 10 15 0
198 515 0 401 7 18 0
200 516 0 420 4 17 0
