0 967 0 0 0 0 0
2 905 31 0 29 0 0
4.00004 913 36 0 17 0 0
6 906 39 0 19 0 0
8 896 40 0 29 0 0
10 912 38 0 13 0 0
12 907 32 0 25 0 0
14 909 39 0 17 0 0
16 898 48 0 25 0 0
18 905 39 0 27 0 0
20 906 40 0 21 0 0
22 901 31 0 27 0 0
24 903 40 0 24 0 0
26 894 40 0 24 0 0
28 904 44 0 15 0 0
30 898 46 0 20 0 0
32 889 37 0 31 0 0
34 890 38 0 28 0 0
36 896 37 0 30 0 0
38 903 46 0 20 0 0
40 908 40 0 19 0 0
42 909 31 0 20 0 0
44 907 36 0 20 0 0
46 905 49 0 18 0 0
48 906 47 0 20 0 0
50 895 54 0 31 0 0
52 853 0 92 15 14 0
54 833 0 109 17 10 0
56 828 0 117 9 12 0
58 818 0 132 9 8 0
60 810 0 135 8 16 0
62 799 0 144 12 10 0
64 802 0 135 4 19 0
66 796 0 152 9 16 0
68 788 0 168 10 14 0
70 783 0 171 11 16 0
72 774 0 167 9 17 0
74 770 0 181 9 17 0
76 759 0 185 13 14 0
78 756 0 189 9 13 0
80 749 0 196 9 16 0
82 742 0 210 8 13 0
84 737 0 216 4 12 0
86 726 0 225 9 16 0
88 725 0 224 8 18 0
90 718 0 248 4 11 0
92 709 0 231 5 19 0
94 705 0 247 5 16 0
96 700 0 252 5 16 0
98 687 0 252 9 16 0
100 675 0 254 13 19 0
102 673 0 263 8 16 0
104 667 0 275 9 16 0
106 664 0 269 5 16 0
108 659 0 277 6 15 0
110 650 0 287 9 18 0
112 641 0 292 10 10 0
114 634 0 301 12 13 0
116 631 0 312 10 13 0
118 620 0 321 9 18 0
120 614 0 331 8 16 0
122 604 0 321 12 27 0
124 603 0 340 8 11 0
126 595 0 347 6 14 0
128 589 0 347 6 15 0
130 584 0 355 5 13 0
132 579 0 362 6 17 0
134 569 0 371 11 14 0
136 574 0 366 3 16 0
138 569 0 369 6 18 0
140 560 0 378 10 17 0
142 549 0 391 10 13 0
144 549 0 392 3 20 0
146 542 0 407 4 14 0
148 540 0 400 3 27 0
150 535 0 405 6 26 0
152 529 0 414 8 17 0
154 531 0 428 3 17 0
156 520 0 410 9 26 0
158 512 0 428 10 19 0
160 514 0 438 4 14 0
162 504 0 450 6 11 0
164 494 1 440 13 25 0
166 489 0 451 8 23 0
168 480 0 459 9 20 0
170 478 0 457 8 16 0
172 477 0 479 5 9 0
174 473 0 474 5 20 0
176 468 0 478 4 24 0
178 462 0 485 7 15 0
180 457 0 482 7 19 0
182 451 0 483 5 23 0
184 446 0 484 5 18 0
186 443 0 500 5 18 0
188 444 0 499 1 18 0
190 438 0 510 2 14 0
192 433 0 514 6 17 0
194 428 0 513 5 19 0
196 426 0 522 5 11 0
198 426 0 521 2 16 0
200 413 0 516 10 24 0
