0 76 0 0 0
2 75 0 1 0
4.00004 73 0 3 0
6 68 0 6 0
8 72 0 3 0
10 73 0 1 0
12 73 0 2 0
14 74 0 2 0
16 72 0 4 0
18 74 0 3 0
20 73 0 4 0
22 74 0 4 0
24 74 0 4 0
26 74 0 4 0
28 72 0 7 0
30 74 0 5 0
32 71 0 9 0
34 74 0 5 0
36 73 0 5 0
38 71 0 7 0
40 73 0 6 0
42 74 0 5 0
44 74 0 6 0
46 71 0 8 0
48 71 0 9 0
50 74 0 7 0
52 57 17 6 0
54 51 20 7 1
56 43 30 8 0
58 35 36 9 1
60 28 43 8 0
62 25 49 4 1
64 21 55 3 0
66 17 55 5 2
68 14 59 5 1
70 14 60 4 1
72 10 62 4 3
74 5 68 5 1
76 4 68 6 2
78 2 70 6 2
80 1 68 7 5
82 2 70 6 3
84 1 68 7 4
86 1 69 6 3
88 2 68 6 5
90 2 69 5 4
92 2 70 5 3
94 1 72 4 3
96 1 72 5 2
98 1 70 5 4
100 1 70 5 4
102 1 69 4 4
104 2 65 4 8
106 1 69 2 7
108 0 71 2 5
110 0 71 3 5
112 0 71 2 5
114 1 67 1 9
116 1 69 1 8
118 1 68 0 8
120 1 66 1 9
122 1 65 2 9
124 1 68 1 7
126 1 66 2 9
128 0 68 1 8
130 0 68 2 8
132 0 67 2 10
134 0 68 2 9
136 0 71 1 6
138 0 68 1 8
140 0 69 1 7
142 0 68 3 8
144 0 64 2 12
146 0 66 2 9
148 0 67 3 8
150 0 67 3 8
152 0 68 3 7
154 0 68 1 7
156 0 67 2 7
158 0 67 3 7
160 0 68 4 7
162 0 65 4 9
164 0 66 3 6
166 0 67 4 6
168 0 66 3 7
170 0 65 5 8
172 0 67 5 6
174 1 68 4 5
176 0 67 7 6
178 0 68 4 4
180 0 67 4 6
182 0 66 3 6
184 0 66 5 7
186 1 67 3 6
188 1 65 6 7
190 1 66 5 7
192 1 65 6 9
194 1 65 6 9
196 0 66 3 8
198 0 66 3 8
200 0 66 3 8
202 0 67 2 7
204 0 66 3 6
206 0 65 3 8
208 0 63 3 10
210 0 62 2 11
212 0 63 3 10
214 0 63 2 9
216 0 65 2 8
218 0 65 2 7
220 0 64 2 7
222 0 63 2 9
224 0 63 2 8
226 0 63 2 9
228 1 61 3 11
230 1 63 2 7
232 1 64 2 6
234 1 64 2 6
236 1 64 2 5
238 1 60 1 9
240 1 64 1 8
242 1 63 1 9
244 1 64 2 6
246 1 64 2 6
248 2 66 0 6
250 2 67 0 4
252 2 66 0 6
254 2 66 0 6
256 2 65 2 6
258 2 64 3 6
260 1 64 3 7
262 1 64 4 7
264 1 65 5 7
266 1 65 3 7
268 1 64 5 7
270 1 62 4 9
272 1 64 4 7
274 1 64 4 6
276 0 65 4 7
278 0 65 3 7
280 0 66 4 7
282 0 67 4 4
284 0 67 4 4
286 0 66 5 3
288 0 67 6 2
290 0 66 7 4
292 1 63 3 7
294 1 62 4 8
296 1 63 3 7
298 1 63 3 9
300 1 62 4 9
302 0 65 4 7
304 0 64 5 7
306 0 64 5 7
308 0 66 5 4
310 1 65 3 6
312 1 65 4 5
314 0 67 4 4
316 1 66 4 5
318 1 67 3 4
320 1 65 3 6
322 1 63 3 9
324 1 65 3 6
326 2 66 2 5
328 2 66 2 5
330 2 66 2 5
332 1 67 2 5
334 1 66 2 6
336 2 65 1 7
338 1 68 0 4
340 1 66 0 7
342 1 67 0 5
344 1 68 0 4
346 1 66 0 6
348 1 66 0 6
350 1 67 0 5
