0 52 0 0 0
2 49 0 1 0
4.00004 50 0 1 0
6 49 0 1 0
8 48 0 2 0
10 49 0 1 0
12 49 0 2 0
14 46 0 5 0
16 46 0 6 0
18 49 0 3 0
20 49 0 3 0
22 49 0 3 0
24 51 0 3 0
26 50 0 3 0
28 48 0 6 0
30 49 0 5 0
32 49 0 4 0
34 50 0 4 0
36 51 0 4 0
38 52 0 4 0
40 51 0 4 0
42 52 0 4 0
44 52 0 3 0
46 52 0 3 0
48 52 0 2 0
50 52 0 2 0
52 52 0 3 0
54 52 0 2 0
56 52 0 2 0
58 50 0 3 0
60 51 0 3 0
62 51 0 5 0
64 52 0 4 0
66 52 0 4 0
68 51 0 4 0
70 48 0 7 0
72 52 0 3 0
74 53 0 1 0
76 51 0 4 0
78 52 0 3 0
80 51 0 3 0
82 52 0 2 0
84 52 0 2 0
86 53 0 1 0
88 54 0 0 0
90 53 0 1 0
92 53 0 1 0
94 52 0 2 1
96 49 0 4 2
98 51 1 2 1
100 51 1 2 1
102 51 1 1 1
104 50 1 4 2
106 49 1 5 2
108 49 1 3 2
110 49 1 3 0
112 50 1 2 3
114 48 1 5 2
116 46 1 7 2
118 47 1 4 3
120 47 1 4 3
122 48 2 3 2
124 46 2 5 2
126 47 2 4 3
128 46 2 4 3
130 47 1 2 2
132 47 1 3 2
134 44 1 6 3
136 44 1 6 2
138 44 1 6 2
140 45 1 5 3
142 45 2 5 2
144 46 2 4 3
146 45 3 4 2
148 45 4 4 2
150 47 4 2 2
152 47 4 2 2
154 47 3 2 2
156 47 4 2 2
158 47 4 2 2
160 48 4 1 3
162 49 4 0 3
164 47 4 2 1
166 48 4 1 1
168 48 5 1 0
170 48 4 1 1
172 48 4 1 1
174 47 3 2 2
176 46 3 3 3
178 48 3 1 2
180 49 3 0 1
182 49 3 0 1
184 48 3 1 0
186 48 3 1 0
188 47 3 2 0
190 47 3 2 2
192 46 2 3 2
194 44 3 4 2
196 46 3 2 0
198 44 3 3 0
200 42 3 6 0
202 42 3 7 0
204 42 3 7 0
206 42 3 6 1
208 43 3 3 1
210 41 3 6 2
212 43 3 2 2
214 42 3 5 2
216 39 4 8 1
218 44 3 2 3
220 44 4 2 1
222 45 3 1 3
224 46 5 0 0
226 46 5 0 1
228 46 5 0 0
230 46 5 0 1
232 46 5 0 1
234 46 6 0 0
236 45 6 1 1
238 45 6 1 1
240 44 6 2 0
242 45 6 1 1
244 44 5 2 2
246 45 6 1 1
248 46 5 0 1
250 46 6 0 1
252 46 6 0 1
254 46 6 0 1
256 46 5 0 2
258 46 7 0 0
260 46 7 0 0
262 45 7 1 0
264 44 7 2 0
266 44 7 2 1
268 43 7 3 2
270 43 7 3 3
272 42 7 4 2
274 41 8 5 1
276 42 8 4 1
278 42 9 4 0
280 43 9 3 0
282 38 9 7 0
284 41 9 3 1
286 41 8 4 1
288 44 7 1 2
290 44 7 0 2
292 43 8 2 0
294 41 8 4 2
296 42 8 2 3
298 39 8 5 3
300 40 9 4 1
302 42 8 3 2
304 39 9 4 1
306 40 9 5 0
308 41 9 1 1
310 38 9 4 1
312 38 9 3 2
314 39 10 3 1
316 37 10 5 1
318 36 10 6 1
320 40 10 3 1
322 39 10 3 1
324 39 10 3 2
326 38 10 4 1
328 39 10 1 0
330 39 8 1 2
332 39 10 1 1
334 37 9 3 2
336 38 9 2 3
338 36 10 4 1
340 37 10 3 0
342 38 9 2 1
344 38 9 2 2
346 38 10 1 1
348 39 10 1 1
350 39 10 1 2
