0 68 0 0 0
2 65 0 2 0
4.00004 65 0 2 0
6 64 0 3 0
8 63 0 6 0
10 67 0 2 0
12 65 0 4 0
14 67 0 2 0
16 66 0 3 0
18 65 0 4 0
20 66 0 3 0
22 60 0 7 0
24 61 0 4 0
26 61 0 3 0
28 62 0 5 0
30 65 0 2 0
32 67 0 1 0
34 64 0 2 0
36 63 0 5 0
38 64 0 3 0
40 62 0 3 0
42 62 0 4 0
44 64 0 4 0
46 64 0 3 0
48 63 0 2 0
50 63 0 4 0
52 61 0 6 0
54 64 0 3 0
56 64 0 2 0
58 61 0 5 0
60 64 0 1 0
62 63 0 2 0
64 62 0 2 0
66 57 0 7 0
68 58 0 3 1
70 57 0 4 0
72 58 0 3 2
74 58 0 1 2
76 57 1 2 1
78 58 3 3 0
80 56 2 5 1
82 56 3 4 0
84 57 3 2 1
86 57 4 2 1
88 57 4 1 1
90 54 3 4 1
92 54 2 4 2
94 54 3 4 1
96 53 4 3 0
98 50 4 4 0
100 53 5 3 1
102 53 6 3 0
104 55 7 1 0
106 54 6 2 1
108 55 7 1 0
110 55 6 1 0
112 55 6 1 1
114 53 7 2 1
116 52 7 3 0
118 52 7 2 0
120 52 7 3 1
122 54 7 0 2
124 54 8 0 1
126 52 8 2 1
128 50 9 4 1
130 48 9 5 1
132 51 10 1 0
134 52 10 0 1
136 50 11 2 2
138 50 13 2 0
140 51 12 1 1
142 51 12 1 1
144 50 12 1 0
146 51 12 0 0
148 49 14 2 0
150 47 14 4 1
152 49 14 1 1
154 47 14 3 0
156 48 13 2 2
158 48 14 1 1
160 48 15 1 0
162 46 15 3 0
164 47 14 1 2
166 48 16 1 2
168 48 17 1 1
170 46 18 1 0
172 46 18 3 0
174 46 17 3 1
176 45 18 3 1
178 45 18 3 1
180 45 18 2 2
182 45 20 1 0
184 45 20 2 0
186 46 20 1 2
188 44 20 3 2
190 44 21 1 0
192 42 22 4 0
194 42 24 2 0
196 42 23 2 2
198 42 25 2 1
200 42 24 0 2
202 42 26 2 5
204 40 27 2 3
206 41 28 2 2
208 41 30 0 0
210 38 28 2 4
212 38 28 2 3
214 38 28 2 1
216 38 29 1 0
218 37 29 2 1
220 38 30 1 0
222 37 30 1 1
224 38 30 0 0
226 38 31 0 3
228 37 32 1 2
230 35 33 1 1
232 36 33 2 3
234 35 35 1 2
236 35 36 1 2
238 31 34 5 1
240 33 34 1 2
242 32 36 2 0
244 33 36 1 1
246 31 36 1 1
248 30 37 3 0
250 31 38 1 0
252 30 37 3 1
254 32 35 2 3
256 33 37 1 1
258 34 37 0 1
260 33 36 0 4
262 31 39 2 0
264 32 37 1 2
266 29 38 4 3
268 32 36 1 5
270 32 39 1 0
272 31 39 2 2
274 31 39 1 1
276 29 39 3 2
278 29 40 3 1
280 31 41 1 1
282 30 41 1 2
284 30 41 1 3
286 28 42 3 2
288 29 40 1 2
290 29 39 1 3
292 29 40 1 1
294 29 38 1 2
296 28 39 2 3
298 27 40 1 3
300 27 39 2 1
302 28 39 0 2
304 27 40 2 2
306 27 41 2 1
308 26 41 2 2
310 26 42 2 1
312 26 41 2 2
314 28 42 0 1
316 27 39 1 3
318 27 40 1 3
320 25 40 3 0
322 26 37 2 4
324 25 38 2 1
326 23 36 4 2
328 26 36 1 2
330 26 33 2 5
332 26 36 2 4
334 26 37 2 2
336 25 36 3 4
338 27 37 0 1
340 26 38 1 1
342 27 39 0 0
344 26 39 1 0
346 27 39 1 1
348 26 39 1 1
350 27 39 0 2
