0 93 0 0 0
2 88 0 1 0
4.00004 86 0 4 0
6 88 0 4 0
8 88 0 3 0
10 88 0 4 0
12 89 0 3 0
14 89 0 5 0
16 88 0 7 0
18 89 0 3 0
20 86 0 7 0
22 90 0 4 0
24 91 0 3 0
26 91 0 3 0
28 88 0 6 0
30 89 0 5 0
32 86 0 6 0
34 83 0 9 0
36 87 0 7 0
38 89 0 3 0
40 91 0 0 0
42 90 0 6 0
44 89 0 5 0
46 89 0 5 0
48 90 0 5 0
50 88 0 5 0
52 69 20 5 0
54 53 34 6 1
56 46 44 4 0
58 36 54 5 1
60 31 60 3 0
62 28 60 2 5
64 26 66 3 1
66 23 67 4 3
68 22 68 1 2
70 17 72 1 2
72 14 73 2 6
74 11 73 0 7
76 5 82 1 3
78 3 84 3 3
80 4 83 2 3
82 4 84 1 3
84 4 85 1 2
86 2 86 1 3
88 4 86 0 3
90 4 86 0 3
92 2 86 0 4
94 2 85 0 5
96 2 84 0 3
98 2 83 0 4
100 1 85 0 2
102 1 86 0 2
104 1 81 0 6
106 1 86 1 1
108 1 84 1 3
110 2 84 1 3
112 1 84 2 4
114 1 85 4 2
116 2 86 1 1
118 3 85 0 3
120 2 83 1 6
122 2 85 0 4
124 2 86 1 3
126 1 87 1 3
128 1 86 3 4
130 2 86 2 2
132 2 86 2 4
134 2 86 1 2
136 2 83 1 6
138 3 80 1 8
140 3 84 1 2
142 2 86 0 4
144 2 87 0 3
146 1 88 0 2
148 1 86 1 3
150 1 84 1 4
152 1 86 1 3
154 1 86 2 2
156 1 85 2 2
158 2 83 1 4
160 1 81 1 7
162 1 83 1 4
164 1 84 2 3
166 1 83 2 4
168 3 82 1 6
170 2 81 1 9
172 2 84 1 6
174 2 85 1 5
176 2 88 0 4
178 2 88 0 3
180 2 88 0 3
182 2 90 1 1
184 1 90 2 3
186 1 87 0 6
188 0 88 2 5
190 0 91 3 3
192 0 91 2 3
194 0 91 3 3
196 1 88 0 6
198 1 88 3 4
200 1 86 1 6
202 2 88 0 4
204 1 88 1 4
206 1 86 0 7
208 0 86 1 7
210 0 86 0 6
212 0 86 1 4
214 0 84 0 8
216 0 81 0 10
218 0 80 1 10
220 0 83 1 7
222 0 82 4 7
224 0 83 4 6
226 4 82 0 7
228 4 84 0 5
230 3 82 0 6
232 2 88 0 2
234 2 86 1 4
236 1 85 3 5
238 2 86 1 5
240 1 90 1 2
242 2 89 0 3
244 2 90 0 3
246 2 87 0 4
248 2 86 0 4
250 1 85 0 5
252 1 87 1 5
254 1 84 1 7
256 1 87 1 4
258 0 87 1 4
260 1 89 0 1
262 1 87 0 2
264 1 86 1 3
266 2 87 0 1
268 2 87 1 2
270 1 82 1 8
272 1 82 0 8
274 1 84 1 5
276 1 85 1 3
278 2 83 4 7
280 1 86 2 6
282 3 85 0 7
284 2 87 0 6
286 1 86 1 5
288 0 91 0 2
290 0 90 0 5
292 0 88 0 6
294 0 88 0 6
296 0 91 0 3
298 0 89 0 6
300 0 88 0 7
302 0 88 0 5
304 0 86 1 5
306 0 86 1 5
308 0 86 1 4
310 1 88 0 3
312 1 90 0 2
314 1 89 0 2
316 1 87 0 5
318 1 87 0 4
320 0 88 0 5
322 0 89 0 4
324 0 90 0 2
326 0 88 0 4
328 0 88 0 4
330 0 87 1 5
332 0 88 1 3
334 0 87 1 4
336 1 85 0 6
338 1 88 0 3
340 0 88 0 2
342 0 84 0 7
344 0 86 0 6
346 0 83 0 7
348 0 86 0 4
350 0 86 0 3
