0 71 0 0 0
2 69 0 0 0
4.00004 68 0 3 0
6 64 0 4 0
8 66 0 2 0
10 61 0 7 0
12 63 0 5 0
14 62 0 7 0
16 63 0 6 0
18 64 0 6 0
20 63 0 7 0
22 60 0 10 0
24 63 0 6 0
26 63 0 8 0
28 63 0 7 0
30 66 0 4 0
32 65 0 4 0
34 64 0 4 0
36 62 0 7 0
38 62 0 8 0
40 59 0 11 0
42 58 0 10 0
44 58 0 9 0
46 58 0 9 0
48 59 0 10 0
50 61 0 8 0
52 62 0 7 0
54 57 0 11 0
56 54 0 14 0
58 61 0 5 0
60 59 0 7 0
62 62 0 4 0
64 61 0 5 0
66 59 0 9 0
68 57 0 10 0
70 56 0 12 0
72 60 0 5 0
74 58 0 11 0
76 59 0 9 0
78 60 0 8 1
80 58 0 11 1
82 59 1 8 0
84 60 1 6 0
86 59 1 5 0
88 59 1 6 0
90 59 1 6 0
92 58 1 6 0
94 58 1 7 0
96 59 1 6 0
98 58 1 7 0
100 57 1 9 0
102 58 1 8 0
104 57 1 6 0
106 57 1 8 0
108 57 1 8 0
110 55 1 10 1
112 58 1 8 0
114 58 1 6 0
116 56 1 8 0
118 55 1 10 0
120 55 1 10 0
122 56 1 8 0
124 54 1 12 0
126 57 1 9 0
128 55 1 10 0
130 53 1 12 0
132 54 1 11 0
134 54 1 10 0
136 53 1 11 0
138 55 1 8 0
140 55 1 9 0
142 57 1 7 1
144 57 1 6 1
146 57 1 7 2
148 55 1 8 2
150 56 1 6 2
152 56 1 5 1
154 56 2 6 1
156 57 2 5 1
158 58 2 3 1
160 58 2 3 1
162 56 2 6 2
164 56 2 5 2
166 56 2 6 2
168 55 2 8 3
170 57 2 5 3
172 57 2 5 3
174 58 3 4 1
176 57 3 5 2
178 57 3 4 2
180 58 4 2 2
182 57 4 4 4
184 57 3 5 5
186 54 4 6 3
188 56 4 4 3
190 57 5 3 2
192 57 4 2 3
194 55 5 4 2
196 56 5 3 2
198 57 5 3 1
200 56 5 3 1
202 56 5 3 1
204 56 5 3 1
206 55 4 4 2
208 56 5 3 1
210 53 5 5 2
212 51 5 9 1
214 54 5 6 2
216 54 5 7 2
218 54 5 5 3
220 52 5 6 3
222 54 5 6 2
224 52 4 8 4
226 52 4 7 4
228 54 6 5 2
230 52 5 6 3
232 53 4 5 5
234 53 6 5 3
236 54 4 4 6
238 51 6 8 3
240 53 6 5 3
242 53 6 5 3
244 52 5 6 5
246 53 4 4 5
248 52 5 7 6
250 53 6 6 5
252 52 6 4 6
254 52 6 4 6
256 52 6 5 6
258 51 6 7 5
260 51 6 7 5
262 52 6 5 8
264 52 7 6 5
266 53 7 5 4
268 54 7 3 5
270 53 7 4 7
272 54 8 3 5
274 55 9 2 5
276 55 9 1 5
278 55 9 1 5
280 52 8 4 5
282 54 9 3 4
284 55 9 2 6
286 54 9 2 8
288 53 9 4 5
290 52 9 5 9
292 53 9 3 8
294 51 9 6 6
296 53 9 3 7
298 53 9 3 7
300 53 9 2 5
302 53 12 3 2
304 53 11 3 4
306 52 11 4 5
308 51 11 4 4
310 51 13 4 3
312 49 13 6 1
314 52 13 3 3
316 51 13 5 3
318 51 13 5 4
320 50 13 6 1
322 50 12 4 3
324 47 13 6 3
326 51 13 3 2
328 51 13 3 1
330 46 13 9 4
332 49 13 7 4
334 50 13 5 3
336 49 13 6 2
338 50 12 5 4
340 49 10 6 9
342 50 12 5 3
344 48 10 7 5
346 48 10 6 7
348 50 9 4 8
350 48 11 6 8
