0 980 0 0 0 0 0
2 866 17 0 76 0 12
4.00004 828 7 0 116 0 23
6 817 4 0 134 0 27
8 812 8 0 132 0 40
10 810 1 0 147 0 28
12 792 2 0 161 0 42
14 781 1 0 156 0 33
16 775 0 0 173 0 32
18 761 1 0 189 0 34
20 752 0 0 197 0 42
22 756 0 0 175 0 46
24 761 0 0 183 0 47
26 752 0 0 186 0 46
28 745 0 0 190 0 40
30 731 0 0 195 0 42
32 733 0 0 199 0 50
34 715 0 0 233 0 49
36 722 0 0 205 0 55
38 725 0 0 223 0 42
40 729 0 0 249 0 35
42 729 0 0 216 0 53
44 731 0 0 213 0 57
46 745 0 0 214 0 46
48 754 0 0 202 0 47
50 743 0 0 219 0 44
52 728 0 17 113 153 0
54 686 0 50 94 181 0
56 657 0 83 89 195 0
58 628 0 118 70 200 0
60 593 0 139 61 222 0
62 564 0 162 58 234 0
64 534 0 209 50 219 0
66 507 0 225 48 225 1
68 483 0 249 53 219 0
70 458 0 274 64 207 1
72 440 0 283 49 232 0
74 427 0 292 42 249 0
76 401 0 329 60 229 1
78 387 0 352 49 232 0
80 371 0 375 44 234 0
82 362 0 389 37 231 0
84 343 0 415 43 217 0
86 326 0 422 44 235 0
88 305 0 444 43 241 0
90 290 0 454 43 251 0
92 272 0 472 47 252 0
94 261 0 479 36 253 0
96 243 0 493 35 255 0
98 232 0 511 33 244 0
100 220 0 521 36 234 0
102 214 0 536 28 240 0
104 197 0 547 35 251 0
106 189 0 552 31 252 0
108 178 0 579 32 235 0
110 164 0 574 37 254 0
112 165 0 592 33 255 0
114 157 0 591 27 262 0
116 151 0 615 28 241 0
118 145 0 609 29 255 0
120 134 0 628 32 241 0
122 129 0 635 33 235 0
124 129 0 642 38 239 1
126 125 0 652 31 241 0
128 120 0 653 30 246 0
130 110 0 652 41 250 0
132 109 0 657 29 248 0
134 102 0 675 29 238 0
136 97 0 666 19 253 0
138 93 0 657 15 260 1
140 86 0 670 29 251 0
142 81 0 667 30 260 0
144 79 0 676 19 254 0
146 81 0 690 11 241 0
148 74 0 699 18 234 0
150 73 0 688 22 256 0
152 73 0 693 16 249 0
154 68 0 701 23 259 0
156 69 0 708 19 255 0
158 65 0 724 22 247 0
160 65 0 721 13 255 0
162 59 0 719 20 256 0
164 57 0 708 17 263 0
166 54 0 713 22 252 0
168 55 0 712 15 261 0
170 55 0 712 16 261 0
172 52 0 728 15 241 0
174 53 0 718 11 247 0
176 50 0 706 17 249 0
178 50 0 709 12 252 0
180 47 0 704 17 258 0
182 47 0 709 12 249 0
184 43 0 714 16 238 0
186 44 0 696 11 258 0
188 42 0 698 11 249 0
190 41 0 704 14 267 0
192 41 0 703 17 254 0
194 35 0 690 14 269 0
196 37 0 693 20 262 0
198 35 0 695 12 260 0
200 34 0 698 13 264 0
