0 1013 0 0 0 0 0
2 898 23 0 63 0 14
4.00004 875 11 0 77 0 31
6 859 9 0 103 0 23
8 852 4 0 115 0 18
10 847 1 0 129 0 21
12 828 1 0 142 0 36
14 817 2 0 143 0 33
16 818 1 0 164 0 27
18 810 0 0 156 0 37
20 812 2 0 149 0 42
22 803 0 0 165 0 39
24 813 0 0 163 0 28
26 807 0 0 163 0 39
28 778 0 0 205 0 39
30 774 0 0 200 0 41
32 770 0 0 176 0 56
34 780 0 0 176 0 47
36 774 0 0 187 0 49
38 769 0 0 189 0 49
40 755 0 0 205 0 38
42 764 0 0 201 0 43
44 761 0 0 195 0 57
46 753 0 0 213 0 55
48 750 0 0 230 0 48
50 748 0 0 224 0 59
52 734 0 27 88 169 0
54 696 0 59 77 180 0
56 659 0 103 66 178 0
58 615 0 139 66 184 0
60 582 0 169 50 197 0
62 567 0 202 36 194 0
64 552 0 228 42 168 0
66 525 0 244 44 187 0
68 506 0 256 41 199 0
70 477 0 284 42 207 0
72 454 0 305 46 196 0
74 428 0 328 38 204 0
76 425 0 347 19 209 0
78 393 0 376 34 195 0
80 388 0 403 26 182 0
82 368 0 421 22 189 0
84 351 0 439 28 190 0
86 326 0 461 34 193 0
88 314 0 479 25 193 0
90 299 0 484 24 199 0
92 282 0 501 28 194 1
94 274 0 511 24 200 0
96 262 0 514 30 200 0
98 246 0 529 30 200 0
100 233 0 540 20 215 0
102 227 0 557 21 215 0
104 214 0 572 23 203 0
106 205 0 564 22 213 1
108 196 0 580 26 206 0
110 190 0 614 17 177 1
112 178 0 622 20 167 0
114 170 0 609 21 192 0
116 160 0 618 27 192 0
118 149 0 611 27 223 0
120 141 0 629 17 223 0
122 137 0 643 18 223 0
124 130 0 647 19 215 0
126 124 0 644 19 227 0
128 124 0 659 23 208 0
130 118 0 657 24 217 0
132 111 0 650 15 232 0
134 107 0 660 29 216 0
136 105 0 651 16 240 0
138 97 0 674 26 229 0
140 95 0 687 16 221 0
142 90 0 696 21 204 0
144 88 0 693 15 224 0
146 84 0 682 12 235 0
148 81 0 700 16 225 0
150 77 0 712 13 219 0
152 73 0 698 14 228 0
154 74 0 698 16 225 0
156 70 0 712 22 219 0
158 67 0 712 15 224 0
160 65 0 730 15 199 0
162 62 0 722 12 217 0
164 59 0 713 10 226 0
166 52 0 723 8 218 0
168 51 0 712 12 237 0
170 51 0 713 10 234 0
172 49 0 714 12 221 0
174 46 0 708 17 236 0
176 44 0 720 8 232 0
178 41 0 711 15 251 0
180 42 0 722 14 229 0
182 40 0 728 11 228 0
184 38 0 746 13 220 0
186 38 0 742 8 221 0
188 36 0 741 15 226 0
190 35 0 756 13 211 0
192 35 0 750 8 226 0
194 33 0 751 7 204 0
196 33 0 735 14 230 0
198 31 0 744 16 213 0
200 29 0 743 16 216 0
