0 1187 0 0 0 0 0
2 1119 0 0 76 0 0
4.00004 1105 0 0 90 0 0
6 1088 0 0 105 0 0
8 1089 0 0 108 0 0
10 1085 0 0 102 0 0
12 1058 0 0 130 0 0
14 1049 0 0 127 0 0
16 1038 0 0 143 0 0
18 1054 0 0 140 0 0
20 1050 0 0 134 0 0
22 1041 0 0 142 0 0
24 1053 0 0 125 0 0
26 1058 0 0 119 0 0
28 1041 0 0 139 0 0
30 1057 0 0 129 0 0
32 1056 0 0 128 0 0
34 1054 0 0 127 0 0
36 1046 0 0 147 0 0
38 1062 0 0 131 0 0
40 1066 0 0 132 0 0
42 1059 0 0 139 0 0
44 1064 0 0 136 0 0
46 1049 0 0 167 0 0
48 1062 0 0 142 0 0
50 1056 0 0 153 0 0
52 1050 0 1 139 14 0
54 1053 0 5 113 36 0
56 1050 0 10 98 45 0
58 1034 0 23 96 39 0
60 1038 0 34 80 54 0
62 1014 0 51 85 61 0
64 1006 0 72 74 48 0
66 992 0 81 77 57 0
68 983 0 95 70 67 0
70 961 0 109 82 53 0
72 963 0 122 65 50 0
74 947 0 132 67 48 0
76 948 0 133 56 69 0
78 924 0 153 71 53 0
80 908 0 162 74 65 0
82 898 0 171 72 72 0
84 889 0 183 71 71 0
86 888 0 203 53 61 0
88 865 0 211 65 69 0
90 847 0 222 67 64 0
92 828 0 232 81 75 0
94 825 0 240 68 76 0
96 818 0 247 70 87 0
98 800 0 263 71 71 0
100 805 0 283 59 56 0
102 794 0 290 58 72 0
104 786 0 295 53 65 0
106 765 0 307 63 86 0
108 758 0 318 60 79 0
110 744 0 334 67 70 0
112 743 0 347 60 66 0
114 730 0 354 63 76 0
116 719 0 369 59 71 0
118 719 0 364 52 77 0
120 704 0 366 57 82 0
122 691 0 384 58 86 0
124 675 0 394 62 93 0
126 669 0 406 59 95 0
128 658 0 426 64 76 0
130 658 0 438 49 79 0
132 655 0 438 45 83 0
134 649 0 442 41 92 0
136 629 0 442 55 90 0
138 626 0 447 46 89 0
140 611 0 449 51 92 0
142 604 0 456 46 103 0
144 593 0 465 48 92 0
146 587 0 472 42 92 0
148 577 0 483 46 93 0
150 574 0 487 37 94 0
152 563 0 503 45 93 0
154 554 0 516 47 84 0
156 555 0 516 42 87 0
158 534 0 523 54 94 0
160 537 0 514 42 107 0
162 530 0 521 40 107 0
164 525 0 526 37 103 0
166 507 0 542 49 98 0
168 499 0 548 47 94 0
170 491 0 554 49 97 0
172 492 0 561 44 97 0
174 482 0 566 46 106 0
176 473 0 583 51 88 0
178 472 0 584 42 85 0
180 461 0 594 51 90 0
182 462 0 604 46 94 0
184 445 0 591 54 110 0
186 447 0 609 40 110 0
188 433 0 608 48 101 0
190 430 0 601 45 114 0
192 422 0 607 44 112 0
194 415 0 616 44 122 0
196 417 0 611 31 127 0
198 402 0 646 41 82 0
200 400 0 643 34 108 0
