0 909 0 0 0 0 0
2 830 16 0 55 0 15
4.00004 814 10 0 79 0 18
6 795 7 0 83 0 29
8 781 3 0 98 0 25
10 787 2 0 92 0 26
12 771 2 0 111 0 27
14 759 1 0 99 0 38
16 745 0 0 123 0 39
18 739 1 0 124 0 41
20 731 0 0 147 0 34
22 743 0 0 125 0 48
24 735 0 0 139 0 41
26 736 0 0 159 0 28
28 717 0 0 181 0 33
30 726 0 0 153 0 37
32 731 0 0 158 0 36
34 731 0 0 157 0 36
36 730 0 0 157 0 38
38 727 0 0 158 0 39
40 735 0 0 145 0 47
42 725 0 0 171 0 29
44 725 0 0 179 0 31
46 726 0 0 150 0 50
48 721 0 0 157 0 46
50 719 0 0 171 0 38
52 696 0 14 77 142 0
54 652 0 49 62 160 0
56 626 0 83 50 167 0
58 593 0 122 52 154 0
60 570 0 147 46 157 0
62 540 0 178 53 133 0
64 529 0 194 32 158 0
66 510 0 212 38 140 0
68 498 0 234 31 147 0
70 474 0 248 31 151 0
72 449 0 260 34 161 0
74 438 0 291 26 135 1
76 415 0 295 36 171 0
78 404 0 304 26 172 0
80 383 0 330 28 160 0
82 364 0 347 29 166 0
84 346 0 356 32 174 0
86 336 0 384 28 148 0
88 327 0 396 26 147 1
90 313 0 406 29 160 0
92 304 0 433 23 136 0
94 292 0 438 16 145 0
96 273 0 441 26 158 0
98 258 0 454 21 161 0
100 251 0 475 14 166 0
102 241 0 471 20 170 1
104 237 0 485 19 159 0
106 226 0 477 27 172 0
108 212 0 485 23 175 0
110 200 0 496 32 163 0
112 191 0 510 19 155 0
114 188 0 504 24 174 0
116 186 0 513 21 173 0
118 175 0 520 30 175 1
120 165 0 522 24 193 0
122 159 0 533 20 185 0
124 153 0 542 31 177 1
126 151 0 549 20 184 0
128 148 0 561 20 175 0
130 145 0 573 23 152 0
132 138 0 574 22 157 0
134 129 0 591 20 156 0
136 122 0 603 29 148 0
138 122 0 612 17 153 0
140 121 0 627 13 149 0
142 113 0 623 20 152 0
144 107 0 633 12 151 0
146 105 0 615 10 179 0
148 99 0 629 17 175 0
150 97 0 624 16 175 0
152 96 0 631 18 174 0
154 91 0 641 19 179 0
156 86 0 636 13 186 0
158 85 0 654 10 168 0
160 81 0 652 18 178 0
162 77 0 666 18 172 0
164 74 0 669 15 161 0
166 73 0 664 15 175 0
168 71 0 678 15 168 0
170 67 0 678 18 172 0
172 65 0 683 15 163 0
174 63 0 685 13 162 0
176 62 0 683 20 163 0
178 62 0 681 8 168 0
180 57 0 695 15 159 0
182 49 0 686 17 181 0
184 47 0 699 12 173 0
186 49 0 701 13 170 0
188 45 0 693 10 191 1
190 45 0 686 8 197 0
192 41 0 697 13 172 0
194 43 0 693 9 176 0
196 42 0 696 11 183 0
198 39 0 701 13 174 0
200 39 0 706 12 173 0
