0 1066 0 0 0 0 0
2 1002 5 0 38 0 27
4.00004 967 0 0 54 0 38
6 963 0 0 76 0 37
8 957 0 0 74 0 41
10 948 0 0 74 0 47
12 949 0 0 75 0 50
14 956 0 0 79 0 48
16 948 0 0 100 0 51
18 957 0 0 93 0 41
20 958 0 0 78 0 52
22 960 0 0 92 0 39
24 964 0 0 90 0 46
26 963 0 0 85 0 44
28 967 0 0 78 0 50
30 956 0 0 91 0 43
32 957 0 0 96 0 46
34 961 0 0 81 0 54
36 966 0 0 87 0 52
38 968 0 0 82 0 53
40 974 0 0 76 0 52
42 961 0 0 86 0 57
44 943 0 0 97 0 48
46 952 0 0 86 0 48
48 955 0 0 70 0 46
50 944 0 0 84 0 46
52 887 0 65 22 103 0
54 825 0 111 23 114 1
56 771 0 160 19 123 0
58 725 0 212 13 114 0
60 672 0 256 18 115 0
62 630 0 294 13 128 0
64 597 0 332 20 111 1
66 559 0 376 10 107 0
68 527 0 406 7 118 0
70 492 0 440 18 114 0
72 467 0 471 10 118 0
74 438 0 494 11 127 0
76 418 0 522 8 130 0
78 388 0 550 14 144 1
80 368 0 570 10 131 0
82 350 0 598 13 122 0
84 331 0 633 14 100 0
86 317 0 643 10 115 0
88 285 0 656 8 142 0
90 262 0 679 5 136 0
92 249 0 701 5 128 1
94 234 0 719 3 133 0
96 225 0 739 4 122 0
98 214 0 761 6 108 0
100 204 0 757 6 111 0
102 192 0 757 5 135 0
104 179 0 768 9 132 0
106 168 0 797 8 125 0
108 160 0 791 8 116 0
110 144 0 805 7 117 0
112 136 0 821 8 130 0
114 130 0 825 4 123 0
116 123 0 839 1 122 0
118 116 0 849 5 110 0
120 105 0 861 4 112 0
122 100 0 849 3 126 0
124 94 0 852 9 134 1
126 91 0 876 5 116 0
128 82 0 900 4 117 0
130 76 0 913 7 111 0
132 73 0 909 5 130 0
134 69 0 909 5 148 0
136 65 0 914 7 137 0
138 59 0 907 2 143 0
140 56 0 919 3 127 0
142 54 0 909 5 125 0
144 51 0 916 3 130 0
146 48 0 915 3 132 0
148 43 0 914 1 127 0
150 43 0 928 6 109 0
152 41 0 929 5 119 0
154 40 0 932 4 120 0
156 38 0 937 5 114 0
158 35 0 940 3 112 0
160 34 0 958 5 105 0
162 33 0 957 6 106 0
164 31 0 934 4 134 0
166 28 0 947 2 116 0
168 26 0 932 2 143 0
170 25 0 933 3 149 0
172 22 0 944 1 139 0
174 21 0 941 3 131 0
176 21 0 959 3 123 0
178 19 0 956 2 130 0
180 16 0 969 2 130 0
182 16 0 975 3 120 0
184 17 0 973 1 117 0
186 14 0 972 2 128 0
188 13 0 974 4 127 0
190 11 0 976 4 125 0
192 10 0 975 3 107 0
194 10 0 970 1 131 0
196 10 0 969 5 123 0
198 10 0 964 3 134 0
200 8 0 963 1 130 0
