0 919 0 0 0 0 0
2 857 1 0 34 0 34
4.00004 840 0 0 43 0 51
6 841 0 0 56 0 60
8 855 0 0 48 0 47
10 864 0 0 54 0 50
12 881 0 0 52 0 40
14 873 0 0 48 0 54
16 890 0 0 55 0 54
18 900 0 0 51 0 42
20 896 0 0 52 0 58
22 900 0 0 56 0 48
24 907 0 0 51 0 51
26 920 0 0 65 0 45
28 917 0 0 47 0 57
30 909 0 0 57 0 60
32 896 0 0 54 0 53
34 896 0 0 56 0 59
36 909 0 0 46 0 64
38 912 0 0 51 0 51
40 918 0 0 70 0 45
42 927 0 0 55 0 58
44 930 0 0 54 0 60
46 942 0 0 52 0 45
48 953 0 0 41 0 55
50 943 0 0 51 0 48
52 852 0 86 12 97 0
54 772 0 186 7 84 0
56 711 0 256 10 85 1
58 641 0 311 5 110 0
60 575 0 384 11 98 0
62 515 0 450 7 103 2
64 471 0 491 8 115 0
66 423 0 540 9 98 0
68 366 0 567 11 119 0
70 335 0 611 4 117 0
72 309 0 663 6 105 0
74 282 0 681 7 115 0
76 260 0 700 2 112 0
78 236 0 731 4 119 0
80 210 0 755 4 116 0
82 196 0 786 3 90 0
84 178 0 799 4 106 0
86 158 0 831 6 100 0
88 143 0 856 0 104 0
90 126 0 873 5 103 0
92 117 0 891 1 97 0
94 105 0 906 1 99 0
96 99 0 908 4 110 0
98 89 0 916 0 110 0
100 79 0 928 3 105 0
102 71 0 925 4 115 0
104 66 0 956 1 116 0
106 57 0 971 1 115 1
108 49 0 989 1 105 0
110 44 0 993 1 103 0
112 42 0 996 2 111 0
114 38 0 990 0 116 0
116 36 0 1007 0 90 0
118 32 0 1008 0 109 0
120 30 0 1014 0 104 0
122 27 0 1021 0 104 0
124 22 0 1014 1 100 0
126 17 0 1015 2 116 0
128 14 0 1022 1 112 0
130 13 0 1029 1 106 0
132 12 0 1033 0 102 0
134 12 0 1046 1 99 0
136 8 0 1054 2 91 0
138 8 0 1051 1 108 0
140 8 0 1056 1 113 0
142 8 0 1053 0 107 0
144 8 0 1053 0 109 0
146 8 0 1060 1 106 0
148 7 0 1061 1 108 0
150 6 0 1072 0 103 0
152 6 0 1078 0 109 0
154 4 0 1078 1 103 0
156 4 0 1069 0 116 0
158 4 0 1077 0 108 0
160 4 0 1092 0 91 0
162 4 0 1086 0 94 0
164 4 0 1077 0 98 0
166 4 0 1071 1 99 0
168 3 0 1055 0 130 0
170 3 0 1073 0 110 0
172 3 0 1080 0 116 0
174 3 0 1071 1 116 0
176 3 0 1058 0 111 0
178 2 0 1058 0 92 0
180 2 0 1050 1 99 0
182 2 0 1042 0 112 0
184 2 0 1046 0 107 0
186 2 0 1046 0 101 0
188 2 0 1050 0 128 0
190 2 0 1052 0 95 0
192 2 0 1046 1 94 0
194 2 0 1038 0 101 0
196 1 0 1020 0 127 0
198 1 0 1016 1 127 0
200 1 0 1019 0 113 0
