0 1014 0 0 0 0 0
2 1014 0 0 2 0 0
4.00004 1015 0 0 3 0 0
6 1011 0 0 3 0 0
8 1013 0 0 3 0 0
10 1005 0 0 1 0 0
12 1001 0 0 6 0 0
14 1003 0 0 3 0 0
16 998 0 0 7 0 0
18 998 0 0 6 0 0
20 1004 0 0 3 0 0
22 999 0 0 5 0 0
24 1001 0 0 6 0 0
26 1002 0 0 2 0 0
28 1003 0 0 4 0 0
30 997 0 0 3 0 0
32 1000 0 0 2 0 0
34 1000 0 0 4 0 0
36 990 0 0 9 0 0
38 992 0 0 3 0 0
40 986 0 0 3 0 0
42 984 0 0 2 0 0
44 977 0 0 9 0 0
46 980 0 0 1 0 0
48 975 0 0 5 0 0
50 979 0 0 3 0 0
52 972 0 0 1 0 0
54 969 0 6 3 0 0
56 963 0 10 4 2 0
58 955 0 17 3 2 0
60 952 0 27 1 0 0
62 941 0 39 3 3 0
64 930 0 52 2 2 0
66 918 0 56 1 1 0
68 913 0 72 2 1 0
70 909 0 76 1 3 0
72 902 0 89 1 2 0
74 894 0 101 5 2 0
76 889 0 106 3 5 0
78 881 0 118 0 2 0
80 879 0 125 2 0 0
82 876 0 136 0 1 0
84 873 0 148 0 0 0
86 862 0 152 1 5 0
88 852 0 163 1 3 0
90 845 0 169 0 0 0
92 840 0 172 1 3 0
94 831 0 181 1 0 0
96 828 0 184 2 2 0
98 825 0 188 1 2 0
100 817 0 195 2 1 0
102 810 0 207 1 1 0
104 806 0 215 0 5 0
106 795 0 226 3 0 0
108 790 0 228 2 2 0
110 787 0 233 1 2 0
112 779 0 241 4 2 0
114 772 0 245 0 2 0
116 768 0 257 3 3 0
118 764 0 259 2 3 0
120 760 0 274 0 5 0
122 749 0 277 1 1 0
124 737 0 280 2 3 0
126 729 0 290 3 2 0
128 725 0 294 2 3 0
130 720 0 303 3 2 0
132 713 0 305 5 0 0
134 703 0 306 3 1 0
136 698 0 310 1 3 0
138 698 0 316 1 3 0
140 692 0 324 4 0 0
142 686 0 329 3 3 0
144 672 0 331 6 2 0
146 664 0 338 3 1 0
148 664 0 347 1 1 0
150 661 0 352 0 5 0
152 652 0 355 2 2 0
154 642 0 364 2 3 0
156 637 0 373 2 3 0
158 634 0 375 0 3 0
160 626 0 383 3 1 0
162 628 0 391 0 4 0
164 622 0 393 1 3 0
166 615 0 398 0 1 0
168 611 0 406 3 3 0
170 609 0 413 1 2 0
172 604 0 418 1 2 0
174 601 0 421 0 6 0
176 587 0 421 3 3 0
178 581 0 429 1 0 0
180 574 0 434 2 4 0
182 565 0 442 1 6 0
184 556 0 455 0 3 0
186 553 0 460 2 4 0
188 546 0 461 2 2 0
190 541 0 467 1 4 0
192 539 0 482 0 1 0
194 531 0 485 0 6 0
196 528 0 495 1 1 0
198 523 0 495 1 2 0
200 518 0 489 1 5 0
