0 1009 0 0 0 0 0
2 1016 0 0 2 0 0
4.00004 1008 0 0 1 0 0
6 1006 0 0 2 0 0
8 1002 0 0 6 0 0
10 1004 0 0 4 0 0
12 1000 0 0 2 0 0
14 1010 0 0 3 0 0
16 1009 0 0 1 0 0
18 1008 0 0 3 0 0
20 1007 0 0 3 0 0
22 1007 0 0 2 0 0
24 1001 0 0 2 0 0
26 999 0 0 5 0 0
28 992 0 0 5 0 0
30 1003 0 0 1 0 0
32 1008 0 0 3 0 0
34 1008 0 0 0 0 0
36 1012 0 0 4 0 0
38 1010 0 0 3 0 0
40 1011 0 0 1 0 0
42 1013 0 0 4 0 0
44 1009 0 0 5 0 0
46 1020 0 0 2 0 0
48 1018 0 0 7 0 0
50 1017 0 0 4 0 0
52 1008 0 0 5 0 0
54 1006 0 2 2 0 0
56 1002 0 6 0 1 0
58 991 0 20 0 1 0
60 979 0 25 3 1 0
62 970 0 45 5 2 0
64 961 0 53 3 0 0
66 956 0 58 1 0 0
68 946 0 60 4 2 0
70 932 0 68 4 2 0
72 930 0 72 1 1 0
74 925 0 78 1 1 0
76 918 0 89 2 0 0
78 905 0 97 2 0 0
80 896 0 98 1 1 0
82 887 0 108 0 1 0
84 878 0 111 1 2 0
86 875 0 116 3 2 0
88 874 0 121 0 2 0
90 868 0 127 2 2 0
92 860 0 137 0 0 0
94 852 0 144 1 0 0
96 851 0 149 1 0 0
98 840 0 149 1 2 0
100 828 0 153 2 0 0
102 818 0 163 3 1 0
104 815 0 175 3 2 0
106 811 0 179 0 2 0
108 802 0 185 3 3 0
110 789 0 194 2 1 0
112 783 0 201 0 0 0
114 774 0 205 1 0 0
116 767 0 212 2 1 0
118 759 0 220 2 3 0
120 754 0 227 1 1 0
122 744 0 231 1 4 0
124 737 0 243 2 0 0
126 731 0 251 0 1 0
128 726 0 257 1 2 0
130 721 0 262 3 1 0
132 715 0 263 2 3 0
134 709 0 273 1 1 0
136 705 0 282 2 1 0
138 703 0 289 0 1 0
140 699 0 293 0 1 0
142 695 0 302 0 2 0
144 689 0 307 0 1 0
146 683 0 312 0 4 0
148 675 0 330 0 2 0
150 670 0 342 3 2 0
152 665 0 352 1 1 0
154 658 0 363 2 5 0
156 656 0 367 4 3 0
158 654 0 370 2 0 0
160 649 0 375 3 1 0
162 646 0 377 0 5 0
164 639 0 380 1 1 0
166 633 0 384 0 4 0
168 630 0 390 0 4 0
170 630 0 402 1 2 0
172 622 0 406 5 2 0
174 620 0 416 1 3 0
176 612 0 422 1 2 0
178 606 0 426 0 0 0
180 598 0 432 1 0 0
182 594 0 438 0 1 0
184 591 0 445 1 3 0
186 587 0 448 2 2 0
188 584 0 452 0 2 0
190 583 0 453 0 3 0
192 575 0 450 2 6 0
194 570 0 454 1 2 0
196 568 0 459 1 2 0
198 561 0 456 1 2 0
200 561 0 458 1 3 0
