0 1188 0 0 0 0 0
2 1144 33 0 3 0 0
4.00004 1132 38 0 3 0 0
6 1144 26 0 4 0 0
8 1136 42 0 5 0 0
10 1143 38 0 2 0 0
12 1146 34 0 4 0 0
14 1141 33 0 5 0 0
16 1137 35 0 3 0 0
18 1135 41 0 1 0 0
20 1128 41 0 0 0 0
22 1133 39 0 4 0 0
24 1148 35 0 5 0 0
26 1127 54 0 1 0 0
28 1129 48 0 2 0 0
30 1143 36 0 4 0 0
32 1140 33 0 6 0 0
34 1130 44 0 3 0 0
36 1127 47 0 4 0 0
38 1127 44 0 5 0 0
40 1125 45 0 0 0 0
42 1134 28 0 3 0 0
44 1135 34 0 3 0 0
46 1130 48 0 5 0 0
48 1133 43 0 1 0 0
50 1153 31 0 0 0 0
52 823 0 365 2 1 0
54 636 0 555 3 0 0
56 517 0 678 1 0 0
58 437 0 758 2 3 0
60 351 1 842 0 1 0
62 300 0 892 1 3 0
64 256 0 937 1 4 0
66 214 0 976 1 1 0
68 185 0 1007 2 4 0
70 156 0 1036 1 1 0
72 121 0 1066 0 1 0
74 106 0 1081 0 2 0
76 96 0 1081 2 3 0
78 88 0 1096 0 2 0
80 81 0 1103 0 1 0
82 68 0 1116 1 2 0
84 60 0 1134 1 0 0
86 47 0 1143 2 4 0
88 46 0 1147 0 4 0
90 42 0 1150 2 2 0
92 35 0 1156 1 0 0
94 27 0 1170 1 6 0
96 29 0 1173 1 2 0
98 26 0 1178 1 1 0
100 22 0 1180 0 2 0
102 22 0 1178 1 0 0
104 14 0 1184 1 1 0
106 13 0 1185 0 1 0
108 13 0 1181 0 1 0
110 9 0 1172 0 3 0
112 13 0 1171 0 3 0
114 12 0 1167 0 4 0
116 14 0 1166 1 2 0
118 24 0 1165 0 3 0
120 17 0 1171 1 4 0
122 17 0 1173 1 3 0
124 10 0 1175 0 3 0
126 10 0 1172 2 1 0
128 14 0 1168 1 1 0
130 13 0 1175 1 2 0
132 19 0 1177 1 2 0
134 14 0 1182 1 3 0
136 11 0 1179 0 2 0
138 13 0 1180 0 2 0
140 13 0 1173 1 0 0
142 12 0 1175 0 1 0
144 11 0 1171 2 4 0
146 9 0 1168 0 4 0
148 11 0 1177 0 2 0
150 8 1 1169 0 3 0
152 12 0 1175 1 1 0
154 13 0 1170 2 2 0
156 15 0 1171 0 2 0
158 11 0 1174 2 1 0
160 13 0 1184 0 1 0
162 12 0 1189 0 0 0
164 10 0 1184 0 1 0
166 10 0 1178 0 3 0
168 11 0 1173 1 3 0
170 9 0 1174 1 5 0
172 5 0 1177 0 5 0
174 6 0 1171 2 2 0
176 5 0 1164 0 2 0
178 4 0 1163 0 4 0
180 4 0 1158 0 3 0
182 6 0 1157 0 2 0
184 9 0 1154 0 0 0
186 10 0 1154 0 4 0
188 9 0 1153 1 1 0
190 13 0 1155 1 1 0
192 12 0 1156 0 2 0
194 4 0 1163 0 3 0
196 4 0 1161 0 5 0
198 3 0 1159 1 1 0
200 8 0 1155 2 2 0
