0 818 0 0 0 0 0
2 810 0 0 6 0 0
4.00004 803 0 0 6 0 0
6 806 0 0 1 0 0
8 808 0 0 1 0 0
10 793 0 0 4 0 0
12 787 0 0 9 0 0
14 791 0 0 8 0 0
16 793 0 0 8 0 0
18 801 0 0 3 0 0
20 808 0 0 4 0 0
22 811 0 0 6 0 0
24 816 0 0 4 0 0
26 817 0 0 4 0 0
28 818 0 0 7 0 0
30 820 0 0 4 0 0
32 818 0 0 7 0 0
34 819 0 0 5 0 0
36 827 0 0 7 0 0
38 827 0 0 6 0 0
40 822 0 0 5 0 0
42 819 0 0 9 0 0
44 822 0 0 7 0 0
46 815 0 0 4 0 0
48 824 0 0 2 0 0
50 817 0 0 4 0 0
52 814 0 10 2 0 0
54 796 0 30 3 1 0
56 774 0 44 3 3 0
58 756 0 60 6 6 0
60 739 0 80 3 1 0
62 729 0 94 2 1 0
64 711 0 110 3 0 0
66 703 0 127 4 0 0
68 689 0 140 0 2 0
70 670 0 153 3 3 0
72 647 0 167 5 3 0
74 638 0 172 5 2 0
76 631 0 180 0 3 0
78 611 0 188 3 1 0
80 604 0 196 1 3 0
82 591 0 212 4 9 0
84 581 0 230 3 3 0
86 567 0 247 2 2 0
88 559 0 262 3 2 0
90 547 0 265 1 2 0
92 536 0 279 2 2 0
94 529 0 290 0 4 0
96 513 0 304 1 2 0
98 513 0 310 0 2 0
100 501 0 321 1 5 0
102 497 0 330 1 6 0
104 487 0 340 2 4 0
106 471 0 357 2 4 0
108 461 0 363 1 2 0
110 449 0 372 1 2 0
112 439 0 374 2 1 0
114 433 0 380 2 5 0
116 426 0 388 2 5 0
118 411 0 393 4 4 0
120 407 0 403 1 0 0
122 403 0 406 0 1 0
124 393 0 406 3 6 0
126 381 0 406 3 2 0
128 368 0 414 1 4 0
130 364 0 421 1 1 0
132 362 0 436 1 4 0
134 349 0 445 3 1 0
136 347 0 448 1 3 0
138 341 0 454 2 2 0
140 339 0 459 1 8 0
142 334 0 470 2 4 0
144 331 0 470 2 2 0
146 323 0 480 1 2 0
148 313 0 484 2 3 0
150 309 0 494 0 5 0
152 302 0 507 3 3 0
154 298 0 507 1 7 0
156 291 0 520 2 0 0
158 277 0 534 3 3 0
160 273 0 535 4 4 0
162 268 0 538 1 4 0
164 261 0 550 4 2 0
166 256 0 561 1 1 0
168 253 0 573 0 0 0
170 249 0 565 0 7 0
172 248 0 581 0 4 0
174 241 0 590 4 6 0
176 240 0 591 1 0 0
178 237 0 590 0 1 0
180 233 0 596 0 2 0
182 221 0 603 3 3 0
184 220 0 601 1 2 0
186 216 0 598 1 6 0
188 208 0 611 1 4 0
190 205 0 610 0 4 0
192 202 0 620 1 4 0
194 194 0 625 1 6 0
196 192 0 623 1 7 0
198 184 0 625 0 2 0
200 183 0 623 0 4 0
