0 973 0 0 0 0 0
2 888 0 0 79 0 0
4.00004 891 0 0 76 0 0
6 883 0 0 88 0 0
8 897 0 0 67 0 0
10 888 0 0 69 0 0
12 881 0 0 91 0 0
14 874 0 0 89 0 0
16 893 0 0 88 0 0
18 881 0 0 91 0 0
20 900 0 0 87 0 0
22 895 0 0 96 0 0
24 894 0 0 84 0 0
26 901 0 0 77 0 0
28 913 0 0 78 0 0
30 909 0 0 79 0 0
32 900 0 0 86 0 0
34 896 0 0 89 0 0
36 881 0 0 92 0 0
38 877 0 0 105 0 0
40 870 0 0 95 0 0
42 887 0 0 84 0 0
44 894 0 0 80 0 0
46 883 0 0 86 0 0
48 896 0 0 84 0 0
50 868 0 0 87 0 0
52 847 0 26 62 31 0
54 845 0 54 39 33 0
56 823 0 78 35 42 0
58 801 0 100 41 33 0
60 777 0 108 54 62 0
62 773 0 127 37 56 0
64 754 0 152 37 42 0
66 733 0 167 36 57 0
68 709 0 187 46 45 0
70 700 0 187 41 56 0
72 680 0 211 42 50 0
74 662 0 228 37 48 0
76 641 0 232 41 55 0
78 619 0 258 36 42 0
80 613 0 261 31 51 0
82 603 0 262 28 52 0
84 585 0 280 30 55 0
86 569 0 297 32 54 0
88 555 0 309 31 53 0
90 542 0 322 32 57 0
92 535 0 332 26 59 0
94 517 0 361 30 49 0
96 505 0 365 30 55 0
98 499 0 372 19 68 0
100 476 0 391 27 55 0
102 471 0 395 23 60 0
104 458 0 416 23 56 0
106 444 0 412 29 63 0
108 443 0 429 17 68 0
110 437 0 438 13 66 0
112 423 0 461 18 54 0
114 409 0 446 23 79 0
116 403 0 476 21 61 0
118 396 0 468 21 65 0
120 381 0 484 23 60 0
122 367 0 499 22 52 0
124 361 0 505 20 59 0
126 350 0 506 21 65 0
128 342 0 524 17 55 0
130 336 0 527 16 54 0
132 322 0 511 21 74 0
134 320 0 535 16 66 0
136 308 0 538 19 58 0
138 309 0 554 14 63 0
140 292 0 576 23 61 0
142 288 0 566 20 82 0
144 289 0 587 12 61 0
146 279 0 597 16 65 0
148 280 0 596 10 64 0
150 273 0 590 13 73 0
152 261 0 586 16 82 0
154 252 0 604 14 79 0
156 251 0 627 10 73 0
158 241 0 637 16 69 0
160 236 0 634 14 76 0
162 226 0 642 15 72 0
164 231 0 641 3 83 0
166 225 0 660 2 73 0
168 218 0 651 8 70 0
170 212 0 673 10 79 0
172 208 0 684 11 74 0
174 200 0 680 14 75 0
176 196 0 681 11 71 0
178 189 0 699 14 64 0
180 183 0 696 14 80 0
182 181 0 708 13 75 0
184 182 0 708 5 85 0
186 176 0 725 7 67 0
188 168 0 728 11 67 0
190 167 0 711 9 86 0
192 165 0 722 8 65 0
194 159 0 714 11 79 0
196 158 0 721 6 81 0
198 154 0 733 7 79 0
200 153 0 741 8 79 0
