0 1158 0 0 0 0 0
2 1072 24 0 59 0 3
4.00004 1078 24 0 49 0 2
6 1079 22 0 49 0 1
8 1068 23 0 57 0 7
10 1069 19 0 58 0 5
12 1071 36 0 47 0 5
14 1070 27 0 59 0 2
16 1063 25 0 60 0 2
18 1060 37 0 55 0 4
20 1040 34 0 66 0 10
22 1031 20 0 84 0 6
24 1034 23 0 76 0 4
26 1038 28 0 72 0 4
28 1055 22 0 60 0 6
30 1052 21 0 63 0 3
32 1039 21 0 70 0 6
34 1029 33 0 70 0 6
36 1045 25 0 55 0 5
38 1036 19 0 58 0 4
40 1027 28 0 58 0 7
42 1022 30 0 65 0 9
44 1018 28 0 72 0 5
46 1020 34 0 58 0 5
48 1023 29 0 61 0 5
50 1013 36 0 63 0 1
52 991 0 47 34 34 0
54 969 0 64 33 48 0
56 943 0 92 26 52 0
58 924 0 132 22 40 0
60 904 0 152 20 39 0
62 869 0 168 32 50 0
64 859 0 179 22 54 0
66 838 0 210 26 53 0
68 819 0 231 25 52 0
70 807 0 251 18 45 0
72 793 0 253 15 49 0
74 770 0 265 23 46 0
76 752 0 271 23 51 0
78 739 0 295 21 46 0
80 722 0 308 18 52 0
82 704 0 333 22 41 0
84 695 0 345 16 49 0
86 681 0 381 16 36 1
88 668 0 370 17 51 0
90 652 0 388 22 41 0
92 646 0 412 10 45 0
94 627 0 414 21 37 0
96 626 0 411 17 48 0
98 615 0 416 17 43 0
100 605 0 426 10 40 0
102 583 0 439 18 46 0
104 576 0 456 14 40 0
106 569 0 458 9 52 0
108 551 0 441 13 67 0
110 546 0 466 10 46 0
112 527 0 478 17 58 0
114 513 0 495 18 50 0
116 504 0 510 15 52 0
118 487 1 516 12 53 0
120 472 0 529 20 55 0
122 462 0 543 13 47 0
124 450 0 556 14 48 0
126 445 0 555 12 47 0
128 431 0 567 5 56 0
130 413 0 575 10 54 0
132 410 0 584 7 47 0
134 391 0 585 17 53 0
136 378 0 594 16 53 0
138 372 0 615 9 57 0
140 367 0 618 6 60 0
142 351 0 617 13 68 0
144 345 1 638 14 63 0
146 341 0 630 6 79 0
148 330 0 645 13 59 0
150 324 0 646 14 64 0
152 322 0 643 9 57 0
154 313 0 654 10 53 0
156 301 0 666 15 57 0
158 302 0 662 12 48 0
160 300 0 683 9 37 0
162 295 0 668 9 47 0
164 291 0 678 11 46 0
166 287 0 683 8 49 0
168 282 0 675 7 48 0
170 275 0 690 6 55 0
172 265 0 697 9 50 0
174 250 0 698 15 50 0
176 244 0 703 10 53 0
178 241 0 708 6 56 0
180 237 0 713 6 56 0
182 227 0 711 5 66 0
184 223 0 733 7 54 0
186 220 0 724 6 55 0
188 212 0 735 10 47 0
190 215 0 742 6 43 0
192 214 0 728 3 57 0
194 208 0 741 9 51 1
196 207 0 757 5 52 0
198 201 0 741 7 70 0
200 195 0 762 5 49 0
