0 1176 0 0 0 0 0
2 1076 9 0 73 0 15
4.00004 1081 13 0 67 0 18
6 1100 14 0 61 0 14
8 1106 13 0 45 0 20
10 1127 9 0 35 0 11
12 1111 22 0 55 0 12
14 1110 16 0 66 0 15
16 1118 14 0 66 0 9
18 1136 18 0 43 0 16
20 1116 12 0 69 0 16
22 1120 12 0 58 0 19
24 1130 17 0 52 0 13
26 1122 12 0 63 0 14
28 1127 13 0 53 0 18
30 1110 15 0 68 0 16
32 1132 20 0 54 0 12
34 1137 12 0 53 0 8
36 1129 13 0 53 0 12
38 1135 11 0 47 0 14
40 1139 11 0 54 0 15
42 1146 20 0 41 0 18
44 1141 26 0 39 0 10
46 1143 10 0 55 0 15
48 1126 15 0 59 0 13
50 1131 10 0 58 0 18
52 1117 0 37 29 38 0
54 1083 0 59 26 61 0
56 1062 0 84 29 48 0
58 1023 0 108 33 45 1
60 1011 0 116 15 65 0
62 974 0 143 32 61 0
64 956 0 153 25 59 0
66 928 0 178 30 58 0
68 904 0 207 28 44 0
70 887 0 219 20 56 0
72 870 0 236 23 51 0
74 849 0 255 24 49 0
76 826 0 275 31 54 0
78 809 0 293 23 45 0
80 800 0 302 14 63 2
82 773 0 325 19 51 0
84 753 0 348 21 55 0
86 736 0 350 14 71 1
88 714 0 383 24 61 0
90 704 0 401 16 56 1
92 691 0 410 14 61 0
94 659 0 438 21 62 0
96 647 0 453 17 61 0
98 625 0 467 22 64 1
100 613 0 495 14 64 0
102 606 0 500 8 67 0
104 586 0 506 14 56 0
106 566 0 519 14 54 0
108 553 0 532 10 44 0
110 532 0 536 19 70 0
112 527 0 542 13 70 0
114 511 0 571 13 59 0
116 502 0 587 9 51 0
118 486 0 599 12 61 0
120 473 0 609 11 61 0
122 452 0 622 14 77 0
124 437 0 622 14 91 0
126 425 0 637 13 92 0
128 422 0 648 9 77 1
130 411 0 665 9 64 0
132 400 0 668 10 84 0
134 391 0 683 9 80 0
136 379 0 686 10 84 0
138 370 0 697 6 81 0
140 362 0 717 7 66 0
142 357 0 727 8 79 0
144 335 0 754 19 50 0
146 329 0 751 10 74 0
148 319 0 771 11 48 0
150 307 0 769 9 61 0
152 301 0 781 7 52 0
154 299 0 774 6 63 0
156 294 0 775 7 65 0
158 290 0 788 4 59 0
160 281 0 790 5 59 0
162 269 0 802 10 62 0
164 265 0 806 7 72 0
166 255 0 808 9 79 0
168 253 0 832 6 64 0
170 244 0 830 10 75 0
172 242 0 838 7 77 0
174 234 0 856 6 70 0
176 224 0 856 5 82 0
178 207 0 878 11 62 0
180 206 0 868 7 76 0
182 203 0 893 5 71 0
184 199 0 891 5 68 0
186 189 0 904 5 67 0
188 184 0 890 4 85 0
190 181 0 908 3 79 0
192 177 0 913 4 71 0
194 167 0 926 8 67 0
196 165 0 926 4 70 0
198 163 0 950 3 56 0
200 157 0 941 4 68 0
