0 1162 0 0 0 0 0
2 1072 30 0 56 0 0
4.00004 1054 30 0 73 0 0
6 1042 40 0 77 0 0
8 1043 44 0 64 0 0
10 1031 38 0 77 0 0
12 1030 48 0 79 0 0
14 1013 47 0 91 0 0
16 1019 46 0 88 0 0
18 1017 46 0 84 0 0
20 1006 44 0 88 0 0
22 1001 52 0 92 0 0
24 1023 58 0 80 0 0
26 1014 45 0 88 0 0
28 1007 50 0 98 0 0
30 1008 47 0 83 0 0
32 1007 51 0 80 0 0
34 1000 49 0 103 0 0
36 1011 41 0 86 0 0
38 1021 49 0 80 0 0
40 1019 41 0 80 0 0
42 1010 46 0 92 0 0
44 1006 45 0 92 0 0
46 1031 58 0 69 0 0
48 997 55 0 86 0 0
50 1010 48 0 80 0 0
52 957 0 92 43 41 0
54 938 0 103 28 60 0
56 897 0 157 36 48 0
58 871 1 172 42 46 0
60 855 0 188 26 67 0
62 833 0 205 25 59 0
64 810 0 231 25 59 0
66 791 0 259 27 67 0
68 772 0 296 28 63 0
70 761 0 316 23 48 0
72 735 0 309 25 72 0
74 713 0 336 29 79 0
76 699 0 352 25 58 0
78 687 0 374 21 61 0
80 673 0 390 21 52 0
82 637 0 405 37 69 0
84 624 0 423 31 62 0
86 618 0 436 14 57 0
88 615 0 444 14 50 0
90 601 0 456 18 58 0
92 591 0 465 19 62 0
94 579 0 484 20 64 0
96 555 0 500 24 67 0
98 547 1 526 17 61 0
100 530 0 534 16 62 0
102 513 0 534 17 80 0
104 499 0 553 22 62 0
106 496 0 568 14 67 0
108 482 0 570 14 71 0
110 470 0 596 19 74 0
112 457 0 588 16 89 0
114 446 0 616 17 68 0
116 440 0 616 16 71 0
118 437 0 643 7 67 0
120 428 0 661 10 59 0
122 420 0 644 13 77 0
124 411 0 664 9 71 0
126 396 0 682 10 68 0
128 386 1 705 9 66 0
130 379 0 689 14 78 0
132 370 1 711 14 54 0
134 360 0 714 13 66 0
136 348 0 710 10 73 0
138 342 0 722 11 63 0
140 332 0 742 12 57 0
142 330 0 724 10 83 0
144 325 0 742 9 72 0
146 322 0 760 9 62 0
148 305 0 748 16 74 0
150 297 0 755 12 76 0
152 293 0 753 10 83 0
154 289 0 765 8 80 0
156 275 0 781 13 70 0
158 271 0 773 12 83 0
160 265 0 771 8 73 0
162 261 0 772 11 78 0
164 255 0 787 14 77 0
166 250 0 794 13 64 0
168 247 0 800 12 62 0
170 244 0 798 11 69 0
172 237 0 814 9 83 0
174 233 0 826 8 65 0
176 230 0 816 4 73 0
178 224 0 818 7 82 0
180 217 0 818 7 88 0
182 213 0 834 5 89 0
184 208 0 845 10 80 0
186 204 0 851 8 80 0
188 203 0 870 7 76 0
190 200 0 880 7 79 0
192 192 0 873 12 78 0
194 195 0 888 6 75 0
196 192 0 892 3 82 0
198 183 0 891 7 84 0
200 177 0 896 6 83 0
