0 1089 0 0 0 0 0
2 990 37 0 67 0 0
4.00004 998 31 0 65 0 0
6 1000 35 0 45 0 0
8 1001 35 0 52 0 0
10 1004 32 0 61 0 0
12 1003 43 0 57 0 0
14 1004 41 0 51 0 0
16 1012 39 0 43 0 0
18 1015 37 0 45 0 0
20 1006 34 0 54 0 0
22 997 35 0 55 0 0
24 990 39 0 57 0 0
26 988 34 0 68 0 0
28 988 39 0 61 0 0
30 1000 44 0 64 0 0
32 994 50 0 58 0 0
34 1000 40 0 61 0 0
36 1000 41 0 71 0 0
38 1011 37 0 51 0 0
40 997 35 0 66 0 0
42 1003 38 0 66 0 0
44 1001 46 0 58 0 0
46 1018 30 0 59 0 0
48 1009 40 0 60 0 0
50 1013 36 0 55 0 0
52 973 0 66 20 31 0
54 949 0 100 20 31 0
56 924 0 106 22 43 0
58 912 0 118 20 39 0
60 887 0 140 27 34 0
62 878 0 148 22 39 0
64 861 0 162 23 34 0
66 852 0 174 26 35 0
68 844 0 184 17 45 0
70 823 0 220 24 31 0
72 811 0 217 18 43 0
74 805 0 235 9 46 0
76 782 0 258 14 47 0
78 775 0 247 14 64 0
80 762 0 281 16 55 0
82 755 0 290 12 49 0
84 740 0 305 13 41 0
86 729 0 324 17 45 0
88 713 0 335 16 48 0
90 706 0 365 11 50 0
92 693 0 380 13 51 0
94 675 0 389 18 42 0
96 660 0 407 16 48 0
98 657 0 416 6 48 0
100 634 0 423 18 42 0
102 627 0 445 16 42 0
104 621 0 459 13 47 0
106 612 0 464 14 45 0
108 592 0 468 24 37 0
110 583 0 473 12 44 0
112 573 1 491 13 38 0
114 566 0 490 14 47 0
116 553 0 500 13 57 0
118 547 0 515 9 53 0
120 544 0 520 9 42 0
122 535 0 526 8 36 0
124 519 0 534 17 41 0
126 519 0 537 10 41 0
128 508 0 544 7 44 0
130 495 0 543 14 51 0
132 487 0 553 10 38 0
134 478 0 557 10 51 0
136 480 0 582 5 54 0
138 465 0 587 9 53 0
140 460 0 599 6 55 0
142 453 0 597 5 47 0
144 444 0 605 7 51 0
146 435 0 625 14 41 0
148 428 0 629 11 45 0
150 421 0 623 12 69 0
152 411 0 653 12 44 0
154 408 0 641 13 59 0
156 403 0 647 10 47 0
158 384 0 662 18 52 0
160 387 0 665 5 47 0
162 379 0 655 9 65 0
164 372 0 683 7 47 0
166 363 0 680 9 50 0
168 357 0 689 7 55 0
170 358 0 687 4 66 0
172 347 0 707 5 47 0
174 339 0 702 8 57 0
176 334 0 711 10 60 0
178 331 0 722 8 56 0
180 331 0 719 3 62 0
182 323 0 736 8 53 0
184 316 0 734 6 58 0
186 315 0 744 4 50 0
188 311 0 748 5 56 0
190 306 0 761 2 52 0
192 293 0 765 12 43 0
194 288 0 769 8 61 0
196 286 0 788 7 48 0
198 282 0 790 5 50 0
200 280 0 794 6 53 0
