0 1135 0 0 0 0 0
2 1025 26 0 64 0 8
4.00004 1025 27 0 60 0 15
6 1029 34 0 60 0 15
8 1021 28 0 80 0 10
10 1024 33 0 73 0 14
12 1018 39 0 70 0 18
14 1026 32 0 71 0 17
16 1029 32 0 69 0 16
18 1041 38 0 60 0 8
20 1041 28 0 60 0 18
22 1040 36 0 65 0 19
24 1041 29 0 63 0 14
26 1041 37 0 59 0 16
28 1048 25 0 66 0 8
30 1041 36 0 62 0 10
32 1034 39 0 73 0 10
34 1032 39 0 67 0 14
36 1028 33 0 76 0 9
38 1042 30 0 70 0 15
40 1049 38 0 66 0 15
42 1053 33 0 62 0 11
44 1063 29 0 57 0 9
46 1067 18 0 66 0 11
48 1062 22 0 66 0 16
50 1052 20 0 80 0 8
52 1038 0 45 28 58 0
54 1016 0 85 25 47 0
56 987 0 112 28 56 1
58 955 0 126 23 78 0
60 930 0 169 23 55 0
62 909 0 175 21 57 1
64 891 0 219 17 50 0
66 868 0 222 18 66 0
68 854 0 244 13 58 1
70 833 0 263 24 64 0
72 817 0 281 17 67 0
74 791 0 305 21 63 0
76 769 0 321 20 72 1
78 750 0 356 19 79 0
80 726 0 382 23 65 0
82 704 0 402 17 74 0
84 687 0 432 15 56 1
86 661 0 433 17 78 0
88 642 0 457 21 68 0
90 622 0 475 19 65 0
92 605 0 483 14 76 0
94 604 0 500 5 63 0
96 582 0 505 12 65 0
98 571 0 512 10 72 0
100 560 0 529 14 66 0
102 546 0 556 12 52 0
104 529 0 552 17 72 0
106 513 0 569 14 65 0
108 505 0 575 10 66 0
110 488 0 585 11 80 0
112 481 0 590 7 66 0
114 469 0 612 12 70 0
116 450 0 630 15 75 0
118 451 0 643 5 64 0
120 439 0 626 10 72 0
122 424 0 647 12 77 0
124 418 0 665 8 68 0
126 407 0 669 6 71 0
128 396 0 669 8 79 0
130 383 0 691 11 80 0
132 369 0 704 9 68 1
134 362 0 705 6 77 0
136 344 0 715 11 70 0
138 343 0 734 5 72 0
140 337 0 737 8 73 0
142 330 0 756 8 70 0
144 318 0 758 12 77 0
146 321 0 770 3 63 0
148 312 0 777 7 82 0
150 304 0 786 9 75 0
152 297 0 799 6 80 0
154 282 0 812 13 69 0
156 282 0 798 8 90 0
158 272 0 808 9 72 0
160 262 0 820 7 75 0
162 254 0 827 7 78 0
164 245 0 819 8 91 0
166 247 0 836 4 72 0
168 239 0 835 4 84 0
170 231 0 845 3 70 0
172 221 0 849 4 84 0
174 206 0 856 9 87 0
176 205 0 866 6 81 0
178 200 0 872 2 76 0
180 197 0 888 3 68 0
182 191 0 888 5 77 0
184 190 0 887 3 81 0
186 185 0 895 5 83 0
188 179 0 917 4 75 0
190 177 0 917 1 80 0
192 171 1 921 3 69 0
194 169 0 914 2 77 0
196 167 0 912 1 94 0
198 160 0 926 4 78 0
200 160 0 921 2 76 0
