0 503 0 0 0 0 767
2 512 0 0 15 0 767
4.00004 512 0 0 22 0 767
6 516 0 0 18 0 767
8 508 0 0 18 0 767
10 518 0 0 21 0 767
12 512 0 0 25 0 767
14 523 0 0 26 0 767
16 533 0 0 15 0 767
18 536 0 0 17 0 767
20 532 0 0 19 0 767
22 538 0 0 17 0 767
24 551 0 0 22 0 767
26 548 0 0 25 0 767
28 560 0 0 24 0 767
30 556 0 0 19 0 767
32 566 0 0 17 0 767
34 562 0 0 18 0 767
36 546 0 0 24 0 767
38 545 0 0 21 0 767
40 541 0 0 33 0 767
42 537 0 0 20 0 767
44 523 0 0 25 0 767
46 522 0 0 21 0 767
48 523 0 0 32 0 767
50 543 0 0 21 0 767
52 538 0 2 23 0 767
54 551 0 5 19 0 767
56 538 0 13 24 1 767
58 537 0 23 14 2 767
60 533 0 30 16 2 767
62 511 0 37 20 2 767
64 504 0 51 20 4 767
66 499 0 60 14 4 767
68 470 0 76 25 5 767
70 444 0 90 25 5 767
72 436 0 97 20 5 767
74 427 0 116 9 1 767
76 400 0 131 12 6 767
78 383 0 149 11 7 767
80 370 0 157 12 9 767
82 338 0 175 25 10 767
84 336 0 189 11 8 767
86 319 0 204 19 11 767
88 319 0 204 12 14 767
90 309 0 222 8 12 767
92 287 0 230 9 11 767
94 272 0 245 14 12 767
96 260 0 243 9 8 767
98 246 0 241 14 17 767
100 241 0 268 2 16 767
102 224 0 280 12 14 767
104 226 0 300 11 15 767
106 218 0 317 10 13 767
108 205 0 329 11 13 767
110 195 0 353 9 13 767
112 191 0 355 9 17 767
114 185 0 369 7 14 767
116 183 0 385 3 15 767
118 171 0 369 5 21 767
120 168 0 379 2 20 767
122 161 0 399 2 11 767
124 152 0 391 4 18 767
126 146 0 396 5 19 767
128 143 0 400 5 16 767
130 134 0 410 6 12 767
132 125 0 412 3 14 767
134 121 0 412 1 14 767
136 114 0 418 6 18 767
138 113 0 422 3 23 767
140 109 0 441 1 14 767
142 104 0 461 3 12 767
144 97 0 466 4 16 767
146 89 0 476 5 12 767
148 88 0 475 6 17 767
150 84 0 469 6 20 767
152 84 0 470 5 24 767
154 84 0 473 3 17 767
156 77 0 459 6 21 767
158 74 0 463 3 22 767
160 68 0 470 4 23 767
162 67 0 478 5 21 767
164 72 0 487 1 16 767
166 67 0 493 0 14 767
168 64 0 489 2 24 767
170 64 0 488 0 28 767
172 58 0 492 5 29 767
174 56 0 485 1 20 767
176 52 0 482 0 29 767
178 47 0 480 1 28 767
180 48 0 505 1 17 767
182 44 0 516 2 17 767
184 41 0 530 2 17 767
186 43 0 530 2 24 767
188 44 0 535 1 19 767
190 43 0 536 0 14 767
192 41 0 532 2 24 767
194 38 0 514 2 20 767
196 40 0 510 0 23 767
198 37 0 502 3 26 767
200 32 0 502 5 16 767
