0 1410 0 0 0 0 826
2 1392 8 0 11 0 826
4.00004 1395 8 0 19 0 826
6 1405 9 0 16 0 826
8 1409 13 0 29 0 826
10 1424 13 0 14 0 826
12 1433 13 0 19 0 826
14 1454 9 0 15 0 826
16 1434 14 0 18 0 826
18 1428 11 0 22 0 826
20 1451 10 0 15 0 826
22 1434 13 0 21 0 826
24 1441 8 0 22 0 826
26 1439 10 0 18 0 826
28 1442 8 0 17 0 826
30 1428 9 0 16 0 826
32 1434 8 0 9 0 826
34 1421 12 0 10 0 826
36 1432 5 0 18 0 826
38 1428 10 0 9 0 826
40 1423 10 0 19 0 826
42 1429 7 0 16 0 826
44 1421 10 0 16 0 826
46 1422 11 0 22 0 826
48 1431 14 0 25 0 826
50 1439 9 0 20 0 826
52 1261 0 190 17 0 826
54 1110 1 347 19 3 826
56 1012 0 462 18 3 826
58 935 0 559 12 6 826
60 834 0 650 13 7 826
62 754 0 734 11 4 826
64 662 0 823 9 9 826
66 605 0 886 5 4 826
68 539 1 923 6 10 826
70 487 1 960 10 7 826
72 462 0 991 8 5 826
74 418 0 1037 9 7 826
76 377 0 1062 8 13 826
78 342 0 1097 8 11 826
80 311 0 1118 6 15 826
82 291 0 1140 5 9 826
84 263 1 1174 3 14 826
86 249 0 1187 7 12 826
88 239 0 1200 1 15 826
90 228 0 1224 5 15 826
92 205 0 1254 8 11 826
94 198 0 1267 4 9 826
96 180 1 1282 3 10 826
98 173 0 1298 2 18 826
100 151 0 1316 3 12 826
102 149 0 1330 3 11 826
104 136 0 1335 4 19 826
106 127 0 1349 5 10 826
108 119 0 1353 1 16 826
110 110 0 1361 1 18 826
112 109 0 1376 2 8 826
114 108 0 1383 0 14 826
116 91 0 1396 2 16 826
118 89 0 1400 2 11 826
120 85 0 1402 1 8 826
122 82 0 1428 0 9 826
124 75 0 1423 3 19 826
126 68 0 1428 1 18 826
128 68 0 1432 2 17 826
130 63 0 1421 0 13 826
132 59 0 1414 2 20 826
134 52 0 1419 2 19 826
136 48 0 1419 0 15 826
138 44 0 1433 4 20 826
140 43 0 1451 4 10 826
142 42 0 1454 0 18 826
144 36 0 1435 2 17 826
146 30 0 1436 2 21 826
148 30 0 1437 0 16 826
150 31 0 1429 0 22 826
152 26 0 1445 1 11 826
154 28 0 1432 3 9 826
156 30 0 1421 0 24 826
158 32 0 1436 2 15 826
160 35 0 1435 2 13 826
162 29 0 1427 1 21 826
164 26 0 1433 2 13 826
166 26 0 1436 0 16 826
168 24 0 1429 0 19 826
170 22 0 1435 0 16 826
172 21 0 1437 1 24 826
174 20 0 1427 0 17 826
176 16 0 1437 0 21 826
178 15 0 1436 0 14 826
180 13 0 1421 0 17 826
182 12 0 1427 1 20 826
184 12 0 1429 0 17 826
186 9 0 1434 0 15 826
188 10 0 1453 0 20 826
190 10 0 1454 0 16 826
192 9 0 1453 0 18 826
194 8 0 1470 0 18 826
196 6 0 1470 0 16 826
198 6 0 1472 0 21 826
200 5 0 1484 0 13 826
