0 491 0 0 0 0 811
2 485 0 0 13 0 811
4.00004 480 0 0 18 0 811
6 496 0 0 16 0 811
8 496 0 0 17 0 811
10 506 0 0 16 0 811
12 496 0 0 27 0 811
14 520 0 0 19 0 811
16 508 0 0 20 0 811
18 518 0 0 17 0 811
20 505 0 0 23 0 811
22 521 0 0 22 0 811
24 531 0 0 27 0 811
26 542 0 0 12 0 811
28 534 0 0 26 0 811
30 548 0 0 16 0 811
32 553 0 0 19 0 811
34 536 0 0 25 0 811
36 546 0 0 19 0 811
38 546 0 0 14 0 811
40 552 0 0 18 0 811
42 571 0 0 16 0 811
44 566 0 0 14 0 811
46 563 0 0 20 0 811
48 557 0 0 19 0 811
50 563 0 0 16 0 811
52 556 0 1 21 0 811
54 562 0 8 19 1 811
56 543 0 12 20 1 811
58 525 0 26 17 3 811
60 521 0 38 13 6 811
62 504 0 56 19 5 811
64 494 0 85 14 5 811
66 482 0 110 16 4 811
68 461 0 119 15 2 811
70 457 0 135 8 9 811
72 436 0 152 11 10 811
74 417 0 159 15 8 811
76 398 0 177 12 7 811
78 383 0 184 17 6 811
80 372 0 194 10 10 811
82 351 0 208 9 5 811
84 348 0 213 7 6 811
86 330 0 235 13 10 811
88 310 0 258 12 11 811
90 300 0 276 7 7 811
92 282 0 293 10 14 811
94 269 0 316 10 12 811
96 256 0 332 4 20 811
98 241 0 323 8 8 811
100 232 0 338 10 17 811
102 228 0 348 4 13 811
104 224 0 370 5 13 811
106 207 0 381 8 14 811
108 198 0 382 5 21 811
110 188 0 388 3 20 811
112 173 0 396 11 17 811
114 168 0 422 6 9 811
116 157 0 417 3 17 811
118 143 0 425 2 22 811
120 140 0 423 4 21 811
122 139 0 427 2 15 811
124 124 0 417 5 16 811
126 124 0 414 2 16 811
128 124 0 430 2 10 811
130 124 0 439 1 14 811
132 117 0 443 3 21 811
134 114 0 438 4 20 811
136 106 0 453 5 15 811
138 110 0 472 1 17 811
140 98 0 482 4 12 811
142 90 0 490 2 21 811
144 87 0 493 4 20 811
146 82 0 498 1 18 811
148 74 0 501 5 8 811
150 70 0 517 5 12 811
152 68 0 501 3 24 811
154 65 0 509 1 15 811
156 63 0 512 3 14 811
158 58 0 508 4 15 811
160 59 0 508 1 20 811
162 57 0 529 2 11 811
164 58 0 521 1 14 811
166 58 0 532 0 22 811
168 56 0 528 2 19 811
170 51 0 539 1 19 811
172 51 0 532 0 24 811
174 51 0 538 0 20 811
176 47 0 541 2 27 811
178 42 0 537 1 18 811
180 41 0 548 2 16 811
182 42 0 558 0 18 811
184 39 0 551 1 16 811
186 36 0 540 3 19 811
188 39 0 539 0 27 811
190 31 0 536 3 31 811
192 32 0 543 0 11 811
194 30 0 555 0 25 811
196 28 0 554 0 20 811
198 23 0 533 1 23 811
200 24 0 540 0 21 811
