0 1606 0 0 0 0 803
2 1586 8 0 25 0 803
4.00004 1600 10 0 23 0 803
6 1601 12 0 28 0 803
8 1615 15 0 33 0 803
10 1655 9 0 19 0 803
12 1654 8 0 20 0 803
14 1658 12 0 15 0 803
16 1660 12 0 15 0 803
18 1663 6 0 24 0 803
20 1664 12 0 25 0 803
22 1670 12 0 22 0 803
24 1673 12 0 25 0 803
26 1685 10 0 19 0 803
28 1685 4 0 21 0 803
30 1687 11 0 23 0 803
32 1686 12 0 29 0 803
34 1679 10 0 13 0 803
36 1662 10 0 17 0 803
38 1653 8 0 24 0 803
40 1646 14 0 22 0 803
42 1644 15 0 23 0 803
44 1656 7 0 23 0 803
46 1656 8 0 24 0 803
48 1656 11 0 26 0 803
50 1668 6 0 25 0 803
52 1488 1 198 15 0 803
54 1316 1 368 12 5 803
56 1183 0 504 17 2 803
58 1071 0 610 16 8 803
60 971 1 706 15 5 803
62 892 0 784 15 8 803
64 811 1 865 15 8 803
66 753 0 925 18 11 803
68 680 0 1011 10 13 803
70 617 1 1069 7 14 803
72 546 0 1130 10 17 803
74 507 0 1187 8 8 803
76 465 0 1223 6 15 803
78 421 0 1260 14 12 803
80 374 0 1307 4 14 803
82 344 0 1323 4 25 803
84 328 0 1362 6 11 803
86 302 0 1402 2 11 803
88 271 1 1427 3 18 803
90 255 0 1441 4 15 803
92 236 0 1463 2 14 803
94 225 0 1471 6 16 803
96 211 0 1486 3 16 803
98 194 0 1503 5 17 803
100 174 0 1524 2 22 803
102 164 0 1532 1 20 803
104 149 0 1555 1 15 803
106 145 0 1577 0 14 803
108 126 0 1589 2 24 803
110 114 0 1617 3 13 803
112 107 0 1609 1 18 803
114 97 0 1620 1 21 803
116 87 0 1626 1 13 803
118 84 0 1631 3 14 803
120 78 0 1630 0 19 803
122 74 0 1638 1 21 803
124 67 0 1642 0 15 803
126 60 0 1642 1 17 803
128 58 0 1655 1 14 803
130 51 0 1658 1 14 803
132 45 1 1666 2 19 803
134 42 1 1665 0 20 803
136 41 0 1665 1 23 803
138 33 0 1671 0 24 803
140 33 0 1669 0 21 803
142 29 0 1685 0 18 803
144 30 0 1679 1 21 803
146 26 0 1682 1 16 803
148 23 0 1679 0 25 803
150 22 0 1692 0 18 803
152 19 0 1691 0 26 803
154 16 0 1696 0 19 803
156 11 0 1688 0 22 803
158 11 0 1685 0 21 803
160 10 0 1689 0 17 803
162 10 0 1703 0 23 803
164 10 0 1696 1 18 803
166 10 0 1700 0 24 803
168 10 0 1683 0 24 803
170 8 0 1681 0 28 803
172 7 0 1690 0 14 803
174 7 0 1687 0 18 803
176 6 0 1708 0 14 803
178 6 0 1708 0 19 803
180 5 0 1718 1 21 803
182 6 0 1724 0 16 803
184 6 0 1718 0 24 803
186 6 0 1713 0 20 803
188 6 0 1700 0 30 803
190 4 0 1696 0 24 803
192 3 0 1700 0 18 803
194 2 0 1710 0 16 803
196 2 0 1707 0 21 803
198 2 0 1711 0 19 803
200 0 0 1719 0 18 803
