0 1230 0 0 0 0 815
2 1183 3 0 16 0 815
4.00004 1174 4 0 15 0 815
6 1161 6 0 19 0 815
8 1162 4 0 20 0 815
10 1147 4 0 18 0 815
12 1141 8 0 23 0 815
14 1131 5 0 13 0 815
16 1125 6 0 20 0 815
18 1118 5 0 19 0 815
20 1115 7 0 13 0 815
22 1110 4 0 14 0 815
24 1105 5 0 14 0 815
26 1100 5 0 21 0 815
28 1085 7 0 23 0 815
30 1087 8 0 14 0 815
32 1082 6 0 17 0 815
34 1074 9 0 17 0 815
36 1087 5 0 16 0 815
38 1055 8 0 11 0 815
40 1046 1 0 17 0 815
42 1030 9 0 12 0 815
44 1038 5 0 22 0 815
46 1032 11 0 15 0 815
48 1028 3 0 24 0 815
50 1041 4 0 16 0 815
52 919 0 133 13 1 815
54 813 1 242 14 3 815
56 735 0 316 14 3 815
58 677 0 373 16 2 815
60 614 0 418 12 11 815
62 546 1 482 11 7 815
64 496 0 532 19 5 815
66 471 0 551 8 8 815
68 429 0 593 11 9 815
70 396 0 635 10 7 815
72 369 0 659 7 8 815
74 349 1 676 8 5 815
76 335 0 685 9 9 815
78 319 0 699 13 5 815
80 293 0 720 7 6 815
82 276 0 738 9 10 815
84 270 0 759 6 10 815
86 240 0 783 3 11 815
88 215 0 803 7 11 815
90 209 0 807 9 11 815
92 208 0 810 3 10 815
94 202 0 812 3 10 815
96 194 0 828 4 8 815
98 184 0 835 6 8 815
100 180 0 839 10 10 815
102 177 0 853 7 8 815
104 165 0 859 9 8 815
106 163 0 863 6 17 815
108 167 0 866 6 16 815
110 172 0 872 9 9 815
112 163 0 864 4 10 815
114 158 0 868 8 19 815
116 157 0 887 4 5 815
118 148 0 886 4 11 815
120 151 0 887 6 12 815
122 150 0 890 5 13 815
124 147 0 897 4 13 815
126 138 0 900 2 15 815
128 138 0 916 3 10 815
130 132 0 918 4 13 815
132 126 0 927 2 16 815
134 105 0 939 3 9 815
136 100 0 935 3 15 815
138 98 1 951 1 11 815
140 94 0 948 6 16 815
142 89 0 956 2 8 815
144 95 0 958 4 12 815
146 91 0 951 3 19 815
148 84 0 981 6 9 815
150 85 0 979 3 7 815
152 80 0 982 4 14 815
154 83 0 961 2 24 815
156 82 0 967 2 15 815
158 80 0 970 3 13 815
160 71 0 970 3 12 815
162 71 0 969 1 10 815
164 70 0 964 2 11 815
166 67 0 963 2 17 815
168 60 0 979 3 14 815
170 55 0 978 7 8 815
172 60 0 961 1 18 815
174 56 0 985 3 16 815
176 52 0 990 2 13 815
178 53 0 982 3 15 815
180 60 0 973 0 14 815
182 54 0 985 1 11 815
184 47 0 989 4 12 815
186 50 0 989 1 21 815
188 51 0 993 1 17 815
190 51 0 995 2 17 815
192 56 0 1009 4 13 815
194 56 0 1010 1 14 815
196 53 0 994 2 14 815
198 54 0 1002 3 15 815
200 47 0 994 5 14 815
