0 832 0 0 0 0
2 797 0 0 21 0
4.00004 811 0 0 23 0
6 815 0 0 20 0
8 813 0 0 22 0
10 805 0 0 26 0
12 805 0 0 24 0
14 811 0 0 25 0
16 817 0 0 28 0
18 828 0 0 24 0
20 820 0 0 20 0
22 830 0 0 15 0
24 809 0 0 31 0
26 821 0 0 19 0
28 826 0 0 19 0
30 829 0 0 20 0
32 822 0 0 24 0
34 830 0 0 27 0
36 837 0 0 26 0
38 850 0 0 13 0
40 838 0 0 28 0
42 843 0 0 26 0
44 846 0 0 21 0
46 846 0 0 26 0
48 849 0 0 21 0
50 863 0 0 17 0
52 859 0 0 22 0
54 856 0 0 20 0
56 853 0 0 22 0
58 865 0 0 16 0
60 863 0 1 16 0
62 861 0 1 19 0
64 855 0 1 32 0
66 859 0 1 20 0
68 850 0 2 20 0
70 849 0 2 18 1
72 855 0 3 13 1
74 850 0 4 13 0
76 848 0 2 22 2
78 854 0 5 12 2
80 852 0 9 15 2
82 844 0 12 23 1
84 852 0 14 13 4
86 852 0 16 15 4
88 848 0 24 13 1
90 850 0 23 14 5
92 845 0 22 18 2
94 832 0 25 23 4
96 828 0 26 23 7
98 837 0 34 13 2
100 821 0 30 20 12
102 815 0 37 25 5
104 826 0 44 13 4
106 816 0 48 19 7
108 817 0 45 16 6
110 812 0 46 18 9
112 804 0 48 16 9
114 804 0 53 18 7
116 795 0 56 17 8
118 801 0 73 19 5
120 802 0 70 15 5
122 797 0 73 17 4
124 789 0 78 13 7
126 778 0 83 25 5
128 783 0 81 19 5
130 782 0 82 17 2
132 779 0 81 17 4
134 778 0 88 13 9
136 781 0 95 11 7
138 773 0 95 17 6
140 770 0 98 19 5
142 764 0 103 19 5
144 770 0 105 12 7
146 758 0 108 17 9
148 765 0 111 12 4
150 763 0 110 11 7
152 759 0 114 15 4
154 761 0 119 11 8
156 761 0 122 12 9
158 756 0 126 10 7
160 748 0 129 13 9
162 739 0 132 17 7
164 745 0 119 13 15
166 743 0 136 12 7
168 735 0 131 15 9
170 726 0 129 19 9
172 735 0 135 9 8
174 731 0 138 8 11
176 731 0 136 12 13
178 722 0 142 10 12
180 725 0 151 8 4
182 719 0 145 16 11
184 715 0 153 19 7
186 717 0 161 17 4
188 713 0 151 15 9
190 717 0 164 10 8
192 712 0 168 13 12
194 711 0 177 16 14
196 711 0 177 9 12
198 705 0 176 11 8
200 697 0 183 16 9
