0 749 0 0 0 0
2 721 0 0 24 0
4.00004 716 0 0 26 0
6 731 0 0 22 0
8 720 0 0 26 0
10 725 0 0 18 0
12 721 0 0 23 0
14 726 0 0 16 0
16 717 0 0 25 0
18 728 0 0 16 0
20 738 0 0 16 0
22 730 0 0 27 0
24 738 0 0 20 0
26 739 0 0 19 0
28 737 0 0 24 0
30 737 0 0 15 0
32 728 0 0 24 0
34 735 0 0 24 0
36 726 0 0 19 0
38 731 0 0 20 0
40 722 0 0 18 0
42 718 0 0 19 0
44 719 0 0 14 0
46 708 0 0 18 0
48 713 0 0 20 0
50 715 0 0 15 0
52 712 0 1 21 0
54 717 0 1 22 0
56 716 0 1 17 0
58 711 0 4 21 0
60 713 0 4 16 0
62 718 0 7 13 0
64 700 0 7 14 4
66 704 0 14 8 3
68 700 0 13 13 4
70 701 0 19 11 2
72 697 0 22 13 4
74 699 0 29 10 5
76 688 0 35 16 3
78 672 0 41 18 7
80 668 0 51 14 5
82 663 0 62 19 5
84 657 0 72 16 4
86 651 0 74 14 9
88 645 0 81 12 4
90 633 0 86 17 4
92 634 0 93 11 3
94 622 0 101 19 8
96 620 0 116 14 4
98 617 0 129 13 3
100 610 0 128 13 14
102 612 0 129 8 7
104 603 0 134 11 6
106 589 0 141 16 5
108 588 0 144 12 4
110 580 0 154 16 7
112 581 0 159 10 7
114 570 0 169 14 6
116 564 0 172 12 6
118 554 0 178 16 8
120 557 0 183 9 12
122 556 0 183 12 4
124 544 0 197 14 6
126 541 0 195 13 11
128 533 0 194 11 11
130 527 0 210 11 5
132 535 0 211 5 8
134 524 0 214 9 8
136 524 0 224 11 7
138 508 0 230 15 13
140 501 0 239 10 9
142 496 0 235 11 10
144 497 0 239 8 13
146 504 0 252 3 12
148 491 0 257 7 12
150 491 0 267 5 8
152 489 0 272 6 11
154 477 0 276 16 10
156 479 0 299 7 11
158 473 0 306 12 14
160 467 0 312 10 10
162 461 0 320 13 8
164 455 0 331 8 9
166 448 0 330 7 11
168 443 0 326 11 19
170 442 0 332 8 9
172 446 0 335 7 12
174 443 0 339 6 15
176 433 0 341 8 12
178 431 0 345 8 13
180 429 0 362 8 7
182 428 0 363 7 19
184 418 0 369 9 11
186 415 0 375 7 11
188 409 0 384 5 10
190 399 0 383 10 13
192 398 0 382 13 10
194 405 0 384 5 13
196 399 0 387 6 13
198 399 0 391 5 9
200 397 0 390 5 17
