0 817 0 0 0 0
2 776 0 0 43 0
4.00004 773 0 0 37 0
6 785 0 0 19 0
8 779 0 0 30 0
10 763 0 0 39 0
12 772 0 0 34 0
14 781 0 0 37 0
16 770 0 0 36 0
18 785 0 0 24 0
20 784 0 0 21 0
22 776 0 0 25 0
24 775 0 0 35 0
26 782 0 0 33 0
28 778 0 0 39 0
30 785 0 0 27 0
32 790 0 0 22 0
34 806 0 0 17 0
36 797 0 0 28 0
38 798 0 0 22 0
40 788 0 0 35 0
42 792 0 0 33 0
44 787 0 0 30 0
46 793 0 0 30 0
48 796 0 0 28 0
50 788 0 0 37 0
52 797 0 0 28 0
54 796 0 0 32 0
56 797 0 0 30 0
58 799 0 0 27 0
60 806 0 2 24 0
62 798 0 3 28 3
64 803 0 6 25 0
66 800 0 5 24 2
68 803 0 7 19 1
70 797 0 8 25 1
72 795 0 9 23 2
74 805 0 13 16 4
76 804 0 20 16 7
78 794 0 28 17 2
80 781 0 26 24 0
82 786 0 24 21 6
84 788 0 34 17 3
86 791 0 31 15 6
88 787 0 39 18 4
90 775 0 36 23 6
92 776 0 38 19 5
94 773 0 45 21 1
96 762 0 42 26 8
98 770 0 54 16 7
100 754 0 50 25 12
102 745 0 64 32 1
104 749 0 58 22 12
106 739 0 64 24 5
108 751 0 62 11 6
110 730 0 67 26 6
112 733 0 72 19 3
114 724 0 72 26 8
116 722 0 70 20 11
118 724 0 84 22 5
120 722 0 92 18 9
122 719 0 97 15 7
124 723 0 93 12 8
126 720 0 94 17 8
128 712 0 104 20 9
130 704 0 101 22 10
132 706 0 114 14 5
134 697 0 117 22 7
136 689 0 113 24 5
138 694 0 112 16 15
140 690 0 119 11 6
142 681 0 125 18 11
144 680 0 124 18 13
146 675 0 133 22 13
148 679 0 137 12 6
150 678 0 133 11 10
152 673 0 138 7 11
154 662 0 146 18 10
156 667 0 145 13 9
158 655 0 156 16 2
160 652 0 158 17 12
162 652 0 163 14 15
164 648 0 165 20 11
166 645 0 171 15 12
168 640 0 176 14 14
170 640 0 175 16 14
172 633 0 182 18 11
174 631 0 180 16 14
176 630 0 192 16 10
178 617 0 190 19 14
180 619 0 195 15 18
182 610 0 195 18 18
184 604 0 204 24 10
186 607 0 206 21 14
188 596 0 203 21 15
190 595 0 203 22 15
192 603 0 212 15 13
194 595 0 212 19 11
196 597 0 219 14 6
198 594 0 218 12 11
200 594 0 216 11 16
