0 1080 0 0 0 0
2 1034 5 0 35 0
4.00004 1046 7 0 24 0
6 1048 2 0 26 0
8 1030 8 0 38 0
10 1033 8 0 36 0
12 1042 7 0 27 0
14 1048 5 0 25 0
16 1054 8 0 30 0
18 1057 6 0 31 0
20 1061 5 0 25 0
22 1050 4 0 31 0
24 1061 1 0 28 0
26 1046 6 0 36 0
28 1038 6 0 41 0
30 1030 8 0 32 0
32 1028 9 0 38 0
34 1032 4 0 42 0
36 1038 7 0 34 0
38 1045 8 0 34 0
40 1040 7 0 39 0
42 1043 6 0 33 0
44 1039 5 0 41 0
46 1029 4 0 38 0
48 1024 6 0 32 0
50 1016 8 0 37 0
52 900 1 140 23 0
54 804 0 225 22 2
56 683 0 332 25 6
58 619 0 402 28 3
60 548 0 469 32 6
62 492 0 527 13 12
64 435 0 582 19 4
66 401 0 618 20 9
68 369 0 662 19 6
70 345 0 686 16 12
72 308 0 713 27 9
74 289 0 739 21 11
76 259 0 767 19 15
78 243 1 788 15 16
80 235 0 795 9 17
82 209 0 816 15 14
84 197 0 830 20 14
86 176 1 848 18 14
88 161 0 858 21 15
90 161 0 862 17 19
92 159 0 867 12 22
94 148 0 888 17 12
96 142 0 885 13 23
98 141 0 890 9 21
100 133 0 898 13 19
102 126 0 910 9 18
104 124 0 894 16 31
106 128 0 905 12 22
108 123 0 922 15 14
110 118 0 923 18 19
112 123 0 914 12 29
114 115 0 930 8 15
116 106 0 933 14 19
118 101 0 933 14 20
120 103 0 936 9 23
122 92 0 935 10 22
124 95 0 936 12 23
126 100 0 942 9 27
128 100 0 949 10 20
130 84 0 950 16 23
132 81 0 953 10 25
134 77 0 969 15 16
136 86 0 958 6 27
138 90 0 969 9 21
140 85 0 963 8 26
142 78 0 971 14 18
144 86 0 964 7 30
146 86 0 974 7 17
148 81 0 973 12 20
150 85 0 981 9 21
152 80 0 974 10 24
154 81 0 982 6 19
156 81 0 979 5 27
158 78 0 982 12 32
160 83 0 990 8 28
162 84 0 992 5 26
164 68 0 994 13 24
166 61 0 990 8 25
168 65 0 1004 6 21
170 63 0 1002 7 23
172 60 0 995 7 26
174 69 0 998 4 27
176 66 0 1006 8 22
178 71 0 999 4 27
180 67 0 999 8 22
182 56 0 988 3 30
184 64 0 988 7 28
186 54 0 991 9 31
188 50 0 1001 8 22
190 54 0 1000 4 20
192 56 0 1009 7 23
194 58 0 1006 4 27
196 53 0 1006 7 29
198 59 0 1013 6 27
200 62 0 1008 7 26
