0 946 0 0 0 0
2 898 5 0 41 0
4.00004 894 6 0 38 0
6 893 8 0 39 0
8 889 9 0 55 0
10 911 1 0 38 0
12 915 4 0 34 0
14 911 1 0 45 0
16 918 5 0 31 0
18 898 5 0 54 0
20 917 2 0 36 0
22 905 4 0 41 0
24 899 3 0 57 0
26 909 3 0 34 0
28 910 2 0 41 0
30 924 2 0 37 0
32 914 7 0 31 0
34 907 3 0 37 0
36 917 3 0 27 0
38 906 8 0 37 0
40 890 8 0 47 0
42 914 2 0 36 0
44 914 1 0 35 0
46 917 5 0 34 0
48 919 4 0 35 0
50 919 7 0 34 0
52 778 1 135 46 0
54 699 0 228 34 2
56 604 0 319 38 2
58 530 0 388 37 5
60 471 0 454 28 3
62 422 0 498 30 14
64 382 0 548 30 8
66 342 0 586 33 8
68 319 0 612 31 8
70 293 0 643 22 13
72 265 0 674 24 9
74 249 0 685 26 18
76 237 0 702 30 14
78 228 0 711 24 20
80 210 0 724 27 22
82 192 0 735 31 19
84 193 0 746 18 22
86 180 0 751 14 24
88 180 0 762 11 22
90 174 0 766 19 20
92 164 0 767 17 24
94 158 0 781 21 22
96 159 0 783 13 25
98 145 0 795 20 27
100 139 0 806 18 19
102 139 0 811 11 21
104 120 0 811 24 23
106 121 0 830 8 15
108 114 0 824 11 22
110 116 0 825 11 34
112 111 0 837 13 22
114 114 0 843 11 21
116 108 0 846 15 18
118 114 0 850 12 17
120 114 0 842 11 27
122 108 0 859 8 14
124 95 0 855 22 19
126 89 0 852 18 23
128 89 0 859 12 18
130 97 0 847 12 29
132 99 0 851 11 22
134 91 0 851 19 29
136 83 0 848 19 26
138 96 0 863 6 17
140 85 0 862 10 21
142 81 0 858 16 25
144 82 0 868 11 24
146 81 0 857 12 32
148 81 0 852 9 33
150 78 0 860 8 29
152 74 0 861 12 27
154 69 0 863 14 27
156 70 0 859 15 30
158 61 0 870 14 18
160 70 0 868 9 26
162 61 0 870 12 28
164 60 0 875 15 24
166 60 0 868 13 33
168 59 0 875 4 28
170 62 0 868 7 24
172 57 0 871 10 25
174 67 0 862 3 30
176 65 0 866 9 19
178 64 0 856 6 24
180 63 0 852 8 20
182 62 0 849 9 31
184 66 0 856 7 28
186 67 0 853 8 26
188 73 0 855 10 25
190 64 0 850 10 28
192 67 0 847 7 18
194 68 0 848 7 19
196 70 0 838 8 30
198 70 0 844 9 23
200 67 0 840 6 30
