0 1154 0 0 0 0
2 1125 9 0 25 0
4.00004 1117 7 0 16 0
6 1125 4 0 15 0
8 1120 8 0 18 0
10 1121 9 0 18 0
12 1120 5 0 25 0
14 1132 7 0 17 0
16 1128 10 0 22 0
18 1126 13 0 18 0
20 1134 3 0 18 0
22 1118 17 0 20 0
24 1131 8 0 11 0
26 1135 6 0 14 0
28 1122 9 0 19 0
30 1128 5 0 21 0
32 1116 10 0 20 0
34 1129 11 0 11 0
36 1139 9 0 13 0
38 1145 9 0 12 0
40 1148 2 0 21 0
42 1137 8 0 18 0
44 1141 7 0 18 0
46 1143 13 0 11 0
48 1154 5 0 18 0
50 1155 13 0 19 0
52 1006 0 163 12 0
54 879 2 282 13 1
56 773 0 391 13 3
58 681 1 486 11 3
60 590 0 579 8 5
62 521 0 650 14 3
64 442 0 717 12 11
66 393 1 776 11 6
68 354 0 822 4 4
70 312 0 865 5 7
72 278 0 905 9 4
74 245 0 936 7 7
76 225 0 959 6 4
78 192 0 985 12 8
80 182 0 996 5 8
82 174 0 1020 5 6
84 158 0 1038 4 11
86 142 1 1044 7 9
88 123 0 1054 5 16
90 116 0 1067 6 8
92 115 0 1069 3 9
94 119 0 1077 3 9
96 108 0 1075 7 13
98 114 0 1077 4 9
100 107 0 1083 8 12
102 109 0 1079 4 9
104 96 0 1083 5 18
106 95 0 1099 7 11
108 87 0 1109 7 9
110 88 0 1102 4 10
112 77 0 1104 3 16
114 69 0 1115 3 12
116 69 0 1118 4 10
118 62 0 1118 2 8
120 58 0 1115 2 16
122 53 0 1126 4 9
124 52 0 1131 4 10
126 52 0 1133 1 15
128 44 0 1139 7 12
130 56 0 1130 4 19
132 49 0 1139 4 15
134 48 0 1133 7 12
136 53 0 1130 5 16
138 56 0 1137 9 9
140 53 0 1140 6 9
142 54 0 1141 2 12
144 50 0 1137 2 19
146 50 0 1142 5 10
148 46 0 1151 5 8
150 52 0 1140 2 16
152 52 0 1138 6 17
154 54 0 1143 1 13
156 52 0 1145 5 10
158 51 0 1144 3 16
160 55 0 1150 2 7
162 59 0 1145 3 15
164 53 0 1144 6 15
166 60 0 1147 7 10
168 62 0 1139 2 18
170 56 0 1146 5 9
172 54 0 1156 5 14
174 50 0 1160 5 16
176 45 0 1161 6 14
178 49 0 1157 3 18
180 47 0 1168 3 13
182 47 0 1163 1 20
184 43 0 1177 2 12
186 50 0 1176 2 10
188 45 0 1180 2 11
190 40 0 1184 3 15
192 40 0 1187 5 11
194 46 0 1182 3 13
196 49 0 1182 4 13
198 48 0 1184 5 14
200 46 0 1202 1 10
