0 879 0 0 0 0
2 853 5 0 23 0
4.00004 851 4 0 23 0
6 846 5 0 30 0
8 865 3 0 15 0
10 870 4 0 20 0
12 869 7 0 17 0
14 862 6 0 24 0
16 869 5 0 16 0
18 857 3 0 21 0
20 848 7 0 26 0
22 848 6 0 22 0
24 843 7 0 22 0
26 850 3 0 25 0
28 864 5 0 14 0
30 858 5 0 28 0
32 854 5 0 27 0
34 869 1 0 13 0
36 863 3 0 21 0
38 868 5 0 21 0
40 867 5 0 17 0
42 856 5 0 26 0
44 859 6 0 20 0
46 865 2 0 22 0
48 863 6 0 25 0
50 864 8 0 18 0
52 739 1 129 16 1
54 656 0 208 21 2
56 572 1 292 23 1
58 504 1 360 22 4
60 473 0 400 17 5
62 424 0 447 18 4
64 392 0 479 27 6
66 343 0 518 26 7
68 338 0 540 14 5
70 302 0 575 18 5
72 299 0 591 9 8
74 276 0 606 11 9
76 253 0 634 9 9
78 222 0 651 17 7
80 212 0 661 14 8
82 200 1 675 15 9
84 190 0 686 9 13
86 174 0 703 10 8
88 167 0 710 14 9
90 165 0 722 10 5
92 159 0 728 10 7
94 142 0 732 13 7
96 140 0 740 9 8
98 139 0 738 6 12
100 139 0 735 8 13
102 124 0 746 11 15
104 119 0 757 9 10
106 115 0 762 14 12
108 127 0 761 7 20
110 112 0 766 16 11
112 109 0 768 9 13
114 103 0 776 9 9
116 106 1 780 10 7
118 102 0 778 5 13
120 98 0 787 6 12
122 102 0 788 3 15
124 95 0 798 6 11
126 97 0 802 6 13
128 105 0 796 7 12
130 98 0 791 6 18
132 107 0 790 8 18
134 101 0 799 5 14
136 94 0 799 11 14
138 98 0 800 9 9
140 101 0 803 4 10
142 86 0 807 10 10
144 79 0 805 8 21
146 85 0 817 4 8
148 90 0 807 6 14
150 90 0 804 7 19
152 88 0 818 9 10
154 85 0 824 6 9
156 86 0 829 8 11
158 87 0 829 5 14
160 81 0 825 8 17
162 85 0 830 5 14
164 76 0 819 9 25
166 73 0 825 10 19
168 80 0 832 7 16
170 82 0 839 6 8
172 83 0 847 3 6
174 76 0 847 8 13
176 70 0 852 12 9
178 78 0 849 4 13
180 77 0 844 5 16
182 78 0 842 7 16
184 69 0 848 8 14
186 70 0 844 10 11
188 74 0 845 6 14
190 75 0 849 8 7
192 65 0 848 8 19
194 70 0 861 7 11
196 72 0 868 3 10
198 73 0 873 5 10
200 69 0 864 10 15
