0 930 0 0 0 0
2 893 0 0 26 0
4.00004 885 0 0 29 0
6 901 0 0 22 0
8 899 0 0 29 0
10 904 0 0 27 0
12 897 0 0 33 0
14 907 0 0 24 0
16 905 0 0 21 0
18 895 0 0 34 0
20 901 0 0 21 0
22 899 0 0 26 0
24 894 0 0 31 0
26 885 0 0 39 0
28 894 0 0 27 0
30 898 0 0 27 0
32 899 0 0 25 0
34 896 0 0 24 0
36 879 0 0 34 0
38 881 0 0 29 0
40 890 0 0 25 0
42 887 0 0 25 0
44 881 0 0 36 0
46 874 0 0 36 0
48 866 0 0 30 0
50 871 0 0 28 0
52 859 0 0 35 0
54 864 0 0 24 0
56 869 0 0 33 0
58 860 0 0 32 1
60 870 0 1 29 1
62 862 0 3 33 0
64 858 0 2 39 0
66 855 0 3 33 0
68 864 0 2 13 0
70 840 0 2 35 1
72 840 0 3 34 1
74 857 0 4 24 0
76 857 0 5 24 2
78 844 0 8 28 3
80 852 0 11 22 2
82 840 0 18 26 4
84 837 0 21 27 6
86 833 0 24 27 6
88 834 0 28 21 2
90 821 0 27 34 12
92 824 0 29 24 5
94 824 0 33 27 5
96 814 0 36 29 3
98 807 0 42 34 3
100 810 0 36 31 13
102 801 0 49 30 11
104 807 0 58 29 8
106 796 0 57 30 12
108 791 0 59 30 10
110 797 0 66 25 16
112 788 0 67 24 11
114 783 0 72 32 6
116 788 0 70 18 10
118 786 0 77 22 13
120 773 0 82 22 12
122 765 0 85 24 9
124 764 0 90 19 9
126 769 0 86 17 11
128 758 0 97 21 10
130 746 0 97 28 12
132 747 0 94 22 7
134 748 0 104 15 9
136 739 0 106 20 10
138 739 0 108 18 6
140 724 0 105 26 7
142 721 0 111 24 6
144 724 0 117 14 11
146 719 0 115 15 9
148 710 0 121 22 11
150 704 0 121 22 8
152 688 0 124 26 11
154 690 0 130 24 10
156 687 0 136 24 8
158 684 0 139 22 9
160 682 0 141 20 14
162 675 0 150 23 23
164 669 0 152 20 16
166 660 0 149 24 14
168 661 0 167 18 8
170 649 0 169 21 17
172 650 0 182 18 3
174 640 0 164 29 15
176 655 0 168 18 10
178 654 0 173 18 8
180 639 0 178 20 7
182 630 0 182 22 6
184 620 0 180 29 13
186 616 0 185 25 12
188 624 0 190 18 10
190 620 0 204 17 7
192 608 0 206 21 16
194 606 0 216 20 8
196 604 0 214 14 10
198 586 0 215 26 19
200 601 0 215 9 15
