0 970 0 0 0 0
2 949 3 0 29 0
4.00004 949 9 0 28 0
6 947 3 0 27 0
8 943 4 0 25 0
10 931 12 0 26 0
12 939 1 0 30 0
14 940 3 0 26 0
16 947 2 0 25 0
18 933 4 0 34 0
20 940 5 0 33 0
22 940 5 0 30 0
24 940 9 0 26 0
26 945 3 0 28 0
28 941 9 0 29 0
30 944 4 0 27 0
32 944 8 0 24 0
34 945 9 0 26 0
36 944 7 0 36 0
38 955 3 0 32 0
40 946 8 0 31 0
42 942 10 0 36 0
44 953 4 0 26 0
46 954 7 0 29 0
48 969 9 0 26 0
50 967 2 0 32 0
52 834 0 138 34 0
54 757 1 226 23 5
56 657 0 308 30 3
58 590 0 389 26 2
60 520 0 449 28 2
62 465 0 500 30 7
64 411 0 558 23 9
66 364 0 603 33 9
68 340 0 650 20 11
70 308 0 673 26 15
72 278 0 704 25 15
74 258 0 738 12 7
76 218 0 766 17 11
78 199 0 789 20 9
80 182 0 793 19 19
82 170 0 809 16 17
84 157 0 826 12 14
86 152 0 833 13 12
88 137 0 836 20 22
90 134 0 840 14 18
92 131 0 856 20 11
94 121 0 854 18 18
96 123 0 861 15 19
98 119 0 862 15 18
100 117 0 865 9 19
102 114 0 853 17 25
104 104 0 866 16 12
106 115 0 872 9 9
108 108 0 874 13 15
110 98 0 852 12 34
112 98 0 876 15 21
114 92 0 877 10 28
116 97 0 891 8 18
118 82 0 887 9 24
120 93 0 887 7 24
122 91 1 897 6 22
124 86 0 900 11 21
126 78 0 910 13 16
128 83 0 898 11 22
130 89 0 911 7 10
132 85 0 923 8 14
134 85 0 907 8 24
136 88 0 911 6 20
138 81 0 918 8 22
140 76 0 925 15 22
142 80 0 929 10 19
144 82 0 924 9 19
146 78 0 929 12 23
148 77 0 923 7 29
150 76 0 931 6 32
152 78 0 943 14 16
154 79 0 930 10 27
156 80 0 936 9 20
158 78 0 934 12 22
160 71 0 944 8 20
162 69 0 928 10 22
164 74 0 929 11 29
166 77 0 938 9 29
168 77 0 929 10 30
170 83 0 935 8 18
172 82 0 922 9 34
174 81 0 950 5 16
176 62 0 944 12 31
178 66 0 956 5 20
180 70 0 959 8 19
182 69 0 953 9 29
184 67 0 957 10 24
186 78 0 955 6 23
188 73 0 962 6 17
190 75 0 944 6 27
192 74 0 943 11 21
194 78 1 943 5 23
196 75 0 958 12 13
198 80 0 957 6 11
200 68 0 954 12 26
