0 496 0 0 0 0 114
2 488 0 0 18 0 114
4.00004 477 0 0 23 0 114
6 493 0 0 17 0 114
8 489 0 0 14 0 114
10 477 0 0 22 0 114
12 483 0 0 19 0 114
14 483 0 0 27 0 114
16 484 0 0 15 0 114
18 462 0 0 16 0 114
20 462 0 0 28 0 114
22 475 0 0 24 0 114
24 468 0 0 22 0 114
26 473 0 0 16 0 114
28 464 0 0 23 0 114
30 478 0 0 13 0 114
32 462 0 0 29 0 114
34 466 0 0 25 0 114
36 463 0 0 17 0 114
38 452 0 0 19 0 114
40 438 0 0 21 0 114
42 452 0 0 17 0 114
44 432 0 0 28 0 114
46 447 0 0 19 0 114
48 453 0 0 21 0 114
50 470 0 0 20 0 114
52 464 0 0 14 0 114
54 456 0 4 16 1 114
56 441 0 11 21 4 114
58 428 0 19 13 3 114
60 416 0 33 23 0 114
62 413 0 43 21 2 114
64 412 0 61 13 4 114
66 402 0 76 14 3 114
68 380 0 90 12 3 114
70 353 0 95 14 8 114
72 335 0 110 15 5 114
74 324 0 119 14 7 114
76 312 0 131 11 5 114
78 304 0 147 3 9 114
80 285 0 166 6 7 114
82 272 0 174 11 6 114
84 264 0 184 10 14 114
86 258 0 207 5 12 114
88 253 0 216 8 17 114
90 236 0 217 5 12 114
92 225 0 239 3 13 114
94 213 0 262 6 13 114
96 209 0 276 5 8 114
98 207 0 270 9 13 114
100 189 0 288 11 8 114
102 185 0 280 8 13 114
104 167 0 304 9 12 114
106 157 0 308 4 17 114
108 144 0 305 10 17 114
110 131 0 306 13 12 114
112 132 0 307 3 10 114
114 122 0 300 7 24 114
116 120 0 310 5 19 114
118 117 0 318 3 9 114
120 105 0 319 4 11 114
122 92 0 318 11 9 114
124 93 0 330 3 8 114
126 89 0 325 3 15 114
128 84 0 324 4 13 114
130 80 0 332 5 13 114
132 81 0 341 0 16 114
134 74 0 354 6 15 114
136 78 0 337 3 24 114
138 73 0 347 2 12 114
140 67 0 354 3 18 114
142 65 0 359 2 18 114
144 59 0 353 1 16 114
146 59 0 364 5 13 114
148 56 0 384 2 16 114
150 52 0 378 2 23 114
152 48 0 388 1 15 114
154 45 0 380 1 17 114
156 42 0 386 4 25 114
158 39 0 394 3 22 114
160 38 0 400 2 23 114
162 36 0 412 0 15 114
164 34 0 404 1 27 114
166 33 0 415 0 11 114
168 29 0 403 0 25 114
170 27 0 398 1 11 114
172 26 0 387 1 18 114
174 24 0 408 3 15 114
176 26 0 401 1 17 114
178 24 0 406 0 17 114
180 21 0 414 2 11 114
182 22 0 393 1 23 114
184 22 0 404 0 15 114
186 18 0 397 1 17 114
188 17 0 391 1 14 114
190 18 0 384 1 16 114
192 18 0 389 0 18 114
194 15 0 394 0 20 114
196 14 0 396 1 26 114
198 15 0 394 0 21 114
200 14 0 396 1 22 114
