0 465 0 0 0 0 113
2 470 0 0 15 0 113
4.00004 482 0 0 14 0 113
6 476 0 0 19 0 113
8 485 0 0 11 0 113
10 488 0 0 10 0 113
12 491 0 0 18 0 113
14 516 0 0 12 0 113
16 515 0 0 22 0 113
18 543 0 0 18 0 113
20 542 0 0 19 0 113
22 551 0 0 20 0 113
24 556 0 0 20 0 113
26 556 0 0 22 0 113
28 560 0 0 22 0 113
30 564 0 0 21 0 113
32 565 0 0 21 0 113
34 562 0 0 23 0 113
36 562 0 0 17 0 113
38 568 0 0 18 0 113
40 578 0 0 20 0 113
42 586 0 0 16 0 113
44 594 0 0 17 0 113
46 577 0 0 22 0 113
48 585 0 0 24 0 113
50 587 0 0 19 0 113
52 592 0 1 24 0 113
54 580 0 5 22 3 113
56 580 0 12 14 2 113
58 582 0 12 14 2 113
60 570 0 24 19 7 113
62 550 0 39 13 4 113
64 535 0 54 20 5 113
66 531 0 74 20 6 113
68 521 0 91 13 5 113
70 512 0 109 16 3 113
72 491 0 128 12 4 113
74 474 0 144 13 8 113
76 471 0 166 14 6 113
78 468 0 179 12 7 113
80 460 0 190 11 8 113
82 444 0 205 10 7 113
84 431 0 218 12 7 113
86 411 0 235 16 8 113
88 398 0 250 12 9 113
90 377 0 263 10 14 113
92 357 0 281 11 7 113
94 344 0 290 10 8 113
96 337 0 283 8 16 113
98 324 0 300 9 7 113
100 319 0 312 7 5 113
102 294 0 316 11 11 113
104 284 0 320 6 12 113
106 282 0 332 7 14 113
108 272 0 346 6 19 113
110 263 0 367 8 6 113
112 260 0 377 5 16 113
114 251 0 382 8 12 113
116 243 0 399 3 7 113
118 231 0 400 8 14 113
120 217 0 422 4 13 113
122 206 0 439 9 13 113
124 207 0 454 4 16 113
126 202 0 446 0 17 113
128 194 0 463 7 13 113
130 183 0 465 6 27 113
132 187 0 470 4 17 113
134 184 0 469 7 13 113
136 179 0 476 6 14 113
138 167 0 475 5 24 113
140 163 0 512 5 13 113
142 152 0 508 2 24 113
144 142 0 518 2 14 113
146 130 0 510 3 19 113
148 126 0 514 3 13 113
150 123 0 525 1 15 113
152 114 0 522 4 13 113
154 108 0 527 4 12 113
156 107 0 522 1 22 113
158 101 0 545 3 15 113
160 94 0 540 7 20 113
162 91 0 535 2 18 113
164 88 0 546 4 13 113
166 85 0 552 2 17 113
168 87 0 562 0 21 113
170 85 0 559 1 21 113
172 83 0 560 4 17 113
174 80 0 559 3 12 113
176 78 0 570 0 17 113
178 75 0 576 2 10 113
180 73 0 567 0 14 113
182 68 0 562 1 17 113
184 67 0 563 1 19 113
186 66 0 560 1 15 113
188 62 0 548 3 20 113
190 58 0 551 2 16 113
192 57 0 561 2 21 113
194 54 0 558 3 12 113
196 53 0 560 1 22 113
198 48 0 568 1 17 113
200 49 0 579 1 17 113
