0 1248 0 0 0 0 102
2 1195 11 0 31 0 102
4.00004 1215 9 0 15 0 102
6 1201 10 0 26 0 102
8 1209 7 0 22 0 102
10 1200 14 0 22 0 102
12 1197 9 0 18 0 102
14 1199 6 0 32 0 102
16 1196 12 0 23 0 102
18 1202 8 0 15 0 102
20 1200 6 0 20 0 102
22 1200 12 0 21 0 102
24 1188 15 0 22 0 102
26 1221 8 0 11 0 102
28 1226 9 0 17 0 102
30 1245 7 0 23 0 102
32 1248 12 0 14 0 102
34 1246 6 0 15 0 102
36 1239 8 0 19 0 102
38 1244 6 0 14 0 102
40 1225 5 0 19 0 102
42 1243 3 0 12 0 102
44 1214 17 0 17 0 102
46 1218 5 0 25 0 102
48 1223 12 0 19 0 102
50 1234 5 0 18 0 102
52 1082 0 158 27 1 102
54 951 1 278 22 2 102
56 865 0 367 10 2 102
58 779 2 434 15 5 102
60 708 0 500 9 8 102
62 666 0 550 19 2 102
64 619 0 591 12 10 102
66 584 0 631 11 7 102
68 525 2 688 10 5 102
70 457 0 752 15 3 102
72 452 1 776 10 8 102
74 422 0 794 15 14 102
76 387 0 826 10 10 102
78 372 0 846 7 14 102
80 343 0 868 3 11 102
82 317 0 886 15 11 102
84 296 0 902 5 12 102
86 265 1 921 10 13 102
88 249 0 955 7 10 102
90 241 0 951 9 15 102
92 231 0 960 6 11 102
94 220 0 976 6 17 102
96 209 0 985 4 11 102
98 184 1 989 11 11 102
100 193 0 1000 2 22 102
102 183 1 1015 5 15 102
104 173 0 1022 8 13 102
106 167 0 1031 5 14 102
108 156 0 1053 3 7 102
110 148 0 1065 4 11 102
112 143 1 1062 4 14 102
114 148 0 1052 2 18 102
116 141 0 1067 5 11 102
118 129 0 1066 5 11 102
120 122 0 1077 4 19 102
122 125 0 1095 2 15 102
124 116 0 1104 7 16 102
126 115 0 1113 5 14 102
128 106 0 1109 4 15 102
130 98 1 1126 3 14 102
132 91 0 1131 4 24 102
134 96 0 1132 3 18 102
136 87 0 1129 7 22 102
138 90 0 1112 3 16 102
140 89 0 1115 2 26 102
142 85 0 1132 4 18 102
144 80 0 1129 1 29 102
146 79 0 1136 3 17 102
148 79 0 1116 1 21 102
150 73 0 1124 2 26 102
152 75 0 1148 5 15 102
154 76 0 1141 2 23 102
156 70 0 1157 1 17 102
158 63 0 1154 4 19 102
160 67 0 1161 2 17 102
162 60 0 1158 0 17 102
164 61 0 1154 1 16 102
166 56 0 1159 1 14 102
168 49 0 1153 2 20 102
170 54 0 1146 2 22 102
172 53 0 1144 4 22 102
174 55 0 1152 0 18 102
176 44 0 1158 1 16 102
178 44 0 1159 0 20 102
180 40 0 1165 0 18 102
182 42 0 1171 3 17 102
184 42 0 1158 0 23 102
186 42 0 1169 2 18 102
188 45 0 1162 1 18 102
190 39 0 1169 4 19 102
192 37 0 1177 2 21 102
194 36 0 1170 1 22 102
196 31 0 1180 3 19 102
198 30 0 1194 0 22 102
200 30 0 1195 0 12 102
