0 459 0 0 0 0 89
2 430 0 0 20 0 89
4.00004 435 0 0 23 0 89
6 446 0 0 25 0 89
8 478 0 0 17 0 89
10 476 0 0 13 0 89
12 471 0 0 25 0 89
14 468 0 0 20 0 89
16 481 0 0 22 0 89
18 483 0 0 22 0 89
20 476 0 0 15 0 89
22 468 0 0 28 0 89
24 462 0 0 28 0 89
26 467 0 0 17 0 89
28 472 0 0 13 0 89
30 457 0 0 22 0 89
32 446 0 0 20 0 89
34 470 0 0 24 0 89
36 469 0 0 14 0 89
38 488 0 0 10 0 89
40 471 0 0 20 0 89
42 480 0 0 20 0 89
44 488 0 0 26 0 89
46 497 0 0 14 0 89
48 510 0 0 14 0 89
50 494 0 0 25 0 89
52 503 0 0 15 0 89
54 510 0 1 16 2 89
56 480 0 14 20 1 89
58 463 0 20 21 3 89
60 455 0 32 16 5 89
62 450 0 45 18 6 89
64 446 0 64 10 3 89
66 424 0 85 13 3 89
68 409 0 91 12 2 89
70 399 0 103 14 8 89
72 382 0 117 13 8 89
74 357 0 135 17 9 89
76 341 0 159 8 5 89
78 334 0 157 15 13 89
80 324 0 165 11 11 89
82 317 0 180 12 6 89
84 298 0 191 14 9 89
86 288 0 199 9 5 89
88 272 0 215 11 13 89
90 262 0 229 8 18 89
92 251 0 246 9 10 89
94 240 0 243 10 11 89
96 228 0 256 7 8 89
98 215 0 265 7 15 89
100 214 0 279 8 11 89
102 198 0 290 6 7 89
104 184 0 293 8 10 89
106 186 0 298 2 15 89
108 171 0 307 7 10 89
110 157 0 332 11 10 89
112 144 0 330 8 20 89
114 140 0 331 4 21 89
116 141 0 339 2 10 89
118 129 0 345 8 16 89
120 123 0 347 2 15 89
122 115 0 359 1 11 89
124 108 0 373 3 9 89
126 103 0 369 6 14 89
128 97 0 349 5 19 89
130 90 0 372 7 17 89
132 90 0 383 4 9 89
134 83 0 385 6 14 89
136 84 0 400 3 7 89
138 78 0 381 1 18 89
140 73 0 389 0 21 89
142 70 0 415 3 17 89
144 72 0 416 0 27 89
146 63 0 415 3 16 89
148 62 0 432 2 14 89
150 61 0 426 1 20 89
152 58 0 430 5 26 89
154 60 0 450 2 9 89
156 57 0 446 3 20 89
158 51 0 456 3 19 89
160 49 0 469 1 16 89
162 44 0 463 2 14 89
164 45 0 456 1 18 89
166 44 0 454 3 23 89
168 43 0 455 1 23 89
170 39 0 469 0 23 89
172 36 0 475 1 17 89
174 36 0 480 0 20 89
176 34 0 462 0 21 89
178 32 0 444 1 20 89
180 32 0 453 0 15 89
182 33 0 457 0 15 89
184 26 0 460 1 16 89
186 24 0 453 1 20 89
188 25 0 469 0 16 89
190 24 0 470 1 17 89
192 25 0 476 1 14 89
194 24 0 483 0 18 89
196 23 0 460 0 21 89
198 19 0 463 0 19 89
200 20 0 471 0 18 89
