0 94 0 0 0
2 88 0 5 0
4.00004 86 0 4 0
6 87 0 3 0
8 85 0 4 0
10 87 0 2 0
12 85 0 5 0
14 85 0 4 0
16 84 0 7 0
18 83 0 7 0
20 87 0 2 0
22 86 0 4 0
24 86 0 3 0
26 85 0 2 0
28 87 0 2 0
30 89 0 0 0
32 88 0 1 0
34 88 0 4 0
36 90 0 3 0
38 91 0 2 0
40 92 0 1 0
42 88 0 2 0
44 88 0 4 0
46 89 0 2 0
48 86 0 4 0
50 87 0 3 0
52 74 14 2 0
54 68 22 2 0
56 58 34 0 0
58 48 44 2 0
60 37 55 4 0
62 32 59 1 1
64 24 67 2 0
66 20 71 0 0
68 18 74 2 0
70 15 75 3 0
72 16 76 1 0
74 14 78 0 1
76 13 80 0 0
78 12 82 0 0
80 8 86 0 0
82 8 86 1 0
84 7 86 0 2
86 7 88 0 0
88 6 87 2 0
90 5 85 2 3
92 4 90 2 0
94 4 90 0 1
96 4 87 1 3
98 4 87 1 3
100 5 88 3 2
102 6 90 0 0
104 6 90 1 1
106 5 89 2 3
108 5 90 1 2
110 3 90 2 2
112 5 91 0 1
114 3 92 0 0
116 3 84 0 8
118 3 91 0 0
120 1 90 1 1
122 2 90 1 3
124 2 90 0 2
126 2 89 0 1
128 2 89 1 1
130 2 90 2 1
132 3 88 0 3
134 2 89 0 2
136 2 89 0 3
138 0 91 2 1
140 0 92 0 1
142 1 92 0 1
144 0 91 0 1
146 0 89 0 3
148 0 90 1 1
150 1 88 0 2
152 1 90 0 1
154 0 92 0 0
156 0 90 0 1
158 0 89 0 4
160 0 91 0 2
162 0 93 1 0
164 0 88 2 4
166 1 89 0 3
168 1 89 1 1
170 0 87 2 3
172 1 86 1 2
174 1 86 1 3
176 1 85 0 3
178 2 87 0 0
180 3 86 0 1
182 1 85 2 2
184 2 84 1 1
186 2 83 0 0
188 1 84 1 0
190 2 85 1 0
192 1 86 3 1
194 3 85 1 1
196 4 86 0 1
198 4 84 0 3
200 3 86 0 2
202 2 88 1 0
204 3 88 0 0
206 2 87 1 1
208 1 87 0 1
210 2 88 0 1
212 3 89 0 2
214 1 87 1 4
216 2 88 1 3
218 3 88 1 1
220 1 91 2 0
222 4 91 1 1
224 3 90 1 2
226 4 89 0 3
228 3 89 0 3
230 4 91 1 1
232 2 91 1 1
234 2 91 1 0
236 2 90 2 0
238 2 90 1 0
240 3 88 1 1
242 2 87 3 1
244 3 88 1 0
246 2 88 0 2
248 3 89 0 1
250 2 87 1 3
252 2 86 1 2
254 1 88 0 1
256 1 88 0 1
258 1 87 0 1
260 1 88 0 1
262 1 87 0 1
264 1 85 0 4
266 0 90 0 0
268 0 88 0 2
270 0 87 0 2
272 1 88 0 1
274 0 84 0 4
276 0 86 0 3
278 0 85 0 2
280 0 87 0 0
282 0 87 0 1
284 0 87 0 0
286 0 86 0 0
288 0 88 1 1
290 0 84 0 3
292 0 86 0 3
294 1 86 0 3
296 0 87 1 0
298 1 85 0 2
300 1 88 0 0
302 1 85 0 1
304 1 82 0 4
306 0 85 0 2
308 0 83 0 4
310 0 87 0 1
312 0 85 0 3
314 0 86 0 1
316 0 86 0 0
318 0 85 0 2
320 0 83 0 3
322 0 83 0 3
324 0 85 0 0
326 0 83 0 2
328 0 84 0 1
330 0 83 0 3
332 0 83 0 2
334 0 83 0 2
336 0 82 0 4
338 0 84 0 2
340 0 83 0 3
342 0 86 0 1
344 0 87 0 1
346 0 84 0 5
348 0 87 0 1
350 0 86 0 1
