0 84 0 0 0
2 82 0 1 0
4.00004 82 0 1 0
6 82 0 1 0
8 84 0 1 0
10 82 0 3 0
12 83 0 0 0
14 83 0 0 0
16 80 0 3 0
18 83 0 0 0
20 81 0 5 0
22 81 0 3 0
24 84 0 0 0
26 81 0 0 0
28 78 0 1 0
30 77 0 2 0
32 79 0 1 0
34 78 0 0 0
36 76 0 2 0
38 77 0 1 0
40 79 0 0 0
42 79 0 0 0
44 80 0 0 0
46 78 0 1 0
48 77 0 2 0
50 78 0 1 0
52 78 0 1 0
54 79 0 1 0
56 78 0 0 0
58 77 0 2 0
60 76 0 1 0
62 76 0 2 0
64 76 0 2 0
66 76 0 3 0
68 78 0 0 0
70 77 0 1 1
72 76 1 1 0
74 76 0 1 0
76 75 1 2 0
78 77 1 0 0
80 77 2 0 0
82 75 2 1 0
84 74 1 1 0
86 75 1 1 1
88 75 2 1 0
90 74 1 1 1
92 73 2 2 0
94 74 2 0 0
96 72 2 1 0
98 73 2 2 0
100 74 2 1 0
102 74 2 1 0
104 75 4 0 0
106 74 4 0 2
108 74 7 1 0
110 73 6 0 1
112 73 6 0 0
114 72 6 0 0
116 73 6 0 2
118 73 7 0 1
120 72 8 1 0
122 73 7 0 2
124 72 9 1 0
126 72 8 1 1
128 71 10 1 0
130 72 11 1 1
132 72 11 1 0
134 73 12 0 0
136 72 13 1 1
138 71 13 2 0
140 71 14 1 0
142 72 15 0 0
144 72 14 0 0
146 71 14 0 1
148 72 14 0 1
150 72 15 0 0
152 72 15 0 1
154 72 16 0 0
156 70 15 1 0
158 71 16 0 0
160 71 16 1 1
162 68 17 3 1
164 70 17 1 1
166 69 18 1 0
168 68 17 1 0
170 67 17 2 1
172 69 16 0 2
174 66 17 1 2
176 68 18 1 0
178 68 18 0 0
180 67 19 1 1
182 68 19 1 1
184 68 20 1 0
186 65 20 3 0
188 64 20 3 1
190 64 20 2 0
192 66 20 1 0
194 65 23 1 1
196 64 22 2 2
198 64 22 2 0
200 63 24 2 0
202 64 23 0 0
204 64 22 0 1
206 62 24 1 0
208 62 25 2 0
210 60 26 4 0
212 62 25 2 0
214 63 25 1 0
216 64 24 0 0
218 63 24 1 0
220 63 24 0 0
222 62 24 2 0
224 60 25 1 1
226 59 23 2 2
228 59 25 1 1
230 61 24 0 2
232 60 25 1 2
234 60 27 1 1
236 60 28 1 0
238 59 29 2 1
240 61 29 0 0
242 61 30 0 0
244 60 29 1 1
246 61 30 0 0
248 60 29 1 1
250 60 31 1 0
252 61 30 0 0
254 61 30 0 0
256 61 30 0 0
258 60 31 1 0
260 60 31 0 0
262 59 28 1 2
264 59 30 1 0
266 58 29 1 1
268 59 30 0 0
270 58 30 0 0
272 58 31 0 0
274 58 31 1 0
276 57 31 1 0
278 59 32 0 0
280 56 31 2 2
282 57 33 0 1
284 56 33 1 1
286 56 34 0 0
288 56 33 1 2
290 58 33 0 2
292 57 35 1 0
294 57 36 0 0
296 56 37 0 0
298 55 36 2 1
300 54 36 1 1
302 55 36 1 0
304 55 35 1 1
306 54 35 1 1
308 54 35 0 1
310 54 35 0 0
312 53 35 1 0
314 52 35 2 2
316 53 35 1 1
318 53 33 1 3
320 54 33 0 2
322 54 37 0 0
324 53 38 0 0
326 52 37 1 0
328 53 38 0 0
330 53 37 0 1
332 52 35 1 2
334 52 38 1 0
336 51 37 1 0
338 51 36 1 0
340 51 36 0 0
342 49 37 2 1
344 48 37 1 2
346 49 40 0 0
348 47 39 0 4
350 48 43 1 0
