0 86 0 0 0
2 81 0 6 0
4.00004 82 0 5 0
6 83 0 3 0
8 81 0 4 0
10 84 0 1 0
12 81 0 4 0
14 82 0 2 0
16 82 0 2 0
18 85 0 0 0
20 83 0 2 0
22 86 0 0 0
24 83 0 0 0
26 84 0 2 0
28 83 0 3 0
30 81 0 3 0
32 83 0 1 0
34 83 0 2 0
36 83 0 2 0
38 80 0 5 0
40 81 0 3 0
42 83 0 2 0
44 80 0 3 0
46 81 0 3 0
48 82 0 1 0
50 79 0 3 0
52 81 0 0 0
54 80 0 1 0
56 80 0 2 0
58 81 0 1 0
60 83 0 0 0
62 81 0 2 0
64 81 0 0 0
66 82 0 0 0
68 79 0 3 0
70 83 0 0 0
72 79 0 4 0
74 81 0 2 0
76 79 0 2 0
78 80 0 1 0
80 79 0 2 0
82 80 0 3 0
84 82 1 2 0
86 82 1 0 0
88 82 1 2 0
90 82 1 1 0
92 83 2 0 0
94 80 2 2 0
96 82 2 0 0
98 82 2 0 0
100 83 2 0 2
102 81 2 0 1
104 79 2 1 1
106 79 2 2 2
108 78 2 0 1
110 81 2 0 1
112 77 3 2 0
114 77 3 3 0
116 77 3 3 0
118 77 3 2 0
120 77 3 1 0
122 77 3 1 0
124 77 3 2 0
126 75 5 1 0
128 74 4 2 0
130 75 5 1 0
132 75 4 0 1
134 73 5 2 0
136 74 5 1 1
138 73 6 2 0
140 75 6 0 1
142 73 7 3 1
144 74 9 1 0
146 74 8 0 2
148 73 8 0 1
150 72 8 0 0
152 71 8 1 2
154 69 10 2 0
156 70 7 2 2
158 72 9 1 3
160 72 9 1 1
162 72 8 1 1
164 70 10 2 2
166 72 8 1 1
168 72 10 0 2
170 70 13 3 0
172 71 10 0 2
174 72 14 0 0
176 72 10 0 2
178 71 11 1 1
180 71 13 1 1
182 70 13 1 2
184 68 15 2 0
186 70 14 2 2
188 71 15 0 0
190 69 15 2 0
192 71 14 1 1
194 68 15 2 0
196 69 16 1 0
198 68 14 1 2
200 69 16 0 1
202 68 15 1 1
204 66 15 2 1
206 69 13 0 3
208 68 15 1 0
210 66 11 2 3
212 64 13 3 1
214 67 13 0 3
216 65 14 2 0
218 64 13 3 1
220 66 15 1 0
222 64 14 2 1
224 65 15 1 2
226 63 18 3 0
228 67 17 0 3
230 67 16 0 2
232 65 18 1 0
234 66 18 1 1
236 66 18 1 1
238 66 19 0 0
240 66 19 0 0
242 66 20 0 0
244 66 20 0 0
246 66 19 0 1
248 66 20 0 0
250 66 17 0 3
252 65 18 0 1
254 65 18 1 1
256 64 18 2 1
258 64 17 2 0
260 66 17 0 0
262 66 17 0 0
264 64 16 2 1
266 66 17 0 0
268 65 17 1 0
270 64 18 1 0
272 65 17 0 0
274 64 17 1 0
276 63 17 2 0
278 64 16 1 1
280 65 18 0 0
282 63 18 0 0
284 63 18 0 0
286 63 17 1 1
288 62 18 1 0
290 63 17 1 0
292 62 17 2 0
294 62 16 1 2
296 61 17 3 0
298 62 16 1 0
300 62 17 1 0
302 60 17 3 0
304 60 16 3 1
306 62 17 1 0
308 62 17 1 0
310 61 17 1 0
312 59 17 2 0
314 61 17 1 0
316 61 16 1 0
318 61 16 1 1
320 61 17 1 1
322 61 17 1 1
324 60 17 1 2
326 60 16 2 2
328 61 18 1 0
330 59 17 3 0
332 61 18 1 1
334 60 18 2 1
336 60 17 2 1
338 59 17 2 1
340 60 18 1 0
342 59 17 1 2
344 59 19 1 0
346 56 17 4 2
348 60 18 0 1
350 57 19 1 0
