0 68 0 0 0
2 64 0 4 0
4.00004 65 0 2 0
6 66 0 1 0
8 66 0 2 0
10 66 0 2 0
12 65 0 2 0
14 64 0 3 0
16 68 0 0 0
18 70 0 0 0
20 68 0 2 0
22 65 0 2 0
24 66 0 2 0
26 67 0 1 0
28 67 0 1 0
30 66 0 1 0
32 65 0 0 0
34 64 0 2 0
36 65 0 2 0
38 66 0 1 0
40 66 0 1 0
42 65 0 3 0
44 65 0 3 0
46 68 0 2 0
48 69 0 1 0
50 68 0 3 0
52 66 0 3 0
54 65 0 4 0
56 64 0 3 0
58 69 0 0 0
60 67 0 2 0
62 65 0 3 0
64 65 0 4 0
66 70 1 0 0
68 69 1 1 0
70 69 1 1 0
72 68 1 2 0
74 70 1 0 0
76 69 1 1 1
78 68 2 1 0
80 68 2 0 0
82 66 1 3 1
84 67 2 2 0
86 67 1 1 1
88 69 2 1 0
90 67 1 1 0
92 66 1 2 0
94 65 3 3 0
96 67 3 2 0
98 67 2 1 0
100 69 1 0 0
102 70 1 1 0
104 68 2 1 0
106 66 2 3 1
108 69 1 2 1
110 67 3 3 0
112 67 2 3 2
114 65 4 4 0
116 68 3 1 0
118 66 3 2 0
120 64 2 4 2
122 66 2 2 1
124 67 3 1 1
126 64 2 2 2
128 64 4 1 0
130 60 4 4 0
132 64 2 1 1
134 62 2 3 0
136 64 3 1 0
138 63 2 2 1
140 64 3 0 1
142 61 3 2 0
144 62 3 2 0
146 63 2 2 1
148 61 3 4 0
150 64 3 1 1
152 62 4 3 1
154 61 4 3 0
156 62 6 1 0
158 62 4 2 0
160 61 5 2 1
162 62 7 2 0
164 62 7 1 0
166 60 5 4 1
168 63 6 1 0
170 62 6 1 0
172 61 6 2 0
174 59 7 3 0
176 59 6 3 0
178 58 6 5 0
180 63 6 1 0
182 62 6 1 1
184 62 6 2 0
186 63 7 1 0
188 62 5 1 2
190 60 7 3 1
192 60 6 2 2
194 59 7 3 1
196 60 8 2 0
198 62 8 1 0
200 59 7 2 1
202 60 8 2 0
204 58 7 2 1
206 58 8 2 0
208 60 7 0 1
210 57 7 3 1
212 55 8 4 0
214 57 6 1 2
216 56 8 2 0
218 57 8 1 0
220 56 8 2 0
222 59 8 1 0
224 57 8 2 0
226 56 8 3 0
228 55 8 4 0
230 57 8 2 0
232 58 8 1 0
234 57 8 2 0
236 57 8 1 0
238 58 8 1 0
240 57 9 2 0
242 56 8 1 2
244 55 8 1 1
246 54 9 2 0
248 53 9 3 0
250 54 9 2 0
252 55 9 1 0
254 55 9 1 2
256 55 9 1 2
258 55 11 2 1
260 52 10 4 2
262 54 8 2 3
264 52 8 4 2
266 52 9 2 1
268 51 10 3 0
270 53 10 0 0
272 52 9 2 2
274 51 11 2 1
276 53 11 0 1
278 52 11 0 1
280 49 13 2 0
282 52 13 0 0
284 51 12 1 2
286 50 12 3 2
288 51 11 2 1
290 49 13 3 0
292 52 12 1 2
294 51 13 2 2
296 52 15 1 0
298 51 14 0 2
300 51 14 0 1
302 51 13 1 2
304 53 12 0 2
306 52 11 1 5
308 50 14 3 1
310 52 14 0 2
312 51 13 0 0
314 50 12 1 2
316 52 10 1 3
318 50 15 3 0
320 52 14 1 1
322 51 15 1 2
324 49 13 3 2
326 50 12 3 3
328 52 14 0 1
330 48 15 2 1
332 50 16 1 0
334 49 14 2 2
336 49 15 2 0
338 49 14 2 1
340 50 13 1 0
342 48 13 3 1
344 48 13 4 0
346 48 12 3 4
348 48 14 3 1
350 48 15 1 0
