0 77 0 0 0
2 75 0 2 0
4.00004 71 0 6 0
6 73 0 3 0
8 74 0 3 0
10 74 0 2 0
12 76 0 0 0
14 76 0 0 0
16 74 0 1 0
18 73 0 2 0
20 70 0 4 0
22 73 0 0 0
24 70 0 2 0
26 71 0 1 0
28 68 0 3 0
30 70 0 2 0
32 72 0 1 0
34 71 0 1 0
36 69 0 4 0
38 72 0 1 0
40 73 0 2 0
42 69 0 5 0
44 70 0 5 0
46 73 0 2 0
48 74 0 1 0
50 72 0 3 0
52 71 0 3 0
54 74 0 0 0
56 71 0 2 0
58 71 0 2 0
60 73 0 2 0
62 72 0 2 0
64 70 0 2 0
66 70 0 1 0
68 72 0 0 1
70 71 1 2 0
72 69 1 3 1
74 70 1 3 0
76 69 1 2 0
78 72 1 0 0
80 71 0 1 1
82 71 1 1 0
84 71 2 1 0
86 70 1 2 1
88 70 2 1 0
90 70 2 2 0
92 68 2 4 0
94 72 1 0 1
96 67 1 4 0
98 67 1 5 0
100 68 2 3 1
102 66 2 5 0
104 67 2 3 0
106 67 3 4 0
108 65 3 3 1
110 67 3 0 0
112 65 2 2 0
114 65 4 2 0
116 62 2 2 1
118 64 2 1 0
120 62 4 1 1
122 62 3 0 0
124 63 2 3 2
126 64 2 1 0
128 62 1 3 1
130 64 2 1 0
132 63 1 2 1
134 64 1 0 1
136 62 2 1 0
138 63 2 1 0
140 64 2 1 0
142 61 2 2 0
144 63 2 1 0
146 64 3 0 0
148 63 3 1 0
150 62 3 2 2
152 62 4 1 0
154 63 3 0 0
156 64 3 0 0
158 60 3 3 1
160 62 3 0 0
162 60 4 2 0
164 61 2 1 3
166 60 4 2 0
168 61 4 2 1
170 60 3 3 1
172 62 5 1 0
174 60 5 3 0
176 59 5 3 0
178 57 5 4 0
180 59 5 2 0
182 59 4 2 1
184 60 6 1 0
186 59 4 2 1
188 58 5 4 0
190 57 5 4 0
192 54 6 5 0
194 57 5 1 1
196 56 5 2 2
198 57 5 1 1
200 53 4 5 1
202 59 4 1 0
204 57 4 2 0
206 55 5 2 0
208 53 5 3 0
210 53 5 3 0
212 56 4 0 0
214 56 4 0 0
216 55 4 1 0
218 55 5 1 0
220 54 4 1 1
222 54 4 1 1
224 54 5 1 0
226 53 4 1 1
228 54 5 1 0
230 54 5 1 1
232 54 6 0 0
234 54 5 0 2
236 53 7 1 1
238 52 6 2 1
240 53 7 1 0
242 54 7 0 1
244 54 8 0 1
246 53 6 1 2
248 53 5 1 1
250 53 6 1 1
252 51 5 3 1
254 52 6 2 1
256 52 7 2 0
258 54 7 0 1
260 53 8 0 0
262 53 6 0 2
264 52 9 0 0
266 51 8 2 1
268 52 9 1 0
270 49 9 3 0
272 50 9 2 1
274 50 9 1 1
276 50 9 1 0
278 48 9 3 0
280 48 9 1 0
282 49 9 0 1
284 49 10 0 0
286 46 11 4 0
288 47 10 1 0
290 48 10 0 0
292 46 10 2 0
294 46 9 1 1
296 47 9 0 1
298 47 10 0 0
300 47 11 0 0
302 46 11 1 0
304 46 10 1 2
306 46 12 1 0
308 46 13 1 0
310 46 12 2 3
312 46 13 2 4
314 47 14 1 1
316 47 14 1 1
318 48 16 0 1
320 47 15 1 1
322 47 18 0 0
324 47 16 0 1
326 45 17 2 0
328 45 18 2 0
330 46 17 1 1
332 47 16 0 1
334 45 18 2 0
336 46 17 1 0
338 47 15 0 2
340 45 16 1 1
342 46 16 1 0
344 47 16 0 0
346 45 16 2 0
348 46 16 1 0
350 44 16 3 0
