0 88 0 0 0
2 86 0 1 0
4.00004 87 0 1 0
6 87 0 1 0
8 87 0 1 0
10 84 0 4 0
12 86 0 3 0
14 85 0 4 0
16 86 0 3 0
18 87 0 2 0
20 86 0 4 0
22 86 0 3 0
24 88 0 1 0
26 88 0 1 0
28 88 0 0 0
30 88 0 1 0
32 87 0 1 0
34 86 0 2 0
36 88 0 2 0
38 88 0 1 0
40 88 0 0 0
42 87 0 1 0
44 87 0 1 0
46 88 0 0 0
48 84 0 2 0
50 86 0 2 0
52 65 20 2 0
54 62 26 0 0
56 45 40 3 0
58 41 44 3 0
60 37 48 1 0
62 36 51 1 0
64 30 55 3 0
66 31 56 0 1
68 28 58 1 2
70 28 60 1 0
72 25 63 1 0
74 25 63 1 0
76 25 62 0 1
78 23 65 0 0
80 24 63 1 2
82 22 68 0 0
84 19 69 1 0
86 16 72 1 0
88 17 73 0 0
90 14 75 0 0
92 12 76 0 1
94 10 79 1 0
96 9 79 1 1
98 9 78 1 2
100 11 80 1 0
102 10 81 1 0
104 11 80 0 0
106 7 82 3 0
108 10 81 0 2
110 9 81 1 1
112 8 81 1 2
114 8 82 0 1
116 7 82 0 3
118 6 86 1 1
120 7 87 0 0
122 5 85 3 2
124 4 86 2 1
126 6 85 0 1
128 4 82 1 3
130 6 83 0 3
132 5 84 1 2
134 6 85 0 1
136 3 87 1 1
138 4 83 0 5
140 3 86 1 1
142 3 87 0 1
144 3 86 0 2
146 3 87 0 1
148 3 87 0 2
150 2 86 0 1
152 2 87 0 0
154 4 85 0 2
156 4 85 0 1
158 4 87 1 1
160 4 86 1 2
162 3 87 1 1
164 4 87 1 0
166 1 88 2 0
168 2 87 1 1
170 3 88 0 0
172 2 88 0 1
174 1 88 1 1
176 1 89 1 1
178 1 89 1 1
180 2 88 0 1
182 2 87 0 2
184 3 86 0 2
186 3 85 0 3
188 2 87 1 2
190 3 88 0 1
192 3 88 0 1
194 2 87 1 1
196 2 87 1 0
198 3 86 1 1
200 3 85 1 2
202 4 86 0 1
204 3 86 0 1
206 2 85 1 2
208 2 87 1 0
210 1 87 0 2
212 1 89 1 0
214 2 87 0 2
216 2 88 0 1
218 2 89 1 1
220 2 88 0 1
222 0 89 1 2
224 1 87 0 4
226 1 88 0 2
228 1 88 0 1
230 1 87 0 2
232 1 90 0 0
234 1 88 0 2
236 1 88 0 2
238 2 88 0 2
240 2 90 0 0
242 1 90 1 0
244 2 89 0 0
246 2 85 0 3
248 2 86 0 2
250 2 85 0 2
252 2 85 0 1
254 2 83 0 3
256 2 85 0 1
258 1 83 0 4
260 1 83 0 2
262 1 85 0 1
264 1 85 0 2
266 1 85 0 1
268 1 84 0 2
270 1 86 0 1
272 0 87 0 1
274 0 86 0 2
276 0 85 0 1
278 0 84 0 1
280 0 85 0 1
282 0 84 0 1
284 0 85 0 2
286 0 85 0 1
288 0 84 0 5
290 0 86 0 2
292 0 87 0 1
294 0 87 0 0
296 0 84 0 3
298 0 85 0 1
300 0 86 0 1
302 0 85 0 1
304 0 85 0 2
306 0 86 0 2
308 0 81 0 6
310 0 85 0 3
312 0 87 0 2
314 0 87 0 1
316 0 87 0 1
318 0 86 0 1
320 0 82 0 5
322 0 84 0 1
324 0 85 0 0
326 0 84 0 1
328 0 84 0 1
330 0 84 0 0
332 0 83 0 1
334 0 83 0 1
336 0 82 0 3
338 0 84 1 1
340 0 83 1 1
342 0 82 0 3
344 0 85 0 0
346 0 84 0 2
348 0 84 0 0
350 0 84 0 1
