0 64 0 0 0
2 63 0 0 0
4.00004 59 0 4 0
6 62 0 2 0
8 61 0 4 0
10 62 0 3 0
12 60 0 5 0
14 65 0 1 0
16 60 0 6 0
18 62 0 3 0
20 62 0 3 0
22 63 0 1 0
24 65 0 2 0
26 61 0 3 0
28 59 0 5 0
30 61 0 5 0
32 64 0 2 0
34 63 0 2 0
36 63 0 2 0
38 64 0 1 0
40 63 0 3 0
42 63 0 2 0
44 64 0 3 0
46 63 0 3 0
48 63 0 4 0
50 67 0 1 0
52 52 13 4 0
54 42 22 5 0
56 41 27 0 0
58 34 31 2 1
60 28 37 2 0
62 28 38 1 0
64 27 42 0 0
66 20 47 1 0
68 14 52 2 0
70 13 53 0 1
72 12 55 0 0
74 10 55 1 1
76 11 55 1 2
78 12 56 0 1
80 11 56 1 1
82 8 57 1 1
84 5 56 3 1
86 6 58 3 0
88 4 57 1 3
90 6 56 0 4
92 4 58 2 1
94 7 59 0 0
96 7 58 0 1
98 6 59 0 1
100 4 58 1 0
102 7 59 0 0
104 5 59 2 1
106 4 58 2 1
108 5 60 4 0
110 5 60 0 1
112 5 62 1 0
114 4 61 0 2
116 2 62 1 2
118 3 63 1 1
120 5 64 0 0
122 5 62 0 2
124 3 62 1 2
126 6 61 1 1
128 4 63 2 1
130 5 63 1 0
132 5 60 2 3
134 7 62 0 1
136 6 61 1 1
138 6 58 1 4
140 4 59 2 3
142 4 60 1 1
144 4 58 1 3
146 6 58 0 2
148 6 60 1 1
150 8 60 0 2
152 7 59 1 1
154 7 60 1 1
156 4 63 2 0
158 4 57 1 3
160 5 61 0 1
162 5 63 0 0
164 5 60 0 1
166 4 61 0 3
168 4 59 1 2
170 4 59 0 1
172 3 60 2 2
174 4 59 0 1
176 4 59 0 3
178 4 62 0 0
180 2 62 0 0
182 2 59 1 2
184 3 59 1 2
186 1 60 1 0
188 2 60 1 1
190 3 57 0 4
192 2 61 0 0
194 1 61 2 1
196 3 58 0 3
198 4 58 0 3
200 2 59 2 1
202 4 61 0 0
204 4 60 1 1
206 3 60 1 1
208 2 62 2 0
210 4 61 1 2
212 6 59 0 4
214 6 57 0 4
216 5 60 0 4
218 5 64 0 0
220 4 62 0 2
222 3 61 1 4
224 3 61 1 2
226 3 57 1 5
228 2 60 0 1
230 2 62 0 1
232 3 63 0 0
234 1 63 0 0
236 1 62 0 1
238 2 61 0 2
240 2 61 0 2
242 0 64 0 0
244 0 61 0 3
246 0 62 0 2
248 0 64 0 0
250 0 61 0 3
252 1 64 0 1
254 0 63 0 2
256 0 62 0 3
258 0 65 0 2
260 0 65 0 2
262 0 65 0 2
264 0 67 0 0
266 0 67 0 0
268 0 65 0 2
270 0 63 1 3
272 1 67 0 0
274 0 67 1 0
276 1 64 0 3
278 0 64 1 3
280 1 65 0 1
282 3 66 0 0
284 2 63 1 3
286 1 65 1 1
288 2 65 1 1
290 2 67 0 0
292 1 64 1 3
294 2 64 1 2
296 2 66 0 1
298 3 67 0 1
300 2 66 1 1
302 3 66 0 1
304 1 66 2 1
306 3 67 0 0
308 2 66 1 1
310 2 66 2 1
312 5 65 0 2
314 4 66 0 1
316 4 66 0 2
318 3 65 1 2
320 2 64 1 3
322 2 68 0 0
324 2 68 0 0
326 1 65 0 4
328 0 68 1 1
330 1 67 0 3
332 0 68 1 0
334 1 67 0 1
336 0 67 1 2
338 2 68 0 1
340 1 69 1 0
342 3 67 0 1
344 2 66 1 2
346 3 67 0 1
348 3 65 0 3
350 5 68 0 0
