0 56 0 0 0
2 53 0 4 0
4.00004 58 0 2 0
6 56 0 4 0
8 56 0 5 0
10 57 0 4 0
12 57 0 3 0
14 56 0 5 0
16 55 0 4 0
18 57 0 3 0
20 56 0 5 0
22 57 0 3 0
24 58 0 3 0
26 59 0 4 0
28 56 0 5 0
30 60 0 1 0
32 58 0 3 0
34 56 0 2 0
36 56 0 1 0
38 56 0 1 0
40 54 0 3 0
42 55 0 5 0
44 57 0 1 0
46 54 0 5 0
48 56 0 4 0
50 57 0 3 0
52 58 0 2 0
54 57 0 1 0
56 56 0 2 0
58 55 0 1 0
60 53 0 1 0
62 57 0 0 0
64 56 0 1 0
66 56 0 3 0
68 54 0 2 0
70 56 0 1 0
72 55 0 2 0
74 54 0 3 0
76 56 0 1 0
78 56 0 0 0
80 54 0 2 0
82 54 0 1 0
84 53 0 2 0
86 49 0 6 0
88 52 1 2 0
90 52 0 2 1
92 52 1 1 0
94 49 1 5 0
96 46 1 7 1
98 50 2 3 0
100 48 2 1 1
102 49 3 1 1
104 48 2 1 1
106 48 2 1 0
108 47 1 2 2
110 49 3 0 1
112 47 4 2 0
114 48 4 2 1
116 47 5 3 0
118 46 5 4 1
120 47 6 2 2
122 46 6 2 0
124 45 6 4 1
126 45 9 4 0
128 46 9 2 0
130 47 7 0 1
132 47 8 1 0
134 47 7 2 1
136 47 7 2 0
138 48 6 0 2
140 47 7 2 1
142 47 5 1 3
144 47 6 2 3
146 49 7 0 2
148 48 9 0 1
150 47 10 1 1
152 47 9 1 1
154 47 9 1 1
156 47 9 1 2
158 47 9 1 0
160 47 9 1 0
162 46 8 1 1
164 45 10 1 0
166 46 10 1 0
168 44 12 2 0
170 45 12 1 0
172 45 13 1 1
174 45 12 1 1
176 46 13 1 1
178 44 13 2 2
180 44 14 1 1
182 41 14 4 1
184 42 15 3 2
186 43 15 3 4
188 41 16 5 2
190 41 15 4 2
192 41 14 2 2
194 41 16 2 1
196 42 15 1 1
198 39 15 4 1
200 41 15 2 1
202 40 16 3 0
204 41 15 2 1
206 38 16 5 0
208 42 14 3 2
210 42 15 1 1
212 41 14 1 0
214 41 13 2 1
216 39 14 3 0
218 40 16 1 0
220 37 15 4 0
222 39 14 0 0
224 38 13 2 1
226 39 14 1 0
228 40 14 1 0
230 39 14 0 0
232 37 15 3 0
234 40 14 0 2
236 39 15 0 2
238 39 15 1 2
240 39 18 0 0
242 38 18 0 1
244 39 18 0 1
246 39 18 1 0
248 38 17 1 1
250 39 17 0 1
252 39 19 0 1
254 39 19 1 1
256 40 19 0 1
258 39 19 1 2
260 36 18 4 2
262 39 20 1 1
264 40 20 0 0
266 39 20 1 0
268 39 20 1 0
270 38 19 2 2
272 39 20 0 1
274 40 22 0 0
276 39 20 1 1
278 39 22 1 1
280 39 20 1 3
282 39 21 1 1
284 40 22 0 1
286 39 21 1 3
288 39 21 0 0
290 40 21 0 2
292 39 20 1 1
294 39 21 0 0
296 39 20 0 3
298 38 22 1 1
300 39 22 0 0
302 39 23 0 1
304 38 21 1 3
306 38 24 1 0
308 39 22 0 2
310 39 22 0 1
312 38 21 1 2
314 39 23 0 1
316 39 24 0 1
318 39 24 0 0
320 38 23 1 2
322 38 23 1 2
324 39 25 0 1
326 38 26 1 0
328 39 26 0 0
330 39 24 0 1
332 39 25 0 1
334 39 21 0 5
336 39 24 0 1
338 39 22 0 3
340 39 23 0 2
342 39 22 0 2
344 39 22 0 1
346 39 21 0 1
348 39 22 0 1
350 38 23 1 1
