0 72 0 0 0
2 68 0 1 0
4.00004 66 0 1 0
6 68 0 0 0
8 67 0 1 0
10 68 0 1 0
12 70 0 0 0
14 70 0 2 0
16 71 0 2 0
18 70 0 3 0
20 71 0 2 0
22 70 0 3 0
24 70 0 1 0
26 68 0 4 0
28 70 0 2 0
30 71 0 1 0
32 69 0 2 0
34 70 0 1 0
36 70 0 3 0
38 70 0 3 0
40 71 0 1 0
42 72 0 2 0
44 72 0 2 0
46 70 0 4 0
48 72 0 1 0
50 70 0 4 0
52 63 11 1 0
54 51 21 2 0
56 44 29 0 0
58 38 35 1 0
60 30 40 4 0
62 30 41 2 0
64 27 43 1 0
66 24 47 1 0
68 22 51 0 0
70 19 53 1 0
72 15 55 4 0
74 13 60 2 0
76 14 62 0 0
78 10 64 2 0
80 9 64 2 0
82 8 64 0 1
84 6 67 0 0
86 4 67 1 0
88 3 67 0 2
90 1 68 1 2
92 3 68 0 2
94 5 67 0 1
96 4 69 0 0
98 4 69 0 0
100 3 68 0 2
102 3 68 0 1
104 2 70 0 0
106 2 70 0 0
108 3 70 0 0
110 1 70 2 0
112 3 69 0 1
114 2 71 0 0
116 3 69 1 2
118 3 71 0 0
120 2 70 0 1
122 3 70 1 1
124 2 70 1 2
126 2 71 0 1
128 2 71 0 0
130 3 69 0 2
132 3 70 0 1
134 3 70 0 1
136 1 70 2 2
138 2 72 0 2
140 3 69 0 5
142 2 70 0 4
144 3 72 0 1
146 2 69 0 2
148 2 69 0 2
150 1 70 1 1
152 2 70 0 0
154 2 69 1 1
156 2 68 1 1
158 2 69 1 0
160 2 68 0 1
162 0 67 2 2
164 3 70 0 0
166 2 69 2 1
168 4 68 0 2
170 4 66 0 2
172 4 65 0 2
174 5 68 0 0
176 3 65 0 4
178 2 66 0 3
180 1 68 1 2
182 1 69 1 1
184 0 68 0 2
186 0 68 0 2
188 1 70 0 0
190 0 67 1 2
192 1 67 0 2
194 0 68 0 2
196 0 68 0 1
198 0 67 0 1
200 1 67 2 1
202 3 66 0 2
204 2 65 0 4
206 2 66 0 2
208 1 66 0 2
210 1 65 1 2
212 1 66 0 1
214 1 64 0 3
216 1 66 0 2
218 2 66 0 2
220 1 68 0 0
222 1 69 0 0
224 1 69 0 1
226 1 68 0 1
228 1 65 0 3
230 1 66 0 2
232 1 66 0 1
234 1 67 0 0
236 1 68 0 0
238 1 67 0 1
240 1 66 0 2
242 1 65 0 2
244 1 65 0 1
246 1 66 0 0
248 1 67 0 0
250 1 68 0 0
252 1 66 0 0
254 1 66 0 0
256 1 67 0 0
258 1 66 0 1
260 1 65 0 2
262 1 65 0 2
264 2 65 0 2
266 2 67 2 0
268 4 64 0 3
270 4 67 0 0
272 1 66 0 2
274 2 66 2 2
276 2 65 0 1
278 2 66 0 0
280 1 66 0 0
282 2 66 1 1
284 3 67 0 1
286 4 66 0 1
288 2 66 0 1
290 1 67 0 0
292 4 67 0 1
294 2 68 1 0
296 4 66 0 2
298 4 66 0 1
300 4 64 0 3
302 1 64 1 2
304 1 66 2 0
306 1 67 0 2
308 1 67 0 1
310 1 68 0 0
312 1 67 2 0
314 2 66 1 0
316 2 66 0 0
318 1 65 0 1
320 1 64 0 2
322 1 65 0 1
324 0 66 1 0
326 0 65 0 1
328 0 65 0 1
330 0 66 1 0
332 0 65 1 1
334 1 65 0 1
336 1 64 0 2
338 0 64 0 1
340 0 65 0 0
342 0 63 0 1
344 0 62 0 2
346 0 63 0 1
348 0 61 0 2
350 0 63 0 1
