0 78 0 0 0
2 75 0 3 0
4.00004 76 0 1 0
6 74 0 4 0
8 77 0 1 0
10 78 0 0 0
12 76 0 1 0
14 77 0 2 0
16 77 0 0 0
18 74 0 2 0
20 74 0 2 0
22 75 0 3 0
24 74 0 1 0
26 74 0 1 0
28 77 0 0 0
30 75 0 2 0
32 77 0 0 0
34 74 0 2 0
36 75 0 2 0
38 75 0 2 0
40 73 0 4 0
42 76 0 1 0
44 79 0 0 0
46 75 0 3 0
48 76 0 3 0
50 77 0 1 0
52 76 0 3 0
54 76 0 3 0
56 78 0 1 0
58 79 0 1 0
60 77 0 3 0
62 77 0 5 0
64 79 0 2 0
66 76 0 0 0
68 74 0 2 0
70 73 0 5 0
72 75 0 1 0
74 75 1 2 0
76 74 1 2 0
78 71 1 2 0
80 72 2 2 0
82 73 0 1 1
84 72 3 2 0
86 73 2 0 1
88 73 2 1 1
90 74 2 0 1
92 71 3 3 0
94 71 3 1 0
96 69 2 5 0
98 72 2 1 1
100 71 2 2 0
102 71 2 2 0
104 73 3 0 0
106 73 2 0 2
108 71 3 2 1
110 72 1 1 1
112 73 3 1 0
114 71 3 1 0
116 71 3 2 0
118 70 2 1 0
120 72 1 1 1
122 71 4 4 0
124 73 2 2 1
126 72 2 1 1
128 70 2 3 1
130 71 3 2 0
132 72 3 1 1
134 72 4 1 0
136 70 6 3 1
138 72 6 1 1
140 70 7 3 1
142 70 4 2 2
144 71 5 1 3
146 70 8 2 1
148 69 8 2 0
150 71 4 1 3
152 70 6 2 0
154 69 6 3 2
156 69 8 3 0
158 70 8 1 0
160 69 7 1 1
162 68 6 2 2
164 68 9 2 0
166 69 8 1 1
168 69 9 1 0
170 70 9 0 0
172 70 10 0 0
174 70 8 0 0
176 70 7 0 1
178 70 9 0 0
180 68 8 2 2
182 67 9 4 1
184 68 8 1 2
186 69 10 0 0
188 66 10 3 1
190 70 9 0 2
192 69 9 0 1
194 67 11 1 0
196 66 10 1 1
198 66 10 1 1
200 66 11 1 0
202 66 11 1 0
204 65 9 0 1
206 65 9 1 0
208 65 9 1 1
210 65 10 2 0
212 64 10 4 0
214 66 9 2 0
216 67 9 1 0
218 64 9 2 1
220 65 9 1 1
222 66 9 0 0
224 65 9 0 0
226 64 10 1 0
228 64 10 1 1
230 63 10 0 0
232 62 11 0 0
234 62 11 0 0
236 61 12 1 1
238 60 11 1 1
240 61 11 0 0
242 60 10 1 3
244 61 11 0 1
246 60 11 1 1
248 61 10 0 1
250 61 11 0 0
252 60 11 0 0
254 60 11 0 0
256 59 11 1 0
258 59 11 1 0
260 60 11 0 0
262 60 11 0 0
264 60 12 1 0
266 61 12 0 0
268 58 11 2 1
270 59 10 0 2
272 57 12 1 0
274 57 11 1 0
276 57 12 1 0
278 57 13 0 0
280 57 12 0 0
282 58 11 0 2
284 56 12 2 1
286 57 10 1 2
288 56 10 1 3
290 55 11 1 1
292 55 9 1 1
294 56 10 1 0
296 56 9 0 1
298 56 10 0 0
300 55 9 0 1
302 57 9 0 1
304 57 10 0 0
306 55 8 1 1
308 54 9 1 0
310 54 9 1 0
312 55 11 1 0
314 56 10 0 1
316 56 10 0 2
318 55 11 1 1
320 54 10 2 1
322 56 11 0 1
324 55 9 1 4
326 56 10 0 1
328 55 10 0 1
330 54 10 1 1
332 52 12 2 0
334 51 11 3 1
336 53 11 1 0
338 52 12 2 1
340 51 12 2 1
342 51 12 2 1
344 51 12 1 1
346 53 11 0 0
348 51 11 2 0
350 52 11 1 0
