0 76 0 0 0
2 72 0 4 0
4.00004 71 0 5 0
6 72 0 3 0
8 73 0 3 0
10 73 0 3 0
12 76 0 1 0
14 75 0 2 0
16 77 0 1 0
18 72 0 5 0
20 73 0 4 0
22 75 0 2 0
24 74 0 3 0
26 74 0 1 0
28 73 0 2 0
30 73 0 2 0
32 75 0 1 0
34 76 0 1 0
36 77 0 1 0
38 76 0 2 0
40 74 0 3 0
42 76 0 3 0
44 75 0 3 0
46 76 0 0 0
48 75 0 1 0
50 74 0 2 0
52 75 0 2 0
54 72 0 5 0
56 76 0 1 0
58 74 0 3 0
60 75 0 1 0
62 76 0 2 0
64 79 0 2 0
66 80 0 2 0
68 80 1 3 0
70 80 1 1 0
72 78 1 4 0
74 78 1 4 0
76 79 1 3 0
78 80 1 2 0
80 81 1 2 0
82 80 0 3 0
84 80 0 3 0
86 80 0 2 0
88 77 0 5 0
90 78 0 4 0
92 77 0 4 0
94 76 0 3 0
96 76 2 3 0
98 76 2 4 0
100 76 0 4 1
102 77 0 4 1
104 79 1 2 0
106 79 0 1 0
108 78 0 2 0
110 79 0 1 0
112 77 0 3 1
114 77 0 4 1
116 78 3 3 1
118 77 2 2 0
120 77 2 2 0
122 74 1 5 1
124 76 2 4 1
126 74 3 4 1
128 75 1 3 2
130 74 2 4 1
132 74 4 4 0
134 76 3 2 0
136 74 3 4 0
138 75 5 3 2
140 77 5 0 1
142 75 6 2 0
144 76 4 1 2
146 76 4 2 1
148 76 5 2 0
150 75 4 3 1
152 76 4 2 1
154 77 5 1 0
156 76 5 2 2
158 77 4 2 3
160 77 4 1 1
162 76 5 3 1
164 78 4 0 2
166 75 6 4 0
168 75 6 4 1
170 79 5 0 1
172 77 4 2 2
174 78 5 1 2
176 77 5 2 3
178 75 7 5 1
180 76 8 3 1
182 79 6 1 2
184 75 8 4 1
186 77 8 2 1
188 76 8 3 1
190 77 8 1 1
192 77 7 1 1
194 79 8 0 0
196 77 8 2 0
198 76 8 2 0
200 76 9 2 0
202 78 9 0 0
204 78 9 0 1
206 75 9 3 0
208 76 9 2 0
210 77 9 1 0
212 74 9 4 0
214 73 9 5 0
216 74 9 3 0
218 74 9 3 0
220 74 9 3 0
222 72 8 4 1
224 71 9 4 0
226 72 9 3 0
228 70 10 5 0
230 72 10 1 0
232 72 10 2 0
234 69 10 5 0
236 67 10 7 1
238 71 11 3 0
240 70 11 4 1
242 71 12 2 0
244 71 13 3 0
246 71 12 1 2
248 68 12 2 1
250 68 9 4 4
252 69 11 3 2
254 71 12 1 1
256 67 12 5 0
258 68 12 3 1
260 69 11 2 2
262 69 11 3 2
264 68 13 4 1
266 70 12 2 1
268 71 12 1 1
270 67 12 4 1
272 70 13 2 0
274 68 13 4 0
276 71 13 1 0
278 71 12 1 1
280 71 13 0 0
282 69 15 1 0
284 70 15 0 0
286 68 14 2 0
288 67 11 3 2
290 68 14 2 0
292 69 14 1 1
294 69 15 1 0
296 67 15 3 2
298 69 15 1 1
300 70 15 1 0
302 70 13 1 3
304 69 14 2 3
306 69 16 1 2
308 67 17 2 2
310 69 18 0 1
312 68 16 1 3
314 68 18 1 0
316 67 16 1 1
318 65 16 4 0
320 68 15 1 2
322 67 18 2 0
324 68 17 1 1
326 70 16 0 3
328 70 16 0 2
330 68 18 2 0
332 66 17 4 0
334 67 17 3 0
336 67 17 3 2
338 67 16 2 2
340 67 17 2 1
342 66 19 2 0
344 64 18 3 1
346 65 19 1 0
348 62 18 6 1
350 64 19 4 0
