0 965 0 0 0 0 0
2 915 15 0 20 0 10
4.00004 911 13 0 26 0 11
6 918 15 0 16 0 9
8 915 16 0 29 0 7
10 914 10 0 26 0 17
12 921 10 0 28 0 9
14 908 20 0 22 0 10
16 908 8 0 26 0 12
18 909 14 0 24 0 13
20 909 24 0 25 0 10
22 908 18 0 26 0 14
24 905 17 0 24 0 8
26 909 13 0 28 0 11
28 901 20 0 30 0 12
30 907 12 0 29 0 10
32 912 15 0 27 0 9
34 889 19 0 32 0 17
36 898 17 0 22 0 13
38 918 12 0 27 0 8
40 901 18 0 26 0 11
42 900 15 0 27 0 15
44 899 17 0 33 0 9
46 921 11 0 19 0 14
48 899 22 0 18 0 14
50 896 20 0 29 0 10
52 675 0 239 10 31 0
54 550 0 361 11 35 0
56 453 0 460 11 31 0
58 381 0 536 7 29 0
60 320 0 600 8 25 0
62 277 0 633 6 36 0
64 214 0 700 8 24 0
66 183 0 724 6 29 0
68 162 0 752 8 25 0
70 136 0 779 11 30 1
72 110 0 805 3 27 0
74 86 0 840 5 26 0
76 77 0 849 2 38 0
78 67 0 864 5 24 0
80 58 0 868 2 33 0
82 43 0 882 4 22 0
84 39 1 873 5 36 0
86 34 0 885 6 35 0
88 31 0 894 4 32 0
90 26 0 901 4 36 0
92 26 0 909 3 31 0
94 22 0 904 6 29 0
96 16 0 900 10 40 0
98 19 0 903 5 28 0
100 14 0 913 4 21 0
102 14 0 906 2 27 0
104 14 0 898 1 29 0
106 10 0 899 8 25 0
108 17 0 894 7 30 0
110 15 0 899 2 30 0
112 18 0 905 2 29 0
114 15 0 912 5 24 0
116 17 0 916 5 21 0
118 18 0 903 5 36 0
120 17 0 922 8 18 0
122 19 0 906 1 31 0
124 18 0 897 3 38 0
126 15 0 905 5 23 0
128 17 0 911 6 28 0
130 13 0 913 1 27 0
132 9 0 902 6 37 0
134 17 0 903 12 31 0
136 19 0 903 3 30 0
138 16 0 905 3 31 0
140 16 0 903 4 30 0
142 16 0 913 2 24 0
144 17 0 897 5 31 0
146 21 0 903 7 23 0
148 12 0 894 8 33 0
150 14 0 903 6 36 0
152 17 0 902 4 38 0
154 15 0 899 8 35 0
156 10 0 897 4 35 0
158 14 0 906 5 35 0
160 10 0 901 6 34 0
162 16 0 907 7 30 0
164 16 0 899 3 45 0
166 16 0 909 2 27 0
168 13 0 888 3 40 0
170 17 0 890 2 36 0
172 7 0 903 7 33 0
174 9 0 901 5 42 0
176 16 0 895 2 37 0
178 17 0 883 3 28 0
180 11 0 879 6 28 0
182 12 0 864 2 37 0
184 13 0 871 6 42 0
186 12 0 880 7 26 0
188 15 0 887 5 23 0
190 14 0 877 5 32 0
192 14 0 883 6 26 0
194 13 0 874 5 33 0
196 12 0 883 1 29 0
198 17 0 880 3 24 0
200 12 0 875 7 28 0
