0 1106 0 0 0 0 0
2 1070 1 0 32 0 10
4.00004 1070 0 0 30 0 11
6 1072 3 0 28 0 8
8 1072 1 0 27 0 9
10 1082 1 0 18 0 9
12 1071 2 0 21 0 13
14 1080 1 0 18 0 9
16 1066 3 0 31 0 9
18 1075 2 0 17 0 9
20 1064 2 0 20 0 11
22 1068 2 0 12 0 13
24 1064 1 0 22 0 14
26 1071 1 0 23 0 9
28 1068 1 0 25 0 9
30 1070 2 0 18 0 10
32 1069 3 0 17 0 11
34 1074 1 0 17 0 10
36 1075 0 0 22 0 14
38 1092 1 0 15 0 6
40 1076 1 0 24 0 14
42 1069 0 0 26 0 12
44 1084 1 0 12 0 10
46 1079 2 0 17 0 9
48 1077 2 0 19 0 8
50 1088 1 0 20 0 5
52 907 0 186 14 8 0
54 773 0 310 5 23 0
56 679 0 403 9 21 0
58 596 0 492 5 25 0
60 517 0 571 6 22 0
62 467 0 618 6 29 0
64 395 0 694 5 22 0
66 352 1 744 5 20 0
68 306 0 776 2 33 0
70 275 0 818 4 19 0
72 238 0 846 4 28 0
74 213 0 873 3 17 0
76 191 1 898 2 24 0
78 171 0 910 5 32 0
80 152 0 924 3 36 0
82 131 0 946 2 28 0
84 119 0 952 2 38 0
86 100 0 979 2 28 0
88 88 0 1000 4 16 0
90 77 0 1013 5 19 0
92 65 0 1018 3 23 0
94 54 0 1024 5 25 0
96 54 0 1027 6 24 0
98 48 0 1035 4 25 0
100 41 0 1038 3 24 0
102 39 0 1042 3 25 0
104 30 0 1054 2 22 0
106 29 0 1059 3 16 0
108 31 0 1055 5 21 0
110 22 0 1063 3 21 0
112 14 0 1054 4 33 0
114 17 0 1057 1 32 0
116 11 0 1075 3 14 0
118 9 0 1073 1 23 0
120 10 0 1076 1 20 0
122 10 0 1066 3 27 0
124 10 0 1076 4 17 0
126 6 0 1071 2 22 0
128 8 0 1072 5 17 0
130 6 0 1069 3 28 0
132 10 0 1080 3 19 0
134 5 0 1078 4 19 0
136 6 0 1073 3 31 0
138 7 0 1074 2 27 0
140 4 0 1077 4 26 0
142 5 0 1077 4 17 0
144 3 0 1067 3 27 0
146 6 0 1070 0 20 0
148 4 0 1060 0 23 0
150 6 0 1049 4 31 0
152 4 0 1060 1 22 0
154 3 0 1052 1 26 0
156 4 0 1052 1 27 0
158 1 0 1057 2 25 0
160 4 0 1058 3 25 0
162 4 0 1055 3 31 0
164 6 0 1059 1 30 0
166 4 0 1053 3 33 0
168 5 0 1064 1 23 0
170 2 0 1058 1 27 0
172 3 0 1067 6 18 0
174 6 0 1056 3 27 0
176 9 0 1051 4 28 0
178 4 0 1055 5 28 0
180 4 0 1065 3 14 0
182 3 0 1055 4 26 0
184 6 0 1061 3 20 0
186 3 0 1050 1 28 0
188 5 0 1042 3 32 0
190 9 0 1048 7 29 0
192 5 0 1041 5 39 0
194 5 0 1055 6 27 0
196 3 0 1043 7 33 0
198 4 0 1045 4 27 0
200 10 0 1052 1 23 0
