0 978 0 0 0 0 0
2 944 4 0 23 0 9
4.00004 959 4 0 17 0 6
6 946 11 0 20 0 7
8 940 6 0 32 0 8
10 952 5 0 27 0 6
12 944 9 0 26 0 10
14 950 8 0 19 0 11
16 956 2 0 20 0 7
18 963 2 0 22 0 3
20 960 4 0 22 0 5
22 948 7 0 26 0 6
24 960 6 0 19 0 7
26 967 9 0 23 0 5
28 960 7 0 28 0 8
30 967 12 0 20 0 8
32 964 14 0 30 0 5
34 980 13 0 16 0 9
36 997 5 0 19 0 7
38 995 11 0 21 0 4
40 984 10 0 23 0 5
42 998 2 0 17 0 6
44 984 3 0 26 0 8
46 974 8 0 29 0 12
48 975 11 0 32 0 5
50 996 5 0 23 0 8
52 767 1 235 18 14 0
54 642 1 363 22 9 0
56 522 2 490 15 16 1
58 406 1 600 14 15 0
60 335 0 668 14 26 0
62 275 0 730 8 23 1
64 230 0 770 13 26 1
66 185 0 826 5 20 0
68 144 0 859 8 22 0
70 119 0 873 10 31 0
72 106 0 884 8 28 0
74 86 0 913 7 16 0
76 73 0 922 3 25 0
78 62 0 934 1 23 0
80 55 0 948 5 16 0
82 48 0 930 8 31 0
84 53 0 931 4 28 0
86 50 0 946 3 20 0
88 43 0 939 6 29 0
90 40 0 947 10 20 0
92 31 0 946 6 22 0
94 28 0 949 1 20 0
96 27 0 954 2 22 0
98 27 0 962 7 24 0
100 28 0 969 4 19 0
102 30 0 959 4 31 0
104 32 0 952 5 24 0
106 30 0 950 8 25 0
108 31 0 945 3 37 0
110 26 0 957 6 25 0
112 27 0 961 5 15 0
114 30 0 960 3 18 0
116 27 0 953 1 29 0
118 29 0 956 9 32 0
120 26 0 948 8 34 0
122 27 0 951 6 37 0
124 29 0 954 5 31 0
126 18 0 964 6 29 0
128 23 0 966 4 23 0
130 25 0 966 3 29 0
132 25 0 970 6 23 0
134 23 0 971 6 25 0
136 21 0 972 6 35 0
138 19 0 983 5 27 0
140 25 0 985 3 27 0
142 19 0 986 4 30 0
144 22 0 993 4 26 0
146 17 0 985 7 34 0
148 13 0 999 5 26 0
150 18 0 991 3 22 0
152 16 0 991 5 30 0
154 24 0 993 8 26 0
156 24 0 988 6 23 0
158 26 0 994 7 25 0
160 27 0 1001 3 21 0
162 16 0 994 7 29 0
164 17 0 1002 13 26 0
166 25 0 999 8 24 0
168 28 0 996 7 26 0
170 31 0 990 2 35 0
172 24 0 995 4 34 0
174 28 0 1004 4 28 0
176 20 0 1004 10 32 0
178 19 0 1007 8 30 0
180 23 0 999 6 34 0
182 17 0 991 4 44 0
184 23 0 1005 5 33 0
186 19 0 1002 7 30 0
188 22 0 1005 8 30 0
190 16 0 1011 8 22 0
192 16 0 1002 1 40 0
194 16 0 1009 5 27 0
196 18 0 1009 4 28 0
198 21 0 1018 7 23 0
200 20 0 1003 3 31 0
