0 794 0 0 0 0 0
2 754 0 0 33 0 0
4.00004 754 0 0 35 0 0
6 761 0 0 28 0 0
8 767 0 0 24 0 0
10 768 0 0 22 0 0
12 771 0 0 22 0 0
14 765 0 0 27 0 0
16 759 1 0 31 0 0
18 778 1 0 18 0 0
20 773 1 0 29 0 0
22 777 0 0 28 0 0
24 778 0 0 21 0 0
26 769 0 0 27 0 0
28 772 0 0 25 0 0
30 774 0 0 26 0 0
32 769 0 0 31 0 0
34 768 0 0 30 0 0
36 769 0 0 20 0 0
38 756 0 0 30 0 0
40 758 0 0 27 0 0
42 768 0 0 25 0 0
44 771 0 0 22 0 0
46 769 0 0 24 0 0
48 767 0 0 27 0 0
50 759 0 0 27 0 0
52 761 0 0 23 1 0
54 754 0 1 30 4 0
56 746 0 8 31 3 0
58 751 0 9 18 4 0
60 742 0 14 21 7 0
62 734 0 13 24 9 0
64 729 0 20 29 6 0
66 731 0 23 19 5 0
68 723 0 29 25 6 0
70 724 0 36 20 4 0
72 719 0 38 22 5 0
74 720 0 43 23 8 0
76 720 0 44 17 3 0
78 712 0 51 15 4 0
80 702 0 52 20 11 0
82 707 0 61 14 11 0
84 700 0 68 14 7 0
86 696 0 75 15 5 0
88 695 0 74 12 11 0
90 689 0 75 14 8 0
92 693 0 75 9 14 0
94 689 0 85 11 7 0
96 679 0 86 13 11 0
98 678 0 90 11 9 0
100 672 0 103 15 4 0
102 668 0 104 14 5 0
104 658 0 101 23 10 0
106 658 0 109 18 8 0
108 648 0 113 19 8 0
110 651 0 115 17 8 0
112 646 0 120 22 7 0
114 653 0 122 10 8 0
116 649 0 126 11 11 0
118 649 0 127 9 9 0
120 643 0 129 11 10 0
122 635 0 134 14 11 0
124 635 0 131 11 16 0
126 636 0 137 13 13 0
128 624 0 144 17 13 0
130 625 0 142 15 12 0
132 616 0 143 15 14 0
134 616 0 151 17 10 0
136 613 0 157 12 5 0
138 600 0 166 19 5 0
140 602 0 162 14 11 0
142 599 0 174 13 11 0
144 591 0 182 21 6 0
146 588 0 186 19 11 0
148 595 0 196 12 10 0
150 583 0 192 16 19 0
152 584 0 199 17 13 0
154 580 0 202 20 16 0
156 588 0 206 10 12 0
158 583 0 200 14 18 0
160 571 0 207 21 11 0
162 569 0 214 17 7 0
164 569 0 210 11 14 0
166 560 0 211 19 17 0
168 562 0 219 14 12 0
170 566 0 224 12 10 0
172 553 0 224 19 10 0
174 553 0 227 16 12 0
176 551 0 230 10 17 0
178 547 0 232 15 14 0
180 554 0 235 9 16 0
182 549 0 242 10 11 0
184 547 0 241 8 14 0
186 544 0 242 14 18 0
188 533 0 251 18 16 0
190 531 0 249 10 17 0
192 523 0 252 18 17 0
194 522 0 253 16 16 0
196 519 0 264 18 13 0
198 526 0 271 7 16 0
200 514 0 278 14 8 0
