0 1109 0 0 0 0 0
2 1072 17 0 11 0 7
4.00004 1077 14 0 10 0 3
6 1081 15 0 8 0 1
8 1087 7 0 7 0 4
10 1075 13 0 8 0 1
12 1072 12 0 6 0 6
14 1065 15 0 7 0 4
16 1066 21 0 8 0 7
18 1054 23 0 12 0 7
20 1057 25 0 9 0 4
22 1061 15 0 6 0 6
24 1052 16 0 11 0 6
26 1062 14 0 7 0 2
28 1058 19 0 5 0 6
30 1059 9 0 8 0 5
32 1047 21 0 5 0 4
34 1059 18 0 8 0 3
36 1055 22 0 8 0 5
38 1052 26 0 8 0 5
40 1058 20 0 9 0 6
42 1064 14 0 10 0 8
44 1060 19 0 9 0 4
46 1078 17 0 4 0 5
48 1071 12 0 11 0 5
50 1065 17 0 4 0 5
52 912 1 167 6 10 1
54 811 0 279 3 11 0
56 724 0 366 1 6 0
58 654 0 429 1 12 0
60 588 0 493 2 13 1
62 534 0 551 1 8 0
64 480 0 603 0 12 0
66 414 0 665 1 11 0
68 367 0 707 2 13 0
70 336 0 744 1 11 0
72 306 1 779 3 2 0
74 276 0 813 3 8 0
76 248 0 840 1 15 0
78 219 0 869 1 16 0
80 208 0 888 0 9 0
82 184 0 907 1 11 0
84 165 0 930 1 10 0
86 151 0 948 2 13 0
88 143 0 954 0 12 0
90 127 0 972 3 9 0
92 123 0 974 0 8 0
94 108 0 986 3 17 0
96 102 0 1000 1 12 0
98 94 0 1002 1 8 0
100 86 0 1010 2 11 0
102 80 0 1016 1 11 0
104 68 0 1024 1 17 0
106 63 0 1043 1 5 1
108 60 0 1044 2 10 0
110 55 0 1048 0 15 0
112 52 0 1057 0 7 0
114 44 0 1056 1 14 0
116 36 0 1061 3 12 0
118 33 0 1069 0 9 0
120 33 0 1056 1 13 0
122 31 0 1055 0 13 0
124 28 0 1057 3 13 0
126 29 0 1059 1 14 0
128 25 0 1070 0 8 0
130 20 0 1066 0 9 0
132 19 0 1064 0 10 0
134 25 0 1064 1 10 0
136 24 0 1061 2 7 0
138 17 0 1068 4 7 0
140 11 0 1072 0 7 0
142 10 0 1066 2 10 0
144 11 0 1070 1 11 0
146 10 0 1067 0 7 0
148 10 0 1065 3 11 0
150 11 0 1067 1 9 0
152 11 0 1065 1 15 0
154 9 0 1076 1 7 0
156 11 0 1073 1 10 0
158 12 0 1072 0 13 0
160 12 0 1075 0 12 0
162 11 0 1066 2 12 0
164 9 0 1067 2 11 0
166 7 0 1076 3 13 0
168 13 0 1072 3 14 0
170 11 0 1078 1 11 0
172 11 0 1078 1 12 0
174 6 0 1076 1 6 0
176 7 0 1071 0 14 0
178 8 0 1062 0 16 0
180 7 0 1069 1 12 0
182 1 0 1072 3 14 0
184 4 0 1067 1 11 0
186 7 0 1072 2 9 0
188 5 0 1064 0 12 0
190 4 0 1067 0 10 0
192 5 0 1061 2 13 0
194 5 0 1071 0 12 0
196 7 0 1070 0 13 0
198 8 0 1072 1 14 0
200 4 0 1073 1 17 0
