0 32 0 0 0 58
2 28 0 4 0 53
4.00004 23 0 8 0 46
6 22 0 9 0 57
8 21 0 10 0 50
10 18 0 16 0 60
12 25 0 8 0 52
14 20 0 13 0 49
16 26 0 7 0 49
18 24 0 10 0 56
20 21 1 11 0 57
22 26 1 6 0 53
24 25 1 8 0 58
26 19 3 13 1 52
28 25 3 7 1 49
30 20 4 11 0 52
32 22 3 8 2 57
34 21 4 10 2 53
36 23 6 7 3 61
38 20 9 7 0 59
40 22 6 5 3 63
42 19 5 8 4 48
44 19 7 8 2 53
46 20 8 6 2 60
48 15 6 10 4 51
50 18 7 8 3 59
52 23 9 3 3 51
54 16 9 7 3 53
56 16 8 7 5 50
58 16 11 7 3 71
60 16 10 7 5 52
62 18 11 5 4 45
64 19 11 4 4 56
66 15 13 7 1 68
68 13 11 10 3 52
70 16 13 8 4 46
72 11 13 10 5 41
74 17 10 4 8 53
76 16 11 3 8 60
78 14 13 4 7 42
80 10 15 7 4 47
82 11 16 6 4 55
84 12 14 5 8 50
86 10 17 7 5 54
88 9 17 8 6 51
90 13 17 4 6 46
92 14 19 4 4 60
94 14 12 3 12 44
96 15 18 2 7 43
98 11 20 6 4 50
100 11 20 6 6 50
102 14 14 3 11 53
104 13 20 4 6 57
106 12 17 5 11 62
108 13 20 3 8 50
110 14 22 2 6 47
112 15 18 1 9 55
114 12 18 4 8 55
116 14 18 2 7 41
118 10 17 6 8 52
120 11 21 5 4 50
122 15 20 0 6 54
124 11 16 4 10 52
126 12 18 3 7 48
128 11 17 3 10 49
130 10 16 3 12 61
132 9 23 4 4 68
134 11 22 2 8 55
136 10 22 3 6 54
138 9 19 2 10 56
140 10 21 2 6 48
142 10 22 2 5 52
144 9 24 3 3 62
146 8 26 4 3 51
148 9 25 2 4 45
150 7 23 4 6 52
152 7 22 4 8 55
154 9 25 2 5 54
156 8 25 3 6 49
158 10 25 1 7 51
160 10 24 1 7 48
162 5 23 6 8 43
164 7 24 4 7 49
166 9 17 2 14 49
168 6 23 5 8 56
170 9 15 2 18 50
172 9 27 2 6 50
174 8 24 3 8 49
176 10 24 1 8 51
178 5 24 6 9 60
180 10 25 1 8 59
182 10 22 1 11 56
184 6 20 5 14 51
186 7 22 4 13 57
188 6 27 5 7 52
190 5 24 6 10 57
192 8 20 3 15 53
194 5 24 6 11 52
196 7 28 4 8 55
198 8 27 3 9 58
200 8 25 3 10 49
202 7 27 4 8 53
204 10 30 1 8 47
206 6 27 5 9 48
208 8 33 3 3 62
210 9 25 1 13 57
