0 98 0 0 0 65
2 88 0 8 0 52
4.00004 86 0 10 0 49
6 81 0 16 0 52
8 86 0 11 0 55
10 79 0 18 0 68
12 75 11 11 1 44
14 74 13 7 2 59
16 65 24 6 2 48
18 58 29 7 4 56
20 54 33 5 5 47
22 52 39 6 2 52
24 48 44 5 2 53
26 46 40 7 6 49
28 48 42 3 7 53
30 40 50 6 3 53
32 35 56 6 2 52
34 36 54 3 6 48
36 31 54 7 9 47
38 31 61 4 4 55
40 27 60 4 9 57
42 24 61 4 10 55
44 19 69 9 4 57
46 25 69 3 5 49
48 25 67 1 9 58
50 20 72 4 6 63
52 20 68 3 12 52
54 18 70 4 10 49
56 15 77 2 7 45
58 13 81 2 6 50
60 13 80 2 8 50
62 13 78 1 11 60
64 11 83 2 8 47
66 13 88 0 4 52
68 13 85 1 7 41
70 9 82 4 12 53
72 11 80 2 14 41
74 10 88 3 8 57
76 11 86 1 11 56
78 12 87 0 11 49
80 12 83 0 14 49
82 12 83 2 14 53
84 13 85 1 12 63
86 11 90 1 10 56
88 10 91 3 9 52
90 10 92 3 8 56
92 10 90 3 10 49
94 12 91 1 9 51
96 10 89 2 13 53
98 10 96 1 7 55
100 11 93 1 10 46
102 10 90 2 13 62
104 9 87 2 16 60
106 9 93 0 12 52
108 7 95 0 11 56
110 7 93 0 13 46
112 7 94 0 12 57
114 7 98 0 8 51
116 8 94 0 11 46
118 6 92 2 13 50
120 8 90 0 15 58
122 8 94 0 10 50
124 9 95 0 9 59
126 9 95 1 8 56
128 12 88 0 14 51
130 13 92 0 10 51
132 9 95 4 8 47
134 9 93 3 11 47
136 9 97 2 8 61
138 9 101 1 5 49
140 9 96 1 8 44
142 8 95 1 10 57
144 9 95 0 10 65
146 8 99 1 7 51
148 5 102 2 6 65
150 6 99 1 9 47
152 6 100 1 7 55
154 6 100 1 7 52
156 7 99 0 8 61
158 5 97 2 11 36
160 5 101 1 8 57
162 4 104 0 7 44
164 4 103 0 8 56
166 3 98 1 13 55
168 3 100 1 11 56
170 4 103 0 6 55
172 4 100 0 7 48
174 2 96 2 10 55
176 2 96 2 10 60
178 4 93 0 13 49
180 3 99 1 7 58
182 1 94 2 12 51
184 2 101 1 6 43
186 2 98 1 9 59
188 2 98 1 9 54
190 2 100 1 7 49
192 3 98 0 9 60
194 3 101 0 6 52
196 1 101 1 7 41
198 3 101 0 7 50
200 2 98 1 10 57
202 3 102 0 6 51
204 3 101 1 9 51
206 3 100 1 9 58
208 4 94 0 15 42
210 5 96 0 13 57
