0 106 0 0 0 47
2 96 0 10 0 55
4.00004 91 0 12 0 52
6 87 0 15 0 54
8 95 0 6 0 60
10 95 0 6 0 55
12 83 11 6 0 47
14 79 16 4 1 61
16 68 23 8 3 58
18 63 29 2 3 56
20 58 36 4 1 50
22 51 38 8 3 58
24 51 41 5 3 56
26 50 41 4 6 47
28 45 48 3 4 59
30 42 51 3 4 58
32 37 57 4 3 64
34 35 61 1 4 60
36 30 66 1 3 47
38 29 65 1 5 52
40 28 70 2 3 54
42 28 72 2 3 58
44 26 73 3 3 50
46 23 72 3 7 54
48 24 71 2 8 61
50 19 78 3 3 60
52 16 78 2 5 53
54 16 79 1 6 59
56 11 81 2 7 50
58 8 84 4 5 45
60 9 86 2 3 53
62 10 86 2 3 56
64 12 78 1 10 49
66 14 79 0 6 54
68 14 80 0 5 48
70 11 77 2 8 56
72 11 82 1 4 55
74 10 77 2 8 57
76 10 79 2 6 60
78 12 78 0 6 52
80 11 80 1 5 55
82 10 79 1 7 56
84 9 81 2 5 40
86 10 84 0 3 49
88 10 83 0 5 45
90 8 85 1 3 48
92 9 85 0 2 56
94 9 86 0 1 53
96 4 85 1 5 51
98 5 85 0 5 51
100 3 86 1 5 51
102 3 86 1 5 50
104 4 85 0 6 57
106 3 90 0 3 49
108 2 89 1 5 45
110 3 88 0 6 56
112 3 84 1 9 62
114 4 80 1 10 60
116 3 86 0 7 53
118 3 85 0 8 46
120 3 85 0 9 63
122 3 88 2 5 49
124 4 84 1 8 50
126 4 85 0 7 52
128 4 80 0 9 51
130 4 79 0 10 59
132 4 80 0 7 60
134 4 76 0 12 51
136 4 79 0 7 59
138 3 75 1 13 49
140 6 82 1 4 55
142 5 79 1 6 60
144 5 78 1 7 48
146 4 77 2 8 57
148 7 78 2 7 46
150 8 79 2 5 63
152 6 81 1 6 57
154 8 82 1 4 58
156 8 79 1 6 60
158 8 78 1 7 56
160 8 78 0 8 46
162 8 77 0 8 35
164 8 79 0 5 50
166 8 80 1 4 59
168 8 81 2 4 49
170 7 87 1 1 56
172 7 84 1 3 53
174 8 81 1 5 51
176 10 81 0 6 55
178 7 79 1 7 66
180 7 83 0 4 53
182 6 80 1 8 57
184 4 85 0 6 56
186 4 87 0 3 59
188 4 83 1 7 51
190 4 83 1 5 56
192 5 82 0 7 45
194 4 83 1 4 53
196 4 87 0 1 55
198 3 85 0 3 49
200 3 82 1 6 48
202 3 79 1 8 55
204 3 82 0 5 53
206 3 79 0 7 62
208 3 82 0 4 48
210 3 81 0 5 45
