0 34 0 0 0 56
2 27 0 8 0 42
4.00004 31 0 4 0 58
6 22 0 12 0 47
8 20 0 13 0 56
10 32 0 1 0 55
12 24 0 9 0 53
14 22 0 11 0 53
16 24 0 9 0 60
18 24 0 9 1 51
20 25 0 8 1 56
22 18 0 15 1 61
24 22 1 12 0 59
26 26 1 10 0 53
28 27 0 10 1 51
30 24 2 13 1 54
32 28 2 9 1 51
34 30 3 6 0 55
36 25 1 11 2 47
38 27 2 10 2 51
40 27 2 9 2 56
42 29 4 7 0 55
44 29 3 7 1 51
46 25 4 10 0 57
48 30 4 4 1 43
50 24 1 9 5 47
52 24 3 9 3 56
54 23 6 8 0 49
56 26 5 5 1 53
58 23 4 8 2 52
60 21 5 10 1 49
62 21 4 9 1 55
64 24 3 7 2 54
66 22 4 9 1 49
68 25 4 5 2 58
70 21 5 8 2 50
72 24 5 6 1 50
74 18 4 10 5 55
76 23 7 6 1 60
78 20 4 9 4 56
80 22 6 6 3 53
82 19 6 7 2 47
84 18 6 8 4 54
86 20 6 6 4 56
88 18 8 8 4 45
90 16 11 10 2 59
92 19 10 7 3 56
94 21 10 5 3 51
96 19 11 7 3 56
98 22 9 4 5 54
100 19 12 7 2 56
102 16 12 9 2 50
104 14 11 10 4 55
106 20 10 4 4 48
108 18 11 6 4 51
110 15 10 8 5 47
112 18 12 5 3 68
114 12 10 10 5 46
116 15 8 7 8 58
118 14 12 6 7 57
120 13 14 4 4 42
122 9 12 7 8 47
124 7 15 7 4 56
126 9 13 5 7 57
128 11 15 3 5 54
130 10 10 3 10 60
132 10 14 3 7 49
134 10 16 3 5 56
136 10 15 3 6 58
138 10 15 3 6 49
140 8 16 5 5 44
142 9 13 4 8 55
144 10 16 3 5 55
146 9 14 4 7 60
148 10 14 3 8 52
150 8 18 5 3 50
152 8 13 4 8 49
154 9 14 3 7 52
156 10 16 2 6 52
158 11 18 1 3 50
160 10 16 2 4 52
162 6 10 6 10 54
164 8 14 4 6 61
166 7 18 5 2 55
168 11 19 1 4 54
170 8 15 4 8 47
172 10 18 2 5 57
174 10 18 2 5 52
176 8 16 3 7 45
178 8 19 3 3 50
180 7 15 4 7 59
182 7 15 4 7 56
184 6 15 5 8 54
186 9 16 2 6 53
188 7 16 4 5 54
190 7 17 4 5 67
192 10 18 1 4 45
194 6 15 5 7 57
196 7 18 4 4 51
198 9 17 2 5 45
200 9 16 2 7 61
202 7 11 4 12 53
204 8 15 3 9 49
206 9 16 2 8 54
208 9 20 2 4 53
210 7 17 4 8 60
