0 116 0 0 0
2 115 0 1 0
4.00004 117 0 0 0
6 115 0 2 0
8 113 0 2 0
10 115 0 1 0
12 107 8 1 0
14 96 18 0 0
16 88 26 0 0
18 84 32 0 0
20 73 41 0 1
22 65 50 0 0
24 62 56 0 0
26 58 62 1 0
28 56 64 0 1
30 49 72 0 0
32 44 77 0 0
34 40 81 0 0
36 36 85 0 0
38 31 91 0 0
40 30 92 0 0
42 23 98 1 0
44 25 97 0 1
46 21 101 0 1
48 18 103 0 1
50 17 104 0 2
52 15 106 0 1
54 15 105 0 1
56 17 105 0 1
58 14 107 1 0
60 14 106 0 1
62 14 108 0 0
64 13 107 0 2
66 13 108 0 0
68 12 107 0 1
70 11 109 1 0
72 12 104 0 2
74 9 108 0 0
76 8 108 0 0
78 7 108 1 0
80 7 107 0 1
82 9 106 0 0
84 8 107 0 1
86 7 109 0 1
88 6 111 0 0
90 7 111 0 1
92 6 112 0 1
94 6 112 1 0
96 4 114 1 0
98 5 114 0 0
100 5 111 1 1
102 7 112 0 0
104 7 113 0 0
106 7 112 0 0
108 7 112 0 0
110 4 111 0 3
112 2 117 0 0
114 2 117 0 0
116 2 116 0 3
118 2 118 0 0
120 3 115 0 1
122 2 113 0 0
124 2 113 0 0
126 3 113 0 1
128 2 114 0 1
130 2 114 0 1
132 1 114 0 0
134 1 111 0 2
136 1 114 0 0
138 1 114 0 0
140 1 114 0 0
142 0 114 0 0
144 0 111 0 3
146 0 112 0 0
148 0 111 0 0
150 0 110 1 1
152 0 110 1 0
154 1 109 0 1
156 1 109 0 0
158 0 109 0 0
160 0 110 0 1
162 0 110 0 0
164 1 110 0 0
166 1 111 0 0
168 1 110 0 2
170 1 111 0 1
172 1 113 0 0
174 1 111 0 2
176 1 113 0 1
178 1 111 0 1
180 1 111 0 1
182 1 110 0 0
184 1 109 0 0
186 1 110 0 0
188 1 110 0 2
190 1 111 0 0
192 1 111 0 1
194 1 108 0 4
196 1 112 0 0
198 2 111 0 0
200 1 111 1 0
202 1 113 0 0
204 1 111 0 0
206 1 114 0 0
208 1 114 0 1
210 1 112 0 1
