0 90 0 0 0
2 91 0 1 0
4.00004 93 0 0 0
6 93 0 0 0
8 94 0 0 0
10 94 0 1 0
12 74 19 0 0
14 65 28 0 0
16 55 39 0 0
18 57 41 0 0
20 47 50 1 0
22 44 55 0 0
24 39 56 0 1
26 35 60 0 0
28 33 62 0 0
30 28 63 0 0
32 26 62 0 1
34 26 63 0 1
36 25 63 0 0
38 23 64 1 0
40 23 67 0 0
42 22 68 0 0
44 19 70 0 0
46 17 72 0 0
48 18 68 0 1
50 17 70 0 0
52 17 69 0 1
54 17 71 0 0
56 17 71 0 0
58 16 72 0 0
60 17 70 0 0
62 16 68 0 2
64 14 72 0 0
66 13 74 0 0
68 13 71 0 0
70 13 71 0 0
72 8 75 0 0
74 9 75 0 1
76 7 78 0 0
78 9 77 0 1
80 6 79 0 0
82 6 77 0 1
84 5 77 0 0
86 3 78 0 1
88 3 77 0 1
90 4 77 0 1
92 4 75 0 1
94 4 75 0 0
96 4 75 1 0
98 3 76 0 0
100 3 75 0 1
102 3 75 0 1
104 6 75 0 0
106 6 75 0 1
108 6 76 0 0
110 6 76 0 1
112 6 77 0 0
114 6 77 0 0
116 5 76 0 1
118 6 77 0 0
120 6 77 0 0
122 7 76 0 1
124 7 78 0 0
126 5 79 1 0
128 7 78 0 0
130 6 79 0 0
132 5 81 0 0
134 5 85 1 0
136 7 86 0 0
138 6 86 0 0
140 5 86 0 0
142 5 85 0 2
144 5 87 0 0
146 4 86 0 2
148 5 86 0 1
150 6 85 0 1
152 4 85 1 0
154 4 85 1 1
156 6 86 0 0
158 6 87 0 1
160 6 87 0 0
162 5 89 0 0
164 5 91 0 0
166 5 91 0 0
168 4 92 0 0
170 3 90 0 0
172 3 90 0 0
174 2 91 0 0
176 2 90 0 0
178 3 89 1 1
180 5 90 0 0
182 5 90 0 0
184 6 90 0 1
186 7 90 0 1
188 6 89 1 1
190 7 90 1 0
192 8 91 0 1
194 6 94 0 0
196 5 94 0 0
198 5 95 0 1
200 5 96 0 0
202 5 96 0 0
204 4 97 0 0
206 4 97 0 1
208 4 97 0 0
210 3 100 0 1
