0 83 0 0 0
2 83 0 0 0
4.00004 82 0 0 0
6 82 0 0 0
8 81 0 1 0
10 82 0 0 0
12 83 0 0 0
14 83 0 0 0
16 83 0 0 0
18 83 0 0 0
20 83 0 0 0
22 83 0 0 0
24 82 0 1 0
26 83 0 0 0
28 83 0 0 0
30 83 0 0 0
32 82 0 1 0
34 83 0 0 0
36 83 0 0 0
38 82 0 1 0
40 83 0 0 0
42 83 0 0 0
44 83 0 0 0
46 83 0 0 0
48 82 0 1 0
50 83 0 0 0
52 69 14 0 0
54 57 26 1 0
56 50 34 0 0
58 41 42 0 0
60 37 45 1 0
62 34 49 0 0
64 28 55 0 0
66 23 60 0 0
68 21 61 1 0
70 19 64 0 0
72 18 66 0 0
74 15 69 0 0
76 14 70 0 0
78 10 73 1 0
80 10 74 0 0
82 9 74 0 1
84 7 75 1 0
86 7 76 0 0
88 7 76 0 0
90 6 77 0 0
92 7 77 0 0
94 6 78 0 0
96 5 79 0 0
98 4 80 0 0
100 4 79 0 0
102 5 78 0 0
104 4 79 0 0
106 4 79 0 0
108 4 79 0 0
110 4 78 0 1
112 4 79 0 0
114 2 80 1 0
116 3 81 0 0
118 2 82 0 0
120 2 82 0 0
122 2 82 0 0
124 2 82 0 0
126 1 81 1 0
128 2 81 0 0
130 2 82 0 0
132 2 82 0 0
134 2 81 0 2
136 1 82 1 1
138 2 83 0 0
140 2 82 0 1
142 2 83 0 0
144 1 83 1 0
146 2 82 0 0
148 2 82 0 0
150 2 82 0 0
152 2 81 0 0
154 2 81 0 0
156 2 81 0 0
158 2 81 0 0
160 2 80 0 1
162 2 81 0 0
164 2 81 0 0
166 2 80 0 1
168 2 81 0 0
170 2 81 0 0
172 2 80 0 0
174 2 79 0 1
176 2 80 0 0
178 1 79 0 1
180 1 81 0 0
182 1 81 0 0
184 1 81 0 0
186 1 81 0 0
188 1 80 0 0
190 1 80 0 0
192 1 80 0 0
194 1 79 0 1
196 1 80 0 0
198 1 81 1 0
200 2 81 0 0
202 2 81 0 0
204 2 81 0 0
206 2 81 0 0
208 1 80 1 1
210 2 81 0 0
212 1 81 1 0
214 2 81 0 0
216 1 81 0 0
218 1 81 0 0
220 1 80 0 1
222 2 81 0 0
224 2 81 0 0
226 2 81 0 0
228 2 80 0 0
230 2 80 0 0
232 2 80 0 0
234 2 79 0 1
236 2 80 0 0
238 2 79 0 1
240 1 81 0 0
242 1 80 0 1
244 1 81 0 0
246 1 82 0 0
248 0 82 0 0
250 0 81 0 1
252 0 81 0 0
254 0 79 0 2
256 0 79 0 1
258 0 80 0 0
260 0 79 0 2
262 0 81 0 0
264 0 81 0 0
266 1 81 0 0
268 1 81 0 0
270 0 80 0 1
272 0 81 0 0
274 0 82 0 0
276 0 82 0 0
278 0 81 0 1
280 0 82 0 0
282 0 82 0 0
284 0 81 0 1
286 0 82 0 0
288 0 82 0 0
290 0 82 0 0
292 0 82 0 0
294 0 80 0 2
296 0 82 0 0
298 0 82 0 0
300 1 82 0 0
302 1 81 0 0
304 1 81 0 0
306 1 81 0 0
308 1 81 0 0
310 1 81 0 0
312 1 80 0 0
314 1 80 0 0
316 1 80 0 0
318 1 80 0 0
320 1 80 0 0
322 1 80 0 0
324 1 80 0 0
326 1 80 0 0
328 1 81 0 0
330 1 80 0 1
332 1 81 0 0
334 1 81 0 0
336 1 80 0 1
338 1 81 0 0
340 1 81 0 0
342 1 80 0 1
344 1 81 0 0
346 1 81 0 0
348 1 81 0 0
350 1 81 0 0
