0 71 0 0 0
2 71 0 0 0
4.00004 69 0 0 0
6 69 0 1 0
8 70 0 0 0
10 71 0 0 0
12 70 0 0 0
14 70 0 0 0
16 70 0 0 0
18 70 0 0 0
20 71 0 0 0
22 70 0 1 0
24 70 0 1 0
26 72 0 0 0
28 72 0 0 0
30 71 0 1 0
32 72 0 0 0
34 72 0 0 0
36 72 0 0 0
38 71 0 1 0
40 71 0 1 0
42 72 0 0 0
44 72 0 0 0
46 71 0 1 0
48 70 0 2 0
50 71 0 1 0
52 72 0 0 0
54 71 0 1 0
56 72 0 0 0
58 71 0 0 0
60 71 0 0 0
62 71 0 0 0
64 71 0 0 0
66 71 0 0 0
68 71 0 0 0
70 71 0 0 0
72 71 0 0 0
74 70 0 0 0
76 70 0 0 0
78 71 0 0 0
80 71 0 0 0
82 70 0 0 0
84 70 0 0 0
86 70 0 0 0
88 70 0 0 0
90 70 0 0 0
92 70 0 0 0
94 70 0 0 0
96 70 0 0 0
98 70 0 0 0
100 70 0 0 0
102 68 0 1 0
104 68 0 0 0
106 68 0 0 0
108 68 0 0 0
110 69 0 0 0
112 69 0 1 0
114 70 0 1 0
116 71 0 0 0
118 71 0 0 0
120 71 0 0 0
122 71 0 0 0
124 71 0 0 0
126 72 0 0 0
128 72 0 0 0
130 72 0 0 0
132 70 0 1 0
134 71 0 0 0
136 72 0 0 0
138 71 0 0 0
140 71 0 0 0
142 71 0 0 0
144 71 0 0 0
146 71 0 0 0
148 71 0 0 0
150 70 0 1 0
152 72 0 0 0
154 72 0 0 0
156 72 0 0 0
158 72 0 0 0
160 71 0 0 0
162 72 0 0 0
164 72 0 0 0
166 71 0 1 0
168 72 0 0 0
170 72 0 1 0
172 73 0 0 0
174 73 0 0 0
176 72 0 1 0
178 73 0 0 0
180 72 1 1 0
182 73 1 0 0
184 73 1 0 0
186 72 1 1 0
188 71 2 1 0
190 71 2 1 0
192 72 2 0 0
194 72 2 0 0
196 72 2 0 0
198 72 2 0 0
200 72 2 0 0
202 72 2 0 0
204 72 2 0 0
206 72 2 0 0
208 72 2 0 0
210 72 2 0 0
212 71 2 0 0
214 71 2 0 0
216 71 2 0 0
218 71 2 0 0
220 71 2 0 0
222 71 2 0 0
224 71 1 0 1
226 71 2 0 0
228 70 2 1 0
230 70 2 0 0
232 70 2 0 0
234 70 2 0 0
236 70 2 0 0
238 70 2 0 0
240 70 2 0 0
242 70 2 0 0
244 70 2 0 0
246 71 2 0 0
248 71 2 0 0
250 71 2 0 0
252 71 2 0 0
254 71 2 0 0
256 71 2 0 0
258 71 2 0 0
260 71 2 0 0
262 70 2 1 0
264 71 2 0 0
266 70 1 1 1
268 71 2 0 0
270 71 2 0 0
272 71 2 0 0
274 71 2 0 0
276 71 2 0 0
278 71 2 0 0
280 71 2 0 0
282 71 2 0 0
284 71 2 0 0
286 71 2 0 0
288 72 2 0 0
290 71 2 1 0
292 72 2 0 0
294 71 2 1 0
296 72 2 0 0
298 72 2 0 0
300 72 2 0 0
302 72 2 0 0
304 72 2 0 0
306 72 2 0 0
308 71 1 0 1
310 71 2 0 0
312 71 2 0 0
314 72 3 0 0
316 72 2 0 0
318 71 3 1 0
320 71 3 1 0
322 72 2 0 0
324 72 2 0 0
326 72 2 0 0
328 72 2 0 0
330 72 2 0 0
332 72 2 0 0
334 72 2 0 0
336 72 2 0 0
338 71 3 1 0
340 72 3 0 0
342 72 2 0 0
344 72 2 0 0
346 72 2 0 0
348 72 1 0 1
350 72 2 0 0
