0 75 0 0 0
2 73 0 2 0
4.00004 73 0 1 0
6 73 0 0 0
8 73 0 0 0
10 73 0 0 0
12 73 0 0 0
14 72 0 1 0
16 72 0 0 0
18 72 0 0 0
20 72 0 0 0
22 72 0 0 0
24 72 0 0 0
26 71 0 1 0
28 71 0 1 0
30 72 0 0 0
32 71 0 1 0
34 72 0 0 0
36 71 0 0 0
38 70 0 1 0
40 71 0 0 0
42 72 0 1 0
44 73 0 0 0
46 73 0 0 0
48 73 0 0 0
50 74 0 0 0
52 73 0 0 0
54 71 0 2 0
56 72 0 1 0
58 72 0 0 0
60 71 0 1 0
62 71 0 0 0
64 71 0 0 0
66 72 0 1 0
68 73 0 0 0
70 73 0 0 0
72 73 0 0 0
74 73 0 0 0
76 72 0 1 0
78 73 0 0 0
80 72 0 1 0
82 71 0 2 0
84 73 0 0 0
86 73 0 0 0
88 73 0 0 0
90 73 0 0 0
92 73 0 0 0
94 72 0 1 0
96 73 0 0 0
98 72 0 1 0
100 73 0 0 0
102 73 1 0 0
104 73 1 0 0
106 72 1 1 0
108 73 1 0 0
110 73 2 0 0
112 73 2 0 0
114 73 2 0 0
116 74 2 0 0
118 74 2 0 0
120 74 1 0 1
122 74 2 0 0
124 73 2 1 0
126 74 1 0 1
128 74 2 0 0
130 73 2 1 0
132 74 1 0 1
134 74 2 0 0
136 74 1 0 0
138 73 1 0 0
140 73 1 0 0
142 73 1 0 0
144 73 1 0 0
146 72 2 1 0
148 72 2 1 0
150 73 2 0 0
152 73 2 0 0
154 73 2 0 0
156 73 2 0 0
158 73 1 0 0
160 73 1 1 0
162 74 1 0 0
164 74 1 0 0
166 74 1 0 0
168 74 1 0 0
170 74 1 0 0
172 75 1 0 0
174 75 1 0 0
176 75 1 0 0
178 75 1 0 0
180 75 1 0 0
182 75 1 0 0
184 75 1 0 0
186 75 1 0 0
188 75 1 0 0
190 75 1 0 0
192 75 1 0 0
194 74 1 1 0
196 74 1 1 0
198 75 2 0 0
200 74 1 0 0
202 74 1 0 0
204 74 1 0 0
206 73 1 1 0
208 74 1 1 0
210 75 1 0 0
212 74 1 1 0
214 75 1 0 0
216 75 1 0 0
218 75 1 0 0
220 75 1 0 0
222 75 1 0 0
224 75 1 0 0
226 75 1 0 0
228 75 2 0 0
230 75 2 0 0
232 75 2 0 0
234 75 2 0 0
236 73 2 2 0
238 75 2 0 0
240 75 2 0 0
242 75 2 0 0
244 74 2 1 0
246 75 2 0 0
248 75 2 0 0
250 75 2 0 0
252 74 2 0 0
254 74 2 0 0
256 74 2 0 0
258 74 2 0 0
260 74 2 0 0
262 73 1 1 1
264 74 1 0 1
266 74 2 0 0
268 73 2 1 0
270 74 2 0 0
272 74 2 0 0
274 74 2 0 0
276 73 2 1 0
278 74 2 0 0
280 74 2 0 0
282 74 2 0 0
284 74 1 0 0
286 74 1 0 0
288 74 1 0 0
290 74 1 0 0
292 74 1 0 0
294 74 1 0 0
296 73 1 0 0
298 72 1 2 0
300 73 1 1 0
302 74 1 0 0
304 74 2 0 0
306 74 2 0 0
308 73 2 1 0
310 74 2 0 0
312 74 2 0 0
314 74 1 0 0
316 73 1 1 0
318 74 1 0 0
320 74 1 0 0
322 74 1 0 0
324 74 1 0 0
326 74 1 0 0
328 74 1 0 0
330 74 1 0 0
332 74 1 0 0
334 74 1 0 0
336 74 1 0 0
338 74 2 0 0
340 74 2 0 0
342 74 2 0 0
344 74 2 0 0
346 74 3 0 0
348 74 3 0 0
350 73 3 1 0
