0 83 0 0 0
2 83 0 0 0
4.00004 83 0 0 0
6 83 0 0 0
8 83 0 0 0
10 82 0 0 0
12 83 0 0 0
14 83 0 1 0
16 83 0 0 0
18 82 0 1 0
20 83 0 0 0
22 83 0 0 0
24 83 0 0 0
26 83 0 0 0
28 83 0 0 0
30 83 0 0 0
32 82 0 1 0
34 83 0 0 0
36 83 0 0 0
38 82 0 1 0
40 82 0 0 0
42 82 0 0 0
44 81 0 1 0
46 81 0 1 0
48 82 0 0 0
50 82 0 0 0
52 65 17 0 0
54 57 25 0 0
56 47 34 1 0
58 40 42 0 0
60 36 45 0 1
62 31 51 0 0
64 29 53 0 0
66 24 58 0 0
68 18 63 0 0
70 17 64 0 0
72 16 66 0 0
74 16 65 0 1
76 14 68 1 0
78 13 70 0 0
80 12 70 0 1
82 10 72 0 1
84 10 72 0 1
86 10 72 0 0
88 9 72 0 1
90 6 75 0 0
92 6 75 0 0
94 6 75 0 0
96 6 75 0 0
98 5 76 0 1
100 4 77 0 0
102 4 77 0 0
104 4 77 0 0
106 4 77 0 0
108 4 77 0 0
110 3 78 0 0
112 3 77 0 0
114 2 78 0 0
116 2 78 0 0
118 1 79 0 0
120 1 80 0 0
122 2 80 0 0
124 2 79 0 0
126 1 79 1 0
128 2 78 0 1
130 1 78 0 1
132 1 80 0 0
134 2 80 0 0
136 2 79 0 1
138 3 79 0 0
140 3 80 0 0
142 3 80 0 0
144 3 80 0 0
146 3 80 0 0
148 3 80 0 0
150 3 80 0 0
152 3 80 0 0
154 1 81 1 0
156 2 80 0 1
158 1 79 0 0
160 1 80 0 0
162 1 80 0 0
164 1 80 0 0
166 1 80 0 0
168 0 79 1 1
170 1 80 0 0
172 1 80 0 0
174 1 78 0 1
176 0 80 0 0
178 0 80 0 0
180 0 80 0 0
182 0 80 0 0
184 0 80 0 0
186 0 79 0 0
188 0 79 0 0
190 1 79 0 0
192 1 79 0 0
194 1 79 0 0
196 1 79 0 0
198 1 80 0 0
200 1 78 0 0
202 2 78 0 0
204 1 78 0 0
206 1 78 0 0
208 1 78 0 0
210 1 78 0 0
212 1 78 0 0
214 1 77 0 0
216 1 77 0 0
218 2 77 0 0
220 2 77 0 0
222 2 77 0 0
224 2 77 0 0
226 2 77 0 0
228 2 76 0 1
230 1 78 0 0
232 1 78 0 0
234 1 79 0 0
236 1 77 0 2
238 1 78 0 1
240 1 78 0 1
242 1 79 0 0
244 1 78 0 1
246 1 79 0 0
248 1 79 0 0
250 1 79 0 0
252 1 77 0 1
254 0 77 1 1
256 1 79 0 0
258 1 79 0 0
260 1 79 0 0
262 1 79 0 0
264 1 79 0 0
266 1 78 0 0
268 1 78 0 0
270 1 78 0 0
272 1 78 0 0
274 2 78 0 0
276 2 78 0 0
278 2 78 0 0
280 2 79 0 0
282 1 78 1 1
284 2 79 0 0
286 2 79 0 0
288 2 79 0 0
290 2 79 0 0
292 1 79 0 0
294 1 79 0 0
296 1 79 0 0
298 1 79 0 0
300 1 79 0 0
302 1 79 0 0
304 1 77 0 1
306 1 78 0 0
308 0 79 0 0
310 1 79 0 0
312 1 79 0 0
314 1 79 0 0
316 0 79 0 0
318 1 79 0 0
320 1 78 0 1
322 1 79 0 0
324 1 80 0 0
326 1 80 0 0
328 1 79 0 0
330 0 80 0 1
332 0 80 0 1
334 0 81 0 0
336 0 81 0 0
338 0 80 1 1
340 0 81 0 0
342 0 81 0 0
344 0 81 0 0
346 0 80 0 1
348 0 80 0 1
350 0 81 0 0
