0 79 0 0 0
2 78 0 1 0
4.00004 81 0 0 0
6 80 0 0 0
8 79 0 1 0
10 79 0 0 0
12 80 0 0 0
14 79 0 1 0
16 80 0 0 0
18 78 0 2 0
20 79 0 0 0
22 79 0 0 0
24 79 0 0 0
26 78 0 0 0
28 78 0 0 0
30 78 0 0 0
32 78 0 0 0
34 78 0 0 0
36 77 0 1 0
38 78 0 0 0
40 78 0 0 0
42 78 0 0 0
44 78 0 0 0
46 78 0 0 0
48 78 0 0 0
50 76 0 2 0
52 66 12 0 0
54 51 27 0 0
56 47 31 0 0
58 44 35 0 0
60 38 40 1 0
62 37 42 0 0
64 34 45 0 0
66 31 48 0 0
68 29 50 0 0
70 24 55 0 0
72 23 56 0 0
74 23 56 1 0
76 22 56 2 0
78 19 60 0 0
80 18 61 0 0
82 17 63 0 0
84 17 63 0 0
86 15 65 0 0
88 14 66 0 0
90 14 66 0 0
92 13 67 0 0
94 9 69 2 0
96 10 70 0 0
98 9 71 0 0
100 9 71 0 0
102 9 70 1 1
104 10 72 0 0
106 9 73 0 0
108 9 72 0 1
110 7 73 1 0
112 7 73 0 0
114 6 73 0 0
116 6 73 0 0
118 6 73 0 0
120 5 74 0 0
122 5 74 0 0
124 5 74 0 0
126 4 74 0 0
128 3 74 1 0
130 4 74 0 0
132 5 74 0 0
134 5 74 0 0
136 4 74 0 0
138 5 74 0 0
140 5 74 0 0
142 4 75 0 0
144 4 75 0 0
146 3 75 1 0
148 4 75 0 0
150 4 75 0 0
152 3 74 0 1
154 3 74 0 1
156 3 75 0 0
158 2 73 1 2
160 3 75 1 0
162 3 75 0 0
164 3 75 0 0
166 3 75 0 0
168 3 75 0 0
170 2 75 0 0
172 2 75 0 0
174 2 75 0 0
176 2 75 0 0
178 2 75 0 0
180 1 74 1 0
182 2 74 0 0
184 2 74 0 0
186 2 74 0 0
188 3 73 0 0
190 2 74 0 0
192 2 74 0 0
194 2 74 0 0
196 2 74 0 0
198 2 73 0 1
200 2 74 0 0
202 2 73 0 1
204 2 74 0 0
206 2 74 0 0
208 2 74 0 0
210 2 74 0 0
212 3 74 0 0
214 3 74 0 0
216 3 74 0 0
218 3 74 0 0
220 3 74 0 0
222 3 74 0 0
224 3 74 0 0
226 3 74 0 0
228 3 74 0 0
230 4 74 0 0
232 4 74 0 0
234 4 74 0 0
236 4 74 0 0
238 4 74 0 0
240 4 74 0 0
242 4 74 0 0
244 4 74 0 0
246 3 74 0 0
248 3 73 0 1
250 3 74 0 0
252 3 74 0 0
254 3 74 0 0
256 2 74 1 0
258 3 74 0 0
260 3 74 0 0
262 3 73 0 1
264 2 74 1 0
266 3 73 0 1
268 3 74 0 0
270 3 74 0 0
272 3 74 0 0
274 3 74 0 0
276 3 74 0 0
278 2 75 0 0
280 1 76 0 0
282 1 76 0 0
284 1 76 0 0
286 1 76 0 0
288 0 76 0 0
290 0 76 0 0
292 0 76 0 0
294 0 76 0 0
296 0 76 0 0
298 0 76 0 0
300 0 76 0 0
302 0 76 0 0
304 0 76 0 0
306 0 76 0 0
308 1 76 0 0
310 1 76 0 0
312 1 76 0 0
314 0 75 0 0
316 0 75 0 1
318 0 75 0 0
320 0 75 0 0
322 0 76 0 0
324 0 76 0 0
326 0 76 0 0
328 0 76 0 0
330 0 76 0 0
332 0 76 0 0
334 0 75 0 1
336 0 76 0 0
338 0 75 0 0
340 0 75 0 0
342 0 76 0 0
344 0 76 0 0
346 0 76 0 0
348 0 76 0 0
350 0 76 0 0
