0 88 0 0 0
2 88 0 0 0
4.00004 88 0 0 0
6 87 0 1 0
8 87 0 1 0
10 88 0 0 0
12 88 0 0 0
14 88 0 0 0
16 87 0 1 0
18 88 0 0 0
20 88 0 0 0
22 88 0 0 0
24 88 0 0 0
26 87 0 0 0
28 88 0 0 0
30 86 0 1 0
32 87 0 0 0
34 86 0 0 0
36 85 0 1 0
38 87 0 1 0
40 87 0 1 0
42 88 0 0 0
44 88 0 0 0
46 88 0 0 0
48 88 0 0 0
50 87 0 1 0
52 73 15 0 0
54 64 24 0 0
56 53 34 1 0
58 44 43 1 0
60 40 48 0 0
62 36 53 0 0
64 33 56 0 0
66 25 62 1 0
68 23 65 1 0
70 19 70 1 0
72 16 73 1 0
74 15 75 0 0
76 14 76 0 0
78 13 77 0 0
80 10 79 0 0
82 10 80 0 0
84 9 80 0 0
86 8 81 0 0
88 6 82 1 0
90 6 82 0 0
92 6 82 0 0
94 6 82 0 0
96 6 82 0 0
98 4 83 1 0
100 6 83 0 0
102 6 83 0 0
104 5 83 0 0
106 5 83 0 0
108 3 84 1 0
110 4 84 0 0
112 4 84 0 0
114 3 84 1 0
116 3 84 0 0
118 3 84 0 0
120 2 84 0 0
122 1 84 1 0
124 2 84 0 0
126 2 84 0 0
128 2 84 0 0
130 2 84 0 0
132 3 84 0 0
134 2 85 0 0
136 2 85 0 0
138 2 85 0 0
140 2 85 0 0
142 2 85 0 0
144 2 85 0 0
146 1 84 1 1
148 1 85 0 0
150 1 85 0 0
152 2 85 0 0
154 2 85 0 0
156 2 85 0 0
158 2 85 0 0
160 2 85 0 0
162 2 85 0 0
164 1 85 1 0
166 1 85 0 0
168 1 85 0 0
170 1 85 0 0
172 1 85 0 0
174 1 85 0 0
176 1 85 0 0
178 1 84 0 1
180 1 85 0 0
182 0 85 1 0
184 1 85 0 0
186 1 85 0 0
188 1 85 0 0
190 1 85 0 0
192 1 85 0 0
194 1 85 0 0
196 0 86 0 0
198 0 86 0 0
200 0 86 0 0
202 0 86 0 0
204 0 86 0 0
206 0 86 0 0
208 0 86 0 0
210 0 86 0 0
212 0 86 0 0
214 0 86 0 0
216 1 86 0 0
218 1 86 0 0
220 1 86 0 0
222 1 86 0 0
224 2 85 0 0
226 2 85 0 0
228 1 84 0 1
230 1 85 0 0
232 1 85 0 0
234 0 86 1 0
236 1 85 0 0
238 1 85 0 0
240 1 84 0 1
242 1 84 0 1
244 1 84 0 0
246 1 84 0 0
248 1 84 0 0
250 0 85 0 0
252 0 83 0 2
254 0 85 0 0
256 0 86 0 0
258 0 86 0 0
260 0 86 0 0
262 0 86 0 0
264 0 86 0 0
266 0 86 0 0
268 0 86 0 0
270 0 86 0 0
272 0 86 0 0
274 0 85 0 1
276 0 84 0 2
278 0 85 0 0
280 0 85 0 0
282 0 86 0 0
284 0 85 0 1
286 0 86 0 0
288 1 86 0 0
290 1 85 0 1
292 0 85 1 1
294 1 86 0 0
296 0 86 1 0
298 1 86 0 0
300 1 86 0 0
302 1 86 0 0
304 1 86 0 0
306 1 85 0 0
308 0 85 1 0
310 1 84 0 1
312 0 84 1 1
314 1 85 0 0
316 0 85 0 0
318 0 85 0 0
320 0 85 0 0
322 0 85 0 0
324 0 84 0 1
326 0 85 0 0
328 0 86 0 0
330 0 86 0 0
332 0 86 0 0
334 0 87 0 0
336 0 87 0 0
338 0 87 0 0
340 1 86 0 1
342 1 85 0 1
344 1 86 0 0
346 1 87 0 0
348 1 86 0 1
350 1 87 0 0
