0 80 0 0 0
2 80 0 0 0
4.00004 80 0 0 0
6 80 0 0 0
8 80 0 0 0
10 79 0 0 0
12 79 0 0 0
14 79 0 0 0
16 79 0 0 0
18 79 0 0 0
20 78 0 1 0
22 78 0 0 0
24 78 0 0 0
26 77 0 1 0
28 78 0 0 0
30 77 0 1 0
32 78 0 0 0
34 78 0 0 0
36 78 0 0 0
38 77 0 1 0
40 77 0 1 0
42 78 0 0 0
44 77 0 0 0
46 76 0 1 0
48 78 0 0 0
50 77 0 1 0
52 78 0 0 0
54 78 0 0 0
56 78 0 0 0
58 78 0 0 0
60 77 0 0 0
62 76 0 1 0
64 76 0 1 0
66 76 0 1 0
68 76 0 1 0
70 76 0 0 0
72 77 0 0 0
74 77 0 0 0
76 78 0 0 0
78 78 0 0 0
80 78 0 0 0
82 78 0 0 0
84 77 0 0 0
86 77 0 0 0
88 77 0 0 0
90 77 0 0 0
92 77 0 0 0
94 76 0 1 0
96 77 0 0 0
98 77 0 0 0
100 77 0 0 0
102 77 0 0 0
104 77 0 0 0
106 77 0 0 0
108 77 0 0 0
110 77 0 0 0
112 77 0 0 0
114 77 0 0 0
116 77 0 0 0
118 77 0 0 0
120 77 0 0 0
122 77 0 0 0
124 77 0 0 0
126 77 0 0 0
128 77 0 0 0
130 77 0 0 0
132 77 0 0 0
134 77 0 0 0
136 77 0 0 0
138 77 0 0 0
140 76 0 0 0
142 76 0 0 0
144 76 0 0 0
146 76 0 0 0
148 76 0 0 0
150 76 0 0 0
152 76 0 0 0
154 76 0 0 0
156 74 0 2 0
158 76 0 0 0
160 76 0 0 0
162 76 0 0 0
164 76 0 0 0
166 76 0 0 0
168 75 0 1 0
170 76 0 0 0
172 76 0 0 0
174 76 0 0 0
176 76 0 0 0
178 76 0 0 0
180 76 0 0 0
182 75 0 1 0
184 75 0 1 0
186 76 0 0 0
188 76 0 0 0
190 76 0 0 0
192 76 0 0 0
194 76 0 0 0
196 75 0 1 0
198 76 0 0 0
200 76 0 0 0
202 76 0 0 0
204 76 0 0 0
206 76 0 0 0
208 76 0 0 0
210 75 0 1 0
212 76 0 0 0
214 76 0 0 0
216 76 0 0 0
218 76 0 0 0
220 75 0 1 0
222 76 0 0 0
224 75 0 1 0
226 75 0 0 0
228 75 0 0 0
230 75 0 0 0
232 75 0 0 0
234 75 0 0 0
236 74 0 0 0
238 73 0 0 0
240 74 0 0 0
242 74 0 0 0
244 74 0 0 0
246 74 0 0 0
248 74 0 0 0
250 74 0 0 0
252 74 0 0 0
254 74 0 1 0
256 75 0 0 0
258 75 0 0 0
260 75 0 0 0
262 74 0 1 0
264 75 0 0 0
266 74 0 1 0
268 74 0 0 0
270 74 0 0 0
272 73 0 0 0
274 71 1 0 0
276 71 0 0 0
278 72 0 0 0
280 72 1 0 0
282 72 0 0 1
284 72 1 0 0
286 72 1 1 0
288 72 1 0 0
290 73 1 0 0
292 73 1 0 0
294 73 1 0 0
296 74 1 0 0
298 74 1 0 0
300 74 1 0 0
302 74 1 0 0
304 74 1 0 0
306 74 0 0 1
308 72 1 0 0
310 72 1 0 0
312 72 1 0 0
314 72 1 0 0
316 72 1 0 0
318 72 1 0 0
320 72 1 0 0
322 71 1 1 0
324 72 1 0 0
326 72 1 0 0
328 72 1 0 0
330 72 1 0 0
332 72 1 0 0
334 72 1 0 0
336 72 1 0 0
338 72 1 0 0
340 70 1 2 0
342 72 1 0 0
344 72 1 0 0
346 72 1 0 0
348 72 1 0 0
350 72 1 0 0
