0 64 0 0 0
2 64 0 0 0
4.00004 64 0 0 0
6 63 0 1 0
8 63 0 0 0
10 62 0 0 0
12 62 0 0 0
14 62 0 0 0
16 62 0 0 0
18 62 0 0 0
20 62 0 0 0
22 63 0 0 0
24 64 0 0 0
26 64 0 0 0
28 64 0 0 0
30 64 0 0 0
32 63 0 0 0
34 63 0 0 0
36 62 0 1 0
38 63 0 0 0
40 63 0 0 0
42 63 0 0 0
44 63 0 0 0
46 63 0 0 0
48 63 0 0 0
50 62 0 1 0
52 63 0 0 0
54 63 0 0 0
56 63 0 0 0
58 61 0 2 0
60 64 0 0 0
62 64 0 0 0
64 63 0 0 0
66 63 0 1 0
68 64 0 0 0
70 65 0 0 0
72 65 0 0 0
74 62 0 2 0
76 64 0 0 0
78 63 0 1 0
80 64 0 0 0
82 64 1 0 0
84 64 1 0 0
86 65 1 0 0
88 66 1 0 0
90 65 1 1 0
92 65 1 0 0
94 66 1 0 1
96 66 1 0 0
98 65 1 1 0
100 65 1 1 0
102 66 1 0 0
104 66 1 0 0
106 66 1 0 0
108 66 1 0 0
110 66 1 0 0
112 66 1 0 0
114 66 1 0 0
116 66 1 0 0
118 66 1 0 0
120 66 1 0 0
122 66 1 0 0
124 66 1 0 0
126 66 1 0 0
128 66 1 0 0
130 66 1 0 0
132 66 1 0 0
134 66 1 0 0
136 66 1 0 0
138 66 1 0 0
140 66 1 0 0
142 66 1 0 0
144 66 1 0 0
146 66 1 0 0
148 66 1 0 0
150 66 1 0 0
152 66 1 0 0
154 66 1 0 0
156 66 1 0 0
158 66 1 0 0
160 66 1 0 0
162 66 1 0 0
164 66 1 0 0
166 66 1 0 0
168 66 1 0 0
170 66 2 0 0
172 66 3 0 0
174 66 3 0 0
176 66 3 0 0
178 66 2 0 1
180 66 3 0 0
182 66 3 0 0
184 66 3 0 0
186 66 3 0 0
188 65 3 1 0
190 65 3 0 0
192 65 3 0 0
194 65 3 0 0
196 65 3 0 0
198 65 4 0 0
200 65 4 0 0
202 65 4 0 0
204 65 4 0 0
206 65 4 0 0
208 65 4 0 0
210 64 4 1 0
212 64 4 1 0
214 65 4 0 0
216 65 4 0 0
218 65 4 0 0
220 65 4 0 0
222 65 4 0 0
224 64 4 1 0
226 65 4 0 0
228 65 5 0 0
230 65 5 0 0
232 65 5 0 0
234 65 5 0 0
236 65 5 0 0
238 65 5 0 0
240 65 5 0 0
242 65 5 0 0
244 65 5 0 0
246 65 5 0 0
248 65 6 0 0
250 65 6 0 0
252 65 6 0 0
254 65 6 0 0
256 64 6 1 0
258 65 6 0 0
260 65 6 0 0
262 65 6 0 0
264 65 6 0 0
266 65 6 0 0
268 65 6 0 0
270 64 6 1 0
272 65 6 0 0
274 65 6 0 0
276 64 6 0 0
278 64 6 0 0
280 64 5 0 0
282 64 5 0 0
284 63 5 1 0
286 64 5 0 0
288 63 5 0 0
290 63 5 0 0
292 63 4 0 0
294 63 4 0 0
296 63 4 0 0
298 63 4 0 0
300 63 4 0 0
302 63 4 0 0
304 63 4 0 0
306 62 4 0 0
308 62 4 0 0
310 61 5 0 0
312 61 5 0 0
314 61 5 0 0
316 61 5 0 0
318 61 5 0 0
320 61 5 0 0
322 61 5 0 0
324 61 5 0 0
326 61 5 0 0
328 61 5 0 0
330 61 5 0 0
332 61 5 0 0
334 60 5 1 0
336 61 5 0 0
338 61 5 0 0
340 61 5 0 1
342 61 6 0 0
344 60 6 0 0
346 60 6 0 0
348 60 6 0 0
350 60 6 0 0
