0 79 0 0 0
2 76 0 1 0
4.00004 77 0 0 0
6 77 0 0 0
8 78 0 0 0
10 78 0 0 0
12 78 0 0 0
14 79 0 0 0
16 79 0 0 0
18 79 0 0 0
20 79 0 2 0
22 81 0 1 0
24 82 0 0 0
26 80 0 1 0
28 81 0 0 0
30 81 0 0 0
32 79 0 0 0
34 78 0 0 0
36 78 0 0 0
38 78 0 0 0
40 79 0 0 0
42 79 0 0 0
44 79 0 0 0
46 78 0 1 0
48 79 0 0 0
50 78 0 1 0
52 58 20 0 0
54 47 31 0 0
56 40 38 0 0
58 39 40 0 1
60 31 49 0 1
62 25 56 0 0
64 22 59 0 0
66 19 61 1 0
68 17 63 0 0
70 14 65 0 0
72 11 67 0 0
74 10 67 0 1
76 9 69 0 0
78 6 71 1 0
80 6 72 0 0
82 6 72 0 0
84 5 71 1 1
86 6 72 0 0
88 6 72 0 0
90 6 72 0 0
92 7 72 0 0
94 6 72 0 0
96 5 72 1 0
98 6 72 0 0
100 5 73 0 0
102 5 73 0 0
104 4 74 0 0
106 4 73 0 1
108 5 73 0 1
110 5 74 0 0
112 5 74 0 0
114 5 74 0 0
116 5 74 0 0
118 5 74 0 0
120 6 74 0 0
122 6 74 0 0
124 6 74 0 0
126 6 74 0 0
128 6 74 0 0
130 6 74 0 0
132 6 74 0 0
134 6 74 1 0
136 7 74 0 0
138 6 74 0 0
140 6 74 0 0
142 5 74 1 0
144 5 73 1 1
146 5 74 1 0
148 6 74 0 0
150 7 74 0 0
152 7 74 0 0
154 7 74 0 0
156 8 73 0 0
158 8 73 0 0
160 6 74 0 0
162 2 75 2 0
164 3 74 1 1
166 4 74 0 1
168 4 75 0 0
170 4 75 0 0
172 4 75 0 0
174 4 74 0 1
176 3 75 0 0
178 3 75 0 0
180 4 74 0 1
182 4 74 0 1
184 4 75 0 0
186 4 75 0 0
188 4 75 0 0
190 4 75 0 0
192 4 75 0 0
194 4 76 0 0
196 4 76 0 0
198 4 75 0 1
200 2 76 1 0
202 3 76 0 0
204 5 76 1 0
206 5 77 0 0
208 5 76 0 1
210 5 77 0 0
212 6 77 0 0
214 6 77 0 0
216 6 76 0 0
218 5 76 0 0
220 4 76 1 0
222 5 75 0 1
224 5 75 0 1
226 4 75 1 1
228 4 76 1 0
230 5 76 0 0
232 5 76 1 0
234 4 75 1 1
236 4 77 0 0
238 4 76 0 0
240 4 76 0 0
242 4 76 0 0
244 4 76 0 0
246 4 76 0 0
248 4 76 0 0
250 4 75 0 1
252 4 76 0 0
254 3 76 0 0
256 2 76 1 0
258 3 76 0 0
260 3 76 0 0
262 3 76 0 0
264 3 75 0 0
266 3 74 0 1
268 3 75 0 0
270 4 76 0 0
272 4 76 0 0
274 4 76 0 0
276 3 76 0 1
278 3 76 0 1
280 4 77 0 0
282 4 77 0 0
284 4 77 0 0
286 4 77 0 0
288 3 77 0 1
290 3 78 0 0
292 3 77 0 1
294 3 77 0 0
296 3 77 0 0
298 3 77 0 0
300 3 77 0 0
302 3 75 0 1
304 3 76 0 0
306 3 76 0 0
308 3 77 0 0
310 3 76 0 0
312 3 77 0 0
314 3 77 0 0
316 3 76 0 1
318 3 77 0 0
320 2 77 0 0
322 2 77 0 0
324 2 77 0 0
326 2 77 0 0
328 2 77 0 0
330 3 77 0 0
332 2 77 0 0
334 2 77 0 0
336 2 76 0 1
338 1 77 0 0
340 1 77 0 0
342 1 77 0 0
344 1 76 0 1
346 1 75 0 1
348 1 76 0 0
350 1 76 0 0
