0 68 0 0 0
2 68 0 0 0
4.00004 68 0 0 0
6 68 0 0 0
8 67 0 0 0
10 66 0 1 0
12 67 0 0 0
14 67 0 0 0
16 67 0 0 0
18 66 0 2 0
20 68 0 1 0
22 69 0 0 0
24 69 0 0 0
26 68 0 1 0
28 69 0 0 0
30 69 0 0 0
32 68 0 0 0
34 68 0 0 0
36 68 0 0 0
38 66 0 2 0
40 68 0 0 0
42 67 0 0 0
44 67 0 1 0
46 68 0 0 0
48 68 0 0 0
50 69 0 0 0
52 69 0 0 0
54 68 0 0 0
56 67 0 1 0
58 68 0 0 0
60 67 0 0 0
62 69 0 0 0
64 69 0 0 0
66 69 0 0 0
68 69 0 0 0
70 70 0 0 0
72 70 0 0 0
74 68 0 0 0
76 67 0 1 0
78 68 0 0 0
80 68 0 0 0
82 68 0 0 0
84 68 0 0 0
86 68 0 0 0
88 68 0 0 0
90 68 0 0 0
92 67 0 1 0
94 67 0 1 0
96 68 0 0 0
98 68 0 0 0
100 68 0 0 0
102 67 0 1 0
104 68 0 0 0
106 67 1 1 0
108 67 1 0 0
110 68 1 0 0
112 68 1 0 0
114 67 1 0 0
116 67 1 0 0
118 67 1 0 0
120 67 1 0 0
122 66 1 1 0
124 67 1 0 0
126 67 1 0 0
128 67 1 0 0
130 67 1 0 0
132 67 1 0 0
134 67 1 0 0
136 67 1 0 0
138 67 1 0 0
140 66 1 0 0
142 66 1 0 0
144 66 1 0 0
146 66 1 0 0
148 66 1 0 0
150 66 1 0 0
152 66 2 0 0
154 66 2 0 0
156 66 2 0 0
158 67 2 0 0
160 67 2 0 0
162 67 2 0 0
164 67 2 0 0
166 67 2 0 0
168 67 2 0 0
170 67 1 0 1
172 66 2 1 0
174 67 2 0 0
176 67 2 0 0
178 66 2 1 0
180 67 2 0 0
182 67 2 0 0
184 66 2 1 0
186 66 1 1 1
188 66 2 0 0
190 66 2 0 0
192 66 2 0 0
194 66 2 0 0
196 66 2 0 0
198 66 2 0 0
200 65 2 1 0
202 66 2 0 0
204 66 2 0 0
206 66 1 0 1
208 66 2 0 0
210 66 2 0 0
212 66 2 0 0
214 66 2 0 0
216 66 1 0 1
218 66 2 0 0
220 66 2 0 0
222 66 2 0 0
224 66 2 0 0
226 66 2 0 0
228 66 2 0 0
230 66 2 0 0
232 66 2 0 0
234 66 2 0 0
236 66 2 0 0
238 66 2 0 0
240 66 2 0 0
242 65 2 1 0
244 65 2 0 0
246 65 2 0 0
248 65 2 0 0
250 65 1 0 1
252 65 2 0 0
254 64 2 1 0
256 65 1 0 0
258 65 1 0 0
260 65 1 0 0
262 65 1 0 0
264 65 1 0 0
266 65 1 0 0
268 65 1 0 0
270 65 1 0 0
272 65 1 0 0
274 64 1 1 0
276 65 1 0 0
278 65 1 0 0
280 64 1 1 0
282 65 1 0 0
284 65 1 0 0
286 65 1 0 0
288 66 1 0 0
290 65 1 1 0
292 66 1 0 0
294 65 1 0 0
296 64 1 0 0
298 65 1 0 0
300 65 1 0 0
302 65 1 0 0
304 65 1 0 0
306 65 1 0 0
308 65 1 0 0
310 65 1 0 0
312 65 1 0 0
314 65 1 0 0
316 65 1 0 0
318 65 1 0 0
320 65 1 0 0
322 65 1 0 0
324 65 1 0 0
326 65 1 0 0
328 65 1 0 0
330 63 1 2 0
332 65 1 0 0
334 65 1 0 0
336 64 1 1 0
338 64 1 1 0
340 62 1 2 0
342 64 1 0 0
344 63 1 1 0
346 64 1 0 0
348 63 1 0 0
350 63 1 0 0
