0 289 0 0 0 0
2 257 0 0 26 0
4.00004 263 0 0 19 0
6 269 0 0 22 0
8 273 0 0 16 0
10 270 0 0 22 0
12 277 0 0 17 0
14 254 0 0 24 0
16 250 0 0 30 0
18 252 0 0 19 0
20 255 0 0 14 0
22 256 0 0 26 0
24 275 0 0 22 0
26 273 0 0 29 0
28 275 0 0 18 0
30 273 0 0 21 0
32 270 0 0 25 0
34 273 0 0 18 0
36 270 0 0 22 0
38 267 0 0 21 0
40 275 0 0 30 0
42 290 0 0 30 0
44 294 0 0 25 0
46 305 0 0 21 0
48 287 0 0 26 0
50 305 0 0 21 0
52 299 0 2 24 0
54 292 0 3 21 1
56 305 0 10 14 3
58 285 0 17 19 1
60 277 0 29 24 2
62 273 0 43 15 7
64 263 0 62 20 6
66 238 0 66 17 6
68 221 0 86 20 4
70 220 0 95 17 9
72 206 0 104 10 8
74 186 0 106 15 15
76 181 0 104 7 12
78 158 0 122 14 13
80 141 0 137 18 11
82 141 0 141 11 6
84 122 0 150 11 11
86 120 0 155 8 21
88 102 0 164 13 15
90 108 0 179 9 10
92 93 0 187 8 19
94 76 0 191 7 19
96 74 0 213 3 17
98 72 0 214 5 22
100 69 0 228 6 15
102 62 0 218 8 21
104 64 0 228 4 19
106 61 0 237 3 14
108 48 0 232 3 21
110 47 0 230 3 22
112 45 0 249 3 25
114 44 0 240 4 21
116 36 0 247 1 25
118 35 0 241 0 24
120 28 0 256 3 15
122 26 0 255 1 26
124 24 0 263 2 17
126 24 0 257 1 15
128 19 0 254 3 23
130 17 0 248 0 21
132 16 0 249 3 16
134 14 0 255 2 18
136 12 0 271 2 25
138 14 0 279 0 17
140 14 0 250 0 24
142 11 0 258 2 22
144 8 0 251 2 19
146 10 0 251 2 22
148 9 0 260 1 25
150 11 0 262 0 23
152 10 0 251 1 25
154 9 0 273 0 11
156 6 0 268 1 15
158 7 0 274 1 22
160 4 0 257 2 28
162 4 0 263 1 15
164 3 0 258 0 17
166 5 0 257 0 22
168 2 0 263 0 22
170 3 0 266 0 23
172 3 0 268 0 33
174 1 0 275 1 24
176 2 0 289 0 24
178 2 0 313 0 20
180 3 0 300 0 29
182 2 0 305 0 16
184 1 0 288 0 25
186 1 0 279 0 21
188 1 0 273 0 24
190 1 0 270 0 25
192 1 0 276 1 16
194 2 0 282 0 20
196 2 0 286 0 28
198 4 0 293 0 23
200 3 0 293 0 17
