0 485 0 0 0 0
2 435 0 0 31 0
4.00004 413 0 0 41 0
6 412 0 0 37 0
8 415 0 0 36 0
10 408 0 0 38 0
12 398 0 0 29 0
14 402 0 0 30 0
16 397 0 0 29 0
18 390 0 0 30 0
20 394 0 0 40 0
22 372 0 0 41 0
24 386 0 0 35 0
26 381 0 0 33 0
28 379 0 0 41 0
30 379 0 0 26 0
32 375 0 0 37 0
34 390 0 0 37 0
36 394 0 0 29 0
38 393 0 0 35 0
40 382 0 0 37 0
42 397 0 0 30 0
44 395 0 0 34 0
46 404 0 0 29 0
48 409 0 0 34 0
50 396 0 0 42 0
52 398 0 3 26 2
54 383 0 5 30 1
56 369 0 14 28 4
58 375 0 29 22 3
60 360 0 43 24 3
62 336 0 49 28 10
64 325 0 67 21 8
66 309 0 89 24 8
68 290 0 95 18 14
70 281 0 112 13 12
72 266 0 140 18 17
74 249 0 147 23 14
76 242 0 146 17 13
78 226 0 164 23 11
80 225 0 175 15 20
82 207 0 198 17 23
84 200 0 219 15 15
86 186 0 238 12 19
88 163 0 256 17 14
90 157 0 270 14 28
92 150 0 281 6 23
94 136 0 293 9 22
96 117 0 292 15 23
98 117 0 291 11 29
100 104 0 301 10 26
102 100 0 300 7 29
104 95 0 300 6 37
106 90 0 326 4 27
108 84 0 335 5 19
110 82 0 334 5 24
112 79 0 332 5 32
114 83 0 334 6 22
116 76 0 352 4 22
118 66 0 354 7 31
120 71 0 345 4 32
122 67 0 339 2 30
124 63 0 354 3 31
126 54 0 354 5 30
128 52 0 363 2 31
130 50 0 361 0 24
132 43 0 354 4 25
134 42 0 340 3 31
136 38 0 344 2 25
138 35 0 356 4 24
140 34 0 342 5 29
142 32 0 368 3 21
144 34 0 365 3 34
146 34 0 361 3 33
148 33 0 365 1 22
150 27 0 340 4 40
152 25 0 353 1 29
154 23 0 365 2 28
156 22 0 360 1 30
158 19 0 364 1 38
160 16 0 362 1 26
162 15 0 378 2 29
164 13 0 383 3 20
166 13 0 372 0 24
168 13 0 382 0 20
170 14 0 385 0 32
172 13 0 379 1 39
174 11 0 361 0 49
176 9 0 370 0 28
178 10 0 386 0 24
180 7 0 373 1 35
182 8 0 365 0 37
184 6 0 379 1 32
186 6 0 382 0 29
188 8 0 390 0 24
190 7 0 383 0 31
192 7 0 378 0 38
194 4 0 376 1 43
196 6 0 402 0 31
198 4 0 408 0 26
200 6 0 401 0 37
