0 350 0 0 0 0
2 307 0 0 27 0
4.00004 304 0 0 30 0
6 292 0 0 38 0
8 293 0 0 31 0
10 285 0 0 41 0
12 305 0 0 31 0
14 307 0 0 32 0
16 297 0 0 43 0
18 301 0 0 34 0
20 304 0 0 46 0
22 309 0 0 26 0
24 301 0 0 41 0
26 303 0 0 30 0
28 289 0 0 29 0
30 298 0 0 40 0
32 322 0 0 30 0
34 305 0 0 38 0
36 325 0 0 35 0
38 300 0 0 43 0
40 305 0 0 34 0
42 305 0 0 37 0
44 319 0 0 34 0
46 304 0 0 36 0
48 295 0 0 31 0
50 288 0 0 36 0
52 289 0 0 43 0
54 285 0 5 39 3
56 277 0 14 35 1
58 277 0 24 32 3
60 269 0 33 26 10
62 251 0 51 29 7
64 238 0 65 27 9
66 225 0 87 23 10
68 203 0 102 12 14
70 175 0 111 25 18
72 169 0 132 26 17
74 164 0 130 15 18
76 159 0 140 7 25
78 135 0 150 12 22
80 134 0 164 12 14
82 135 0 177 15 12
84 122 0 180 14 18
86 112 0 180 11 21
88 106 0 184 13 22
90 95 0 181 9 23
92 92 0 186 11 17
94 85 0 185 5 22
96 79 0 202 8 25
98 72 0 206 7 23
100 69 0 208 10 38
102 58 0 236 6 33
104 59 0 244 8 30
106 52 0 255 4 31
108 54 0 272 4 28
110 42 0 268 5 36
112 39 0 260 3 30
114 33 0 270 2 28
116 33 0 279 1 28
118 22 0 276 3 41
120 25 0 286 4 34
122 23 0 279 1 28
124 20 0 282 0 29
126 20 0 299 2 30
128 16 0 289 3 32
130 20 0 276 1 47
132 15 0 297 1 40
134 14 0 314 2 30
136 14 0 313 2 28
138 13 0 327 0 30
140 14 0 310 4 33
142 13 0 296 2 45
144 13 0 316 1 38
146 11 0 294 1 46
148 11 0 298 3 34
150 8 0 303 1 28
152 7 0 289 0 43
154 8 0 290 0 33
156 7 0 306 1 25
158 7 0 295 0 41
160 4 0 283 2 43
162 4 0 300 0 32
164 4 0 304 0 36
166 2 0 317 2 36
168 3 0 318 1 24
170 4 0 295 0 32
172 5 0 278 0 33
174 1 0 271 1 42
176 3 0 287 0 38
178 0 0 291 1 32
180 0 0 281 0 35
182 0 0 299 0 35
184 0 0 285 0 31
186 0 0 289 0 39
188 1 0 297 0 41
190 2 0 298 0 46
192 2 0 309 0 30
194 2 0 282 0 43
196 2 0 287 0 35
198 2 0 277 0 36
200 1 0 293 0 38
