0 665 0 0 0 0
2 631 0 0 35 0
4.00004 647 0 0 29 0
6 630 0 0 35 0
8 632 0 0 30 0
10 645 0 0 24 0
12 651 0 0 31 0
14 661 0 0 22 0
16 642 0 0 26 0
18 648 0 0 29 0
20 629 0 0 40 0
22 627 0 0 29 0
24 628 0 0 32 0
26 622 0 0 38 0
28 625 0 0 25 0
30 620 0 0 30 0
32 628 0 0 28 0
34 625 0 0 26 0
36 613 0 0 33 0
38 613 0 0 36 0
40 617 0 0 30 0
42 617 0 0 30 0
44 617 0 0 32 0
46 627 0 0 25 0
48 611 0 0 27 0
50 592 0 0 36 0
52 597 0 3 28 2
54 599 0 11 26 3
56 588 0 18 24 2
58 590 0 23 25 3
60 581 0 37 20 2
62 565 0 54 34 6
64 542 0 71 30 11
66 520 0 87 28 7
68 502 0 100 24 5
70 500 0 107 20 10
72 489 0 130 20 5
74 478 0 148 13 13
76 474 0 162 18 12
78 447 0 179 22 14
80 428 0 196 13 15
82 427 0 227 11 15
84 420 0 241 12 16
86 407 0 252 21 12
88 397 0 275 11 12
90 375 0 301 11 15
92 356 0 306 15 18
94 348 0 324 11 20
96 325 0 333 13 18
98 317 0 349 10 18
100 304 0 372 8 18
102 284 0 380 10 17
104 277 0 395 9 21
106 270 0 418 12 14
108 252 0 413 9 25
110 243 0 422 7 16
112 235 0 416 5 25
114 225 0 434 8 29
116 227 0 448 3 19
118 212 0 435 9 26
120 194 0 450 9 20
122 185 0 454 7 17
124 174 0 448 4 19
126 166 0 456 7 23
128 160 0 459 3 26
130 154 0 468 7 24
132 145 0 501 5 33
134 140 0 512 7 23
136 139 0 527 5 20
138 130 0 520 5 31
140 119 0 539 4 29
142 118 0 541 5 22
144 112 0 545 2 25
146 107 0 566 5 18
148 104 0 581 4 25
150 102 0 582 3 30
152 94 0 579 4 26
154 95 0 585 2 25
156 85 0 586 3 27
158 79 0 565 5 21
160 78 0 570 5 15
162 76 0 572 1 22
164 65 0 559 6 24
166 64 0 562 2 28
168 64 0 561 1 29
170 61 0 575 1 23
172 63 0 568 3 24
174 58 0 561 3 28
176 55 0 574 4 29
178 55 0 577 3 23
180 54 0 587 1 40
182 49 0 614 1 23
184 46 0 620 1 16
186 43 0 608 2 30
188 41 0 620 2 24
190 47 0 620 0 26
192 45 0 630 0 32
194 42 0 632 2 30
196 41 0 637 2 20
198 44 0 629 1 32
200 43 0 633 0 24
