0 596 0 0 0 0
2 553 0 0 29 0
4.00004 565 0 0 35 0
6 564 0 0 26 0
8 567 0 0 26 0
10 558 0 0 27 0
12 559 0 0 23 0
14 543 0 0 33 0
16 528 0 0 40 0
18 541 0 0 32 0
20 530 0 0 31 0
22 524 0 0 25 0
24 516 0 0 25 0
26 517 0 0 32 0
28 530 0 0 22 0
30 529 0 0 33 0
32 524 0 0 33 0
34 529 0 0 24 0
36 521 0 0 24 0
38 532 0 0 34 0
40 512 0 0 40 0
42 513 0 0 25 0
44 529 0 0 33 0
46 517 0 0 37 0
48 518 0 0 28 0
50 527 0 0 25 0
52 512 0 2 26 2
54 513 0 6 23 4
56 496 0 20 28 3
58 499 0 39 23 5
60 478 0 50 23 6
62 465 0 59 16 8
64 446 0 70 21 7
66 436 0 91 14 8
68 433 0 106 17 6
70 409 0 134 14 14
72 395 0 148 16 14
74 367 0 186 9 8
76 344 0 202 20 10
78 328 0 205 19 16
80 317 0 216 12 11
82 293 0 227 16 21
84 273 0 239 14 16
86 262 0 258 15 13
88 254 0 267 9 20
90 241 0 281 11 13
92 219 0 299 18 20
94 212 0 324 9 15
96 203 0 343 7 27
98 186 0 343 7 31
100 171 0 363 6 22
102 157 0 365 11 29
104 148 0 379 12 17
106 145 0 378 2 23
108 127 0 375 8 19
110 125 0 384 3 17
112 117 0 392 3 30
114 106 0 409 5 22
116 102 0 406 4 24
118 92 0 422 5 17
120 89 0 423 3 24
122 84 0 433 3 20
124 73 0 426 4 26
126 73 0 452 1 22
128 62 0 449 5 31
130 54 0 467 5 29
132 52 0 478 6 26
134 47 0 491 5 26
136 45 0 482 6 24
138 44 0 497 2 20
140 41 0 486 2 34
142 41 0 502 3 23
144 41 0 501 0 19
146 36 0 490 2 24
148 35 0 478 0 38
150 35 0 498 4 30
152 36 0 512 0 26
154 26 0 521 5 34
156 32 0 514 0 26
158 30 0 519 0 32
160 29 0 517 1 29
162 27 0 513 2 31
164 27 0 512 2 32
166 27 0 517 0 21
168 25 0 513 1 34
170 24 0 520 1 27
172 21 0 506 1 44
174 20 0 517 0 22
176 19 0 513 1 36
178 18 0 522 0 24
180 17 0 522 0 39
182 16 0 543 0 32
184 14 0 539 2 27
186 15 0 520 0 29
188 14 0 520 0 37
190 12 0 528 1 28
192 12 0 502 0 37
194 12 0 498 0 28
196 12 0 503 0 15
198 13 0 495 0 26
200 13 0 510 0 24
