0 1059 0 0 0 0 0
2 1017 0 0 44 0 0
4.00004 978 0 0 72 0 0
6 988 0 0 74 0 0
8 972 0 0 93 0 0
10 963 0 0 102 0 0
12 945 0 0 124 0 0
14 951 0 0 116 0 0
16 941 0 0 128 0 0
18 929 0 0 141 0 0
20 943 0 0 133 0 0
22 940 0 0 132 0 0
24 925 0 0 139 0 0
26 923 0 0 145 0 0
28 910 0 0 161 0 0
30 923 0 0 138 0 0
32 919 0 0 149 0 0
34 910 0 0 152 0 0
36 914 0 0 153 0 0
38 920 0 0 153 0 0
40 913 0 0 168 0 0
42 919 0 0 164 0 0
44 915 0 0 159 0 0
46 912 0 0 167 0 0
48 908 0 0 158 0 0
50 904 0 0 162 0 0
52 893 0 0 167 6 0
54 906 0 0 142 15 0
56 903 0 0 131 24 0
58 899 0 1 120 34 0
60 895 0 4 115 42 0
62 895 0 6 105 58 0
64 885 0 9 98 63 0
66 884 0 15 93 64 0
68 872 0 24 97 68 0
70 873 0 32 95 70 0
72 874 0 35 84 79 0
74 858 0 42 94 69 0
76 842 0 46 108 79 0
78 848 0 48 97 73 0
80 841 0 55 96 73 0
82 844 0 56 86 73 0
84 835 0 57 91 78 0
86 823 0 65 95 83 0
88 824 0 70 88 78 0
90 804 0 80 104 73 0
92 812 0 87 91 70 0
94 809 0 89 86 75 0
96 802 0 88 85 74 0
98 801 0 98 83 83 0
100 796 0 101 80 81 0
102 781 0 108 86 75 0
104 793 0 116 68 72 0
106 788 0 117 68 85 0
108 783 0 125 73 77 0
110 769 0 126 81 77 0
112 772 0 139 70 78 0
114 762 0 140 72 77 0
116 754 0 141 77 87 0
118 753 0 145 76 88 0
120 749 0 153 76 87 0
122 745 0 162 75 83 0
124 728 0 164 90 81 0
126 719 0 167 91 89 0
128 714 0 176 95 89 0
130 709 0 185 88 83 0
132 695 0 186 90 101 0
134 700 0 186 83 97 0
136 705 0 190 72 90 0
138 704 0 187 70 100 0
140 682 0 196 88 99 0
142 687 0 203 73 102 0
144 681 0 212 74 99 0
146 669 0 222 77 95 0
148 665 0 227 76 93 0
150 672 0 238 56 86 0
152 672 0 238 54 95 0
154 659 0 236 62 108 0
156 666 0 241 52 109 0
158 654 0 237 58 110 0
160 640 0 255 70 91 0
162 637 0 253 69 104 0
164 626 0 258 77 97 0
166 621 0 265 74 104 0
168 614 0 274 78 100 0
170 604 0 290 84 87 0
172 608 0 292 73 96 0
174 607 0 299 68 85 0
176 601 0 303 69 90 0
178 598 0 313 69 73 0
180 598 0 310 64 92 0
182 580 0 316 79 97 0
184 576 0 316 76 106 0
186 555 0 325 90 102 0
188 572 0 324 65 115 0
190 570 0 331 60 110 0
192 569 0 329 61 112 0
194 557 0 335 70 113 0
196 558 0 340 65 102 0
198 559 0 358 59 88 0
200 556 0 349 60 107 0
