0 1042 0 0 0 0 0
2 985 0 0 59 0 0
4.00004 962 0 0 91 0 0
6 946 0 0 107 0 0
8 928 0 0 123 0 0
10 916 0 0 137 0 0
12 895 0 0 150 0 0
14 892 0 0 157 0 0
16 892 0 0 170 0 0
18 898 0 0 162 0 0
20 902 0 0 156 0 0
22 913 0 0 151 0 0
24 909 0 0 164 0 0
26 908 0 0 168 0 0
28 920 0 0 152 0 0
30 901 0 0 174 0 0
32 898 0 0 179 0 0
34 894 0 0 195 0 0
36 907 0 0 183 0 0
38 897 0 0 189 0 0
40 895 0 0 195 0 0
42 899 0 0 192 0 0
44 914 0 0 177 0 0
46 917 0 0 173 0 0
48 919 0 0 169 0 0
50 901 0 0 176 0 0
52 888 0 0 177 14 0
54 890 0 0 161 28 0
56 896 0 1 146 39 0
58 896 0 5 131 50 0
60 895 0 10 122 54 0
62 883 0 15 125 62 0
64 883 0 21 110 65 0
66 878 0 27 112 77 0
68 860 0 32 123 77 0
70 862 0 41 113 62 0
72 856 0 45 107 72 0
74 844 0 50 110 79 0
76 839 0 56 103 79 0
78 830 0 65 106 71 0
80 829 0 70 97 78 0
82 815 0 75 104 87 0
84 808 0 84 102 79 0
86 804 0 89 103 83 0
88 789 0 97 110 92 0
90 784 0 107 104 86 0
92 778 0 113 102 93 0
94 769 0 122 104 99 0
96 751 0 126 113 101 0
98 754 0 139 102 87 0
100 750 0 148 99 103 0
102 733 0 152 107 104 0
104 739 0 160 92 100 0
106 732 0 169 91 98 0
108 725 0 184 89 88 0
110 725 0 195 82 87 0
112 702 0 199 102 83 0
114 702 0 202 94 99 0
116 702 0 208 87 88 0
118 685 0 201 97 104 0
120 675 0 215 101 99 0
122 675 0 223 92 98 0
124 665 0 224 96 103 0
126 646 0 223 105 113 0
128 652 0 221 93 112 0
130 638 0 227 98 115 0
132 616 0 224 113 117 0
134 625 0 231 89 120 0
136 614 0 244 97 112 0
138 619 0 255 88 110 0
140 602 0 253 92 126 0
142 592 0 259 99 124 0
144 592 0 270 94 126 0
146 583 0 277 91 125 0
148 577 0 288 94 125 0
150 577 0 293 88 126 0
152 575 0 301 83 124 0
154 578 0 311 73 112 0
156 568 0 304 82 124 0
158 570 0 312 70 127 0
160 568 0 312 64 130 0
162 563 0 317 64 135 0
164 556 0 325 63 141 0
166 539 0 330 77 140 0
168 536 0 350 75 124 0
170 535 0 344 72 134 0
172 525 0 345 74 145 0
174 524 0 352 70 134 0
176 520 0 359 71 136 0
178 517 0 367 69 134 0
180 514 0 363 70 150 0
182 507 0 373 70 146 0
184 504 0 378 70 156 0
186 497 0 386 69 138 0
188 502 0 390 63 139 0
190 493 0 393 66 147 0
192 493 0 402 60 154 0
194 483 0 399 68 160 0
196 478 0 412 66 144 0
198 467 0 425 73 134 0
200 467 0 442 65 128 0
