0 1054 0 0 0 0 0
2 953 0 0 94 0 0
4.00004 944 0 0 106 0 0
6 913 0 0 138 0 0
8 907 0 0 142 0 0
10 895 0 0 151 0 0
12 882 0 0 177 0 0
14 861 0 0 207 0 0
16 880 0 0 193 0 0
18 870 0 0 204 0 0
20 863 0 0 202 0 0
22 860 0 0 214 0 0
24 870 0 0 204 0 0
26 858 0 0 208 0 0
28 860 0 0 219 0 0
30 874 0 0 205 0 0
32 868 0 0 216 0 0
34 877 0 0 206 0 0
36 875 0 0 195 0 0
38 881 0 0 193 0 0
40 876 0 0 191 0 0
42 856 0 0 233 0 0
44 844 0 0 238 0 0
46 843 0 0 237 0 0
48 851 0 0 231 0 0
50 855 0 0 240 0 0
52 869 0 0 192 24 0
54 862 0 5 157 55 0
56 850 0 11 142 78 0
58 834 0 24 128 87 0
60 806 0 37 133 97 0
62 788 0 52 137 101 0
64 767 0 66 136 111 0
66 754 0 76 129 94 0
68 755 0 96 108 107 0
70 731 0 111 117 133 0
72 715 0 122 114 132 0
74 715 0 135 96 127 0
76 701 0 150 97 131 0
78 703 0 167 80 114 0
80 689 0 181 86 107 0
82 677 0 184 81 121 0
84 656 0 194 87 126 0
86 638 0 210 95 124 0
88 633 0 213 83 143 0
90 619 0 224 87 129 0
92 613 0 249 86 108 0
94 599 0 256 87 123 0
96 584 0 272 88 109 0
98 577 0 281 84 110 0
100 573 0 279 75 124 0
102 565 0 286 74 140 0
104 551 0 297 77 137 0
106 542 0 311 77 121 0
108 518 0 305 90 150 0
110 518 0 315 69 156 0
112 509 0 320 68 155 0
114 501 0 326 67 174 0
116 497 0 342 63 165 0
118 482 0 360 71 157 0
120 469 0 366 75 141 0
122 463 0 372 74 137 0
124 455 0 366 70 150 0
126 439 0 377 77 164 0
128 429 0 383 74 163 0
130 422 0 402 68 157 0
132 417 0 417 64 153 0
134 403 0 416 68 177 0
136 402 0 413 62 190 0
138 386 0 433 64 164 0
140 372 0 446 67 160 0
142 372 0 447 57 175 0
144 371 0 476 51 166 0
146 362 0 476 51 160 0
148 366 0 479 44 165 0
150 347 0 468 56 179 0
152 344 0 485 52 160 0
154 337 0 484 52 177 0
156 337 0 485 47 190 0
158 343 0 494 36 178 0
160 335 0 495 36 186 0
162 328 0 485 37 203 0
164 316 0 502 48 173 0
166 307 0 505 49 185 0
168 304 0 512 43 191 0
170 295 0 525 48 185 0
172 286 0 541 50 185 0
174 278 0 550 52 182 0
176 287 0 558 35 184 0
178 283 0 560 34 178 0
180 272 0 570 39 168 0
182 272 0 564 35 186 0
184 268 0 583 35 178 0
186 257 0 572 40 181 0
188 255 0 565 37 190 0
190 252 0 576 37 193 0
192 255 0 588 30 173 0
194 253 0 577 29 191 0
196 247 0 595 25 184 0
198 234 0 607 32 174 0
200 227 0 605 35 184 0
