0 1209 0 0 0 0 0
2 1154 0 0 52 0 0
4.00004 1134 0 0 70 0 0
6 1108 0 0 99 0 0
8 1097 0 0 109 0 0
10 1090 0 0 117 0 0
12 1072 0 0 133 0 0
14 1053 0 0 145 0 0
16 1052 0 0 142 0 0
18 1061 0 0 137 0 0
20 1030 0 0 160 0 0
22 1030 0 0 163 0 0
24 1017 0 0 173 0 0
26 1004 0 0 196 0 0
28 1003 0 0 191 0 0
30 999 0 0 187 0 0
32 991 0 0 190 0 0
34 996 0 0 188 0 0
36 987 0 0 191 0 0
38 996 0 0 189 0 0
40 993 0 0 183 0 0
42 994 0 0 193 0 0
44 996 0 0 188 0 0
46 990 0 0 191 0 0
48 982 0 0 202 0 0
50 987 0 0 201 0 0
52 977 0 0 193 7 0
54 981 0 0 171 24 0
56 986 0 1 151 35 0
58 998 0 4 135 42 0
60 984 0 4 140 51 0
62 985 0 8 131 53 0
64 965 0 14 141 52 0
66 956 0 20 137 56 0
68 942 0 25 140 69 0
70 939 0 31 133 69 0
72 929 0 37 130 72 0
74 910 0 43 136 82 0
76 910 0 48 131 90 0
78 906 0 54 128 84 0
80 893 0 64 127 89 0
82 894 0 73 118 84 0
84 897 0 76 109 93 0
86 879 0 85 117 93 0
88 877 0 94 108 85 0
90 877 0 101 105 85 0
92 868 0 115 109 82 0
94 852 0 120 112 84 0
96 845 0 126 109 87 0
98 841 0 132 107 85 0
100 841 0 130 99 96 0
102 833 0 139 99 95 0
104 827 0 148 97 90 0
106 820 0 154 99 83 0
108 819 0 165 97 80 0
110 809 0 176 99 77 0
112 811 0 172 92 81 0
114 798 0 178 98 79 0
116 790 0 180 92 86 0
118 791 0 185 82 95 0
120 778 0 190 91 98 0
122 762 0 196 101 98 0
124 777 0 200 76 99 0
126 769 0 206 82 103 0
128 759 0 212 81 103 0
130 746 0 215 84 101 0
132 743 0 217 77 103 0
134 732 0 231 84 94 0
136 736 0 233 73 86 0
138 725 0 234 78 89 0
140 713 0 243 88 88 0
142 714 0 245 81 95 0
144 703 0 252 82 94 0
146 697 0 250 89 103 0
148 681 0 257 97 109 0
150 668 0 263 104 95 0
152 660 0 260 106 102 0
154 662 0 265 97 100 0
156 655 0 276 95 109 0
158 654 0 279 96 118 0
160 650 0 287 89 120 0
162 642 0 300 96 114 0
164 640 0 297 90 120 0
166 647 0 297 81 113 0
168 631 0 316 93 109 0
170 636 0 310 78 120 0
172 643 0 318 64 118 0
174 638 0 323 66 116 0
176 637 0 332 58 109 0
178 625 0 330 68 114 0
180 615 0 331 74 124 0
182 611 0 339 75 106 0
184 601 0 342 78 108 0
186 581 0 340 92 119 0
188 587 0 342 80 128 0
190 587 0 348 73 131 0
192 580 0 340 80 136 0
194 578 0 352 79 129 0
196 579 0 359 69 139 0
198 582 0 370 60 122 0
200 575 0 360 63 125 0
