0 937 0 0 0 0 0
2 836 25 0 76 0 8
4.00004 829 18 0 98 0 14
6 798 6 0 114 0 31
8 793 3 0 128 0 24
10 787 2 0 131 0 33
12 778 1 0 135 0 39
14 767 2 0 151 0 37
16 765 0 0 166 0 30
18 762 0 0 161 0 36
20 750 0 0 161 0 45
22 759 0 0 158 0 33
24 744 0 0 158 0 49
26 749 0 0 174 0 32
28 741 0 0 167 0 42
30 750 0 0 164 0 35
32 769 0 0 152 0 35
34 747 0 0 172 0 34
36 754 0 0 151 0 50
38 759 0 0 153 0 49
40 754 0 0 173 0 39
42 735 0 0 184 0 52
44 745 0 0 173 0 50
46 750 0 0 175 0 42
48 733 0 0 187 0 54
50 740 0 0 177 0 50
52 733 0 12 72 152 0
54 694 0 39 69 158 0
56 661 0 77 69 176 0
58 643 0 103 49 184 0
60 604 0 125 64 187 0
62 580 0 152 54 196 0
64 564 0 183 49 179 0
66 551 0 212 42 189 0
68 520 0 240 48 198 0
70 496 0 257 41 196 0
72 483 0 277 43 193 0
74 457 0 292 40 204 1
76 437 0 321 38 194 0
78 422 0 339 36 199 0
80 399 0 349 37 201 0
82 383 0 361 29 194 0
84 364 0 385 29 190 1
86 354 0 406 29 188 0
88 343 0 418 22 189 2
90 326 0 438 29 188 0
92 316 0 451 28 199 0
94 297 0 463 30 200 0
96 294 0 469 23 208 0
98 274 0 478 26 201 0
100 260 0 492 29 201 0
102 262 0 497 19 202 0
104 252 0 502 17 221 0
106 245 0 525 13 210 0
108 235 0 545 20 192 0
110 233 0 559 14 182 0
112 224 0 552 13 197 0
114 215 0 557 16 208 0
116 205 0 555 19 219 0
118 198 0 572 16 214 0
120 190 0 583 13 200 0
122 183 0 597 12 193 0
124 177 0 593 13 192 0
126 170 0 593 10 193 0
128 158 0 601 15 201 0
130 156 0 615 15 193 0
132 156 0 621 9 186 0
134 141 0 618 14 197 1
136 127 0 610 23 224 0
138 123 0 623 9 221 0
140 124 0 633 7 206 0
142 117 0 654 10 194 0
144 113 0 660 11 190 0
146 111 0 651 9 195 1
148 110 0 660 10 183 0
150 104 0 647 15 206 0
152 100 0 649 14 212 0
154 100 0 655 7 203 0
156 90 0 651 8 223 0
158 87 0 657 8 219 0
160 83 0 653 7 230 0
162 77 0 666 6 212 0
164 73 0 669 8 207 0
166 70 0 674 9 217 0
168 68 0 673 9 212 0
170 63 0 681 10 205 0
172 60 0 672 6 205 0
174 57 0 668 8 209 0
176 53 0 678 8 199 0
178 51 0 675 8 206 0
180 46 0 685 7 203 0
182 45 0 706 6 200 0
184 42 0 705 8 195 0
186 40 0 698 7 215 0
188 38 0 688 3 238 0
190 36 0 705 7 221 0
192 34 0 711 6 220 0
194 36 0 706 2 217 0
196 30 0 710 9 219 0
198 29 0 727 10 211 0
200 28 0 728 6 210 0
