0 495 0 0 0 0 300
2 499 0 0 22 0 300
4.00004 520 0 0 21 0 300
6 543 0 0 22 0 300
8 550 0 0 20 0 300
10 566 0 0 29 0 300
12 588 0 0 21 0 300
14 587 0 0 20 0 300
16 596 0 0 20 0 300
18 599 0 0 17 0 300
20 629 0 0 17 0 300
22 626 0 0 20 0 300
24 639 0 0 19 0 300
26 650 0 0 16 0 300
28 648 0 0 19 0 300
30 645 0 0 17 0 300
32 650 0 0 13 0 300
34 640 0 0 16 0 300
36 643 0 0 21 0 300
38 659 0 0 28 0 300
40 669 0 0 20 0 300
42 678 0 0 23 0 300
44 678 0 0 28 0 300
46 693 0 0 18 0 300
48 708 0 0 21 0 300
50 711 0 0 20 0 300
52 703 0 1 23 1 300
54 697 0 7 17 1 300
56 680 0 20 28 0 300
58 671 0 25 20 2 300
60 660 0 34 24 2 300
62 666 0 42 17 6 300
64 655 0 65 25 6 300
66 645 0 80 24 3 300
68 632 0 88 15 3 300
70 626 0 96 11 12 300
72 595 0 113 28 4 300
74 600 0 136 10 10 300
76 577 0 142 13 7 300
78 556 0 169 13 2 300
80 543 0 185 14 5 300
82 534 0 186 10 16 300
84 508 0 204 16 8 300
86 503 0 223 10 8 300
88 488 0 232 4 7 300
90 466 0 239 15 9 300
92 457 0 260 10 3 300
94 450 0 269 12 11 300
96 438 0 279 11 7 300
98 431 0 289 11 5 300
100 415 0 301 13 8 300
102 419 0 306 7 15 300
104 395 0 324 15 13 300
106 400 0 326 6 19 300
108 385 0 344 9 17 300
110 376 0 362 12 7 300
112 364 0 372 15 18 300
114 358 0 384 7 11 300
116 334 0 391 8 6 300
118 332 0 385 8 13 300
120 321 0 391 6 14 300
122 317 0 406 5 14 300
124 304 0 428 11 17 300
126 301 0 429 2 11 300
128 290 0 433 8 16 300
130 284 0 446 7 13 300
132 281 0 451 4 14 300
134 261 0 463 6 14 300
136 242 0 487 7 11 300
138 230 0 479 5 16 300
140 215 0 485 6 22 300
142 209 0 499 7 20 300
144 206 0 503 3 21 300
146 197 0 517 8 13 300
148 196 0 513 5 17 300
150 187 0 525 3 19 300
152 177 0 533 4 12 300
154 169 0 537 1 10 300
156 162 0 535 3 23 300
158 156 0 563 7 16 300
160 153 0 558 5 16 300
162 145 0 569 4 16 300
164 136 0 575 5 15 300
166 135 0 567 2 22 300
168 127 0 585 2 23 300
170 121 0 599 2 22 300
172 111 0 610 6 21 300
174 109 0 616 2 23 300
176 105 0 625 1 19 300
178 100 0 620 3 27 300
180 96 0 640 1 13 300
182 95 0 617 1 22 300
184 92 0 627 3 19 300
186 88 0 621 5 20 300
188 84 0 628 2 17 300
190 82 0 638 1 23 300
192 78 0 638 2 18 300
194 80 0 650 2 14 300
196 77 0 668 1 12 300
198 74 0 654 1 22 300
200 71 0 658 2 13 300
