0 1610 0 0 0 0 286
2 1596 9 0 23 0 286
4.00004 1595 9 0 27 0 286
6 1623 11 0 17 0 286
8 1634 6 0 22 0 286
10 1641 6 0 16 0 286
12 1644 9 0 20 0 286
14 1654 9 0 19 0 286
16 1652 4 0 20 0 286
18 1668 13 0 15 0 286
20 1678 6 0 24 0 286
22 1683 9 0 16 0 286
24 1680 14 0 26 0 286
26 1696 10 0 22 0 286
28 1698 7 0 14 0 286
30 1691 12 0 17 0 286
32 1701 7 0 20 0 286
34 1690 11 0 17 0 286
36 1688 8 0 12 0 286
38 1683 10 0 20 0 286
40 1671 14 0 19 0 286
42 1670 13 0 19 0 286
44 1682 7 0 19 0 286
46 1669 10 0 28 0 286
48 1664 10 0 18 0 286
50 1668 8 0 12 0 286
52 1457 2 217 19 2 286
54 1313 1 369 17 1 286
56 1185 0 494 18 1 286
58 1105 1 593 11 6 286
60 983 0 708 15 6 286
62 881 1 808 11 1 286
64 784 0 892 9 14 286
66 715 0 955 11 10 286
68 666 0 1020 6 9 286
70 617 0 1055 8 16 286
72 559 0 1123 11 8 286
74 503 0 1186 11 10 286
76 479 0 1216 6 18 286
78 433 0 1264 6 13 286
80 404 0 1283 10 13 286
82 377 0 1314 6 15 286
84 358 0 1347 1 14 286
86 318 0 1375 3 21 286
88 282 0 1413 3 20 286
90 261 0 1449 3 14 286
92 248 0 1467 0 17 286
94 227 0 1480 2 20 286
96 215 0 1494 5 19 286
98 196 0 1526 4 15 286
100 175 0 1540 2 24 286
102 158 0 1567 3 15 286
104 146 0 1561 2 18 286
106 133 0 1576 3 15 286
108 121 0 1574 1 13 286
110 107 0 1582 2 17 286
112 106 0 1588 1 21 286
114 97 0 1586 2 10 286
116 86 0 1600 2 18 286
118 72 0 1626 1 15 286
120 66 0 1611 4 25 286
122 68 0 1623 2 20 286
124 65 0 1628 0 22 286
126 64 0 1624 1 21 286
128 58 1 1619 0 21 286
130 48 0 1631 2 26 286
132 44 0 1648 1 12 286
134 40 0 1639 2 17 286
136 43 0 1639 0 24 286
138 36 0 1649 0 21 286
140 33 0 1661 2 16 286
142 31 0 1658 0 20 286
144 28 0 1661 0 19 286
146 26 0 1676 0 11 286
148 25 0 1668 0 13 286
150 23 0 1663 0 24 286
152 21 0 1673 0 23 286
154 18 0 1681 0 20 286
156 16 0 1679 0 17 286
158 13 0 1672 0 16 286
160 13 0 1675 0 15 286
162 9 0 1680 0 22 286
164 10 0 1689 1 14 286
166 10 0 1702 0 23 286
168 10 0 1715 0 10 286
170 8 0 1712 0 15 286
172 8 0 1698 0 13 286
174 8 0 1690 0 21 286
176 7 0 1707 0 14 286
178 4 0 1696 0 23 286
180 2 0 1707 0 12 286
182 2 0 1694 0 20 286
184 2 0 1694 0 18 286
186 2 0 1685 0 20 286
188 2 0 1692 0 15 286
190 1 0 1681 0 26 286
192 2 0 1667 0 26 286
194 1 0 1685 0 18 286
196 1 0 1682 0 16 286
198 1 0 1683 0 22 286
200 1 0 1695 0 19 286
