0 1139 0 0 0 0 0
2 1056 0 0 80 0 0
4.00004 1027 0 0 107 0 0
6 988 0 0 152 0 0
8 976 0 0 152 0 0
10 977 0 0 158 0 0
12 971 0 0 162 0 0
14 957 0 0 175 0 0
16 936 0 0 195 0 0
18 925 0 0 196 0 0
20 918 0 0 194 0 0
22 908 0 0 215 0 0
24 899 0 0 227 0 0
26 885 0 0 242 0 0
28 900 0 0 222 0 0
30 913 0 0 198 0 0
32 922 0 0 188 0 0
34 922 0 0 191 0 0
36 923 0 0 191 0 0
38 907 0 0 214 0 0
40 917 0 0 214 0 0
42 904 0 0 216 0 0
44 890 0 0 231 0 0
46 898 0 0 235 0 0
48 916 0 0 211 0 0
50 904 0 0 213 0 0
52 895 0 1 176 46 0
54 884 0 8 150 74 0
56 877 0 12 132 88 0
58 877 0 23 115 97 0
60 875 0 34 108 102 0
62 856 0 48 114 89 0
64 834 0 52 123 101 0
66 824 0 62 119 127 0
68 816 0 68 108 136 0
70 793 0 86 115 125 0
72 780 0 97 112 127 0
74 781 0 122 96 123 0
76 766 0 131 89 126 0
78 756 0 144 92 119 0
80 742 0 155 97 139 0
82 737 0 171 96 129 0
84 719 0 175 95 135 0
86 706 0 189 99 129 0
88 687 0 211 101 116 0
90 671 0 224 108 134 0
92 664 0 237 104 127 0
94 652 0 251 96 126 0
96 640 0 256 98 132 0
98 625 0 276 97 127 0
100 628 0 277 78 142 0
102 602 0 293 92 137 0
104 604 0 308 78 131 0
106 577 0 314 91 139 0
108 578 0 318 79 153 0
110 565 0 339 73 150 0
112 546 0 350 85 140 0
114 541 0 360 82 157 0
116 545 0 371 67 157 0
118 543 0 386 57 149 0
120 533 0 396 55 159 0
122 521 0 392 59 180 0
124 500 0 406 74 157 0
126 492 0 411 70 168 0
128 489 0 414 62 175 0
130 473 0 431 69 167 0
132 471 0 439 64 164 0
134 454 0 453 72 157 0
136 440 0 461 73 173 0
138 434 0 458 71 172 0
140 427 0 467 69 179 0
142 423 0 481 64 187 0
144 407 0 490 69 182 0
146 414 0 490 59 191 0
148 420 0 497 45 181 0
150 410 0 487 48 204 0
152 404 0 511 50 180 0
154 402 0 526 45 178 0
156 396 0 546 46 161 0
158 393 0 543 45 169 0
160 387 0 547 45 174 0
162 375 0 543 51 194 0
164 369 0 557 51 174 0
166 367 0 547 50 189 0
168 361 0 562 47 180 0
170 358 0 556 37 205 0
172 353 0 569 36 181 0
174 341 0 581 44 185 0
176 344 0 588 34 191 0
178 331 0 600 43 184 0
180 334 0 600 31 193 0
182 328 0 600 32 193 0
184 318 0 613 39 186 0
186 319 0 613 35 179 0
188 313 0 626 37 186 0
190 298 0 623 49 193 0
192 301 0 635 40 189 0
194 301 0 634 37 198 0
196 302 0 654 32 183 0
198 286 0 664 44 185 0
200 280 0 672 45 177 0
