0 942 0 0 0 0 0
2 875 25 0 45 0 2
4.00004 865 14 0 61 0 6
6 862 9 0 72 0 3
8 835 4 0 94 0 13
10 825 5 0 90 0 14
12 820 1 0 105 0 12
14 810 1 0 114 0 23
16 802 1 0 122 0 19
18 809 0 0 103 0 27
20 795 1 0 121 0 22
22 791 0 0 117 0 34
24 765 1 0 142 0 28
26 764 0 0 150 0 29
28 773 0 0 138 0 25
30 773 0 0 133 0 25
32 756 0 0 153 0 28
34 762 0 0 135 0 25
36 767 0 0 131 0 31
38 768 0 0 133 0 36
40 762 0 0 147 0 28
42 769 0 0 129 0 28
44 771 0 0 128 0 25
46 763 0 0 139 0 28
48 766 0 0 131 0 28
50 768 0 0 118 0 35
52 751 0 1 86 86 0
54 749 0 10 66 101 0
56 738 0 20 61 104 0
58 716 0 31 66 108 0
60 701 0 39 63 116 0
62 689 0 56 60 121 0
64 678 0 65 58 130 0
66 654 0 75 66 128 0
68 644 0 88 60 121 0
70 643 0 94 46 125 0
72 639 0 103 39 135 0
74 629 0 114 43 129 0
76 611 0 127 54 119 0
78 592 0 135 57 120 0
80 596 0 150 43 131 0
82 579 0 160 51 118 0
84 569 0 176 49 116 0
86 558 0 184 46 113 0
88 562 0 186 34 121 0
90 546 0 200 40 115 0
92 543 0 206 36 120 0
94 527 0 216 47 108 1
96 520 0 216 45 127 0
98 520 0 218 36 133 0
100 503 0 234 42 125 0
102 495 0 241 44 131 0
104 496 0 248 37 125 0
106 496 0 265 27 124 0
108 484 0 274 35 114 0
110 481 0 276 31 115 0
112 466 0 282 40 113 0
114 449 0 283 49 125 0
116 441 0 299 45 114 0
118 431 0 308 49 110 0
120 423 0 315 41 115 0
122 421 0 319 34 125 0
124 409 0 328 37 135 0
126 405 0 334 31 137 0
128 392 0 342 34 138 0
130 384 0 344 31 145 0
132 376 0 352 33 131 0
134 373 0 356 23 147 0
136 358 0 361 31 140 0
138 360 0 370 25 136 1
140 348 0 390 30 121 1
142 350 0 374 23 140 0
144 341 0 388 25 131 0
146 327 0 386 34 140 0
148 318 0 383 32 155 0
150 324 0 385 21 148 0
152 306 0 403 33 143 0
154 308 0 409 25 132 0
156 303 0 404 25 138 0
158 295 0 420 24 127 0
160 294 0 427 24 133 1
162 291 0 431 16 134 0
164 285 0 432 18 134 0
166 272 0 443 29 133 0
168 255 0 451 41 128 0
170 257 0 447 31 131 0
172 248 0 453 26 140 0
174 240 0 454 30 135 0
176 237 0 463 27 137 0
178 240 0 473 17 126 0
180 241 0 467 12 143 0
182 236 0 480 17 144 0
184 227 0 485 20 142 0
186 230 0 497 14 131 0
188 228 0 496 12 133 0
190 220 0 498 17 136 0
192 219 0 500 13 142 0
194 216 0 483 14 163 0
196 219 0 506 9 135 0
198 212 0 509 13 142 0
200 211 0 517 13 141 0
