0 1173 0 0 0 0 0
2 1093 0 0 79 0 6
4.00004 1054 0 0 98 0 13
6 1058 0 0 97 0 9
8 1043 0 0 100 0 12
10 1041 0 0 93 0 12
12 1022 0 0 112 0 11
14 1006 0 0 111 0 8
16 1014 0 0 100 0 11
18 1010 0 0 94 0 9
20 998 0 0 116 0 14
22 1005 0 0 82 0 9
24 1004 0 0 85 0 13
26 999 0 0 94 0 16
28 989 0 0 105 0 10
30 992 0 0 102 0 10
32 986 0 0 91 0 14
34 980 0 0 88 0 12
36 978 0 0 98 0 13
38 958 0 0 103 0 12
40 973 0 0 79 0 7
42 950 0 0 98 0 7
44 939 0 0 97 0 12
46 940 0 0 96 0 10
48 943 0 0 92 0 11
50 943 0 0 96 0 8
52 915 0 32 42 78 0
54 871 0 70 43 69 0
56 842 0 109 35 68 0
58 800 0 145 31 77 1
60 762 0 176 28 78 0
62 710 0 211 40 74 0
64 674 0 249 26 81 0
66 637 0 279 30 80 0
68 615 0 305 19 88 1
70 581 0 336 22 69 0
72 551 0 359 24 77 0
74 517 0 383 27 101 0
76 491 0 414 30 82 0
78 474 0 436 17 90 0
80 450 0 469 13 83 0
82 433 0 471 18 86 0
84 414 0 497 17 77 0
86 400 0 509 18 85 0
88 385 0 529 15 100 0
90 373 0 548 13 93 0
92 354 0 556 15 103 1
94 340 0 571 12 89 0
96 322 0 587 14 84 0
98 315 0 592 14 78 0
100 302 0 606 12 91 0
102 275 0 616 20 87 0
104 265 0 623 17 99 0
106 252 0 634 9 92 0
108 236 0 656 11 99 0
110 222 0 655 11 102 0
112 215 0 676 9 91 0
114 207 0 690 7 85 0
116 200 0 689 5 112 0
118 192 0 700 5 99 0
120 184 0 709 6 107 0
122 173 0 713 8 127 0
124 166 0 731 9 98 0
126 162 0 736 4 108 0
128 149 0 750 11 101 0
130 146 0 757 7 104 0
132 135 0 763 9 97 0
134 131 0 770 4 87 0
136 118 0 758 11 114 0
138 113 0 774 6 96 0
140 109 0 772 5 104 0
142 103 0 766 4 123 0
144 96 0 794 6 110 0
146 93 0 803 4 106 0
148 85 0 798 8 97 1
150 73 0 799 8 101 0
152 73 0 805 5 100 0
154 70 0 806 3 113 0
156 72 0 825 0 106 0
158 69 0 839 3 98 0
160 67 0 839 2 103 0
162 62 0 855 6 102 0
164 61 0 850 4 118 0
166 55 0 867 5 99 0
168 57 0 860 0 107 0
170 54 0 876 1 99 0
172 50 0 878 3 95 0
174 52 0 877 0 104 0
176 50 0 864 2 113 0
178 47 0 867 3 121 0
180 45 0 860 2 124 0
182 44 0 870 2 115 0
184 44 0 873 2 97 0
186 41 0 877 3 101 0
188 39 0 891 2 110 0
190 40 0 871 0 115 0
192 37 0 903 2 97 0
194 38 0 908 0 95 0
196 37 0 916 0 110 0
198 36 0 908 0 114 0
200 34 0 915 2 95 0
