0 1270 0 0 0 0 0
2 1202 0 0 81 0 0
4.00004 1173 0 0 118 0 0
6 1174 0 0 127 0 0
8 1172 0 0 126 0 0
10 1172 0 0 123 0 0
12 1163 0 0 133 0 0
14 1158 0 0 138 0 0
16 1140 0 0 156 0 0
18 1150 0 0 153 0 0
20 1138 0 0 161 0 0
22 1147 0 0 142 0 0
24 1152 0 0 141 0 0
26 1144 0 0 158 0 0
28 1154 0 0 136 0 0
30 1153 0 0 150 0 0
32 1159 0 0 152 0 0
34 1166 0 0 145 0 0
36 1164 0 0 153 0 0
38 1154 0 0 164 0 0
40 1152 0 0 159 0 0
42 1155 0 0 160 0 0
44 1141 0 0 168 0 0
46 1149 0 0 151 0 0
48 1134 0 0 155 0 0
50 1119 0 0 180 0 0
52 1150 0 5 76 57 0
54 1122 0 19 79 86 0
56 1098 0 48 77 84 0
58 1057 0 69 84 92 0
60 1033 0 86 81 109 0
62 1025 0 112 58 89 0
64 1003 0 127 65 102 0
66 984 0 150 62 97 0
68 952 0 183 68 79 0
70 929 0 192 65 104 0
72 924 0 213 52 94 0
74 904 0 227 48 95 0
76 883 0 244 51 102 0
78 857 0 264 58 88 0
80 854 0 277 46 82 0
82 836 0 288 47 95 0
84 807 0 304 55 96 0
86 788 0 326 55 88 0
88 774 0 344 50 85 0
90 763 0 347 44 108 0
92 736 0 357 51 113 0
94 727 0 370 48 101 0
96 709 0 397 50 100 0
98 695 0 413 35 109 0
100 675 0 434 39 96 0
102 660 0 449 40 96 0
104 640 0 458 40 111 0
106 620 0 468 45 120 0
108 613 0 485 39 122 0
110 610 0 507 29 101 0
112 596 0 521 34 109 0
114 576 0 530 45 110 0
116 569 0 550 37 92 0
118 554 0 556 38 100 0
120 547 0 571 30 113 0
122 523 0 565 41 122 0
124 516 0 596 36 102 0
126 503 0 600 40 120 0
128 504 0 610 30 111 0
130 489 0 618 34 120 0
132 469 0 621 39 124 0
134 456 0 648 39 120 0
136 444 0 663 39 121 0
138 437 0 676 33 115 0
140 430 0 686 32 118 0
142 417 0 702 35 128 0
144 419 0 703 21 140 0
146 417 0 718 16 121 0
148 399 0 715 28 133 0
150 394 0 702 28 149 0
152 389 0 724 24 123 0
154 373 0 736 28 129 0
156 368 0 749 26 119 0
158 356 0 733 29 136 0
160 354 0 738 15 148 0
162 337 0 757 22 138 0
164 333 0 744 14 157 0
166 328 0 774 16 126 0
168 319 0 785 22 121 0
170 316 0 798 14 128 0
172 307 0 795 20 132 0
174 296 0 806 21 131 0
176 295 0 814 17 125 0
178 285 0 819 18 129 0
180 275 0 847 18 114 0
182 269 0 842 21 121 0
184 271 0 830 12 138 0
186 256 0 844 22 126 0
188 249 0 843 21 127 0
190 244 0 861 19 125 0
192 245 0 888 10 108 0
194 246 0 887 8 114 0
196 238 0 888 14 132 0
198 226 0 896 22 144 0
200 219 0 897 21 138 0
