0 1696 0 0 0 0 317
2 1648 6 0 42 0 299
4.00004 1647 11 0 41 0 304
6 1653 8 0 37 0 301
8 1638 10 0 43 0 312
10 1658 6 0 35 0 299
12 1651 8 0 36 0 302
14 1628 14 0 40 0 298
16 1643 13 0 38 0 279
18 1652 6 0 34 0 298
20 1648 7 0 40 0 309
22 1640 11 0 42 0 299
24 1632 12 0 47 0 292
26 1646 7 0 41 0 296
28 1659 9 0 30 0 295
30 1651 6 0 42 0 297
32 1648 4 0 41 0 290
34 1630 9 0 47 0 303
36 1634 11 0 35 0 299
38 1638 6 0 41 0 307
40 1649 7 0 38 0 298
42 1639 10 0 43 0 299
44 1656 6 0 42 0 298
46 1647 9 0 35 0 299
48 1656 7 0 37 0 284
50 1644 8 0 34 0 297
52 1413 0 228 45 3 299
54 1277 0 361 47 2 317
56 1147 0 485 40 9 300
58 1034 0 598 32 11 293
60 946 0 701 25 13 296
62 874 0 765 28 9 312
64 792 0 849 24 17 310
66 714 0 926 19 20 290
68 657 1 997 15 18 306
70 608 0 1035 25 24 318
72 559 0 1088 15 20 312
74 510 0 1143 16 23 304
76 479 0 1172 16 21 288
78 444 0 1206 16 24 302
80 401 0 1251 13 25 301
82 362 0 1286 14 28 302
84 327 0 1313 10 40 308
86 307 0 1332 12 31 305
88 280 0 1378 11 15 299
90 278 0 1384 11 27 314
92 259 0 1396 8 29 304
94 243 0 1418 9 36 302
96 230 0 1440 10 29 298
98 212 0 1447 9 30 310
100 203 0 1459 6 42 299
102 190 0 1476 6 34 294
104 175 0 1498 8 29 310
106 157 0 1496 6 29 294
108 136 0 1517 9 26 305
110 127 0 1519 6 35 296
112 125 0 1504 3 42 292
114 118 0 1515 5 21 297
116 110 0 1517 6 41 313
118 117 0 1508 3 45 302
120 105 0 1525 4 42 303
122 90 0 1553 4 28 292
124 84 0 1551 3 39 308
126 79 1 1550 3 38 288
128 72 0 1553 7 31 296
130 72 0 1564 6 31 305
132 66 0 1572 2 30 306
134 59 0 1573 1 33 292
136 56 0 1558 3 39 302
138 48 0 1575 4 42 295
140 46 0 1601 2 28 298
142 45 0 1591 4 45 314
144 46 0 1606 3 31 310
146 36 0 1600 3 49 283
148 39 0 1597 3 40 305
150 35 0 1599 2 41 294
152 32 0 1618 3 38 317
154 41 0 1620 0 41 297
156 37 0 1627 1 38 308
158 37 0 1630 0 38 308
160 35 0 1627 1 46 299
162 34 0 1635 0 46 304
164 34 0 1656 2 31 282
166 32 0 1653 0 43 301
168 29 0 1644 1 46 287
170 23 0 1659 0 40 301
172 24 0 1641 2 41 302
174 24 0 1644 0 44 304
176 23 0 1658 1 38 301
178 20 0 1646 0 53 310
180 24 0 1653 0 45 294
182 23 0 1654 0 37 308
184 18 0 1650 0 50 310
186 19 0 1652 0 45 297
188 14 0 1652 1 47 283
190 12 0 1669 1 38 304
192 13 0 1661 0 37 288
194 13 0 1649 0 47 287
196 12 0 1664 1 38 302
198 12 0 1655 1 50 297
200 8 0 1651 1 48 286
