0 496 0 0 0 0 286
2 465 0 0 49 0 293
4.00004 485 0 0 49 0 288
6 484 0 0 54 0 306
8 484 0 0 56 0 315
10 474 0 0 69 0 301
12 498 0 0 59 0 297
14 507 0 0 49 0 314
16 506 0 0 67 0 293
18 520 0 0 50 0 303
20 511 0 0 57 0 300
22 511 0 0 59 0 316
24 518 0 0 54 0 302
26 528 0 0 50 0 301
28 521 0 0 60 0 309
30 514 0 0 62 0 299
32 530 0 0 50 0 297
34 531 0 0 60 0 294
36 518 0 0 71 0 310
38 539 0 0 49 0 300
40 530 0 0 62 0 294
42 557 0 0 43 0 301
44 545 0 0 54 0 297
46 545 0 0 68 0 305
48 553 0 0 64 0 295
50 565 0 0 56 0 292
52 555 0 0 65 1 293
54 563 0 5 54 0 309
56 556 0 7 67 3 295
58 575 0 16 44 5 305
60 561 0 24 58 0 303
62 563 0 27 54 3 302
64 556 0 36 54 5 297
66 562 0 49 42 7 308
68 530 0 64 61 6 309
70 516 0 67 60 15 291
72 499 0 80 67 16 282
74 509 0 93 43 15 297
76 494 0 106 48 11 304
78 496 0 124 34 12 293
80 470 0 127 50 18 295
82 474 0 133 38 23 302
84 458 0 144 45 17 315
86 442 0 154 49 13 305
88 437 0 163 44 15 303
90 433 0 169 36 20 304
92 421 0 175 34 18 302
94 403 0 187 46 12 283
96 387 0 188 49 18 291
98 377 0 200 45 21 301
100 382 0 210 29 25 291
102 368 0 220 36 23 308
104 362 0 231 28 29 303
106 337 0 241 39 21 289
108 337 0 247 32 34 304
110 334 0 256 29 32 304
112 324 0 258 28 30 298
114 314 0 256 37 39 307
116 282 0 267 49 30 292
118 299 0 277 26 37 308
120 288 0 288 29 34 304
122 270 0 301 41 34 305
124 287 0 299 16 40 291
126 271 0 316 26 33 291
128 259 0 321 25 40 311
130 250 0 340 28 31 297
132 244 0 331 28 39 305
134 237 0 337 28 44 306
136 226 0 359 25 33 291
138 217 0 345 26 54 294
140 203 0 370 31 37 301
142 206 0 384 19 50 295
144 197 0 386 21 39 304
146 196 0 398 15 37 304
148 180 0 394 25 48 300
150 185 0 412 18 48 305
152 178 0 420 22 42 287
154 179 0 432 21 42 292
156 184 0 430 13 49 303
158 179 0 457 16 32 294
160 172 0 434 18 50 305
162 167 0 441 18 51 301
164 169 0 450 14 44 313
166 164 0 458 16 42 298
168 153 0 451 18 46 304
170 155 0 452 13 62 297
172 147 0 468 20 53 304
174 150 0 474 18 51 289
176 143 0 480 15 58 303
178 145 0 479 12 55 305
180 140 0 479 11 53 303
182 132 0 485 18 60 304
184 131 0 495 10 48 308
186 125 0 497 9 44 297
188 117 0 484 15 60 297
190 114 0 506 13 47 297
192 116 0 508 10 53 302
194 106 0 527 19 42 310
196 116 0 494 7 59 308
198 106 0 499 15 58 294
200 107 0 507 8 56 309
