0 404 0 0 0 0 283
2 365 0 0 39 0 301
4.00004 357 0 0 44 0 296
6 362 0 0 40 0 299
8 373 0 0 36 0 288
10 358 0 0 43 0 301
12 365 0 0 40 0 298
14 367 0 0 51 0 302
16 361 0 0 45 0 321
18 378 0 0 30 0 302
20 357 0 0 48 0 291
22 368 0 0 39 0 301
24 360 0 0 49 0 308
26 359 0 0 47 0 304
28 357 0 0 45 0 305
30 368 0 0 33 0 303
32 366 0 0 41 0 310
34 369 0 0 45 0 297
36 374 0 0 46 0 301
38 367 0 0 48 0 293
40 348 0 0 58 0 302
42 372 0 0 36 0 301
44 360 0 0 36 0 302
46 364 0 0 45 0 301
48 366 0 0 34 0 316
50 355 0 0 59 0 303
52 369 0 0 41 1 301
54 359 0 3 51 0 283
56 364 0 8 44 3 300
58 370 0 19 35 1 307
60 350 0 24 40 1 304
62 355 0 33 30 6 288
64 330 0 41 41 6 290
66 326 0 54 31 10 310
68 312 0 67 28 5 294
70 279 0 79 42 8 282
72 284 0 87 32 15 288
74 271 0 93 33 11 296
76 258 0 114 30 10 312
78 236 0 121 38 15 298
80 241 0 127 25 17 299
82 225 0 139 28 18 298
84 228 0 141 20 21 292
86 218 0 153 23 24 295
88 207 0 168 23 18 301
90 196 0 165 13 26 286
92 183 0 178 20 27 296
94 164 0 178 25 27 298
96 154 0 190 22 25 302
98 144 0 215 18 25 290
100 135 0 217 14 24 301
102 128 0 225 12 29 306
104 123 0 228 10 29 290
106 120 0 255 11 26 306
108 114 0 250 13 35 295
110 104 0 262 18 29 304
112 111 0 274 10 31 308
114 107 0 285 11 38 303
116 99 0 276 14 37 287
118 89 0 287 10 41 298
120 86 0 298 11 29 297
122 87 0 298 6 34 308
124 78 0 304 12 29 292
126 78 0 308 9 34 312
128 72 0 317 10 38 304
130 71 0 316 5 35 295
132 70 0 318 7 35 294
134 71 0 325 5 33 308
136 63 0 324 8 49 298
138 66 0 328 2 35 305
140 60 0 324 8 31 302
142 57 0 312 6 40 286
144 55 0 312 3 44 290
146 50 0 320 9 33 317
148 47 0 336 4 34 295
150 45 0 328 6 44 306
152 44 0 322 4 39 283
154 35 0 310 6 47 303
156 34 0 314 5 44 292
158 27 0 317 7 44 292
160 28 0 330 3 30 301
162 21 0 321 6 37 296
164 23 0 323 1 30 318
166 23 0 312 1 36 299
168 23 0 309 1 47 313
170 22 0 327 3 26 299
172 20 0 329 1 42 298
174 20 0 340 1 27 296
176 18 0 319 1 42 299
178 16 0 318 3 44 290
180 14 0 319 0 45 306
182 13 0 344 1 28 292
184 11 0 332 4 35 290
186 13 0 331 1 39 303
188 13 0 346 0 27 317
190 11 0 320 1 48 296
192 11 0 321 0 57 312
194 8 0 346 1 36 313
196 8 0 347 1 29 298
198 8 0 333 1 40 303
200 8 0 346 1 37 314
