0 486 0 0 0 0 316
2 455 0 0 43 0 299
4.00004 471 0 0 34 0 301
6 474 0 0 33 0 298
8 468 0 0 33 0 299
10 452 0 0 32 0 292
12 454 0 0 30 0 307
14 453 0 0 35 0 298
16 446 0 0 31 0 298
18 442 0 0 34 0 288
20 453 0 0 25 0 304
22 448 0 0 39 0 292
24 454 0 0 30 0 292
26 459 0 0 28 0 304
28 465 0 0 41 0 303
30 486 0 0 27 0 298
32 483 0 0 36 0 312
34 471 0 0 42 0 299
36 473 0 0 36 0 298
38 469 0 0 38 0 295
40 471 0 0 35 0 295
42 458 0 0 44 0 308
44 464 0 0 40 0 297
46 461 0 0 46 0 296
48 468 0 0 40 0 311
50 473 0 0 33 0 302
52 482 0 0 31 1 304
54 474 0 2 38 1 313
56 485 0 6 32 4 295
58 468 0 19 34 2 301
60 446 0 26 35 2 297
62 445 0 29 30 5 311
64 433 0 40 34 5 302
66 413 0 52 40 6 306
68 411 0 57 30 7 298
70 407 0 68 27 8 310
72 388 0 75 37 12 297
74 386 0 90 27 6 311
76 372 0 102 30 8 297
78 359 0 103 24 15 299
80 346 0 117 29 9 303
82 335 0 122 25 17 299
84 337 0 134 17 15 315
86 317 0 143 24 17 304
88 309 0 161 19 20 309
90 299 0 177 15 9 308
92 286 0 178 19 17 305
94 279 0 179 18 18 276
96 259 0 186 19 14 300
98 232 0 192 28 15 304
100 231 0 196 14 21 287
102 221 0 214 13 18 300
104 219 0 221 8 20 306
106 206 0 225 14 16 296
108 199 0 231 14 21 297
110 194 0 236 9 26 298
112 187 0 250 11 17 285
114 181 0 255 8 28 288
116 176 0 266 8 25 289
118 170 0 278 8 20 290
120 157 0 286 10 18 300
122 149 0 287 10 26 309
124 145 0 300 8 25 304
126 143 0 306 4 28 302
128 134 0 308 9 25 302
130 127 0 326 10 13 302
132 119 0 314 10 28 299
134 114 0 319 11 22 295
136 120 0 325 3 22 309
138 104 0 325 9 31 313
140 104 0 324 8 31 298
142 99 0 320 5 26 294
144 96 0 338 7 22 301
146 98 0 339 2 20 307
148 92 0 337 7 23 313
150 89 0 327 3 25 294
152 79 0 329 10 25 312
154 73 0 334 7 23 297
156 69 0 335 8 23 294
158 67 0 335 5 26 310
160 65 0 344 5 18 325
162 62 0 341 6 24 302
164 60 0 350 4 32 306
166 59 0 357 2 26 306
168 55 0 357 1 28 293
170 52 0 379 1 20 311
172 45 0 373 3 24 310
174 41 0 378 2 31 298
176 40 0 383 2 39 307
178 38 0 386 3 40 304
180 37 0 393 1 25 295
182 29 0 402 4 30 300
184 27 0 396 4 37 297
186 27 0 408 1 28 305
188 22 0 413 2 30 305
190 21 0 398 0 31 285
192 20 0 396 0 36 323
194 17 0 404 3 25 307
196 17 0 406 0 26 306
198 17 0 411 1 24 303
200 18 0 423 1 16 309
