0 70 0 0 0
2 70 0 0 0
4.00004 70 0 0 0
6 70 0 0 0
8 70 0 0 0
10 70 0 0 0
12 71 0 0 0
14 71 0 0 0
16 71 0 0 0
18 71 0 0 0
20 71 0 0 0
22 71 0 0 0
24 71 0 0 0
26 70 0 0 0
28 70 0 0 0
30 69 0 0 0
32 68 0 0 0
34 68 0 0 0
36 68 0 0 0
38 68 0 0 0
40 68 0 0 0
42 68 0 0 0
44 68 0 0 0
46 68 0 0 0
48 68 0 0 0
50 68 0 0 0
52 68 0 0 0
54 68 0 0 0
56 68 0 0 0
58 68 1 0 0
60 67 1 0 0
62 68 1 0 0
64 68 1 0 0
66 68 1 0 0
68 68 1 0 0
70 68 1 0 0
72 67 1 0 0
74 67 1 0 0
76 67 1 0 0
78 67 1 0 0
80 67 1 0 0
82 66 2 0 0
84 65 2 0 0
86 63 2 0 0
88 63 2 0 0
90 62 3 0 0
92 62 3 0 0
94 62 3 0 0
96 62 3 0 0
98 62 3 0 0
100 62 3 0 0
102 62 3 0 0
104 63 3 0 0
106 63 4 0 0
108 63 4 0 0
110 63 4 0 0
112 63 4 0 0
114 63 4 0 0
116 63 4 0 0
118 63 4 0 0
120 63 4 0 0
122 63 4 0 0
124 63 4 0 0
126 63 4 0 0
128 63 4 0 0
130 63 4 0 0
132 63 4 0 0
134 62 4 0 0
136 61 4 0 0
138 61 4 0 0
140 60 4 0 0
142 60 4 0 0
144 60 4 0 0
146 60 4 0 0
148 60 4 0 0
150 60 5 0 0
152 60 4 0 0
154 60 4 0 0
156 60 4 0 0
158 60 4 0 0
160 60 4 0 0
162 60 4 0 0
164 60 4 0 0
166 60 4 0 0
168 60 4 0 0
170 60 6 0 0
172 60 6 0 0
174 60 7 0 0
176 60 7 0 0
178 60 7 0 0
180 60 7 0 0
182 60 7 0 0
184 60 7 0 0
186 60 7 0 0
188 60 7 0 0
190 60 7 0 0
192 60 7 0 0
194 60 7 0 0
196 60 8 0 0
198 60 10 0 0
200 59 10 0 0
202 59 11 0 0
204 59 11 0 0
206 59 11 0 0
208 59 11 0 0
210 59 11 0 0
212 59 11 0 0
214 59 12 0 0
216 59 12 0 0
218 59 13 0 0
220 59 13 0 0
222 59 13 0 0
224 59 13 0 0
226 58 15 0 0
228 58 15 0 0
230 58 17 0 0
232 58 17 0 0
234 58 17 0 0
236 57 16 0 0
238 57 16 0 0
240 57 16 0 0
242 58 16 0 0
244 58 16 0 0
246 58 16 0 0
248 58 16 0 0
250 57 16 0 0
252 57 17 0 0
254 57 18 0 0
256 56 17 0 0
258 56 17 0 0
260 56 17 0 0
262 56 17 0 0
264 56 17 0 0
266 56 17 0 0
268 56 17 0 0
270 55 17 0 0
272 55 18 0 0
274 54 18 0 0
276 54 17 0 0
278 54 18 0 0
280 53 17 0 0
282 53 17 0 0
284 53 18 0 0
286 54 18 0 0
288 54 18 0 0
290 54 18 0 0
292 54 18 0 0
294 54 18 0 0
296 54 17 0 0
298 54 17 0 0
300 53 17 0 0
302 53 17 0 0
304 53 18 0 0
306 53 19 0 0
308 53 19 0 0
310 53 19 0 0
