0 76 0 0 0
2 76 0 0 0
4.00004 76 0 0 0
6 74 0 0 0
8 74 0 0 0
10 73 0 1 0
12 74 0 0 0
14 74 0 0 0
16 74 1 1 0
18 74 1 0 0
20 74 1 0 0
22 74 1 0 0
24 74 1 0 0
26 74 1 0 0
28 74 2 0 0
30 74 2 0 0
32 74 2 0 0
34 74 2 0 0
36 74 2 0 0
38 74 2 0 0
40 74 2 0 0
42 74 2 0 0
44 74 3 0 0
46 74 3 0 0
48 72 3 0 0
50 72 3 0 0
52 72 3 0 0
54 72 3 0 0
56 72 4 0 0
58 71 4 0 0
60 71 5 0 0
62 71 6 0 0
64 71 7 0 0
66 71 7 0 0
68 70 8 0 0
70 70 9 0 0
72 70 10 0 0
74 70 10 0 0
76 70 10 0 0
78 69 10 0 0
80 69 10 0 0
82 69 10 0 0
84 69 10 0 0
86 69 10 0 0
88 69 10 0 0
90 69 10 0 0
92 69 10 0 0
94 67 10 0 0
96 67 11 0 0
98 67 11 0 0
100 66 13 0 0
102 65 13 0 0
104 65 13 0 0
106 65 14 0 0
108 65 14 0 0
110 65 14 0 0
112 65 14 0 0
114 65 14 0 0
116 65 15 0 0
118 65 15 0 0
120 65 15 0 0
122 65 15 0 0
124 65 15 0 0
126 64 15 0 0
128 64 16 0 0
130 64 16 0 0
132 64 16 0 0
134 64 16 0 0
136 64 15 0 0
138 64 15 0 0
140 64 16 0 0
142 64 16 0 0
144 64 16 0 0
146 64 16 0 0
148 64 17 0 0
150 64 17 0 0
152 64 17 0 0
154 64 17 0 0
156 64 17 0 0
158 64 17 0 0
160 64 17 0 0
162 64 17 0 0
164 64 17 0 0
166 63 17 0 0
168 63 17 0 0
170 63 17 0 0
172 63 16 0 0
174 63 17 0 0
176 63 17 0 0
178 63 17 0 0
180 63 17 0 0
182 62 18 0 0
184 62 18 0 0
186 61 19 0 0
188 61 19 0 0
190 61 19 0 0
192 61 19 0 0
194 61 19 0 0
196 61 19 0 0
198 61 19 0 0
200 61 19 0 0
202 60 19 0 0
204 60 19 0 0
206 59 19 0 0
208 58 18 0 0
210 58 18 0 0
212 58 19 0 0
214 58 21 0 0
216 57 21 0 0
218 57 21 0 0
220 56 22 0 0
222 56 22 0 0
224 56 22 0 0
226 56 23 0 0
228 56 23 0 0
230 56 23 0 0
232 56 23 0 0
234 56 23 0 0
236 56 23 0 0
238 56 23 0 0
240 56 23 0 0
242 56 23 0 0
244 55 24 1 0
246 54 24 0 0
248 54 25 0 0
250 54 25 0 0
252 54 26 0 0
254 54 26 0 0
256 54 26 0 0
258 53 26 0 0
260 53 26 0 0
262 53 26 0 0
264 51 27 0 0
266 49 27 0 0
268 49 27 0 0
270 49 27 0 0
272 50 28 0 0
274 50 28 0 0
276 50 28 0 0
278 50 28 0 0
280 50 30 0 0
282 50 31 0 0
284 50 31 0 0
286 50 31 0 0
288 50 30 0 0
290 50 31 0 0
292 50 31 0 0
294 50 31 0 0
296 50 31 0 0
298 50 31 0 0
300 50 31 0 0
302 49 31 0 0
304 49 31 0 0
306 49 31 0 0
308 49 31 0 0
310 49 31 0 0
