0 73 0 0 0
2 72 0 0 0
4.00004 72 0 0 0
6 72 0 0 0
8 71 0 0 0
10 71 0 0 0
12 60 11 0 0
14 56 15 0 0
16 46 25 0 0
18 42 30 0 0
20 36 36 0 0
22 30 42 0 0
24 28 44 0 0
26 24 47 0 0
28 19 52 0 0
30 18 53 0 0
32 17 54 0 0
34 17 54 0 0
36 17 54 0 0
38 14 57 0 0
40 13 60 0 0
42 14 60 0 0
44 12 62 0 0
46 11 63 0 0
48 11 63 0 0
50 11 64 0 0
52 11 63 0 0
54 11 63 0 0
56 11 64 0 0
58 9 66 0 0
60 9 65 0 0
62 9 65 0 0
64 8 66 0 0
66 8 66 0 0
68 7 66 0 0
70 7 66 0 0
72 6 66 0 0
74 4 67 0 0
76 4 66 0 0
78 4 66 0 0
80 4 66 0 0
82 4 65 0 0
84 2 67 0 0
86 1 68 0 0
88 0 69 0 0
90 0 69 0 0
92 0 69 0 0
94 0 69 0 0
96 0 69 0 0
98 0 69 0 0
100 0 69 0 0
102 1 69 0 0
104 1 69 0 0
106 1 69 0 0
108 1 69 0 0
110 1 68 0 0
112 1 68 0 0
114 1 68 0 0
116 1 67 0 0
118 1 67 0 0
120 0 68 0 0
122 0 68 0 0
124 0 68 0 0
126 0 68 0 0
128 0 68 0 0
130 1 68 0 0
132 1 68 0 0
134 1 67 0 0
136 1 67 0 0
138 1 67 0 0
140 1 67 0 0
142 1 67 0 0
144 1 66 0 0
146 1 66 0 0
148 2 66 0 0
150 2 66 0 0
152 1 66 0 0
154 1 66 0 0
156 1 67 0 0
158 1 67 0 0
160 1 67 0 0
162 1 67 0 0
164 0 68 0 0
166 1 68 0 0
168 1 68 0 0
170 1 68 0 0
172 1 68 0 0
174 1 68 0 0
176 1 67 0 0
178 0 68 0 0
180 0 67 0 0
182 0 67 0 0
184 0 67 0 0
186 0 67 0 0
188 1 66 0 0
190 1 66 0 0
192 0 65 0 0
194 0 65 0 0
196 0 65 0 0
198 0 65 0 0
200 0 65 0 0
202 0 64 0 0
204 0 65 0 0
206 0 65 0 0
208 0 65 0 0
210 0 64 0 0
212 0 64 0 0
214 0 64 0 0
216 0 64 0 0
218 0 64 0 0
220 0 64 0 0
222 0 64 0 0
224 0 64 0 0
226 0 64 0 0
228 0 64 0 0
230 0 64 0 0
232 1 64 0 0
234 2 64 0 0
236 2 64 0 0
238 2 64 0 0
240 2 63 0 0
242 2 62 0 0
244 2 62 0 0
246 1 64 0 0
248 1 64 0 0
250 1 64 0 0
252 0 65 0 0
254 0 65 0 0
256 0 65 0 0
258 0 65 0 0
260 0 65 0 0
262 0 64 0 0
264 0 64 0 0
266 0 64 0 0
268 0 64 0 0
270 0 64 0 0
272 0 64 0 0
274 0 64 0 0
276 0 64 0 0
278 0 63 0 0
280 0 63 0 0
282 0 63 0 0
284 0 63 0 0
286 0 63 0 0
288 0 63 0 0
290 0 62 0 0
292 1 61 0 0
294 1 62 0 0
296 2 62 0 0
298 2 62 0 0
300 2 62 0 0
302 3 62 0 0
304 3 62 0 0
306 3 62 0 0
308 3 61 0 0
310 2 61 0 0
