0 73 0 0 0
2 73 0 0 0
4.00004 74 0 0 0
6 74 0 0 0
8 74 0 0 0
10 74 0 0 0
12 74 0 0 0
14 74 0 0 0
16 73 0 0 0
18 73 0 0 0
20 73 0 0 0
22 73 0 0 0
24 72 1 0 0
26 73 1 0 0
28 73 1 0 0
30 72 1 0 0
32 71 1 0 0
34 71 1 0 0
36 71 1 0 0
38 71 1 0 0
40 70 1 0 0
42 70 1 0 0
44 70 1 0 0
46 70 1 0 0
48 70 1 0 0
50 70 1 0 0
52 71 1 0 0
54 70 1 0 0
56 70 2 0 0
58 71 2 0 0
60 70 2 0 0
62 69 3 1 0
64 70 3 0 0
66 70 3 0 0
68 69 3 0 0
70 69 3 0 0
72 69 3 0 0
74 69 3 0 0
76 69 3 0 0
78 69 3 0 0
80 68 3 0 0
82 68 3 0 0
84 68 3 0 0
86 68 3 0 0
88 68 3 0 0
90 68 3 0 0
92 68 3 0 0
94 68 3 0 0
96 68 3 0 0
98 68 4 0 0
100 68 4 0 0
102 67 4 0 0
104 66 4 0 0
106 66 4 0 0
108 66 4 0 0
110 66 4 0 0
112 65 4 0 0
114 64 4 0 0
116 64 4 0 0
118 64 4 0 0
120 63 4 0 0
122 63 4 0 1
124 63 5 0 0
126 63 5 0 0
128 63 5 0 0
130 62 5 0 0
132 62 4 0 0
134 62 4 0 0
136 62 4 0 0
138 62 4 0 0
140 62 4 0 0
142 62 4 0 0
144 61 4 0 0
146 61 4 0 0
148 61 4 0 0
150 60 4 0 0
152 60 4 0 0
154 60 4 0 0
156 60 4 0 0
158 60 4 0 0
160 60 5 0 0
162 60 6 0 0
164 60 6 0 0
166 60 6 0 0
168 60 6 0 0
170 60 6 0 0
172 60 6 0 0
174 60 6 0 0
176 59 6 0 0
178 59 6 0 0
180 59 6 0 0
182 59 6 0 0
184 59 6 0 0
186 59 6 0 0
188 59 6 0 0
190 59 6 0 0
192 59 6 0 0
194 59 7 0 0
196 59 7 0 0
198 58 7 1 0
200 59 7 0 0
202 59 7 0 0
204 59 7 0 0
206 59 7 0 0
208 58 7 0 0
210 58 7 0 0
212 58 7 0 0
214 58 7 0 0
216 57 8 0 0
218 56 9 0 0
220 56 9 0 0
222 56 9 0 0
224 56 10 0 0
226 56 10 0 0
228 56 10 0 0
230 56 10 0 0
232 56 9 0 0
234 56 9 0 0
236 55 9 1 0
238 56 9 0 0
240 56 9 0 0
242 56 9 0 0
244 55 9 0 0
246 55 9 0 0
248 55 9 0 0
250 55 9 0 0
252 55 9 0 0
254 54 9 0 0
256 55 9 0 0
258 54 10 0 0
260 54 10 0 0
262 54 11 0 0
264 53 11 0 0
266 53 11 0 0
268 53 12 0 0
270 53 12 0 0
272 53 12 0 0
274 52 12 0 0
276 52 12 0 0
278 52 12 0 0
280 52 12 0 0
282 52 13 0 0
284 52 13 0 0
286 52 13 0 0
288 52 13 0 0
290 52 13 0 0
292 52 13 0 0
294 52 12 0 0
296 52 12 0 0
298 52 13 0 0
300 52 13 0 0
302 52 13 0 0
304 52 13 0 0
306 52 13 0 0
308 52 12 0 0
310 52 12 0 0
