0 78 0 0 0
2 79 0 0 0
4.00004 80 0 0 0
6 80 0 0 0
8 81 0 0 0
10 80 0 0 0
12 62 19 0 0
14 55 26 0 0
16 49 32 0 0
18 37 44 0 0
20 32 49 0 0
22 26 55 0 0
24 25 57 0 0
26 22 60 0 0
28 23 61 0 0
30 20 64 0 0
32 16 68 0 0
34 13 71 0 0
36 11 73 0 0
38 10 73 0 0
40 11 73 0 0
42 10 74 0 0
44 9 75 0 0
46 8 75 0 0
48 8 75 0 0
50 7 76 0 0
52 6 77 0 0
54 5 78 0 0
56 5 79 0 0
58 5 79 0 0
60 5 79 0 0
62 5 79 0 0
64 4 80 0 0
66 3 81 0 0
68 3 80 0 0
70 3 80 0 1
72 3 78 0 0
74 3 78 0 0
76 3 78 0 0
78 6 78 0 1
80 6 79 0 0
82 6 79 0 0
84 5 80 0 0
86 5 79 0 0
88 4 80 0 0
90 4 80 0 0
92 3 81 0 0
94 3 81 0 0
96 3 81 0 0
98 1 82 0 0
100 1 82 0 0
102 1 82 0 0
104 1 82 0 0
106 1 83 0 0
108 1 83 0 0
110 1 83 0 0
112 2 83 0 0
114 2 83 0 0
116 2 83 0 0
118 2 83 0 0
120 0 85 0 0
122 0 85 0 0
124 0 85 0 0
126 0 85 0 0
128 0 84 0 0
130 0 84 0 0
132 1 84 0 0
134 1 84 0 0
136 1 84 0 0
138 2 83 0 0
140 1 83 0 0
142 1 83 0 0
144 2 82 0 0
146 3 82 0 0
148 3 82 0 0
150 3 82 0 0
152 2 83 0 0
154 1 84 0 0
156 1 84 0 0
158 1 84 0 0
160 2 84 0 0
162 2 84 0 0
164 2 84 0 0
166 1 82 0 1
168 1 82 0 0
170 2 82 0 0
172 2 82 0 0
174 2 82 0 0
176 1 83 0 0
178 1 83 0 0
180 1 83 0 0
182 1 83 0 0
184 0 84 0 0
186 0 84 0 0
188 0 85 0 0
190 0 84 0 0
192 0 84 0 0
194 0 84 0 0
196 1 84 0 0
198 1 84 0 0
200 1 84 0 0
202 1 84 0 0
204 1 84 0 0
206 1 83 0 0
208 1 83 0 0
210 1 82 0 0
212 1 82 0 0
214 0 82 0 0
216 0 83 0 0
218 0 83 0 0
220 0 82 0 0
222 0 82 0 0
224 0 82 0 0
226 0 82 0 0
228 0 82 0 0
230 0 82 0 0
232 0 82 0 0
234 0 82 0 0
236 0 82 0 0
238 0 83 0 0
240 0 83 0 0
242 0 83 0 0
244 0 83 0 0
246 0 84 0 0
248 0 84 0 0
250 0 84 0 0
252 0 84 0 0
254 0 84 0 0
256 0 84 0 0
258 0 84 0 0
260 0 84 0 0
262 0 84 0 0
264 0 84 0 0
266 0 84 0 0
268 0 84 0 0
270 0 84 0 0
272 0 83 0 0
274 0 83 0 0
276 0 83 0 0
278 0 83 0 0
280 1 83 0 0
282 1 82 0 0
284 1 82 0 0
286 1 83 0 0
288 1 83 0 0
290 1 83 0 0
292 1 83 0 0
294 1 83 0 0
296 1 83 0 0
298 1 83 0 0
300 1 83 0 0
302 1 83 0 0
304 2 83 0 0
306 2 83 0 0
308 2 82 0 0
310 1 83 0 0
