0 76 0 0 0
2 76 0 0 0
4.00004 76 0 0 0
6 76 0 0 0
8 76 0 0 0
10 77 0 0 0
12 62 14 0 0
14 56 20 0 0
16 50 25 0 0
18 46 30 0 0
20 42 33 0 0
22 43 34 0 0
24 37 40 0 0
26 34 43 0 0
28 32 45 0 0
30 31 46 0 0
32 30 47 0 0
34 26 49 0 0
36 23 52 0 0
38 22 53 0 0
40 20 55 0 0
42 17 58 0 0
44 13 62 0 0
46 13 62 0 0
48 13 62 0 0
50 12 63 0 0
52 10 64 0 0
54 8 66 0 0
56 6 68 0 0
58 5 68 0 0
60 6 68 0 0
62 6 68 0 0
64 6 68 0 0
66 6 68 0 0
68 5 69 0 0
70 4 70 0 0
72 4 70 0 0
74 4 69 0 0
76 3 70 0 0
78 3 70 0 0
80 3 70 0 0
82 3 70 0 0
84 3 70 0 0
86 3 70 0 0
88 3 70 0 0
90 4 70 0 0
92 4 70 0 0
94 4 70 0 0
96 4 70 0 0
98 3 71 0 0
100 3 71 0 0
102 3 71 0 0
104 4 71 0 0
106 3 72 0 0
108 2 73 0 0
110 2 73 0 0
112 2 73 0 0
114 2 73 0 0
116 2 73 0 0
118 1 74 0 0
120 0 75 0 0
122 0 74 0 0
124 0 74 0 0
126 0 74 0 0
128 0 74 0 0
130 0 74 0 0
132 0 74 0 0
134 0 74 0 0
136 0 74 0 0
138 0 74 0 0
140 0 74 0 0
142 1 74 0 0
144 2 74 0 0
146 2 74 0 0
148 3 74 0 0
150 2 74 0 0
152 2 74 0 0
154 2 73 0 0
156 3 73 0 0
158 2 73 0 0
160 3 73 0 0
162 2 73 0 0
164 2 73 0 0
166 2 73 0 0
168 2 72 0 0
170 2 72 0 0
172 2 72 0 0
174 2 72 0 0
176 2 72 0 0
178 2 72 0 0
180 2 72 0 0
182 2 72 0 0
184 2 72 0 0
186 2 72 0 0
188 3 72 0 0
190 4 72 0 0
192 4 72 0 0
194 3 73 0 0
196 2 73 0 0
198 2 73 0 0
200 2 73 0 0
202 1 75 0 0
204 1 75 0 0
206 1 74 0 0
208 2 73 0 0
210 2 73 0 0
212 2 73 0 0
214 3 73 0 0
216 3 73 0 0
218 2 75 0 0
220 2 75 0 0
222 2 75 0 0
224 2 75 0 0
226 2 75 0 0
228 2 75 0 0
230 2 75 0 0
232 2 75 0 0
234 2 74 0 0
236 0 75 0 0
238 0 75 0 0
240 0 75 0 0
242 0 75 0 0
244 0 75 0 0
246 0 75 0 0
248 0 75 0 0
250 0 75 0 0
252 0 75 0 0
254 0 75 0 0
256 0 75 0 0
258 0 74 0 1
260 0 74 0 0
262 0 74 0 0
264 0 73 0 0
266 0 73 0 0
268 0 73 0 0
270 0 72 0 0
272 0 72 0 0
274 0 72 0 0
276 0 72 0 0
278 0 71 0 0
280 0 72 0 0
282 0 72 0 0
284 0 72 0 0
286 0 73 0 0
288 0 73 0 0
290 0 73 0 0
292 0 73 0 0
294 0 73 0 0
296 0 73 0 0
298 0 72 0 0
300 1 72 0 0
302 3 72 0 0
304 3 72 0 0
306 3 72 0 0
308 3 72 0 0
310 3 72 0 0
