0 74 0 0 0
2 74 0 0 0
4.00004 74 0 0 0
6 76 0 0 0
8 76 0 0 0
10 76 0 0 0
12 62 14 0 0
14 52 24 0 0
16 44 30 0 0
18 45 30 0 0
20 39 36 0 0
22 29 46 0 0
24 28 47 0 0
26 25 50 0 0
28 21 53 0 0
30 19 55 0 0
32 18 56 0 0
34 16 58 0 0
36 14 60 0 0
38 12 62 0 0
40 10 64 0 0
42 10 64 0 0
44 8 65 0 0
46 7 66 0 0
48 7 68 0 0
50 6 69 0 0
52 5 70 0 0
54 5 70 0 0
56 4 70 0 0
58 5 70 0 0
60 4 70 0 0
62 4 69 0 0
64 4 68 0 0
66 4 68 0 0
68 5 67 0 0
70 4 67 0 0
72 4 66 0 0
74 4 66 0 0
76 4 66 0 0
78 5 66 0 0
80 5 66 0 0
82 3 68 0 0
84 2 69 0 0
86 1 70 0 0
88 1 70 0 0
90 1 70 0 0
92 1 70 0 0
94 1 70 2 0
96 3 69 0 0
98 3 69 0 0
100 3 68 0 0
102 3 69 0 0
104 2 70 0 0
106 1 70 0 0
108 1 70 0 0
110 1 70 0 0
112 0 71 0 0
114 0 71 0 0
116 0 70 0 0
118 0 70 0 0
120 0 70 0 0
122 0 70 0 0
124 0 70 0 0
126 1 70 0 0
128 1 69 0 0
130 1 69 0 0
132 1 69 0 0
134 1 69 0 0
136 1 70 0 0
138 1 70 0 0
140 1 69 0 0
142 0 70 0 0
144 0 70 0 0
146 0 70 0 0
148 0 69 0 0
150 0 69 0 0
152 0 69 0 0
154 0 69 0 0
156 0 69 0 0
158 0 69 0 0
160 0 69 0 0
162 0 69 0 0
164 0 69 0 0
166 1 69 0 0
168 1 69 0 0
170 1 69 0 0
172 1 70 0 0
174 1 69 0 0
176 0 70 0 0
178 0 70 0 0
180 0 70 0 0
182 1 69 0 0
184 1 69 0 0
186 2 68 0 0
188 2 68 0 0
190 2 68 0 0
192 2 68 0 0
194 1 69 0 0
196 1 69 0 0
198 1 69 0 0
200 1 69 0 0
202 2 69 0 0
204 1 70 0 0
206 1 71 0 0
208 2 72 0 0
210 1 73 0 0
212 1 72 0 0
214 1 70 0 0
216 2 70 0 0
218 2 70 0 0
220 3 69 0 0
222 3 69 0 0
224 2 70 0 0
226 2 69 0 0
228 2 69 0 0
230 1 70 0 0
232 1 70 0 0
234 1 70 0 0
236 1 70 0 0
238 1 70 0 0
240 1 70 0 0
242 1 70 0 0
244 1 69 0 0
246 3 69 0 0
248 3 68 0 0
250 2 69 0 0
252 1 69 0 0
254 1 69 0 0
256 1 69 0 0
258 2 69 0 0
260 2 69 0 0
262 1 70 0 0
264 3 69 0 0
266 5 69 0 0
268 4 70 0 0
270 4 70 0 0
272 2 70 0 0
274 2 70 0 0
276 2 70 0 0
278 2 70 0 0
280 2 68 0 0
282 2 67 0 0
284 2 67 0 0
286 2 67 0 0
288 1 69 0 0
290 1 68 0 0
292 0 69 0 0
294 0 69 0 0
296 0 69 0 0
298 0 69 0 0
300 0 69 0 0
302 1 69 0 0
304 0 70 0 0
306 0 70 0 0
308 0 70 0 0
310 0 70 0 0
