0 61 0 0 0
2 60 0 0 0
4.00004 59 0 0 0
6 59 0 0 0
8 60 0 0 0
10 60 0 0 0
12 59 0 0 0
14 60 0 0 0
16 60 0 0 0
18 60 0 0 0
20 60 0 0 0
22 60 0 0 0
24 60 0 0 0
26 60 0 0 0
28 60 0 0 0
30 60 0 0 0
32 59 0 0 0
34 59 1 0 0
36 59 1 0 0
38 59 1 0 0
40 59 1 0 0
42 59 1 0 0
44 59 1 0 0
46 59 1 0 0
48 58 1 0 0
50 58 1 0 0
52 58 1 0 0
54 58 1 0 0
56 58 1 0 0
58 58 1 0 0
60 58 1 0 0
62 58 1 0 0
64 58 1 0 0
66 58 1 0 0
68 56 1 0 0
70 55 1 0 0
72 55 1 0 0
74 55 1 0 0
76 55 1 0 1
78 54 2 0 0
80 53 2 0 0
82 53 2 0 0
84 53 2 0 0
86 53 2 0 0
88 53 2 0 0
90 53 3 0 0
92 53 3 0 0
94 52 3 0 0
96 52 3 0 0
98 52 3 0 0
100 52 3 0 0
102 51 3 0 0
104 51 4 0 0
106 51 4 0 0
108 51 4 0 0
110 51 4 0 0
112 51 4 0 0
114 51 5 0 0
116 51 5 0 0
118 51 5 0 0
120 51 5 0 0
122 51 5 0 0
124 51 5 0 0
126 51 6 0 0
128 51 6 0 0
130 51 7 0 0
132 51 7 0 0
134 51 7 0 0
136 51 7 0 0
138 51 6 0 0
140 51 6 0 0
142 51 6 0 0
144 51 6 0 0
146 51 6 0 0
148 51 6 0 0
150 51 6 0 0
152 51 6 0 0
154 51 6 0 0
156 51 6 0 0
158 51 6 0 0
160 51 6 0 0
162 51 6 0 0
164 51 8 0 0
166 49 8 0 0
168 49 8 0 0
170 49 8 0 0
172 50 8 0 0
174 50 9 0 0
176 50 9 0 0
178 50 9 0 0
180 50 9 0 0
182 49 9 0 0
184 49 9 0 0
186 49 11 0 0
188 49 11 0 0
190 49 11 0 0
192 49 11 0 0
194 49 11 0 0
196 48 11 0 0
198 48 11 0 0
200 48 11 0 0
202 48 11 0 0
204 48 11 0 0
206 48 11 0 0
208 48 11 0 0
210 47 11 0 0
212 47 11 0 0
214 47 11 0 0
216 47 11 0 0
218 47 12 0 0
220 47 12 0 0
222 47 13 0 0
224 47 13 0 0
226 47 13 0 0
228 46 13 0 0
230 46 13 0 0
232 46 13 0 0
234 46 13 0 0
236 46 13 0 0
238 45 13 0 0
240 45 14 0 0
242 44 14 0 0
244 44 14 0 0
246 44 14 0 0
248 44 14 0 0
250 44 14 0 0
252 44 14 0 0
254 44 14 0 0
256 44 14 0 0
258 44 14 0 0
260 44 13 0 0
262 43 13 1 0
264 44 13 0 0
266 44 12 0 0
268 44 12 0 0
270 44 12 0 0
272 44 13 0 0
274 44 13 0 0
276 44 13 0 0
278 44 13 0 0
280 44 13 0 0
282 43 13 0 0
284 43 13 0 0
286 43 13 0 0
288 43 13 0 0
290 43 13 0 0
292 43 13 0 0
294 43 13 0 0
296 43 13 0 0
298 43 13 0 0
300 43 13 0 0
302 43 13 0 0
304 43 14 0 0
306 43 14 0 0
308 43 14 0 0
310 43 14 0 0
