0 53 0 0 0
2 53 0 0 0
4.00004 53 0 0 0
6 54 0 0 0
8 54 0 0 0
10 54 0 0 0
12 54 0 0 0
14 56 0 0 0
16 55 0 0 0
18 54 0 0 0
20 54 0 0 0
22 54 0 0 0
24 54 0 0 0
26 54 0 0 0
28 54 0 0 0
30 55 0 0 0
32 55 0 0 0
34 55 0 0 0
36 55 0 0 0
38 55 0 0 0
40 55 0 0 0
42 54 0 0 0
44 54 0 0 0
46 54 0 0 0
48 54 0 0 0
50 54 0 0 0
52 54 1 0 0
54 54 2 0 0
56 54 2 0 0
58 54 2 0 0
60 53 2 0 0
62 53 2 0 0
64 53 2 0 0
66 53 2 0 0
68 53 2 0 0
70 53 2 0 0
72 53 3 0 0
74 53 3 0 0
76 53 3 0 0
78 53 3 0 0
80 53 3 0 0
82 53 3 0 0
84 52 3 0 0
86 52 3 0 0
88 52 3 0 0
90 52 3 0 0
92 52 3 0 0
94 52 4 0 0
96 52 4 0 0
98 52 5 0 0
100 52 5 0 0
102 52 5 0 0
104 52 5 0 0
106 52 6 0 0
108 51 6 0 0
110 51 6 0 0
112 51 6 0 0
114 51 6 0 0
116 51 6 0 0
118 51 6 0 0
120 51 7 0 0
122 51 7 0 0
124 51 8 0 0
126 51 9 0 0
128 51 9 0 0
130 51 9 0 0
132 51 9 0 0
134 51 9 0 0
136 51 9 0 0
138 51 9 0 0
140 51 9 0 0
142 51 9 0 0
144 51 9 0 0
146 51 10 0 0
148 51 10 0 0
150 51 10 0 0
152 51 10 0 0
154 51 11 0 0
156 51 11 0 0
158 51 12 0 0
160 51 12 0 0
162 51 13 0 0
164 51 13 0 0
166 51 13 0 0
168 51 13 0 0
170 51 13 0 0
172 51 13 0 0
174 51 13 0 0
176 51 13 0 0
178 51 14 0 0
180 51 14 0 0
182 51 14 0 0
184 50 15 0 0
186 50 16 0 0
188 50 16 0 0
190 50 16 0 0
192 49 18 0 0
194 49 19 0 0
196 49 19 0 0
198 49 20 0 0
200 49 20 0 0
202 49 20 0 0
204 49 20 0 0
206 49 20 0 0
208 49 21 0 0
210 49 21 0 0
212 49 21 0 0
214 49 21 0 0
216 49 21 0 0
218 49 22 0 0
220 49 22 0 0
222 49 21 0 0
224 49 21 0 0
226 49 21 0 0
228 49 21 0 0
230 49 21 0 0
232 49 21 0 0
234 49 21 0 0
236 49 21 0 0
238 49 21 0 0
240 48 21 0 0
242 48 20 0 0
244 48 20 0 0
246 48 20 0 0
248 48 21 0 0
250 48 23 0 0
252 48 23 0 0
254 47 24 0 0
256 47 24 0 0
258 47 24 0 0
260 47 24 0 0
262 47 25 0 0
264 46 25 0 0
266 46 25 0 0
268 46 26 0 0
270 46 26 0 0
272 45 26 0 0
274 45 26 0 0
276 45 26 0 0
278 45 26 0 0
280 45 26 0 0
282 45 26 0 0
284 45 26 0 0
286 45 26 0 0
288 44 26 0 0
290 43 26 0 0
292 43 26 0 0
294 43 26 0 0
296 42 26 1 0
298 43 26 0 0
300 43 26 0 0
302 43 26 0 0
304 43 26 0 0
306 43 26 0 0
308 42 26 0 0
310 42 27 0 0
