0 84 0 0 0
2 83 0 0 0
4.00004 83 0 0 0
6 83 0 0 0
8 83 0 0 0
10 83 0 0 0
12 68 15 0 0
14 57 26 0 0
16 51 32 0 0
18 47 36 0 0
20 42 41 0 0
22 35 48 0 0
24 32 51 0 0
26 28 55 0 0
28 27 58 0 0
30 26 59 0 0
32 23 61 0 0
34 19 66 0 0
36 18 66 0 0
38 16 66 0 0
40 15 67 0 0
42 15 67 0 0
44 11 71 0 0
46 9 71 0 0
48 9 71 0 0
50 7 73 0 0
52 5 75 0 0
54 4 76 0 0
56 4 76 0 0
58 2 78 0 0
60 2 78 0 0
62 1 78 0 0
64 2 78 0 0
66 2 77 0 0
68 2 77 0 0
70 1 78 0 0
72 2 78 0 0
74 2 77 0 0
76 2 77 0 0
78 2 76 0 0
80 1 77 0 0
82 1 77 0 0
84 0 78 0 0
86 0 77 0 0
88 0 77 0 0
90 0 77 0 0
92 0 77 0 0
94 0 77 0 0
96 0 76 0 0
98 1 76 0 0
100 1 76 0 0
102 1 76 0 0
104 1 77 0 0
106 1 77 0 0
108 2 77 0 0
110 1 78 0 0
112 2 78 0 0
114 2 77 0 0
116 4 77 0 0
118 3 77 0 0
120 1 79 0 0
122 0 80 0 0
124 0 80 0 0
126 0 80 0 0
128 0 79 0 1
130 0 80 0 0
132 0 80 0 0
134 0 80 0 0
136 0 79 0 1
138 0 80 0 0
140 1 80 0 0
142 2 80 0 0
144 2 80 0 0
146 3 80 0 0
148 3 80 0 0
150 3 80 0 0
152 3 80 0 0
154 2 81 0 0
156 2 81 0 0
158 3 81 0 0
160 2 82 0 0
162 2 82 0 0
164 3 81 0 0
166 3 80 0 0
168 2 80 1 0
170 3 80 0 0
172 2 82 0 0
174 2 82 0 0
176 2 82 0 0
178 2 82 0 0
180 2 81 0 0
182 2 81 0 0
184 2 81 0 0
186 2 81 0 0
188 2 81 0 0
190 1 82 0 0
192 1 82 0 0
194 1 81 0 0
196 1 81 0 0
198 1 81 0 0
200 1 81 0 0
202 1 81 0 0
204 1 81 0 0
206 1 81 0 0
208 1 81 0 0
210 1 81 0 0
212 1 81 0 0
214 0 82 0 0
216 0 82 0 0
218 0 82 0 0
220 0 81 0 0
222 0 81 0 0
224 0 81 0 0
226 0 81 0 0
228 0 81 0 0
230 0 81 0 0
232 0 81 0 0
234 0 81 0 0
236 0 81 0 0
238 0 82 0 0
240 0 82 0 0
242 0 81 0 0
244 0 81 0 0
246 0 81 0 0
248 0 81 0 0
250 0 80 0 0
252 0 81 0 0
254 0 81 0 0
256 0 81 0 0
258 0 81 0 0
260 1 81 0 0
262 1 80 0 0
264 1 80 0 0
266 2 80 0 0
268 2 80 0 0
270 2 79 0 0
272 2 80 0 0
274 3 79 0 0
276 3 79 0 0
278 3 79 0 0
280 3 80 0 0
282 3 80 0 0
284 2 80 0 0
286 2 80 0 0
288 3 80 0 0
290 3 80 0 0
292 4 81 0 0
294 4 80 0 0
296 4 81 0 0
298 4 81 0 0
300 4 81 0 0
302 3 82 0 0
304 3 81 0 0
306 3 82 0 0
308 3 82 0 0
310 2 83 0 0
