0 72 0 0 0
2 72 0 0 0
4.00004 72 0 0 0
6 72 0 0 0
8 72 0 0 0
10 72 0 0 0
12 72 0 0 0
14 72 0 0 0
16 73 0 0 0
18 74 0 0 0
20 74 0 0 0
22 74 0 0 0
24 74 0 0 0
26 74 0 0 0
28 74 0 0 0
30 74 0 0 0
32 74 0 0 0
34 74 0 0 0
36 74 0 0 0
38 73 0 0 0
40 73 0 0 0
42 72 0 0 0
44 72 1 0 0
46 72 1 0 0
48 72 1 0 0
50 72 1 0 0
52 72 1 0 0
54 72 1 0 0
56 72 2 0 0
58 72 2 0 0
60 72 2 0 0
62 72 2 0 0
64 72 2 0 0
66 72 2 0 0
68 72 2 0 0
70 71 2 0 0
72 71 2 0 0
74 71 2 0 0
76 71 2 0 0
78 71 2 0 0
80 71 2 0 0
82 71 2 0 0
84 71 2 0 0
86 71 2 0 0
88 71 2 0 0
90 71 2 0 0
92 70 2 0 0
94 70 2 0 0
96 70 4 0 0
98 69 4 0 0
100 69 5 0 0
102 69 5 0 0
104 69 5 0 0
106 69 5 0 0
108 69 5 0 0
110 69 5 0 0
112 69 6 0 0
114 68 6 0 0
116 68 6 0 0
118 68 6 0 0
120 68 6 0 1
122 68 5 0 0
124 67 5 0 0
126 66 5 0 0
128 66 5 0 0
130 64 5 1 0
132 65 5 0 0
134 65 5 0 0
136 65 5 0 0
138 65 6 0 0
140 65 6 0 0
142 65 6 0 0
144 65 6 0 0
146 65 6 0 0
148 65 6 0 0
150 65 6 0 1
152 65 7 0 0
154 65 7 0 0
156 64 7 0 0
158 64 7 0 0
160 64 7 0 0
162 64 7 0 0
164 64 7 0 0
166 64 7 0 1
168 64 7 0 0
170 63 7 0 0
172 63 6 0 0
174 63 6 0 0
176 63 6 0 0
178 63 6 0 0
180 63 6 0 0
182 62 6 0 0
184 62 6 0 0
186 62 6 0 0
188 62 6 0 0
190 62 6 0 0
192 62 6 0 0
194 62 6 0 0
196 62 6 0 0
198 62 6 0 0
200 61 6 0 0
202 61 6 0 0
204 61 6 0 0
206 61 6 0 0
208 61 6 0 0
210 61 6 0 0
212 61 6 0 0
214 60 6 0 0
216 61 6 0 0
218 61 7 0 0
220 61 7 0 0
222 61 7 0 0
224 61 9 0 0
226 60 9 0 0
228 59 9 0 0
230 59 9 0 0
232 60 10 0 0
234 59 11 0 0
236 59 11 0 0
238 59 12 0 0
240 59 13 0 0
242 59 13 0 0
244 59 13 0 0
246 59 14 0 0
248 59 14 0 0
250 59 14 0 0
252 59 14 0 0
254 59 14 0 0
256 59 15 0 0
258 59 16 0 0
260 58 16 0 0
262 58 16 0 0
264 58 16 0 0
266 58 16 0 0
268 58 17 0 0
270 58 17 0 0
272 58 17 0 0
274 58 17 0 0
276 58 17 0 0
278 58 17 0 0
280 58 17 0 0
282 58 17 0 0
284 58 17 0 0
286 58 17 0 0
288 58 17 0 0
290 58 17 0 0
292 58 17 0 0
294 58 17 0 0
296 58 17 0 0
298 58 17 0 0
300 58 17 0 0
302 58 17 0 0
304 58 17 0 0
306 58 17 0 0
308 58 17 0 0
310 58 17 0 0
