0 69 0 0 0
2 67 0 4 0
4.00004 69 0 2 0
6 69 0 2 0
8 67 0 4 0
10 68 0 2 0
12 70 0 2 0
14 71 0 0 0
16 68 0 4 0
18 68 0 3 0
20 69 0 1 0
22 68 0 2 0
24 69 0 3 0
26 68 0 4 0
28 68 0 4 0
30 71 0 0 0
32 69 0 3 0
34 69 0 3 0
36 72 0 1 0
38 72 0 1 0
40 72 0 1 0
42 68 0 3 0
44 67 0 5 0
46 72 0 0 0
48 69 0 3 0
50 69 0 3 0
52 65 6 0 0
54 52 17 2 0
56 41 27 1 0
58 35 30 7 0
60 31 36 4 1
62 28 41 1 0
64 24 45 2 0
66 23 46 1 0
68 21 47 1 1
70 20 51 1 0
72 17 51 2 2
74 15 51 1 3
76 13 54 2 1
78 13 55 0 1
80 10 58 1 0
82 10 59 0 1
84 10 59 0 1
86 7 61 2 0
88 8 59 1 2
90 8 61 0 0
92 9 61 0 1
94 8 60 0 2
96 6 60 1 3
98 7 60 1 2
100 6 62 1 1
102 7 62 1 2
104 8 60 0 4
106 7 62 0 2
108 6 61 1 5
110 6 61 0 5
112 4 63 1 3
114 2 62 2 3
116 2 65 3 2
118 5 67 1 0
120 4 67 1 0
122 4 65 0 2
124 5 65 0 3
126 5 67 2 1
128 6 65 1 2
130 6 67 0 0
132 6 67 1 1
134 5 67 1 1
136 7 66 0 2
138 5 67 0 2
140 5 66 0 3
142 4 64 0 5
144 3 68 1 1
146 1 67 0 3
148 1 69 1 1
150 3 67 0 4
152 1 66 2 3
154 4 68 0 2
156 4 66 1 3
158 0 67 1 2
160 3 66 2 3
162 3 70 2 0
164 2 69 4 1
166 4 68 1 1
168 3 67 3 2
170 4 67 2 2
172 4 68 0 1
174 3 68 1 1
176 5 67 0 2
178 4 68 0 2
180 3 68 2 1
182 4 69 0 1
184 4 67 1 3
186 3 70 0 0
188 4 69 0 1
190 3 70 0 1
192 3 71 0 0
194 1 71 1 0
196 2 69 0 2
198 3 67 0 4
200 4 70 1 1
202 3 69 0 2
204 0 68 2 4
206 1 70 1 1
208 3 71 0 0
210 3 70 1 1
212 3 69 1 1
214 3 68 1 2
216 4 69 0 1
218 2 69 2 0
220 3 68 0 2
222 2 70 1 0
224 2 71 1 0
226 1 70 3 1
228 3 71 0 1
230 3 71 0 2
232 4 69 0 3
234 4 71 0 1
236 3 73 0 0
238 2 74 0 0
240 2 72 0 1
242 2 72 0 1
244 3 70 0 2
246 1 72 2 1
248 1 72 2 1
250 4 72 0 1
252 3 73 0 0
254 1 75 1 0
256 2 72 0 3
258 2 73 0 0
260 2 72 0 1
262 0 67 1 6
264 1 69 0 5
266 1 71 0 1
268 0 70 0 4
270 0 72 0 2
272 0 72 0 1
274 0 70 0 2
276 0 69 1 3
278 1 73 0 0
280 0 69 1 3
282 0 74 1 0
284 0 74 0 0
286 0 70 0 2
288 0 70 0 1
290 0 67 0 4
292 1 70 0 1
294 2 71 0 0
296 1 70 1 0
298 2 70 0 0
300 0 70 1 0
302 0 67 0 4
304 1 71 1 0
306 0 70 0 1
308 0 69 0 2
310 0 69 0 1
312 0 69 0 0
314 1 68 0 1
316 1 69 0 0
318 1 68 0 1
320 1 68 0 1
322 1 68 0 1
324 0 69 1 0
326 1 68 0 1
328 1 68 1 2
330 1 70 1 0
332 2 68 0 2
334 2 68 0 2
336 1 69 1 1
338 1 70 0 1
340 0 67 1 3
342 0 70 1 2
344 0 69 1 3
346 0 70 0 2
348 0 69 1 0
350 1 69 0 1
