0 65 0 0 0
2 61 0 3 0
4.00004 60 0 2 0
6 60 0 2 0
8 61 0 2 0
10 62 0 2 0
12 63 0 3 0
14 61 0 3 0
16 63 0 3 0
18 64 0 2 0
20 61 0 2 0
22 64 0 2 0
24 65 0 2 0
26 65 0 3 0
28 67 0 1 0
30 63 0 5 0
32 63 0 6 0
34 64 0 5 0
36 64 0 4 0
38 66 0 2 0
40 63 0 6 0
42 66 0 2 0
44 66 0 3 0
46 66 0 2 0
48 62 0 5 0
50 65 0 3 0
52 49 13 2 0
54 44 19 3 0
56 38 24 3 0
58 33 29 3 1
60 25 36 3 1
62 28 36 0 2
64 25 41 0 0
66 21 44 1 1
68 18 45 1 2
70 12 50 2 2
72 8 54 5 0
74 11 53 2 1
76 11 56 3 0
78 9 56 3 0
80 8 58 3 0
82 8 57 2 1
84 9 59 2 0
86 5 62 3 0
88 4 61 5 1
90 5 62 4 0
92 7 62 2 0
94 4 62 3 1
96 8 61 1 2
98 6 62 3 2
100 7 62 0 1
102 3 61 4 1
104 5 60 2 1
106 5 61 3 1
108 7 60 1 2
110 3 64 1 1
112 4 63 1 2
114 3 65 1 1
116 4 64 1 1
118 4 62 1 2
120 3 62 2 2
122 5 63 0 0
124 3 59 1 3
126 4 60 1 4
128 3 61 1 3
130 4 61 1 2
132 4 61 0 2
134 4 61 2 2
136 4 62 0 2
138 4 65 1 0
140 6 62 0 2
142 6 62 1 2
144 7 64 1 0
146 3 64 2 2
148 4 65 0 3
150 3 65 1 1
152 2 65 2 2
154 3 64 2 2
156 4 63 1 4
158 4 66 1 1
160 4 63 0 3
162 5 63 0 5
164 3 65 1 3
166 6 64 0 3
168 6 62 1 4
170 5 67 1 0
172 5 66 2 1
174 6 64 1 3
176 4 67 2 1
178 3 65 3 2
180 4 62 1 5
182 5 66 0 1
184 4 65 0 2
186 3 63 1 3
188 5 65 2 1
190 2 65 1 1
192 2 65 0 1
194 1 64 2 1
196 2 65 1 1
198 4 66 0 1
200 4 65 0 1
202 4 64 0 3
204 3 64 1 3
206 2 64 2 2
208 2 64 2 2
210 2 65 1 2
212 3 66 0 3
214 1 68 0 2
216 1 66 0 2
218 0 66 1 2
220 1 65 0 3
222 1 64 0 4
224 1 65 0 3
226 1 65 0 1
228 2 64 0 3
230 1 67 2 2
232 3 64 0 3
234 3 64 0 3
236 3 63 0 3
238 3 61 0 5
240 2 63 1 4
242 1 65 1 0
244 2 63 1 2
246 3 64 0 1
248 2 64 0 1
250 2 66 0 1
252 2 66 0 1
254 1 66 0 2
256 1 67 0 0
258 1 65 0 2
260 1 64 0 3
262 1 64 1 3
264 2 64 0 3
266 1 64 1 3
268 2 66 1 1
270 2 64 0 2
272 0 65 1 2
274 1 63 0 4
276 2 66 0 1
278 1 65 0 3
280 1 64 0 4
282 1 66 1 2
284 1 63 0 4
286 2 64 0 4
288 2 63 1 5
290 1 66 1 2
292 3 65 1 3
294 1 65 1 3
296 0 63 3 4
298 3 63 0 3
300 4 65 1 1
302 1 66 3 1
304 3 66 1 2
306 4 65 0 3
308 3 66 1 2
310 3 65 1 1
312 3 66 1 1
314 5 66 0 3
316 5 65 1 4
318 5 66 0 3
320 4 67 0 2
322 4 65 0 5
324 2 69 2 2
326 3 67 0 4
328 2 66 1 5
330 1 67 2 4
332 3 69 0 2
334 3 67 0 3
336 3 67 0 2
338 4 67 0 1
340 2 67 2 2
342 4 64 0 4
344 4 65 0 3
346 3 67 1 1
348 1 65 3 3
350 4 66 1 2
