0 88 0 0 0
2 88 0 0 0
4.00004 86 0 1 0
6 85 0 2 0
8 88 0 0 0
10 88 0 0 0
12 89 0 0 0
14 89 0 1 0
16 88 0 2 0
18 85 0 4 0
20 85 0 3 0
22 86 0 2 0
24 85 0 1 0
26 85 0 1 0
28 84 0 2 0
30 83 0 2 0
32 84 0 2 0
34 87 0 0 0
36 86 0 0 0
38 84 0 4 0
40 87 0 1 0
42 86 0 1 0
44 86 0 1 0
46 86 0 1 0
48 86 0 1 0
50 86 0 1 0
52 74 11 2 0
54 73 14 0 0
56 64 22 2 0
58 56 29 3 0
60 49 36 1 1
62 43 44 0 0
64 36 49 0 1
66 33 54 0 0
68 32 54 0 0
70 29 57 0 0
72 26 60 0 0
74 24 62 0 0
76 19 66 0 1
78 14 72 0 0
80 13 73 1 0
82 12 75 0 0
84 12 74 0 0
86 11 73 1 1
88 10 76 0 0
90 11 75 0 1
92 9 75 1 2
94 9 78 1 0
96 8 77 1 1
98 8 79 0 0
100 8 79 0 0
102 8 79 0 0
104 6 81 0 0
106 5 81 0 1
108 4 82 0 1
110 6 80 0 3
112 5 83 1 0
114 5 83 0 0
116 5 82 0 1
118 4 83 0 1
120 3 83 0 2
122 3 84 1 0
124 4 84 0 2
126 5 84 0 1
128 3 86 1 0
130 3 86 0 1
132 4 87 0 0
134 2 88 0 0
136 2 88 0 0
138 3 87 0 1
140 3 88 0 0
142 2 87 1 0
144 4 87 0 1
146 2 87 1 0
148 4 87 0 0
150 3 89 0 0
152 3 88 0 1
154 5 89 0 0
156 4 88 0 0
158 4 88 0 0
160 4 88 0 1
162 4 87 0 1
164 3 89 0 0
166 3 89 0 0
168 2 90 0 0
170 2 89 0 1
172 3 89 0 1
174 4 86 0 3
176 4 86 0 2
178 5 87 0 1
180 4 88 0 1
182 4 88 0 1
184 4 86 0 0
186 4 86 0 1
188 4 87 0 0
190 3 88 0 0
192 3 88 0 0
194 3 86 0 1
196 2 88 0 0
198 2 87 0 1
200 2 86 0 2
202 2 84 0 0
204 2 82 0 2
206 2 81 0 2
208 1 84 1 0
210 2 84 0 1
212 1 84 2 1
214 2 83 0 2
216 3 84 0 1
218 3 84 0 0
220 3 81 0 3
222 3 84 0 0
224 3 83 0 1
226 2 83 0 2
228 2 84 0 0
230 1 84 0 1
232 0 86 1 1
234 0 84 1 3
236 1 86 0 1
238 1 87 0 0
240 1 86 0 0
242 1 82 0 2
244 1 84 1 0
246 1 82 0 2
248 2 83 0 2
250 1 84 0 1
252 2 82 0 0
254 3 81 0 1
256 1 80 0 2
258 1 82 0 3
260 1 81 0 2
262 1 85 0 0
264 1 84 0 0
266 1 84 0 0
268 0 84 0 0
270 0 83 0 1
272 0 84 0 1
274 0 84 0 1
276 0 83 0 2
278 0 83 1 2
280 1 81 0 3
282 1 82 0 2
284 0 83 0 1
286 1 83 0 1
288 1 84 0 0
290 1 83 1 1
292 2 84 0 0
294 2 83 0 1
296 1 81 0 3
298 1 82 0 2
300 1 84 1 0
302 1 82 1 2
304 1 81 1 1
306 2 81 0 3
308 2 82 0 1
310 2 83 0 0
312 1 81 1 0
314 2 80 0 3
316 1 82 0 1
318 1 83 1 1
320 2 85 0 0
322 1 86 0 0
324 1 84 0 3
326 1 82 0 1
328 1 83 0 0
330 1 83 0 0
332 1 82 0 0
334 1 83 0 0
336 1 82 1 1
338 1 81 1 0
340 1 83 0 1
342 1 84 0 1
344 1 84 0 1
346 2 85 0 0
348 2 84 1 0
350 2 84 1 0
