0 86 0 0 0
2 84 0 4 0
4.00004 83 0 3 0
6 84 0 5 0
8 84 0 5 0
10 86 0 3 0
12 84 0 4 0
14 84 0 3 0
16 83 0 4 0
18 83 0 2 0
20 83 0 3 0
22 82 0 3 0
24 83 0 3 0
26 81 0 5 0
28 84 0 3 0
30 83 0 4 0
32 86 0 1 0
34 87 0 1 0
36 82 0 4 0
38 83 0 1 0
40 83 0 2 0
42 81 0 5 0
44 82 0 6 0
46 84 0 4 0
48 83 0 4 0
50 84 0 3 0
52 64 18 6 0
54 57 26 4 0
56 51 34 2 0
58 51 36 0 1
60 46 41 1 0
62 38 47 5 0
64 35 52 2 1
66 32 54 3 0
68 24 62 3 1
70 24 63 3 0
72 24 64 0 1
74 21 67 2 0
76 17 71 2 0
78 14 73 2 1
80 13 76 0 1
82 12 76 1 1
84 10 76 2 4
86 10 80 0 0
88 8 80 3 1
90 8 79 0 2
92 7 81 0 2
94 6 82 0 1
96 4 80 1 3
98 4 84 0 2
100 2 80 1 4
102 2 82 2 2
104 3 82 1 2
106 5 85 0 0
108 3 83 1 1
110 1 82 2 2
112 2 82 0 2
114 2 83 0 2
116 4 85 0 0
118 4 82 0 2
120 4 82 0 2
122 4 84 0 1
124 4 84 0 1
126 3 84 0 1
128 2 84 1 1
130 3 82 0 2
132 3 82 0 2
134 4 84 0 1
136 2 87 0 0
138 2 86 0 1
140 0 87 2 0
142 1 87 1 0
144 0 87 2 0
146 0 88 1 0
148 1 87 0 1
150 1 86 0 1
152 1 85 1 3
154 1 87 0 2
156 2 87 0 2
158 0 87 2 2
160 2 83 1 5
162 1 85 1 2
164 2 83 0 2
166 2 82 1 3
168 3 81 0 4
170 2 83 1 2
172 1 80 1 3
174 1 81 1 2
176 3 83 0 2
178 3 80 0 3
180 1 80 1 3
182 2 81 1 3
184 2 83 0 1
186 2 82 1 1
188 3 80 0 2
190 1 79 1 3
192 1 80 2 1
194 2 78 0 3
196 2 77 0 4
198 2 79 0 1
200 2 78 0 3
202 2 80 1 2
204 2 82 1 1
206 2 80 0 1
208 2 77 0 4
210 2 77 1 3
212 2 77 1 4
214 3 79 0 3
216 3 79 0 3
218 3 82 1 0
220 3 77 1 5
222 3 78 2 2
224 3 79 0 2
226 3 82 1 1
228 4 79 0 1
230 1 76 3 3
232 0 79 3 3
234 3 81 0 2
236 3 80 0 2
238 1 78 3 3
240 0 80 3 1
242 3 79 1 1
244 5 77 0 3
246 1 78 1 3
248 1 79 2 1
250 3 79 0 2
252 3 80 0 2
254 2 80 0 2
256 0 78 2 3
258 2 78 0 2
260 3 76 0 4
262 1 77 2 2
264 2 77 1 2
266 2 78 1 1
268 1 77 0 3
270 1 75 0 4
272 3 77 0 2
274 2 76 0 3
276 1 79 1 1
278 1 79 0 2
280 1 78 0 2
282 1 78 0 2
284 1 78 0 2
286 1 80 0 0
288 0 79 0 1
290 0 77 0 2
292 0 77 0 2
294 0 78 0 2
296 0 77 0 2
298 1 76 1 3
300 1 77 1 2
302 2 76 0 2
304 0 78 1 1
306 0 79 0 1
308 0 80 0 0
310 0 78 0 2
312 1 76 0 4
314 1 80 0 0
316 0 77 1 2
318 1 76 0 3
320 0 77 1 2
322 1 78 0 1
324 2 76 0 2
326 1 74 1 2
328 2 77 0 0
330 2 76 1 1
332 2 76 0 1
334 1 76 1 1
336 2 76 0 1
338 2 76 0 1
340 1 76 1 2
342 1 78 1 2
344 2 79 0 2
346 1 76 1 4
348 3 78 0 3
350 2 76 1 2
