0 92 0 0 0
2 83 0 8 0
4.00004 84 0 6 0
6 87 0 4 0
8 85 0 5 0
10 86 0 3 0
12 88 0 2 0
14 90 0 2 0
16 86 0 3 0
18 83 0 7 0
20 83 0 3 0
22 84 0 4 0
24 86 0 2 0
26 87 0 3 0
28 86 0 4 0
30 88 0 3 0
32 88 0 3 0
34 89 0 3 0
36 87 0 4 0
38 90 0 2 0
40 87 0 2 0
42 85 0 3 0
44 85 0 3 0
46 86 0 2 0
48 85 0 5 0
50 83 0 7 0
52 65 19 7 0
54 52 32 4 0
56 44 43 5 0
58 37 51 4 0
60 30 54 6 1
62 32 59 1 0
64 26 60 4 1
66 20 66 5 2
68 19 70 4 0
70 18 68 3 3
72 14 70 3 2
74 14 70 2 2
76 11 72 2 2
78 11 74 1 1
80 8 76 2 3
82 9 78 1 1
84 7 80 2 0
86 6 81 2 0
88 5 79 1 3
90 8 79 0 2
92 2 80 3 2
94 2 81 3 1
96 4 82 1 1
98 5 76 1 5
100 6 80 0 2
102 6 81 0 1
104 2 82 1 1
106 3 81 1 1
108 5 81 2 0
110 5 78 2 3
112 3 78 3 4
114 3 77 2 5
116 3 80 2 2
118 4 80 2 2
120 3 79 2 4
122 2 82 1 2
124 3 83 0 2
126 2 82 1 3
128 3 81 0 4
130 2 79 1 6
132 2 85 1 1
134 3 81 1 5
136 1 84 2 0
138 1 82 1 0
140 1 83 2 0
142 1 81 1 2
144 2 80 0 4
146 3 82 1 1
148 4 82 0 2
150 2 82 0 2
152 3 78 1 5
154 4 83 0 1
156 3 81 1 3
158 4 80 1 3
160 3 81 1 3
162 4 83 0 1
164 3 79 1 3
166 3 79 1 3
168 2 79 2 3
170 5 78 0 3
172 4 79 1 1
174 2 77 1 5
176 2 78 0 2
178 3 75 1 4
180 3 73 0 5
182 3 75 1 2
184 4 73 0 4
186 3 74 1 3
188 2 72 2 3
190 3 76 0 0
192 3 75 1 3
194 2 76 0 3
196 2 77 0 3
198 1 77 0 2
200 1 79 0 0
202 1 77 1 1
204 1 77 1 1
206 2 77 0 0
208 0 76 2 2
210 2 77 0 1
212 1 78 0 1
214 1 78 0 1
216 1 78 0 0
218 1 78 0 0
220 1 76 0 2
222 0 77 0 2
224 0 75 0 4
226 0 74 0 4
228 0 77 0 1
230 1 76 0 1
232 1 75 0 3
234 1 76 0 2
236 1 78 0 1
238 1 77 0 1
240 1 77 0 1
242 1 75 0 2
244 1 74 0 3
246 1 75 1 3
248 2 75 1 4
250 3 76 0 2
252 2 75 1 3
254 2 75 1 1
256 2 74 1 2
258 2 73 1 2
260 0 68 3 7
262 3 73 0 4
264 0 70 2 7
266 3 73 0 5
268 1 70 1 6
270 2 72 0 5
272 1 73 1 2
274 2 68 1 6
276 3 72 0 1
278 2 72 1 1
280 2 72 0 3
282 2 72 1 3
284 3 73 1 2
286 4 75 0 0
288 3 75 1 0
290 0 73 2 4
292 1 74 2 2
294 3 71 0 4
296 2 73 1 1
298 1 73 1 2
300 1 74 1 2
302 2 74 0 2
304 2 72 0 4
306 2 72 0 5
308 1 75 1 0
310 2 71 0 4
312 1 71 1 4
314 2 72 0 3
316 2 73 0 3
318 1 75 0 1
320 2 76 0 1
322 1 76 1 0
324 1 76 0 1
326 1 75 0 2
328 0 75 1 1
330 1 76 1 0
332 2 73 1 3
334 1 76 0 0
336 1 75 0 1
338 1 74 0 2
340 1 76 0 0
342 3 74 1 2
344 3 77 2 1
346 4 78 0 0
348 2 76 0 1
350 1 75 1 2
