0 51 0 0 0 70
2 38 0 13 0 68
4.00004 36 0 15 0 55
6 40 0 11 0 61
8 36 0 15 0 60
10 39 0 11 0 59
12 36 0 14 0 63
14 41 0 9 0 75
16 39 0 11 0 65
18 39 0 11 0 73
20 41 0 9 0 66
22 44 0 6 0 70
24 43 0 7 0 61
26 45 0 5 0 67
28 42 0 8 0 59
30 42 0 8 0 56
32 37 0 13 0 78
34 36 0 14 0 57
36 42 0 8 0 69
38 43 0 7 0 61
40 37 0 13 0 58
42 37 0 13 0 74
44 35 0 15 0 56
46 39 0 11 0 67
48 38 0 12 0 58
50 44 0 6 0 66
52 42 0 8 0 63
54 46 0 4 0 59
56 40 0 10 0 58
58 39 0 11 0 60
60 32 0 18 0 65
62 38 0 12 0 63
64 36 0 14 0 63
66 36 0 14 0 71
68 35 0 15 0 70
70 39 0 11 0 65
72 36 0 14 0 55
74 38 0 12 0 71
76 42 0 8 0 69
78 44 0 6 0 57
80 35 0 15 0 54
82 40 0 10 0 69
84 41 0 9 0 67
86 41 0 9 0 60
88 42 0 8 0 64
90 35 0 15 0 67
92 39 0 11 0 60
94 40 0 10 0 60
96 43 0 7 0 69
98 36 0 14 0 67
100 42 0 8 0 65
102 40 0 10 0 67
104 40 0 10 0 69
106 39 0 10 0 63
108 36 0 12 0 76
110 39 0 9 0 61
112 40 0 8 0 55
114 41 0 7 0 72
116 37 0 11 0 61
118 31 0 17 0 62
120 33 0 15 0 79
122 36 0 12 0 63
124 35 0 13 0 67
126 37 0 11 0 57
128 33 0 15 0 71
130 43 0 5 0 64
132 41 0 7 0 74
134 38 0 10 0 74
136 37 0 11 0 66
138 34 0 14 0 63
140 37 0 11 0 64
142 38 0 10 0 70
144 38 0 10 0 70
146 38 0 10 0 67
148 42 0 6 0 69
150 42 0 6 0 70
152 40 0 8 0 73
154 38 0 10 0 73
156 36 0 12 1 54
158 36 1 12 0 69
160 36 1 12 0 66
162 39 1 9 0 67
164 39 1 9 0 70
166 42 1 6 0 52
168 36 0 12 1 62
170 39 0 9 1 68
172 41 1 7 0 58
174 36 0 12 1 64
176 33 1 15 0 68
178 41 0 6 2 72
180 40 2 6 0 64
182 39 2 7 0 70
184 35 2 11 0 64
186 34 2 12 0 65
188 39 2 7 0 78
190 34 2 12 0 70
192 40 1 6 1 58
194 38 2 8 0 67
196 37 2 9 0 58
198 38 2 8 0 69
200 37 1 9 1 62
202 40 0 6 2 68
204 37 1 9 1 71
206 36 0 10 2 66
208 35 2 11 0 59
210 36 2 10 0 58
