0 115 0 0 0 70
2 105 0 10 0 72
4.00004 106 0 9 0 73
6 99 0 16 0 63
8 94 0 21 0 70
10 101 0 14 0 64
12 94 11 10 0 62
14 85 22 6 2 64
16 76 29 8 2 67
18 67 36 9 3 62
20 65 42 4 4 61
22 57 48 5 5 65
24 46 59 5 5 55
26 42 65 3 5 58
28 38 68 2 7 62
30 33 70 3 9 65
32 31 74 2 8 65
34 24 81 3 7 57
36 19 90 2 4 74
38 17 89 3 6 58
40 18 87 1 10 65
42 18 91 0 6 71
44 16 91 1 7 58
46 12 97 3 3 71
48 14 94 1 6 67
50 11 93 3 8 71
52 11 95 2 7 70
54 11 94 0 10 65
56 10 100 1 4 58
58 9 99 1 6 63
60 7 100 1 6 76
62 8 101 0 5 66
64 6 101 1 6 72
66 6 101 1 6 64
68 6 102 1 5 72
70 7 100 0 7 68
72 7 96 0 11 59
74 6 99 1 8 59
76 5 93 1 14 73
78 6 97 0 10 64
80 3 98 1 11 66
82 4 93 0 15 67
84 5 92 1 15 65
86 3 96 2 12 69
88 4 93 1 15 54
90 4 96 0 13 58
92 3 101 1 8 61
94 2 97 1 13 60
96 2 100 0 11 69
98 2 99 1 12 63
100 3 98 0 12 62
102 3 98 0 12 65
104 2 97 1 13 74
106 3 99 0 11 72
108 3 96 0 14 64
110 3 105 0 5 58
112 3 103 0 7 59
114 2 101 0 9 70
116 2 106 0 4 78
118 1 102 0 8 68
120 1 100 0 10 68
122 1 98 0 12 66
124 1 99 0 10 62
126 0 103 0 6 60
128 0 97 0 12 69
130 0 96 0 13 70
132 0 99 0 10 69
134 0 102 0 7 56
136 0 102 0 7 68
138 0 100 0 9 65
140 0 97 0 12 80
142 0 98 0 11 71
144 0 100 0 9 61
146 0 102 0 7 68
148 0 99 0 10 69
150 0 101 0 8 64
152 0 97 0 12 68
154 0 100 0 8 62
156 0 96 0 12 71
158 0 102 0 5 63
160 0 102 0 5 60
162 0 102 0 5 71
164 0 95 0 12 60
166 0 99 0 8 59
168 0 98 0 9 74
170 0 99 0 8 70
172 0 96 0 11 59
174 0 97 0 10 65
176 0 88 0 18 61
178 0 97 1 8 69
180 1 97 0 8 53
182 1 94 0 11 59
184 0 94 1 11 62
186 1 96 0 9 63
188 1 93 0 12 65
190 1 99 0 6 68
192 1 98 0 7 60
194 1 90 0 15 64
196 1 93 0 12 64
198 1 99 0 6 63
200 1 95 0 10 61
202 1 95 0 10 64
204 0 95 0 11 63
206 0 96 0 10 72
208 0 99 0 7 65
210 0 97 0 8 65
