0 99 0 0 0 57
2 88 0 12 0 72
4.00004 95 0 5 0 70
6 94 0 6 0 60
8 90 0 10 0 65
10 94 0 6 0 60
12 76 13 11 0 59
14 72 17 8 3 69
16 67 25 7 1 59
18 61 34 3 1 65
20 52 39 5 2 77
22 43 45 6 4 70
24 41 47 5 5 69
26 35 51 8 3 63
28 37 50 4 6 72
30 36 52 4 5 58
32 33 56 5 3 63
34 28 57 9 2 61
36 31 55 4 5 63
38 32 57 2 5 72
40 30 54 2 9 64
42 28 62 1 4 64
44 25 62 3 5 63
46 25 63 0 7 71
48 17 64 5 9 75
50 18 67 2 8 65
52 18 69 1 7 54
54 15 71 3 6 69
56 15 71 2 6 54
58 14 69 3 8 66
60 12 73 4 5 76
62 13 71 2 8 66
64 13 73 2 6 64
66 12 74 2 6 69
68 14 78 0 2 70
70 12 76 3 4 59
72 13 75 2 5 64
74 13 76 1 6 70
76 11 77 3 5 65
78 12 79 2 3 53
80 11 78 1 6 73
82 10 80 0 6 73
84 9 80 0 7 67
86 7 74 1 13 61
88 7 82 1 5 62
90 8 81 0 6 65
92 8 78 1 9 69
94 8 78 1 9 65
96 8 81 1 6 62
98 7 79 1 9 62
100 6 83 0 6 63
102 6 83 0 6 61
104 6 81 0 8 56
106 4 81 1 8 76
108 4 86 0 4 69
110 3 89 0 2 66
112 3 83 0 9 68
114 3 83 0 9 61
116 3 85 0 7 54
118 2 85 1 7 77
120 3 89 0 3 73
122 3 82 0 10 69
124 4 86 0 6 72
126 4 86 0 6 66
128 4 84 0 8 63
130 3 89 0 4 64
132 3 85 0 7 69
134 3 87 0 5 66
136 3 82 0 10 69
138 3 85 0 7 56
140 3 81 0 11 68
142 3 83 0 7 67
144 3 82 0 7 58
146 2 83 1 7 74
148 4 79 1 10 65
150 4 84 1 5 61
152 4 79 0 11 63
154 2 84 1 8 66
156 3 82 0 9 63
158 2 84 0 8 66
160 1 83 1 9 63
162 2 78 0 14 59
164 2 81 0 10 67
166 2 80 0 9 60
168 2 78 0 11 65
170 2 79 0 10 67
172 1 83 0 7 61
174 1 81 0 9 70
176 1 79 0 11 50
178 1 81 0 9 56
180 1 86 0 4 63
182 1 83 0 7 61
184 1 82 0 7 70
186 0 80 0 10 62
188 0 79 0 11 60
190 0 80 0 9 65
192 0 85 0 3 58
194 0 82 0 6 61
196 0 81 0 7 71
198 0 82 0 6 66
200 0 82 0 6 68
202 0 75 0 13 70
204 0 82 0 6 58
206 0 72 0 16 57
208 0 74 0 14 68
210 0 80 0 8 66
