0 45 0 0 0 64
2 34 0 10 0 67
4.00004 31 0 13 0 61
6 32 0 12 0 64
8 33 0 10 0 63
10 37 0 7 0 66
12 34 0 10 0 66
14 36 0 8 0 74
16 37 0 6 0 61
18 33 0 10 0 68
20 33 0 10 0 71
22 31 0 11 1 67
24 34 0 8 1 70
26 31 0 12 1 66
28 33 1 10 0 60
30 33 1 10 0 62
32 28 1 15 0 63
34 33 1 10 0 63
36 31 0 11 2 61
38 31 2 11 0 64
40 31 2 11 0 61
42 35 2 7 0 59
44 38 2 5 0 66
46 39 2 4 0 70
48 34 2 9 0 76
50 33 1 10 1 62
52 35 2 8 0 67
54 38 1 5 1 66
56 34 1 8 1 63
58 25 2 17 0 67
60 38 2 3 1 78
62 34 2 7 1 67
64 31 1 9 3 69
66 31 4 8 2 67
68 31 5 8 3 67
70 33 5 6 4 62
72 30 8 8 1 58
74 31 9 7 1 53
76 25 7 11 3 58
78 28 8 6 1 58
80 28 9 6 0 61
82 26 6 7 3 71
84 25 5 7 4 65
86 26 8 5 4 71
88 24 7 7 4 66
90 23 9 8 2 60
92 23 7 8 5 68
94 24 11 7 2 77
96 23 12 8 3 69
98 22 12 9 4 72
100 21 11 10 3 77
102 21 11 10 3 58
104 21 9 9 6 67
106 23 10 7 5 56
108 22 10 8 6 65
110 21 14 9 2 62
112 19 15 11 1 64
114 22 13 8 2 63
116 25 14 4 1 60
118 22 11 7 7 66
120 23 14 5 3 76
122 20 13 6 4 64
124 19 11 7 7 73
126 20 15 6 4 73
128 18 14 8 7 68
130 17 14 9 6 69
132 20 17 6 3 77
134 22 17 4 3 57
136 19 18 7 2 60
138 21 16 5 4 75
140 23 19 3 1 74
142 22 16 4 4 69
144 20 18 6 5 67
146 20 16 3 8 71
148 16 17 7 7 75
150 18 17 5 8 67
152 17 18 6 8 57
154 17 20 6 6 69
156 14 21 9 5 62
158 19 20 4 7 65
160 15 22 8 5 57
162 18 21 5 6 66
164 18 23 6 5 63
166 20 25 4 3 61
168 20 20 4 8 57
170 20 22 4 6 61
172 21 22 3 6 67
174 16 15 8 13 71
176 17 22 6 4 61
178 21 24 2 1 70
180 16 20 7 5 71
182 16 20 6 7 52
184 13 20 9 7 54
186 15 21 7 7 53
188 19 25 3 3 65
190 15 16 7 12 58
192 18 19 4 9 59
194 20 24 2 5 72
196 16 23 6 7 67
198 14 21 8 10 55
200 19 17 3 14 63
202 18 23 4 9 66
204 19 26 3 6 60
206 19 25 3 7 69
208 17 25 5 7 55
210 21 24 1 8 65
