0 546 0 0 0 0 435
2 469 0 0 68 0 406
4.00004 492 0 0 41 0 414
6 476 0 0 51 0 391
8 466 0 0 60 0 382
10 471 0 0 53 0 400
12 456 0 0 60 0 408
14 459 0 0 63 0 401
16 466 0 0 58 0 408
18 461 0 0 53 0 408
20 457 0 0 57 0 394
22 462 0 0 49 0 406
24 469 0 0 52 0 389
26 474 0 0 46 0 406
28 464 0 0 55 0 397
30 460 0 0 59 0 408
32 455 0 0 64 0 397
34 470 0 0 52 0 406
36 470 0 0 53 0 400
38 458 0 0 65 0 402
40 459 0 0 63 0 405
42 465 0 0 54 0 395
44 464 0 0 59 0 403
46 455 0 0 61 0 416
48 447 0 0 70 0 406
50 460 0 0 52 0 402
52 465 0 0 50 0 385
54 449 0 1 70 0 395
56 461 0 3 54 1 396
58 460 0 13 51 0 390
60 448 0 20 56 1 408
62 432 0 20 69 3 392
64 429 0 27 58 4 398
66 440 0 31 39 7 399
68 416 0 37 50 5 387
70 410 0 37 48 11 402
72 393 0 48 54 11 397
74 369 0 66 66 12 403
76 376 0 75 42 11 405
78 360 0 82 45 16 407
80 357 0 100 37 10 394
82 349 0 100 36 17 401
84 340 0 102 40 22 387
86 324 0 122 54 14 390
88 325 0 115 34 26 377
90 311 0 135 34 17 390
92 304 0 150 42 13 396
94 310 0 153 27 23 410
96 292 0 162 39 27 380
98 293 0 171 27 24 405
100 280 0 177 34 30 410
102 267 0 189 36 27 405
104 249 0 199 37 32 405
106 249 0 207 28 31 396
108 228 0 232 45 16 403
110 238 0 232 30 31 408
112 225 0 238 29 28 394
114 226 0 232 26 42 389
116 212 0 237 29 42 386
118 201 0 259 33 28 402
120 197 0 260 30 33 406
122 194 0 272 25 21 411
124 183 0 268 29 31 402
126 178 0 275 29 24 395
128 174 0 282 24 30 410
130 164 0 271 28 41 396
132 165 0 284 22 32 403
134 157 0 289 29 41 386
136 155 0 296 23 31 407
138 159 0 292 15 39 390
140 158 0 275 14 50 410
142 146 0 293 18 34 387
144 146 0 292 17 44 402
146 138 0 287 20 43 401
148 143 0 299 14 30 405
150 136 0 289 15 40 404
152 136 0 291 12 42 395
154 127 0 271 17 55 392
156 121 0 305 17 41 384
158 123 0 313 9 39 400
160 124 0 313 8 44 403
162 113 0 308 12 57 401
164 101 0 341 17 34 394
166 100 0 334 14 45 404
168 96 0 330 18 43 413
170 96 0 324 17 49 386
172 96 0 340 12 36 399
174 96 0 323 9 55 409
176 89 0 347 14 35 401
178 95 0 336 6 48 410
180 83 0 346 11 47 391
182 83 0 347 7 56 425
184 76 0 358 12 49 403
186 80 0 368 8 40 411
188 75 0 368 10 51 401
190 79 0 372 5 57 392
192 71 0 367 10 52 396
194 70 0 373 7 47 388
196 65 0 387 11 46 393
198 65 0 377 9 49 414
200 63 0 369 8 52 401
