0 1709 0 0 0 0 394
2 1659 11 0 48 0 396
4.00004 1664 6 0 45 0 395
6 1681 7 0 46 0 408
8 1667 11 0 46 0 407
10 1687 7 0 50 0 401
12 1708 10 0 42 0 397
14 1705 5 0 54 0 395
16 1695 10 0 46 0 397
18 1721 8 0 41 0 400
20 1732 3 0 43 0 391
22 1734 11 0 30 0 408
24 1741 9 0 41 0 384
26 1725 10 0 57 0 420
28 1728 14 0 51 0 398
30 1753 6 0 33 0 396
32 1748 8 0 49 0 415
34 1748 9 0 40 0 386
36 1738 13 0 45 0 406
38 1753 7 0 35 0 396
40 1756 5 0 38 0 373
42 1742 9 0 52 0 396
44 1763 10 0 42 0 392
46 1753 10 0 39 0 399
48 1728 13 0 46 0 396
50 1741 5 0 59 0 385
52 1514 1 230 47 2 394
54 1376 1 382 44 4 391
56 1226 0 521 44 9 415
58 1092 1 630 37 13 403
60 1018 0 719 26 13 391
62 917 0 786 28 26 390
64 853 0 883 30 16 407
66 778 0 963 20 17 393
68 693 0 1026 32 19 401
70 658 0 1081 20 19 413
72 614 0 1113 15 24 390
74 569 0 1189 19 22 407
76 501 0 1230 16 28 405
78 443 0 1309 15 13 402
80 421 0 1336 12 29 393
82 398 0 1361 9 26 400
84 362 0 1382 11 35 388
86 337 0 1417 15 28 410
88 305 0 1449 11 28 397
90 286 0 1460 15 37 394
92 268 0 1485 8 28 397
94 243 0 1504 13 42 409
96 219 0 1547 8 33 409
98 198 0 1558 8 43 400
100 192 0 1558 7 57 394
102 167 1 1600 7 35 405
104 144 0 1626 4 27 401
106 137 0 1618 6 44 396
108 125 0 1632 6 41 385
110 113 0 1634 7 36 409
112 93 0 1669 5 37 401
114 84 1 1668 4 44 400
116 83 0 1679 5 33 402
118 85 0 1677 2 45 388
120 84 0 1662 2 50 397
122 80 0 1681 1 46 388
124 70 0 1676 0 46 398
126 60 0 1693 0 37 395
128 57 0 1697 1 39 414
130 52 0 1718 1 36 403
132 51 0 1704 1 48 406
134 46 0 1724 1 36 405
136 45 0 1729 2 35 399
138 45 0 1753 1 28 400
140 44 0 1730 0 40 414
142 40 0 1722 1 35 398
144 37 0 1718 2 48 410
146 32 0 1740 0 44 404
148 30 0 1748 0 35 400
150 25 0 1761 0 33 391
152 23 0 1737 2 50 417
154 23 0 1743 1 47 386
156 21 0 1747 0 45 399
158 20 0 1739 0 45 400
160 17 0 1745 0 38 402
162 14 0 1756 0 31 400
164 13 0 1758 0 38 412
166 11 0 1752 1 36 417
168 9 0 1750 1 42 414
170 4 1 1736 1 37 407
172 5 0 1724 0 43 403
174 6 0 1727 0 38 419
176 6 0 1728 0 35 409
178 5 0 1723 0 41 387
180 4 0 1736 0 38 404
182 3 0 1711 0 55 409
184 2 0 1733 0 45 404
186 2 0 1732 0 39 399
188 4 0 1745 0 34 400
190 3 0 1753 1 39 394
192 3 0 1750 0 43 386
194 2 0 1754 0 53 408
196 1 0 1766 0 41 415
198 0 0 1769 0 27 385
200 1 0 1761 0 36 395
