0 114 0 0 0 52
2 106 0 9 0 59
4.00004 105 0 9 0 53
6 102 0 12 0 57
8 102 0 12 0 54
10 106 0 8 0 56
12 96 10 8 0 62
14 83 25 6 0 58
16 77 28 9 0 47
18 69 38 7 0 54
20 59 43 10 2 58
22 58 48 6 2 47
24 49 53 6 6 54
26 43 62 4 6 55
28 44 63 3 6 52
30 44 70 2 0 61
32 40 72 1 3 57
34 37 76 2 3 57
36 31 82 3 3 59
38 27 85 3 5 52
40 24 83 4 8 53
42 17 88 8 8 55
44 21 92 3 4 57
46 20 96 1 3 51
48 18 96 2 4 51
50 16 98 2 3 53
52 14 101 1 3 48
54 12 101 1 5 46
56 8 102 2 6 53
58 7 100 1 9 52
60 7 103 1 6 55
62 6 99 1 11 52
64 3 107 3 3 48
66 5 99 1 11 57
68 5 105 1 5 59
70 5 99 1 11 55
72 6 102 0 8 52
74 6 104 0 5 54
76 4 101 1 9 55
78 5 101 0 9 50
80 4 101 0 9 58
82 4 102 0 8 44
84 3 103 0 7 52
86 3 101 0 9 51
88 2 102 0 9 53
90 1 108 0 4 46
92 1 109 0 3 53
94 1 102 0 10 54
96 2 101 0 11 51
98 2 102 0 10 48
100 1 105 0 8 56
102 1 106 0 7 60
104 1 107 0 6 61
106 1 102 0 11 58
108 1 101 0 11 57
110 1 103 0 8 66
112 1 101 0 10 62
114 1 101 0 10 50
116 1 104 0 7 51
118 1 99 0 13 56
120 1 103 0 8 61
122 1 94 0 14 61
124 1 100 0 8 47
126 1 102 0 6 55
128 1 97 0 9 59
130 1 95 0 11 58
132 1 97 0 9 62
134 1 92 0 14 53
136 1 93 0 13 54
138 1 91 0 14 53
140 1 97 0 8 60
142 0 93 0 14 54
144 0 95 0 12 54
146 0 94 0 13 55
148 1 98 0 9 43
150 0 102 0 5 53
152 1 101 1 6 55
154 1 102 0 7 52
156 0 104 1 5 52
158 1 100 0 8 51
160 1 99 0 9 47
162 1 99 0 9 52
164 1 104 0 4 53
166 0 97 0 12 44
168 0 103 0 6 56
170 0 97 0 12 54
172 0 100 0 9 54
174 0 96 0 12 62
176 0 97 0 11 56
178 0 100 0 8 54
180 0 98 0 10 57
182 0 97 0 11 52
184 0 97 0 11 53
186 0 97 0 11 47
188 0 95 1 13 43
190 0 98 1 10 60
192 0 94 1 14 57
194 1 93 0 15 57
196 1 101 0 6 55
198 1 97 0 9 63
200 1 96 0 10 50
202 0 99 0 8 55
204 0 97 0 10 60
206 0 96 0 10 58
208 0 95 0 11 46
210 0 101 0 5 53
