0 33 0 0 0 62
2 24 0 9 0 47
4.00004 26 0 7 0 48
6 23 0 10 0 50
8 24 0 11 0 50
10 26 0 9 0 58
12 27 0 8 0 54
14 28 0 8 0 56
16 28 0 8 0 55
18 25 0 11 0 54
20 20 0 15 0 57
22 27 0 9 0 59
24 30 0 6 0 65
26 28 0 10 0 52
28 32 0 7 0 61
30 33 0 6 0 47
32 26 1 13 0 50
34 32 1 7 0 59
36 33 1 6 0 60
38 29 1 9 1 60
40 30 2 8 0 59
42 25 1 13 1 57
44 30 1 7 1 49
46 25 1 12 1 58
48 25 2 12 1 48
50 26 1 10 4 52
52 24 5 11 0 54
54 27 5 7 0 55
56 23 3 11 2 52
58 24 2 10 5 55
60 23 5 11 2 57
62 21 3 13 4 64
64 28 4 6 3 60
66 25 5 9 2 63
68 25 5 9 2 51
70 22 4 12 3 62
72 22 6 12 1 42
74 26 5 7 4 59
76 25 7 8 2 62
78 24 7 9 2 55
80 26 7 7 2 51
82 23 7 9 2 60
84 26 7 6 2 47
86 24 7 8 3 59
88 25 4 7 6 52
90 23 9 9 3 40
92 23 9 8 4 60
94 20 10 11 3 62
96 19 11 12 2 56
98 23 11 8 2 57
100 27 9 4 4 59
102 22 12 9 1 58
104 21 8 8 4 62
106 20 12 9 1 56
108 19 9 8 4 49
110 19 9 9 5 56
112 19 10 9 4 59
114 18 7 9 6 46
116 18 8 8 5 47
118 19 11 7 2 55
120 13 13 11 1 50
122 17 10 6 4 58
124 16 9 7 5 61
126 17 9 6 5 60
128 18 10 5 4 48
130 17 11 7 3 57
132 17 12 7 3 58
134 17 11 7 4 60
136 18 9 6 7 59
138 20 10 5 5 55
140 17 8 9 7 54
142 18 14 8 1 61
144 18 9 8 5 65
146 22 8 3 5 53
148 22 10 3 3 50
150 19 12 6 3 49
152 18 9 7 6 40
154 18 11 7 5 53
156 20 10 5 6 52
158 18 13 7 3 50
160 18 9 7 7 57
162 15 13 10 3 60
164 19 10 6 6 66
166 18 11 6 5 63
168 20 10 4 6 42
170 18 12 6 4 53
172 22 11 2 6 54
174 20 12 4 5 54
176 18 15 6 2 51
178 15 15 9 2 60
180 14 12 10 5 67
182 18 11 6 6 57
184 13 13 10 4 52
186 16 13 7 4 50
188 17 13 6 4 49
190 13 14 9 3 52
192 17 15 5 2 59
194 17 14 5 4 55
196 10 14 10 4 55
198 14 12 5 7 51
200 12 14 7 5 58
202 15 13 4 6 50
204 14 12 4 7 53
206 12 13 6 6 49
208 14 15 4 4 49
210 14 13 3 6 58
