0 89 0 0 0 55
2 79 0 8 0 55
4.00004 80 0 6 0 55
6 80 0 6 0 59
8 83 0 3 0 63
10 82 0 4 0 64
12 74 6 5 1 61
14 67 12 7 0 58
16 61 17 6 1 55
18 55 25 4 1 68
20 51 25 5 4 52
22 43 31 7 4 54
24 41 39 4 2 63
26 35 46 4 1 50
28 32 46 4 4 57
30 28 48 5 4 50
32 26 53 3 3 55
34 24 53 4 5 67
36 24 54 2 6 50
38 22 61 1 2 59
40 18 64 0 3 53
42 16 62 0 7 57
44 13 63 3 6 55
46 15 63 1 6 47
48 15 63 0 7 52
50 10 68 2 4 58
52 12 61 1 9 63
54 10 67 0 6 53
56 9 66 0 7 52
58 8 67 1 6 56
60 6 68 1 7 58
62 6 65 2 10 46
64 5 69 1 7 53
66 4 67 2 9 56
68 6 73 1 3 56
70 5 65 3 11 65
72 5 64 3 12 63
74 5 71 2 6 56
76 5 71 3 7 50
78 6 65 2 13 60
80 5 71 2 8 50
82 6 73 0 7 46
84 5 71 0 9 57
86 3 71 1 10 55
88 3 68 1 13 55
90 4 70 0 11 55
92 3 71 0 9 56
94 3 75 1 5 60
96 2 74 1 7 55
98 3 78 0 3 51
100 3 75 0 6 47
102 3 77 1 4 52
104 3 76 1 5 47
106 3 72 1 9 52
108 3 73 1 7 52
110 2 71 2 9 53
112 4 74 0 6 50
114 4 75 0 5 50
116 2 76 1 5 60
118 2 73 1 8 54
120 3 78 0 2 53
122 2 77 0 4 55
124 2 72 0 8 55
126 2 75 1 4 58
128 3 74 1 4 52
130 4 68 0 11 54
132 4 69 0 10 55
134 4 69 0 10 59
136 2 72 1 6 53
138 2 75 1 3 58
140 2 71 1 6 56
142 4 73 0 3 59
144 3 70 1 5 46
146 3 68 1 7 51
148 5 70 0 5 55
150 3 69 3 3 56
152 6 66 0 6 50
154 6 69 0 3 47
156 6 66 0 5 65
158 4 60 2 11 52
160 6 63 1 7 59
162 6 66 1 4 59
164 7 64 0 6 53
166 5 64 1 7 65
168 5 61 1 10 59
170 6 60 0 7 52
172 3 61 1 9 57
174 4 63 0 8 48
176 5 65 1 6 48
178 4 66 0 5 54
180 5 67 0 3 64
182 4 64 0 6 61
184 4 62 0 7 58
186 4 63 0 7 58
188 4 65 0 4 62
190 2 66 1 4 52
192 3 64 0 6 61
194 3 65 1 3 51
196 4 59 0 9 55
198 3 58 0 10 55
200 2 59 0 9 59
202 0 61 1 7 51
204 0 64 1 4 50
206 1 63 0 5 58
208 1 62 1 6 55
210 2 60 0 8 47
