0 40 0 0 0 49
2 37 0 3 0 55
4.00004 36 0 4 0 56
6 32 0 9 0 65
8 37 0 6 0 50
10 39 0 4 0 47
12 36 0 8 0 50
14 32 0 12 0 64
16 35 0 10 0 55
18 38 1 6 0 64
20 35 1 8 0 55
22 37 1 5 0 63
24 30 1 12 0 63
26 35 1 7 0 54
28 31 0 11 1 63
30 27 1 15 0 51
32 33 2 9 1 51
34 32 3 9 1 55
36 31 3 10 2 61
38 34 5 7 1 45
40 30 5 10 1 56
42 35 4 5 3 53
44 30 6 10 1 44
46 31 6 9 1 58
48 31 5 7 2 54
50 23 5 15 2 54
52 28 6 9 1 59
54 28 6 6 4 56
56 23 9 11 3 53
58 29 9 5 4 59
60 29 9 3 5 53
62 26 9 6 3 55
64 26 10 5 2 56
66 23 11 7 1 47
68 22 9 8 2 38
70 22 10 8 1 54
72 23 8 7 3 58
74 21 8 9 3 59
76 24 9 6 2 46
78 24 6 6 3 48
80 21 6 9 4 57
82 25 8 5 1 59
84 24 6 6 3 52
86 21 7 8 2 50
88 24 8 5 1 53
90 22 4 7 5 62
92 25 7 4 2 50
94 23 6 5 3 49
96 24 7 4 3 55
98 22 10 5 2 48
100 23 10 4 3 64
102 21 6 6 7 50
104 20 9 7 4 47
106 22 11 5 2 51
108 24 11 3 2 58
110 23 10 4 3 49
112 24 10 4 3 51
114 23 10 5 5 48
116 21 12 7 3 51
118 20 13 9 2 56
120 23 8 6 7 66
122 22 13 6 3 63
124 21 13 7 2 58
126 23 12 5 3 58
128 24 14 4 3 57
130 20 12 8 5 53
132 22 11 6 6 52
134 22 13 5 4 47
136 25 12 2 5 51
138 19 13 8 5 57
140 19 18 3 2 57
142 18 17 4 2 58
144 17 17 5 2 55
146 16 18 5 2 51
148 12 17 8 4 45
150 17 15 3 6 55
152 15 15 3 5 53
154 13 16 3 5 57
156 11 18 4 4 61
158 10 18 4 5 52
160 11 18 3 5 59
162 12 20 2 2 58
164 13 18 1 4 44
166 9 17 5 5 53
168 10 17 4 5 61
170 11 17 3 5 52
172 12 14 2 8 59
174 10 15 4 7 49
176 9 16 5 6 56
178 11 20 3 2 51
180 14 18 0 4 51
182 13 18 1 4 57
184 12 20 2 3 58
186 10 16 4 7 56
188 13 20 1 3 53
190 12 22 2 1 55
192 10 18 3 4 50
194 10 18 2 5 70
196 9 19 3 4 49
198 10 20 2 4 62
200 10 17 2 8 52
202 7 17 5 8 54
204 11 16 1 9 56
206 8 19 4 6 55
208 9 18 2 7 60
210 10 21 1 4 62
