0 580 0 0 0 0 740
2 540 0 0 45 0 695
4.00004 548 0 0 36 0 694
6 534 0 0 47 0 719
8 533 0 0 43 0 728
10 533 0 0 45 0 696
12 530 0 0 44 0 705
14 536 0 0 39 0 688
16 535 0 0 40 0 699
18 519 0 0 49 0 711
20 519 0 0 44 0 698
22 518 0 0 42 0 693
24 513 0 0 45 0 719
26 524 0 0 42 0 735
28 527 0 0 40 0 717
30 528 0 0 44 0 703
32 527 0 0 44 0 695
34 537 0 0 36 0 680
36 541 0 0 37 0 687
38 541 0 0 39 0 716
40 537 0 0 45 0 691
42 520 0 0 53 0 714
44 518 0 0 57 0 699
46 523 0 0 47 0 698
48 527 0 0 44 0 692
50 523 0 0 49 0 697
52 525 0 1 40 0 720
54 522 0 2 43 0 692
56 521 0 6 51 0 706
58 527 0 12 39 1 696
60 526 0 15 42 0 682
62 532 0 20 33 1 687
64 523 0 22 40 4 667
66 522 0 25 36 4 705
68 518 0 36 32 3 719
70 495 0 47 48 0 694
72 493 0 44 45 7 692
74 499 0 53 32 5 689
76 501 0 51 26 12 699
78 482 0 67 39 4 696
80 487 0 73 30 5 685
82 477 0 81 36 5 707
84 466 0 84 39 9 681
86 458 0 94 44 5 705
88 446 0 99 46 6 686
90 447 0 107 40 6 706
92 443 0 111 34 14 701
94 441 0 119 34 14 713
96 430 0 131 33 10 679
98 414 0 133 40 13 709
100 407 0 140 39 16 715
102 402 0 148 31 15 694
104 395 0 157 33 17 715
106 396 0 162 28 16 691
108 384 0 174 32 13 669
110 383 0 179 29 19 703
112 364 0 191 35 13 699
114 362 0 189 33 19 721
116 349 0 202 35 11 684
118 351 0 206 30 12 701
120 351 0 205 27 21 698
122 335 0 209 36 21 709
124 340 0 221 28 22 700
126 337 0 235 24 14 722
128 327 0 233 23 23 702
130 312 0 244 31 26 695
132 317 0 245 24 27 694
134 305 0 258 31 17 677
136 305 0 265 27 22 703
138 295 0 271 28 24 707
140 294 0 278 23 25 659
142 292 0 285 19 23 697
144 276 0 284 28 21 699
146 277 0 287 23 29 697
148 277 0 275 20 40 711
150 264 0 291 27 25 701
152 268 0 297 20 27 736
154 265 0 300 16 32 706
156 266 0 307 14 25 694
158 255 0 306 21 27 704
160 257 0 298 16 30 693
162 254 0 301 18 32 710
164 255 0 310 15 29 672
166 239 0 311 28 32 709
168 239 0 320 23 27 683
170 237 0 325 18 26 707
172 238 0 323 15 30 687
174 222 0 328 24 27 714
176 220 0 330 23 27 697
178 219 0 336 20 25 721
180 217 0 338 16 34 689
182 212 0 336 18 37 703
184 203 0 348 24 30 704
186 211 0 348 12 27 727
188 211 0 350 12 31 723
190 197 0 354 21 27 695
192 202 0 357 14 29 695
194 202 0 368 12 24 671
196 187 0 367 23 31 713
198 201 0 360 9 34 701
200 194 0 362 16 37 695
