0 374 0 0 0 0 714
2 317 0 0 48 0 692
4.00004 308 0 0 46 0 697
6 313 0 0 34 0 702
8 298 0 0 39 0 705
10 298 0 0 33 0 717
12 282 0 0 41 0 709
14 293 0 0 34 0 691
16 294 0 0 45 0 674
18 292 0 0 46 0 703
20 299 0 0 43 0 707
22 288 0 0 54 0 708
24 295 0 0 42 0 686
26 290 0 0 37 0 688
28 274 0 0 41 0 700
30 278 0 0 43 0 721
32 269 0 0 43 0 719
34 258 0 0 41 0 711
36 268 0 0 41 0 691
38 282 0 0 34 0 698
40 294 0 0 35 0 710
42 273 0 0 46 0 690
44 280 0 0 40 0 703
46 266 0 0 39 0 709
48 268 0 0 35 0 706
50 253 0 0 41 0 698
52 258 0 1 39 1 683
54 260 0 2 25 1 695
56 244 0 11 33 2 710
58 237 0 23 27 3 710
60 229 0 23 23 4 683
62 224 0 39 15 5 677
64 210 0 49 21 6 700
66 184 0 72 33 7 681
68 173 0 85 18 10 680
70 150 0 94 31 12 726
72 151 0 104 17 20 712
74 138 0 117 21 16 699
76 130 0 131 16 15 722
78 115 0 132 20 27 681
80 103 0 135 18 20 731
82 101 0 143 16 30 712
84 92 0 140 17 23 724
86 92 0 131 12 24 689
88 87 0 147 7 35 708
90 71 0 171 8 27 713
92 68 0 180 9 21 689
94 63 0 176 6 24 687
96 55 0 164 9 37 717
98 54 0 168 6 22 692
100 51 0 171 5 27 706
102 46 0 173 7 22 720
104 43 0 181 7 28 717
106 43 0 190 11 37 723
108 42 0 207 6 16 700
110 39 0 205 3 35 698
112 40 0 214 0 37 678
114 33 0 223 2 35 712
116 25 0 225 2 32 708
118 19 0 223 4 22 712
120 24 0 226 1 28 689
122 20 0 206 2 32 698
124 19 0 211 2 32 695
126 15 0 208 1 35 691
128 14 0 208 2 28 705
130 11 0 210 3 35 713
132 15 0 215 2 38 717
134 13 0 239 3 33 691
136 10 0 244 2 40 683
138 10 0 245 0 30 702
140 9 0 266 0 32 670
142 7 0 257 1 40 683
144 5 0 253 1 33 696
146 5 0 234 1 33 719
148 6 0 244 0 40 706
150 7 0 254 0 27 741
152 6 0 257 0 42 678
154 5 0 248 1 37 699
156 7 0 246 0 45 691
158 3 0 250 1 39 686
160 5 0 266 0 37 710
162 5 0 274 0 39 727
164 5 0 275 1 36 688
166 6 0 272 0 42 728
168 3 0 277 3 43 692
170 4 0 258 1 40 700
172 5 0 254 0 47 708
174 3 0 266 0 38 704
176 2 0 267 1 31 687
178 3 0 269 0 43 729
180 2 0 254 0 41 693
182 2 0 262 0 45 729
184 2 0 256 0 41 700
186 2 0 258 0 34 690
188 1 0 264 0 33 687
190 1 0 257 0 40 713
192 1 0 257 0 32 712
194 1 0 249 0 41 697
196 0 0 269 0 31 695
198 0 0 264 0 34 697
200 2 0 254 0 52 730
