0 1340 0 0 0 0 697
2 1279 5 0 50 0 703
4.00004 1289 6 0 38 0 695
6 1295 3 0 35 0 720
8 1276 7 0 50 0 704
10 1280 8 0 46 0 713
12 1268 8 0 57 0 688
14 1273 10 0 46 0 686
16 1280 5 0 44 0 707
18 1275 3 0 46 0 684
20 1270 9 0 41 0 659
22 1285 3 0 29 0 714
24 1261 11 0 46 0 696
26 1260 4 0 49 0 695
28 1273 5 0 34 0 698
30 1274 6 0 33 0 699
32 1258 6 0 49 0 699
34 1250 4 0 61 0 719
36 1254 7 0 51 0 723
38 1249 8 0 50 0 680
40 1265 6 0 38 0 724
42 1257 11 0 44 0 719
44 1258 8 0 44 0 686
46 1256 4 0 43 0 711
48 1256 6 0 42 0 691
50 1250 2 0 49 0 717
52 1080 1 169 49 4 687
54 956 0 286 44 13 694
56 857 1 391 35 17 709
58 763 0 487 32 12 728
60 703 0 554 20 20 692
62 617 0 632 28 17 711
64 553 0 693 27 17 663
66 501 0 743 16 27 717
68 439 0 803 17 25 688
70 391 0 849 18 25 716
72 353 0 871 20 34 729
74 326 0 907 14 31 715
76 297 0 936 12 29 710
78 271 0 964 13 26 704
80 256 0 978 6 33 689
82 233 0 979 12 49 709
84 214 0 1009 12 39 703
86 200 0 1035 8 30 707
88 194 0 1046 6 30 726
90 176 0 1058 15 31 703
92 172 0 1062 7 38 700
94 162 0 1073 6 43 701
96 149 0 1090 8 38 690
98 138 0 1096 11 45 696
100 130 0 1124 8 27 689
102 122 0 1122 4 39 702
104 117 0 1122 7 37 697
106 108 0 1131 6 29 665
108 101 0 1127 3 36 711
110 89 0 1140 6 31 711
112 85 0 1137 7 36 692
114 85 1 1134 4 43 677
116 87 0 1125 6 52 727
118 86 0 1138 7 44 687
120 88 0 1154 1 35 704
122 78 0 1157 6 38 670
124 70 0 1155 4 43 715
126 67 0 1151 6 40 710
128 72 0 1151 6 44 686
130 68 0 1164 7 40 689
132 70 0 1171 4 33 687
134 69 0 1160 2 44 706
136 63 0 1169 2 41 700
138 56 0 1178 7 35 683
140 60 0 1171 1 47 713
142 57 0 1169 6 44 689
144 55 0 1172 3 36 678
146 53 0 1163 3 45 699
148 48 0 1165 3 49 703
150 50 0 1178 3 32 707
152 50 0 1180 3 28 707
154 55 0 1168 1 41 687
156 56 0 1171 2 33 687
158 55 0 1159 2 41 688
160 53 0 1159 1 39 693
162 53 0 1157 3 37 680
164 46 0 1154 5 43 715
166 40 0 1147 5 50 687
168 36 0 1152 5 45 706
170 42 0 1159 4 31 699
172 42 0 1155 3 39 684
174 40 0 1157 3 37 693
176 41 0 1139 2 52 733
178 42 0 1162 2 28 700
180 46 0 1146 1 40 687
182 39 0 1160 1 36 709
184 38 0 1157 4 41 701
186 40 0 1164 4 37 708
188 41 0 1151 2 48 699
190 38 0 1153 3 47 725
192 41 0 1149 4 45 724
194 44 1 1148 2 40 704
196 43 0 1154 1 41 688
198 38 0 1168 4 34 706
200 40 0 1156 2 41 694
