0 1581 0 0 0 0 693
2 1538 12 0 40 0 671
4.00004 1547 8 0 27 0 735
6 1559 9 0 40 0 695
8 1572 5 0 44 0 703
10 1569 10 0 38 0 703
12 1558 6 0 35 0 711
14 1559 10 0 44 0 677
16 1549 9 0 45 0 709
18 1572 8 0 48 0 704
20 1584 5 0 40 0 685
22 1578 4 0 43 0 689
24 1564 13 0 33 0 694
26 1585 6 0 42 0 729
28 1596 4 0 39 0 681
30 1598 8 0 44 0 688
32 1601 6 0 55 0 677
34 1626 9 0 38 0 691
36 1637 6 0 39 0 688
38 1639 11 0 36 0 685
40 1661 4 0 45 0 704
42 1671 7 0 38 0 695
44 1668 7 0 38 0 689
46 1673 10 0 43 0 686
48 1662 8 0 32 0 693
50 1646 9 0 44 0 723
52 1480 0 172 43 2 699
54 1349 0 295 36 1 680
56 1211 2 421 43 6 713
58 1126 1 519 28 12 702
60 1041 0 606 35 9 694
62 928 0 699 34 9 696
64 876 0 761 31 9 695
66 785 0 845 29 10 731
68 740 0 901 21 8 687
70 681 0 962 24 16 711
72 622 0 1020 16 17 708
74 588 0 1050 26 22 718
76 544 0 1091 19 25 711
78 503 1 1133 23 23 671
80 471 0 1166 15 21 711
82 450 0 1185 24 22 690
84 414 0 1228 17 29 706
86 388 0 1237 20 30 698
88 370 0 1266 14 29 672
90 338 0 1307 12 23 696
92 308 0 1332 9 25 687
94 291 0 1348 11 22 692
96 278 0 1373 12 29 703
98 260 0 1387 12 25 710
100 237 0 1417 5 21 707
102 212 0 1430 14 31 698
104 207 1 1448 8 31 695
106 208 1 1450 9 38 727
108 196 0 1474 9 28 692
110 180 0 1470 9 32 699
112 169 0 1465 7 28 691
114 149 0 1470 7 34 698
116 145 0 1483 2 41 688
118 128 0 1507 6 33 684
120 122 0 1514 3 28 672
122 111 0 1515 1 36 710
124 114 0 1529 3 28 714
126 94 0 1525 6 39 679
128 90 0 1544 3 35 681
130 86 0 1534 3 32 736
132 87 0 1528 1 35 736
134 76 0 1530 4 43 705
136 74 0 1554 2 33 699
138 72 0 1545 4 35 704
140 62 0 1546 6 48 721
142 64 0 1560 2 39 706
144 60 0 1561 1 35 696
146 49 0 1560 3 33 691
148 45 0 1566 5 29 684
150 48 0 1550 1 43 687
152 47 0 1558 3 42 715
154 48 0 1567 2 36 668
156 42 0 1572 1 44 689
158 41 0 1577 0 43 692
160 38 0 1572 3 34 695
162 45 0 1568 1 35 710
164 39 0 1579 3 40 694
166 40 0 1600 2 40 700
168 38 0 1582 1 37 678
170 33 0 1590 3 39 708
172 33 0 1594 2 26 695
174 32 0 1606 0 40 707
176 27 0 1611 2 39 709
178 26 0 1631 0 29 725
180 26 0 1618 1 41 681
182 25 0 1624 2 30 712
184 23 0 1617 0 48 700
186 21 0 1631 0 30 716
188 19 0 1650 1 24 708
190 18 0 1647 0 41 715
192 18 0 1646 0 37 685
194 17 0 1631 1 32 697
196 16 0 1642 0 37 691
198 15 0 1625 0 46 697
200 12 0 1621 1 39 704
