0 1057 0 0 0 0 0
2 1023 33 0 0 0 0
4.00004 1023 27 0 3 0 0
6 1025 26 0 1 0 0
8 1019 37 0 1 0 0
10 1030 27 0 0 0 0
12 1023 32 0 0 0 0
14 1035 24 0 0 0 0
16 1025 34 0 1 0 0
18 1041 15 0 0 0 0
20 1023 27 0 1 0 0
22 1026 25 0 0 0 0
24 1017 31 0 3 0 0
26 1014 34 0 1 0 0
28 1018 31 0 1 0 0
30 1022 28 0 2 0 0
32 1023 27 0 0 0 0
34 1023 24 0 2 0 0
36 1025 23 0 0 0 0
38 1022 29 0 0 0 0
40 1029 20 0 0 0 0
42 1029 20 0 1 0 0
44 1015 35 0 2 0 0
46 1028 28 0 2 0 0
48 1032 24 0 3 0 0
50 1023 33 0 5 0 0
52 912 1 146 0 2 0
54 881 0 179 1 1 0
56 830 0 226 0 3 0
58 771 0 279 1 2 0
60 726 1 318 0 3 0
62 689 0 363 0 1 0
64 651 0 406 1 0 0
66 615 0 447 0 0 0
68 596 0 464 0 0 0
70 571 0 490 0 1 0
72 542 0 515 0 1 0
74 513 1 547 0 0 0
76 491 0 566 1 1 0
78 462 0 593 1 0 0
80 438 0 614 0 0 0
82 417 0 633 0 1 0
84 393 0 661 0 0 0
86 374 0 680 0 0 0
88 343 0 713 0 2 0
90 325 0 733 0 2 0
92 305 0 751 0 0 0
94 289 0 767 1 0 0
96 276 0 777 0 0 0
98 262 0 784 0 3 0
100 252 0 797 0 1 0
102 232 0 815 0 1 0
104 219 0 823 0 0 0
106 211 0 827 0 1 0
108 205 0 833 0 0 0
110 193 0 846 2 2 0
112 187 0 858 0 0 0
114 175 0 870 0 1 0
116 164 0 887 0 0 0
118 156 0 898 0 0 0
120 150 0 908 0 1 0
122 143 0 914 0 1 0
124 137 0 925 0 0 0
126 127 0 932 0 0 0
128 121 0 936 0 1 0
130 108 0 947 0 2 0
132 97 0 960 1 0 0
134 95 0 967 0 0 0
136 91 0 972 0 1 0
138 82 0 981 0 1 0
140 80 0 986 0 2 0
142 73 0 991 0 2 0
144 72 0 993 0 1 0
146 66 0 998 2 0 0
148 65 0 994 0 0 0
150 65 0 997 0 1 0
152 63 0 1001 1 1 0
154 59 0 1007 0 0 0
156 58 0 1002 0 1 0
158 55 0 1003 0 0 0
160 51 0 1002 0 1 0
162 47 0 1007 0 1 0
164 46 0 1004 0 4 0
166 43 0 1014 0 1 0
168 41 0 1015 0 0 0
170 38 0 1019 0 2 0
172 36 0 1017 0 2 0
174 36 0 1025 0 1 0
176 36 0 1017 1 4 0
178 34 0 1019 0 2 0
180 33 0 1020 0 0 0
182 32 0 1019 0 1 0
184 30 0 1025 0 0 0
186 30 0 1026 0 1 0
188 29 0 1027 0 1 0
190 26 0 1027 0 0 0
192 23 0 1026 0 0 0
194 22 0 1027 0 3 0
196 21 0 1026 1 1 0
198 19 0 1026 1 1 0
200 18 0 1027 0 0 0
