0 1017 0 0 0 0 0
2 988 20 0 2 0 0
4.00004 984 28 0 0 0 0
6 989 24 0 1 0 0
8 988 23 0 1 0 0
10 981 31 0 1 0 0
12 982 30 0 2 0 0
14 984 24 0 2 0 0
16 980 27 0 2 0 0
18 983 25 0 0 0 0
20 973 31 0 0 0 0
22 967 34 0 4 0 0
24 967 37 0 0 0 0
26 970 30 0 0 0 0
28 970 33 0 1 0 0
30 985 20 0 1 0 0
32 975 29 0 2 0 0
34 984 22 0 0 0 0
36 982 23 0 1 0 0
38 978 23 0 2 0 0
40 978 24 0 0 0 0
42 970 31 0 1 0 0
44 967 34 0 0 0 0
46 973 29 0 0 0 0
48 972 27 0 1 0 0
50 972 25 0 2 0 0
52 855 0 147 2 2 0
54 804 0 201 0 2 0
56 759 0 245 1 0 0
58 710 0 292 0 2 0
60 677 0 326 1 0 0
62 630 0 367 1 0 0
64 597 0 398 1 0 0
66 551 1 442 0 2 0
68 521 0 471 0 0 0
70 496 0 493 0 0 0
72 475 0 506 1 1 0
74 448 0 537 0 1 0
76 422 0 557 0 1 0
78 400 0 578 0 2 0
80 377 0 600 0 0 0
82 353 0 625 0 2 0
84 331 0 649 0 1 0
86 321 0 661 0 1 0
88 298 0 685 0 2 0
90 282 0 703 0 0 0
92 269 0 712 0 1 0
94 250 0 732 0 0 0
96 239 0 741 0 1 0
98 228 0 753 1 0 0
100 219 0 757 0 0 0
102 212 0 758 0 3 0
104 206 0 767 1 2 0
106 196 0 778 1 1 0
108 183 0 787 0 2 0
110 173 0 799 2 1 0
112 167 0 801 0 3 0
114 158 0 808 1 1 0
116 151 0 820 0 0 0
118 144 0 827 0 0 0
120 137 0 836 0 2 0
122 127 1 844 0 2 0
124 121 0 852 0 0 0
126 112 0 854 1 3 0
128 105 0 865 1 0 0
130 98 0 869 0 1 0
132 86 0 877 0 0 0
134 80 0 884 0 2 0
136 75 0 892 0 0 0
138 72 0 893 1 1 0
140 69 0 897 0 0 0
142 67 0 901 0 0 0
144 64 0 902 0 1 0
146 63 0 900 2 2 0
148 62 0 904 2 1 0
150 58 0 907 0 0 0
152 55 0 904 2 1 0
154 52 0 911 0 1 0
156 48 0 917 0 3 0
158 45 0 921 0 1 0
160 43 0 922 0 1 0
162 39 0 926 0 1 0
164 38 0 931 1 0 0
166 37 0 933 0 1 0
168 32 0 943 0 1 0
170 32 0 939 0 1 0
172 30 0 939 1 4 0
174 28 0 945 0 0 0
176 24 0 942 0 1 0
178 24 0 942 0 1 0
180 21 0 945 1 2 0
182 21 0 938 1 4 0
184 20 0 943 0 0 0
186 20 0 948 0 2 0
188 20 0 952 0 0 0
190 19 0 956 1 2 0
192 18 0 950 0 3 0
194 18 0 954 0 0 0
196 17 0 955 1 1 0
198 18 0 953 0 1 0
200 17 0 953 0 1 0
