0 843 0 0 0 0 0
2 842 0 0 2 0 0
4.00004 845 0 0 2 0 0
6 846 0 0 2 0 0
8 843 0 0 0 0 0
10 843 0 0 0 0 0
12 845 0 0 0 0 0
14 841 0 0 0 0 0
16 839 0 0 1 0 0
18 842 0 0 2 0 0
20 849 0 0 0 0 0
22 849 0 0 0 0 0
24 847 0 0 2 0 0
26 850 0 0 1 0 0
28 847 0 0 3 0 0
30 845 0 0 3 0 0
32 847 0 0 3 0 0
34 851 0 0 0 0 0
36 851 0 0 1 0 0
38 849 0 0 0 0 0
40 849 0 0 2 0 0
42 850 0 0 0 0 0
44 847 0 0 1 0 0
46 841 0 0 1 0 0
48 840 0 0 1 0 0
50 838 0 0 1 0 0
52 835 0 1 1 2 0
54 832 0 5 1 0 0
56 832 0 8 1 0 0
58 829 0 16 2 0 0
60 827 0 25 0 0 0
62 820 0 25 2 0 0
64 815 0 26 1 0 0
66 809 0 29 0 0 0
68 806 0 31 1 2 0
70 799 0 38 1 0 0
72 798 0 42 1 1 0
74 793 0 46 0 0 0
76 790 0 49 1 1 0
78 788 0 54 1 1 0
80 785 0 62 1 0 0
82 781 0 66 2 0 0
84 775 0 67 1 3 0
86 772 0 71 1 2 0
88 768 0 74 0 0 0
90 762 0 78 0 0 0
92 760 0 84 0 0 0
94 755 0 86 2 0 0
96 755 0 92 0 0 0
98 751 0 100 0 0 0
100 746 0 104 0 0 0
102 742 0 109 1 0 0
104 741 0 116 0 1 0
106 735 0 125 1 0 0
108 734 0 128 0 0 0
110 729 0 128 0 0 0
112 727 0 127 0 1 0
114 723 0 129 0 2 0
116 716 0 130 3 0 0
118 713 0 133 0 0 0
120 706 0 134 0 1 0
122 702 0 139 1 0 0
124 700 0 137 1 0 0
126 700 0 140 1 0 0
128 695 0 146 1 0 0
130 691 0 150 1 1 0
132 689 0 152 1 0 0
134 686 0 151 0 1 0
136 677 0 156 2 1 0
138 675 0 158 1 2 0
140 673 0 157 1 1 0
142 669 0 163 1 1 0
144 664 0 167 3 0 0
146 659 0 174 1 0 0
148 659 0 181 0 1 0
150 655 0 182 0 0 0
152 651 0 183 0 0 0
154 647 0 186 0 1 0
156 644 0 192 2 1 0
158 644 0 197 0 1 0
160 640 0 203 0 3 0
162 638 0 206 0 1 0
164 635 0 211 0 0 0
166 632 0 209 0 1 0
168 630 0 213 1 0 0
170 628 0 213 0 0 0
172 624 0 218 0 3 0
174 618 0 220 0 0 0
176 614 0 226 2 0 0
178 614 0 231 0 0 0
180 610 0 236 1 0 0
182 608 0 237 2 1 0
184 606 0 239 0 0 0
186 601 0 241 1 0 0
188 597 0 245 1 0 0
190 595 0 250 1 1 0
192 595 0 256 0 0 0
194 591 0 256 1 0 0
196 587 0 263 1 0 0
198 585 0 267 0 1 0
200 578 0 275 1 1 0
