0 911 0 0 0 0 0
2 885 27 0 0 0 0
4.00004 884 28 0 2 0 0
6 881 29 0 3 0 0
8 888 31 0 1 0 0
10 881 33 0 0 0 0
12 878 34 0 1 0 0
14 879 35 0 1 0 0
16 876 35 0 3 0 0
18 877 32 0 2 0 0
20 880 30 0 0 0 0
22 871 37 0 0 0 0
24 873 35 0 0 0 0
26 884 24 0 2 0 0
28 881 33 0 2 0 0
30 889 25 0 1 0 0
32 877 36 0 2 0 0
34 883 35 0 0 0 0
36 877 38 0 0 0 0
38 892 23 0 5 0 0
40 886 31 0 2 0 0
42 881 36 0 1 0 0
44 875 39 0 1 0 0
46 880 36 0 1 0 0
48 884 30 0 2 0 0
50 890 24 0 1 0 0
52 745 0 170 0 1 0
54 702 0 225 0 0 0
56 665 1 252 1 1 0
58 626 0 294 0 1 0
60 592 0 327 0 2 0
62 571 0 353 0 0 0
64 541 0 382 0 0 0
66 515 0 406 0 0 0
68 497 0 415 0 3 0
70 469 0 438 1 3 0
72 455 0 451 0 3 0
74 433 0 479 0 1 0
76 415 0 501 0 1 0
78 397 0 523 0 2 0
80 386 0 538 0 0 0
82 362 0 563 1 1 0
84 341 0 583 0 0 0
86 325 0 596 0 2 0
88 303 0 619 1 2 0
90 292 0 630 0 4 0
92 280 0 645 1 1 0
94 273 0 648 1 3 0
96 253 0 668 0 1 0
98 228 0 688 1 2 0
100 216 0 704 0 1 0
102 206 0 719 0 2 0
104 199 0 726 0 1 0
106 193 0 732 0 1 0
108 189 0 732 0 3 0
110 182 0 741 0 1 0
112 177 0 748 0 2 0
114 169 0 758 0 2 0
116 167 0 760 0 1 0
118 157 0 769 1 1 0
120 148 0 781 0 2 0
122 139 0 784 2 2 0
124 129 0 791 1 1 0
126 120 0 800 0 1 0
128 119 0 807 0 0 0
130 109 0 815 0 0 0
132 98 0 828 1 0 0
134 96 0 830 0 0 0
136 90 0 837 0 2 0
138 82 0 850 0 0 0
140 75 0 857 0 0 0
142 72 0 868 1 1 0
144 69 0 869 0 2 0
146 63 0 876 0 0 0
148 60 0 875 0 1 0
150 55 0 881 0 2 0
152 54 0 885 0 1 0
154 53 0 885 0 0 0
156 50 0 886 0 2 0
158 48 0 883 0 1 0
160 45 0 886 0 0 0
162 44 0 886 1 0 0
164 43 0 889 1 2 0
166 39 0 900 0 0 0
168 38 0 904 0 1 0
170 36 0 904 0 1 0
172 34 0 902 1 3 0
174 31 0 907 0 0 0
176 30 0 908 0 0 0
178 28 0 906 0 0 0
180 26 0 901 0 2 0
182 23 0 903 1 0 0
184 23 0 908 0 0 0
186 21 0 909 0 1 0
188 20 0 906 1 2 0
190 20 0 910 0 2 0
192 20 0 907 0 1 0
194 19 0 910 0 1 0
196 18 0 909 0 1 0
198 17 0 913 0 0 0
200 15 0 911 0 1 0
