0 1074 0 0 0 0 0
2 1051 23 0 0 0 1
4.00004 1043 27 0 0 0 2
6 1045 28 0 0 0 0
8 1038 29 0 0 0 1
10 1033 30 0 1 0 0
12 1027 32 0 0 0 1
14 1027 31 0 1 0 0
16 1031 19 0 0 0 1
18 1024 23 0 1 0 3
20 1018 31 0 1 0 1
22 1018 27 0 2 0 0
24 1009 31 0 1 0 0
26 1004 30 0 0 0 2
28 1001 28 0 0 0 2
30 1010 20 0 0 0 3
32 1014 21 0 1 0 0
34 1009 23 0 1 0 1
36 1003 29 0 1 0 2
38 1005 27 0 1 0 0
40 1001 32 0 0 0 1
42 1008 21 0 2 0 3
44 1009 27 0 0 0 0
46 1005 30 0 0 0 0
48 1010 25 0 2 0 1
50 1013 28 0 0 0 0
52 867 0 171 0 0 0
54 784 0 252 0 1 0
56 705 0 328 1 3 0
58 626 0 408 0 2 0
60 557 0 474 0 0 0
62 504 0 523 0 2 0
64 451 0 576 0 2 0
66 404 1 623 0 3 0
68 364 0 667 0 2 0
70 331 0 695 0 0 0
72 299 0 728 0 0 0
74 270 0 751 0 3 0
76 241 0 785 0 0 0
78 221 0 807 0 1 0
80 200 0 820 0 3 0
82 181 0 840 0 1 0
84 162 0 855 0 1 0
86 149 0 877 0 1 0
88 133 0 892 0 0 0
90 122 1 901 0 1 1
92 108 0 916 0 2 0
94 99 0 927 0 0 0
96 88 0 941 0 0 0
98 78 0 949 0 0 1
100 68 0 958 0 2 0
102 64 0 957 0 1 0
104 58 0 967 0 3 0
106 54 0 968 0 4 0
108 46 0 974 0 1 0
110 45 0 975 0 1 0
112 42 0 975 0 3 0
114 36 0 981 0 1 0
116 31 0 984 0 0 0
118 26 0 987 0 1 0
120 23 0 987 1 1 0
122 20 0 995 1 0 0
124 19 0 996 0 1 0
126 17 0 995 0 2 0
128 13 0 1000 0 1 0
130 13 0 1005 0 1 0
132 11 0 1000 0 1 0
134 10 0 998 0 2 0
136 9 0 1000 1 1 0
138 9 0 998 0 3 0
140 9 0 999 0 2 0
142 5 0 1001 0 2 0
144 5 0 1003 0 1 0
146 5 0 1005 0 1 0
148 5 0 1002 0 1 0
150 5 0 995 1 2 0
152 4 0 997 0 0 0
154 3 0 995 0 2 0
156 3 0 992 0 2 0
158 3 0 1000 0 1 0
160 3 0 1001 0 2 1
162 3 0 996 0 2 0
164 3 0 987 0 2 0
166 3 0 981 0 3 0
168 3 0 979 0 2 0
170 2 0 979 0 0 0
172 2 0 978 0 0 0
174 2 0 974 0 1 0
176 2 0 979 0 0 0
178 2 0 979 0 0 0
180 2 0 982 0 1 0
182 2 0 981 0 3 0
184 2 0 981 0 0 0
186 2 0 982 0 0 0
188 2 0 980 0 1 0
190 2 0 981 0 3 0
192 2 0 982 0 2 0
194 1 0 979 0 0 0
196 1 0 974 0 1 0
198 1 0 973 0 1 0
200 1 0 964 0 4 0
