0 1006 0 0 0 0 0
2 975 25 0 1 0 0
4.00004 964 37 0 2 0 0
6 971 30 0 1 0 0
8 968 29 0 3 0 0
10 960 30 0 4 0 0
12 969 31 0 1 0 0
14 975 24 0 1 0 0
16 970 26 0 2 0 0
18 965 34 0 1 0 0
20 972 30 0 1 0 0
22 969 34 0 1 0 0
24 975 33 0 1 0 0
26 983 24 0 2 0 0
28 972 34 0 1 0 0
30 988 21 0 0 0 0
32 972 43 0 0 0 0
34 982 32 0 0 0 0
36 986 29 0 0 0 0
38 988 27 0 1 0 0
40 982 34 0 1 0 0
42 985 31 0 1 0 0
44 983 37 0 2 0 0
46 984 40 0 2 0 0
48 995 31 0 3 0 0
50 992 35 0 1 0 0
52 858 0 170 0 0 0
54 800 0 224 2 2 0
56 756 0 270 0 2 0
58 710 0 318 1 0 0
60 652 0 373 0 1 0
62 602 1 425 0 3 0
64 559 0 472 0 1 0
66 518 0 512 2 0 0
68 488 0 543 1 1 0
70 452 0 586 1 0 0
72 421 1 614 2 5 0
74 402 0 637 0 2 0
76 374 0 666 0 1 0
78 349 0 689 1 0 0
80 329 0 714 1 0 0
82 314 0 728 0 2 0
84 299 0 739 0 2 0
86 277 0 754 0 0 0
88 259 0 766 0 1 0
90 245 0 776 2 1 0
92 229 0 792 0 2 0
94 218 0 799 0 2 0
96 205 0 810 0 0 0
98 193 0 826 1 2 0
100 176 0 845 1 0 0
102 162 0 852 0 1 0
104 154 0 857 0 0 0
106 148 0 857 0 3 0
108 137 0 867 1 3 0
110 131 0 876 0 0 0
112 125 0 880 2 1 0
114 120 0 887 0 3 0
116 112 0 889 0 2 0
118 106 0 900 0 2 0
120 105 0 898 2 2 0
122 99 0 903 0 2 0
124 99 0 906 1 0 0
126 86 0 921 0 0 0
128 84 0 924 0 1 0
130 82 0 929 0 0 0
132 76 0 934 0 0 0
134 72 0 937 0 1 0
136 69 0 947 0 0 0
138 64 0 945 0 2 0
140 60 0 952 0 3 0
142 57 0 954 0 3 0
144 54 0 952 0 2 0
146 52 0 953 0 1 0
148 48 0 963 0 1 0
150 46 0 961 1 2 0
152 46 0 968 0 2 0
154 43 0 974 0 1 0
156 42 0 978 0 2 0
158 39 0 983 0 1 0
160 39 0 978 0 3 0
162 36 0 983 0 0 0
164 37 0 981 0 1 0
166 35 0 981 0 3 0
168 34 0 989 0 1 0
170 35 0 991 0 1 0
172 29 0 993 0 2 0
174 27 0 998 1 1 0
176 26 0 998 0 1 0
178 26 0 1001 0 1 0
180 23 0 1004 1 0 0
182 23 0 1005 0 1 0
184 23 0 1007 0 1 0
186 22 0 1010 0 2 0
188 21 0 1009 0 1 0
190 21 0 1008 0 1 0
192 20 0 1012 0 1 0
194 17 0 1019 0 0 0
196 17 0 1022 1 1 0
198 17 0 1023 0 2 0
200 15 0 1027 0 0 0
