0 1036 0 0 0 0 0
2 994 33 0 4 0 0
4.00004 985 40 0 3 0 0
6 991 37 0 0 0 0
8 973 54 0 3 0 0
10 975 47 0 4 0 0
12 975 47 0 0 0 0
14 962 54 0 1 0 0
16 980 40 0 2 0 0
18 963 50 0 5 0 0
20 972 43 0 2 0 0
22 976 41 0 2 0 0
24 965 47 0 2 0 0
26 966 41 0 2 0 0
28 969 49 0 1 0 0
30 974 37 0 0 0 0
32 957 44 0 3 0 0
34 963 41 0 1 0 0
36 960 42 0 2 0 0
38 960 44 0 1 0 0
40 956 49 0 4 0 0
42 965 42 0 0 0 0
44 961 42 0 2 0 0
46 947 50 0 4 0 0
48 953 45 0 1 0 0
50 963 41 0 3 0 0
52 797 1 205 0 4 0
54 749 0 267 0 0 0
56 686 0 332 1 0 0
58 635 0 385 0 1 0
60 590 0 435 0 1 0
62 549 1 475 2 2 0
64 512 0 502 2 3 0
66 482 0 535 0 0 0
68 454 0 559 0 2 0
70 425 0 595 1 2 0
72 394 0 633 0 1 0
74 361 0 665 1 1 0
76 335 0 692 0 4 0
78 312 0 719 0 2 0
80 291 0 741 0 1 0
82 267 0 756 2 1 0
84 251 0 774 0 1 0
86 231 0 786 0 2 0
88 219 0 797 0 8 0
90 211 0 813 1 1 0
92 188 0 836 0 2 0
94 176 0 850 0 2 0
96 171 0 855 1 2 0
98 156 0 875 0 2 0
100 146 0 883 0 1 0
102 141 0 887 0 3 0
104 130 0 906 1 1 0
106 123 0 913 1 1 0
108 120 0 915 0 1 0
110 108 0 928 1 3 0
112 99 0 934 0 0 0
114 88 0 940 0 2 0
116 84 0 949 0 1 0
118 84 0 951 0 1 0
120 78 0 958 0 1 0
122 71 0 966 0 1 0
124 63 0 968 0 2 0
126 57 0 979 0 1 0
128 49 0 987 1 2 0
130 46 0 986 0 3 0
132 43 0 992 0 2 0
134 38 0 998 1 0 0
136 37 0 991 1 5 0
138 39 0 997 1 0 0
140 37 0 1001 1 1 0
142 35 0 1001 0 4 0
144 35 0 1002 0 2 0
146 32 0 1006 0 3 0
148 29 0 1008 3 1 0
150 27 0 1010 1 1 0
152 25 0 1008 0 0 0
154 26 0 1008 0 1 0
156 24 0 1008 0 3 0
158 23 0 1003 0 1 0
160 23 0 1001 0 2 0
162 20 0 1002 0 1 0
164 19 0 1008 0 0 0
166 17 0 1011 0 4 0
168 16 0 1014 0 2 0
170 16 0 1012 0 1 0
172 17 0 1011 0 1 0
174 20 0 1014 0 2 0
176 14 0 1021 0 1 0
178 17 0 1019 0 1 0
180 15 0 1020 0 0 0
182 13 0 1018 2 6 0
184 12 0 1025 0 1 0
186 11 0 1023 0 1 0
188 10 0 1020 0 2 0
190 11 0 1020 1 0 0
192 10 0 1022 2 0 0
194 9 0 1019 1 1 0
196 9 0 1019 0 4 0
198 7 0 1021 0 5 0
200 7 0 1020 1 2 0
