0 1542 0 0 0 0
2 1517 9 0 3 0
4.00004 1517 8 0 3 0
6 1519 5 0 5 0
8 1517 9 0 4 0
10 1516 11 0 2 0
12 1521 12 0 1 0
14 1528 10 0 3 0
16 1536 7 0 4 0
18 1532 13 0 3 0
20 1532 11 0 2 0
22 1538 7 0 2 0
24 1538 10 0 3 0
26 1540 12 0 2 0
28 1545 4 0 5 0
30 1545 4 0 6 0
32 1546 5 0 3 0
34 1535 11 0 3 0
36 1529 19 0 3 0
38 1537 11 0 5 0
40 1546 9 0 1 0
42 1549 6 0 4 0
44 1547 7 0 4 0
46 1551 8 0 1 0
48 1552 6 0 2 0
50 1549 6 0 2 0
52 1359 0 190 4 0
54 1204 1 345 5 0
56 1065 0 487 2 1
58 952 1 598 3 3
60 850 0 701 2 1
62 749 0 802 1 1
64 676 0 872 2 1
66 613 0 932 3 1
68 555 0 987 1 1
70 507 1 1029 1 2
72 455 0 1080 2 2
74 410 0 1124 1 1
76 380 0 1161 0 1
78 349 0 1195 1 2
80 316 0 1232 1 0
82 301 0 1249 1 0
84 279 0 1270 1 0
86 261 0 1286 1 5
88 239 0 1316 0 4
90 220 2 1337 1 0
92 195 0 1356 1 2
94 185 0 1371 0 3
96 169 0 1392 1 0
98 149 0 1405 1 5
100 138 0 1423 1 1
102 128 0 1434 2 3
104 124 0 1435 0 6
106 113 0 1449 2 4
108 104 0 1461 3 3
110 99 0 1466 0 1
112 89 0 1480 0 4
114 88 0 1484 0 3
116 88 0 1489 1 3
118 84 0 1483 0 8
120 75 0 1489 1 2
122 70 1 1492 1 1
124 63 0 1498 1 3
126 62 0 1501 0 3
128 59 0 1502 1 4
130 58 0 1505 1 2
132 51 1 1509 1 2
134 49 0 1515 0 3
136 45 0 1520 0 6
138 42 0 1528 0 4
140 44 0 1527 0 3
142 42 0 1528 0 1
144 43 1 1524 0 0
146 41 0 1522 3 4
148 44 0 1523 1 3
150 42 0 1524 0 1
152 43 0 1523 0 3
154 40 0 1520 0 6
156 36 0 1525 2 2
158 31 0 1525 0 3
160 27 0 1528 1 0
162 27 0 1527 0 1
164 24 0 1531 0 2
166 24 0 1533 0 4
168 22 1 1535 1 4
170 23 0 1538 0 1
172 22 0 1540 0 3
174 24 0 1536 0 5
176 23 0 1545 0 2
178 19 0 1548 1 4
180 22 0 1548 1 5
182 22 0 1551 0 5
184 22 0 1555 1 2
186 20 0 1559 0 3
188 21 0 1554 0 5
190 16 0 1558 1 1
192 16 0 1558 0 1
194 17 0 1555 0 2
196 15 0 1557 0 1
198 12 0 1556 0 1
200 12 0 1549 0 2
