0 618 0 0 0 0
2 621 0 0 3 0
4.00004 616 0 0 4 0
6 611 0 0 3 0
8 613 0 0 4 0
10 620 0 0 5 0
12 624 0 0 7 0
14 627 0 0 3 0
16 621 0 0 7 0
18 627 0 0 4 0
20 632 0 0 3 0
22 629 0 0 4 0
24 633 0 0 4 0
26 637 0 0 0 0
28 636 0 0 5 0
30 635 0 0 4 0
32 634 0 0 3 0
34 634 0 0 2 0
36 636 0 0 2 0
38 637 0 0 1 0
40 640 0 0 2 0
42 651 0 0 3 0
44 647 0 0 3 0
46 640 0 0 4 0
48 640 0 0 3 0
50 647 0 0 1 0
52 642 0 0 7 0
54 652 0 1 4 0
56 651 0 2 2 0
58 646 0 9 5 0
60 641 0 14 3 0
62 632 0 18 4 1
64 625 0 22 3 0
66 624 0 28 2 0
68 619 0 34 2 0
70 619 0 35 1 0
72 610 0 37 3 2
74 606 0 42 0 1
76 596 0 52 3 1
78 586 0 58 6 0
80 580 0 67 3 0
82 574 0 70 2 2
84 564 0 79 2 2
86 558 0 87 4 0
88 551 0 87 2 1
90 544 0 101 2 1
92 536 0 110 2 1
94 535 0 116 0 0
96 528 0 121 1 1
98 521 0 132 3 1
100 518 0 139 3 1
102 508 0 144 3 1
104 507 0 153 3 2
106 495 0 159 3 2
108 493 0 160 1 4
110 484 0 174 2 1
112 479 0 182 3 1
114 472 0 190 2 1
116 466 0 199 1 0
118 460 0 205 3 2
120 455 0 212 4 2
122 452 0 221 2 1
124 447 0 228 2 0
126 441 0 236 2 1
128 437 0 239 2 3
130 434 0 249 2 0
132 427 0 251 1 2
134 421 0 260 0 0
136 414 0 265 2 2
138 405 0 268 3 5
140 400 0 276 3 3
142 399 0 284 1 2
144 395 0 291 1 1
146 389 0 294 2 1
148 383 0 304 1 5
150 377 0 308 1 4
152 370 0 317 2 3
154 369 0 325 2 3
156 365 0 334 2 3
158 360 0 337 1 3
160 356 0 343 2 1
162 354 0 348 0 3
164 348 0 357 2 1
166 344 0 353 2 4
168 339 0 362 3 3
170 334 0 363 2 3
172 331 0 362 2 5
174 322 0 364 1 2
176 317 0 375 3 0
178 314 0 381 1 0
180 312 0 383 1 1
182 310 0 390 1 1
184 300 0 398 2 6
186 297 0 398 1 4
188 293 0 407 2 3
190 292 0 406 1 1
192 289 0 413 1 1
194 285 0 418 1 0
196 282 0 414 0 2
198 274 0 417 0 5
200 268 0 422 2 5
