0 1505 0 0 0 0
2 1485 8 0 5 0
4.00004 1480 10 0 6 0
6 1489 7 0 5 0
8 1491 5 0 3 0
10 1493 9 0 4 0
12 1495 8 0 3 0
14 1497 6 0 5 0
16 1488 13 0 3 0
18 1494 7 0 3 0
20 1492 12 0 3 0
22 1498 7 0 8 0
24 1495 13 0 7 0
26 1508 7 0 5 0
28 1508 9 0 2 0
30 1508 7 0 5 0
32 1516 8 0 1 0
34 1508 4 0 3 0
36 1506 8 0 6 0
38 1507 8 0 1 0
40 1514 8 0 1 0
42 1527 7 0 1 0
44 1523 8 0 4 0
46 1512 7 0 4 0
48 1515 10 0 1 0
50 1516 8 0 3 0
52 1317 0 202 6 0
54 1199 1 329 1 0
56 1060 0 468 2 1
58 950 0 585 1 1
60 853 0 686 3 1
62 771 0 768 5 2
64 728 0 817 3 0
66 663 0 883 4 2
68 603 0 946 3 1
70 542 0 1009 2 0
72 499 0 1060 0 1
74 448 0 1109 1 0
76 411 1 1144 4 1
78 376 0 1186 1 1
80 332 0 1227 2 2
82 290 0 1266 1 2
84 264 0 1290 1 5
86 248 0 1312 1 3
88 235 0 1323 2 5
90 210 0 1345 2 1
92 198 0 1359 3 4
94 185 0 1375 1 2
96 181 0 1383 1 3
98 170 0 1394 3 1
100 161 0 1407 2 2
102 149 0 1417 3 2
104 144 0 1429 0 3
106 133 0 1435 0 3
108 118 0 1442 1 6
110 117 0 1451 0 3
112 101 0 1460 0 3
114 95 0 1478 0 2
116 82 0 1491 1 2
118 81 0 1493 1 6
120 78 0 1506 0 1
122 80 0 1507 0 4
124 78 0 1511 0 1
126 77 0 1511 0 2
128 72 0 1513 1 2
130 68 0 1514 2 2
132 68 0 1524 0 0
134 63 0 1531 0 2
136 62 0 1530 0 7
138 58 0 1540 0 1
140 55 0 1537 1 2
142 54 0 1541 1 1
144 53 0 1540 1 2
146 51 0 1541 0 5
148 51 0 1547 0 5
150 47 0 1552 1 7
152 50 0 1547 0 4
154 44 0 1549 0 4
156 43 0 1558 0 4
158 41 0 1548 0 3
160 38 0 1545 1 5
162 36 0 1548 0 5
164 40 0 1553 0 3
166 40 0 1551 0 0
168 36 0 1548 0 4
170 32 0 1549 0 2
172 32 0 1549 0 0
174 31 0 1539 0 8
176 27 0 1543 0 6
178 28 0 1541 1 5
180 25 0 1547 0 5
182 21 0 1554 0 1
184 24 0 1555 0 2
186 21 0 1554 0 3
188 23 0 1557 0 4
190 21 0 1562 0 5
192 21 0 1560 0 7
194 23 0 1561 0 7
196 22 0 1561 0 7
198 19 0 1561 0 3
200 19 0 1565 0 2
