0 1418 0 0 0 0
2 1409 10 0 6 0
4.00004 1404 17 0 3 0
6 1415 9 0 4 0
8 1419 8 0 3 0
10 1413 15 0 1 0
12 1423 10 0 0 0
14 1415 12 0 1 0
16 1412 10 0 2 0
18 1412 6 0 6 0
20 1412 12 0 1 0
22 1414 13 0 2 0
24 1409 9 0 10 0
26 1415 12 0 2 0
28 1413 9 0 3 0
30 1418 6 0 5 0
32 1418 9 0 2 0
34 1415 7 0 4 0
36 1415 8 0 3 0
38 1417 10 0 4 0
40 1407 14 0 4 0
42 1421 9 0 2 0
44 1418 4 0 4 0
46 1414 6 0 3 0
48 1407 8 0 4 0
50 1406 9 0 1 0
52 1217 0 199 1 0
54 1071 1 343 1 0
56 947 0 462 1 1
58 853 0 564 1 1
60 765 1 642 4 0
62 679 0 732 3 2
64 605 2 804 0 2
66 542 0 870 1 1
68 477 0 947 0 1
70 436 0 986 1 4
72 403 0 1023 0 1
74 371 0 1050 1 3
76 329 0 1091 2 3
78 294 0 1133 2 2
80 265 0 1164 3 3
82 243 1 1189 0 1
84 219 0 1215 1 2
86 195 0 1240 1 0
88 172 0 1258 0 1
90 164 0 1263 0 3
92 138 0 1284 1 0
94 124 0 1297 1 2
96 123 0 1305 0 1
98 122 0 1306 3 2
100 112 0 1318 1 1
102 107 0 1328 2 2
104 102 1 1338 0 0
106 90 0 1339 1 2
108 87 0 1345 1 1
110 78 0 1344 2 5
112 79 0 1347 0 2
114 74 0 1349 0 2
116 64 1 1357 0 0
118 64 0 1358 1 6
120 60 0 1363 0 1
122 57 0 1364 0 3
124 55 0 1377 1 1
126 58 0 1370 1 3
128 58 0 1376 0 2
130 49 0 1382 1 2
132 54 0 1372 0 1
134 51 0 1370 0 2
136 52 0 1369 0 0
138 58 0 1368 1 1
140 58 0 1371 1 3
142 58 0 1378 0 1
144 52 0 1375 1 3
146 49 0 1374 0 2
148 44 0 1375 1 5
150 45 0 1370 1 2
152 45 0 1368 0 3
154 44 0 1373 0 2
156 43 0 1377 1 4
158 43 0 1383 2 2
160 51 0 1381 0 2
162 48 0 1390 0 0
164 39 0 1387 1 2
166 38 0 1383 2 1
168 39 0 1368 1 1
170 36 0 1364 2 1
172 35 0 1365 1 4
174 32 0 1370 0 2
176 30 0 1372 1 4
178 27 0 1371 0 2
180 29 0 1372 1 2
182 29 0 1368 0 6
184 28 0 1377 1 0
186 27 0 1377 0 1
188 23 0 1378 0 3
190 22 0 1372 0 5
192 18 0 1376 0 3
194 21 0 1371 0 5
196 23 0 1371 2 3
198 26 0 1373 1 1
200 25 0 1377 0 2
