0 866 0 0 0 0
2 829 0 0 31 0
4.00004 805 0 0 54 0
6 801 0 0 49 0
8 793 0 0 63 0
10 795 0 0 54 0
12 777 0 0 74 0
14 764 0 0 92 0
16 765 0 0 90 0
18 767 0 0 88 0
20 770 0 0 84 0
22 751 0 0 106 0
24 755 0 0 102 0
26 762 0 0 94 0
28 754 0 0 102 0
30 754 0 0 96 0
32 745 0 0 115 0
34 758 0 0 95 0
36 749 0 0 107 0
38 760 0 0 92 0
40 747 0 0 97 0
42 742 0 0 114 0
44 736 0 0 115 0
46 737 0 0 113 0
48 744 0 0 105 0
50 747 0 0 112 0
52 743 0 0 112 0
54 749 0 0 109 0
56 746 0 0 108 0
58 750 0 0 98 0
60 753 0 0 92 1
62 758 0 0 94 3
64 762 0 0 91 3
66 755 0 2 98 2
68 746 0 2 103 5
70 748 0 3 97 5
72 745 0 3 98 6
74 740 0 4 104 8
76 752 0 4 86 8
78 751 0 4 84 7
80 747 0 4 89 11
82 759 0 4 66 12
84 746 0 4 74 17
86 748 0 7 70 16
88 742 0 9 75 17
90 733 0 8 84 15
92 727 0 11 79 19
94 730 0 14 77 22
96 729 0 15 71 23
98 721 0 18 78 24
100 727 0 20 66 23
102 722 0 22 76 23
104 707 0 25 79 25
106 716 0 27 72 25
108 707 0 29 74 29
110 709 0 30 74 31
112 715 0 31 68 28
114 696 0 37 88 25
116 695 0 41 85 27
118 691 0 43 83 26
120 695 0 44 73 35
122 695 0 49 74 31
124 684 0 56 77 30
126 683 0 56 72 35
128 672 0 61 76 32
130 681 0 61 67 32
132 674 0 66 73 28
134 662 0 65 84 36
136 656 0 68 77 31
138 670 0 70 54 32
140 666 0 72 57 31
142 659 0 73 67 35
144 651 0 80 69 30
146 652 0 80 64 40
148 651 0 79 66 40
150 644 0 80 72 46
152 644 0 82 73 50
154 650 0 89 62 43
156 643 0 93 59 42
158 642 0 91 69 42
160 638 0 97 64 41
162 640 0 97 58 47
164 633 0 99 59 44
166 618 0 104 73 50
168 621 0 109 70 46
170 622 0 116 67 38
172 619 0 115 63 42
174 604 0 118 79 38
176 602 0 123 76 34
178 608 0 125 62 38
180 607 0 128 58 36
182 597 0 133 69 33
184 592 0 134 71 40
186 601 0 137 59 32
188 593 0 139 61 37
190 596 0 139 56 39
192 591 0 141 62 40
194 581 0 135 63 55
196 582 0 144 69 49
198 578 0 145 58 58
200 565 0 149 69 60
