0 968 0 0 0 0
2 926 9 0 30 0
4.00004 916 8 0 38 0
6 915 4 0 38 0
8 907 6 0 47 0
10 899 9 0 54 0
12 905 5 0 52 0
14 913 6 0 43 0
16 913 5 0 35 0
18 904 9 0 46 0
20 910 5 0 43 0
22 906 5 0 55 0
24 902 7 0 57 0
26 904 4 0 50 0
28 906 5 0 51 0
30 904 4 0 57 0
32 895 7 0 60 0
34 903 5 0 55 0
36 902 3 0 56 0
38 900 4 0 56 0
40 899 6 0 63 0
42 893 8 0 60 0
44 916 4 0 45 0
46 910 10 0 48 0
48 914 4 0 48 0
50 910 5 0 53 0
52 754 0 155 56 0
54 640 0 281 46 2
56 560 0 362 36 10
58 496 2 409 31 19
60 437 0 475 25 15
62 359 0 540 37 18
64 320 0 593 25 20
66 281 0 633 31 18
68 244 0 672 29 21
70 211 1 711 28 18
72 185 0 734 31 20
74 167 0 753 19 24
76 154 0 764 12 32
78 138 0 777 19 34
80 124 0 786 22 39
82 109 0 810 22 24
84 105 0 813 18 32
86 81 0 840 19 29
88 79 0 843 12 28
90 67 0 855 11 33
92 65 0 850 10 43
94 52 0 865 12 34
96 51 0 861 12 43
98 48 0 861 18 41
100 51 0 862 19 37
102 49 0 876 10 27
104 42 0 867 21 36
106 45 0 869 15 40
108 45 1 875 10 40
110 41 0 888 5 32
112 42 0 895 7 25
114 38 0 887 14 35
116 37 0 882 10 38
118 36 0 881 10 46
120 28 0 895 10 33
122 26 0 887 10 40
124 21 0 884 13 35
126 15 0 891 15 40
128 23 0 882 12 36
130 23 0 873 14 39
132 23 0 868 14 42
134 27 0 871 14 39
136 28 0 881 10 32
138 28 0 872 8 41
140 27 0 886 7 32
142 24 0 894 14 28
144 24 0 890 15 27
146 24 0 881 13 39
148 23 0 891 10 27
150 22 0 890 14 29
152 24 0 880 10 45
154 27 0 886 6 33
156 23 0 890 7 28
158 26 0 887 6 32
160 27 0 893 8 26
162 27 0 890 13 29
164 27 0 888 11 37
166 32 0 892 7 31
168 30 0 896 9 27
170 31 0 890 7 36
172 28 0 898 7 35
174 28 0 894 8 40
176 27 0 884 8 49
178 25 0 895 9 39
180 21 0 907 6 31
182 21 0 899 3 37
184 18 0 901 7 33
186 19 0 897 8 39
188 17 0 899 11 39
190 16 0 913 12 23
192 20 0 901 7 32
194 19 0 898 4 40
196 16 0 893 6 39
198 15 1 886 8 45
200 20 0 888 8 45
