0 959 0 0 0 0
2 920 7 0 37 0
4.00004 904 10 0 44 0
6 899 5 0 55 0
8 903 5 0 55 0
10 888 15 0 65 0
12 881 12 0 82 0
14 883 6 0 88 0
16 875 6 0 91 0
18 868 3 0 97 0
20 860 7 0 106 0
22 854 6 0 115 0
24 844 9 0 122 0
26 857 7 0 110 0
28 856 9 0 110 0
30 853 10 0 111 0
32 873 3 0 100 0
34 854 5 0 117 0
36 849 6 0 121 0
38 851 7 0 112 0
40 846 8 0 115 0
42 844 9 0 115 0
44 832 11 0 118 0
46 834 6 0 122 0
48 822 10 0 129 0
50 829 7 0 126 0
52 657 0 168 130 4
54 553 0 276 124 7
56 463 0 371 126 9
58 396 0 447 115 13
60 318 0 516 127 16
62 263 1 563 114 35
64 229 0 613 105 32
66 181 1 655 105 33
68 158 0 681 104 34
70 147 0 698 94 41
72 117 0 726 85 48
74 99 0 738 81 59
76 85 0 749 77 65
78 75 0 766 68 62
80 70 0 780 65 56
82 55 0 783 70 65
84 52 0 788 67 61
86 51 0 789 59 71
88 43 0 804 53 61
90 39 0 815 56 62
92 36 0 811 55 69
94 37 0 808 58 74
96 29 0 824 58 67
98 27 1 821 56 74
100 19 0 822 54 77
102 18 0 826 56 78
104 17 0 829 52 79
106 23 0 826 50 87
108 22 0 816 45 101
110 23 0 829 38 91
112 22 0 826 43 92
114 22 0 813 37 106
116 22 0 815 30 107
118 21 0 814 35 105
120 19 0 813 39 102
122 17 0 826 41 93
124 17 0 823 39 98
126 17 0 832 39 89
128 14 0 829 46 100
130 12 0 831 45 100
132 12 0 822 43 107
134 14 0 824 44 102
136 12 0 828 45 99
138 16 0 837 36 92
140 14 0 834 41 95
142 14 0 842 40 89
144 11 0 838 44 97
146 11 0 830 45 106
148 12 0 831 46 102
150 14 0 831 52 97
152 14 0 840 50 93
154 17 0 838 45 91
156 18 0 826 44 104
158 16 0 834 46 99
160 16 0 832 42 102
162 14 0 846 35 90
164 17 0 840 35 98
166 14 0 834 33 101
168 18 0 833 39 98
170 18 0 835 34 100
172 18 0 842 34 102
174 15 0 837 37 106
176 14 0 837 41 107
178 18 0 844 35 104
180 17 0 843 32 101
182 13 0 855 31 91
184 12 0 851 32 97
186 12 0 853 35 95
188 11 0 855 38 97
190 12 0 849 38 102
192 12 0 855 31 99
194 13 0 850 35 107
196 14 0 847 35 111
198 15 1 853 33 97
200 13 0 861 33 97
