0 906 0 0 0 0
2 869 0 0 45 0
4.00004 865 0 0 55 0
6 837 0 0 75 0
8 818 0 0 94 0
10 806 0 0 106 0
12 806 0 0 102 0
14 796 0 0 112 0
16 797 0 0 108 0
18 794 0 0 110 0
20 783 0 0 118 0
22 778 0 0 118 0
24 779 0 0 123 0
26 775 0 0 128 0
28 774 0 0 135 0
30 762 0 0 151 0
32 764 0 0 145 0
34 770 0 0 143 0
36 768 0 0 138 0
38 770 0 0 136 0
40 772 0 0 130 0
42 772 0 0 127 0
44 772 0 0 126 0
46 769 0 0 135 0
48 767 0 0 134 0
50 784 0 0 117 0
52 767 0 0 129 0
54 768 0 0 129 0
56 763 0 0 134 0
58 764 0 0 128 0
60 760 0 0 134 0
62 761 0 0 139 1
64 762 0 0 127 3
66 758 0 0 129 6
68 749 0 1 139 3
70 747 0 2 134 4
72 761 0 2 117 10
74 755 0 2 119 13
76 745 0 2 126 15
78 749 0 3 114 13
80 746 0 5 123 9
82 749 0 5 113 14
84 732 0 8 126 22
86 731 0 9 124 27
88 735 0 11 114 24
90 731 0 16 116 18
92 717 0 16 121 22
94 723 0 23 105 20
96 710 0 22 111 28
98 712 0 21 104 36
100 706 0 25 110 41
102 704 0 24 110 43
104 706 0 29 105 37
106 710 0 31 100 38
108 700 0 34 101 31
110 686 0 37 116 33
112 687 0 38 110 36
114 685 0 40 104 33
116 679 0 43 109 36
118 679 0 45 103 31
120 686 0 47 96 33
122 682 0 49 94 37
124 680 0 54 89 34
126 682 0 52 83 38
128 681 0 59 82 38
130 681 0 58 72 41
132 662 0 59 91 44
134 670 0 66 78 43
136 664 0 69 81 47
138 659 0 73 87 51
140 655 0 72 82 52
142 645 0 80 91 51
144 653 0 86 80 46
146 645 0 88 82 49
148 650 0 95 75 43
150 649 0 102 82 42
152 642 0 104 86 35
154 616 0 103 106 36
156 630 0 107 85 36
158 620 0 107 90 42
160 608 0 113 99 37
162 608 0 106 104 53
164 607 0 110 107 53
166 609 0 112 97 51
168 609 0 116 96 48
170 608 0 122 92 48
172 614 0 128 86 50
174 605 0 131 87 51
176 600 0 132 95 53
178 593 0 131 95 52
180 602 0 130 83 60
182 605 0 137 71 55
184 606 0 133 73 63
186 604 0 132 73 73
188 596 0 145 79 67
190 601 0 147 71 67
192 600 0 150 71 63
194 593 0 150 77 59
196 599 0 157 69 55
198 589 0 164 77 56
200 593 0 158 70 63
