0 969 0 0 0 0
2 932 0 0 26 0
4.00004 932 0 0 32 0
6 922 0 0 38 0
8 919 0 0 45 0
10 904 0 0 64 0
12 906 0 0 59 0
14 901 0 0 58 0
16 906 0 0 56 0
18 906 0 0 60 0
20 905 0 0 62 0
22 901 0 0 65 0
24 888 0 0 74 0
26 896 0 0 64 0
28 891 0 0 68 0
30 895 0 0 68 0
32 899 0 0 74 0
34 898 0 0 81 0
36 901 0 0 77 0
38 897 0 0 80 0
40 902 0 0 71 0
42 900 0 0 71 0
44 902 0 0 75 0
46 902 0 0 79 0
48 900 0 0 83 0
50 900 0 0 78 0
52 893 0 0 87 0
54 903 0 0 79 0
56 907 0 0 79 0
58 901 0 0 73 1
60 905 0 0 79 1
62 905 0 0 74 0
64 908 0 0 76 1
66 911 0 0 66 0
68 911 0 0 64 1
70 909 0 0 72 1
72 906 0 0 66 1
74 908 0 0 66 3
76 911 0 0 63 8
78 901 0 0 79 7
80 902 0 0 78 9
82 899 0 0 82 10
84 901 0 1 69 13
86 902 0 1 63 14
88 906 0 1 57 17
90 912 0 4 53 21
92 907 0 10 59 14
94 905 0 11 59 19
96 901 0 14 62 13
98 897 0 13 63 14
100 890 0 15 66 19
102 893 0 14 60 18
104 888 0 17 62 18
106 883 0 19 67 22
108 878 0 23 64 14
110 874 0 23 64 21
112 877 0 24 61 18
114 875 0 27 59 22
116 871 0 30 64 24
118 880 0 31 50 19
120 875 0 33 52 29
122 865 0 36 66 25
124 871 0 39 61 21
126 870 0 39 56 22
128 868 0 41 59 25
130 869 0 45 58 22
132 867 0 46 58 24
134 864 0 49 61 20
136 860 0 53 67 22
138 854 0 56 73 20
140 853 0 56 68 26
142 848 0 64 68 16
144 856 0 68 55 15
146 859 0 70 54 13
148 860 0 71 49 17
150 853 0 71 50 20
152 848 0 72 54 24
154 853 0 74 41 21
156 848 0 79 46 19
158 848 0 81 47 22
160 844 0 84 52 25
162 847 0 84 48 26
164 840 0 86 57 29
166 832 0 87 66 19
168 841 0 93 49 23
170 839 0 95 54 21
172 845 0 96 51 22
174 838 0 98 53 23
176 832 0 99 60 23
178 836 0 98 55 26
180 848 0 102 36 28
182 843 0 104 43 20
184 842 0 106 46 27
186 842 0 108 43 21
188 842 0 105 39 28
190 843 0 107 37 30
192 846 0 104 34 31
194 846 0 103 33 34
196 843 0 107 34 29
198 837 0 109 42 31
200 838 0 112 39 30
