0 844 0 0 0 0
2 813 0 0 27 0
4.00004 806 0 0 36 0
6 803 0 0 40 0
8 799 0 0 37 0
10 802 0 0 35 0
12 801 0 0 37 0
14 801 0 0 39 0
16 801 0 0 38 0
18 806 0 0 28 0
20 792 0 0 37 0
22 798 0 0 41 0
24 796 0 0 38 0
26 800 0 0 30 0
28 798 0 0 31 0
30 793 0 0 36 0
32 791 0 0 29 0
34 788 0 0 27 0
36 786 0 0 25 0
38 780 0 0 34 0
40 787 0 0 30 0
42 795 0 0 24 0
44 791 0 0 35 0
46 785 0 0 38 0
48 798 0 0 29 0
50 798 0 0 24 0
52 790 0 0 38 0
54 792 0 0 36 0
56 796 0 0 22 0
58 787 0 0 34 2
60 780 0 2 39 4
62 778 0 3 41 4
64 776 0 5 36 2
66 778 0 5 34 5
68 781 0 7 29 8
70 775 0 7 27 8
72 770 0 11 30 7
74 760 0 14 33 5
76 754 0 16 35 10
78 752 0 21 29 10
80 757 0 25 29 5
82 756 0 27 32 8
84 755 0 31 25 9
86 754 0 34 21 6
88 748 0 35 23 9
90 745 0 36 18 6
92 742 0 41 26 7
94 737 0 43 26 10
96 728 0 47 28 7
98 721 0 49 33 8
100 726 0 49 21 11
102 724 0 56 22 10
104 717 0 62 25 10
106 717 0 66 24 8
108 712 0 70 24 13
110 713 0 76 22 16
112 704 0 79 28 17
114 700 0 83 26 16
116 692 0 93 32 14
118 693 0 99 25 10
120 696 0 104 23 11
122 698 0 109 16 12
124 696 0 110 18 14
126 686 0 114 27 14
128 689 0 118 17 15
130 684 0 123 24 10
132 685 0 127 20 13
134 676 0 129 23 13
136 675 0 134 18 11
138 667 0 136 23 14
140 666 0 139 18 20
142 661 0 140 22 15
144 664 0 148 16 15
146 662 0 154 20 14
148 659 0 157 21 9
150 652 0 157 21 15
152 650 0 159 20 18
154 642 0 166 25 14
156 640 0 160 21 16
158 644 0 167 18 9
160 636 0 165 21 16
162 639 0 168 18 17
164 640 0 173 15 19
166 631 0 174 17 22
168 622 0 179 22 14
170 611 0 186 33 13
172 613 0 186 23 15
174 616 0 187 17 14
176 610 0 190 21 14
178 602 0 194 29 20
180 599 0 197 30 12
182 609 0 202 21 14
184 599 0 204 27 18
186 599 0 205 26 18
188 598 0 208 18 20
190 586 0 216 29 15
192 591 0 215 17 20
194 585 0 226 18 10
196 583 0 227 15 11
198 575 0 228 18 14
200 570 0 235 19 13
