0 885 0 0 0 0 0
2 886 0 0 3 0 0
4.00004 882 0 0 3 0 0
6 879 0 0 1 0 0
8 882 0 0 2 0 0
10 886 0 0 0 0 0
12 882 0 0 2 0 0
14 879 0 0 1 0 0
16 884 0 0 0 0 0
18 879 0 0 0 0 0
20 873 0 0 1 0 0
22 876 0 0 1 0 0
24 868 0 0 4 0 0
26 871 0 0 2 0 0
28 876 0 0 1 0 0
30 878 0 0 2 0 0
32 873 0 0 1 0 0
34 865 0 0 5 0 0
36 866 0 0 2 0 0
38 872 0 0 0 0 0
40 870 0 0 0 0 0
42 870 0 0 2 0 0
44 872 0 0 0 0 0
46 876 0 0 2 0 0
48 874 0 0 1 0 0
50 869 0 0 2 0 0
52 868 0 6 0 0 0
54 859 0 12 2 0 0
56 854 0 14 2 0 0
58 851 0 19 1 1 0
60 846 0 21 0 0 0
62 840 0 26 2 0 0
64 833 0 33 1 1 0
66 826 0 40 1 2 0
68 816 0 46 1 0 0
70 810 0 57 2 2 0
72 802 0 60 5 0 0
74 802 0 64 0 1 0
76 798 0 69 1 0 0
78 793 0 74 0 1 0
80 786 0 81 2 0 0
82 777 0 89 3 1 0
84 775 0 93 0 0 0
86 768 0 98 0 0 0
88 762 0 102 1 1 0
90 758 0 108 1 0 0
92 754 0 113 0 1 0
94 751 0 120 0 0 0
96 748 0 125 1 0 0
98 738 0 130 2 3 0
100 729 0 135 3 1 0
102 727 0 134 1 1 0
104 725 0 139 0 0 0
106 723 0 142 0 1 0
108 717 0 147 0 0 0
110 712 0 148 0 1 0
112 706 0 155 0 1 0
114 703 0 158 1 0 0
116 696 0 164 1 2 0
118 693 0 171 1 1 0
120 688 0 172 0 0 0
122 680 0 176 1 0 0
124 673 0 182 0 1 0
126 668 0 188 0 0 0
128 666 0 192 0 0 0
130 660 0 199 2 1 0
132 659 0 200 1 2 0
134 657 0 202 1 0 0
136 653 0 206 1 2 0
138 644 0 212 2 0 0
140 640 0 210 1 1 0
142 640 0 212 0 2 0
144 632 0 214 0 0 0
146 627 0 219 0 0 0
148 624 0 226 1 0 0
150 618 0 233 2 1 0
152 615 0 238 0 2 0
154 607 0 245 1 0 0
156 606 0 249 0 0 0
158 603 0 250 0 1 0
160 597 0 256 1 0 0
162 596 0 258 0 0 0
164 594 0 261 0 1 0
166 593 0 268 1 0 0
168 588 0 271 0 1 0
170 580 0 274 2 2 0
172 576 0 276 0 0 0
174 575 0 280 0 1 0
176 574 0 284 0 0 0
178 568 0 284 0 1 0
180 563 0 289 0 0 0
182 561 0 288 0 1 0
184 558 0 292 1 0 0
186 554 0 296 3 0 0
188 552 0 302 1 2 0
190 548 0 306 1 3 0
192 543 0 311 2 2 0
194 541 0 320 1 0 0
196 537 0 321 1 1 0
198 534 0 322 1 2 0
200 528 0 329 1 1 0
