0 1111 0 0 0 0 0
2 1080 24 0 1 0 1
4.00004 1089 20 0 1 0 0
6 1083 24 0 0 0 2
8 1087 21 0 0 0 1
10 1078 27 0 0 0 0
12 1084 13 0 0 0 0
14 1070 25 0 0 0 3
16 1070 26 0 1 0 2
18 1062 30 0 0 0 4
20 1069 29 0 0 0 0
22 1065 29 0 0 0 1
24 1075 17 0 1 0 0
26 1067 19 0 0 0 2
28 1060 27 0 0 0 1
30 1065 22 0 0 0 1
32 1061 26 0 0 0 3
34 1061 24 0 0 0 0
36 1055 31 0 0 0 0
38 1060 27 0 1 0 1
40 1062 23 0 0 0 0
42 1059 24 0 0 0 2
44 1067 14 0 0 0 0
46 1059 23 0 1 0 1
48 1051 31 0 2 0 0
50 1061 26 0 0 0 0
52 944 0 138 0 3 0
54 898 0 190 0 1 0
56 846 0 242 0 1 0
58 798 0 291 0 2 0
60 754 0 337 0 0 0
62 715 0 377 0 1 0
64 671 0 427 0 2 0
66 638 0 455 0 3 0
68 609 0 487 1 2 0
70 588 0 507 0 1 0
72 553 0 546 0 1 0
74 533 0 566 0 4 0
76 516 0 589 1 0 0
78 493 0 606 0 4 0
80 465 0 638 0 1 0
82 432 0 670 0 1 0
84 411 0 693 0 1 0
86 390 0 715 0 1 0
88 373 0 739 0 1 0
90 348 1 759 0 3 0
92 334 1 767 0 2 0
94 317 0 780 0 2 0
96 302 0 783 0 3 0
98 288 0 802 0 1 0
100 267 0 819 0 2 0
102 256 0 828 0 0 0
104 245 0 836 0 1 0
106 235 0 840 0 3 0
108 218 0 857 0 0 0
110 205 0 872 0 0 0
112 196 0 876 0 0 0
114 182 0 893 0 1 0
116 174 0 903 0 2 0
118 166 0 906 0 4 0
120 153 0 928 0 1 0
122 142 0 938 0 1 0
124 132 0 949 0 1 0
126 126 0 954 0 2 0
128 122 1 953 0 2 0
130 118 0 956 0 2 0
132 112 0 959 0 3 0
134 103 0 968 0 6 0
136 99 0 976 0 2 0
138 94 0 980 0 1 0
140 88 0 982 0 0 0
142 87 0 986 0 2 0
144 85 0 989 0 0 0
146 80 0 994 0 0 0
148 77 0 995 0 1 0
150 76 0 997 0 2 0
152 73 0 1000 0 1 0
154 71 0 1008 0 0 0
156 65 0 1012 0 2 0
158 64 0 1011 0 0 0
160 62 0 1011 0 2 0
162 58 0 1004 1 4 0
164 53 0 1010 0 1 0
166 53 0 1006 0 4 0
168 49 0 1015 0 0 0
170 47 0 1010 0 4 0
172 44 0 1009 0 2 0
174 41 0 1014 0 0 0
176 36 0 1018 0 2 0
178 36 0 1017 0 1 0
180 36 0 1018 0 2 0
182 35 0 1017 0 1 0
184 34 0 1018 0 1 0
186 34 0 1018 0 0 0
188 28 0 1018 0 3 0
190 28 0 1019 0 2 0
192 25 0 1022 0 0 0
194 23 0 1020 0 1 0
196 23 0 1019 0 1 0
198 19 0 1019 0 0 0
200 18 0 1014 0 3 0
