0 950 0 0 0 0 0
2 909 38 0 0 0 0
4.00004 906 42 0 1 0 0
6 915 36 0 2 0 0
8 905 41 0 3 0 0
10 920 22 0 1 0 0
12 915 24 0 0 0 0
14 919 23 0 1 0 0
16 916 29 0 0 0 0
18 915 35 0 1 0 0
20 914 34 0 3 0 0
22 904 42 0 1 0 0
24 908 35 0 2 0 0
26 920 26 0 2 0 0
28 917 28 0 2 0 0
30 912 32 0 2 0 0
32 905 41 0 2 0 0
34 919 26 0 3 0 0
36 902 49 0 1 0 0
38 914 39 0 0 0 0
40 913 31 0 4 0 0
42 914 36 0 0 0 0
44 916 35 0 0 0 0
46 912 38 0 2 0 0
48 911 41 0 0 0 0
50 932 27 0 1 0 0
52 819 0 136 0 3 0
54 773 0 175 0 0 0
56 739 0 202 0 2 0
58 699 0 239 0 1 0
60 679 0 249 1 1 0
62 649 0 286 2 1 0
64 627 0 309 0 3 0
66 597 0 344 0 1 0
68 576 0 368 0 2 0
70 552 0 395 0 1 0
72 527 0 423 0 1 0
74 503 0 446 1 0 0
76 470 0 477 0 2 0
78 452 0 493 0 0 0
80 424 0 521 0 1 0
82 409 0 538 0 0 0
84 384 0 560 0 1 0
86 364 0 581 0 0 0
88 351 0 593 0 1 0
90 332 0 609 0 1 0
92 318 0 632 0 0 0
94 296 0 652 0 2 0
96 284 0 667 1 1 0
98 275 0 672 0 1 0
100 266 0 682 0 2 0
102 253 0 693 1 1 0
104 242 0 706 0 1 0
106 231 0 715 0 3 0
108 221 0 722 0 3 0
110 214 0 737 2 1 0
112 205 0 742 0 1 0
114 198 0 755 0 0 0
116 190 0 762 1 1 0
118 184 1 771 0 1 0
120 178 0 777 0 1 0
122 170 0 786 0 1 0
124 163 0 793 0 2 0
126 156 0 804 0 0 0
128 148 0 806 0 0 0
130 135 0 817 0 1 0
132 129 0 830 0 0 0
134 121 1 834 0 0 0
136 118 0 840 0 1 0
138 113 0 848 1 1 0
140 109 0 848 0 2 0
142 104 0 861 1 0 0
144 99 0 866 1 1 0
146 95 0 864 0 4 0
148 91 0 868 1 0 0
150 87 0 869 1 1 0
152 83 0 872 0 0 0
154 81 0 869 0 3 0
156 79 0 876 0 1 0
158 75 0 880 0 0 0
160 74 0 877 0 1 0
162 70 0 884 0 1 0
164 66 0 888 0 1 0
166 64 0 889 0 1 0
168 64 0 884 0 3 0
170 61 0 887 2 2 0
172 60 0 888 0 3 0
174 57 0 898 0 0 0
176 55 0 903 1 2 0
178 52 0 907 0 1 0
180 51 0 902 1 6 0
182 50 0 908 1 2 0
184 49 0 910 0 1 0
186 49 0 916 0 0 0
188 48 0 912 1 0 0
190 46 0 913 0 1 0
192 44 0 911 0 2 0
194 40 0 920 0 1 0
196 38 0 923 0 1 0
198 37 0 921 0 2 0
200 36 0 922 0 2 0
