0 1049 0 0 0 0 0
2 1030 16 0 0 0 0
4.00004 1025 16 0 2 0 2
6 1031 13 0 0 0 2
8 1026 19 0 0 0 1
10 1025 18 0 2 0 0
12 1028 15 0 0 0 0
14 1023 18 0 0 0 2
16 1027 15 0 0 0 1
18 1031 13 0 2 0 0
20 1027 15 0 0 0 1
22 1022 17 0 0 0 1
24 1021 21 0 0 0 1
26 1021 20 0 0 0 2
28 1023 23 0 0 0 2
30 1027 21 0 0 0 5
32 1032 19 0 0 0 2
34 1031 20 0 0 0 2
36 1027 22 0 0 0 0
38 1035 19 0 0 0 2
40 1038 17 0 1 0 1
42 1040 15 0 0 0 1
44 1044 17 0 0 0 1
46 1036 22 0 1 0 1
48 1036 23 0 1 0 1
50 1039 15 0 0 0 3
52 955 0 99 0 0 0
54 912 0 148 0 3 0
56 870 0 194 0 0 0
58 828 0 236 0 2 0
60 774 0 295 0 1 0
62 742 0 330 0 0 0
64 711 0 363 0 1 0
66 677 0 403 0 0 0
68 641 0 433 0 3 0
70 619 0 451 0 1 0
72 587 0 483 0 0 0
74 552 1 515 0 0 0
76 524 0 540 0 1 0
78 495 0 572 0 1 0
80 473 0 586 0 0 0
82 447 0 606 0 1 0
84 422 0 629 0 1 0
86 404 0 645 0 2 0
88 382 1 662 0 2 0
90 364 1 688 1 0 0
92 348 0 699 0 3 0
94 329 1 717 0 0 0
96 304 0 748 0 0 0
98 282 0 767 0 1 0
100 271 0 775 0 1 0
102 254 0 798 0 0 0
104 240 0 810 0 3 0
106 233 0 816 0 1 0
108 223 0 822 0 1 0
110 217 0 828 0 1 1
112 207 0 842 0 1 0
114 196 0 855 0 1 0
116 178 0 870 0 0 0
118 166 0 881 0 2 0
120 157 0 889 0 3 0
122 145 0 900 0 0 0
124 134 0 910 0 1 0
126 126 0 919 1 1 0
128 122 0 924 0 1 0
130 118 0 925 0 1 0
132 110 0 933 0 1 0
134 102 0 940 0 1 0
136 97 0 942 0 2 0
138 90 0 949 0 1 0
140 86 0 949 1 0 0
142 80 0 951 0 1 0
144 75 0 957 0 1 0
146 68 0 959 0 2 0
148 60 0 963 0 0 0
150 58 0 958 0 2 0
152 55 0 963 0 0 0
154 55 0 966 0 0 0
156 53 0 977 0 1 0
158 52 0 977 0 0 0
160 45 0 983 0 1 0
162 41 0 990 0 0 0
164 35 0 994 0 4 0
166 33 0 998 0 0 0
168 32 0 998 0 0 0
170 31 0 1002 0 3 0
172 30 0 1004 0 0 1
174 28 0 1002 0 2 0
176 25 0 1004 0 3 0
178 25 0 1002 1 2 0
180 24 0 1007 0 0 0
182 24 0 1005 0 1 0
184 22 0 1006 0 0 0
186 21 0 1007 0 0 0
188 20 0 1008 0 1 0
190 20 0 1012 0 1 0
192 17 0 1019 0 2 0
194 17 0 1015 0 0 0
196 16 0 1012 0 1 0
198 15 0 1016 0 2 0
200 14 0 1020 0 1 0
