0 1004 0 0 0 0 0
2 1001 0 0 1 0 0
4.00004 1003 0 0 1 0 0
6 998 0 0 0 0 0
8 999 0 0 0 0 0
10 996 0 0 1 0 0
12 995 0 0 2 0 0
14 1001 0 0 1 0 0
16 1001 0 0 2 0 0
18 1002 0 0 1 0 0
20 1007 0 0 2 0 0
22 1009 0 0 4 0 0
24 1008 0 0 2 0 0
26 1009 0 0 2 0 0
28 1013 0 0 0 0 0
30 1012 0 0 0 0 0
32 1012 0 0 0 0 0
34 1007 0 0 0 0 0
36 1011 0 0 0 0 0
38 1012 0 0 2 0 0
40 1013 0 0 2 0 0
42 1016 0 0 0 0 0
44 1013 0 0 2 0 0
46 1023 0 0 1 0 0
48 1020 0 0 1 0 0
50 1018 0 0 2 0 0
52 1014 0 6 1 0 0
54 1011 0 14 1 0 0
56 1008 0 16 3 2 0
58 1004 0 21 1 1 0
60 1001 0 28 1 0 0
62 998 0 33 1 0 0
64 996 0 38 0 0 0
66 994 0 38 0 1 0
68 988 0 41 0 1 0
70 981 0 41 2 0 0
72 975 0 45 3 1 0
74 970 0 51 2 0 0
76 968 0 54 1 1 0
78 966 0 60 0 0 0
80 959 0 63 1 0 0
82 956 0 66 2 1 0
84 951 0 68 1 0 0
86 943 0 74 1 0 0
88 939 0 79 1 0 0
90 934 0 88 0 0 0
92 929 0 92 1 0 0
94 925 0 97 0 0 0
96 919 0 101 3 0 0
98 919 0 106 0 0 0
100 913 0 109 0 0 0
102 910 0 110 1 0 0
104 903 0 117 1 1 0
106 902 0 117 0 1 0
108 897 0 121 0 0 0
110 885 0 124 2 2 0
112 881 0 130 2 1 0
114 874 0 133 1 0 0
116 868 0 137 2 0 0
118 866 0 143 1 1 0
120 862 0 149 2 0 0
122 859 0 156 2 1 0
124 859 0 158 0 1 0
126 854 0 162 2 2 0
128 854 0 171 1 0 0
130 848 0 171 0 2 0
132 842 0 172 1 2 0
134 836 0 174 0 0 0
136 835 0 175 0 1 0
138 831 0 182 0 1 0
140 829 0 186 0 2 0
142 825 0 187 0 1 0
144 817 0 191 2 1 0
146 812 0 194 0 0 0
148 809 0 201 0 1 0
150 804 0 209 1 1 0
152 801 0 214 2 0 0
154 799 0 216 0 3 0
156 793 0 226 1 2 0
158 792 0 225 1 1 0
160 789 0 227 0 0 0
162 783 0 233 3 0 0
164 785 0 234 0 0 0
166 776 0 236 0 1 0
168 773 0 238 0 0 0
170 769 0 243 1 1 0
172 767 0 245 0 0 0
174 763 0 247 0 1 0
176 758 0 251 0 0 0
178 754 0 254 2 0 0
180 750 0 257 2 0 0
182 748 0 259 2 0 0
184 744 0 263 0 1 0
186 741 0 265 1 2 0
188 739 0 274 1 0 0
190 741 0 275 0 0 0
192 738 0 278 0 0 0
194 732 0 277 0 0 0
196 729 0 284 1 0 0
198 726 0 291 1 0 0
200 723 0 297 0 0 0
