0 950 0 0 0 0 0
2 953 0 0 0 0 0
4.00004 951 0 0 0 0 0
6 946 0 0 1 0 0
8 951 0 0 0 0 0
10 957 0 0 0 0 0
12 960 0 0 1 0 0
14 955 0 0 2 0 0
16 953 0 0 2 0 0
18 948 0 0 1 0 0
20 949 0 0 0 0 0
22 951 0 0 2 0 0
24 954 0 0 1 0 0
26 946 0 0 6 0 0
28 950 0 0 3 0 0
30 954 0 0 0 0 0
32 949 0 0 3 0 0
34 951 0 0 1 0 0
36 948 0 0 0 0 0
38 946 0 0 1 0 0
40 950 0 0 2 0 0
42 949 0 0 1 0 0
44 949 0 0 0 0 0
46 948 0 0 0 0 0
48 948 0 0 0 0 0
50 939 0 0 1 0 0
52 935 0 7 0 0 0
54 932 0 16 3 1 0
56 932 0 24 0 1 0
58 930 0 29 0 2 0
60 925 0 43 1 1 0
62 918 0 44 0 0 0
64 914 0 47 0 0 0
66 908 0 49 1 0 0
68 901 0 52 0 1 0
70 898 0 54 0 0 0
72 894 0 55 0 0 0
74 891 0 59 0 0 0
76 887 0 64 0 0 0
78 882 0 71 2 0 0
80 875 0 79 0 0 0
82 871 0 82 0 0 0
84 866 0 87 2 0 0
86 865 0 89 0 1 0
88 860 0 94 0 1 0
90 855 0 101 0 2 0
92 849 0 99 1 1 0
94 844 0 104 0 2 0
96 837 0 110 0 0 0
98 834 0 117 0 1 0
100 831 0 119 0 0 0
102 825 0 126 1 0 0
104 822 0 129 0 0 0
106 817 0 134 0 0 0
108 812 0 140 2 0 0
110 801 0 143 2 0 0
112 797 0 149 2 4 0
114 793 0 154 0 0 0
116 790 0 155 0 1 0
118 785 0 157 1 0 0
120 783 0 159 1 1 0
122 777 0 165 1 0 0
124 772 0 165 2 3 0
126 772 0 166 2 0 0
128 769 0 174 2 1 0
130 763 0 182 1 1 0
132 758 0 182 0 1 0
134 753 0 188 2 1 0
136 745 0 192 2 2 0
138 738 0 197 1 1 0
140 733 0 205 2 1 0
142 730 0 204 0 0 0
144 724 0 207 1 1 0
146 720 0 214 1 2 0
148 718 0 222 0 0 0
150 714 0 228 0 0 0
152 712 0 232 1 0 0
154 710 0 235 1 1 0
156 707 0 235 0 2 0
158 700 0 245 0 0 0
160 698 0 248 0 2 0
162 694 0 251 0 0 0
164 690 0 253 2 0 0
166 686 0 255 3 2 0
168 685 0 261 1 2 0
170 678 0 269 0 1 0
172 677 0 269 2 1 0
174 672 0 273 0 0 0
176 665 0 272 0 2 0
178 664 0 275 0 1 0
180 660 0 276 1 3 0
182 656 0 282 0 1 0
184 651 0 287 1 1 0
186 648 0 287 0 0 0
188 644 0 295 0 0 0
190 641 0 298 0 1 0
192 638 0 303 2 0 0
194 632 0 303 1 3 0
196 630 0 308 0 0 0
198 625 0 315 0 0 0
200 619 0 317 3 1 0
