0 811 0 0 0 0 0
2 775 11 0 21 0 9
4.00004 768 11 0 24 0 7
6 766 16 0 27 0 11
8 765 19 0 24 0 10
10 775 15 0 21 0 11
12 778 13 0 22 0 14
14 777 10 0 26 0 12
16 784 18 0 20 0 17
18 784 15 0 29 0 12
20 809 16 0 14 0 5
22 798 15 0 22 0 11
24 807 11 0 22 0 6
26 805 11 0 27 0 9
28 807 10 0 19 0 12
30 803 14 0 25 0 12
32 808 16 0 22 0 9
34 819 14 0 17 0 10
36 809 15 0 26 0 13
38 806 11 0 32 0 10
40 817 13 0 32 0 8
42 811 18 0 28 0 9
44 821 17 0 27 0 4
46 824 15 0 22 0 11
48 820 15 0 23 0 9
50 821 12 0 25 0 8
52 721 0 119 14 20 0
54 660 1 184 7 24 0
56 613 0 228 9 32 0
58 567 0 266 14 33 0
60 519 0 324 6 34 0
62 482 0 364 4 26 1
64 456 0 393 9 22 0
66 430 0 418 12 24 0
68 407 0 445 2 25 0
70 377 0 470 4 26 1
72 349 0 497 3 22 0
74 325 0 514 8 22 0
76 310 0 539 4 22 0
78 287 0 557 4 27 0
80 280 0 566 7 20 0
82 254 0 583 2 30 0
84 237 0 600 9 35 0
86 223 0 627 1 31 0
88 213 0 633 3 30 0
90 204 0 654 4 21 0
92 192 0 659 9 33 0
94 181 0 678 2 25 0
96 163 0 681 7 34 0
98 150 0 689 3 24 0
100 145 0 687 3 40 0
102 135 0 692 3 34 0
104 122 0 719 4 28 0
106 111 0 722 7 29 0
108 107 0 733 3 28 0
110 98 0 738 4 35 0
112 94 0 755 5 30 0
114 83 0 763 5 36 0
116 84 0 781 3 25 0
118 74 0 785 5 23 0
120 68 0 780 12 36 0
122 73 0 798 3 28 0
124 66 0 812 1 19 0
126 61 0 806 6 30 0
128 54 0 810 2 32 0
130 51 0 806 1 38 0
132 48 0 808 2 41 0
134 43 0 817 3 34 0
136 42 0 809 2 36 0
138 40 0 830 1 25 0
140 39 0 824 3 29 0
142 32 0 821 3 37 0
144 34 0 825 1 34 0
146 26 0 840 1 28 0
148 23 0 829 4 32 0
150 23 0 833 6 25 0
152 25 0 833 8 36 0
154 23 0 841 3 35 0
156 21 0 829 3 42 0
158 25 0 833 3 45 0
160 18 0 840 2 42 0
162 18 0 848 1 29 0
164 18 1 839 4 43 0
166 17 0 850 4 30 0
168 15 0 848 1 38 0
170 13 0 859 3 30 0
172 14 0 851 3 37 0
174 10 0 849 4 36 0
176 12 0 864 5 26 0
178 13 0 852 3 33 0
180 15 0 853 2 41 0
182 17 0 868 2 35 0
184 14 0 875 4 28 0
186 13 0 862 2 26 0
188 15 1 866 2 16 0
190 15 0 858 2 23 0
192 13 0 844 2 38 0
194 14 0 842 5 36 0
196 14 0 859 4 25 0
198 12 0 857 6 27 0
200 10 0 860 5 26 0
