0 1055 0 0 0 0 0
2 1028 0 0 27 0 0
4.00004 1031 0 0 29 0 0
6 1008 0 0 42 0 0
8 1017 0 0 36 0 0
10 1020 0 0 37 0 0
12 1018 0 0 33 0 0
14 1020 0 0 38 0 0
16 1011 0 0 42 0 0
18 1013 0 0 35 0 0
20 1010 0 0 47 0 0
22 1026 0 0 31 0 0
24 1005 0 0 41 0 0
26 1002 0 0 41 0 0
28 1014 0 0 29 0 0
30 1005 0 0 30 0 0
32 1001 0 0 36 0 0
34 1000 0 0 35 0 0
36 995 0 0 38 0 0
38 997 0 0 44 0 0
40 990 0 0 44 0 0
42 998 0 0 40 0 0
44 1002 0 0 34 0 0
46 1010 0 0 29 0 0
48 1008 0 0 31 0 0
50 1001 0 0 28 0 0
52 990 0 3 32 0 0
54 984 0 4 28 2 0
56 976 0 11 34 3 0
58 978 0 16 26 1 0
60 983 0 23 25 5 0
62 972 0 29 24 7 0
64 959 0 32 28 8 0
66 949 0 44 28 5 0
68 942 0 48 27 8 0
70 934 0 57 26 8 0
72 941 0 57 13 11 0
74 927 0 70 24 11 0
76 912 0 71 27 5 0
78 916 0 70 24 11 0
80 910 0 72 22 7 0
82 917 0 71 10 12 0
84 901 0 78 22 13 0
86 890 0 82 27 10 0
88 891 0 80 25 10 0
90 886 0 91 21 9 0
92 888 0 96 21 8 0
94 881 0 98 16 10 0
96 871 0 104 21 6 0
98 860 0 107 26 13 0
100 855 0 117 23 11 0
102 852 0 124 17 8 0
104 843 0 130 19 7 0
106 839 0 126 16 14 0
108 831 0 136 20 6 0
110 830 0 137 19 13 0
112 825 0 140 22 12 0
114 815 0 150 26 5 0
116 811 0 147 24 11 0
118 802 0 150 27 10 0
120 808 0 157 27 14 0
122 795 0 160 27 10 0
124 790 0 159 28 12 0
126 791 0 169 18 10 0
128 779 0 171 29 11 0
130 770 0 178 25 9 0
132 777 0 185 17 12 0
134 763 0 189 24 10 0
136 770 0 192 17 12 0
138 750 0 201 32 15 0
140 748 0 216 25 13 0
142 741 0 216 24 14 0
144 746 0 219 17 14 0
146 735 0 220 24 15 0
148 731 0 225 20 12 0
150 729 0 236 20 13 0
152 717 0 232 29 21 0
154 730 0 235 14 15 0
156 712 0 247 23 17 0
158 710 0 252 21 12 0
160 719 0 259 10 13 0
162 711 0 269 10 8 0
164 702 0 260 9 19 0
166 692 0 255 19 17 0
168 700 0 260 9 19 0
170 681 0 273 22 12 0
172 684 0 275 14 14 0
174 683 0 282 14 17 0
176 672 0 286 16 10 0
178 677 0 290 12 12 0
180 661 0 295 24 21 0
182 661 0 295 18 20 0
184 660 0 307 14 15 0
186 656 0 304 15 20 0
188 653 0 308 18 15 0
190 654 0 306 12 20 0
192 642 0 317 19 16 0
194 642 0 329 15 9 0
196 633 0 329 14 18 0
198 637 0 330 14 14 0
200 631 0 332 18 14 0
