0 821 0 0 0 0 0
2 762 20 0 32 0 9
4.00004 776 19 0 18 0 8
6 770 13 0 32 0 8
8 774 14 0 25 0 7
10 773 13 0 28 0 8
12 782 12 0 17 0 12
14 779 22 0 23 0 0
16 779 13 0 27 0 4
18 780 16 0 14 0 9
20 775 19 0 20 0 6
22 787 17 0 15 0 3
24 797 11 0 19 0 1
26 781 19 0 18 0 5
28 789 18 0 26 0 4
30 790 18 0 17 0 9
32 786 19 0 19 0 4
34 798 10 0 8 0 3
36 788 12 0 18 0 4
38 776 15 0 24 0 3
40 783 12 0 17 0 7
42 780 16 0 11 0 7
44 773 11 0 19 0 10
46 775 11 0 19 0 7
48 777 16 0 20 0 2
50 783 8 0 17 0 6
52 711 0 62 11 23 0
54 675 0 114 7 16 0
56 640 0 148 5 14 0
58 614 1 167 7 20 0
60 585 0 189 4 25 0
62 551 0 228 8 17 1
64 522 0 261 4 16 1
66 497 0 282 6 22 0
68 473 0 306 6 19 0
70 456 0 327 6 17 0
72 440 0 338 7 25 0
74 421 0 354 4 33 0
76 405 0 381 2 21 0
78 380 0 413 6 14 0
80 353 0 434 1 22 0
82 326 0 458 2 21 0
84 304 0 471 5 28 1
86 293 0 481 3 27 0
88 278 0 495 1 25 0
90 262 0 520 4 23 0
92 253 0 535 1 21 0
94 235 0 556 5 16 0
96 220 0 573 5 19 0
98 211 0 575 1 27 0
100 198 0 595 4 21 0
102 190 0 611 2 14 0
104 184 0 615 4 18 0
106 176 0 620 3 22 0
108 169 0 627 5 25 0
110 159 0 639 4 24 0
112 152 0 652 2 18 0
114 144 0 651 4 24 1
116 131 0 661 4 26 0
118 128 0 669 4 18 0
120 121 0 683 3 21 0
122 122 0 673 3 21 0
124 116 0 678 5 24 0
126 109 0 675 7 31 0
128 109 0 685 2 23 0
130 106 0 682 6 29 0
132 98 0 692 3 37 0
134 92 0 704 6 28 0
136 88 0 713 4 25 0
138 84 0 720 1 24 0
140 78 0 721 3 27 0
142 75 0 714 3 30 0
144 71 0 721 2 30 0
146 70 0 731 2 18 0
148 60 0 733 4 23 0
150 57 0 737 3 27 0
152 55 0 745 1 24 0
154 53 0 741 3 29 0
156 55 0 747 3 16 0
158 52 0 743 3 22 0
160 48 0 746 4 29 0
162 44 0 759 1 22 0
164 40 0 760 3 24 0
166 37 0 761 5 29 0
168 37 0 756 1 29 0
170 38 0 764 2 27 0
172 35 0 768 1 25 0
174 35 0 777 2 19 0
176 34 0 771 1 27 0
178 35 0 779 1 24 0
180 31 0 779 3 23 0
182 30 0 775 1 29 0
184 32 0 769 4 33 0
186 27 0 783 1 20 0
188 31 0 788 1 16 0
190 25 0 782 2 29 0
192 27 0 792 0 19 0
194 19 0 779 2 28 0
196 21 0 783 0 24 0
198 18 0 794 3 17 0
200 14 0 786 2 32 0
