0 856 0 0 0 0 0
2 818 13 0 13 0 9
4.00004 828 6 0 6 0 8
6 813 11 0 11 0 6
8 830 4 0 5 0 5
10 818 9 0 9 0 12
12 825 8 0 10 0 5
14 833 5 0 3 0 7
16 827 8 0 7 0 13
18 834 5 0 5 0 8
20 832 2 0 6 0 8
22 841 6 0 8 0 7
24 844 1 0 6 0 8
26 831 8 0 9 0 13
28 834 9 0 8 0 7
30 822 10 0 10 0 8
32 835 9 0 9 0 8
34 834 7 0 9 0 10
36 842 5 0 12 0 12
38 843 6 0 8 0 9
40 845 4 0 12 0 7
42 848 4 0 13 0 8
44 844 12 0 4 0 11
46 839 11 0 13 0 8
48 844 13 0 4 0 10
50 845 3 0 9 0 11
52 777 0 84 2 13 0
54 735 0 125 5 11 1
56 694 0 172 5 12 0
58 655 0 211 2 21 0
60 611 0 253 2 14 1
62 579 0 291 1 26 1
64 543 0 327 0 21 0
66 511 0 371 4 9 0
68 479 0 409 1 15 0
70 443 0 450 2 17 1
72 407 0 474 6 20 0
74 368 0 522 2 13 0
76 342 0 540 1 25 0
78 316 0 568 1 16 0
80 297 0 596 1 12 0
82 285 0 616 0 16 0
84 265 0 640 2 11 0
86 251 0 651 0 16 0
88 234 2 669 0 23 0
90 217 0 691 0 16 0
92 208 0 704 1 20 0
94 195 0 724 0 12 0
96 185 0 733 0 20 0
98 182 0 733 1 16 0
100 171 0 748 1 20 0
102 160 0 760 2 18 0
104 149 0 772 2 22 0
106 132 0 795 2 16 0
108 126 0 802 0 19 0
110 123 0 813 0 9 0
112 114 0 805 1 20 0
114 110 0 815 2 16 0
116 107 0 813 0 24 0
118 104 0 808 0 23 0
120 97 1 823 2 18 0
122 92 0 829 2 16 0
124 86 0 834 1 24 0
126 85 0 845 1 19 0
128 79 0 843 1 18 0
130 75 0 846 0 20 0
132 67 0 865 1 20 0
134 65 0 872 0 12 0
136 60 0 869 1 24 0
138 58 0 874 1 20 0
140 54 0 880 1 21 0
142 51 0 892 0 16 0
144 46 0 888 0 22 0
146 41 0 885 0 29 0
148 39 0 898 0 20 0
150 38 0 904 1 13 0
152 37 0 899 1 19 0
154 35 0 919 0 13 0
156 34 0 909 1 16 0
158 33 0 906 0 19 0
160 33 0 903 1 16 0
162 33 0 911 1 19 0
164 30 0 919 1 14 0
166 27 0 928 0 12 0
168 26 0 928 1 14 0
170 26 0 934 1 15 0
172 22 0 942 0 13 0
174 22 0 940 0 16 0
176 20 0 939 0 9 0
178 20 0 933 1 20 0
180 18 0 933 1 19 0
182 17 0 929 0 16 0
184 16 0 925 1 16 0
186 15 0 932 0 12 0
188 14 0 922 0 26 0
190 13 0 933 2 17 0
192 12 0 917 1 20 0
194 12 0 912 0 22 0
196 12 0 919 0 19 0
198 11 0 919 1 16 0
200 10 0 915 1 15 1
