0 962 0 0 0 0 0
2 931 0 0 35 0 0
4.00004 930 0 0 41 0 0
6 932 0 0 36 0 0
8 924 0 0 42 0 0
10 910 0 0 50 0 0
12 922 0 0 35 0 0
14 919 0 0 40 0 0
16 934 0 0 39 0 0
18 926 0 0 42 0 0
20 925 0 0 34 0 0
22 931 0 0 27 0 0
24 917 0 0 36 0 0
26 919 0 0 33 0 0
28 922 0 0 41 0 0
30 920 0 0 28 0 0
32 920 0 0 38 0 0
34 908 0 0 45 0 0
36 923 0 0 31 0 0
38 904 0 0 42 0 0
40 906 0 0 39 0 0
42 900 0 0 44 0 0
44 911 0 0 39 0 0
46 909 0 0 35 0 0
48 907 0 0 30 0 0
50 887 0 0 48 0 0
52 908 0 0 38 0 0
54 906 0 0 37 0 0
56 905 0 0 39 0 0
58 910 0 6 38 0 0
60 895 0 6 42 4 0
62 900 0 16 38 0 0
64 914 0 18 28 2 0
66 889 0 16 40 3 0
68 891 0 16 34 2 0
70 898 0 22 31 2 0
72 894 0 25 26 2 0
74 876 0 22 36 4 0
76 877 0 28 22 6 0
78 866 0 32 26 5 0
80 860 0 31 27 3 0
82 857 0 40 28 4 0
84 861 0 43 26 6 0
86 855 0 43 30 10 0
88 844 0 38 39 10 0
90 852 0 45 32 5 0
92 844 0 43 29 4 0
94 832 0 41 37 6 0
96 843 0 44 28 7 0
98 839 0 48 26 8 0
100 832 0 51 29 8 0
102 826 0 60 26 7 0
104 823 0 64 21 9 0
106 813 0 71 27 9 0
108 810 0 74 26 10 0
110 800 0 80 30 13 0
112 797 0 90 28 8 0
114 792 0 88 28 11 0
116 800 0 88 13 10 0
118 778 0 90 38 10 0
120 792 0 93 21 11 0
122 785 0 101 20 14 0
124 778 0 105 26 10 0
126 776 0 114 27 8 0
128 772 0 107 29 9 0
130 766 0 103 31 19 0
132 763 0 119 28 14 0
134 763 0 117 28 14 0
136 767 0 117 22 13 0
138 747 0 122 38 10 0
140 751 0 121 27 16 0
142 758 0 136 22 7 0
144 757 0 129 25 13 0
146 752 0 137 30 10 0
148 750 0 128 24 24 0
150 746 0 143 22 9 0
152 734 0 143 29 19 0
154 737 0 142 21 18 0
156 739 0 153 20 13 0
158 723 0 160 27 13 0
160 725 0 162 23 19 0
162 728 0 157 26 23 0
164 735 0 165 16 21 0
166 728 0 162 19 17 0
168 712 0 171 27 19 0
170 710 0 171 25 19 0
172 711 0 183 21 14 0
174 715 0 181 20 23 0
176 699 0 189 28 15 0
178 704 0 192 23 18 0
180 701 0 191 25 16 0
182 708 0 199 14 16 0
184 698 0 208 20 12 0
186 697 0 196 24 18 0
188 696 0 197 23 13 0
190 690 0 210 22 18 0
192 686 0 213 22 14 0
194 680 0 216 23 18 0
196 680 0 208 26 17 0
198 679 0 203 25 19 0
200 679 0 219 22 17 0
