0 918 0 0 0 0 0
2 911 0 0 16 0 0
4.00004 912 0 0 13 0 0
6 900 0 0 16 0 0
8 901 0 0 22 0 0
10 909 0 0 11 0 0
12 896 0 0 22 0 0
14 903 0 0 16 0 0
16 899 0 0 18 0 0
18 902 0 0 17 0 0
20 906 0 0 9 0 0
22 897 0 0 18 0 0
24 894 0 0 15 0 0
26 907 0 0 10 0 0
28 907 0 0 14 0 0
30 904 0 0 12 0 0
32 900 0 0 12 0 0
34 892 0 0 11 0 0
36 895 0 0 9 0 0
38 896 0 0 12 0 0
40 888 0 0 14 0 0
42 892 0 0 12 0 0
44 881 0 0 15 0 0
46 884 0 0 15 0 0
48 889 0 0 13 0 0
50 884 0 0 15 0 0
52 874 0 8 16 1 0
54 872 0 14 4 4 0
56 859 0 33 9 1 0
58 850 0 41 10 2 0
60 847 0 48 4 5 0
62 836 0 58 10 4 0
64 833 0 64 7 3 0
66 823 0 66 10 6 0
68 816 0 68 10 5 0
70 814 0 74 6 2 0
72 806 0 77 6 6 0
74 787 0 78 17 8 0
76 787 0 89 10 7 0
78 776 0 95 8 3 0
80 768 0 104 7 5 0
82 767 0 104 6 7 0
84 757 0 113 7 3 0
86 745 0 126 7 9 0
88 744 0 133 5 5 0
90 731 0 146 9 2 0
92 721 0 152 9 7 0
94 712 0 159 10 9 0
96 708 0 165 7 7 0
98 702 0 175 9 5 0
100 693 0 181 10 10 0
102 690 0 191 7 6 0
104 678 0 187 12 11 0
106 681 0 200 5 9 0
108 674 0 211 5 4 0
110 668 0 224 8 8 0
112 660 0 225 9 7 0
114 654 0 232 5 7 0
116 649 0 238 4 8 0
118 638 0 245 6 6 0
120 632 0 249 6 8 0
122 626 0 266 7 6 0
124 621 0 270 7 5 0
126 619 0 267 5 12 0
128 615 0 274 6 10 0
130 610 0 280 4 13 0
132 604 0 298 7 6 0
134 605 0 306 4 7 0
136 592 0 297 9 10 0
138 593 0 295 3 7 0
140 586 0 301 7 4 0
142 577 0 297 10 14 0
144 574 0 313 7 2 0
146 571 0 319 4 8 0
148 561 0 325 10 9 0
150 562 0 331 5 9 0
152 559 0 322 4 20 0
154 558 0 342 4 10 0
156 549 0 351 5 6 0
158 546 0 344 6 16 0
160 536 0 351 11 11 0
162 538 0 352 4 11 0
164 526 0 359 6 7 0
166 522 0 363 5 6 0
168 519 0 362 4 9 0
170 511 0 363 7 13 0
172 509 0 366 7 17 0
174 505 0 382 5 10 0
176 502 0 389 6 10 0
178 492 0 392 12 14 0
180 494 0 401 7 8 0
182 485 0 394 4 14 0
184 476 0 406 5 10 0
186 476 0 412 5 15 0
188 468 0 419 7 12 0
190 467 0 421 3 15 0
192 459 0 425 3 13 0
194 453 0 427 5 19 0
196 449 0 438 4 15 0
198 444 0 453 5 19 0
200 435 0 453 7 8 0
