0 916 0 0 0 0 0
2 850 27 0 34 0 0
4.00004 877 22 0 25 0 2
6 851 38 0 32 0 4
8 853 35 0 31 0 0
10 861 31 0 29 0 0
12 857 40 0 30 0 0
14 866 36 0 31 0 0
16 879 35 0 25 0 2
18 870 30 0 35 0 1
20 867 31 0 33 0 0
22 867 35 0 31 0 0
24 881 26 0 23 0 2
26 869 33 0 22 0 0
28 876 21 0 35 0 0
30 873 25 0 31 0 3
32 868 36 0 25 0 1
34 874 13 0 40 0 0
36 869 30 0 27 0 0
38 879 25 0 28 0 0
40 865 25 0 36 0 0
42 868 26 0 27 0 1
44 866 29 0 28 0 0
46 857 31 0 34 0 0
48 868 28 0 30 0 0
50 855 34 0 38 0 1
52 835 0 63 20 12 0
54 801 0 94 24 14 0
56 786 0 122 12 17 0
58 766 0 136 23 20 0
60 745 0 153 16 21 0
62 733 0 162 16 25 0
64 715 0 186 15 15 0
66 704 0 197 9 22 0
68 677 0 225 13 15 0
70 654 0 232 15 26 0
72 648 0 254 13 24 0
74 634 0 266 14 25 0
76 626 0 278 8 24 0
78 602 0 291 11 22 0
80 596 0 306 6 15 0
82 588 1 310 12 18 0
84 576 0 332 9 14 0
86 561 0 335 6 25 0
88 543 0 360 7 20 0
90 533 0 376 7 18 0
92 516 0 383 8 17 0
94 511 0 384 8 22 0
96 501 0 400 8 23 0
98 500 0 411 11 21 0
100 491 0 420 9 20 0
102 485 0 416 10 28 0
104 477 0 434 4 28 0
106 459 0 447 11 24 0
108 446 0 453 15 25 0
110 442 0 459 9 27 0
112 436 0 474 11 18 0
114 428 0 477 10 28 0
116 422 0 483 10 30 0
118 413 0 507 8 21 0
120 406 0 517 4 24 0
122 403 0 510 4 27 0
124 381 0 519 9 32 0
126 381 0 529 5 31 0
128 371 0 537 4 33 0
130 365 0 540 6 34 0
132 342 0 567 7 26 0
134 335 0 574 7 27 0
136 330 0 585 8 29 0
138 327 0 595 10 24 0
140 317 0 594 4 38 0
142 311 0 606 3 32 0
144 298 0 613 4 37 0
146 296 0 612 4 38 0
148 299 0 624 5 30 0
150 302 0 643 3 14 0
152 290 0 637 6 20 0
154 282 0 636 3 25 0
156 285 0 632 4 32 0
158 281 0 635 5 27 0
160 274 0 634 5 25 0
162 267 0 639 9 28 0
164 268 0 648 5 30 0
166 268 0 646 4 34 0
168 256 0 664 5 23 0
170 256 0 665 2 25 0
172 248 0 677 11 23 0
174 236 0 680 6 32 0
176 234 0 690 4 28 0
178 229 0 693 5 23 0
180 223 0 695 4 29 0
182 223 0 704 3 22 0
184 220 0 692 5 33 0
186 213 0 709 9 21 0
188 207 0 713 6 22 0
190 204 0 714 3 22 0
192 210 0 719 3 16 0
194 204 0 712 2 27 0
196 202 0 717 2 24 0
198 199 0 720 4 22 0
200 201 1 726 3 19 0
