0 879 0 0 0 0 0
2 846 25 0 13 0 1
4.00004 831 26 0 23 0 3
6 841 22 0 20 0 2
8 836 27 0 16 0 3
10 838 22 0 15 0 4
12 835 22 0 17 0 1
14 840 20 0 11 0 0
16 840 20 0 18 0 1
18 848 17 0 15 0 1
20 835 19 0 23 0 8
22 831 26 0 24 0 2
24 845 24 0 14 0 2
26 829 17 0 30 0 6
28 841 23 0 18 0 1
30 836 23 0 21 0 1
32 833 17 0 14 0 3
34 840 18 0 13 0 3
36 827 21 0 17 0 5
38 834 16 0 20 0 5
40 848 13 0 13 0 1
42 837 9 0 16 0 4
44 816 19 0 24 0 2
46 823 18 0 15 0 5
48 820 19 0 16 0 5
50 813 24 0 18 0 6
52 761 0 68 14 9 0
54 755 0 88 10 11 0
56 736 0 113 10 7 1
58 709 0 138 13 12 0
60 689 0 164 8 8 0
62 668 0 186 6 6 0
64 650 0 193 3 21 0
66 628 0 218 8 19 0
68 605 0 243 3 20 0
70 577 0 274 8 17 0
72 567 0 286 8 15 0
74 556 0 291 6 20 0
76 547 0 309 3 16 0
78 529 0 310 6 23 0
80 520 0 330 2 11 0
82 499 0 344 4 12 0
84 489 0 354 3 14 0
86 463 0 367 6 25 0
88 453 0 381 4 19 0
90 443 0 394 9 17 0
92 438 0 412 6 10 0
94 426 0 408 3 19 0
96 414 0 430 1 13 0
98 406 0 431 4 14 0
100 398 0 435 2 15 0
102 385 0 432 1 22 1
104 377 0 460 0 13 0
106 369 0 457 4 18 0
108 365 0 476 4 12 1
110 353 0 486 1 10 0
112 336 0 500 3 19 0
114 327 0 514 0 16 0
116 320 0 516 4 14 0
118 311 0 515 2 15 0
120 302 0 536 5 12 0
122 289 1 544 4 22 0
124 279 0 553 2 22 0
126 270 1 555 0 18 0
128 269 0 558 1 10 0
130 260 0 558 2 20 0
132 253 0 570 0 16 0
134 248 0 579 1 18 0
136 241 0 587 2 17 0
138 233 0 594 1 20 0
140 227 0 598 5 17 0
142 219 0 605 3 19 0
144 210 0 612 4 16 0
146 204 0 625 3 12 0
148 199 0 631 2 16 0
150 194 0 635 3 14 0
152 194 0 634 3 22 0
154 196 0 636 1 12 0
156 186 0 644 1 18 0
158 176 0 648 3 11 0
160 173 0 647 2 17 0
162 174 0 644 3 15 0
164 174 0 644 4 18 0
166 162 0 665 4 13 0
168 165 0 664 3 16 0
170 160 0 658 2 20 0
172 159 0 668 3 18 0
174 153 0 673 3 21 0
176 151 0 675 2 25 0
178 148 0 694 5 9 0
180 141 0 691 3 18 0
182 138 0 703 2 15 0
184 139 0 693 1 21 0
186 133 0 702 4 17 0
188 130 0 713 0 14 0
190 123 0 707 3 14 0
192 124 0 707 2 15 0
194 128 0 717 2 11 0
196 126 0 728 2 15 0
198 121 0 733 2 18 0
200 116 0 736 2 15 0
