0 1271 0 0 0 0
2 1270 13 0 0 0
4.00004 1275 7 0 0 0
6 1272 10 0 0 0
8 1275 7 0 0 0
10 1278 3 0 0 0
12 1274 8 0 0 0
14 1273 9 0 1 0
16 1271 12 0 0 0
18 1274 9 0 0 0
20 1272 10 0 0 0
22 1268 14 0 0 0
24 1277 5 0 0 0
26 1275 7 0 0 0
28 1272 9 0 0 0
30 1270 12 0 0 0
32 1275 7 0 0 0
34 1275 7 0 0 0
36 1276 7 0 0 0
38 1273 9 0 0 0
40 1271 10 0 1 0
42 1273 9 0 0 0
44 1275 7 0 0 0
46 1274 8 0 0 0
48 1275 7 0 0 0
50 1268 14 0 0 0
52 1099 0 182 1 0
54 971 1 310 0 0
56 874 0 409 0 0
58 764 0 519 0 0
60 691 1 591 0 0
62 608 1 673 0 0
64 536 0 746 0 0
66 475 0 806 0 0
68 420 0 861 0 0
70 371 0 909 0 0
72 322 0 958 0 0
74 275 0 1006 0 0
76 244 0 1037 0 0
78 213 0 1068 0 0
80 187 0 1094 0 0
82 164 0 1117 0 0
84 143 0 1138 0 0
86 120 0 1160 0 0
88 109 0 1172 0 0
90 100 0 1182 0 0
92 91 0 1191 0 0
94 79 0 1202 1 0
96 69 0 1212 0 0
98 59 0 1222 0 0
100 47 0 1234 0 0
102 42 0 1239 0 0
104 39 0 1242 0 0
106 31 0 1250 0 0
108 23 0 1258 0 0
110 22 0 1259 0 0
112 17 0 1264 0 0
114 17 0 1264 0 1
116 17 0 1264 0 0
118 13 0 1267 0 1
120 12 0 1268 0 1
122 9 0 1272 0 0
124 9 0 1273 0 0
126 9 0 1273 0 0
128 7 0 1275 0 0
130 8 0 1273 0 2
132 7 0 1275 0 0
134 5 0 1276 0 1
136 4 0 1277 0 0
138 3 0 1278 0 0
140 2 0 1279 0 0
142 2 0 1279 0 0
144 3 0 1279 0 0
146 3 0 1279 0 0
148 3 0 1278 0 0
150 3 0 1279 0 0
152 3 0 1279 0 0
154 4 0 1279 0 0
156 4 0 1278 0 0
158 3 0 1279 0 0
160 3 0 1279 0 0
162 3 0 1279 0 0
164 3 0 1278 0 1
166 3 0 1279 0 0
168 2 0 1280 0 0
170 2 0 1280 0 0
172 2 0 1280 0 0
174 1 0 1280 0 0
176 1 0 1280 0 0
178 1 0 1280 0 0
180 1 0 1280 0 0
182 1 0 1280 0 0
184 1 0 1280 0 0
186 1 0 1280 0 0
188 2 0 1279 0 0
190 2 0 1279 0 0
192 2 0 1279 0 0
194 1 0 1279 0 1
196 1 0 1280 0 0
198 1 0 1280 0 0
200 1 0 1280 0 0
