0 1441 0 0 0 0
2 1438 7 0 0 0
4.00004 1439 7 0 0 0
6 1437 9 0 0 0
8 1437 9 0 0 0
10 1443 4 0 0 0
12 1441 7 0 0 0
14 1433 15 0 0 0
16 1440 8 0 0 0
18 1434 13 0 0 0
20 1436 11 0 0 0
22 1436 11 0 0 0
24 1437 10 0 0 0
26 1435 12 0 0 0
28 1430 17 0 1 0
30 1442 7 0 0 0
32 1439 10 0 0 0
34 1441 8 0 0 0
36 1442 7 0 0 0
38 1444 4 0 0 0
40 1437 11 0 0 0
42 1443 5 0 0 0
44 1444 5 0 0 0
46 1438 10 0 1 0
48 1436 13 0 0 0
50 1440 9 0 0 0
52 1229 1 219 0 0
54 1087 1 361 0 0
56 954 3 492 0 0
58 838 0 611 0 0
60 731 0 717 1 0
62 659 0 788 0 2
64 575 0 871 1 0
66 503 0 943 0 0
68 440 0 1006 0 0
70 386 1 1059 0 0
72 337 0 1109 0 0
74 302 0 1144 0 0
76 274 0 1173 0 0
78 239 0 1208 0 0
80 212 0 1234 0 0
82 186 0 1259 0 1
84 161 0 1285 0 0
86 146 0 1300 0 0
88 136 0 1310 0 0
90 117 0 1330 0 0
92 100 0 1347 0 0
94 88 0 1360 0 0
96 75 0 1371 0 0
98 67 0 1379 0 0
100 59 0 1387 0 0
102 53 0 1393 0 0
104 44 0 1402 0 0
106 41 0 1405 0 0
108 35 0 1411 0 0
110 29 0 1417 0 0
112 26 0 1420 0 0
114 23 0 1424 0 0
116 21 0 1426 0 0
118 18 0 1429 0 0
120 16 0 1431 0 0
122 14 0 1432 0 1
124 13 0 1434 1 0
126 10 0 1436 0 1
128 8 0 1439 0 0
130 8 0 1439 0 0
132 8 0 1439 0 0
134 8 0 1439 0 0
136 6 0 1440 0 0
138 5 0 1441 0 0
140 5 0 1441 0 0
142 4 0 1443 0 0
144 3 0 1444 0 0
146 3 0 1444 0 0
148 3 0 1445 0 0
150 2 0 1446 0 0
152 3 0 1445 0 0
154 2 0 1446 0 0
156 1 0 1447 0 0
158 1 0 1447 0 0
160 1 0 1447 0 0
162 1 0 1447 0 0
164 1 0 1447 0 0
166 1 0 1447 0 0
168 1 0 1446 0 0
170 1 0 1447 0 0
172 1 0 1447 0 0
174 1 0 1448 0 0
176 1 0 1448 0 0
178 2 0 1447 0 1
180 2 0 1449 0 0
182 2 0 1449 0 0
184 2 0 1449 0 0
186 3 0 1449 0 0
188 3 0 1449 0 0
190 3 0 1448 0 0
192 3 0 1448 0 0
194 3 0 1448 0 0
196 3 0 1448 0 0
198 3 0 1447 0 0
200 2 0 1448 0 0
