0 1606 0 0 0 0
2 1598 7 0 0 0
4.00004 1595 10 0 0 0
6 1590 15 0 0 0
8 1598 7 0 0 0
10 1594 12 0 0 0
12 1599 7 0 0 0
14 1596 10 0 0 0
16 1597 9 0 0 0
18 1593 12 0 1 0
20 1603 3 0 0 0
22 1599 7 0 0 0
24 1600 6 0 0 0
26 1599 7 0 1 0
28 1598 8 0 0 0
30 1596 9 0 0 0
32 1599 8 0 0 0
34 1597 9 0 0 0
36 1595 11 0 0 0
38 1602 4 0 0 0
40 1595 11 0 0 0
42 1594 12 0 0 0
44 1596 10 0 0 0
46 1595 11 0 1 0
48 1603 4 0 0 0
50 1600 7 0 0 0
52 1439 0 168 0 0
54 1269 0 338 0 0
56 1150 0 456 0 0
58 1046 0 561 0 0
60 938 1 668 0 0
62 844 0 762 1 0
64 755 1 851 0 0
66 671 0 936 0 0
68 601 0 1005 0 0
70 549 0 1057 0 0
72 494 0 1112 0 0
74 443 1 1162 0 0
76 389 0 1217 0 0
78 339 0 1266 0 0
80 305 0 1300 0 0
82 280 1 1324 0 0
84 251 0 1353 0 1
86 218 0 1387 0 0
88 201 0 1404 0 0
90 185 0 1418 0 1
92 164 0 1440 0 0
94 148 0 1456 0 0
96 130 0 1474 0 0
98 118 0 1486 0 0
100 106 0 1498 0 0
102 98 2 1505 0 0
104 91 0 1513 0 0
106 83 0 1520 0 0
108 69 0 1534 0 0
110 67 0 1536 0 0
112 65 0 1538 0 0
114 58 0 1545 0 0
116 54 0 1549 0 0
118 50 0 1554 0 0
120 46 0 1557 0 1
122 41 0 1563 0 0
124 38 0 1565 0 0
126 33 0 1571 0 0
128 30 0 1574 0 0
130 28 0 1576 0 0
132 26 0 1578 0 0
134 24 0 1581 0 0
136 22 0 1583 0 0
138 19 0 1586 0 0
140 19 0 1586 0 0
142 14 0 1591 0 0
144 14 0 1590 0 0
146 9 0 1595 0 0
148 9 0 1595 0 0
150 9 0 1595 0 0
152 8 0 1596 0 0
154 6 0 1599 0 0
156 4 0 1601 0 0
158 4 0 1601 0 0
160 4 0 1601 0 0
162 5 0 1601 0 0
164 4 0 1603 0 0
166 3 0 1604 0 0
168 3 0 1605 0 0
170 3 0 1605 0 0
172 3 0 1604 0 0
174 3 0 1604 0 0
176 3 0 1604 0 0
178 3 0 1604 0 0
180 2 0 1605 0 0
182 1 0 1606 0 0
184 0 0 1607 0 0
186 0 0 1607 0 0
188 1 0 1607 0 0
190 0 0 1608 0 0
192 1 0 1608 0 0
194 1 0 1608 0 0
196 1 0 1608 0 0
198 1 0 1608 0 0
200 1 0 1608 0 0
