0 1331 0 0 0 0
2 1316 8 0 2 0
4.00004 1315 8 0 3 0
6 1319 4 0 6 0
8 1313 8 0 6 0
10 1308 15 0 12 0
12 1327 8 0 4 0
14 1324 6 0 6 0
16 1320 6 0 7 0
18 1303 14 0 7 0
20 1300 5 0 11 0
22 1303 6 0 3 0
24 1305 10 0 4 0
26 1306 6 0 6 0
28 1300 15 0 5 0
30 1306 8 0 7 0
32 1301 5 0 10 0
34 1281 13 0 11 0
36 1283 9 0 5 0
38 1284 11 0 5 0
40 1296 8 0 5 0
42 1287 11 0 9 0
44 1294 8 0 11 0
46 1284 8 0 10 0
48 1285 11 0 8 0
50 1290 6 0 7 0
52 1110 1 192 6 1
54 958 2 335 9 2
56 845 0 461 3 1
58 745 0 557 1 3
60 658 0 643 3 2
62 582 0 719 6 3
64 512 0 787 1 3
66 436 0 848 4 2
68 392 1 892 5 4
70 357 1 931 1 3
72 328 0 963 2 1
74 290 0 997 2 2
76 260 0 1024 6 5
78 239 0 1044 6 5
80 217 0 1067 1 3
82 196 0 1083 0 4
84 176 1 1106 3 3
86 157 0 1128 2 3
88 147 0 1136 2 4
90 137 0 1145 5 3
92 141 0 1155 1 4
94 135 0 1156 1 8
96 121 0 1173 1 3
98 106 0 1184 3 1
100 103 0 1187 0 6
102 95 0 1192 3 3
104 90 0 1194 4 3
106 87 0 1212 3 1
108 83 0 1206 0 5
110 77 0 1217 0 3
112 77 0 1223 1 1
114 76 0 1228 1 3
116 67 0 1227 0 3
118 63 0 1236 1 2
120 61 0 1229 0 3
122 60 0 1232 2 5
124 63 0 1224 0 10
126 64 0 1231 0 4
128 57 0 1238 2 6
130 54 0 1238 1 8
132 49 0 1241 3 5
134 47 0 1240 3 6
136 47 0 1246 1 6
138 49 0 1244 1 7
140 42 0 1252 2 8
142 44 0 1253 0 8
144 46 0 1259 3 2
146 46 0 1260 2 5
148 45 0 1250 0 9
150 44 0 1253 3 1
152 41 0 1253 0 3
154 41 0 1249 2 5
156 46 0 1234 3 12
158 51 0 1239 1 9
160 45 0 1247 2 2
162 47 0 1247 2 5
164 43 0 1257 0 3
166 40 0 1261 0 4
168 34 0 1263 0 2
170 36 0 1259 0 3
172 35 0 1259 3 11
174 37 0 1277 1 3
176 37 0 1263 2 12
178 33 0 1270 1 9
180 27 0 1274 1 7
182 23 0 1273 0 6
184 30 0 1275 0 7
186 26 0 1280 0 5
188 25 0 1277 1 11
190 26 0 1288 0 1
192 28 0 1285 0 4
194 23 0 1291 1 4
196 25 0 1283 0 6
198 27 0 1285 2 4
200 30 0 1290 1 7
