0 544 0 0 0 0
2 527 0 0 5 0
4.00004 526 0 0 6 0
6 528 0 0 5 0
8 523 0 0 4 0
10 521 0 0 6 0
12 528 0 0 6 0
14 516 0 0 5 0
16 517 0 0 6 0
18 519 0 0 5 0
20 515 0 0 3 0
22 518 0 0 6 0
24 524 0 0 9 0
26 533 0 0 5 0
28 533 0 0 5 0
30 526 0 0 6 0
32 525 0 0 3 0
34 527 0 0 8 0
36 529 0 0 3 0
38 528 0 0 7 0
40 527 0 0 4 0
42 519 0 0 10 0
44 520 0 0 4 0
46 516 0 0 6 0
48 519 0 0 10 0
50 515 0 0 9 0
52 514 0 0 7 0
54 511 0 1 8 0
56 510 0 6 5 0
58 507 0 9 8 0
60 502 0 14 9 0
62 503 0 16 4 2
64 504 0 25 3 0
66 488 0 30 12 2
68 484 0 36 6 1
70 485 0 38 5 0
72 478 0 45 2 0
74 472 0 54 4 2
76 455 0 65 5 2
78 446 0 75 2 1
80 445 0 79 1 1
82 430 0 83 7 3
84 422 0 93 5 2
86 415 0 101 3 3
88 406 0 116 6 1
90 393 0 122 5 1
92 388 0 130 3 2
94 378 0 140 1 3
96 366 0 149 7 2
98 364 0 151 4 5
100 354 0 163 1 3
102 349 0 168 2 3
104 345 0 176 3 6
106 343 0 186 0 4
108 335 0 198 1 1
110 320 0 205 4 3
112 313 0 200 3 1
114 302 0 202 4 4
116 291 0 204 3 5
118 290 0 217 0 2
120 283 0 223 1 3
122 273 0 233 0 4
124 260 0 235 3 6
126 254 0 245 1 1
128 246 0 242 3 2
130 239 0 260 3 3
132 237 0 262 2 4
134 237 0 270 2 3
136 234 0 272 2 4
138 228 0 284 1 3
140 225 0 297 0 3
142 217 0 304 1 6
144 208 0 305 1 4
146 203 0 314 3 1
148 199 0 312 2 3
150 194 0 317 2 7
152 193 0 329 1 3
154 186 0 330 2 2
156 188 0 332 1 4
158 179 0 340 2 2
160 176 0 345 1 5
162 169 0 348 1 5
164 163 0 349 1 7
166 162 0 355 0 4
168 159 0 361 0 6
170 152 0 366 2 4
172 152 0 366 1 5
174 146 0 372 2 6
176 146 0 382 0 9
178 145 0 393 0 2
180 135 0 394 2 2
182 134 0 385 2 6
184 131 0 393 2 5
186 129 0 403 0 3
188 127 0 411 0 3
190 124 0 411 1 4
192 125 0 416 1 4
194 119 0 416 2 6
196 118 0 420 1 5
198 114 0 427 1 5
200 111 0 429 2 2
