0 1429 0 0 0 0
2 1420 5 0 8 0
4.00004 1410 5 0 8 0
6 1414 7 0 4 0
8 1403 12 0 6 0
10 1410 7 0 6 0
12 1404 5 0 4 0
14 1409 4 0 6 0
16 1399 14 0 3 0
18 1405 7 0 5 0
20 1402 5 0 7 0
22 1401 8 0 8 0
24 1396 6 0 9 0
26 1394 7 0 8 0
28 1399 7 0 3 0
30 1388 10 0 5 0
32 1381 8 0 5 0
34 1378 7 0 1 0
36 1368 10 0 9 0
38 1368 6 0 4 0
40 1361 10 0 5 0
42 1366 4 0 2 0
44 1359 3 0 2 0
46 1363 7 0 4 0
48 1355 11 0 7 0
50 1355 6 0 5 0
52 1179 0 174 8 0
54 1047 0 302 7 0
56 935 0 411 3 0
58 876 1 474 3 1
60 790 0 554 6 1
62 707 1 637 5 1
64 632 1 699 5 7
66 584 0 758 1 2
68 533 0 805 1 1
70 487 1 848 6 1
72 447 0 883 5 5
74 415 2 910 1 0
76 374 0 944 5 3
78 355 0 966 2 3
80 327 0 992 1 5
82 303 0 1013 1 2
84 282 0 1034 2 3
86 265 0 1048 1 4
88 246 0 1057 2 5
90 240 0 1072 2 1
92 229 0 1075 1 8
94 220 0 1091 0 5
96 204 0 1104 2 2
98 178 0 1127 3 4
100 163 0 1139 3 5
102 154 0 1137 3 3
104 147 0 1152 0 2
106 142 0 1159 2 5
108 134 0 1168 1 6
110 131 0 1162 1 7
112 130 0 1163 1 4
114 121 0 1170 1 5
116 104 0 1187 0 4
118 110 0 1187 0 4
120 102 0 1203 0 1
122 96 1 1198 1 6
124 91 0 1212 1 4
126 83 0 1215 0 6
128 77 0 1230 2 4
130 73 0 1222 3 7
132 63 0 1233 1 5
134 63 0 1226 2 7
136 58 0 1237 0 6
138 59 0 1238 1 3
140 62 0 1229 2 5
142 67 0 1231 1 7
144 69 0 1241 1 1
146 69 0 1246 1 6
148 70 0 1248 1 8
150 63 0 1254 1 9
152 59 0 1260 1 2
154 52 1 1265 1 2
156 45 0 1273 2 3
158 51 0 1273 0 4
160 47 0 1281 1 8
162 42 0 1277 0 8
164 43 0 1275 0 6
166 41 0 1283 0 3
168 38 0 1281 0 5
170 37 0 1273 1 9
172 36 0 1274 0 5
174 34 0 1271 0 2
176 35 0 1260 1 5
178 38 0 1254 0 7
180 36 0 1249 0 6
182 36 0 1249 0 9
184 36 0 1255 0 7
186 32 0 1265 0 0
188 31 0 1254 0 8
190 38 0 1257 1 8
192 33 0 1259 1 8
194 36 0 1265 0 4
196 37 0 1254 3 8
198 36 0 1261 2 5
200 41 0 1264 1 6
