0 1356 0 0 0 0
2 1352 8 0 8 0
4.00004 1355 6 0 7 0
6 1355 4 0 8 0
8 1361 7 0 5 0
10 1355 11 0 7 0
12 1354 8 0 4 0
14 1365 8 0 6 0
16 1366 4 0 7 0
18 1352 12 0 12 0
20 1368 5 0 9 0
22 1361 7 0 8 0
24 1352 11 0 4 0
26 1344 11 0 7 0
28 1348 8 0 6 0
30 1353 9 0 6 0
32 1359 6 0 7 0
34 1351 10 0 4 0
36 1352 9 0 7 0
38 1350 9 0 6 0
40 1351 11 0 7 0
42 1360 6 0 5 0
44 1364 4 0 8 0
46 1359 13 0 6 0
48 1364 4 0 3 0
50 1359 11 0 6 0
52 1194 0 178 7 0
54 1049 0 326 5 0
56 941 1 435 2 0
58 842 0 525 5 4
60 753 1 611 9 1
62 684 1 683 4 3
64 616 0 748 1 3
66 569 0 795 3 1
68 522 0 844 5 2
70 470 0 895 4 3
72 424 0 939 5 7
74 393 0 971 3 1
76 371 0 994 2 6
78 345 0 1023 2 6
80 312 0 1056 2 4
82 279 0 1090 4 4
84 258 0 1116 1 3
86 245 0 1127 2 4
88 229 0 1137 0 5
90 224 0 1152 1 2
92 202 0 1168 2 5
94 190 0 1182 4 2
96 188 0 1182 0 6
98 177 0 1195 2 2
100 170 0 1203 2 4
102 149 0 1223 0 6
104 135 0 1230 1 4
106 124 0 1234 4 5
108 120 0 1241 1 3
110 119 1 1246 1 1
112 108 0 1268 2 5
114 109 0 1275 1 3
116 111 0 1273 2 11
118 104 0 1282 1 4
120 98 0 1287 1 4
122 98 0 1283 2 7
124 99 0 1285 2 10
126 96 0 1292 1 10
128 92 0 1308 1 6
130 86 0 1303 2 4
132 76 0 1309 2 8
134 70 0 1313 1 4
136 65 0 1318 0 5
138 65 0 1311 1 7
140 61 0 1304 1 9
142 59 0 1309 2 2
144 62 0 1309 3 8
146 62 0 1310 1 6
148 65 0 1311 1 7
150 66 0 1309 0 5
152 62 0 1303 0 9
154 66 0 1305 0 9
156 57 0 1316 0 2
158 62 0 1309 0 6
160 57 0 1310 0 6
162 55 0 1317 0 5
164 50 0 1322 2 6
166 51 0 1323 1 4
168 45 0 1323 1 5
170 48 0 1324 0 4
172 44 0 1329 0 3
174 45 0 1324 0 5
176 45 0 1310 1 7
178 40 0 1314 0 6
180 47 0 1318 0 2
182 42 0 1320 0 11
184 36 0 1327 0 6
186 38 0 1323 0 4
188 38 0 1315 0 6
190 34 0 1322 1 3
192 30 0 1320 0 4
194 30 0 1321 2 4
196 31 0 1322 0 3
198 30 0 1316 1 6
200 31 0 1317 0 8
