0 1012 0 0 0 0 0
2 906 39 0 76 0 2
4.00004 881 15 0 102 0 11
6 872 7 0 125 0 13
8 857 5 0 144 0 19
10 846 9 0 160 0 19
12 840 4 0 153 0 34
14 824 5 0 175 0 28
16 821 2 0 186 0 28
18 819 1 0 187 0 26
20 822 2 0 173 0 34
22 837 1 0 166 0 40
24 839 0 0 167 0 30
26 827 0 0 186 0 36
28 834 0 0 175 0 28
30 835 0 0 182 0 31
32 834 0 0 185 0 28
34 821 0 0 197 0 26
36 821 0 0 170 0 39
38 819 0 0 168 0 36
40 816 0 0 175 0 36
42 811 0 0 186 0 42
44 790 0 0 197 0 46
46 793 0 0 197 0 44
48 786 0 0 204 0 38
50 798 0 0 196 0 35
52 770 0 5 139 111 0
54 775 0 12 105 122 0
56 753 0 25 95 145 0
58 745 0 40 85 151 0
60 727 0 57 82 155 0
62 712 0 81 66 165 0
64 714 0 96 53 156 0
66 690 0 110 67 153 0
68 676 0 128 65 161 0
70 657 0 142 70 159 0
72 647 0 159 65 172 0
74 631 0 181 60 183 0
76 609 0 181 73 189 0
78 600 0 189 63 204 0
80 583 0 200 62 192 0
82 563 0 222 68 187 0
84 557 0 223 61 196 0
86 556 0 232 51 210 0
88 542 0 258 53 183 0
90 523 0 264 61 195 0
92 508 0 282 58 200 0
94 501 0 279 51 213 0
96 498 0 294 47 206 0
98 487 0 305 53 205 0
100 478 0 305 49 220 0
102 470 0 315 42 218 0
104 449 0 327 51 212 0
106 445 0 344 41 205 0
108 430 0 364 51 199 0
110 421 0 379 50 198 0
112 403 0 383 56 191 0
114 399 0 383 52 205 0
116 397 0 400 42 197 0
118 385 0 408 41 199 0
120 372 0 416 45 200 0
122 374 0 427 33 207 0
124 362 0 437 43 202 0
126 357 0 443 34 210 0
128 344 0 454 41 213 0
130 341 0 460 34 217 1
132 334 0 469 37 214 0
134 324 0 489 36 215 1
136 318 0 493 35 222 0
138 306 0 503 38 216 0
140 301 0 510 33 215 1
142 289 0 512 33 217 0
144 279 0 528 37 197 0
146 270 0 536 33 204 0
148 259 0 535 33 213 0
150 262 0 530 24 230 0
152 252 0 547 31 220 0
154 242 0 556 31 216 0
156 241 0 544 24 226 0
158 241 0 560 20 217 0
160 231 0 557 28 227 0
162 224 0 562 25 234 0
164 219 0 568 22 244 0
166 218 0 592 17 220 0
168 208 0 586 22 233 0
170 204 0 588 20 234 0
172 201 0 603 17 224 0
174 197 0 603 21 227 0
176 193 0 633 19 209 0
178 188 0 629 21 212 1
180 188 0 638 16 216 0
182 181 0 655 17 201 0
184 178 0 651 14 209 0
186 170 0 640 20 227 0
188 166 0 663 16 211 0
190 162 0 646 18 234 0
192 152 0 648 21 228 0
194 150 0 654 21 237 0
196 152 0 652 13 233 0
198 148 0 662 15 235 0
200 137 0 671 23 230 0
