0 964 0 0 0 0 0
2 908 0 0 58 0 0
4.00004 901 0 0 61 0 0
6 890 0 0 75 0 0
8 877 0 0 86 0 0
10 868 0 0 104 0 0
12 870 0 0 101 0 0
14 861 0 0 124 0 0
16 870 0 0 116 0 0
18 873 0 0 106 0 0
20 867 0 0 123 0 0
22 872 0 0 123 0 0
24 878 0 0 111 0 0
26 885 0 0 109 0 0
28 889 0 0 115 0 0
30 893 0 0 110 0 0
32 902 0 0 114 0 0
34 897 0 0 117 0 0
36 902 0 0 118 0 0
38 911 0 0 117 0 0
40 911 0 0 108 0 0
42 914 0 0 111 0 0
44 912 0 0 133 0 0
46 922 0 0 116 0 0
48 922 0 0 129 0 0
50 922 0 0 116 0 0
52 918 0 1 82 34 0
54 918 0 6 68 50 0
56 903 0 12 60 66 0
58 899 0 28 49 72 0
60 898 0 43 42 71 0
62 892 0 56 41 71 0
64 878 0 61 52 76 0
66 874 0 77 50 61 0
68 871 0 88 43 56 0
70 867 0 91 39 54 0
72 850 0 90 51 61 0
74 850 0 110 38 57 0
76 837 0 121 42 62 0
78 823 0 128 49 66 0
80 815 0 135 50 63 0
82 806 0 145 50 57 0
84 792 0 145 53 65 0
86 777 0 156 58 64 0
88 774 0 165 51 79 0
90 765 0 168 48 79 0
92 761 0 187 41 72 0
94 745 0 191 50 72 0
96 748 0 203 32 71 0
98 740 0 210 34 80 0
100 727 0 224 41 71 0
102 715 0 228 44 73 0
104 709 0 233 41 81 0
106 706 0 239 40 79 0
108 696 0 253 39 80 0
110 690 0 267 38 73 0
112 683 0 276 37 74 0
114 672 0 290 41 71 0
116 659 0 290 42 82 0
118 662 0 295 32 84 0
120 640 0 305 43 84 0
122 643 0 308 33 84 0
124 632 0 323 37 81 0
126 635 0 337 28 68 0
128 626 0 349 33 57 0
130 610 0 350 40 67 0
132 604 0 355 41 71 0
134 608 0 357 30 83 0
136 599 0 361 33 75 0
138 603 0 363 24 88 0
140 581 0 369 37 80 0
142 573 0 372 38 86 0
144 576 0 386 27 81 0
146 563 0 397 33 72 0
148 556 0 393 32 81 0
150 542 0 406 41 72 0
152 540 0 405 34 80 0
154 535 0 417 35 80 0
156 528 0 416 34 87 0
158 527 0 422 32 90 0
160 529 0 445 24 69 0
162 517 0 441 29 81 0
164 510 0 453 35 80 0
166 507 0 451 31 99 0
168 497 0 451 33 95 0
170 497 0 470 27 89 0
172 498 0 474 23 86 0
174 481 0 487 37 81 0
176 483 0 498 21 89 0
178 471 0 492 26 91 0
180 464 0 502 29 85 0
182 467 0 513 21 82 0
184 460 0 511 20 92 0
186 451 0 503 26 95 0
188 452 0 510 20 93 0
190 445 0 522 25 82 0
192 436 0 522 25 90 0
194 430 0 530 28 89 0
196 434 0 538 19 89 0
198 430 0 538 19 91 0
200 420 0 554 22 71 0
