0 1090 0 0 0 0 0
2 1014 20 0 59 0 3
4.00004 991 12 0 85 0 5
6 989 5 0 93 0 8
8 964 5 0 107 0 17
10 966 4 0 97 0 27
12 959 1 0 112 0 25
14 953 0 0 120 0 22
16 933 2 0 128 0 36
18 933 0 0 133 0 27
20 924 1 0 127 0 43
22 923 0 0 129 0 28
24 924 0 0 124 0 36
26 906 0 0 144 0 33
28 888 0 0 158 0 37
30 885 0 0 156 0 46
32 899 0 0 149 0 39
34 905 0 0 143 0 25
36 899 0 0 139 0 35
38 897 0 0 152 0 32
40 895 0 0 152 0 35
42 896 0 0 139 0 50
44 897 0 0 146 0 44
46 898 0 0 147 0 38
48 890 0 0 153 0 47
50 890 0 0 142 0 40
52 880 0 1 80 118 0
54 865 0 11 74 127 0
56 864 0 31 53 134 0
58 848 0 47 54 141 0
60 824 0 67 57 150 0
62 813 0 85 50 134 0
64 799 0 102 52 117 0
66 770 0 115 69 125 0
68 759 0 129 59 124 0
70 748 0 147 49 130 0
72 725 0 170 56 129 0
74 710 0 185 56 138 0
76 706 0 195 46 140 0
78 682 0 206 52 148 0
80 676 0 221 49 144 0
82 658 0 229 49 144 0
84 647 0 245 43 150 0
86 640 0 251 37 152 0
88 617 0 278 54 132 0
90 609 0 285 46 137 0
92 599 0 301 44 129 0
94 587 0 312 46 125 0
96 581 0 317 38 138 0
98 568 0 321 42 144 0
100 556 0 320 39 169 0
102 542 0 336 47 145 0
104 534 0 354 41 152 0
106 533 0 366 31 145 0
108 515 0 361 37 165 0
110 514 0 373 26 159 0
112 503 0 385 30 160 0
114 493 0 382 30 157 0
116 478 0 400 35 150 0
118 469 0 398 35 155 0
120 459 0 406 39 151 0
122 448 0 417 39 150 0
124 436 0 441 38 137 0
126 426 0 454 37 124 0
128 422 0 460 33 147 0
130 412 0 463 36 155 0
132 404 0 452 30 168 0
134 393 0 460 27 162 0
136 383 0 469 23 164 0
138 372 0 481 28 165 0
140 361 0 494 27 159 0
142 352 0 501 30 162 0
144 348 0 509 26 161 0
146 344 0 525 20 149 0
148 337 0 531 20 140 0
150 330 0 534 24 150 0
152 330 0 542 15 152 0
154 319 0 536 22 159 0
156 308 0 533 27 167 0
158 306 0 535 23 168 0
160 300 0 541 24 152 0
162 299 0 542 21 151 0
164 298 0 544 16 161 0
166 281 0 553 27 143 0
168 282 0 545 15 162 0
170 270 0 543 23 164 0
172 265 0 556 20 165 0
174 257 0 557 19 175 0
176 252 0 560 19 179 0
178 249 0 567 18 175 0
180 250 0 574 13 165 0
182 243 0 582 18 167 0
184 234 0 608 17 140 0
186 231 0 606 16 150 0
188 223 0 608 21 148 0
190 224 0 613 12 165 0
192 218 0 617 15 161 0
194 208 0 627 25 150 0
196 211 0 639 13 139 0
198 207 0 631 14 149 0
200 206 0 626 14 173 0
