0 949 0 0 0 0 0
2 892 0 0 61 0 0
4.00004 858 0 0 74 0 0
6 856 0 0 92 0 0
8 833 0 0 103 0 0
10 835 0 0 107 0 0
12 812 0 0 126 0 0
14 810 0 0 125 0 0
16 811 0 0 137 0 0
18 805 0 0 142 0 0
20 804 0 0 149 0 0
22 799 0 0 147 0 0
24 796 0 0 148 0 0
26 808 0 0 138 0 0
28 804 0 0 146 0 0
30 797 0 0 141 0 0
32 804 0 0 148 0 0
34 810 0 0 146 0 0
36 805 0 0 155 0 0
38 803 0 0 169 0 0
40 803 0 0 166 0 0
42 818 0 0 160 0 0
44 817 0 0 152 0 0
46 812 0 0 169 0 0
48 806 0 0 178 0 0
50 806 0 0 181 0 0
52 811 0 0 131 30 0
54 805 0 2 123 54 0
56 819 0 6 91 72 0
58 807 0 11 88 76 0
60 804 0 22 86 90 0
62 794 0 32 92 91 0
64 787 0 40 88 87 0
66 766 0 54 99 84 0
68 771 0 64 90 75 0
70 755 0 67 92 81 0
72 757 0 71 85 99 0
74 760 0 88 72 90 0
76 750 0 103 74 92 0
78 746 0 109 70 93 0
80 732 0 119 77 97 0
82 717 0 126 87 97 0
84 727 0 131 69 100 0
86 712 0 140 79 98 0
88 708 0 149 78 95 0
90 694 0 154 80 96 0
92 689 0 164 79 92 0
94 679 0 171 82 100 0
96 668 0 179 80 106 0
98 675 0 183 67 112 0
100 661 0 188 73 119 0
102 651 0 199 73 119 0
104 641 0 216 74 116 0
106 620 0 221 86 104 0
108 627 0 226 68 111 0
110 621 0 230 69 112 0
112 608 0 233 76 111 0
114 609 0 237 67 115 0
116 598 0 249 66 125 0
118 591 0 272 66 108 0
120 579 0 281 71 102 0
122 570 0 283 74 118 0
124 577 0 279 60 123 0
126 568 0 292 60 128 0
128 555 0 293 68 135 0
130 564 0 309 54 122 0
132 551 0 299 61 136 0
134 556 0 305 52 132 0
136 549 0 308 51 131 0
138 542 0 327 55 121 0
140 529 0 325 61 118 0
142 529 0 331 55 126 0
144 515 0 337 60 122 0
146 506 0 336 65 142 0
148 491 0 345 70 141 0
150 482 0 348 70 149 0
152 475 0 358 70 138 0
154 466 0 364 74 139 0
156 461 0 377 75 127 0
158 463 0 387 69 124 0
160 462 0 385 62 122 0
162 458 0 396 64 121 0
164 444 0 396 73 114 0
166 439 0 392 67 130 0
168 447 0 398 54 128 0
170 443 0 412 47 130 0
172 427 0 411 60 134 0
174 427 0 411 57 143 0
176 430 0 409 48 151 0
178 422 0 407 51 152 0
180 418 0 417 47 153 0
182 406 0 428 55 146 0
184 401 0 442 53 146 0
186 406 0 445 36 145 0
188 393 0 447 41 156 0
190 394 0 459 34 139 0
192 383 0 474 41 125 0
194 383 0 458 38 141 0
196 376 0 465 40 147 0
198 372 0 472 39 148 0
200 360 0 479 44 140 0
