0 1045 0 0 0 0 0
2 991 0 0 65 0 0
4.00004 971 0 0 59 0 0
6 954 0 0 90 0 0
8 942 0 0 107 0 0
10 947 0 0 87 0 0
12 935 0 0 103 0 0
14 911 0 0 127 0 0
16 918 0 0 118 0 0
18 919 0 0 119 0 0
20 897 0 0 127 0 0
22 915 0 0 108 0 0
24 901 0 0 146 0 0
26 911 0 0 132 0 0
28 909 0 0 126 0 0
30 920 0 0 117 0 0
32 908 0 0 143 0 0
34 917 0 0 131 0 0
36 914 0 0 124 0 0
38 914 0 0 131 0 0
40 916 0 0 136 0 0
42 932 0 0 127 0 0
44 924 0 0 134 0 0
46 930 0 0 131 0 0
48 929 0 0 139 0 0
50 938 0 0 119 0 0
52 938 0 3 54 74 0
54 903 0 27 68 61 0
56 893 0 47 51 80 0
58 875 0 67 51 81 0
60 859 0 87 44 82 0
62 851 0 116 36 82 0
64 835 0 143 36 63 0
66 803 0 151 51 60 0
68 786 0 160 56 74 0
70 764 0 181 51 70 0
72 736 0 195 51 74 0
74 725 0 212 43 82 0
76 705 0 229 43 80 0
78 677 0 239 56 93 0
80 677 0 253 40 94 0
82 658 0 274 36 82 0
84 636 0 292 42 74 0
86 620 0 308 43 89 0
88 612 0 320 31 98 0
90 600 0 338 35 90 0
92 581 0 356 40 81 0
94 562 0 363 40 87 0
96 550 0 385 34 105 0
98 533 0 381 36 100 0
100 519 0 398 35 94 0
102 503 0 406 32 110 0
104 479 0 424 36 106 0
106 460 0 442 41 97 0
108 448 0 444 39 102 0
110 436 0 462 31 93 0
112 429 0 474 30 101 0
114 421 0 487 23 104 0
116 404 0 495 25 110 0
118 390 0 492 29 128 0
120 387 0 512 24 111 0
122 381 0 521 16 101 0
124 365 0 525 23 107 0
126 364 0 547 19 108 0
128 357 0 546 16 114 0
130 349 0 564 19 105 0
132 344 0 570 15 102 0
134 336 0 579 18 88 0
136 332 0 592 18 86 0
138 322 0 600 15 90 0
140 315 0 600 16 109 0
142 312 0 602 12 108 0
144 309 0 614 10 123 0
146 295 0 624 19 108 0
148 281 0 634 25 109 0
150 276 0 633 18 116 0
152 264 0 655 20 91 0
154 258 0 654 20 112 0
156 255 0 671 15 100 0
158 245 0 690 15 94 0
160 242 0 694 12 93 0
162 235 0 689 13 116 0
164 227 0 699 13 103 0
166 226 0 702 8 102 0
168 216 0 708 15 107 0
170 209 0 717 16 115 0
172 200 0 713 19 131 0
174 203 0 727 10 108 0
176 202 0 721 9 122 0
178 193 0 739 14 98 0
180 192 0 726 9 111 0
182 188 0 733 9 115 0
184 181 0 736 13 123 0
186 182 0 748 10 124 0
188 173 0 759 11 122 0
190 172 0 754 7 134 0
192 167 0 776 10 109 0
194 165 0 783 9 100 0
196 164 0 780 6 111 0
198 153 0 777 13 119 0
200 151 0 781 9 100 0
