0 814 0 0 0 0 0
2 771 0 0 52 0 0
4.00004 751 0 0 84 0 0
6 748 0 0 87 0 0
8 748 0 0 96 0 0
10 743 0 0 102 0 0
12 747 0 0 101 0 0
14 750 0 0 109 0 0
16 762 0 0 93 0 0
18 753 0 0 112 0 0
20 765 0 0 93 0 0
22 759 0 0 106 0 0
24 772 0 0 101 0 0
26 774 0 0 90 0 0
28 777 0 0 97 0 0
30 788 0 0 101 0 0
32 788 0 0 93 0 0
34 794 0 0 94 0 0
36 781 0 0 98 0 0
38 787 0 0 101 0 0
40 787 0 0 98 0 0
42 779 0 0 120 0 0
44 775 0 0 125 0 0
46 796 0 0 105 0 0
48 794 0 0 103 0 0
50 806 0 0 95 0 0
52 801 0 2 47 48 0
54 778 0 21 44 60 0
56 767 0 48 33 49 0
58 758 0 65 27 50 0
60 738 0 87 38 53 0
62 717 0 98 41 70 0
64 705 0 111 36 62 0
66 693 0 119 31 87 0
68 669 0 147 40 89 0
70 663 0 169 30 76 0
72 638 0 186 38 94 0
74 628 0 215 30 87 0
76 607 0 240 36 80 0
78 589 0 261 33 77 0
80 579 0 280 30 71 0
82 567 0 300 30 83 0
84 548 0 324 30 84 0
86 534 0 338 29 82 0
88 525 0 353 26 80 0
90 506 0 379 29 71 0
92 495 0 378 29 74 0
94 486 0 400 24 91 0
96 476 0 406 26 95 0
98 464 0 411 26 84 0
100 454 0 419 25 99 0
102 452 0 439 17 93 0
104 435 0 454 28 92 0
106 429 0 464 24 79 0
108 417 0 470 22 84 0
110 410 0 479 21 90 0
112 407 0 489 16 92 0
114 402 0 502 11 86 0
116 386 0 510 21 79 0
118 375 0 516 19 98 0
120 364 0 529 21 99 0
122 360 0 541 17 89 0
124 354 0 553 17 84 0
126 348 0 568 17 85 0
128 338 0 575 21 83 0
130 332 0 585 19 83 0
132 324 0 597 20 83 0
134 314 0 591 21 100 0
136 308 0 593 18 91 0
138 300 0 599 11 93 0
140 285 0 606 15 90 0
142 285 0 631 7 69 0
144 275 0 628 12 78 0
146 276 0 636 6 81 0
148 265 0 630 11 106 0
150 264 0 651 12 77 0
152 256 0 648 14 97 0
154 248 0 647 13 97 0
156 249 0 645 7 105 0
158 235 0 653 16 101 0
160 230 0 663 14 103 0
162 221 0 674 13 88 0
164 217 0 677 10 102 0
166 213 0 679 13 106 0
168 209 0 675 11 121 0
170 205 0 674 10 110 0
172 194 0 691 17 118 0
174 190 0 705 13 106 0
176 185 0 713 11 110 0
178 181 0 726 8 98 0
180 176 0 731 7 101 0
182 169 0 737 10 108 0
184 162 0 746 9 100 0
186 164 0 743 6 104 0
188 160 0 741 5 116 0
190 153 0 751 9 116 0
192 148 0 739 9 119 0
194 146 0 775 8 89 0
196 145 0 768 5 102 0
198 144 0 779 5 96 0
200 139 0 764 8 123 0
