0 914 0 0 0 0 0
2 838 0 0 86 0 0
4.00004 788 0 0 140 0 0
6 790 0 0 150 0 0
8 769 0 0 171 0 0
10 771 0 0 168 0 0
12 763 0 0 187 0 0
14 753 0 0 187 0 0
16 756 0 0 199 0 0
18 761 0 0 187 0 0
20 764 0 0 186 0 0
22 757 0 0 199 0 0
24 747 0 0 207 0 0
26 749 0 0 200 0 0
28 741 0 0 203 0 0
30 739 0 0 217 0 0
32 757 0 0 193 0 0
34 765 0 0 185 0 0
36 761 0 0 192 0 0
38 751 0 0 202 0 0
40 751 0 0 212 0 0
42 754 0 0 218 0 0
44 749 0 0 223 0 0
46 762 0 0 219 0 0
48 764 0 0 220 0 0
50 770 0 0 219 0 0
52 763 0 1 157 79 0
54 752 0 5 134 102 0
56 744 0 14 104 116 0
58 726 0 30 105 102 0
60 728 0 48 80 120 0
62 692 0 72 103 103 0
64 684 0 99 93 105 0
66 673 0 113 86 126 0
68 661 0 117 86 132 0
70 647 0 137 85 151 0
72 640 0 147 72 130 0
74 625 0 163 73 140 0
76 597 0 178 85 133 0
78 590 0 201 73 139 0
80 577 0 216 70 147 0
82 567 0 238 69 153 0
84 554 0 249 74 133 0
86 550 0 255 63 135 0
88 519 0 269 84 135 0
90 509 0 276 84 149 0
92 490 0 286 83 167 0
94 483 0 304 66 164 0
96 480 0 312 61 169 0
98 474 0 330 54 161 0
100 461 0 346 58 166 0
102 455 0 362 55 149 0
104 449 0 373 55 157 0
106 436 0 375 57 171 0
108 428 0 395 51 165 0
110 400 0 395 57 187 0
112 397 0 402 54 178 0
114 402 0 412 41 173 0
116 390 0 417 43 172 0
118 392 0 422 32 190 0
120 370 0 432 48 174 0
122 356 0 433 54 175 0
124 350 0 449 50 180 0
126 337 0 451 51 190 0
128 342 0 452 38 196 0
130 329 0 473 46 184 0
132 317 0 489 51 197 0
134 318 0 509 41 179 0
136 316 0 512 33 182 0
138 307 0 526 35 175 0
140 290 0 531 43 191 0
142 291 0 528 31 196 0
144 277 0 560 39 165 0
146 273 0 574 40 155 0
148 264 0 588 41 150 0
150 256 0 580 34 163 0
152 250 0 584 31 166 0
154 247 0 577 25 198 0
156 236 0 574 28 198 0
158 234 0 572 22 202 0
160 234 0 581 19 186 0
162 227 0 577 22 210 0
164 219 0 597 27 188 0
166 220 0 607 22 187 0
168 216 0 601 25 195 0
170 212 0 602 23 210 0
172 210 0 604 21 226 0
174 207 0 614 21 227 0
176 196 0 620 27 217 0
178 200 0 629 20 213 0
180 189 0 636 23 207 0
182 181 0 644 28 218 0
184 181 0 638 21 219 0
186 173 0 632 22 233 0
188 169 0 659 24 212 0
190 164 0 654 26 200 0
192 160 0 657 22 191 0
194 155 0 665 24 206 0
196 156 0 661 17 205 0
198 157 0 673 12 198 0
200 154 0 682 12 197 0
