0 1107 0 0 0 0 0
2 1023 21 0 63 0 4
4.00004 1004 8 0 80 0 15
6 998 2 0 85 0 13
8 979 2 0 97 0 20
10 974 1 0 87 0 33
12 973 0 0 105 0 20
14 968 0 0 98 0 25
16 975 0 0 92 0 33
18 955 0 0 118 0 32
20 957 0 0 111 0 39
22 945 0 0 121 0 35
24 940 0 0 113 0 44
26 957 0 0 106 0 32
28 950 0 0 107 0 27
30 954 0 0 97 0 41
32 958 0 0 104 0 47
34 942 0 0 130 0 30
36 928 0 0 120 0 53
38 933 0 0 115 0 54
40 932 0 0 119 0 46
42 937 0 0 115 0 40
44 939 0 0 114 0 48
46 935 0 0 132 0 49
48 944 0 0 128 0 42
50 942 0 0 120 0 45
52 939 0 5 61 98 0
54 929 0 20 43 112 0
56 909 0 49 40 105 0
58 886 0 69 45 110 0
60 861 0 94 42 107 0
62 832 0 114 53 110 1
64 826 0 126 34 114 0
66 811 0 148 25 123 1
68 793 0 163 31 110 0
70 776 0 176 29 123 0
72 753 0 201 34 108 0
74 745 0 223 30 102 0
76 729 0 236 33 109 0
78 724 0 243 29 119 0
80 715 0 270 26 105 0
82 680 0 277 44 108 0
84 659 0 284 40 119 0
86 661 0 301 23 108 0
88 641 0 320 29 124 0
90 621 0 328 34 134 0
92 620 0 331 26 134 0
94 603 0 358 30 119 0
96 594 0 371 23 134 0
98 582 0 384 28 119 0
100 574 0 399 24 110 0
102 555 0 413 35 115 0
104 547 0 421 32 116 0
106 543 0 441 19 119 0
108 522 0 440 26 140 1
110 507 0 450 27 145 0
112 493 0 470 26 141 0
114 480 0 490 23 145 1
116 469 0 504 28 126 0
118 463 0 511 21 128 0
120 460 0 521 16 133 0
122 443 0 536 21 133 0
124 437 0 546 14 143 0
126 416 0 564 23 135 0
128 409 0 573 17 135 0
130 405 0 576 14 139 0
132 393 0 592 19 116 0
134 391 0 589 15 142 0
136 380 0 589 20 156 0
138 373 0 608 17 152 0
140 367 0 614 17 145 0
142 359 0 636 18 139 0
144 355 0 627 12 145 0
146 341 0 641 21 143 0
148 342 0 661 9 139 0
150 330 0 666 18 137 0
152 328 0 678 12 137 0
154 320 0 680 13 136 0
156 306 0 699 20 121 0
158 303 0 696 12 144 0
160 293 0 693 15 143 0
162 290 0 715 12 134 0
164 279 0 706 17 146 0
166 274 0 717 12 138 0
168 271 0 733 13 138 1
170 259 0 729 14 143 0
172 252 0 739 15 160 0
174 250 0 745 9 150 0
176 243 0 750 9 158 0
178 235 0 756 7 164 1
180 224 0 762 14 151 0
182 215 0 773 17 156 0
184 215 0 784 10 144 0
186 206 0 790 13 140 0
188 203 0 793 7 143 0
190 200 0 796 6 140 0
192 188 0 788 11 167 0
194 175 0 790 16 179 0
196 168 0 807 11 161 0
198 161 0 806 11 170 0
200 158 0 810 8 175 0
