0 1136 0 0 0 0 0
2 1067 10 0 54 0 3
4.00004 1049 6 0 72 0 11
6 1035 2 0 82 0 16
8 1026 3 0 82 0 26
10 1008 1 0 90 0 29
12 1022 1 0 75 0 31
14 1020 1 0 77 0 17
16 1011 0 0 75 0 28
18 995 1 0 96 0 29
20 996 0 0 91 0 23
22 996 0 0 88 0 21
24 983 0 0 106 0 22
26 967 0 0 112 0 27
28 961 0 0 106 0 29
30 953 0 0 109 0 35
32 950 0 0 90 0 44
34 946 0 0 98 0 42
36 938 0 0 107 0 35
38 943 0 0 105 0 24
40 941 0 0 103 0 37
42 939 0 0 106 0 30
44 934 0 0 93 0 28
46 924 0 0 98 0 40
48 927 0 0 97 0 25
50 915 0 0 110 0 37
52 929 0 8 48 80 0
54 901 0 21 43 92 1
56 894 0 40 33 92 0
58 875 0 56 41 80 0
60 860 0 64 38 84 0
62 838 0 78 41 82 1
64 832 0 88 34 78 1
66 821 0 100 32 85 0
68 808 0 110 31 93 0
70 797 0 129 31 92 0
72 774 0 145 37 92 0
74 750 0 160 40 95 0
76 741 0 175 33 89 0
78 727 0 182 26 99 0
80 715 0 192 27 103 0
82 690 0 207 29 116 0
84 670 0 233 36 106 0
86 660 0 248 32 105 0
88 654 0 260 22 95 0
90 628 0 259 38 115 0
92 624 0 275 26 114 0
94 617 0 291 22 111 1
96 596 0 311 26 113 0
98 590 0 319 27 100 0
100 575 0 329 29 104 0
102 566 0 346 32 96 0
104 555 0 349 26 106 0
106 541 0 365 31 99 0
108 527 0 369 27 109 0
110 519 0 376 20 117 0
112 513 0 392 18 107 0
114 513 0 397 10 106 0
116 498 0 405 20 104 0
118 492 0 415 20 100 0
120 475 0 416 26 111 0
122 468 0 435 28 101 0
124 455 0 444 29 99 0
126 456 0 453 14 109 0
128 448 0 461 13 113 0
130 426 0 467 21 119 0
132 423 0 474 14 118 0
134 418 0 489 13 102 0
136 412 0 495 11 114 0
138 402 0 511 17 92 0
140 393 0 509 17 114 0
142 384 0 510 17 120 0
144 370 0 523 25 112 0
146 369 0 528 16 122 0
148 364 0 545 12 117 0
150 350 0 557 16 115 1
152 343 0 567 19 112 0
154 331 0 572 20 110 0
156 327 0 564 13 131 0
158 321 0 581 13 114 0
160 317 0 584 12 120 0
162 301 0 588 17 126 0
164 291 0 600 17 114 0
166 287 0 604 14 107 0
168 285 0 615 13 111 0
170 275 0 628 18 96 0
172 275 0 631 11 102 0
174 274 0 619 6 114 1
176 260 0 640 14 95 0
178 255 0 646 11 108 0
180 255 0 640 6 119 0
182 245 0 641 9 122 0
184 245 0 649 8 115 0
186 243 0 645 8 129 0
188 242 0 671 4 108 0
190 236 0 669 9 112 0
192 239 0 666 2 120 0
194 231 0 662 9 121 0
196 228 0 678 7 107 0
198 221 0 684 11 106 0
200 215 0 686 11 121 0
