0 1073 0 0 0 0 0
2 983 31 0 62 0 0
4.00004 963 19 0 101 0 0
6 947 13 0 118 0 0
8 910 7 0 158 0 3
10 908 5 0 151 0 10
12 887 10 0 160 0 13
14 885 7 0 163 0 15
16 861 6 0 186 0 16
18 856 3 0 190 0 21
20 847 1 0 208 0 17
22 853 1 0 196 0 20
24 851 4 0 188 0 31
26 838 3 0 203 0 19
28 837 1 0 198 0 26
30 840 1 0 186 0 31
32 828 0 0 205 0 18
34 827 1 0 195 0 27
36 819 0 0 212 0 36
38 823 0 0 230 0 25
40 809 0 0 231 0 26
42 811 0 0 239 0 38
44 794 0 0 250 0 38
46 808 0 0 238 0 34
48 795 1 0 261 0 26
50 795 0 0 251 0 29
52 793 0 1 169 103 1
54 800 0 3 137 136 0
56 796 0 7 122 153 0
58 782 0 14 105 166 0
60 771 0 23 102 158 1
62 755 0 39 102 170 1
64 754 0 40 95 178 0
66 735 0 52 99 181 0
68 712 0 61 111 176 0
70 701 0 74 99 191 0
72 697 0 83 91 188 0
74 683 0 90 100 177 0
76 672 0 96 101 188 0
78 673 0 102 78 207 0
80 668 0 115 73 197 0
82 656 0 130 76 195 0
84 642 0 139 78 186 1
86 631 0 152 79 187 0
88 613 0 155 85 201 0
90 592 0 169 97 183 0
92 586 0 184 88 182 0
94 581 0 191 78 181 0
96 572 0 196 77 193 0
98 550 0 190 90 213 0
100 548 0 204 82 204 0
102 541 0 205 81 203 0
104 530 0 208 80 213 0
106 513 0 217 81 215 0
108 501 0 234 80 208 0
110 501 0 236 74 224 0
112 480 0 247 82 225 0
114 491 0 257 61 235 0
116 479 0 255 67 253 0
118 476 0 268 59 235 0
120 471 0 270 57 236 0
122 466 0 274 56 251 0
124 464 0 289 49 242 0
126 448 0 297 56 237 0
128 448 0 303 54 229 0
130 445 0 311 52 221 0
132 438 0 314 53 235 0
134 428 0 309 60 242 1
136 419 0 324 60 240 0
138 407 0 319 63 251 0
140 408 0 341 50 231 0
142 400 0 346 54 229 0
144 400 0 350 48 232 0
146 391 0 357 47 234 1
148 384 0 363 47 231 0
150 373 0 364 54 237 0
152 368 0 373 54 239 0
154 374 0 377 48 235 0
156 366 0 380 52 235 0
158 356 0 398 54 238 0
160 352 0 398 55 240 0
162 348 0 406 50 232 0
164 347 0 411 45 218 0
166 345 0 415 44 227 0
168 336 0 414 49 227 0
170 328 0 429 52 226 0
172 325 0 437 53 220 0
174 322 0 430 52 217 0
176 330 0 435 36 233 0
178 316 0 435 44 239 0
180 317 0 435 43 255 0
182 312 0 446 38 264 0
184 306 0 458 40 267 0
186 299 0 468 42 258 0
188 295 0 471 40 262 0
190 298 0 468 32 269 0
192 295 0 488 28 254 1
194 283 0 501 40 242 0
196 272 0 499 43 252 0
198 272 0 492 37 271 0
200 266 0 493 35 278 0
