0 1193 0 0 0 0 0
2 1078 16 0 90 0 11
4.00004 1045 8 0 106 0 26
6 1030 2 0 103 0 38
8 1015 0 0 125 0 35
10 999 1 0 115 0 58
12 993 1 0 132 0 34
14 984 1 0 113 0 61
16 974 1 0 118 0 54
18 963 1 0 138 0 50
20 971 0 0 125 0 66
22 967 0 0 132 0 47
24 954 0 0 137 0 56
26 937 0 0 159 0 59
28 966 0 0 131 0 57
30 950 0 0 130 0 65
32 957 0 0 137 0 60
34 943 0 0 139 0 76
36 953 0 0 144 0 69
38 962 0 0 139 0 57
40 966 0 0 141 0 50
42 973 0 0 146 0 53
44 965 0 0 156 0 62
46 946 0 0 165 0 70
48 961 0 0 154 0 49
50 965 0 0 138 0 66
52 958 0 10 62 143 0
54 937 0 41 44 145 0
56 893 0 82 68 127 0
58 874 0 106 59 135 1
60 843 0 139 58 128 1
62 831 0 158 40 130 1
64 810 0 189 35 139 0
66 780 0 213 38 149 0
68 738 0 236 52 154 0
70 713 0 249 46 167 1
72 697 0 284 45 152 1
74 676 0 309 33 152 0
76 644 0 319 47 150 0
78 626 0 344 43 160 0
80 611 0 349 42 162 0
82 605 0 386 32 133 0
84 590 0 401 34 137 1
86 579 0 418 28 150 0
88 559 0 420 36 168 0
90 548 0 450 35 160 0
92 520 0 466 43 146 0
94 511 0 472 27 163 1
96 497 0 480 31 150 0
98 484 0 500 25 151 0
100 464 0 498 32 167 1
102 459 0 507 21 194 0
104 441 0 529 26 175 0
106 415 0 548 32 179 0
108 397 0 553 33 192 0
110 386 0 575 26 180 0
112 371 0 593 33 166 0
114 361 0 599 23 163 0
116 350 0 607 21 166 0
118 331 0 609 25 180 0
120 322 0 628 23 159 0
122 309 0 636 20 162 0
124 299 0 638 22 162 0
126 286 0 638 26 161 0
128 277 0 636 23 165 0
130 270 0 644 17 179 0
132 261 0 655 17 170 0
134 255 0 651 16 191 0
136 246 0 667 16 184 0
138 237 0 680 16 172 0
140 233 0 695 13 166 0
142 230 0 709 11 174 0
144 219 0 710 15 177 0
146 213 0 719 16 161 0
148 206 0 720 15 175 0
150 196 0 722 16 176 0
152 189 0 719 15 185 0
154 179 0 723 16 194 0
156 170 0 710 17 223 0
158 168 0 711 11 223 0
160 163 0 733 9 204 0
162 155 0 731 10 213 0
164 149 0 750 14 188 0
166 147 0 749 9 205 0
168 145 0 771 5 199 0
170 133 0 791 12 183 0
172 130 0 785 9 191 0
174 125 0 813 7 172 0
176 119 0 824 9 153 0
178 113 0 805 7 175 0
180 110 0 818 5 173 0
182 109 0 818 6 174 0
184 110 0 802 3 187 0
186 102 0 799 6 190 0
188 99 0 815 6 181 0
190 93 0 819 9 183 0
192 90 0 814 7 187 0
194 91 0 813 4 201 0
196 88 0 809 8 192 0
198 88 0 819 4 186 0
200 84 0 825 5 185 0
