0 1088 0 0 0 0 0
2 1007 0 0 70 0 0
4.00004 995 0 0 96 0 0
6 961 0 0 122 0 0
8 932 0 0 143 0 0
10 911 0 0 155 0 0
12 923 0 0 146 0 0
14 892 0 0 176 0 0
16 881 0 0 182 0 0
18 870 0 0 197 0 0
20 857 0 0 212 0 0
22 858 0 0 198 0 0
24 856 0 0 208 0 0
26 854 0 0 197 0 0
28 864 0 0 199 0 0
30 849 0 0 203 0 0
32 855 0 0 198 0 0
34 854 0 0 202 0 0
36 853 0 0 217 0 0
38 839 0 0 238 0 0
40 839 0 0 234 0 0
42 821 0 0 240 0 0
44 839 0 0 228 0 0
46 838 0 0 228 0 0
48 839 0 0 233 0 0
50 847 0 0 224 0 0
52 830 0 0 208 37 0
54 851 0 1 166 68 0
56 842 0 3 158 79 0
58 819 0 11 162 87 0
60 818 0 16 142 103 0
62 823 0 20 126 107 0
64 806 0 29 131 115 0
66 793 0 39 133 115 0
68 776 0 42 136 116 0
70 771 0 46 129 126 0
72 763 0 58 123 113 0
74 765 0 70 107 103 0
76 746 0 83 110 109 0
78 736 0 88 111 109 0
80 740 0 97 98 128 0
82 729 0 104 97 130 0
84 698 0 101 119 145 0
86 698 0 113 107 133 0
88 676 0 126 119 143 0
90 690 0 132 95 140 0
92 664 0 138 113 137 0
94 660 0 152 112 132 0
96 657 0 159 105 134 0
98 648 0 165 101 136 0
100 635 0 162 105 146 0
102 623 0 177 109 146 0
104 619 0 184 108 150 0
106 614 0 188 103 160 0
108 623 0 193 80 160 0
110 610 0 206 88 148 0
112 592 0 220 101 154 0
114 576 0 226 109 150 0
116 582 0 236 93 153 0
118 561 0 243 102 161 0
120 550 0 250 99 168 0
122 549 0 262 93 155 0
124 543 0 261 85 167 0
126 539 0 270 82 165 0
128 525 0 274 83 166 0
130 527 0 279 75 166 0
132 515 0 296 78 157 0
134 494 0 300 92 149 0
136 502 0 303 77 150 0
138 493 0 304 77 163 0
140 495 0 322 69 154 0
142 488 0 323 70 168 0
144 488 0 322 63 186 0
146 474 0 330 72 181 0
148 478 0 339 63 180 0
150 464 0 353 72 165 0
152 470 0 362 63 155 0
154 458 0 360 69 168 0
156 451 0 370 74 170 0
158 444 0 371 78 169 0
160 433 0 374 79 171 0
162 440 0 376 63 176 0
164 429 0 377 66 175 0
166 428 0 384 65 176 0
168 426 0 391 62 172 0
170 420 0 398 60 176 0
172 410 0 413 64 168 0
174 414 0 406 54 178 0
176 402 0 403 65 176 0
178 383 0 405 77 184 0
180 392 0 419 60 171 0
182 392 0 411 53 190 0
184 379 0 415 60 194 0
186 369 0 425 67 182 0
188 372 0 420 60 192 0
190 375 0 440 56 169 0
192 367 0 449 58 177 0
194 369 0 438 48 183 0
196 374 0 446 39 191 0
198 365 0 452 42 181 0
200 361 0 459 38 181 0
