0 1076 0 0 0 0 0
2 969 25 0 87 0 2
4.00004 934 18 0 113 0 7
6 905 15 0 143 0 14
8 895 4 0 149 0 23
10 885 5 0 157 0 24
12 859 4 0 173 0 26
14 851 1 0 167 0 32
16 854 1 0 167 0 34
18 841 0 0 181 0 39
20 839 0 0 181 0 36
22 833 0 0 185 0 40
24 832 0 0 198 0 30
26 821 1 0 201 0 39
28 813 0 0 212 0 39
30 810 0 0 215 0 50
32 822 0 0 216 0 33
34 818 0 0 206 0 38
36 809 0 0 211 0 46
38 795 0 0 233 0 43
40 805 0 0 234 0 34
42 784 0 0 244 0 40
44 796 0 0 230 0 43
46 806 0 0 216 0 51
48 789 0 0 235 0 42
50 797 0 0 227 0 45
52 803 0 0 133 126 0
54 808 0 7 102 156 0
56 792 0 15 95 152 0
58 770 0 36 101 144 0
60 748 0 46 108 153 0
62 721 0 63 112 167 0
64 707 0 73 108 172 0
66 696 0 86 93 192 0
68 681 0 102 93 180 0
70 657 0 104 96 204 0
72 649 0 126 95 196 0
74 639 0 154 87 196 0
76 607 0 161 99 189 0
78 608 0 178 80 190 0
80 599 0 182 72 206 0
82 583 0 183 71 217 0
84 557 0 193 81 225 0
86 552 0 210 70 236 0
88 533 0 230 72 212 1
90 523 0 242 65 230 0
92 509 0 265 65 218 0
94 504 0 265 49 217 0
96 499 0 284 47 220 0
98 483 0 289 53 229 0
100 468 0 315 59 216 0
102 458 0 321 65 225 0
104 449 0 332 59 221 0
106 430 0 346 58 223 0
108 422 0 352 57 233 0
110 410 0 361 59 224 0
112 403 0 369 54 232 0
114 393 0 384 51 218 0
116 383 0 379 54 236 0
118 372 0 402 59 223 0
120 374 0 423 51 211 0
122 362 0 427 52 220 0
124 354 0 432 53 226 0
126 361 0 441 35 235 0
128 347 0 430 41 257 0
130 346 0 455 39 240 0
132 334 0 458 40 250 0
134 333 0 455 34 239 0
136 326 0 468 36 242 0
138 315 0 469 40 259 0
140 312 0 473 37 255 0
142 296 0 477 45 249 0
144 294 0 473 37 278 0
146 289 0 476 34 266 0
148 283 0 493 39 251 0
150 271 0 502 44 261 0
152 258 0 509 43 269 0
154 256 0 514 36 274 0
156 252 0 537 33 241 0
158 244 0 536 33 259 0
160 242 0 532 29 276 1
162 234 0 538 30 275 0
164 229 0 532 31 283 0
166 221 0 545 28 278 1
168 213 0 549 32 281 0
170 208 0 551 32 279 0
172 208 0 556 24 290 0
174 202 0 555 27 284 0
176 201 0 570 23 263 0
178 195 0 578 21 267 0
180 192 0 572 21 282 0
182 184 0 606 23 239 0
184 176 0 611 27 252 0
186 177 0 631 20 241 0
188 172 0 604 23 252 0
190 173 0 620 17 250 0
192 169 0 622 18 251 0
194 166 0 627 20 254 0
196 163 0 617 21 267 0
198 159 0 620 22 269 0
200 159 0 621 19 270 0
