0 957 0 0 0 0 0
2 897 9 0 22 0 18
4.00004 884 13 0 41 0 10
6 874 10 0 54 0 11
8 870 6 0 54 0 12
10 882 5 0 53 0 3
12 862 10 0 57 0 12
14 865 9 0 64 0 10
16 865 14 0 62 0 8
18 867 5 0 77 0 8
20 862 14 0 72 0 10
22 861 8 0 76 0 5
24 865 8 0 77 0 6
26 865 5 0 77 0 7
28 858 6 0 80 0 10
30 847 12 0 84 0 8
32 849 13 0 81 0 17
34 856 11 0 85 0 7
36 864 7 0 82 0 7
38 870 5 0 89 0 8
40 852 12 0 92 0 13
42 863 18 0 79 0 10
44 869 5 0 91 0 6
46 859 10 0 85 0 11
48 871 12 0 81 0 10
50 875 4 0 73 0 17
52 664 0 205 47 50 0
54 510 1 371 53 44 0
56 422 1 461 41 49 0
58 351 0 523 38 61 0
60 281 1 599 29 62 0
62 230 0 657 31 62 0
64 180 0 715 30 60 0
66 141 0 754 26 60 0
68 110 0 787 29 55 0
70 95 0 805 22 57 0
72 75 0 815 30 61 0
74 59 0 831 14 67 0
76 51 0 835 13 62 0
78 46 0 840 16 66 0
80 38 0 843 15 68 1
82 29 0 854 22 65 0
84 20 0 866 17 60 0
86 19 0 872 25 56 0
88 15 0 882 20 56 0
90 13 0 882 20 60 0
92 11 0 891 26 56 0
94 11 0 897 20 54 0
96 8 0 893 22 61 0
98 5 0 904 15 56 0
100 5 0 894 17 65 0
102 4 0 897 18 64 0
104 4 0 892 21 72 0
106 4 0 904 24 61 0
108 3 0 894 19 72 0
110 3 0 904 12 64 0
112 3 0 920 14 47 0
114 1 0 926 15 49 0
116 1 0 914 13 63 0
118 1 0 915 20 59 0
120 1 0 910 22 70 0
122 1 0 907 20 75 0
124 1 0 912 19 68 0
126 0 0 901 20 78 0
128 0 0 915 17 68 0
130 0 0 927 19 59 0
132 0 0 926 23 61 0
134 0 0 917 14 71 0
136 0 0 913 10 83 0
138 0 0 930 10 64 0
140 0 0 909 16 78 0
142 0 0 924 16 67 0
144 0 0 918 20 76 0
146 0 0 908 18 90 0
148 0 0 913 17 80 0
150 0 0 918 18 78 0
152 0 0 916 18 76 0
154 0 0 916 14 80 0
156 0 0 921 9 74 0
158 0 0 927 6 69 0
160 0 0 930 11 63 0
162 0 0 926 13 71 0
164 0 0 931 13 66 0
166 0 0 933 9 69 0
168 0 0 924 10 78 0
170 0 0 939 13 55 0
172 0 0 939 17 63 0
174 0 0 933 19 71 0
176 0 0 943 18 68 0
178 0 0 940 22 66 0
180 0 0 929 20 70 0
182 0 0 927 15 84 0
184 0 0 926 16 82 0
186 0 0 919 14 87 1
188 0 0 935 12 72 0
190 0 0 928 12 75 0
192 0 0 918 20 75 0
194 0 0 913 21 85 0
196 0 0 917 14 80 0
198 0 0 913 12 80 0
200 0 0 910 11 83 0
