0 1029 0 0 0 0 0
2 983 16 0 11 0 12
4.00004 976 22 0 23 0 6
6 968 15 0 28 0 9
8 972 14 0 31 0 6
10 968 17 0 32 0 3
12 965 16 0 38 0 9
14 960 14 0 44 0 5
16 962 10 0 43 0 9
18 958 10 0 53 0 5
20 950 17 0 52 0 7
22 963 14 0 39 0 6
24 963 13 0 39 0 6
26 967 8 0 46 0 6
28 956 10 0 50 0 7
30 950 16 0 45 0 4
32 952 13 0 48 0 4
34 957 12 0 48 0 2
36 957 14 0 45 0 5
38 950 11 0 49 0 6
40 945 11 0 57 0 5
42 946 14 0 55 0 5
44 955 10 0 51 0 5
46 940 16 0 56 0 6
48 944 14 0 52 0 9
50 935 7 0 62 0 9
52 729 0 214 40 31 0
54 617 0 328 41 34 0
56 510 0 437 28 36 1
58 427 1 518 22 40 0
60 344 1 596 26 42 0
62 295 0 641 25 52 0
64 250 0 684 18 56 0
66 205 0 719 22 63 0
68 167 0 768 23 50 0
70 134 0 800 19 47 0
72 110 0 820 19 54 0
74 91 0 839 17 57 0
76 75 0 872 15 45 0
78 54 0 893 16 42 0
80 45 0 893 18 51 0
82 39 0 899 17 55 0
84 31 0 910 15 50 0
86 26 0 914 15 52 0
88 21 0 929 16 47 0
90 18 0 939 12 38 0
92 15 0 944 10 40 0
94 13 0 936 12 53 0
96 9 0 943 13 54 0
98 9 0 950 15 46 0
100 5 0 939 17 56 0
102 5 0 939 19 57 0
104 4 0 938 17 62 0
106 4 0 941 16 64 0
108 3 0 944 14 58 0
110 3 0 939 16 63 0
112 3 0 947 12 56 0
114 2 0 950 14 52 0
116 1 0 955 17 51 0
118 1 0 947 19 57 0
120 1 0 959 17 44 0
122 1 0 953 15 53 0
124 0 0 969 11 41 0
126 0 0 966 9 47 0
128 0 0 965 12 46 0
130 0 0 958 10 56 0
132 0 0 957 7 56 0
134 0 0 959 8 50 0
136 0 0 959 11 46 0
138 0 0 954 11 48 0
140 0 0 953 13 47 0
142 0 0 947 15 56 0
144 0 0 946 15 59 0
146 0 0 951 16 52 0
148 0 0 952 19 53 0
150 0 0 942 11 57 0
152 0 0 941 13 58 0
154 0 0 945 18 52 0
156 0 0 953 17 41 0
158 0 0 950 19 40 0
160 0 0 946 14 49 0
162 0 0 948 9 52 0
164 0 0 954 8 47 0
166 0 0 952 8 47 0
168 0 0 954 6 43 0
170 0 0 948 10 43 0
172 0 0 941 11 53 0
174 0 0 940 12 52 0
176 0 0 952 11 40 1
178 0 0 955 16 37 0
180 0 0 951 16 44 0
182 0 0 954 17 38 1
184 0 0 950 14 46 0
186 0 0 954 12 41 0
188 0 0 939 11 56 0
190 0 0 934 10 60 0
192 0 0 936 13 61 0
194 0 0 940 12 50 0
196 0 0 941 11 56 0
198 0 0 946 12 51 0
200 0 0 939 13 61 0
