0 1112 0 0 0 0 0
2 1074 11 0 17 0 12
4.00004 1049 12 0 29 0 19
6 1040 11 0 42 0 21
8 1037 19 0 43 0 14
10 1039 16 0 55 0 8
12 1027 17 0 46 0 19
14 1021 14 0 57 0 14
16 1017 14 0 65 0 16
18 1027 10 0 54 0 11
20 1020 16 0 53 0 14
22 1017 13 0 56 0 8
24 1007 13 0 58 0 25
26 1013 15 0 59 0 18
28 1025 9 0 59 0 13
30 1024 6 0 64 0 12
32 1031 7 0 64 0 7
34 1014 13 0 67 0 16
36 1013 16 0 54 0 19
38 1020 7 0 65 0 12
40 1009 14 0 60 0 14
42 1022 4 0 60 0 10
44 1013 5 0 68 0 17
46 986 17 0 78 0 23
48 1010 9 0 74 0 14
50 1007 13 0 65 0 20
52 802 0 227 44 35 1
54 678 0 345 31 53 0
56 583 0 435 28 60 0
58 502 0 512 16 62 0
60 436 0 580 18 58 0
62 372 0 639 10 69 0
64 319 1 694 13 70 0
66 270 0 742 14 70 0
68 223 1 795 18 62 0
70 190 0 828 12 63 0
72 156 0 852 21 77 0
74 135 0 867 15 82 0
76 117 0 887 14 81 0
78 105 0 897 12 73 0
80 87 0 924 10 74 0
82 73 0 934 7 72 0
84 65 0 944 12 69 0
86 59 0 959 14 54 1
88 44 0 973 9 59 0
90 34 0 989 11 57 0
92 30 0 976 13 69 0
94 27 0 987 11 61 0
96 24 0 977 23 78 0
98 20 0 990 16 68 0
100 17 0 994 16 76 0
102 14 0 999 10 78 0
104 12 0 1004 14 69 0
106 9 0 1010 10 71 0
108 9 0 1000 6 76 0
110 9 0 1002 9 77 0
112 9 0 999 9 78 0
114 7 0 1011 8 70 0
116 5 0 1019 11 61 0
118 3 0 1020 11 64 0
120 3 0 1027 7 58 0
122 2 0 1024 8 64 0
124 2 0 1035 5 55 0
126 2 0 1029 7 57 0
128 2 0 1026 12 66 0
130 2 0 1023 11 65 0
132 1 0 1023 8 66 0
134 1 0 1022 12 69 0
136 1 0 1028 8 54 0
138 1 0 1026 10 60 0
140 1 0 1027 8 57 0
142 1 0 1016 5 69 0
144 1 0 1022 9 60 0
146 1 0 1019 6 66 0
148 0 0 1015 10 72 0
150 0 0 1014 8 61 0
152 0 0 1005 6 71 0
154 0 0 1017 9 66 0
156 0 0 1011 10 65 0
158 0 0 1010 7 63 0
160 0 0 1017 11 58 0
162 0 0 1010 5 75 0
164 0 0 1008 5 69 0
166 0 0 1007 11 60 0
168 0 0 1006 8 65 0
170 0 0 1002 6 74 0
172 0 0 1007 8 65 0
174 0 0 1005 6 69 0
176 0 0 1005 12 62 0
178 0 0 998 8 67 0
180 0 0 1007 5 58 0
182 0 0 998 8 66 0
184 0 0 1003 5 60 0
186 0 0 998 6 65 0
188 0 0 993 5 59 0
190 0 0 984 11 73 0
192 0 0 995 7 57 0
194 0 0 985 9 71 0
196 0 0 977 14 84 0
198 0 0 972 15 75 0
200 0 0 984 9 57 0
