0 779 0 0 0 0 0
2 756 0 0 29 0 0
4.00004 760 0 0 26 0 0
6 743 0 0 40 0 0
8 740 0 0 41 0 0
10 737 0 0 40 0 0
12 741 0 0 38 0 0
14 726 0 0 57 0 0
16 738 0 0 41 0 0
18 734 0 0 45 0 0
20 735 0 0 46 0 0
22 733 0 0 54 0 0
24 731 0 0 52 0 0
26 727 0 0 63 0 0
28 732 0 0 53 0 0
30 730 0 0 52 0 0
32 723 0 0 64 0 0
34 728 0 0 58 0 0
36 731 0 0 56 0 0
38 734 0 0 51 0 0
40 742 0 0 46 0 0
42 740 0 0 41 0 0
44 742 0 0 42 0 0
46 736 0 0 51 0 0
48 734 0 0 49 0 0
50 726 0 0 62 0 0
52 733 0 0 55 0 0
54 729 0 0 54 6 0
56 723 0 0 55 9 0
58 730 0 0 50 12 0
60 725 0 0 52 12 0
62 721 0 3 50 10 0
64 726 0 4 47 21 0
66 728 0 12 41 11 0
68 729 0 17 36 14 0
70 729 0 21 37 18 0
72 730 0 23 34 25 0
74 723 0 28 35 18 0
76 715 0 33 41 20 0
78 721 0 36 32 17 0
80 710 0 37 40 18 0
82 708 0 39 39 17 0
84 694 0 42 47 24 0
86 694 0 44 40 21 0
88 696 0 47 39 27 0
90 698 0 51 31 21 0
92 685 0 54 44 25 0
94 689 0 55 36 21 0
96 685 0 62 37 16 0
98 688 0 63 36 16 0
100 683 0 64 37 17 0
102 676 0 66 42 20 0
104 674 0 70 44 12 0
106 673 0 69 41 16 0
108 677 0 74 33 19 0
110 674 0 80 38 13 0
112 670 0 82 38 12 0
114 672 0 85 32 16 0
116 665 0 86 34 19 0
118 668 0 88 33 24 0
120 654 0 91 47 20 0
122 660 0 92 38 18 0
124 662 0 89 35 22 0
126 652 0 94 38 31 0
128 655 0 99 38 27 0
130 660 0 102 22 26 0
132 657 0 109 22 21 0
134 644 0 114 34 25 0
136 654 0 115 28 27 0
138 642 0 115 35 27 0
140 640 0 120 38 22 0
142 638 0 128 37 15 0
144 628 0 130 43 13 0
146 616 0 130 58 21 0
148 616 0 130 51 19 0
150 615 0 136 53 15 0
152 616 0 135 42 18 0
154 609 0 139 47 16 0
156 602 0 140 52 19 0
158 606 0 139 46 19 0
160 610 0 142 38 23 0
162 615 0 147 29 22 0
164 601 0 149 43 20 0
166 605 0 158 32 18 0
168 591 0 157 49 19 0
170 595 0 159 39 22 0
172 600 0 158 27 23 0
174 602 0 160 25 22 0
176 601 0 156 25 34 0
178 596 0 166 33 24 0
180 598 0 170 24 18 0
182 593 0 177 29 18 0
184 594 0 174 26 25 0
186 596 0 173 27 28 0
188 591 0 177 30 31 0
190 594 0 186 23 27 0
192 593 0 183 25 32 0
194 591 0 185 26 29 0
196 588 0 181 23 32 0
198 579 0 196 32 27 0
200 576 0 195 32 31 0
