0 882 0 0 0 0 0
2 846 0 0 33 0 0
4.00004 841 0 0 55 0 0
6 821 0 0 64 0 0
8 829 0 0 66 0 0
10 812 0 0 79 0 0
12 796 0 0 90 0 0
14 796 0 0 82 0 0
16 780 0 0 101 0 0
18 776 0 0 103 0 0
20 763 0 0 116 0 0
22 768 0 0 110 0 0
24 774 0 0 103 0 0
26 764 0 0 111 0 0
28 756 0 0 124 0 0
30 763 0 0 114 0 0
32 751 0 0 127 0 0
34 758 0 0 117 0 0
36 758 0 0 118 0 0
38 760 0 0 113 0 0
40 755 0 0 113 0 0
42 750 0 0 118 0 0
44 754 0 0 119 0 0
46 747 0 0 129 0 0
48 743 0 0 120 0 0
50 748 0 0 115 0 0
52 743 0 0 118 0 0
54 737 0 0 121 1 0
56 738 0 0 122 1 0
58 737 0 0 127 2 0
60 737 0 0 124 5 0
62 733 0 0 135 5 0
64 732 0 0 129 7 0
66 729 0 0 131 9 0
68 717 0 0 140 12 0
70 721 0 1 134 12 0
72 726 0 1 123 21 0
74 727 0 3 116 23 0
76 720 0 3 122 26 0
78 714 0 4 124 28 0
80 712 0 6 123 28 0
82 722 0 7 110 28 0
84 715 0 10 110 22 0
86 717 0 11 108 22 0
88 730 0 13 91 33 0
90 717 0 16 104 31 0
92 731 0 16 89 40 0
94 716 0 16 94 37 0
96 712 0 18 97 36 0
98 717 0 21 97 39 0
100 719 0 23 90 44 0
102 715 0 28 93 45 0
104 706 0 33 96 40 0
106 702 0 39 101 34 0
108 699 0 44 99 29 0
110 696 0 43 96 33 0
112 694 0 46 97 33 0
114 691 0 45 101 33 0
116 689 0 49 103 33 0
118 680 0 47 107 42 0
120 670 0 49 112 42 0
122 674 0 49 104 42 0
124 681 0 52 99 43 0
126 681 0 53 96 47 0
128 677 0 58 96 44 0
130 677 0 56 93 49 0
132 685 0 63 83 42 0
134 673 0 63 98 43 0
136 665 0 65 102 46 0
138 666 0 69 95 43 0
140 661 0 70 101 37 0
142 669 0 70 87 45 0
144 662 0 69 95 51 0
146 662 0 73 95 42 0
148 661 0 75 86 44 0
150 657 0 83 88 42 0
152 646 0 90 99 36 0
154 654 0 89 86 36 0
156 649 0 87 91 43 0
158 640 0 88 94 47 0
160 639 0 91 96 45 0
162 640 0 96 92 47 0
164 624 0 97 103 43 0
166 629 0 101 97 49 0
168 630 0 102 92 52 0
170 625 0 103 98 47 0
172 626 0 108 90 48 0
174 628 0 112 86 44 0
176 619 0 109 90 48 0
178 614 0 112 92 44 0
180 627 0 121 82 36 0
182 625 0 117 80 43 0
184 625 0 123 76 41 0
186 616 0 126 88 35 0
188 613 0 124 90 47 0
190 604 0 125 98 50 0
192 611 0 129 94 44 0
194 602 0 123 102 49 0
196 611 0 124 85 43 0
198 598 0 124 99 46 0
200 601 0 122 88 52 0
