0 948 0 0 0 0 0
2 915 25 0 20 0 2
4.00004 900 19 0 26 0 15
6 900 22 0 33 0 9
8 899 10 0 33 0 11
10 898 19 0 37 0 8
12 890 17 0 38 0 11
14 890 12 0 43 0 9
16 883 14 0 51 0 5
18 877 14 0 53 0 10
20 878 8 0 48 0 14
22 876 8 0 49 0 13
24 873 13 0 48 0 10
26 869 12 0 55 0 12
28 868 13 0 55 0 10
30 869 14 0 61 0 6
32 872 14 0 56 0 8
34 867 7 0 69 0 9
36 869 16 0 62 0 4
38 866 17 0 62 0 5
40 860 13 0 75 0 7
42 861 11 0 64 0 9
44 859 12 0 65 0 6
46 838 19 0 69 0 13
48 854 14 0 70 0 6
50 848 10 0 68 0 8
52 671 0 184 54 34 0
54 574 1 280 45 43 0
56 506 0 357 37 41 0
58 436 0 426 31 45 0
60 368 0 496 30 43 0
62 326 0 536 30 47 0
64 277 0 583 23 51 0
66 238 1 619 26 55 0
68 207 0 644 28 57 0
70 179 0 671 27 54 0
72 165 1 683 19 60 0
74 140 0 708 15 64 0
76 121 0 736 15 54 0
78 108 0 751 19 54 0
80 96 0 758 24 63 0
82 84 0 773 21 60 0
84 70 0 782 20 63 0
86 62 0 793 16 60 0
88 54 0 806 15 54 0
90 44 0 810 10 59 0
92 34 0 819 17 67 0
94 30 0 824 16 67 0
96 27 0 812 13 81 0
98 26 0 823 20 70 0
100 19 0 827 20 70 0
102 15 0 836 20 59 0
104 13 0 842 15 60 0
106 12 1 842 15 61 0
108 10 0 847 15 60 0
110 9 0 848 19 60 0
112 9 0 839 21 65 0
114 9 0 844 25 61 0
116 7 0 843 26 61 0
118 7 0 845 23 61 0
120 7 0 836 21 67 0
122 6 0 840 20 61 0
124 5 0 849 18 50 0
126 5 0 838 16 69 0
128 5 0 848 13 63 0
130 4 0 845 16 72 0
132 2 0 859 18 53 0
134 2 0 851 20 58 0
136 2 0 850 20 65 0
138 2 0 846 17 72 0
140 2 0 843 13 73 0
142 2 0 855 12 65 0
144 2 0 844 10 75 0
146 2 0 846 11 64 0
148 2 0 843 12 67 0
150 2 0 830 17 77 0
152 1 0 834 17 73 0
154 1 0 838 17 65 0
156 1 0 840 17 65 0
158 1 0 827 14 79 0
160 1 0 842 14 63 0
162 1 0 846 13 64 0
164 1 0 847 11 62 0
166 1 0 844 11 68 0
168 1 0 839 13 76 0
170 1 0 838 14 68 0
172 1 0 840 15 69 0
174 1 0 849 14 62 0
176 0 0 848 16 68 0
178 0 0 852 13 63 0
180 0 0 841 14 73 0
182 0 0 850 11 69 0
184 0 0 854 16 56 0
186 0 0 849 14 61 0
188 0 0 859 9 49 0
190 0 0 855 8 56 0
192 0 0 853 11 57 0
194 0 0 846 11 68 0
196 0 0 846 11 67 0
198 0 0 851 9 60 0
200 0 0 855 13 55 0
