0 1565 0 0 0 0 598
2 1432 7 0 39 0 606
4.00004 1369 11 0 26 0 593
6 1322 11 0 45 0 606
8 1304 7 0 37 0 618
10 1280 8 0 29 0 612
12 1261 7 0 37 0 611
14 1255 5 0 28 0 603
16 1212 8 0 37 0 590
18 1203 9 0 33 0 613
20 1196 10 0 35 0 583
22 1202 4 0 31 0 581
24 1199 9 0 43 0 601
26 1195 5 0 27 0 583
28 1159 9 0 35 0 595
30 1147 6 0 42 0 590
32 1134 7 0 41 0 616
34 1156 6 0 28 0 604
36 1158 3 0 37 0 576
38 1157 8 0 37 0 592
40 1152 10 0 38 0 604
42 1124 11 0 44 0 610
44 1121 10 0 33 0 586
46 1140 6 0 36 0 583
48 1144 8 0 21 0 602
50 1141 11 0 41 0 579
52 984 0 177 31 2 595
54 867 0 291 38 4 586
56 776 0 393 26 4 597
58 667 2 494 27 6 612
60 606 0 562 21 9 584
62 532 0 620 24 14 596
64 477 0 658 19 8 604
66 415 1 694 22 16 607
68 395 0 712 18 15 578
70 373 0 727 18 16 588
72 354 0 743 22 11 607
74 327 0 761 20 10 608
76 312 0 784 15 16 604
78 291 0 806 15 21 593
80 268 0 845 12 17 576
82 252 0 851 12 21 602
84 239 0 862 20 18 604
86 218 0 856 12 18 596
88 210 1 868 18 21 611
90 192 0 899 17 19 615
92 197 0 912 15 23 587
94 195 0 921 12 20 577
96 183 0 928 13 25 591
98 167 0 928 13 27 595
100 166 0 935 14 34 595
102 159 0 949 15 29 600
104 155 0 943 8 29 604
106 137 0 931 11 18 614
108 133 0 950 8 23 611
110 131 0 959 7 26 581
112 127 0 976 9 33 590
114 112 0 976 7 40 591
116 106 0 986 7 20 619
118 98 0 994 4 26 590
120 84 0 1011 6 26 613
122 80 0 1011 5 28 615
124 74 0 1016 6 35 600
126 76 0 1041 3 29 590
128 69 0 1031 6 26 610
130 76 0 1030 7 23 618
132 74 0 1044 4 29 596
134 62 1 1050 3 34 602
136 68 0 1053 3 33 625
138 66 0 1021 6 28 609
140 73 0 1015 2 39 607
142 73 0 1040 6 27 609
144 66 0 1041 2 24 597
146 63 0 1049 0 28 597
148 57 0 1057 2 39 580
150 57 0 1028 4 35 612
152 55 0 1040 6 29 600
154 52 0 1057 6 43 620
156 52 0 1058 3 46 574
158 50 0 1071 2 44 623
160 41 0 1058 3 40 606
162 48 0 1058 4 25 602
164 40 0 1040 4 37 593
166 37 0 1053 0 23 600
168 35 0 1071 3 29 606
170 38 0 1052 1 30 612
172 44 0 1073 2 46 619
174 37 0 1082 0 30 591
176 34 0 1075 3 27 617
178 38 0 1085 1 37 595
180 33 0 1111 1 35 571
182 33 0 1115 2 36 592
184 30 0 1105 2 35 600
186 22 0 1095 1 39 624
188 19 0 1104 2 28 570
190 21 0 1089 2 35 583
192 20 0 1091 1 32 616
194 19 0 1079 1 35 612
196 17 0 1087 5 25 606
198 20 0 1087 0 29 596
200 18 0 1108 3 31 600
