0 622 0 0 0 0 595
2 551 0 0 50 0 631
4.00004 542 0 0 45 0 602
6 513 0 0 47 0 617
8 487 0 0 40 0 610
10 460 0 0 35 0 577
12 447 0 0 40 0 606
14 435 0 0 38 0 602
16 420 0 0 49 0 597
18 416 0 0 40 0 613
20 397 0 0 42 0 609
22 370 0 0 39 0 589
24 364 0 0 32 0 612
26 364 0 0 30 0 574
28 352 0 0 38 0 608
30 339 0 0 41 0 600
32 345 0 0 31 0 573
34 334 0 0 35 0 598
36 330 0 0 33 0 579
38 337 0 0 20 0 576
40 327 0 0 23 0 586
42 320 0 0 33 0 589
44 324 0 0 30 0 599
46 319 0 0 28 0 593
48 303 0 0 26 0 605
50 294 0 0 33 0 611
52 289 0 2 32 0 606
54 293 0 2 33 2 586
56 296 0 8 27 2 587
58 286 0 12 25 4 595
60 268 0 28 25 3 611
62 250 0 34 23 5 596
64 247 0 40 22 6 602
66 239 0 49 21 7 609
68 222 0 67 23 8 585
70 206 0 87 29 3 613
72 200 0 89 17 14 594
74 192 0 103 14 18 602
76 175 0 123 14 13 601
78 169 0 132 13 18 577
80 150 0 139 23 14 610
82 146 0 140 14 24 591
84 146 0 155 5 17 611
86 136 0 167 9 11 601
88 124 0 171 11 24 593
90 119 0 178 6 13 593
92 112 0 192 6 17 615
94 102 0 191 10 21 587
96 93 0 203 8 25 593
98 90 0 204 6 32 604
100 89 0 211 4 25 603
102 80 0 223 6 22 584
104 78 0 222 2 25 620
106 70 0 226 4 31 610
108 64 0 235 5 20 592
110 60 0 236 3 14 622
112 53 0 241 5 20 615
114 51 0 237 4 32 599
116 45 0 247 7 21 579
118 44 0 237 2 29 604
120 43 0 254 2 20 608
122 39 0 257 2 26 639
124 33 0 243 5 33 595
126 31 0 259 1 18 610
128 30 0 247 3 29 598
130 30 0 254 3 33 607
132 31 0 265 1 28 593
134 27 0 275 1 23 602
136 25 0 263 2 28 628
138 22 0 274 2 23 613
140 18 0 265 2 21 566
142 20 0 259 1 19 616
144 19 0 255 1 24 600
146 17 0 252 0 30 589
148 15 0 258 1 24 603
150 14 0 256 1 31 594
152 14 0 268 1 24 587
154 15 0 260 1 24 617
156 12 0 255 2 23 605
158 11 0 251 2 28 628
160 12 0 256 1 26 585
162 11 0 254 1 15 610
164 11 0 251 1 25 620
166 10 0 255 0 19 598
168 10 0 259 0 25 603
170 7 0 266 2 29 606
172 8 0 279 1 26 605
174 8 0 278 0 22 603
176 9 0 272 0 30 592
178 8 0 272 0 24 604
180 5 0 271 2 28 596
182 7 0 279 0 34 591
184 7 0 284 0 27 603
186 7 0 273 0 32 605
188 6 0 285 0 29 597
190 5 0 287 0 28 595
192 3 0 305 2 28 595
194 4 0 295 1 40 615
196 4 0 312 1 17 608
198 4 0 312 0 22 591
200 4 0 305 0 21 591
