0 1577 0 0 0 0 582
2 1520 12 0 47 0 575
4.00004 1514 9 0 50 0 580
6 1508 9 0 48 0 616
8 1520 7 0 53 0 603
10 1507 16 0 44 0 604
12 1508 15 0 46 0 615
14 1507 10 0 55 0 617
16 1504 13 0 41 0 592
18 1518 8 0 54 0 611
20 1520 9 0 41 0 612
22 1511 8 0 48 0 579
24 1516 6 0 52 0 606
26 1521 11 0 44 0 594
28 1521 11 0 44 0 580
30 1527 9 0 47 0 590
32 1530 11 0 58 0 582
34 1538 7 0 51 0 613
36 1528 13 0 48 0 606
38 1530 7 0 47 0 614
40 1553 10 0 34 0 617
42 1535 11 0 54 0 613
44 1538 9 0 55 0 621
46 1547 6 0 48 0 590
48 1542 10 0 47 0 603
50 1552 9 0 46 0 577
52 1356 1 201 45 5 601
54 1211 0 345 40 8 594
56 1088 0 493 32 15 596
58 964 1 612 28 10 612
60 870 1 705 33 8 590
62 815 0 771 28 16 596
64 741 0 854 37 15 634
66 683 0 909 28 28 602
68 628 0 985 21 16 619
70 553 0 1044 18 23 613
72 490 1 1079 21 38 611
74 450 0 1103 17 43 607
76 421 0 1150 18 27 600
78 386 0 1175 17 43 605
80 358 0 1213 23 33 611
82 328 1 1257 10 22 580
84 296 0 1283 18 35 609
86 270 0 1296 17 24 590
88 246 0 1299 17 46 625
90 238 0 1326 12 37 610
92 225 0 1338 11 48 598
94 204 0 1374 13 39 589
96 192 0 1388 13 38 611
98 182 0 1393 2 37 609
100 160 0 1418 6 44 607
102 152 0 1424 11 44 620
104 148 0 1437 7 47 589
106 135 0 1443 7 44 585
108 126 0 1456 9 54 606
110 126 0 1452 4 59 620
112 122 0 1443 7 54 602
114 117 0 1447 6 44 595
116 116 0 1443 6 46 619
118 101 0 1443 6 62 609
120 94 0 1462 7 44 610
122 88 0 1467 6 48 601
124 82 0 1490 5 42 627
126 73 0 1511 2 44 582
128 67 0 1519 4 43 589
130 64 0 1523 2 34 588
132 58 0 1513 2 49 605
134 53 0 1526 0 42 606
136 36 0 1530 6 55 620
138 39 0 1538 2 48 589
140 32 0 1551 3 49 602
142 30 0 1563 2 43 605
144 29 0 1557 2 42 581
146 24 0 1555 2 44 598
148 31 0 1550 0 44 590
150 26 0 1544 3 48 616
152 24 0 1548 3 42 595
154 22 0 1553 3 43 597
156 20 0 1560 2 43 604
158 20 0 1546 0 48 602
160 20 0 1542 1 52 579
162 21 0 1537 1 47 590
164 22 0 1539 2 44 603
166 21 0 1529 0 52 604
168 16 0 1537 2 48 611
170 18 0 1554 0 43 609
172 14 0 1539 3 51 588
174 16 0 1546 0 53 613
176 16 0 1562 1 38 586
178 11 0 1548 1 41 612
180 10 0 1563 2 41 593
182 12 0 1542 0 54 603
184 11 0 1565 1 63 612
186 12 0 1590 1 42 595
188 12 0 1578 1 49 609
190 12 0 1570 0 51 592
192 13 0 1562 0 43 572
194 14 0 1564 0 46 598
196 11 0 1566 1 58 603
198 11 0 1560 0 54 619
200 12 0 1565 0 59 601
