0 756 0 0 0 0 636
2 698 0 0 43 0 594
4.00004 686 0 0 38 0 613
6 664 0 0 48 0 593
8 652 0 0 40 0 596
10 638 0 0 39 0 608
12 637 0 0 39 0 623
14 629 0 0 41 0 629
16 631 0 0 29 0 585
18 612 0 0 44 0 608
20 601 0 0 43 0 591
22 588 0 0 40 0 581
24 577 0 0 38 0 629
26 577 0 0 34 0 581
28 577 0 0 33 0 595
30 562 0 0 35 0 588
32 557 0 0 42 0 579
34 560 0 0 36 0 602
36 554 0 0 30 0 578
38 536 0 0 46 0 596
40 542 0 0 25 0 611
42 542 0 0 33 0 606
44 537 0 0 36 0 605
46 531 0 0 38 0 589
48 536 0 0 33 0 615
50 539 0 0 28 0 602
52 532 0 2 29 0 593
54 530 0 2 21 1 613
56 508 0 9 41 2 605
58 508 0 14 31 1 603
60 496 0 18 36 1 595
62 488 0 18 31 2 613
64 485 0 24 25 3 594
66 465 0 33 36 4 596
68 461 0 39 32 2 590
70 454 0 44 30 3 586
72 438 0 48 35 10 592
74 427 0 60 33 9 605
76 420 0 68 31 6 615
78 405 0 86 26 7 609
80 397 0 94 23 12 601
82 394 0 114 16 2 574
84 366 0 106 28 14 589
86 366 0 122 19 8 634
88 355 0 128 15 7 602
90 335 0 132 24 12 597
92 325 0 128 18 16 603
94 313 0 138 21 15 595
96 306 0 152 19 8 577
98 294 0 159 20 11 641
100 278 0 159 17 15 589
102 265 0 170 18 16 598
104 256 0 177 17 14 588
106 247 0 187 12 11 600
108 241 0 194 13 8 604
110 233 0 195 7 20 617
112 219 0 198 16 19 598
114 211 0 209 21 15 610
116 211 0 215 17 15 580
118 202 0 218 15 21 586
120 196 0 228 15 16 593
122 187 0 232 14 23 600
124 177 0 245 20 18 595
126 173 0 259 13 14 608
128 177 0 260 8 21 595
130 167 0 264 11 18 615
132 168 0 287 6 11 594
134 161 0 292 4 13 616
136 153 0 286 6 16 586
138 143 0 287 6 24 591
140 133 0 289 7 19 603
142 131 0 300 10 19 616
144 124 0 301 10 19 602
146 118 0 304 10 22 600
148 114 0 304 7 15 612
150 108 0 303 10 18 591
152 105 0 303 8 20 595
154 107 0 307 3 21 601
156 103 0 314 6 21 618
158 100 0 320 6 21 602
160 100 0 327 7 27 606
162 102 0 327 2 30 611
164 98 0 335 4 23 597
166 95 0 334 5 24 593
168 86 0 336 12 21 630
170 91 0 337 3 25 590
172 86 0 347 6 29 610
174 82 0 356 9 23 594
176 86 0 353 3 27 600
178 77 0 347 9 30 620
180 78 0 340 4 32 584
182 71 0 354 4 23 607
184 71 0 359 3 24 597
186 67 0 366 5 26 584
188 66 0 368 3 27 602
190 65 0 363 1 26 580
192 61 0 373 3 25 577
194 59 0 381 4 22 578
196 59 0 380 2 21 609
198 54 0 369 6 21 611
200 56 0 376 2 17 613
