0 304 0 0 0 0
2 304 0 0 4 0
4.00004 309 0 0 4 0
6 309 0 0 2 0
8 297 0 0 7 0
10 301 0 0 5 0
12 298 0 0 5 0
14 307 0 0 3 0
16 301 0 0 6 0
18 307 0 0 1 0
20 309 0 0 4 0
22 303 0 0 8 0
24 305 0 0 4 0
26 304 0 0 3 0
28 303 0 0 4 0
30 300 0 0 4 0
32 297 0 0 7 0
34 305 0 0 3 0
36 297 0 0 8 0
38 305 0 0 5 0
40 302 0 0 4 0
42 304 0 0 5 0
44 310 0 0 4 0
46 304 0 0 6 0
48 296 0 0 8 0
50 309 0 0 2 0
52 300 0 0 8 0
54 299 0 1 3 1
56 298 0 1 4 0
58 291 0 7 3 0
60 284 0 9 6 1
62 288 0 18 1 0
64 281 0 25 3 0
66 278 0 32 1 0
68 271 0 39 4 1
70 263 0 44 2 0
72 251 0 44 4 1
74 256 0 49 2 0
76 245 0 48 5 1
78 243 0 56 3 0
80 234 0 62 4 1
82 230 0 68 2 0
84 220 0 79 3 1
86 216 0 80 2 4
88 209 0 87 3 4
90 201 0 97 5 3
92 198 0 104 3 1
94 192 0 110 5 4
96 192 0 110 3 2
98 187 0 109 4 1
100 180 0 116 2 1
102 173 0 119 3 3
104 170 0 118 3 1
106 160 0 131 2 0
108 155 0 128 2 3
110 154 0 130 3 5
112 148 0 134 4 3
114 145 0 137 0 2
116 133 0 153 6 4
118 136 0 158 1 2
120 130 0 160 1 2
122 121 0 162 3 1
124 115 0 165 2 1
126 109 0 175 0 3
128 107 0 178 2 1
130 105 0 182 1 1
132 95 0 186 5 3
134 92 0 197 3 4
136 89 0 193 1 6
138 87 0 197 0 5
140 82 0 204 1 0
142 83 0 207 2 4
144 81 0 206 0 6
146 75 0 217 0 1
148 71 0 209 1 1
150 70 0 211 0 4
152 68 0 209 0 4
154 67 0 205 1 7
156 66 0 217 0 6
158 65 0 218 1 4
160 61 0 217 1 4
162 59 0 221 0 1
164 56 0 219 2 2
166 55 0 218 1 4
168 54 0 217 0 3
170 48 0 220 2 3
172 47 0 225 1 3
174 47 0 227 1 3
176 46 0 231 0 2
178 43 0 235 1 7
180 41 0 234 3 7
182 41 0 232 0 7
184 40 0 238 0 6
186 39 0 244 0 6
188 36 0 252 1 2
190 37 0 246 0 2
192 35 0 246 0 4
194 33 0 243 0 5
196 33 0 240 0 5
198 30 0 238 0 6
200 26 0 237 2 6
