0 1410 0 0 0 0
2 1380 9 0 12 0
4.00004 1390 5 0 9 0
6 1388 7 0 10 0
8 1396 7 0 6 0
10 1394 4 0 7 0
12 1380 9 0 10 0
14 1379 6 0 6 0
16 1374 6 0 7 0
18 1367 5 0 8 0
20 1364 2 0 7 0
22 1365 10 0 7 0
24 1353 6 0 9 0
26 1354 11 0 8 0
28 1356 8 0 5 0
30 1349 8 0 9 0
32 1355 4 0 8 0
34 1347 6 0 4 0
36 1347 9 0 7 0
38 1351 5 0 6 0
40 1349 8 0 8 0
42 1349 4 0 7 0
44 1332 9 0 6 0
46 1330 5 0 7 0
48 1324 7 0 9 0
50 1330 6 0 4 0
52 1193 1 145 5 0
54 1067 0 271 7 0
56 982 0 362 5 1
58 911 0 439 4 2
60 837 1 515 6 0
62 756 1 592 3 2
64 690 0 655 1 2
66 628 0 718 3 2
68 572 1 773 5 4
70 518 0 829 1 3
72 457 1 892 1 1
74 411 0 935 4 3
76 376 0 966 3 4
78 344 0 1003 1 2
80 306 0 1031 2 5
82 278 0 1068 3 2
84 256 0 1079 5 6
86 239 0 1103 1 4
88 237 0 1107 5 4
90 232 0 1117 1 1
92 213 0 1131 4 4
94 205 0 1148 3 6
96 192 0 1158 6 4
98 188 0 1163 0 4
100 175 0 1174 1 5
102 165 0 1168 1 7
104 154 0 1177 1 2
106 148 0 1182 0 6
108 143 0 1191 0 1
110 131 0 1191 2 10
112 124 0 1193 1 7
114 119 0 1200 2 5
116 114 0 1196 2 6
118 108 0 1196 2 5
120 103 0 1203 1 5
122 106 0 1185 2 2
124 99 0 1185 2 5
126 102 0 1195 1 3
128 96 0 1196 0 7
130 86 1 1198 0 5
132 89 0 1191 0 6
134 83 0 1196 1 5
136 83 0 1200 0 3
138 83 0 1197 0 9
140 86 0 1208 3 3
142 78 0 1225 4 5
144 75 0 1235 1 5
146 71 0 1233 1 5
148 72 0 1229 1 5
150 71 0 1229 1 2
152 68 0 1234 3 4
154 69 0 1233 0 6
156 63 0 1230 1 7
158 61 0 1226 0 5
160 56 0 1235 1 2
162 56 0 1240 0 5
164 56 0 1253 2 6
166 54 0 1255 0 6
168 56 0 1252 0 4
170 55 0 1251 0 3
172 53 0 1258 0 6
174 61 0 1268 0 0
176 55 0 1259 0 7
178 51 0 1264 1 5
180 53 1 1250 0 5
182 53 0 1255 2 2
184 53 0 1246 1 8
186 49 0 1252 1 2
188 50 0 1247 1 7
190 46 0 1255 0 6
192 43 0 1254 2 8
194 43 0 1255 1 7
196 38 0 1269 0 4
198 37 0 1265 1 7
200 41 0 1260 0 5
