0 582 0 0 0 0
2 580 0 0 2 0
4.00004 582 0 0 2 0
6 579 0 0 4 0
8 584 0 0 5 0
10 592 0 0 4 0
12 591 0 0 5 0
14 592 0 0 2 0
16 590 0 0 7 0
18 590 0 0 13 0
20 602 0 0 7 0
22 601 0 0 3 0
24 605 0 0 7 0
26 611 0 0 5 0
28 605 0 0 4 0
30 612 0 0 5 0
32 612 0 0 9 0
34 612 0 0 10 0
36 612 0 0 7 0
38 618 0 0 5 0
40 617 0 0 3 0
42 606 0 0 4 0
44 605 0 0 3 0
46 602 0 0 3 0
48 598 0 0 6 0
50 603 0 0 4 0
52 598 0 1 5 0
54 598 0 3 8 0
56 596 0 8 1 0
58 590 0 11 5 1
60 576 0 14 9 2
62 579 0 24 4 2
64 571 0 31 3 0
66 564 0 34 6 2
68 554 0 43 4 4
70 539 0 50 8 1
72 538 0 55 2 1
74 529 0 65 3 0
76 527 0 72 3 1
78 522 0 82 2 1
80 507 0 93 3 1
82 503 0 97 1 3
84 499 0 106 1 5
86 485 0 119 4 2
88 483 0 126 4 2
90 472 0 126 5 3
92 457 0 134 3 0
94 451 0 145 1 0
96 441 0 152 3 5
98 433 0 163 3 2
100 430 0 169 2 2
102 423 0 173 2 3
104 415 0 173 3 1
106 407 0 171 4 5
108 403 0 178 6 0
110 403 0 181 1 1
112 395 0 187 4 2
114 391 0 203 2 2
116 384 0 213 2 3
118 375 0 222 5 5
120 371 0 227 2 0
122 365 0 229 0 4
124 354 0 235 3 5
126 351 0 243 1 6
128 344 0 245 2 2
130 342 0 246 1 3
132 333 0 246 0 8
134 330 0 250 1 3
136 326 0 255 2 2
138 320 0 260 2 3
140 317 0 272 5 1
142 316 0 279 0 1
144 307 0 289 2 5
146 296 0 298 5 1
148 297 0 292 0 6
150 290 0 296 1 6
152 285 0 308 0 1
154 278 0 313 1 1
156 272 0 320 1 1
158 267 0 326 2 4
160 261 0 334 4 2
162 255 0 336 1 5
164 246 0 346 4 4
166 245 0 354 2 4
168 239 0 358 0 4
170 236 0 355 0 6
172 232 0 366 1 6
174 227 0 370 4 7
176 222 0 376 3 5
178 216 0 376 4 4
180 210 0 377 2 3
182 205 0 381 1 2
184 200 0 385 0 2
186 197 0 382 2 1
188 193 0 383 2 1
190 194 0 381 0 4
192 187 0 381 4 4
194 185 0 381 1 4
196 183 0 383 1 8
198 179 0 385 0 5
200 175 0 390 2 4
