0 88 0 0 0
2 82 0 5 0
4.00004 84 0 2 0
6 82 0 5 0
8 82 0 5 0
10 79 0 7 0
12 81 0 5 0
14 81 0 4 0
16 84 0 0 0
18 81 0 4 0
20 82 0 2 0
22 81 0 3 0
24 79 0 4 0
26 78 0 5 0
28 79 0 5 0
30 81 0 2 0
32 77 0 6 0
34 78 0 5 0
36 80 0 3 0
38 79 0 7 0
40 80 0 6 0
42 79 0 7 0
44 78 0 8 0
46 80 0 5 0
48 78 0 9 0
50 80 0 5 0
52 64 13 8 0
54 57 21 8 0
56 52 27 4 0
58 50 30 4 0
60 43 37 2 1
62 34 46 4 0
64 31 50 3 0
66 28 51 4 2
68 24 55 3 2
70 18 60 2 3
72 17 62 2 2
74 17 62 1 2
76 17 62 2 2
78 16 63 2 2
80 14 63 2 4
82 12 65 2 5
84 12 68 0 3
86 9 71 1 3
88 8 72 2 3
90 7 74 2 2
92 5 76 2 2
94 5 76 3 2
96 6 76 3 2
98 6 77 2 2
100 6 77 2 1
102 6 76 2 2
104 5 76 2 3
106 5 75 2 3
108 3 74 3 5
110 4 73 2 5
112 3 75 2 4
114 3 74 1 4
116 1 75 0 5
118 1 75 0 6
120 1 77 0 5
122 0 74 0 6
124 0 74 1 8
126 0 74 1 7
128 0 72 1 6
130 0 73 1 6
132 0 74 1 6
134 0 76 2 3
136 0 74 1 5
138 0 74 1 5
140 0 74 2 5
142 0 71 2 7
144 0 73 2 4
146 0 72 2 3
148 0 72 2 4
150 0 74 3 2
152 1 74 1 2
154 1 74 0 2
156 0 73 1 4
158 0 71 1 5
160 0 72 1 3
162 0 72 1 4
164 0 71 1 5
166 0 73 1 2
168 0 74 1 2
170 0 73 1 3
172 0 72 1 4
174 0 70 1 5
176 0 69 1 7
178 0 72 1 3
180 0 71 1 5
182 0 72 1 4
184 0 73 1 2
186 1 73 0 3
188 1 71 0 5
190 1 71 0 4
192 1 71 0 4
194 1 73 0 2
196 1 73 0 2
198 1 70 0 4
200 1 68 1 5
202 0 67 1 7
204 1 71 0 4
206 1 69 0 6
208 1 69 1 6
210 0 70 3 5
212 1 69 1 6
214 0 71 3 5
216 0 69 1 8
218 1 67 1 10
220 1 71 2 4
222 1 69 2 6
224 1 71 2 4
226 1 72 2 3
228 1 70 2 5
230 1 70 1 6
232 1 71 1 4
234 1 71 1 3
236 1 72 2 3
238 0 72 3 5
240 0 73 3 4
242 0 73 2 4
244 0 74 2 2
246 0 73 1 4
248 0 72 1 5
250 0 71 0 5
252 0 72 0 5
254 0 68 1 10
256 0 72 0 6
258 0 73 1 3
260 0 71 1 5
262 0 71 2 7
264 0 73 1 4
266 0 74 2 3
268 0 73 3 4
270 0 74 3 3
272 0 74 3 4
274 0 73 3 6
276 0 72 4 7
278 0 75 5 4
280 0 74 3 4
282 0 75 4 2
284 2 76 2 3
286 1 76 2 4
288 1 76 3 4
290 1 74 3 6
292 1 74 5 6
294 1 76 4 3
296 1 77 2 2
298 1 77 2 2
300 1 77 1 1
302 1 77 1 1
304 1 74 0 4
306 1 76 2 2
308 1 75 3 3
310 1 75 3 3
312 2 75 3 3
314 2 73 3 5
316 3 72 2 6
318 3 73 2 4
320 2 75 1 3
322 1 76 0 3
324 0 78 0 2
326 0 76 0 4
328 0 74 0 5
330 0 74 1 6
332 0 77 1 2
334 0 77 1 3
336 0 74 1 6
338 0 74 2 6
340 0 78 3 1
342 0 77 4 3
344 0 78 2 1
346 0 75 0 5
348 0 75 2 6
350 0 76 2 5
