0 59 0 0 0
2 59 0 1 0
4.00004 55 0 5 0
6 55 0 6 0
8 57 0 3 0
10 57 0 1 0
12 57 0 1 0
14 56 0 3 0
16 55 0 4 0
18 57 0 2 0
20 56 0 4 0
22 55 0 5 0
24 55 0 4 0
26 56 0 3 0
28 56 0 4 0
30 52 0 5 0
32 54 0 3 0
34 52 0 4 0
36 53 0 2 0
38 53 0 3 0
40 56 0 1 0
42 55 0 2 0
44 54 0 3 0
46 54 0 4 0
48 54 0 2 0
50 52 0 6 0
52 52 0 7 0
54 55 0 3 0
56 54 0 4 0
58 52 0 5 0
60 49 0 8 0
62 53 0 4 0
64 50 0 5 0
66 51 0 6 0
68 51 0 5 1
70 51 0 4 0
72 50 0 6 1
74 49 0 4 0
76 49 0 4 0
78 48 0 7 0
80 45 0 8 1
82 50 0 4 1
84 48 0 7 1
86 49 0 4 2
88 49 0 3 2
90 51 0 0 3
92 50 0 2 2
94 50 0 4 2
96 51 1 3 3
98 52 1 1 3
100 52 1 2 3
102 51 1 3 2
104 50 3 3 2
106 48 3 5 2
108 47 3 6 1
110 50 4 2 1
112 49 4 4 1
114 49 5 5 1
116 49 5 4 1
118 51 6 4 1
120 51 6 4 1
122 51 6 3 0
124 53 6 2 2
126 52 5 3 5
128 51 5 2 4
130 51 6 3 4
132 50 6 4 5
134 48 8 5 4
136 47 9 7 3
138 46 9 8 2
140 48 9 5 1
142 51 10 3 0
144 48 10 6 0
146 50 10 3 0
148 49 10 3 0
150 49 10 1 2
152 48 11 2 1
154 50 10 0 3
156 50 10 1 3
158 49 12 2 2
160 50 12 1 1
162 48 13 3 1
164 47 13 3 2
166 48 13 2 2
168 48 13 1 3
170 47 13 3 4
172 47 14 3 2
174 46 13 3 3
176 45 13 5 3
178 42 13 5 3
180 45 15 2 0
182 43 14 3 3
184 44 13 2 3
186 43 13 3 3
188 45 15 1 1
190 43 15 2 3
192 44 14 1 2
194 44 14 1 3
196 44 14 1 5
198 45 14 0 3
200 43 14 3 2
202 43 14 2 2
204 43 14 3 3
206 43 13 3 3
208 42 14 4 2
210 41 14 3 2
212 41 14 2 2
214 40 13 3 4
216 39 14 5 4
218 40 14 3 2
220 39 13 5 5
222 37 14 4 3
224 37 12 2 4
226 34 12 6 4
228 34 13 4 1
230 37 13 2 1
232 36 13 3 1
234 36 12 1 4
236 36 13 1 4
238 36 14 1 2
240 36 14 1 3
242 36 15 1 3
244 33 13 4 4
246 33 15 2 4
248 34 15 0 3
250 34 15 0 2
252 34 15 1 1
254 34 16 2 2
256 34 15 1 4
258 30 17 5 1
260 31 16 1 6
262 32 17 2 4
264 33 17 1 6
266 33 17 0 5
268 33 17 0 4
270 33 18 1 2
272 33 18 1 3
274 32 18 1 4
276 31 18 1 4
278 31 18 1 4
280 30 16 3 3
282 28 18 4 3
284 27 17 5 3
286 26 17 5 0
288 26 17 5 2
290 25 18 6 1
292 27 18 5 1
294 27 19 4 2
296 25 18 3 3
298 24 18 6 4
300 23 19 6 3
302 23 18 7 6
304 24 18 6 6
306 24 19 5 3
308 26 17 1 7
310 24 19 3 3
312 24 17 3 6
314 25 18 3 9
316 25 17 3 10
318 25 20 2 6
320 26 20 2 7
322 27 24 1 3
324 26 24 1 4
326 24 25 3 4
328 25 26 2 2
330 25 26 1 3
332 25 25 0 3
334 25 25 0 3
336 25 24 0 5
338 25 24 0 5
340 24 25 2 4
342 23 25 3 4
344 24 26 2 2
346 24 26 2 3
348 23 27 3 2
350 24 27 2 4
