0 61 0 0 0
2 57 0 4 0
4.00004 57 0 7 0
6 58 0 8 0
8 61 0 6 0
10 59 0 8 0
12 60 0 5 0
14 59 0 7 0
16 60 0 5 0
18 57 0 8 0
20 56 0 8 0
22 57 0 6 0
24 56 0 8 0
26 57 0 9 0
28 56 0 10 0
30 54 0 9 0
32 58 0 5 0
34 58 0 6 0
36 59 0 5 0
38 59 0 5 0
40 59 0 7 0
42 58 0 8 0
44 58 0 7 0
46 59 0 6 0
48 55 0 9 0
50 53 0 10 0
52 51 0 10 0
54 52 0 9 0
56 54 0 5 0
58 51 0 10 0
60 54 0 8 0
62 53 0 9 0
64 54 0 9 0
66 54 0 7 0
68 53 0 8 0
70 49 0 11 0
72 48 0 11 0
74 48 0 12 1
76 50 0 9 1
78 47 0 11 1
80 46 0 12 0
82 47 0 11 1
84 49 0 10 1
86 51 0 6 2
88 49 0 9 0
90 49 0 11 1
92 47 0 13 1
94 46 0 15 1
96 48 0 13 1
98 49 0 9 1
100 51 1 6 0
102 51 0 9 2
104 51 0 6 2
106 51 0 7 2
108 52 0 4 2
110 52 1 6 0
112 52 1 6 1
114 50 1 10 0
116 54 1 6 1
118 52 1 7 1
120 50 1 9 2
122 51 1 7 1
124 50 1 6 3
126 50 1 7 2
128 47 1 12 3
130 47 1 13 3
132 47 1 10 4
134 50 1 8 4
136 49 1 8 2
138 45 1 10 3
140 48 1 7 4
142 49 1 7 5
144 48 1 7 6
146 49 1 7 4
148 49 1 6 6
150 49 1 7 6
152 48 2 5 4
154 47 2 9 3
156 47 2 9 4
158 48 2 6 3
160 47 2 7 3
162 48 2 8 3
164 50 2 6 4
166 52 2 3 4
168 49 2 6 4
170 52 2 3 3
172 52 2 3 3
174 50 3 6 3
176 51 3 5 4
178 52 3 4 3
180 53 3 3 2
182 53 3 2 2
184 52 3 3 3
186 51 3 4 3
188 49 3 6 2
190 52 3 3 1
192 52 3 3 3
194 51 3 5 2
196 52 3 3 3
198 50 2 5 4
200 52 2 3 7
202 47 2 7 4
204 52 2 2 3
206 50 2 4 2
208 48 2 6 2
210 48 3 6 3
212 49 3 6 3
214 47 2 6 5
216 46 4 7 1
218 44 4 8 2
220 47 4 6 2
222 45 4 8 3
224 45 4 8 4
226 48 4 4 4
228 48 5 5 3
230 45 5 8 3
232 43 4 9 6
234 41 4 12 5
236 40 4 13 5
238 42 5 10 4
240 44 5 7 4
242 42 6 10 2
244 43 6 9 3
246 41 7 11 2
248 41 6 9 4
250 40 7 11 3
252 39 8 10 5
254 40 8 10 5
256 35 7 15 6
258 40 8 10 2
260 40 8 10 2
262 42 8 7 3
264 39 7 11 4
266 40 8 10 3
268 40 7 8 3
270 37 8 10 3
272 40 8 8 2
274 40 8 8 3
276 40 7 7 3
278 40 6 7 2
280 40 7 5 1
282 41 8 5 0
284 40 8 6 1
286 38 8 7 4
288 36 8 9 3
290 40 8 5 3
292 41 9 4 3
294 39 9 7 3
296 37 9 8 3
298 39 9 6 3
300 41 8 3 5
302 37 8 7 5
304 39 8 5 5
306 38 7 7 5
308 37 8 8 3
310 38 9 7 3
312 37 9 7 3
314 37 9 8 3
316 35 11 10 1
318 35 11 9 2
320 34 11 8 1
322 33 10 10 1
324 34 11 10 1
326 32 10 12 2
328 36 11 6 1
330 35 11 9 1
332 37 11 8 1
334 38 11 7 1
336 36 12 9 0
338 35 12 9 0
340 35 12 9 0
342 36 12 8 0
344 37 12 8 0
346 38 12 7 0
348 39 11 5 1
350 38 12 6 0
