0 73 0 0 0
2 73 0 2 0
4.00004 74 0 1 0
6 71 0 3 0
8 73 0 3 0
10 75 0 0 0
12 71 0 2 0
14 74 0 1 0
16 74 0 0 0
18 74 0 0 0
20 74 0 1 0
22 75 0 0 0
24 74 0 1 0
26 74 0 2 0
28 73 0 2 0
30 70 0 5 0
32 72 0 1 0
34 71 0 2 0
36 72 0 1 0
38 75 0 0 0
40 71 0 4 0
42 75 0 0 0
44 76 0 0 0
46 74 0 2 0
48 74 0 2 0
50 71 0 5 0
52 74 0 1 0
54 74 0 1 0
56 76 0 1 0
58 75 0 1 0
60 71 0 4 0
62 73 0 2 0
64 76 0 1 0
66 73 0 3 0
68 72 0 3 0
70 74 0 3 0
72 77 0 1 0
74 74 0 3 0
76 75 0 0 0
78 73 0 1 0
80 73 0 2 0
82 74 0 0 0
84 73 0 0 0
86 73 0 1 0
88 71 0 1 0
90 70 0 2 0
92 71 0 3 0
94 71 0 2 0
96 72 1 1 0
98 69 0 3 0
100 72 0 0 0
102 72 0 2 0
104 72 0 1 0
106 72 0 0 0
108 71 0 2 0
110 72 0 2 0
112 73 0 1 0
114 74 0 0 0
116 70 0 2 0
118 71 0 1 0
120 72 0 1 0
122 70 0 2 0
124 72 0 0 0
126 72 0 0 0
128 72 0 0 0
130 72 0 1 0
132 72 0 1 0
134 72 0 0 0
136 71 1 1 0
138 71 0 1 0
140 69 2 2 0
142 70 1 1 1
144 71 1 0 0
146 71 2 0 0
148 71 1 0 0
150 71 1 0 0
152 70 0 1 2
154 71 2 0 0
156 69 1 2 1
158 70 1 1 0
160 71 1 0 0
162 71 0 0 1
164 71 0 0 1
166 71 1 0 0
168 70 1 1 0
170 71 1 0 0
172 70 1 1 1
174 69 2 1 0
176 69 1 1 0
178 70 1 0 0
180 70 1 0 0
182 70 0 0 1
184 69 1 1 0
186 69 1 1 0
188 69 1 1 0
190 70 1 0 0
192 68 1 2 0
194 70 1 0 0
196 69 1 1 0
198 66 1 4 0
200 70 1 0 0
202 68 1 2 0
204 69 0 1 1
206 70 1 0 0
208 70 1 0 0
210 70 1 0 0
212 69 1 1 0
214 69 0 1 0
216 70 1 0 0
218 69 1 1 0
220 67 1 2 0
222 70 1 0 0
224 69 1 1 1
226 69 2 1 0
228 69 1 1 1
230 68 3 2 0
232 68 2 2 0
234 69 3 1 1
236 70 5 0 0
238 70 3 0 1
240 70 3 0 0
242 70 2 0 2
244 70 3 0 0
246 70 3 0 0
248 70 3 0 1
250 69 4 1 0
252 70 4 0 0
254 69 3 1 0
256 70 4 0 0
258 70 4 0 0
260 69 4 1 0
262 67 3 3 0
264 68 3 1 1
266 68 4 1 0
268 68 3 2 1
270 67 4 2 0
272 68 4 1 0
274 69 3 1 1
276 68 3 1 0
278 69 4 0 0
280 69 4 1 0
282 68 4 1 0
284 67 3 1 1
286 67 4 2 0
288 69 4 0 0
290 69 4 0 0
292 68 4 1 0
294 69 5 0 0
296 70 4 0 0
298 69 4 1 0
300 70 4 0 0
302 68 4 0 0
304 69 4 0 0
306 69 4 0 0
308 68 4 1 0
310 67 4 2 0
312 68 4 1 0
314 67 4 2 0
316 67 4 2 0
318 69 4 0 1
320 68 4 1 1
322 66 5 2 0
324 68 4 0 1
326 68 5 0 0
328 67 5 1 0
330 68 5 0 0
332 68 5 0 0
334 67 5 1 0
336 68 5 0 0
338 67 5 1 0
340 67 5 1 0
342 67 5 0 0
344 65 5 2 0
346 65 4 1 1
348 66 5 0 0
350 64 5 1 0
