0 87 0 0 0
2 87 0 1 0
4.00004 84 0 4 0
6 87 0 1 0
8 85 0 3 0
10 87 0 1 0
12 88 0 0 0
14 85 0 3 0
16 87 0 2 0
18 84 0 3 0
20 85 0 2 0
22 83 0 4 0
24 89 0 0 0
26 89 0 1 0
28 89 0 1 0
30 88 0 2 0
32 88 0 1 0
34 86 0 3 0
36 87 0 2 0
38 88 0 0 0
40 90 0 0 0
42 88 0 2 0
44 89 0 1 0
46 92 0 0 0
48 89 0 3 0
50 91 0 0 0
52 78 11 2 0
54 72 19 0 0
56 61 30 0 0
58 45 42 3 0
60 39 52 0 0
62 34 58 0 0
64 25 65 1 1
66 22 70 0 0
68 16 75 0 0
70 14 77 0 0
72 13 78 0 0
74 10 81 0 0
76 6 82 1 2
78 7 84 1 0
80 8 84 0 0
82 6 84 0 1
84 6 85 0 1
86 4 85 1 2
88 4 88 0 0
90 3 87 0 1
92 2 88 1 0
94 3 87 0 1
96 3 87 0 1
98 2 88 1 0
100 3 85 0 3
102 4 86 0 2
104 3 87 1 0
106 2 89 0 0
108 2 89 0 0
110 2 89 0 0
112 2 89 0 0
114 2 89 0 0
116 2 90 0 0
118 2 89 0 0
120 1 89 0 0
122 1 88 0 0
124 1 88 1 0
126 1 87 2 0
128 3 87 0 0
130 3 87 0 0
132 2 87 0 1
134 2 88 0 1
136 2 87 1 1
138 3 87 0 1
140 3 86 0 2
142 3 88 0 0
144 3 89 0 0
146 3 89 0 0
148 3 88 0 1
150 3 84 0 5
152 4 89 0 0
154 4 89 0 0
156 4 88 0 1
158 3 87 1 2
160 3 88 1 1
162 3 87 1 1
164 2 90 1 0
166 2 90 0 0
168 2 87 0 3
170 2 88 0 1
172 2 88 0 1
174 2 89 0 0
176 2 89 0 0
178 2 89 0 0
180 2 90 1 0
182 2 90 0 1
184 2 91 0 0
186 2 89 0 1
188 2 88 0 3
190 2 87 0 3
192 2 90 1 1
194 4 88 0 2
196 3 88 1 2
198 2 89 2 1
200 4 88 1 2
202 4 89 0 1
204 3 90 0 0
206 2 87 2 2
208 3 89 1 0
210 4 87 0 3
212 3 88 0 3
214 1 88 2 3
216 2 88 1 2
218 3 90 0 0
220 2 90 0 0
222 2 88 0 3
224 2 89 1 1
226 3 89 0 1
228 2 88 0 2
230 1 89 1 0
232 1 89 0 1
234 2 86 0 3
236 2 89 0 0
238 2 85 0 3
240 2 85 0 3
242 2 87 0 2
244 3 86 0 3
246 3 85 0 5
248 3 86 0 4
250 1 90 0 2
252 1 90 0 1
254 2 89 0 2
256 2 89 0 2
258 1 89 1 2
260 1 91 1 0
262 1 89 1 2
264 1 91 1 0
266 1 90 0 2
268 1 91 0 0
270 0 89 1 2
272 1 90 0 1
274 1 90 0 0
276 1 89 0 0
278 1 89 0 1
280 0 90 0 0
282 0 88 0 2
284 0 90 1 0
286 0 90 1 0
288 1 88 0 2
290 1 89 0 0
292 1 89 0 0
294 1 89 0 1
296 1 90 0 0
298 1 90 0 0
300 1 90 0 1
302 1 89 0 2
304 1 88 0 2
306 1 89 0 1
308 1 88 1 2
310 1 90 1 0
312 1 89 1 1
314 2 89 0 1
316 1 90 0 1
318 3 90 0 1
320 3 90 0 1
322 4 90 0 1
324 2 91 2 0
326 2 90 1 1
328 2 88 1 2
330 3 89 0 0
332 2 89 1 0
334 3 87 0 2
336 3 88 0 1
338 2 89 0 0
340 3 89 0 0
342 4 88 0 1
344 3 89 0 0
346 4 89 0 0
348 2 87 2 2
350 4 89 0 1
