0 73 0 0 0
2 73 0 0 0
4.00004 72 0 1 0
6 72 0 1 0
8 72 0 1 0
10 72 0 2 0
12 73 0 2 0
14 74 0 0 0
16 74 0 0 0
18 73 0 2 0
20 73 0 2 0
22 75 0 0 0
24 73 0 2 0
26 74 0 1 0
28 74 0 1 0
30 74 0 1 0
32 73 0 2 0
34 72 0 1 0
36 73 0 0 0
38 73 0 0 0
40 71 0 1 0
42 70 0 3 0
44 73 0 0 0
46 72 0 2 0
48 71 0 2 0
50 71 0 3 0
52 72 0 1 0
54 72 0 2 0
56 74 0 1 0
58 75 0 1 0
60 75 0 2 0
62 76 0 1 0
64 72 0 4 0
66 74 0 2 0
68 74 0 1 0
70 72 0 1 0
72 74 0 1 0
74 72 0 4 0
76 72 0 2 0
78 71 0 3 0
80 73 0 3 0
82 74 0 2 0
84 75 0 1 1
86 74 1 2 0
88 73 1 2 0
90 73 1 2 0
92 74 1 0 0
94 74 0 0 0
96 72 0 2 0
98 72 0 2 0
100 73 0 1 0
102 74 1 1 0
104 73 1 0 0
106 73 1 0 0
108 72 2 1 0
110 72 2 1 0
112 72 1 1 1
114 72 2 0 0
116 71 2 2 0
118 73 2 0 0
120 73 2 0 0
122 74 2 0 0
124 74 2 0 1
126 72 2 2 1
128 73 3 1 0
130 71 3 1 0
132 71 2 1 1
134 71 3 1 0
136 71 3 1 0
138 70 4 1 0
140 70 3 1 1
142 71 3 0 1
144 71 2 1 0
146 71 1 1 0
148 69 2 3 0
150 72 2 0 0
152 71 3 1 1
154 71 3 1 0
156 70 3 1 1
158 71 4 0 0
160 70 2 1 2
162 69 4 2 0
164 69 3 2 1
166 69 4 2 0
168 72 4 0 0
170 72 3 0 1
172 71 4 1 0
174 72 5 0 0
176 72 4 0 1
178 73 5 0 0
180 73 6 0 0
182 72 6 1 0
184 72 5 1 1
186 73 6 0 0
188 72 6 1 0
190 71 5 1 1
192 69 6 3 0
194 72 5 0 0
196 68 5 4 1
198 73 6 0 0
200 73 6 0 0
202 70 5 2 0
204 74 5 0 1
206 73 5 1 2
208 74 6 0 2
210 71 7 2 0
212 71 6 2 1
214 73 6 0 1
216 72 6 1 1
218 72 7 1 0
220 72 7 0 0
222 68 7 4 0
224 70 6 1 1
226 67 6 5 1
228 70 7 1 0
230 70 7 2 0
232 71 7 1 0
234 70 7 2 1
236 69 7 1 0
238 70 7 0 0
240 68 7 2 0
242 70 7 0 0
244 70 7 0 0
246 68 7 2 0
248 69 7 1 0
250 69 7 1 0
252 70 7 0 0
254 69 7 0 0
256 68 7 1 0
258 69 7 0 0
260 69 7 1 0
262 69 7 0 0
264 69 7 1 0
266 70 7 0 0
268 69 8 0 0
270 70 7 0 0
272 69 7 1 0
274 69 7 1 0
276 67 7 3 0
278 70 6 0 2
280 70 7 0 1
282 70 8 0 1
284 69 10 1 0
286 70 10 0 0
288 69 9 1 1
290 68 9 2 1
292 70 10 0 0
294 68 9 2 1
296 69 10 0 0
298 69 10 0 0
300 70 9 0 1
302 68 9 2 1
304 69 9 1 1
306 70 10 0 0
308 69 11 2 0
310 70 11 0 0
312 69 11 1 0
314 67 11 2 1
316 68 11 0 1
318 69 11 0 0
320 68 12 1 0
322 67 10 2 2
324 69 10 0 1
326 70 11 0 0
328 68 10 1 1
330 68 10 2 1
332 68 10 2 0
334 70 9 0 0
336 69 9 1 0
338 68 9 1 0
340 69 10 0 0
342 69 10 0 0
344 68 10 1 0
346 69 10 0 1
348 68 11 1 0
350 68 9 1 1
