0 75 0 0 0
2 76 0 0 0
4.00004 76 0 1 0
6 75 0 1 0
8 73 0 2 0
10 73 0 2 0
12 74 0 0 0
14 73 0 1 0
16 74 0 0 0
18 72 0 2 0
20 72 0 2 0
22 74 0 0 0
24 73 0 1 0
26 72 0 2 0
28 72 0 1 0
30 75 0 0 0
32 71 0 3 0
34 72 0 2 0
36 72 0 0 0
38 70 0 2 0
40 72 0 0 0
42 72 0 0 0
44 72 0 2 0
46 72 0 1 0
48 69 0 4 0
50 72 0 1 0
52 72 0 2 0
54 73 0 1 0
56 71 0 3 0
58 71 0 3 0
60 74 0 2 0
62 74 0 1 0
64 73 0 1 0
66 70 0 1 0
68 72 0 1 0
70 69 0 3 0
72 71 0 1 0
74 69 0 4 0
76 71 0 2 0
78 71 0 1 0
80 68 0 3 0
82 69 0 2 0
84 71 1 0 0
86 69 0 2 0
88 69 0 3 0
90 70 0 2 0
92 72 1 1 0
94 71 1 1 0
96 71 1 0 0
98 71 0 0 0
100 71 1 0 0
102 70 1 1 0
104 68 0 3 1
106 71 1 0 0
108 70 1 1 0
110 70 1 1 0
112 71 2 0 0
114 69 2 2 0
116 71 2 0 0
118 71 2 0 0
120 69 0 3 2
122 72 1 0 1
124 72 1 0 1
126 72 2 0 0
128 69 2 3 0
130 72 2 0 0
132 70 2 2 0
134 72 2 0 0
136 70 2 2 0
138 70 2 2 0
140 71 2 1 0
142 70 2 2 0
144 71 2 1 0
146 72 1 0 0
148 71 2 1 0
150 71 2 1 0
152 72 2 0 0
154 72 2 0 0
156 72 2 0 0
158 71 1 1 0
160 72 2 0 0
162 70 3 2 0
164 71 3 1 0
166 71 3 1 0
168 70 3 2 0
170 71 2 1 0
172 71 3 1 0
174 70 3 1 0
176 72 4 0 0
178 70 3 2 1
180 68 5 3 0
182 69 4 2 0
184 68 3 4 0
186 70 2 1 1
188 69 3 2 0
190 71 4 0 0
192 68 4 3 0
194 71 4 0 0
196 68 4 2 0
198 71 4 0 1
200 70 4 0 0
202 69 3 1 1
204 70 5 0 0
206 68 4 1 1
208 69 4 0 0
210 68 4 1 0
212 68 5 1 0
214 68 5 0 0
216 67 4 1 1
218 66 5 2 0
220 67 5 1 0
222 68 4 0 1
224 68 6 0 0
226 67 5 0 1
228 68 6 0 0
230 66 5 1 1
232 66 6 1 0
234 66 6 1 0
236 66 6 1 0
238 65 6 2 0
240 66 6 0 0
242 66 6 0 0
244 66 6 0 0
246 65 6 1 0
248 66 6 1 0
250 67 6 1 0
252 67 6 0 1
254 66 6 0 1
256 66 7 0 0
258 66 7 0 0
260 66 7 0 0
262 64 6 2 0
264 65 6 1 0
266 65 7 1 0
268 65 7 1 0
270 66 7 1 0
272 66 7 1 0
274 64 7 3 0
276 66 7 1 0
278 66 7 1 0
280 64 7 1 0
282 64 7 1 0
284 62 7 3 0
286 63 7 2 0
288 63 8 1 0
290 64 8 0 0
292 63 8 1 0
294 62 8 1 0
296 63 8 0 0
298 62 7 1 0
300 62 8 2 0
302 63 8 1 0
304 64 8 0 0
306 63 8 1 0
308 61 8 3 0
310 62 7 1 2
312 63 9 0 0
314 62 9 0 1
316 63 8 0 1
318 61 8 1 2
320 61 9 2 1
322 62 9 1 1
324 63 10 0 0
326 62 9 0 1
328 63 9 0 1
330 63 10 0 0
332 61 10 2 0
334 63 10 0 0
336 62 9 1 0
338 61 9 1 0
340 63 10 0 0
342 63 11 0 0
344 61 10 1 0
346 61 10 2 1
348 62 10 1 1
350 61 10 1 2
