0 75 0 0 0
2 74 0 0 0
4.00004 72 0 1 0
6 72 0 2 0
8 73 0 2 0
10 74 0 1 0
12 76 0 0 0
14 73 0 3 0
16 72 0 4 0
18 76 0 0 0
20 72 0 4 0
22 73 0 3 0
24 72 0 4 0
26 73 0 3 0
28 75 0 2 0
30 75 0 0 0
32 70 0 6 0
34 75 0 1 0
36 76 0 2 0
38 76 0 2 0
40 74 0 4 0
42 76 0 2 0
44 74 0 2 0
46 74 0 3 0
48 76 0 1 0
50 76 0 1 0
52 60 15 1 0
54 52 22 2 0
56 45 30 1 0
58 37 38 1 0
60 34 40 0 0
62 27 47 1 0
64 26 49 1 0
66 23 55 1 0
68 17 58 1 1
70 17 59 1 1
72 15 63 0 0
74 14 62 0 1
76 10 64 2 1
78 10 67 0 1
80 10 67 1 1
82 8 68 2 1
84 8 67 2 1
86 9 67 1 2
88 7 67 2 2
90 8 69 1 0
92 7 68 1 0
94 7 69 0 1
96 6 70 1 1
98 7 71 0 1
100 6 70 1 1
102 6 71 0 1
104 6 71 0 1
106 5 71 1 1
108 6 72 0 0
110 4 72 1 1
112 4 72 0 1
114 4 71 0 2
116 4 73 0 0
118 4 71 0 2
120 3 72 0 1
122 3 71 0 2
124 3 73 0 0
126 2 73 0 1
128 1 73 0 2
130 1 73 0 2
132 1 73 0 2
134 1 72 0 3
136 1 75 0 0
138 1 73 0 2
140 1 74 0 1
142 1 74 0 1
144 1 71 0 4
146 1 75 0 1
148 1 73 0 2
150 1 75 0 0
152 1 73 0 2
154 1 73 0 2
156 1 74 0 1
158 0 74 0 3
160 0 75 0 1
162 0 75 0 0
164 0 74 0 1
166 0 73 0 2
168 0 74 0 1
170 0 74 0 2
172 0 73 0 2
174 0 74 1 1
176 0 74 0 0
178 0 74 0 0
180 1 73 0 0
182 1 72 0 2
184 0 74 0 1
186 1 74 0 1
188 1 73 0 2
190 1 74 0 0
192 1 73 0 1
194 1 74 0 0
196 2 73 0 1
198 1 73 0 0
200 1 75 0 0
202 0 74 1 1
204 1 74 0 0
206 1 73 1 1
208 2 73 0 2
210 0 75 2 0
212 1 72 1 2
214 2 73 1 1
216 3 72 0 2
218 2 73 1 1
220 3 73 0 1
222 3 72 0 2
224 2 73 1 0
226 4 73 0 0
228 2 73 1 0
230 4 73 0 0
232 3 72 1 1
234 4 72 0 1
236 2 72 2 1
238 4 72 0 1
240 4 72 1 1
242 3 73 2 0
244 3 74 1 0
246 4 74 0 0
248 3 73 0 1
250 2 73 0 1
252 1 74 1 0
254 2 72 0 3
256 2 74 0 1
258 2 75 0 0
260 1 74 1 1
262 1 75 1 1
264 1 76 0 1
266 1 75 0 1
268 1 75 0 1
270 0 76 0 0
272 0 76 0 0
274 0 76 0 0
276 0 76 0 0
278 0 76 0 0
280 1 76 1 0
282 1 76 1 0
284 2 76 0 0
286 2 75 0 1
288 2 75 1 0
290 2 75 1 0
292 3 75 0 0
294 4 75 0 0
296 3 74 1 1
298 4 75 0 1
300 3 74 0 1
302 2 75 0 1
304 1 76 1 0
306 2 76 0 0
308 1 76 0 1
310 2 76 0 0
312 2 75 0 1
314 1 74 2 1
316 2 76 0 0
318 2 76 0 0
320 1 75 0 1
322 1 76 0 0
324 1 76 0 0
326 1 76 1 0
328 1 76 0 0
330 1 76 0 0
332 0 75 1 1
334 1 76 0 0
336 0 77 1 0
338 2 77 0 0
340 1 73 0 3
342 1 75 0 0
344 0 74 2 2
346 0 74 1 1
348 1 74 0 1
350 2 73 0 1
