0 89 0 0 0
2 86 0 3 0
4.00004 82 0 6 0
6 85 0 1 0
8 82 0 4 0
10 83 0 3 0
12 81 0 4 0
14 83 0 4 0
16 85 0 3 0
18 84 0 7 0
20 86 0 3 0
22 87 0 2 0
24 86 0 3 0
26 84 0 3 0
28 84 0 1 0
30 82 0 3 0
32 85 0 2 0
34 84 0 4 0
36 87 0 1 0
38 87 0 2 0
40 88 0 1 0
42 88 0 0 0
44 87 0 1 0
46 85 0 3 0
48 87 0 1 0
50 88 0 0 0
52 72 16 1 0
54 62 26 1 0
56 52 36 1 0
58 44 44 1 0
60 33 55 1 0
62 30 58 1 0
64 28 60 0 0
66 22 65 1 0
68 20 66 1 1
70 19 69 0 0
72 14 73 3 0
74 14 76 0 0
76 10 78 0 0
78 8 81 0 0
80 6 82 1 1
82 7 82 0 0
84 5 81 2 0
86 6 82 0 1
88 4 84 1 0
90 5 84 0 0
92 4 82 1 2
94 4 84 1 0
96 7 84 0 0
98 6 84 0 0
100 5 83 1 1
102 6 84 0 0
104 6 84 0 0
106 6 84 1 0
108 6 83 0 1
110 5 84 0 1
112 4 85 0 1
114 5 84 0 2
116 5 85 0 1
118 4 86 0 0
120 5 85 1 1
122 5 85 1 1
124 4 85 2 2
126 3 86 2 2
128 3 86 3 1
130 5 81 1 6
132 4 82 2 4
134 5 83 0 2
136 4 84 1 1
138 5 83 1 2
140 4 85 0 1
142 2 86 0 1
144 1 88 1 0
146 2 88 0 0
148 1 88 0 0
150 1 86 0 2
152 2 88 0 1
154 0 89 2 0
156 1 89 1 0
158 1 89 0 0
160 2 89 0 0
162 2 88 1 1
164 1 87 2 2
166 2 89 1 0
168 3 88 1 1
170 2 88 1 1
172 2 89 0 1
174 2 89 1 1
176 1 91 1 0
178 2 89 0 2
180 1 88 0 2
182 1 88 0 2
184 1 86 0 3
186 1 87 1 3
188 3 89 1 0
190 3 87 0 1
192 2 87 0 1
194 1 89 1 0
196 1 89 0 2
198 1 89 0 1
200 1 89 0 0
202 1 89 0 1
204 0 90 0 2
206 0 91 0 0
208 0 90 1 0
210 1 91 0 0
212 1 89 0 1
214 1 90 0 0
216 1 88 0 2
218 0 90 2 0
220 1 88 1 3
222 1 89 0 2
224 1 89 0 1
226 1 89 1 0
228 1 90 0 0
230 1 88 0 2
232 4 89 0 0
234 2 88 1 1
236 3 88 1 2
238 3 89 2 1
240 3 87 1 3
242 3 89 1 1
244 3 90 1 1
246 2 91 2 0
248 2 91 2 0
250 4 88 1 3
252 2 91 2 0
254 2 89 2 2
256 3 90 1 2
258 2 91 2 1
260 3 92 0 0
262 3 92 0 0
264 4 91 0 2
266 4 92 1 0
268 3 89 1 3
270 4 90 1 2
272 4 91 1 1
274 3 91 1 2
276 2 93 1 1
278 3 90 1 4
280 1 94 1 0
282 2 92 0 4
284 2 94 0 1
286 2 94 1 1
288 2 94 0 2
290 2 94 0 1
292 2 95 0 1
294 1 95 1 1
296 2 93 0 2
298 2 94 0 0
300 2 94 0 0
302 2 93 0 1
304 3 93 0 1
306 3 94 0 0
308 3 93 0 1
310 3 94 0 0
312 3 94 0 0
314 3 94 0 0
316 3 93 0 1
318 3 92 0 2
320 3 94 0 0
322 2 95 0 0
324 1 96 0 0
326 1 96 0 0
328 1 95 0 1
330 0 96 0 1
332 0 96 0 1
334 0 96 1 1
336 1 95 0 1
338 1 95 0 1
340 1 95 0 1
342 0 96 0 1
344 0 95 0 2
346 0 95 0 2
348 0 94 0 2
350 0 94 0 1
