0 74 0 0 0
2 72 0 2 0
4.00004 73 0 1 0
6 73 0 3 0
8 74 0 1 0
10 76 0 1 0
12 74 0 4 0
14 75 0 2 0
16 74 0 3 0
18 72 0 3 0
20 74 0 1 0
22 72 0 3 0
24 72 0 3 0
26 71 0 2 0
28 69 0 2 0
30 71 0 4 0
32 74 0 1 0
34 73 0 2 0
36 72 0 2 0
38 73 0 1 0
40 69 0 2 0
42 72 0 1 0
44 72 0 1 0
46 71 0 2 0
48 72 0 2 0
50 74 0 1 0
52 73 0 1 0
54 72 0 1 0
56 73 0 0 0
58 72 0 1 0
60 71 0 1 0
62 71 0 3 0
64 71 0 3 0
66 71 0 4 0
68 72 0 3 0
70 70 0 3 0
72 71 0 2 0
74 72 0 2 0
76 74 0 1 0
78 71 0 4 0
80 74 0 0 0
82 72 0 3 0
84 75 0 0 0
86 73 0 1 0
88 75 0 1 0
90 74 0 1 0
92 70 0 4 0
94 74 0 1 0
96 73 0 2 0
98 71 0 3 0
100 70 0 3 0
102 72 0 0 0
104 72 0 1 0
106 71 0 1 0
108 71 0 0 0
110 71 0 0 0
112 70 0 1 0
114 70 0 1 0
116 71 0 1 0
118 70 0 2 0
120 65 1 5 0
122 69 1 1 0
124 67 1 2 1
126 69 2 1 0
128 67 1 2 0
130 67 1 1 0
132 64 2 3 0
134 66 2 0 0
136 65 0 1 1
138 66 2 0 0
140 66 2 0 0
142 66 2 0 1
144 64 3 1 1
146 65 3 1 1
148 66 4 0 0
150 65 3 1 1
152 64 3 3 1
154 66 4 2 1
156 68 4 0 1
158 68 5 0 0
160 65 4 3 0
162 67 3 1 1
164 65 4 1 0
166 66 5 0 0
168 66 1 0 4
170 64 3 2 1
172 65 2 1 1
174 66 4 0 1
176 66 5 0 0
178 65 4 1 1
180 66 3 0 2
182 66 4 0 0
184 64 4 2 0
186 66 3 0 1
188 65 5 1 0
190 66 5 0 0
192 66 5 0 0
194 63 5 2 1
196 64 6 1 0
198 62 5 3 2
200 63 7 2 0
202 64 7 1 0
204 62 6 3 1
206 63 6 3 1
208 61 7 2 0
210 65 7 1 0
212 63 5 2 1
214 63 6 1 0
216 62 6 1 0
218 64 5 1 2
220 63 7 1 0
222 64 6 1 1
224 63 6 2 1
226 64 7 1 0
228 62 6 3 1
230 64 7 1 2
232 65 7 0 1
234 63 6 2 0
236 63 6 1 0
238 61 6 2 1
240 62 6 0 0
242 61 7 1 0
244 62 6 0 0
246 62 6 0 0
248 62 6 0 0
250 61 6 1 0
252 61 6 1 0
254 61 5 1 1
256 61 6 1 0
258 62 6 1 0
260 61 6 1 0
262 62 6 1 0
264 62 6 1 0
266 62 6 1 0
268 63 6 0 0
270 63 6 0 0
272 61 7 2 0
274 62 8 0 0
276 62 6 1 1
278 62 7 1 0
280 62 7 1 1
282 63 7 0 1
284 61 8 1 0
286 62 8 0 0
288 62 8 0 0
290 62 8 0 1
292 62 8 1 0
294 63 8 0 0
296 62 7 1 1
298 62 7 1 1
300 62 9 0 0
302 58 8 4 1
304 61 7 1 2
306 59 9 3 1
308 61 8 1 1
310 62 10 0 0
312 60 8 2 0
314 60 8 1 0
316 58 8 2 0
318 59 9 1 0
320 60 7 0 0
322 60 7 0 0
324 60 7 0 0
326 60 7 0 0
328 60 8 0 0
330 60 8 0 0
332 60 8 0 0
334 60 7 0 1
336 59 7 2 1
338 60 8 1 0
340 60 8 1 0
342 60 8 1 0
344 59 8 1 1
346 59 8 1 0
348 61 8 0 0
350 60 8 1 0
