0 63 0 0 0
2 62 0 0 0
4.00004 60 0 2 0
6 60 0 2 0
8 60 0 2 0
10 60 0 2 0
12 60 0 2 0
14 60 0 2 0
16 60 0 1 0
18 60 0 3 0
20 59 0 4 0
22 61 0 2 0
24 59 0 2 0
26 59 0 1 0
28 59 0 1 0
30 57 0 3 0
32 60 0 1 0
34 59 0 2 0
36 60 0 1 0
38 60 0 2 0
40 58 0 2 0
42 58 0 2 0
44 58 0 2 0
46 57 0 1 0
48 57 0 1 0
50 58 0 1 0
52 58 0 1 0
54 58 0 1 0
56 58 0 1 0
58 60 0 0 0
60 57 0 2 0
62 58 0 0 0
64 58 0 0 0
66 58 0 0 0
68 56 0 3 0
70 58 0 1 0
72 59 0 0 0
74 58 0 1 0
76 58 0 1 0
78 58 0 0 0
80 56 0 2 0
82 58 0 1 0
84 58 0 0 0
86 57 0 1 0
88 58 0 0 0
90 59 0 0 0
92 59 0 0 0
94 58 0 1 0
96 59 0 0 0
98 58 0 1 0
100 59 0 0 0
102 57 0 1 0
104 58 1 0 0
106 58 1 0 0
108 58 1 0 0
110 58 1 0 0
112 57 1 1 0
114 57 0 1 1
116 56 0 2 0
118 57 1 1 0
120 59 1 0 0
122 58 2 1 0
124 58 2 0 0
126 57 2 0 1
128 57 3 0 0
130 57 2 0 1
132 57 2 1 0
134 58 1 0 0
136 57 2 0 0
138 57 2 0 0
140 57 1 0 1
142 57 1 0 1
144 57 1 0 0
146 57 1 0 0
148 57 1 0 0
150 57 1 0 0
152 56 1 0 0
154 56 1 0 0
156 56 1 0 0
158 56 1 0 0
160 55 1 1 0
162 55 2 1 0
164 55 1 1 0
166 57 1 0 0
168 55 1 2 0
170 54 1 3 1
172 56 2 1 0
174 55 2 2 0
176 55 2 2 0
178 57 2 0 0
180 55 2 0 0
182 55 2 0 0
184 54 2 1 0
186 55 3 0 0
188 53 2 2 0
190 54 3 1 0
192 54 2 0 0
194 53 3 0 0
196 53 3 0 0
198 53 3 0 0
200 52 2 0 1
202 51 3 2 0
204 53 2 1 1
206 51 3 2 1
208 53 4 0 0
210 51 3 2 0
212 53 3 0 0
214 52 3 1 0
216 51 3 2 1
218 52 4 1 0
220 53 4 1 0
222 54 3 0 0
224 52 4 1 0
226 51 3 2 1
228 51 3 3 1
230 52 6 1 0
232 53 5 1 0
234 53 5 0 1
236 53 6 0 0
238 52 4 1 3
240 52 6 1 1
242 53 6 0 0
244 52 6 0 0
246 52 4 0 1
248 52 5 0 0
250 53 4 0 0
252 51 4 2 1
254 52 5 0 0
256 52 5 0 0
258 52 4 0 1
260 52 4 0 1
262 52 5 0 0
264 52 5 0 0
266 52 5 0 0
268 52 6 0 0
270 52 6 0 0
272 52 6 0 0
274 52 7 0 0
276 52 7 0 1
278 52 7 0 0
280 52 6 1 1
282 52 6 1 1
284 52 5 0 2
286 51 7 1 0
288 52 7 0 0
290 52 7 0 1
292 49 7 3 1
294 51 7 1 0
296 50 7 2 0
298 50 7 2 0
300 51 6 1 0
302 52 6 0 0
304 51 7 1 0
306 49 6 3 1
308 51 6 0 1
310 51 7 0 0
312 50 7 1 0
314 50 7 1 0
316 50 7 1 0
318 48 6 1 1
320 48 7 1 0
322 47 6 1 1
324 48 7 0 0
326 48 7 1 0
328 47 8 2 0
330 48 7 1 2
332 49 9 0 0
334 47 9 2 0
336 45 8 4 1
338 50 8 0 1
340 48 8 1 1
342 47 9 1 0
344 48 9 1 0
346 47 9 1 0
348 47 9 1 0
350 45 8 3 0
