0 1041 0 0 0 0 0
2 988 0 0 49 0 0
4.00004 967 0 0 73 0 0
6 956 0 0 85 0 0
8 950 0 0 89 0 0
10 957 0 0 81 0 0
12 950 0 0 98 0 0
14 943 0 0 110 0 0
16 948 0 0 96 0 0
18 936 0 0 110 0 0
20 943 0 0 104 0 0
22 931 0 0 117 0 0
24 944 0 0 108 0 0
26 952 0 0 105 0 0
28 939 0 0 108 0 0
30 945 0 0 100 0 0
32 932 0 0 116 0 0
34 931 0 0 106 0 0
36 938 0 0 95 0 0
38 937 0 0 100 0 0
40 936 0 0 100 0 0
42 919 0 0 115 0 0
44 927 0 0 102 0 0
46 910 0 0 117 0 0
48 921 0 0 109 0 0
50 920 0 0 104 0 0
52 914 0 0 81 32 0
54 899 0 4 74 31 0
56 883 0 13 73 48 0
58 872 0 20 73 64 0
60 879 0 29 51 60 0
62 857 0 37 59 63 0
64 853 0 52 50 60 0
66 842 0 69 52 55 0
68 830 0 74 53 55 0
70 826 0 76 46 67 0
72 815 0 92 46 53 0
74 800 0 108 51 55 0
76 788 0 112 51 56 0
78 780 0 114 48 70 0
80 776 0 125 41 77 0
82 766 0 138 43 68 0
84 753 0 146 47 65 0
86 741 0 156 46 75 0
88 731 0 169 44 77 0
90 729 0 178 37 70 0
92 724 0 189 35 72 0
94 708 0 193 43 63 0
96 688 0 204 55 63 0
98 695 0 210 41 64 0
100 695 0 216 32 72 0
102 677 0 221 41 80 0
104 667 0 237 42 74 0
106 654 0 250 44 65 0
108 643 0 254 38 70 0
110 637 0 268 40 59 0
112 625 0 271 42 59 0
114 616 0 265 43 86 0
116 613 0 275 36 67 0
118 606 0 276 35 77 0
120 592 0 290 43 72 0
122 590 0 299 39 63 0
124 587 0 311 33 63 0
126 580 0 315 33 59 0
128 575 0 313 32 68 0
130 573 0 313 28 70 0
132 566 0 333 28 61 0
134 556 0 334 27 76 0
136 546 0 341 30 75 0
138 540 0 343 30 82 0
140 531 0 345 34 89 0
142 528 0 354 29 86 0
144 517 0 374 36 70 0
146 519 0 376 26 74 0
148 510 0 383 26 79 0
150 502 0 391 29 82 0
152 491 0 393 36 82 0
154 488 0 392 26 85 0
156 471 0 401 39 87 0
158 474 0 402 27 92 0
160 467 0 411 28 84 0
162 462 0 407 29 92 0
164 462 0 417 25 78 0
166 462 0 417 23 88 0
168 455 0 425 24 86 0
170 452 0 425 24 91 0
172 435 0 431 39 93 0
174 432 0 430 35 107 0
176 426 0 447 35 88 0
178 424 0 449 32 94 0
180 427 0 458 21 98 0
182 424 0 464 22 92 0
184 416 0 477 26 81 0
186 409 0 464 29 93 0
188 398 0 462 32 96 0
190 396 0 474 31 90 0
192 393 0 478 27 86 0
194 387 0 483 29 83 0
196 380 0 497 27 82 0
198 376 0 514 31 68 0
200 364 0 507 37 87 0
