0 928 0 0 0 0 0
2 865 30 0 33 0 0
4.00004 864 10 0 38 0 3
6 866 11 0 41 0 1
8 865 13 0 42 0 7
10 861 5 0 52 0 4
12 857 2 0 53 0 7
14 856 2 0 56 0 3
16 856 0 0 59 0 10
18 864 1 0 49 0 12
20 853 0 0 71 0 10
22 848 0 0 70 0 12
24 856 0 0 65 0 9
26 857 0 0 62 0 7
28 842 1 0 77 0 13
30 834 0 0 81 0 10
32 826 0 0 84 0 15
34 816 0 0 95 0 11
36 835 0 0 76 0 9
38 837 1 0 75 0 11
40 842 0 0 66 0 11
42 842 0 0 71 0 8
44 832 0 0 81 0 10
46 825 0 0 81 0 14
48 832 1 0 75 0 11
50 826 0 0 77 0 11
52 831 0 1 46 33 0
54 825 0 2 42 44 0
56 811 0 8 45 58 0
58 807 0 17 40 58 0
60 808 0 25 32 56 0
62 795 0 30 41 55 0
64 792 0 36 35 60 0
66 780 0 42 40 54 0
68 776 0 44 35 63 0
70 768 0 54 30 71 0
72 760 0 59 30 72 0
74 756 0 72 31 60 0
76 742 0 78 39 55 0
78 732 0 80 39 70 0
80 726 0 88 42 66 0
82 725 0 90 36 69 0
84 719 0 94 33 75 0
86 713 0 101 35 76 0
88 707 0 104 32 78 0
90 704 0 121 32 60 0
92 700 0 126 32 62 0
94 693 0 130 31 66 0
96 702 0 141 19 59 0
98 686 0 145 26 68 0
100 685 0 153 23 69 0
102 679 0 159 27 58 0
104 672 0 153 29 60 0
106 667 0 161 28 59 0
108 664 0 163 28 53 0
110 662 0 164 25 70 0
112 648 0 177 32 63 0
114 647 0 179 26 77 0
116 638 0 186 27 71 0
118 634 0 186 28 78 0
120 621 0 188 34 79 0
122 619 0 191 34 77 0
124 615 0 194 26 88 0
126 608 0 201 28 87 0
128 605 0 206 30 77 0
130 600 0 216 31 72 0
132 590 0 218 33 74 0
134 585 0 225 28 80 0
136 580 0 233 26 83 0
138 570 0 246 29 70 0
140 570 0 254 23 71 0
142 564 0 259 20 78 0
144 555 0 258 24 76 0
146 547 0 265 27 74 0
148 545 0 264 26 74 0
150 544 0 267 25 73 0
152 543 0 268 19 79 0
154 540 0 281 16 67 0
156 536 0 283 19 69 0
158 538 0 287 14 66 0
160 531 0 287 20 64 0
162 531 0 284 14 75 0
164 523 0 287 21 75 0
166 517 0 292 26 75 0
168 512 0 299 29 66 0
170 517 0 308 20 71 0
172 510 0 310 23 72 0
174 508 0 311 20 66 0
176 501 0 310 28 68 0
178 501 0 307 17 81 0
180 487 0 317 30 71 0
182 493 0 315 21 73 0
184 483 0 325 27 66 0
186 481 0 326 23 74 0
188 488 0 330 15 72 0
190 481 0 330 20 84 0
192 471 0 330 25 93 1
194 470 0 334 21 100 0
196 472 0 346 17 90 0
198 468 0 355 18 79 0
200 463 0 358 22 74 0
