0 1066 0 0 0 0 0
2 1027 0 0 44 0 0
4.00004 1015 0 0 55 0 0
6 1008 0 0 59 0 0
8 995 0 0 73 0 0
10 994 0 0 68 0 0
12 974 0 0 91 0 0
14 973 0 0 87 0 0
16 965 0 0 103 0 0
18 969 0 0 98 0 0
20 966 0 0 95 0 0
22 972 0 0 79 0 0
24 959 0 0 96 0 0
26 953 0 0 102 0 0
28 943 0 0 117 0 0
30 942 0 0 113 0 0
32 946 0 0 98 0 0
34 954 0 0 101 0 0
36 962 0 0 91 0 0
38 962 0 0 92 0 0
40 959 0 0 102 0 0
42 957 0 0 107 0 0
44 968 0 0 97 0 0
46 949 0 0 108 0 0
48 951 0 0 111 0 0
50 943 0 0 113 0 0
52 944 0 0 88 24 0
54 942 0 3 75 27 0
56 937 0 3 68 46 0
58 923 0 12 72 41 0
60 924 0 18 59 49 0
62 914 0 27 58 46 0
64 907 0 39 58 47 0
66 909 0 46 49 44 0
68 908 0 48 43 61 0
70 889 0 51 55 60 0
72 886 0 60 52 62 0
74 873 0 66 56 61 0
76 878 0 69 44 81 0
78 871 0 75 43 83 0
80 861 0 78 49 78 0
82 856 0 94 48 65 0
84 845 0 109 51 50 0
86 839 0 115 51 55 0
88 826 0 113 54 52 0
90 821 0 117 53 59 0
92 813 0 120 57 61 0
94 810 0 130 54 60 0
96 820 0 141 35 64 0
98 799 0 144 48 57 0
100 791 0 151 51 61 0
102 789 0 156 49 59 0
104 780 0 160 53 65 0
106 775 0 166 47 52 0
108 755 0 166 60 65 0
110 759 0 170 51 65 0
112 753 0 178 51 52 0
114 746 0 182 52 62 0
116 738 0 188 52 67 0
118 733 0 201 51 50 0
120 733 0 201 48 58 0
122 733 0 206 44 55 0
124 737 0 207 38 58 0
126 737 0 211 31 58 0
128 721 0 209 41 60 0
130 707 0 217 47 65 0
132 696 0 222 50 59 0
134 699 0 229 44 61 0
136 687 0 231 49 63 0
138 685 0 233 43 69 0
140 671 0 236 53 76 0
142 677 0 244 43 57 0
144 674 0 248 39 65 0
146 667 0 257 43 61 0
148 662 0 259 44 62 0
150 648 0 263 51 64 0
152 652 0 275 38 53 0
154 652 0 278 35 63 0
156 646 0 281 34 65 0
158 643 0 284 34 67 0
160 629 0 285 42 71 0
162 624 0 291 40 64 0
164 610 0 296 49 70 0
166 610 0 303 43 69 0
168 601 0 305 47 73 0
170 603 0 311 40 58 0
172 605 0 321 32 62 0
174 595 0 326 37 61 0
176 589 0 320 39 68 0
178 587 0 318 36 75 0
180 578 0 322 43 77 0
182 570 0 326 45 75 0
184 570 0 337 39 67 0
186 563 0 333 43 82 0
188 570 0 344 30 80 0
190 564 0 350 33 72 0
192 553 0 359 39 74 0
194 551 0 366 37 71 0
196 553 0 362 28 82 0
198 546 0 369 32 76 0
200 539 0 380 32 55 0
