0 939 0 0 0 0 0
2 901 0 0 26 0 0
4.00004 897 0 0 41 0 0
6 896 0 0 40 0 0
8 887 0 0 43 0 0
10 887 0 0 51 0 0
12 887 0 0 50 0 0
14 891 0 0 48 0 0
16 893 0 0 45 0 0
18 894 0 0 41 0 0
20 895 0 0 35 0 0
22 887 0 0 49 0 0
24 894 0 0 43 0 0
26 901 0 0 36 0 0
28 888 0 0 54 0 0
30 884 0 0 62 0 0
32 886 0 0 58 0 0
34 891 0 0 45 0 0
36 900 0 0 41 0 0
38 890 0 0 52 0 0
40 897 0 0 42 0 0
42 898 0 0 38 0 0
44 891 0 0 42 0 0
46 885 0 0 45 0 0
48 886 0 0 42 0 0
50 889 0 0 39 0 0
52 883 0 2 27 12 0
54 878 0 4 21 25 0
56 872 0 10 21 30 0
58 868 0 21 18 17 0
60 849 0 28 29 26 0
62 840 0 37 26 29 0
64 836 0 53 24 18 0
66 826 0 59 20 21 0
68 815 0 68 19 22 0
70 808 0 74 19 15 0
72 807 0 76 12 17 0
74 787 0 80 29 24 0
76 787 0 86 19 26 0
78 786 0 89 13 30 0
80 775 0 100 20 28 0
82 759 0 108 22 27 0
84 744 0 120 29 20 0
86 743 0 126 19 20 0
88 739 0 132 15 32 0
90 729 0 148 22 22 0
92 721 0 156 21 22 0
94 707 0 158 26 31 0
96 707 0 166 15 32 0
98 704 0 173 15 37 0
100 692 0 177 21 31 0
102 688 0 185 18 29 0
104 684 0 193 16 26 0
106 665 0 202 28 26 0
108 656 0 212 27 30 0
110 656 0 222 18 23 0
112 650 0 225 17 27 0
114 642 0 229 19 31 0
116 628 0 241 25 23 0
118 631 0 248 10 30 0
120 621 0 252 14 31 0
122 610 0 256 15 32 0
124 605 0 264 12 35 0
126 593 0 276 17 30 0
128 588 0 277 18 38 0
130 589 0 290 15 34 0
132 580 0 298 21 28 0
134 573 0 303 17 32 0
136 571 0 314 14 27 0
138 563 0 322 17 33 0
140 556 0 332 19 25 0
142 556 0 333 15 31 0
144 555 0 342 10 33 0
146 552 0 343 8 40 0
148 542 0 347 15 38 0
150 547 0 356 10 35 0
152 546 0 356 5 33 0
154 534 0 357 11 36 0
156 531 0 367 12 38 0
158 525 0 373 9 41 0
160 519 0 384 8 43 0
162 509 0 385 12 51 0
164 504 0 397 12 33 0
166 497 0 405 12 28 0
168 486 0 406 20 43 0
170 484 0 418 16 30 0
172 480 0 425 14 24 0
174 473 0 421 17 32 0
176 467 0 425 20 31 0
178 466 0 433 14 29 0
180 467 0 433 11 35 0
182 463 0 439 11 35 0
184 457 0 440 15 34 0
186 453 0 443 12 31 0
188 452 0 438 10 39 0
190 453 0 439 6 44 0
192 443 0 443 15 40 0
194 438 0 454 11 31 0
196 434 0 459 11 32 0
198 426 0 469 16 31 0
200 424 0 473 12 38 0
