0 815 0 0 0 0 0
2 773 18 0 23 0 3
4.00004 777 2 0 29 0 6
6 777 4 0 26 0 6
8 775 1 0 31 0 8
10 777 2 0 29 0 10
12 780 0 0 27 0 8
14 780 0 0 25 0 6
16 770 0 0 30 0 9
18 771 0 0 29 0 10
20 773 0 0 34 0 3
22 772 0 0 33 0 10
24 763 0 0 48 0 7
26 768 0 0 41 0 5
28 770 0 0 38 0 4
30 773 0 0 34 0 6
32 763 0 0 41 0 9
34 761 0 0 43 0 11
36 766 0 0 36 0 12
38 768 0 0 41 0 7
40 780 0 0 34 0 10
42 786 0 0 27 0 8
44 774 0 0 37 0 12
46 781 0 0 34 0 10
48 773 0 0 38 0 15
50 771 0 0 39 0 15
52 747 0 2 35 48 1
54 741 0 10 28 53 0
56 745 0 23 15 46 0
58 733 0 24 19 56 1
60 728 0 35 17 43 0
62 717 0 46 22 35 0
64 713 0 54 16 40 0
66 706 0 61 15 35 0
68 692 0 68 19 46 1
70 690 0 71 15 42 0
72 680 0 76 19 39 0
74 669 0 81 23 42 0
76 663 0 84 21 50 0
78 663 0 93 16 50 0
80 660 0 106 12 42 0
82 648 0 114 18 41 0
84 642 0 120 18 41 0
86 641 0 122 12 51 0
88 634 0 133 12 44 0
90 636 0 144 4 35 0
92 622 0 151 15 34 0
94 610 0 151 21 46 0
96 604 0 153 17 55 0
98 593 0 159 22 48 0
100 594 0 171 17 45 0
102 590 0 177 14 49 0
104 583 0 179 15 51 0
106 577 0 187 18 38 0
108 576 0 195 12 43 0
110 566 0 196 20 47 1
112 563 0 210 14 42 0
114 565 0 218 9 36 0
116 560 0 225 11 29 1
118 555 0 226 10 38 0
120 541 0 231 22 39 0
122 541 0 236 16 40 0
124 536 0 242 11 53 0
126 530 0 249 13 46 0
128 524 0 252 14 50 0
130 517 0 261 17 43 0
132 505 0 267 20 45 0
134 505 0 260 17 56 0
136 499 0 268 17 48 0
138 489 0 273 20 51 0
140 485 0 278 13 50 0
142 480 0 279 12 62 0
144 476 0 292 11 45 0
146 474 0 297 12 37 0
148 465 0 298 16 40 0
150 463 0 299 10 38 0
152 458 0 303 11 46 0
154 443 0 301 16 54 0
156 436 0 314 17 49 0
158 434 0 309 9 64 0
160 432 0 323 5 53 0
162 423 0 324 13 51 0
164 420 0 336 12 45 0
166 417 0 339 13 46 0
168 412 0 345 11 53 0
170 405 0 356 12 41 0
172 406 0 353 7 53 0
174 400 0 367 11 49 0
176 401 0 372 6 41 0
178 389 0 370 10 54 0
180 388 0 365 5 59 0
182 380 0 373 11 56 0
184 375 0 386 14 50 0
186 372 0 394 9 49 0
188 361 0 394 10 52 0
190 362 0 402 8 49 0
192 357 0 410 12 41 0
194 358 0 417 7 38 0
196 353 0 421 10 36 0
198 351 0 416 9 45 0
200 343 0 426 14 40 0
