0 998 0 0 0 0 0
2 970 0 0 31 0 0
4.00004 967 0 0 36 0 0
6 966 0 0 42 0 0
8 961 0 0 49 0 0
10 964 0 0 49 0 0
12 957 0 0 56 0 0
14 962 0 0 47 0 0
16 957 0 0 44 0 0
18 957 0 0 44 0 0
20 955 0 0 46 0 0
22 955 0 0 48 0 0
24 953 0 0 52 0 0
26 956 0 0 48 0 0
28 954 0 0 54 0 0
30 948 0 0 55 0 0
32 952 0 0 56 0 0
34 961 0 0 45 0 0
36 955 0 0 59 0 0
38 965 0 0 45 0 0
40 955 0 0 55 0 0
42 964 0 0 40 0 0
44 961 0 0 48 0 0
46 958 0 0 56 0 0
48 955 0 0 58 0 0
50 963 0 0 57 0 0
52 961 0 0 38 10 0
54 961 0 1 29 22 0
56 960 0 4 24 21 0
58 959 0 9 19 21 0
60 951 0 13 24 23 0
62 940 0 16 30 23 0
64 932 0 22 29 26 0
66 924 0 27 31 28 0
68 922 0 32 27 30 0
70 922 0 37 24 38 0
72 910 0 46 32 25 0
74 909 0 50 24 29 0
76 904 0 60 23 35 0
78 903 0 68 16 29 0
80 896 0 71 21 28 0
82 888 0 79 21 27 0
84 883 0 84 23 24 0
86 875 0 92 26 24 0
88 879 0 90 18 30 0
90 871 0 101 20 22 0
92 864 0 102 23 18 0
94 857 0 104 27 24 0
96 859 0 104 18 21 0
98 846 0 109 29 23 0
100 841 0 114 28 23 0
102 833 0 120 29 18 0
104 830 0 125 27 22 0
106 828 0 127 26 25 0
108 825 0 132 25 30 0
110 822 0 139 23 23 0
112 814 0 142 23 29 0
114 810 0 147 23 26 0
116 811 0 148 18 25 0
118 809 0 154 18 23 0
120 803 0 153 21 27 0
122 794 0 159 26 27 0
124 798 0 164 19 27 0
126 797 0 164 15 32 0
128 796 0 168 12 30 0
130 784 0 174 20 33 0
132 781 0 179 19 28 0
134 769 0 181 29 29 0
136 766 0 187 29 27 0
138 772 0 193 16 28 0
140 769 0 195 15 36 0
142 767 0 201 14 24 0
144 755 0 194 22 35 0
146 755 0 204 19 28 0
148 750 0 212 19 27 0
150 750 0 210 16 27 0
152 747 0 217 16 24 0
154 740 0 221 19 21 0
156 733 0 225 19 33 0
158 715 0 231 33 30 0
160 720 0 241 22 24 0
162 715 0 247 23 27 0
164 706 0 244 23 35 0
166 702 0 252 20 31 0
168 701 0 255 18 24 0
170 701 0 252 13 32 0
172 698 0 254 15 32 0
174 689 0 259 21 29 0
176 687 0 263 20 30 0
178 684 0 271 21 25 0
180 684 0 269 16 35 0
182 679 0 278 18 26 0
184 677 0 279 17 26 0
186 675 0 282 16 22 0
188 675 0 283 15 24 0
190 667 0 281 22 34 0
192 657 0 284 27 29 0
194 664 0 290 14 30 0
196 660 0 299 11 28 0
198 657 0 301 13 34 0
200 657 0 309 11 30 0
