0 960 0 0 0 0 0
2 929 0 0 40 0 0
4.00004 916 0 0 47 0 0
6 914 0 0 53 0 0
8 914 0 0 64 0 0
10 912 0 0 61 0 0
12 906 0 0 63 0 0
14 895 0 0 79 0 0
16 904 0 0 65 0 0
18 896 0 0 76 0 0
20 887 0 0 87 0 0
22 873 0 0 106 0 0
24 875 0 0 104 0 0
26 880 0 0 100 0 0
28 872 0 0 103 0 0
30 874 0 0 100 0 0
32 876 0 0 97 0 0
34 884 0 0 92 0 0
36 873 0 0 103 0 0
38 870 0 0 107 0 0
40 855 0 0 127 0 0
42 866 0 0 114 0 0
44 874 0 0 106 0 0
46 863 0 0 118 0 0
48 857 0 0 118 0 0
50 869 0 0 105 0 0
52 860 0 0 99 20 0
54 863 0 0 90 27 0
56 866 0 1 77 36 0
58 863 0 2 72 37 0
60 857 0 7 74 35 0
62 856 0 10 64 42 0
64 851 0 14 65 42 0
66 844 0 19 65 49 0
68 845 0 24 58 45 0
70 841 0 25 56 49 0
72 839 0 28 56 52 0
74 830 0 33 56 62 0
76 832 0 41 53 50 0
78 833 0 47 46 47 0
80 827 0 51 50 53 0
82 818 0 54 54 55 0
84 828 0 58 41 50 0
86 819 0 60 50 55 0
88 819 0 61 48 54 0
90 811 0 72 53 45 0
92 806 0 71 55 51 0
94 804 0 78 54 42 0
96 802 0 80 50 44 0
98 801 0 78 48 57 0
100 797 0 81 49 58 0
102 787 0 88 55 54 0
104 794 0 94 45 57 0
106 780 0 97 56 52 0
108 779 0 100 52 49 0
110 772 0 104 54 57 0
112 767 0 111 55 52 0
114 754 0 112 66 56 0
116 754 0 112 64 55 0
118 756 0 112 59 58 0
120 758 0 116 49 62 0
122 753 0 127 50 56 0
124 742 0 133 57 50 0
126 752 0 140 46 44 0
128 748 0 145 45 47 0
130 741 0 146 49 48 0
132 738 0 146 49 53 0
134 726 0 152 58 45 0
136 725 0 156 55 49 0
138 722 0 159 54 49 0
140 722 0 165 51 40 0
142 709 0 164 57 49 0
144 715 0 170 47 43 0
146 707 0 171 49 44 0
148 706 0 169 44 51 0
150 708 0 172 39 53 0
152 693 0 179 51 46 0
154 686 0 182 53 50 0
156 687 0 179 49 60 0
158 683 0 182 49 58 0
160 671 0 187 57 61 0
162 666 0 187 57 65 0
164 670 0 190 45 66 0
166 667 0 197 42 61 0
168 662 0 201 43 55 0
170 659 0 204 42 57 0
172 657 0 210 39 61 0
174 648 0 212 46 57 0
176 649 0 211 42 61 0
178 642 0 221 45 52 0
180 640 0 223 44 53 0
182 626 0 230 54 48 0
184 623 0 224 53 56 0
186 625 0 229 48 51 0
188 629 0 228 38 55 0
190 617 0 235 44 55 0
192 620 0 237 41 51 0
194 607 0 230 49 62 0
196 600 0 238 51 65 0
198 607 0 244 40 59 0
200 600 0 240 42 71 0
