0 1156 0 0 0 0 0
2 1129 0 0 29 0 0
4.00004 1113 0 0 43 0 0
6 1108 0 0 54 0 0
8 1111 0 0 42 0 0
10 1113 0 0 44 0 0
12 1101 0 0 56 0 0
14 1089 0 0 61 0 0
16 1099 0 0 48 0 0
18 1102 0 0 39 0 0
20 1099 0 0 42 0 0
22 1092 0 0 41 0 0
24 1089 0 0 47 0 0
26 1082 0 0 45 0 0
28 1080 0 0 52 0 0
30 1080 0 0 48 0 0
32 1076 0 0 46 0 0
34 1075 0 0 49 0 0
36 1082 0 0 42 0 0
38 1076 0 0 45 0 0
40 1076 0 0 44 0 0
42 1071 0 0 41 0 0
44 1073 0 0 32 0 0
46 1073 0 0 37 0 0
48 1066 0 0 40 0 0
50 1051 0 0 49 0 0
52 1063 0 2 16 15 0
54 1040 0 8 27 17 0
56 1035 0 18 21 23 0
58 1025 0 23 22 26 0
60 1020 0 36 23 22 0
62 1008 0 39 25 21 0
64 997 0 46 21 22 0
66 988 0 52 21 24 0
68 979 0 64 21 24 0
70 970 0 74 20 21 0
72 965 0 80 15 27 0
74 955 0 93 15 25 0
76 937 0 105 21 25 0
78 919 0 117 28 15 0
80 906 0 126 28 28 0
82 889 0 134 30 25 0
84 884 0 144 20 21 0
86 876 0 153 18 30 0
88 862 0 160 22 33 0
90 852 0 166 21 28 0
92 839 0 179 25 21 0
94 825 0 189 26 33 0
96 817 0 198 17 27 0
98 802 0 211 22 28 0
100 801 0 212 17 32 0
102 792 0 225 18 25 0
104 779 0 233 18 26 0
106 776 0 239 14 34 0
108 777 0 244 9 39 0
110 764 0 263 17 18 0
112 748 0 267 26 20 0
114 743 0 265 20 29 0
116 736 0 270 12 40 0
118 724 0 284 16 37 0
120 718 0 293 17 34 0
122 704 0 298 27 31 0
124 707 0 307 18 26 0
126 704 0 311 12 31 0
128 691 0 317 16 34 0
130 683 0 325 19 34 0
132 681 0 335 14 30 0
134 674 0 337 15 29 0
136 660 0 343 22 27 0
138 652 0 335 19 39 0
140 643 0 350 20 38 0
142 638 0 359 17 34 0
144 633 0 363 12 47 0
146 625 0 374 14 35 0
148 618 0 386 17 24 0
150 611 0 386 13 29 0
152 602 0 385 15 37 0
154 597 0 398 15 25 0
156 591 0 404 12 26 0
158 586 0 410 14 18 0
160 582 0 414 14 27 0
162 569 0 426 18 25 0
164 563 0 431 18 25 0
166 558 0 433 17 39 0
168 553 0 443 14 31 0
170 546 0 450 14 30 0
172 537 0 452 17 29 0
174 537 0 457 12 22 0
176 531 0 458 11 27 0
178 521 0 464 16 30 0
180 524 0 469 9 34 0
182 523 0 468 5 39 0
184 506 0 475 19 36 0
186 505 0 478 17 34 0
188 505 0 488 12 31 0
190 494 0 486 15 46 0
192 490 0 492 10 36 0
194 483 0 502 12 35 0
196 469 0 503 18 39 0
198 467 0 510 10 34 0
200 464 0 514 11 29 0
