0 1012 0 0 0 0 0
2 988 0 0 21 0 0
4.00004 977 0 0 31 0 0
6 972 0 0 31 0 0
8 969 0 0 36 0 0
10 962 0 0 42 0 0
12 969 0 0 43 0 0
14 966 0 0 45 0 0
16 959 0 0 58 0 0
18 955 0 0 61 0 0
20 959 0 0 53 0 0
22 958 0 0 57 0 0
24 951 0 0 65 0 0
26 954 0 0 54 0 0
28 953 0 0 58 0 0
30 947 0 0 59 0 0
32 951 0 0 56 0 0
34 948 0 0 61 0 0
36 958 0 0 50 0 0
38 956 0 0 56 0 0
40 953 0 0 53 0 0
42 937 0 0 71 0 0
44 950 0 0 58 0 0
46 948 0 0 54 0 0
48 939 0 0 66 0 0
50 941 0 0 64 0 0
52 941 0 0 56 13 0
54 940 0 0 47 16 0
56 946 0 2 36 20 0
58 939 0 6 36 20 0
60 937 0 9 38 22 0
62 933 0 11 38 21 0
64 927 0 13 38 28 0
66 918 0 15 41 30 0
68 906 0 15 46 34 0
70 907 0 21 38 25 0
72 906 0 25 36 30 0
74 899 0 29 38 37 0
76 893 0 33 41 31 0
78 897 0 41 35 25 0
80 895 0 44 27 33 0
82 885 0 44 35 39 0
84 877 0 48 35 40 0
86 882 0 52 23 44 0
88 886 0 56 17 44 0
90 881 0 66 17 41 0
92 867 0 68 29 41 0
94 862 0 74 30 34 0
96 862 0 76 28 38 0
98 862 0 79 26 42 0
100 857 0 79 26 40 0
102 850 0 83 29 43 0
104 856 0 91 22 33 0
106 843 0 95 33 34 0
108 839 0 97 32 36 0
110 840 0 102 31 32 0
112 843 0 104 23 35 0
114 837 0 110 29 41 0
116 834 0 114 28 40 0
118 829 0 117 32 42 0
120 831 0 123 27 42 0
122 830 0 123 26 42 0
124 827 0 131 27 40 0
126 817 0 134 34 45 0
128 812 0 136 36 42 0
130 810 0 142 35 33 0
132 812 0 142 30 33 0
134 806 0 149 33 24 0
136 808 0 154 29 28 0
138 800 0 154 34 31 0
140 802 0 157 26 24 0
142 799 0 161 26 28 0
144 794 0 163 31 25 0
146 796 0 166 27 27 0
148 795 0 168 26 23 0
150 795 0 167 24 38 0
152 794 0 167 24 34 0
154 786 0 173 29 31 0
156 786 0 175 24 31 0
158 792 0 173 15 40 0
160 785 0 176 22 32 0
162 783 0 182 23 26 0
164 776 0 183 28 34 0
166 777 0 183 25 31 0
168 775 0 182 22 40 0
170 765 0 185 29 39 0
172 770 0 190 22 38 0
174 763 0 195 23 43 0
176 759 0 194 25 48 0
178 752 0 198 28 44 0
180 753 0 201 23 40 0
182 755 0 205 20 36 0
184 754 0 210 19 41 0
186 742 0 211 31 36 0
188 738 0 210 32 43 0
190 741 0 217 28 45 0
192 741 0 220 23 42 0
194 739 0 220 23 51 0
196 723 0 229 33 47 0
198 727 0 232 25 50 0
200 729 0 240 16 48 0
