0 834 0 0 0 0 0
2 767 23 0 39 0 0
4.00004 776 4 0 46 0 4
6 764 6 0 57 0 6
8 778 6 0 43 0 5
10 758 1 0 65 0 14
12 751 0 0 71 0 13
14 747 0 0 74 0 19
16 742 1 0 77 0 12
18 752 0 0 65 0 16
20 740 0 0 87 0 12
22 746 0 0 82 0 21
24 745 0 0 84 0 16
26 734 0 0 97 0 14
28 733 0 0 84 0 23
30 737 0 0 85 0 23
32 745 0 0 96 0 15
34 742 0 0 83 0 20
36 745 0 0 80 0 22
38 745 0 0 80 0 21
40 746 0 0 64 0 29
42 745 0 0 75 0 16
44 751 0 0 66 0 18
46 741 0 0 87 0 15
48 745 0 0 78 0 15
50 735 0 0 92 0 17
52 742 0 1 44 56 1
54 727 0 9 46 71 0
56 711 0 19 46 70 0
58 706 0 27 45 74 0
60 699 0 32 41 78 0
62 695 0 43 34 83 0
64 684 0 49 30 86 0
66 665 0 61 40 86 0
68 653 0 70 37 80 0
70 645 0 83 33 84 0
72 625 0 89 44 82 0
74 620 0 94 38 92 0
76 602 0 102 40 84 0
78 600 0 114 40 74 0
80 594 0 127 36 77 0
82 584 0 139 41 73 0
84 583 0 146 31 85 0
86 572 0 157 27 84 0
88 562 0 174 26 93 0
90 547 0 185 30 88 0
92 541 0 186 27 94 1
94 536 0 209 24 77 0
96 521 0 213 34 72 0
98 513 0 230 26 83 0
100 504 0 239 32 71 0
102 504 0 239 25 79 0
104 491 0 250 34 67 0
106 492 0 258 26 84 0
108 481 0 264 25 84 0
110 480 0 270 17 88 0
112 471 0 282 21 92 0
114 453 0 284 32 89 0
116 452 0 290 25 88 0
118 441 0 301 28 95 0
120 439 0 308 22 91 0
122 431 0 318 25 88 0
124 424 0 323 27 86 0
126 421 0 331 20 91 0
128 413 0 341 23 92 0
130 413 0 348 17 86 0
132 401 0 361 25 86 0
134 392 0 360 27 88 0
136 391 0 376 18 85 0
138 391 0 383 16 80 0
140 387 0 377 13 87 0
142 377 0 378 18 106 0
144 370 0 381 22 101 0
146 367 0 389 20 96 0
148 368 0 386 15 104 0
150 359 0 393 21 101 0
152 348 0 396 26 112 0
154 351 0 405 13 103 0
156 356 0 411 6 101 0
158 346 0 417 14 95 0
160 340 0 420 18 95 0
162 335 0 428 19 99 0
164 328 0 439 22 86 0
166 326 0 426 17 106 0
168 326 0 434 14 100 0
170 320 0 444 16 108 0
172 313 0 446 19 102 0
174 317 0 454 14 96 0
176 311 0 470 15 88 0
178 314 0 480 7 83 0
180 305 0 484 15 76 0
182 303 0 481 14 85 1
184 293 0 474 22 98 0
186 282 0 473 27 97 0
188 290 0 486 13 87 0
190 284 0 486 17 94 0
192 277 0 491 15 92 0
194 267 0 502 19 87 0
196 264 0 498 11 102 0
198 263 0 505 8 101 0
200 255 0 514 14 111 0
