0 1038 0 0 0 0 0
2 1024 25 0 0 0 0
4.00004 1019 24 0 1 0 0
6 1011 29 0 0 0 0
8 1005 31 0 0 0 0
10 1013 25 0 0 0 0
12 1001 33 0 0 0 0
14 979 49 0 1 0 0
16 1002 32 0 3 0 0
18 998 35 0 3 0 0
20 995 40 0 1 0 0
22 996 35 0 1 0 0
24 1001 32 0 0 0 0
26 1004 25 0 3 0 0
28 1009 24 0 1 0 0
30 1001 34 0 0 0 0
32 1001 34 0 2 0 0
34 1002 39 0 2 0 0
36 1014 30 0 2 0 0
38 1012 32 0 0 0 0
40 1004 41 0 3 0 0
42 1010 36 0 2 0 0
44 1016 30 0 2 0 0
46 1018 29 0 0 0 0
48 1021 26 0 0 0 0
50 1017 28 0 0 0 0
52 821 0 224 0 0 0
54 729 1 311 1 3 0
56 667 0 381 0 0 0
58 604 0 445 1 0 0
60 550 0 498 0 1 0
62 479 1 571 0 0 0
64 439 0 617 0 1 0
66 391 0 666 1 1 0
68 345 0 710 0 1 0
70 305 0 751 0 1 0
72 272 0 780 1 2 0
74 246 0 810 0 2 0
76 226 0 834 1 0 0
78 195 0 866 1 1 0
80 179 0 886 1 1 0
82 149 0 909 2 1 0
84 126 1 926 0 1 0
86 111 0 942 1 2 0
88 106 0 950 0 1 0
90 96 0 954 0 1 0
92 92 0 956 1 1 0
94 78 0 969 1 1 0
96 72 0 971 2 2 0
98 62 0 977 0 0 0
100 54 0 986 0 1 0
102 51 0 991 0 1 0
104 48 0 997 0 1 0
106 42 0 999 1 0 0
108 41 0 995 1 1 0
110 40 0 995 1 0 0
112 36 0 1001 1 1 0
114 34 0 998 0 2 0
116 29 0 1004 0 0 0
118 23 0 1007 0 1 0
120 22 0 1007 3 0 0
122 25 0 1005 1 0 0
124 20 0 1014 0 0 0
126 21 0 1010 0 0 0
128 17 0 1014 1 0 0
130 19 0 1014 0 0 0
132 16 1 1016 0 0 0
134 16 0 1016 0 1 0
136 16 0 1016 1 1 0
138 18 0 1020 0 2 0
140 15 0 1021 0 0 0
142 10 0 1024 1 2 0
144 10 0 1027 0 0 0
146 11 0 1030 0 0 0
148 8 0 1031 0 0 0
150 9 0 1032 0 1 0
152 10 0 1034 0 1 0
154 8 0 1035 0 2 0
156 6 0 1034 0 3 0
158 5 0 1038 1 2 0
160 5 0 1039 0 3 0
162 7 0 1034 0 2 0
164 4 0 1034 1 0 0
166 5 0 1032 0 0 0
168 8 0 1030 0 0 0
170 6 0 1029 0 4 0
172 6 0 1032 0 1 0
174 4 0 1035 0 0 0
176 5 0 1033 0 0 0
178 4 0 1033 0 0 0
180 3 0 1029 0 1 0
182 6 0 1027 1 2 0
184 2 0 1031 2 0 0
186 4 0 1025 0 2 0
188 4 0 1027 0 0 0
190 3 0 1028 0 1 0
192 3 0 1030 1 1 0
194 3 0 1030 0 1 0
196 4 0 1030 0 1 0
198 3 0 1030 0 0 0
200 1 0 1028 0 1 0
