0 862 0 0 0 0 0
2 858 0 0 3 0 0
4.00004 856 0 0 2 0 0
6 859 0 0 3 0 0
8 869 0 0 4 0 0
10 865 0 0 6 0 0
12 865 0 0 1 0 0
14 863 0 0 1 0 0
16 856 0 0 4 0 0
18 860 0 0 6 0 0
20 859 0 0 1 0 0
22 855 0 0 4 0 0
24 857 0 0 2 0 0
26 861 0 0 0 0 0
28 853 0 0 1 0 0
30 852 0 0 2 0 0
32 856 0 0 0 0 0
34 856 0 0 1 0 0
36 856 0 0 2 0 0
38 856 0 0 0 0 0
40 855 0 0 0 0 0
42 856 0 0 1 0 0
44 861 0 0 2 0 0
46 861 0 0 0 0 0
48 861 0 0 0 0 0
50 857 0 0 2 0 0
52 852 0 5 0 3 0
54 842 0 14 0 0 0
56 831 0 16 4 1 0
58 828 0 27 1 0 0
60 821 0 34 1 0 0
62 817 0 36 0 2 0
64 811 0 50 1 1 0
66 804 0 53 2 4 0
68 799 0 64 1 0 0
70 797 0 76 0 1 0
72 790 0 80 3 1 0
74 784 0 90 2 1 0
76 778 0 100 1 0 0
78 776 0 103 1 2 0
80 774 0 109 0 1 0
82 771 0 116 1 1 0
84 768 0 123 2 0 0
86 764 0 130 2 0 0
88 761 0 137 0 0 0
90 753 0 140 2 0 0
92 749 0 143 0 0 0
94 741 0 146 2 1 0
96 740 0 152 1 0 0
98 739 0 158 0 0 0
100 731 0 164 1 3 0
102 724 0 170 1 2 0
104 714 0 184 0 0 0
106 712 0 190 0 1 0
108 705 0 194 0 0 0
110 701 0 195 1 3 0
112 699 0 201 1 4 0
114 692 0 213 0 0 0
116 684 0 218 1 1 0
118 679 0 223 3 2 0
120 676 0 228 1 1 0
122 675 0 238 2 2 0
124 674 0 241 1 0 0
126 669 0 248 0 1 0
128 663 0 247 0 1 0
130 658 0 251 2 0 0
132 655 0 255 1 1 0
134 652 0 256 0 0 0
136 648 0 260 1 0 0
138 647 0 267 0 1 0
140 642 0 268 2 2 0
142 639 0 272 0 0 0
144 632 0 275 0 1 0
146 626 0 281 1 0 0
148 623 0 285 0 1 0
150 617 0 287 0 2 0
152 612 0 297 0 1 0
154 608 0 300 3 0 0
156 605 0 302 0 0 0
158 598 0 303 1 2 0
160 594 0 308 1 0 0
162 588 0 307 0 0 0
164 582 0 312 1 0 0
166 580 0 318 0 2 0
168 573 0 320 1 0 0
170 568 0 323 2 0 0
172 567 0 323 0 0 0
174 562 0 327 0 0 0
176 561 0 331 0 0 0
178 556 0 334 1 1 0
180 554 0 337 0 1 0
182 550 0 340 1 2 0
184 548 0 345 2 0 0
186 544 0 345 3 1 0
188 541 0 351 1 1 0
190 540 0 358 1 0 0
192 535 0 366 0 1 0
194 529 0 367 1 1 0
196 527 0 374 0 0 0
198 523 0 379 0 0 0
200 521 0 383 0 1 0
