0 948 0 0 0 0 0
2 924 24 0 0 0 0
4.00004 912 33 0 1 0 0
6 915 36 0 0 0 0
8 928 24 0 2 0 0
10 925 29 0 3 0 0
12 922 33 0 0 0 0
14 910 41 0 1 0 0
16 913 38 0 2 0 0
18 912 43 0 0 0 0
20 911 41 0 4 0 0
22 918 37 0 0 0 0
24 927 29 0 1 0 0
26 919 36 0 1 0 0
28 910 39 0 3 0 0
30 912 36 0 3 0 0
32 913 35 0 7 0 0
34 913 37 0 0 0 0
36 920 31 0 1 0 0
38 912 37 0 2 0 0
40 927 22 0 2 0 0
42 906 38 0 2 0 0
44 904 40 0 0 0 0
46 903 39 0 2 0 0
48 907 27 0 3 0 0
50 897 40 0 3 0 0
52 702 3 234 2 0 0
54 598 0 337 0 2 0
56 547 0 386 1 0 0
58 499 0 437 0 1 0
60 459 1 476 0 2 0
62 414 0 526 0 2 0
64 373 0 571 0 0 0
66 342 0 599 1 1 0
68 318 0 627 0 2 0
70 287 0 660 0 2 0
72 264 1 675 0 3 0
74 242 0 698 0 2 0
76 221 0 722 0 1 0
78 198 0 743 0 0 0
80 179 0 764 1 0 0
82 162 0 779 0 1 0
84 155 0 786 2 4 0
86 139 0 807 2 0 0
88 127 0 820 2 1 0
90 119 0 831 0 1 0
92 112 0 842 0 1 0
94 100 1 848 0 1 0
96 92 0 859 0 1 0
98 83 0 866 0 2 0
100 78 0 869 0 0 0
102 68 0 880 0 1 0
104 64 0 885 1 1 0
106 58 0 887 0 2 0
108 51 0 897 0 0 0
110 48 0 897 2 0 0
112 46 0 900 0 1 0
114 40 0 907 0 1 0
116 36 0 906 0 0 0
118 32 0 904 1 0 0
120 29 0 906 0 1 0
122 25 0 911 1 0 0
124 31 0 901 0 1 0
126 23 0 908 0 1 0
128 25 0 906 0 1 0
130 25 0 905 0 0 0
132 23 0 906 0 4 0
134 15 0 918 0 2 0
136 16 0 918 0 0 0
138 11 0 921 0 2 0
140 14 0 917 2 2 0
142 14 0 923 0 0 0
144 9 0 924 0 2 0
146 7 0 918 0 1 0
148 7 0 910 0 1 0
150 9 0 907 1 1 0
152 8 0 903 1 3 0
154 9 0 905 2 1 0
156 10 0 906 0 1 0
158 10 0 906 1 1 0
160 13 0 909 0 1 0
162 6 0 916 0 2 0
164 5 0 915 1 2 0
166 6 0 913 0 0 0
168 3 0 913 0 0 0
170 4 0 914 0 2 0
172 1 0 920 1 0 0
174 4 0 919 0 2 0
176 2 0 916 0 1 0
178 4 0 911 1 2 0
180 2 0 907 0 0 0
182 1 0 907 0 1 0
184 3 0 906 0 1 0
186 5 0 908 0 1 0
188 6 0 904 0 2 0
190 6 0 908 0 1 0
192 4 0 911 1 1 0
194 3 0 908 0 4 0
196 1 0 913 2 1 0
198 4 0 909 0 1 0
200 1 0 913 0 1 0
