0 708 0 0 0 0 0
2 709 0 0 1 0 0
4.00004 711 0 0 0 0 0
6 715 0 0 2 0 0
8 722 0 0 0 0 0
10 720 0 0 2 0 0
12 727 0 0 1 0 0
14 725 0 0 2 0 0
16 724 0 0 1 0 0
18 723 0 0 0 0 0
20 724 0 0 1 0 0
22 729 0 0 0 0 0
24 725 0 0 3 0 0
26 724 0 0 4 0 0
28 729 0 0 1 0 0
30 729 0 0 1 0 0
32 727 0 0 4 0 0
34 730 0 0 1 0 0
36 732 0 0 2 0 0
38 730 0 0 1 0 0
40 730 0 0 2 0 0
42 733 0 0 1 0 0
44 737 0 0 0 0 0
46 736 0 0 1 0 0
48 740 0 0 0 0 0
50 740 0 0 3 0 0
52 737 0 5 2 1 0
54 728 0 12 1 1 0
56 722 0 18 0 1 0
58 715 0 30 0 1 0
60 708 0 34 0 0 0
62 703 0 42 1 0 0
64 699 0 46 0 1 0
66 697 0 54 0 1 0
68 693 0 61 0 0 0
70 684 0 67 2 0 0
72 685 0 71 0 1 0
74 681 0 76 1 0 0
76 677 0 79 2 1 0
78 676 0 89 1 0 0
80 674 0 99 1 0 0
82 668 0 105 1 1 0
84 663 0 116 1 1 0
86 655 0 117 2 1 0
88 649 0 119 2 1 0
90 648 0 123 0 0 0
92 645 0 131 0 0 0
94 640 0 136 0 0 0
96 637 0 140 0 0 0
98 634 0 150 1 0 0
100 633 0 155 0 0 0
102 629 0 162 1 0 0
104 626 0 172 0 0 0
106 618 0 175 1 1 0
108 612 0 184 0 2 0
110 610 0 189 0 2 0
112 599 0 198 2 0 0
114 597 0 202 0 0 0
116 589 0 207 0 1 0
118 585 0 209 0 1 0
120 578 0 217 2 0 0
122 574 0 224 1 1 0
124 570 0 229 0 2 0
126 565 0 230 0 4 0
128 559 0 235 0 0 0
130 553 0 236 1 1 0
132 546 0 241 2 0 0
134 546 0 255 0 0 0
136 541 0 257 0 0 0
138 536 0 266 3 0 0
140 536 0 265 0 1 0
142 530 0 270 0 2 0
144 524 0 274 0 2 0
146 517 0 280 3 1 0
148 515 0 284 1 3 0
150 513 0 291 0 0 0
152 509 0 289 0 2 0
154 507 0 289 1 2 0
156 507 0 289 0 1 0
158 503 0 286 0 1 0
160 500 0 290 0 1 0
162 496 0 290 1 0 0
164 496 0 295 0 3 0
166 489 0 303 0 2 0
168 486 0 308 0 1 0
170 479 0 314 3 4 0
172 479 0 319 1 1 0
174 478 0 317 0 1 0
176 473 0 322 1 2 0
178 470 0 332 2 1 0
180 468 0 335 0 0 0
182 464 0 341 1 1 0
184 460 0 343 0 1 0
186 458 0 344 1 1 0
188 454 0 354 2 1 0
190 453 0 360 0 0 0
192 447 0 364 1 1 0
194 440 0 373 2 0 0
196 436 0 376 1 0 0
198 434 0 382 0 2 0
200 432 0 385 0 1 0
