0 120 0 0 0
2 120 0 0 0
4.00004 119 0 0 0
6 119 0 0 0
8 119 0 0 0
10 120 0 0 0
12 105 15 0 0
14 91 29 0 0
16 87 33 0 0
18 82 37 0 0
20 76 43 0 0
22 72 46 0 1
24 66 52 0 1
26 60 58 0 0
28 57 60 1 0
30 49 68 0 0
32 46 71 0 0
34 39 78 0 0
36 32 85 0 0
38 27 90 0 0
40 27 89 0 0
42 25 90 1 0
44 24 92 0 0
46 23 93 0 0
48 21 95 0 0
50 18 97 0 0
52 18 97 0 0
54 16 99 0 0
56 17 99 0 0
58 15 102 0 0
60 14 103 0 0
62 11 106 0 0
64 10 107 0 0
66 10 106 0 1
68 10 107 0 0
70 9 107 0 1
72 9 107 0 0
74 9 106 0 0
76 9 106 0 0
78 9 106 0 0
80 10 105 0 1
82 8 108 0 0
84 7 108 0 0
86 6 108 0 0
88 5 109 0 0
90 5 109 0 0
92 5 109 0 0
94 4 111 0 0
96 4 112 0 0
98 4 112 0 0
100 5 112 0 0
102 4 113 0 0
104 4 112 0 1
106 3 115 0 0
108 2 116 0 0
110 2 115 0 0
112 2 115 0 0
114 2 115 0 0
116 2 115 0 0
118 2 115 0 0
120 2 114 0 1
122 2 115 0 0
124 1 116 0 0
126 1 116 0 0
128 1 116 0 0
130 1 115 0 0
132 1 115 0 0
134 2 115 0 0
136 3 114 0 0
138 2 115 0 0
140 1 116 0 0
142 1 115 0 0
144 1 114 0 0
146 1 114 0 0
148 1 114 0 0
150 1 114 0 0
152 1 113 0 0
154 1 113 0 0
156 1 113 0 0
158 1 113 0 0
160 1 111 0 2
162 1 112 0 0
164 2 112 0 0
166 2 112 0 0
168 2 112 0 0
170 2 112 0 0
172 2 113 0 0
174 1 113 0 0
176 2 113 0 0
178 1 114 0 0
180 1 114 0 1
182 1 114 0 1
184 1 114 0 0
186 3 113 0 0
188 3 112 0 0
190 2 113 0 0
192 2 112 0 0
194 1 113 0 0
196 2 112 0 0
198 2 113 0 0
200 2 112 0 1
202 2 112 0 0
204 2 112 0 0
206 2 112 0 0
208 2 112 0 0
210 2 111 0 1
