0 51 0 0 0
2 52 0 0 0
4.00004 51 0 0 0
6 51 0 0 0
8 51 0 0 0
10 51 0 0 0
12 51 0 0 0
14 50 0 0 0
16 50 0 0 0
18 50 0 0 0
20 50 0 0 0
22 50 0 0 0
24 50 1 0 0
26 50 1 0 0
28 50 1 0 0
30 49 1 0 0
32 49 1 0 0
34 49 1 0 0
36 49 1 0 0
38 48 1 1 0
40 49 1 0 0
42 49 1 0 1
44 49 1 0 0
46 48 3 0 0
48 47 5 1 0
50 47 5 0 1
52 47 5 0 0
54 46 5 1 0
56 47 6 0 0
58 43 6 1 0
60 44 6 0 0
62 44 6 0 0
64 43 6 0 0
66 43 5 0 0
68 43 6 0 0
70 42 6 0 0
72 40 6 1 0
74 40 6 0 0
76 40 6 0 0
78 40 6 0 0
80 40 5 0 0
82 39 5 0 0
84 39 5 0 0
86 39 5 0 0
88 38 5 0 0
90 38 6 0 0
92 37 6 0 0
94 37 6 0 0
96 37 6 0 0
98 37 7 0 0
100 37 7 0 0
102 37 7 0 0
104 37 7 0 1
106 37 9 0 0
108 37 9 0 0
110 37 10 0 0
112 36 10 0 0
114 36 10 0 0
116 36 8 0 2
118 36 10 0 0
120 36 10 0 1
122 36 9 0 0
124 36 9 0 0
126 36 9 0 0
128 36 10 0 0
130 35 10 1 0
132 36 10 0 0
134 36 10 0 0
136 36 10 0 0
138 36 10 0 0
140 35 10 1 0
142 36 10 0 0
144 35 10 0 0
146 36 10 0 1
148 36 12 0 0
150 36 12 0 0
152 36 12 0 0
154 36 11 0 1
156 36 12 0 0
158 36 12 0 0
160 36 12 0 0
162 35 12 0 0
164 35 12 0 0
166 35 12 0 0
168 35 12 0 0
170 35 12 0 0
172 35 12 0 0
174 34 12 0 0
176 34 12 0 0
178 34 12 0 0
180 34 12 0 0
182 33 12 1 0
184 33 12 0 0
186 33 12 0 0
188 33 12 0 0
190 33 13 0 0
192 33 13 0 0
194 33 14 0 0
196 33 14 0 0
198 33 14 0 0
200 33 15 0 0
202 32 15 1 0
204 33 15 0 0
206 33 14 0 1
208 33 15 0 0
210 33 14 0 0
