0 107 0 0 0
2 106 0 0 0
4.00004 105 0 1 0
6 106 0 0 0
8 104 0 1 0
10 103 0 0 0
12 92 11 0 0
14 82 23 0 0
16 72 33 0 0
18 65 41 0 0
20 59 47 0 0
22 50 56 0 0
24 44 61 2 0
26 43 63 0 0
28 38 68 0 0
30 34 72 0 0
32 27 79 0 0
34 24 82 0 0
36 22 84 0 0
38 18 88 0 0
40 17 90 0 0
42 17 90 0 0
44 15 92 0 0
46 10 97 0 0
48 9 96 0 1
50 10 96 0 0
52 11 96 0 0
54 9 98 0 0
56 9 97 0 0
58 8 98 0 0
60 6 99 0 1
62 5 100 0 0
64 3 102 0 0
66 2 102 0 0
68 2 102 0 0
70 2 101 0 0
72 2 100 0 0
74 2 100 0 0
76 1 100 0 1
78 1 100 0 0
80 1 100 0 0
82 1 100 0 0
84 1 100 0 0
86 2 100 0 0
88 1 101 0 0
90 1 101 0 0
92 1 101 0 0
94 1 101 0 0
96 1 101 0 0
98 0 101 0 0
100 0 101 0 0
102 0 101 0 0
104 0 100 0 0
106 0 100 0 0
108 0 100 0 0
110 0 100 0 0
112 0 100 0 0
114 0 100 0 0
116 0 101 0 0
118 0 101 0 0
120 0 101 0 0
122 0 100 0 0
124 0 100 0 0
126 1 100 0 0
128 1 98 0 1
130 1 99 0 0
132 1 98 0 0
134 1 98 0 0
136 1 98 0 0
138 1 98 0 0
140 1 98 0 0
142 2 98 0 0
144 2 98 1 0
146 3 98 0 0
148 3 98 0 0
150 3 98 0 0
152 3 97 0 0
154 2 99 0 0
156 0 100 0 1
158 0 102 0 1
160 0 103 0 0
162 0 103 0 0
164 0 103 0 0
166 0 103 0 0
168 0 102 0 1
170 0 101 0 0
172 0 101 0 0
174 2 101 0 0
176 1 102 0 0
178 0 103 0 0
180 0 103 0 0
182 0 103 0 0
184 0 103 0 0
186 0 102 0 0
188 0 100 0 1
190 0 101 0 0
192 0 101 0 0
194 0 100 0 0
196 0 100 0 0
198 0 100 0 0
200 0 100 0 0
202 0 99 0 1
204 0 100 0 0
206 1 100 0 0
208 0 100 0 1
210 1 99 0 1
