0 113 0 0 0
2 113 0 0 0
4.00004 113 0 0 0
6 112 0 0 0
8 112 0 0 0
10 114 0 0 0
12 98 15 1 0
14 89 25 0 0
16 80 34 0 0
18 72 42 0 0
20 67 47 0 0
22 60 53 0 0
24 56 57 0 0
26 52 61 0 0
28 48 64 0 0
30 45 67 0 0
32 42 71 0 0
34 40 73 0 0
36 36 77 0 0
38 32 81 0 0
40 30 82 0 1
42 26 87 0 0
44 23 90 0 0
46 21 92 0 0
48 19 96 0 0
50 17 98 0 0
52 15 100 0 0
54 15 100 0 0
56 15 101 0 0
58 14 101 0 0
60 12 103 0 0
62 11 104 0 0
64 11 104 0 0
66 9 107 0 0
68 9 107 1 0
70 8 109 0 0
72 7 110 0 0
74 6 111 0 0
76 6 111 1 0
78 8 111 0 0
80 8 111 0 0
82 5 114 0 0
84 5 114 0 0
86 5 114 0 0
88 5 114 0 0
90 4 114 0 0
92 5 114 0 0
94 5 114 0 0
96 5 115 0 0
98 5 115 0 0
100 5 116 0 0
102 5 117 0 0
104 6 117 0 0
106 5 117 0 0
108 3 118 0 1
110 3 119 0 0
112 3 119 0 0
114 2 120 0 0
116 3 120 0 0
118 3 119 0 0
120 3 119 0 0
122 3 119 0 0
124 1 121 0 0
126 1 121 0 0
128 1 120 0 1
130 0 122 0 0
132 0 121 0 1
134 0 121 0 0
136 0 121 0 0
138 0 121 0 0
140 0 121 0 0
142 0 121 0 0
144 0 121 0 0
146 0 121 0 0
148 0 121 0 0
150 0 121 0 0
152 0 119 0 2
154 0 119 0 0
156 0 119 0 0
158 0 119 0 0
160 0 119 0 0
162 0 118 0 0
164 0 118 0 0
166 0 118 0 0
168 0 118 0 0
170 0 116 0 0
172 0 117 0 0
174 0 117 0 0
176 0 117 0 0
178 1 117 0 0
180 2 117 0 0
182 2 117 0 0
184 1 118 0 0
186 1 118 0 0
188 1 118 0 0
190 1 118 0 0
192 1 118 0 0
194 1 118 0 0
196 1 117 0 0
198 2 117 0 0
200 3 117 0 0
202 3 115 0 0
204 3 115 0 0
206 4 113 0 1
208 6 114 0 0
210 6 114 0 0
