0 1394 0 0 0 0
2 1387 5 0 5 0
4.00004 1388 11 0 2 0
6 1383 12 0 5 0
8 1391 8 0 2 0
10 1390 9 0 5 0
12 1386 7 0 2 0
14 1385 6 0 3 0
16 1385 9 0 1 0
18 1377 7 0 3 0
20 1367 14 0 2 0
22 1367 8 0 3 0
24 1366 11 0 9 0
26 1372 7 0 2 0
28 1375 11 0 0 0
30 1372 13 0 3 0
32 1383 7 0 2 0
34 1383 7 0 3 0
36 1378 5 0 2 0
38 1366 14 0 5 0
40 1374 8 0 2 0
42 1371 8 0 4 0
44 1365 8 0 2 0
46 1363 6 0 2 0
48 1360 14 0 4 0
50 1361 11 0 4 0
52 1147 0 229 0 0
54 1034 3 338 3 0
56 931 1 442 3 0
58 810 0 564 1 1
60 725 0 648 1 2
62 642 1 732 1 0
64 572 0 796 1 2
66 492 1 876 2 2
68 450 1 927 0 0
70 411 0 974 4 0
72 371 0 1017 2 3
74 316 0 1074 2 0
76 291 0 1097 2 1
78 265 0 1125 3 0
80 246 0 1134 1 5
82 222 0 1168 1 1
84 204 0 1190 1 1
86 192 0 1209 0 5
88 176 0 1220 1 1
90 156 0 1242 2 2
92 144 0 1253 1 2
94 123 0 1267 0 6
96 114 1 1283 2 2
98 111 0 1287 1 3
100 104 0 1294 1 1
102 99 0 1296 1 3
104 96 0 1306 0 5
106 94 0 1308 1 4
108 90 1 1313 1 2
110 87 1 1313 1 3
112 78 0 1329 0 3
114 72 0 1343 0 2
116 67 0 1353 1 0
118 73 0 1345 2 3
120 68 0 1348 0 3
122 67 1 1347 2 5
124 62 0 1353 0 1
126 61 0 1356 2 3
128 57 0 1356 2 2
130 59 0 1354 0 6
132 59 0 1356 0 2
134 59 0 1359 0 2
136 52 0 1359 0 5
138 45 0 1366 1 2
140 44 0 1361 0 3
142 45 0 1355 0 2
144 45 0 1353 0 2
146 43 0 1360 1 2
148 36 0 1362 0 4
150 41 0 1362 0 4
152 43 0 1363 0 2
154 41 0 1364 1 1
156 43 0 1357 1 1
158 44 0 1349 1 2
160 43 0 1351 0 5
162 42 0 1353 1 4
164 41 0 1353 0 2
166 37 0 1350 0 3
168 33 0 1353 0 2
170 32 0 1357 0 2
172 31 0 1358 1 3
174 29 0 1361 1 4
176 33 0 1361 0 1
178 34 0 1362 0 1
180 33 0 1367 1 2
182 31 0 1373 0 2
184 30 0 1368 0 4
186 28 0 1372 0 4
188 22 0 1376 0 4
190 21 0 1380 1 1
192 23 0 1373 0 3
194 20 0 1371 0 3
196 25 0 1367 0 0
198 26 0 1368 0 3
200 28 0 1368 1 6
