0 1342 0 0 0 0
2 1310 13 0 8 0
4.00004 1320 11 0 5 0
6 1312 13 0 7 0
8 1317 12 0 5 0
10 1317 11 0 9 0
12 1321 12 0 1 0
14 1332 2 0 8 0
16 1325 7 0 4 0
18 1312 10 0 6 0
20 1306 8 0 5 0
22 1309 9 0 4 0
24 1319 4 0 6 0
26 1316 6 0 4 0
28 1307 7 0 2 0
30 1300 5 0 4 0
32 1296 11 0 7 0
34 1297 7 0 4 0
36 1293 13 0 3 0
38 1300 8 0 3 0
40 1300 5 0 8 0
42 1298 4 0 6 0
44 1296 5 0 2 0
46 1288 9 0 8 0
48 1292 11 0 5 0
50 1290 9 0 5 0
52 1115 0 191 3 1
54 967 0 335 4 0
56 854 1 439 8 3
58 748 0 556 2 1
60 658 0 645 3 0
62 581 0 712 2 2
64 516 1 773 1 3
66 459 0 838 4 0
68 394 0 900 2 1
70 360 0 937 3 1
72 329 0 970 1 5
74 295 0 1012 0 2
76 252 0 1042 0 5
78 214 0 1075 4 4
80 181 0 1108 5 3
82 180 0 1124 5 3
84 172 0 1142 4 0
86 144 0 1156 0 4
88 140 0 1170 2 4
90 121 0 1186 4 1
92 106 0 1198 0 0
94 94 0 1204 2 6
96 87 0 1214 0 3
98 83 0 1215 1 5
100 71 0 1223 2 4
102 68 0 1226 2 3
104 61 0 1225 2 4
106 63 1 1226 2 5
108 59 0 1228 0 3
110 54 0 1234 1 3
112 58 1 1230 0 6
114 52 0 1235 0 3
116 48 0 1235 2 4
118 51 0 1242 0 6
120 53 0 1250 1 3
122 54 0 1258 1 2
124 53 0 1257 2 2
126 59 0 1250 2 3
128 55 0 1249 1 2
130 53 0 1258 0 2
132 51 0 1264 2 4
134 55 0 1255 0 2
136 60 0 1255 0 2
138 61 0 1254 0 5
140 57 0 1256 0 5
142 52 0 1259 1 7
144 49 0 1251 0 6
146 45 0 1253 0 4
148 47 0 1255 1 7
150 46 0 1257 0 7
152 38 0 1266 0 3
154 33 0 1270 1 2
156 37 0 1266 0 4
158 39 0 1275 1 2
160 41 0 1273 1 6
162 43 0 1275 2 6
164 41 0 1268 1 6
166 40 0 1273 1 3
168 38 0 1274 0 2
170 36 0 1283 0 4
172 33 0 1282 1 4
174 37 0 1278 2 2
176 35 0 1280 0 4
178 35 0 1279 0 2
180 35 0 1279 1 3
182 40 0 1291 1 2
184 38 0 1285 1 5
186 37 0 1289 0 2
188 31 0 1289 1 4
190 36 0 1284 0 4
192 29 0 1285 0 6
194 28 0 1277 1 10
196 32 0 1286 1 4
198 33 0 1288 0 4
200 30 0 1291 0 3
