0 1380 0 0 0 0
2 1368 12 0 2 0
4.00004 1364 11 0 3 0
6 1356 16 0 5 0
8 1360 15 0 5 0
10 1356 11 0 3 0
12 1351 8 0 2 0
14 1356 5 0 4 0
16 1359 6 0 4 0
18 1356 9 0 6 0
20 1365 5 0 4 0
22 1368 5 0 5 0
24 1366 13 0 3 0
26 1361 14 0 3 0
28 1363 13 0 3 0
30 1366 16 0 4 0
32 1376 9 0 4 0
34 1385 4 0 4 0
36 1378 6 0 9 0
38 1370 14 0 2 0
40 1371 10 0 4 0
42 1369 13 0 1 0
44 1368 9 0 5 0
46 1372 6 0 6 0
48 1378 6 0 3 0
50 1362 12 0 0 0
52 1134 0 233 1 0
54 974 2 385 5 1
56 865 0 502 8 0
58 763 0 601 2 2
60 674 0 691 2 1
62 599 0 765 2 5
64 531 0 841 2 1
66 459 0 908 0 1
68 408 1 963 0 1
70 371 0 996 2 3
72 329 0 1038 2 4
74 295 1 1077 2 1
76 260 0 1106 1 3
78 232 0 1136 2 3
80 212 0 1153 0 3
82 186 0 1179 0 1
84 163 1 1199 0 3
86 147 0 1211 2 3
88 131 0 1229 1 1
90 123 0 1241 2 1
92 117 0 1245 0 3
94 106 0 1248 2 3
96 103 0 1255 0 2
98 94 0 1254 4 6
100 91 1 1259 1 2
102 79 0 1268 0 4
104 82 0 1269 1 3
106 77 1 1276 1 2
108 77 0 1273 0 2
110 78 0 1271 1 4
112 82 0 1263 0 5
114 75 0 1270 0 1
116 67 1 1276 1 2
118 58 1 1282 1 3
120 54 0 1282 1 6
122 49 0 1285 0 3
124 44 0 1289 2 3
126 44 0 1290 1 3
128 46 0 1290 0 1
130 51 0 1288 0 0
132 55 0 1281 0 4
134 51 0 1293 2 0
136 50 0 1288 0 3
138 49 0 1291 0 2
140 44 0 1295 0 3
142 43 0 1298 0 3
144 41 0 1302 0 1
146 45 0 1306 0 5
148 48 0 1298 2 1
150 49 0 1297 0 3
152 44 0 1303 0 2
154 42 0 1303 0 4
156 37 0 1298 0 7
158 39 0 1293 0 6
160 37 0 1288 2 3
162 36 0 1284 0 3
164 42 0 1275 0 5
166 37 0 1275 1 4
168 43 0 1263 0 7
170 39 0 1261 2 6
172 35 0 1270 0 3
174 34 0 1275 1 3
176 32 0 1271 0 4
178 34 0 1278 1 2
180 34 0 1288 0 1
182 30 0 1290 0 0
184 32 0 1286 0 4
186 35 0 1284 1 1
188 34 0 1279 0 2
190 33 0 1274 0 6
192 29 0 1278 2 1
194 28 0 1277 0 5
196 24 0 1277 0 2
198 24 0 1281 0 1
200 25 0 1281 0 3
