0 1306 0 0 0 0
2 1283 12 0 25 0
4.00004 1303 14 0 18 0
6 1318 9 0 22 0
8 1333 8 0 23 0
10 1318 10 0 24 0
12 1319 12 0 16 0
14 1319 12 0 25 0
16 1320 13 0 22 0
18 1312 7 0 21 0
20 1319 9 0 15 0
22 1323 6 0 25 0
24 1324 9 0 20 0
26 1320 9 0 16 0
28 1328 6 0 25 0
30 1333 7 0 17 0
32 1338 10 0 24 0
34 1340 7 0 24 0
36 1334 10 0 32 0
38 1351 5 0 17 0
40 1335 12 0 17 0
42 1332 11 0 17 0
44 1325 12 0 22 0
46 1335 8 0 22 0
48 1333 11 0 17 0
50 1333 9 0 20 0
52 1141 0 188 19 3
54 995 1 338 20 1
56 904 1 431 13 7
58 772 2 548 22 2
60 692 0 620 19 6
62 646 0 682 9 4
64 574 0 756 13 9
66 513 0 809 12 3
68 480 0 841 8 10
70 445 0 858 11 7
72 398 0 906 6 10
74 354 0 949 8 11
76 320 0 983 12 13
78 300 0 1014 7 14
80 269 0 1040 10 14
82 260 0 1051 6 14
84 237 0 1059 6 24
86 217 0 1096 9 14
88 202 0 1110 7 20
90 197 1 1134 9 8
92 191 0 1141 7 14
94 191 0 1144 3 21
96 174 0 1140 6 25
98 155 0 1156 2 16
100 147 0 1160 6 16
102 146 0 1166 4 17
104 139 0 1169 2 11
106 139 0 1160 3 20
108 135 0 1187 3 14
110 127 0 1199 3 19
112 114 1 1209 3 25
114 106 0 1215 4 20
116 98 1 1213 4 17
118 87 0 1221 5 17
120 77 0 1236 2 16
122 74 0 1223 1 16
124 68 0 1235 1 20
126 61 0 1238 0 24
128 58 0 1251 2 15
130 56 0 1249 1 12
132 52 0 1259 3 21
134 53 0 1246 2 20
136 59 0 1255 2 18
138 49 0 1248 2 27
140 47 0 1263 2 16
142 41 0 1271 1 20
144 36 0 1283 2 12
146 37 0 1278 2 21
148 44 0 1271 0 25
150 37 0 1285 1 22
152 31 0 1288 2 19
154 28 0 1283 0 26
156 27 1 1287 2 20
158 20 0 1296 2 15
160 20 0 1313 0 13
162 19 0 1307 2 24
164 17 0 1320 0 21
166 17 0 1322 0 25
168 16 0 1321 0 15
170 17 0 1313 1 21
172 17 0 1318 0 15
174 13 0 1303 0 22
176 12 0 1286 1 28
178 15 0 1301 0 25
180 15 0 1304 2 16
182 17 0 1300 0 18
184 16 0 1299 0 20
186 10 0 1289 0 18
188 8 0 1304 0 22
190 11 0 1301 0 21
192 10 0 1298 0 22
194 9 0 1307 0 19
196 6 0 1303 0 21
198 7 0 1285 1 19
200 8 0 1291 0 15
