0 1377 0 0 0 0
2 1353 11 0 19 0
4.00004 1341 11 0 16 0
6 1332 7 0 23 0
8 1315 11 0 21 0
10 1303 14 0 16 0
12 1309 13 0 13 0
14 1317 7 0 12 0
16 1307 11 0 21 0
18 1318 9 0 13 0
20 1309 10 0 16 0
22 1316 6 0 24 0
24 1316 10 0 19 0
26 1321 9 0 14 0
28 1313 7 0 11 0
30 1303 11 0 21 0
32 1311 9 0 18 0
34 1312 9 0 23 0
36 1310 8 0 15 0
38 1315 6 0 13 0
40 1299 12 0 18 0
42 1303 13 0 16 0
44 1289 10 0 19 0
46 1290 8 0 19 0
48 1307 10 0 16 0
50 1299 11 0 23 0
52 1108 1 203 16 1
54 984 0 323 15 1
56 862 0 446 7 4
58 764 0 544 12 5
60 676 0 631 20 6
62 611 0 703 13 5
64 533 0 789 12 6
66 498 0 822 10 6
68 445 0 877 11 3
70 406 1 898 8 11
72 367 0 963 9 6
74 328 0 1002 9 13
76 303 0 1034 10 10
78 284 0 1043 5 17
80 263 0 1068 3 16
82 241 0 1082 4 20
84 232 0 1105 5 12
86 217 0 1119 5 14
88 212 0 1135 3 6
90 193 0 1148 6 13
92 179 0 1159 3 16
94 159 0 1176 7 11
96 150 0 1187 4 12
98 138 2 1194 3 10
100 130 0 1210 5 12
102 117 0 1216 3 16
104 114 0 1199 3 25
106 114 0 1215 1 12
108 109 0 1211 2 15
110 93 0 1224 4 12
112 91 0 1232 1 14
114 80 0 1239 2 19
116 74 0 1226 3 18
118 72 0 1233 3 17
120 69 0 1236 2 21
122 65 0 1263 4 13
124 68 0 1256 3 17
126 68 0 1246 1 19
128 60 0 1252 4 13
130 59 0 1267 2 11
132 54 0 1265 2 19
134 58 0 1269 1 19
136 60 0 1270 2 13
138 48 0 1281 1 20
140 39 0 1277 3 14
142 34 0 1278 2 18
144 30 0 1284 2 18
146 30 0 1298 3 24
148 25 0 1311 1 11
150 22 0 1298 0 17
152 21 0 1301 0 14
154 20 0 1283 1 20
156 16 0 1282 2 15
158 19 0 1287 1 11
160 21 0 1281 0 24
162 20 0 1287 1 11
164 23 0 1257 1 21
166 21 0 1277 1 12
168 20 0 1290 0 17
170 16 0 1288 0 22
172 15 0 1291 1 21
174 13 0 1300 1 19
176 17 0 1289 1 21
178 13 0 1278 0 15
180 9 0 1291 0 17
182 9 0 1290 2 19
184 7 0 1292 0 25
186 8 0 1290 0 22
188 9 0 1306 0 18
190 9 0 1305 0 15
192 9 0 1298 0 13
194 8 0 1304 0 17
196 5 0 1311 0 11
198 6 0 1309 0 21
200 7 0 1309 0 12
