0 1369 0 0 0 0
2 1349 6 0 20 0
4.00004 1355 10 0 11 0
6 1363 10 0 13 0
8 1354 6 0 17 0
10 1335 7 0 19 0
12 1341 6 0 15 0
14 1356 9 0 19 0
16 1368 8 0 18 0
18 1382 10 0 16 0
20 1381 10 0 16 0
22 1399 8 0 12 0
24 1392 6 0 9 0
26 1397 8 0 10 0
28 1383 5 0 19 0
30 1386 6 0 16 0
32 1378 12 0 13 0
34 1381 8 0 11 0
36 1382 3 0 14 0
38 1372 9 0 8 0
40 1367 6 0 19 0
42 1382 6 0 13 0
44 1382 9 0 12 0
46 1396 4 0 18 0
48 1400 12 0 10 0
50 1396 11 0 16 0
52 1229 1 182 10 0
54 1115 0 303 12 0
56 999 1 412 15 0
58 910 1 499 14 4
60 854 0 565 11 5
62 777 0 639 12 4
64 711 1 702 14 4
66 656 0 758 8 10
68 617 1 805 7 3
70 574 0 839 7 5
72 507 1 905 7 9
74 474 0 940 5 7
76 442 2 973 9 7
78 423 0 1000 6 10
80 385 0 1023 6 6
82 367 0 1044 11 8
84 362 0 1065 7 9
86 334 0 1091 2 15
88 311 0 1106 1 7
90 297 0 1122 7 7
92 270 0 1132 5 9
94 266 0 1143 2 12
96 255 0 1170 1 9
98 237 0 1186 1 10
100 220 0 1197 1 10
102 202 0 1206 1 18
104 192 0 1226 3 6
106 186 0 1224 3 14
108 172 0 1233 3 9
110 165 0 1240 6 10
112 155 0 1252 2 10
114 149 0 1257 3 15
116 140 0 1267 5 7
118 143 0 1255 2 9
120 132 1 1271 5 6
122 135 0 1262 1 16
124 128 0 1248 1 20
126 117 0 1263 2 13
128 108 0 1273 0 7
130 106 0 1273 3 12
132 96 0 1288 2 8
134 91 0 1303 1 15
136 91 0 1312 4 14
138 85 0 1327 3 11
140 81 0 1310 3 15
142 84 0 1318 1 8
144 85 0 1311 0 14
146 77 1 1316 0 17
148 68 0 1326 1 19
150 66 0 1331 0 18
152 62 0 1332 0 13
154 66 0 1328 0 20
156 64 0 1327 1 12
158 58 0 1344 1 12
160 50 0 1343 1 12
162 49 0 1349 1 22
164 49 0 1361 2 13
166 47 0 1371 1 14
168 47 0 1367 0 9
170 48 0 1367 0 18
172 44 0 1375 1 15
174 44 0 1386 0 8
176 39 0 1378 0 16
178 36 0 1377 0 15
180 40 0 1371 0 15
182 33 0 1377 0 14
184 33 0 1371 1 14
186 33 0 1371 1 15
188 35 0 1373 0 15
190 33 0 1366 0 15
192 28 0 1364 1 12
194 30 0 1358 0 11
196 29 0 1356 0 18
198 25 0 1349 1 15
200 26 0 1355 0 10
