0 581 0 0 0 0
2 568 0 0 21 0
4.00004 556 0 0 28 0
6 550 0 0 27 0
8 550 0 0 33 0
10 564 0 0 28 0
12 577 0 0 19 0
14 582 0 0 22 0
16 597 0 0 19 0
18 586 0 0 20 0
20 581 0 0 23 0
22 583 0 0 27 0
24 588 0 0 21 0
26 592 0 0 20 0
28 580 0 0 19 0
30 578 0 0 15 0
32 577 0 0 26 0
34 580 0 0 21 0
36 589 0 0 29 0
38 593 0 0 21 0
40 577 0 0 17 0
42 576 0 0 29 0
44 601 0 0 16 0
46 584 0 0 20 0
48 579 0 0 18 0
50 579 0 0 18 0
52 589 0 2 20 1
54 584 0 8 28 2
56 563 0 22 23 1
58 542 0 30 23 4
60 520 0 48 21 4
62 506 0 57 19 4
64 483 0 67 15 6
66 460 0 81 21 10
68 446 0 100 14 4
70 432 0 118 21 4
72 412 0 141 16 5
74 407 0 151 9 11
76 392 0 166 13 13
78 386 0 177 10 13
80 370 0 209 12 9
82 342 0 222 20 9
84 332 0 236 8 13
86 323 0 258 9 14
88 302 0 274 16 13
90 289 0 298 11 17
92 274 0 303 12 18
94 260 0 308 8 22
96 245 0 332 9 10
98 229 0 327 7 9
100 218 0 339 4 16
102 197 0 345 4 10
104 190 0 353 10 13
106 181 0 367 8 9
108 175 0 384 9 13
110 169 0 382 8 16
112 165 0 390 4 20
114 158 0 389 2 17
116 151 0 401 10 13
118 149 0 418 4 22
120 134 0 423 4 15
122 132 0 419 4 19
124 119 0 465 7 10
126 116 0 459 4 16
128 103 0 458 4 17
130 104 0 456 3 15
132 103 0 451 0 28
134 91 0 462 3 24
136 91 0 473 3 22
138 81 0 475 1 20
140 78 0 487 0 20
142 71 0 498 2 24
144 63 0 510 2 18
146 59 0 502 2 23
148 59 0 518 3 24
150 56 0 514 3 19
152 55 0 500 1 22
154 54 0 502 1 21
156 54 0 511 1 16
158 51 0 505 2 18
160 47 0 518 1 25
162 42 0 524 0 24
164 41 0 530 0 25
166 38 0 534 3 20
168 36 0 533 2 31
170 41 0 551 2 15
172 39 0 553 1 25
174 38 0 555 2 22
176 35 0 556 1 21
178 36 0 557 0 25
180 33 0 568 1 22
182 33 0 561 2 23
184 35 0 552 0 29
186 30 0 551 1 15
188 26 0 535 1 26
190 26 0 531 0 19
192 26 0 536 1 24
194 24 0 543 1 22
196 24 0 534 0 27
198 19 0 561 3 19
200 21 0 575 1 29
