0 667 0 0 0 0
2 645 0 0 20 0
4.00004 656 0 0 24 0
6 656 0 0 27 0
8 662 0 0 21 0
10 671 0 0 19 0
12 656 0 0 24 0
14 657 0 0 33 0
16 665 0 0 21 0
18 674 0 0 23 0
20 669 0 0 24 0
22 663 0 0 19 0
24 663 0 0 24 0
26 664 0 0 25 0
28 668 0 0 20 0
30 669 0 0 24 0
32 659 0 0 19 0
34 665 0 0 25 0
36 663 0 0 25 0
38 661 0 0 19 0
40 654 0 0 22 0
42 658 0 0 27 0
44 653 0 0 22 0
46 667 0 0 21 0
48 666 0 0 30 0
50 662 0 0 19 0
52 657 0 0 28 1
54 660 0 2 23 0
56 644 0 7 29 0
58 642 0 16 18 1
60 640 0 25 19 4
62 638 0 44 17 2
64 623 0 53 12 3
66 599 0 70 15 3
68 574 0 75 14 9
70 562 0 97 11 3
72 536 0 118 14 8
74 528 0 136 12 8
76 515 0 146 15 8
78 503 0 173 14 3
80 487 0 192 10 8
82 469 0 218 11 5
84 461 0 230 10 10
86 436 0 239 11 14
88 429 0 247 9 6
90 399 0 254 16 10
92 393 0 263 12 8
94 383 0 282 8 12
96 368 0 302 14 11
98 358 0 304 12 16
100 331 0 323 14 14
102 327 0 335 12 15
104 321 0 361 12 14
106 307 0 361 5 13
108 291 0 378 11 10
110 275 0 382 11 22
112 269 0 400 7 12
114 253 0 411 12 18
116 245 0 421 10 14
118 242 0 425 8 21
120 235 0 437 5 13
122 223 0 445 7 13
124 209 0 445 6 12
126 200 0 450 3 6
128 191 0 466 5 22
130 179 0 459 5 15
132 170 0 473 6 16
134 174 0 489 1 14
136 153 0 482 9 24
138 151 0 493 1 22
140 145 0 514 1 25
142 136 0 520 6 21
144 139 0 527 1 14
146 133 0 535 3 15
148 123 0 527 5 15
150 120 0 535 3 22
152 112 0 538 2 15
154 106 0 543 1 23
156 102 0 536 3 19
158 100 0 546 1 14
160 98 0 548 2 22
162 98 0 550 3 20
164 95 0 566 5 18
166 92 0 566 6 22
168 92 0 570 5 20
170 91 0 577 3 11
172 90 0 561 2 23
174 84 0 557 2 21
176 84 0 557 2 22
178 81 0 567 1 24
180 74 0 574 4 18
182 74 0 575 2 13
184 66 0 574 6 24
186 64 0 568 2 20
188 61 0 566 3 20
190 59 0 565 1 20
192 53 0 557 3 25
194 53 0 557 4 23
196 52 0 552 2 20
198 48 0 547 2 18
200 50 0 544 0 24
