0 502 0 0 0 0
2 470 0 0 19 0
4.00004 492 0 0 15 0
6 519 0 0 14 0
8 540 0 0 19 0
10 526 0 0 17 0
12 523 0 0 14 0
14 534 0 0 18 0
16 537 0 0 22 0
18 549 0 0 28 0
20 546 0 0 16 0
22 545 0 0 20 0
24 551 0 0 19 0
26 542 0 0 15 0
28 536 0 0 22 0
30 552 0 0 16 0
32 540 0 0 18 0
34 548 0 0 16 0
36 545 0 0 13 0
38 545 0 0 16 0
40 554 0 0 10 0
42 544 0 0 21 0
44 535 0 0 14 0
46 540 0 0 20 0
48 537 0 0 22 0
50 540 0 0 18 0
52 548 0 1 20 1
54 540 0 8 17 1
56 544 0 11 15 2
58 525 0 24 16 1
60 517 0 37 15 1
62 513 0 40 12 6
64 509 0 48 10 3
66 492 0 61 13 2
68 466 0 71 13 9
70 447 0 88 11 2
72 453 0 95 9 4
74 444 0 108 10 5
76 436 0 119 10 4
78 428 0 139 6 8
80 412 0 154 8 6
82 402 0 176 5 5
84 383 0 186 7 6
86 371 0 194 9 6
88 360 0 202 6 10
90 356 0 210 8 11
92 344 0 222 11 12
94 326 0 233 8 11
96 304 0 239 13 10
98 299 0 248 7 8
100 294 0 266 8 5
102 281 0 271 6 11
104 278 0 289 5 9
106 264 0 296 4 14
108 250 0 314 5 12
110 230 0 327 8 15
112 220 0 330 4 6
114 211 0 326 4 11
116 210 0 343 3 11
118 203 0 352 2 19
120 190 0 361 3 10
122 177 0 367 6 19
124 180 0 382 4 15
126 170 0 394 6 14
128 164 0 400 2 12
130 162 0 416 3 7
132 158 0 425 1 15
134 154 0 420 3 8
136 149 0 428 3 10
138 145 0 432 4 14
140 141 0 435 2 15
142 135 0 454 2 17
144 129 0 465 5 13
146 122 0 453 6 15
148 123 0 459 3 6
150 122 0 455 2 18
152 112 0 469 3 18
154 111 0 469 4 15
156 104 0 475 6 15
158 102 0 476 1 12
160 94 0 474 1 17
162 90 0 473 5 27
164 91 0 498 2 11
166 92 0 500 1 9
168 87 0 494 6 20
170 82 0 498 2 25
172 80 0 514 1 16
174 78 0 500 3 14
176 71 0 492 1 17
178 67 0 495 0 21
180 64 0 505 1 19
182 64 0 502 0 22
184 60 0 507 4 14
186 65 0 502 0 18
188 60 0 505 0 19
190 60 0 516 1 20
192 57 0 524 1 15
194 56 0 529 1 19
196 47 0 525 5 15
198 46 0 529 1 14
200 42 0 519 1 24
