0 474 0 0 0 0
2 446 0 0 23 0
4.00004 432 0 0 26 0
6 448 0 0 25 0
8 455 0 0 21 0
10 461 0 0 24 0
12 459 0 0 21 0
14 464 0 0 21 0
16 455 0 0 25 0
18 467 0 0 21 0
20 474 0 0 19 0
22 490 0 0 21 0
24 484 0 0 22 0
26 464 0 0 24 0
28 467 0 0 22 0
30 473 0 0 22 0
32 466 0 0 24 0
34 462 0 0 25 0
36 469 0 0 29 0
38 457 0 0 20 0
40 452 0 0 13 0
42 442 0 0 27 0
44 451 0 0 20 0
46 442 0 0 19 0
48 447 0 0 24 0
50 466 0 0 21 0
52 467 0 2 22 0
54 462 0 5 19 1
56 456 0 16 14 0
58 437 0 26 16 3
60 422 0 35 21 5
62 421 0 42 16 4
64 411 0 53 13 3
66 389 0 62 9 5
68 369 0 76 18 5
70 364 0 89 15 5
72 343 0 98 17 10
74 329 0 111 13 8
76 324 0 128 17 7
78 304 0 143 14 10
80 287 0 152 9 5
82 267 0 163 14 11
84 262 0 181 8 9
86 244 0 198 7 7
88 238 0 207 8 15
90 225 0 211 7 8
92 214 0 220 11 21
94 205 0 225 7 10
96 200 0 240 4 12
98 192 0 252 5 12
100 184 0 254 6 15
102 174 0 267 7 13
104 164 0 287 5 10
106 157 0 281 6 17
108 151 0 293 9 20
110 142 0 315 4 19
112 123 0 332 8 20
114 126 0 346 4 15
116 120 0 359 4 21
118 120 0 368 3 14
120 115 0 372 4 14
122 108 0 379 7 21
124 105 0 385 6 22
126 100 0 388 4 19
128 92 0 386 2 19
130 83 0 395 3 19
132 75 0 367 6 22
134 77 0 380 2 16
136 70 0 388 2 17
138 62 0 374 5 23
140 65 0 376 2 24
142 53 0 373 7 20
144 58 0 370 0 15
146 54 0 380 3 20
148 47 0 409 1 12
150 47 0 414 3 12
152 45 0 425 3 15
154 39 0 426 0 22
156 42 0 420 0 23
158 45 0 423 2 18
160 42 0 430 2 17
162 39 0 435 3 15
164 42 0 437 0 19
166 39 0 435 2 37
168 32 0 451 2 25
170 30 0 448 1 26
172 30 0 460 0 14
174 30 0 461 0 23
176 30 0 483 0 14
178 27 0 465 1 30
180 29 0 462 0 22
182 21 0 464 1 15
184 19 0 453 1 23
186 19 0 445 0 20
188 20 0 451 0 14
190 19 0 435 1 17
192 17 0 450 1 13
194 15 0 452 2 18
196 14 0 456 0 12
198 13 0 440 1 24
200 15 0 430 0 21
