0 384 0 0 0 0
2 361 0 0 5 0
4.00004 367 0 0 4 0
6 373 0 0 5 0
8 372 0 0 6 0
10 375 0 0 3 0
12 380 0 0 7 0
14 380 0 0 7 0
16 380 0 0 6 0
18 371 0 0 5 0
20 366 0 0 12 0
22 366 0 0 7 0
24 370 0 0 1 0
26 361 0 0 4 0
28 364 0 0 5 0
30 363 0 0 4 0
32 365 0 0 6 0
34 353 0 0 5 0
36 355 0 0 7 0
38 344 0 0 7 0
40 344 0 0 6 0
42 345 0 0 4 0
44 340 0 0 5 0
46 337 0 0 1 0
48 334 0 0 5 0
50 331 0 0 2 0
52 324 0 0 5 0
54 325 0 1 7 0
56 322 0 2 7 0
58 318 0 7 5 0
60 308 0 11 10 1
62 321 0 19 1 0
64 313 0 21 4 1
66 306 0 28 5 2
68 302 0 36 5 1
70 301 0 35 6 1
72 299 0 40 5 1
74 297 0 47 0 2
76 283 0 54 2 0
78 277 0 59 1 2
80 268 0 72 4 1
82 262 0 74 4 0
84 254 0 82 3 3
86 245 0 93 2 1
88 241 0 98 2 1
90 226 0 105 7 2
92 222 0 111 7 1
94 222 0 117 1 2
96 218 0 127 3 1
98 213 0 139 3 1
100 213 0 145 1 3
102 204 0 150 0 2
104 194 0 153 1 3
106 186 0 156 2 2
108 182 0 158 1 4
110 175 0 168 5 4
112 166 0 176 5 3
114 164 0 180 1 3
116 154 0 191 3 3
118 149 0 194 3 3
120 148 0 199 0 3
122 146 0 198 1 5
124 141 0 203 1 4
126 134 0 217 4 2
128 135 0 217 2 2
130 133 0 224 0 7
132 127 0 230 3 5
134 125 0 232 1 2
136 120 0 229 4 1
138 120 0 231 0 4
140 115 0 236 0 3
142 111 0 236 1 4
144 104 0 239 1 2
146 102 0 241 0 1
148 97 0 246 0 6
150 95 0 245 0 1
152 93 0 239 0 5
154 89 0 247 2 3
156 88 0 244 0 1
158 82 0 240 1 2
160 81 0 245 1 3
162 78 0 245 2 3
164 76 0 238 2 6
166 73 0 241 1 6
168 72 0 247 1 3
170 69 0 247 0 3
172 70 0 251 0 6
174 68 0 257 0 5
176 67 0 267 1 2
178 63 0 267 0 5
180 61 0 269 1 2
182 61 0 269 0 4
184 60 0 262 0 4
186 57 0 263 2 6
188 58 0 271 0 5
190 56 0 272 0 5
192 53 0 277 1 3
194 52 0 272 0 8
196 47 0 276 1 4
198 47 0 281 0 4
200 47 0 292 0 6
