0 1407 0 0 0 0
2 1386 7 0 3 0
4.00004 1387 6 0 7 0
6 1372 10 0 12 0
8 1380 7 0 8 0
10 1378 10 0 8 0
12 1376 11 0 5 0
14 1375 6 0 12 0
16 1357 14 0 8 0
18 1359 12 0 10 0
20 1363 9 0 13 0
22 1370 7 0 10 0
24 1373 7 0 9 0
26 1372 11 0 8 0
28 1373 9 0 5 0
30 1370 6 0 9 0
32 1365 7 0 8 0
34 1358 5 0 14 0
36 1352 7 0 8 0
38 1358 10 0 2 0
40 1368 7 0 9 0
42 1377 9 0 1 0
44 1363 10 0 7 0
46 1350 12 0 9 0
48 1359 11 0 12 0
50 1364 10 0 9 0
52 1158 0 207 9 0
54 1020 0 353 6 3
56 908 1 461 10 3
58 846 0 536 2 4
60 770 0 619 5 0
62 694 1 689 4 2
64 624 0 758 8 2
66 548 1 825 6 3
68 520 0 853 4 2
70 474 0 897 1 6
72 440 0 934 3 7
74 398 0 978 1 3
76 351 0 1015 3 5
78 324 0 1047 5 3
80 296 0 1072 1 3
82 278 0 1094 1 3
84 250 0 1128 2 1
86 236 0 1137 2 6
88 217 0 1158 0 1
90 202 0 1175 4 7
92 195 0 1179 3 7
94 177 0 1192 0 2
96 163 0 1190 3 4
98 152 0 1198 5 5
100 142 0 1205 2 7
102 137 0 1213 3 10
104 125 0 1226 0 4
106 120 0 1224 1 4
108 121 0 1227 1 3
110 116 0 1224 1 5
112 116 0 1233 2 6
114 116 0 1232 1 6
116 116 0 1232 1 7
118 105 0 1240 1 8
120 97 0 1257 2 6
122 89 0 1265 1 7
124 82 0 1269 1 5
126 77 0 1278 2 1
128 73 0 1268 1 3
130 72 0 1264 1 9
132 67 0 1274 1 7
134 64 0 1290 0 5
136 65 0 1300 1 4
138 60 0 1307 4 3
140 63 0 1307 3 9
142 71 0 1303 1 5
144 71 0 1301 1 9
146 73 0 1304 0 4
148 74 0 1299 1 7
150 66 0 1301 3 8
152 72 0 1304 0 5
154 69 0 1302 1 9
156 69 0 1316 0 5
158 63 0 1318 0 6
160 62 0 1324 1 5
162 62 0 1320 0 6
164 58 0 1314 1 6
166 59 0 1320 1 5
168 57 0 1331 0 7
170 56 0 1336 0 1
172 52 0 1332 1 6
174 48 0 1330 1 8
176 47 0 1331 0 3
178 45 0 1330 0 4
180 44 0 1337 1 4
182 40 0 1337 0 2
184 40 0 1337 0 5
186 39 0 1327 1 9
188 38 0 1334 2 6
190 35 0 1337 0 8
192 37 0 1347 0 3
194 34 0 1345 0 7
196 32 0 1347 1 5
198 27 0 1347 0 11
200 26 0 1353 1 7
