0 1230 0 0 0 0
2 1209 4 0 6 0
4.00004 1204 3 0 7 0
6 1199 8 0 7 0
8 1206 6 0 5 0
10 1216 8 0 4 0
12 1213 9 0 8 0
14 1224 7 0 4 0
16 1217 7 0 4 0
18 1224 6 0 6 0
20 1233 11 0 7 0
22 1232 8 0 9 0
24 1237 4 0 6 0
26 1244 7 0 5 0
28 1245 4 0 8 0
30 1244 3 0 9 0
32 1244 9 0 7 0
34 1238 8 0 7 0
36 1236 11 0 7 0
38 1244 5 0 5 0
40 1232 10 0 10 0
42 1238 2 0 6 0
44 1238 5 0 6 0
46 1240 10 0 6 0
48 1247 4 0 5 0
50 1230 12 0 7 0
52 1091 0 154 4 0
54 977 0 266 4 1
56 867 0 368 7 2
58 787 1 453 6 0
60 725 0 517 1 2
62 664 0 584 4 0
64 613 0 634 2 3
66 547 0 695 4 5
68 503 0 743 2 3
70 460 0 791 6 1
72 428 0 819 4 4
74 397 1 851 1 1
76 350 1 879 5 6
78 333 0 900 3 2
80 309 0 921 5 4
82 297 0 948 0 3
84 272 0 973 5 4
86 264 0 990 2 3
88 253 0 1005 0 2
90 238 0 1015 3 5
92 221 0 1032 2 3
94 196 0 1052 4 2
96 188 0 1066 1 4
98 174 0 1077 4 4
100 173 0 1090 2 3
102 152 1 1104 2 6
104 135 0 1111 2 9
106 126 0 1121 2 9
108 126 0 1133 0 8
110 125 0 1137 0 3
112 118 0 1134 1 6
114 115 0 1144 2 4
116 102 0 1149 1 11
118 101 0 1159 0 3
120 92 0 1173 1 2
122 83 0 1178 3 4
124 88 0 1174 1 2
126 89 0 1164 1 6
128 85 1 1162 1 4
130 83 0 1160 2 5
132 81 0 1168 1 6
134 85 0 1169 0 6
136 84 0 1178 1 3
138 78 0 1180 1 8
140 79 0 1184 1 2
142 74 0 1189 1 4
144 71 0 1197 1 2
146 72 0 1194 0 6
148 68 0 1187 2 7
150 67 0 1185 1 5
152 63 0 1186 2 6
154 66 0 1180 0 6
156 65 0 1183 1 5
158 65 0 1189 0 6
160 60 0 1193 0 6
162 58 0 1194 1 6
164 56 0 1204 1 1
166 54 0 1196 1 5
168 58 1 1196 3 4
170 51 0 1200 1 7
172 49 0 1207 2 4
174 47 0 1204 0 12
176 46 0 1210 0 6
178 42 0 1209 1 11
180 45 0 1208 1 8
182 47 0 1210 0 3
184 45 0 1214 0 4
186 46 0 1215 1 3
188 45 0 1218 0 4
190 39 0 1228 0 5
192 42 0 1216 1 7
194 42 0 1222 1 4
196 40 0 1221 1 5
198 39 0 1223 2 5
200 38 0 1224 1 4
