0 539 0 0 0 0
2 538 0 0 8 0
4.00004 542 0 0 6 0
6 534 0 0 7 0
8 538 0 0 9 0
10 539 0 0 4 0
12 535 0 0 8 0
14 545 0 0 9 0
16 542 0 0 10 0
18 539 0 0 8 0
20 535 0 0 13 0
22 546 0 0 7 0
24 547 0 0 8 0
26 549 0 0 11 0
28 543 0 0 7 0
30 544 0 0 2 0
32 543 0 0 13 0
34 550 0 0 6 0
36 552 0 0 6 0
38 534 0 0 10 0
40 527 0 0 7 0
42 523 0 0 4 0
44 527 0 0 8 0
46 516 0 0 13 0
48 515 0 0 4 0
50 519 0 0 8 0
52 515 0 1 5 0
54 514 0 3 7 0
56 519 0 7 10 1
58 525 0 7 2 1
60 521 0 14 3 0
62 504 0 18 9 0
64 493 0 21 5 0
66 474 0 28 4 3
68 458 0 34 6 2
70 450 0 42 6 1
72 443 0 46 9 1
74 435 0 50 5 2
76 425 0 58 4 3
78 421 0 68 2 2
80 412 0 83 4 0
82 402 0 88 6 1
84 394 0 99 7 4
86 392 0 113 3 2
88 384 0 116 3 4
90 372 0 131 5 2
92 370 0 134 5 4
94 362 0 140 5 3
96 356 0 146 2 3
98 351 0 153 2 1
100 341 0 160 6 2
102 336 0 164 4 4
104 330 0 169 1 7
106 319 0 177 4 4
108 314 0 182 4 5
110 312 0 194 3 4
112 304 0 195 1 4
114 290 0 200 7 4
116 289 0 208 2 4
118 282 0 211 2 3
120 277 0 224 5 5
122 271 0 226 4 6
124 266 0 227 5 7
126 259 0 235 4 5
128 260 0 236 2 11
130 259 0 253 2 5
132 254 0 257 1 5
134 251 0 264 3 2
136 245 0 268 2 4
138 238 0 280 4 3
140 234 0 278 0 4
142 224 0 279 3 4
144 222 0 272 1 5
146 213 0 278 5 4
148 204 0 280 7 7
150 204 0 289 1 6
152 199 0 291 1 7
154 195 0 294 1 4
156 193 0 302 0 4
158 188 0 301 2 5
160 185 0 308 3 6
162 179 0 315 2 8
164 175 0 316 1 10
166 169 0 311 0 7
168 167 0 310 1 7
170 165 0 321 0 2
172 157 0 323 2 2
174 155 0 329 0 2
176 149 0 335 3 6
178 145 0 341 1 5
180 140 0 347 0 4
182 132 0 348 4 6
184 134 0 351 1 7
186 131 0 357 1 9
188 127 0 368 1 3
190 122 0 355 3 8
192 122 0 372 1 8
194 121 0 386 1 6
196 115 0 386 1 4
198 114 0 390 1 7
200 113 0 383 1 10
