0 1256 0 0 0 0
2 1251 4 0 5 0
4.00004 1251 4 0 7 0
6 1249 5 0 5 0
8 1240 9 0 9 0
10 1246 7 0 4 0
12 1237 6 0 3 0
14 1227 10 0 6 0
16 1220 11 0 4 0
18 1222 6 0 6 0
20 1217 8 0 5 0
22 1214 11 0 6 0
24 1218 5 0 6 0
26 1224 7 0 4 0
28 1227 8 0 7 0
30 1223 9 0 7 0
32 1223 4 0 6 0
34 1221 7 0 6 0
36 1213 6 0 5 0
38 1194 14 0 7 0
40 1197 5 0 3 0
42 1190 5 0 3 0
44 1183 10 0 5 0
46 1174 14 0 9 0
48 1183 8 0 2 0
50 1186 7 0 1 0
52 1011 1 179 3 2
54 889 0 301 4 0
56 783 0 408 6 0
58 708 0 493 3 1
60 647 0 553 5 2
62 585 0 616 4 2
64 522 0 666 1 5
66 461 0 726 0 1
68 426 0 761 2 3
70 392 0 801 2 3
72 352 0 833 3 2
74 316 0 865 5 2
76 294 0 899 2 1
78 272 0 914 3 0
80 253 0 929 0 5
82 224 0 951 1 4
84 196 0 972 3 3
86 178 0 989 3 4
88 171 0 999 5 3
90 156 0 1000 0 9
92 147 0 1016 0 3
94 130 1 1025 1 6
96 123 0 1042 2 4
98 121 0 1042 6 5
100 119 0 1048 1 5
102 114 0 1050 3 3
104 107 0 1052 0 3
106 103 0 1051 1 5
108 100 0 1052 2 5
110 98 0 1060 1 3
112 97 0 1067 1 2
114 95 0 1075 1 1
116 95 0 1078 1 2
118 92 0 1081 1 3
120 92 1 1085 1 1
122 92 0 1081 2 3
124 87 0 1080 0 5
126 92 0 1071 0 5
128 90 0 1075 1 7
130 83 0 1084 1 2
132 77 0 1103 2 4
134 69 0 1100 1 4
136 74 0 1091 2 4
138 74 0 1088 0 2
140 73 1 1092 1 5
142 71 0 1095 1 7
144 70 0 1106 1 3
146 67 0 1107 1 4
148 69 0 1089 1 7
150 68 0 1087 1 1
152 62 0 1088 2 6
154 65 0 1098 1 4
156 57 0 1104 0 6
158 58 0 1107 0 3
160 51 0 1111 0 5
162 53 0 1103 2 5
164 48 0 1112 3 3
166 52 0 1103 1 5
168 49 0 1100 1 3
170 51 0 1095 0 3
172 43 0 1098 1 3
174 49 0 1095 1 2
176 44 0 1087 0 8
178 45 0 1098 0 7
180 43 0 1099 1 7
182 45 0 1105 1 4
184 37 0 1108 1 4
186 40 0 1106 0 5
188 41 0 1109 1 4
190 42 0 1108 1 5
192 35 0 1118 2 0
194 37 0 1113 0 2
196 35 0 1103 0 4
198 36 0 1101 0 5
200 35 0 1103 0 9
