0 871 0 0 0 0 0
2 776 0 0 101 0 0
4.00004 743 0 0 137 0 0
6 719 0 0 163 0 0
8 714 0 0 152 0 0
10 712 0 0 156 0 0
12 703 0 0 162 0 0
14 693 0 0 172 0 0
16 706 0 0 158 0 0
18 683 0 0 188 0 0
20 686 0 0 180 0 0
22 682 0 0 167 0 0
24 684 0 0 162 0 0
26 672 0 0 191 0 0
28 695 0 0 172 0 0
30 683 0 0 179 0 0
32 675 0 0 192 0 0
34 674 0 0 190 0 0
36 698 0 0 165 0 0
38 688 0 0 175 0 0
40 682 0 0 179 0 0
42 692 0 0 178 0 0
44 683 0 0 170 0 0
46 692 0 0 157 0 0
48 688 0 0 164 0 0
50 678 0 0 166 0 0
52 670 0 0 159 21 0
54 670 0 5 126 40 0
56 663 0 15 120 59 0
58 653 0 26 107 55 0
60 654 0 42 98 62 0
62 636 0 54 105 65 0
64 613 0 76 113 60 0
66 604 0 88 107 60 0
68 596 0 101 98 70 0
70 588 0 117 82 63 0
72 555 0 123 93 76 0
74 551 0 141 87 80 0
76 528 0 152 94 83 0
78 505 0 168 96 91 0
80 500 0 189 83 85 0
82 499 0 195 75 93 0
84 487 0 199 71 101 0
86 472 0 225 75 91 0
88 448 0 225 80 112 0
90 441 0 255 77 94 0
92 433 0 265 67 91 0
94 415 0 272 70 102 0
96 392 0 280 84 110 0
98 387 0 289 70 125 0
100 375 0 308 75 115 0
102 363 0 318 77 103 0
104 369 0 326 53 104 0
106 354 0 338 57 101 0
108 345 0 342 60 105 0
110 342 0 345 52 113 0
112 346 0 358 43 115 0
114 327 0 364 55 113 0
116 298 0 368 69 129 0
118 296 0 384 66 121 0
120 295 0 405 51 121 0
122 287 0 417 54 121 0
124 281 0 429 50 129 0
126 275 0 430 52 124 0
128 270 0 428 48 127 0
130 256 0 432 53 126 0
132 264 0 437 35 124 0
134 257 0 445 41 124 0
136 254 0 429 38 146 0
138 251 0 441 39 144 0
140 245 0 452 38 134 0
142 226 0 449 51 133 0
144 219 0 474 50 129 0
146 217 0 470 46 134 0
148 223 0 487 31 128 0
150 213 0 474 31 150 0
152 211 0 491 31 134 0
154 207 0 476 31 153 0
156 192 0 492 42 136 0
158 196 0 495 32 134 0
160 190 0 512 33 125 0
162 180 0 511 33 130 0
164 181 0 517 27 142 0
166 180 0 514 24 149 0
168 172 0 525 25 153 0
170 166 0 516 28 159 0
172 164 0 520 24 156 0
174 159 0 524 23 148 0
176 153 0 539 27 146 0
178 147 0 528 28 150 0
180 151 0 546 17 132 0
182 145 0 539 15 126 0
184 141 0 538 22 138 0
186 132 0 558 24 125 0
188 129 0 550 21 137 0
190 129 0 545 17 147 0
192 118 0 547 23 145 0
194 119 0 540 22 156 0
196 124 0 553 15 140 0
198 118 0 545 18 152 0
200 108 0 543 24 168 0
