0 1031 0 0 0 0 0
2 955 9 0 47 0 20
4.00004 928 8 0 75 0 25
6 918 9 0 87 0 28
8 889 3 0 114 0 30
10 878 8 0 109 0 40
12 872 2 0 127 0 36
14 877 2 0 133 0 30
16 860 2 0 143 0 32
18 848 1 0 161 0 39
20 832 1 0 179 0 32
22 823 0 0 187 0 45
24 806 0 0 206 0 39
26 800 0 0 194 0 47
28 797 1 0 217 0 36
30 805 0 0 199 0 43
32 787 0 0 214 0 29
34 776 0 0 222 0 45
36 765 0 0 226 0 37
38 782 0 0 216 0 39
40 769 0 0 233 0 36
42 764 0 0 235 0 42
44 755 0 0 249 0 40
46 772 0 0 240 0 33
48 768 0 0 237 0 41
50 755 0 0 255 0 39
52 731 0 32 166 123 0
54 684 0 85 134 150 0
56 637 0 132 119 156 0
58 606 0 157 126 170 1
60 569 0 189 103 193 0
62 521 0 228 107 203 0
64 491 0 259 93 214 0
66 469 0 303 87 190 0
68 443 0 321 80 207 0
70 420 0 354 80 203 0
72 389 0 366 83 213 0
74 366 0 395 68 218 0
76 330 0 441 73 205 0
78 305 0 472 76 205 0
80 280 0 471 56 234 0
82 267 0 499 62 218 0
84 245 0 524 55 221 0
86 234 0 533 61 228 0
88 216 0 552 58 225 0
90 197 0 575 60 222 0
92 185 0 582 55 233 0
94 175 0 610 55 218 0
96 167 0 603 58 231 0
98 159 0 622 51 234 0
100 157 0 623 51 235 1
102 147 0 647 63 220 0
104 141 0 641 54 229 0
106 137 0 630 45 249 0
108 132 0 640 36 249 0
110 122 0 652 42 244 0
112 112 0 666 46 245 0
114 108 0 671 43 245 0
116 99 0 689 47 240 0
118 86 0 691 45 234 0
120 87 0 695 50 238 0
122 82 0 699 45 241 0
124 80 0 707 35 234 0
126 76 0 718 45 225 0
128 72 0 722 48 225 0
130 68 0 710 46 240 0
132 66 0 707 45 245 0
134 60 0 725 40 237 0
136 55 0 728 56 235 0
138 50 0 737 47 229 0
140 49 0 744 48 225 0
142 48 0 729 52 244 0
144 47 0 734 45 242 0
146 42 0 751 41 235 0
148 42 0 731 41 247 0
150 41 0 712 41 260 0
152 39 0 726 35 252 0
154 38 0 736 35 228 0
156 36 0 733 37 232 0
158 35 0 719 34 257 0
160 34 0 717 37 265 0
162 35 0 720 37 261 0
164 32 0 727 40 251 0
166 31 0 710 39 269 0
168 30 0 718 39 258 0
170 28 0 722 42 261 0
172 27 0 724 44 266 0
174 24 0 741 39 253 0
176 22 0 740 40 256 0
178 22 0 746 37 258 0
180 21 0 751 37 262 0
182 19 0 748 40 247 0
184 17 0 754 39 254 0
186 17 0 747 45 260 0
188 15 0 728 41 274 0
190 15 0 726 42 266 0
192 15 0 733 47 255 0
194 15 0 736 36 260 0
196 13 0 750 37 252 0
198 9 0 742 33 274 0
200 8 0 726 31 288 0
