0 1046 0 0 0 0 0
2 984 0 0 69 0 0
4.00004 934 0 0 112 0 0
6 911 0 0 131 0 0
8 897 0 0 157 0 0
10 881 0 0 168 0 0
12 875 0 0 181 0 0
14 860 0 0 197 0 0
16 859 0 0 212 0 0
18 860 0 0 191 0 0
20 838 0 0 218 0 0
22 833 0 0 218 0 0
24 816 0 0 238 0 0
26 820 0 0 229 0 0
28 819 0 0 221 0 0
30 817 0 0 223 0 0
32 813 0 0 238 0 0
34 828 0 0 231 0 0
36 837 0 0 215 0 0
38 837 0 0 216 0 0
40 832 0 0 220 0 0
42 845 0 0 202 0 0
44 855 0 0 205 0 0
46 852 0 0 194 0 0
48 841 0 0 224 0 0
50 822 0 0 239 0 0
52 857 0 0 196 17 0
54 851 0 1 185 20 0
56 845 0 4 179 30 0
58 843 0 9 168 44 0
60 845 0 17 148 64 0
62 845 0 23 126 57 0
64 827 0 28 136 73 0
66 804 0 40 146 70 0
68 798 0 44 138 80 0
70 787 0 52 133 78 0
72 779 0 61 134 94 0
74 757 0 73 151 87 0
76 730 0 88 158 84 0
78 745 0 96 131 98 0
80 716 0 114 145 90 0
82 725 0 121 137 102 0
84 728 0 141 126 95 0
86 713 0 152 119 87 0
88 701 0 164 127 80 0
90 674 0 158 142 104 0
92 662 0 173 143 104 0
94 662 0 189 114 93 0
96 665 0 198 104 104 0
98 645 0 204 115 119 0
100 635 0 213 114 116 0
102 623 0 225 119 126 0
104 623 0 226 107 140 0
106 621 0 246 102 122 0
108 607 0 254 103 125 0
110 594 0 262 105 131 0
112 596 0 271 91 124 0
114 573 0 273 98 130 0
116 559 0 286 99 115 0
118 528 0 292 117 122 0
120 534 0 307 97 117 0
122 521 0 312 107 115 0
124 488 0 313 121 128 0
126 487 0 320 116 132 0
128 493 0 335 99 126 0
130 477 0 345 102 134 0
132 478 0 349 89 125 0
134 465 0 359 95 148 0
136 457 0 367 95 144 0
138 446 0 371 101 151 0
140 439 0 380 92 136 0
142 436 0 387 89 140 0
144 438 0 404 81 134 0
146 431 0 413 77 131 0
148 429 0 417 79 143 0
150 427 0 427 67 137 0
152 413 0 420 76 155 0
154 401 0 423 77 155 0
156 394 0 418 75 160 0
158 386 0 424 75 151 0
160 378 0 425 80 152 0
162 379 0 440 63 143 0
164 372 0 448 60 124 0
166 363 0 447 60 149 0
168 363 0 439 59 155 0
170 347 0 443 65 157 0
172 343 0 434 63 167 0
174 333 0 453 68 149 0
176 330 0 457 67 158 0
178 333 0 472 55 146 0
180 325 0 471 61 141 0
182 324 0 467 46 147 0
184 314 0 476 54 149 0
186 309 0 475 57 155 0
188 302 0 483 57 150 0
190 304 0 472 49 158 0
192 304 0 477 44 156 0
194 298 0 498 42 151 0
196 301 0 496 38 160 0
198 297 0 490 41 178 0
200 292 0 495 41 185 0
