0 1024 0 0 0 0 0
2 958 0 0 64 0 0
4.00004 948 0 0 78 0 0
6 920 0 0 106 0 0
8 920 0 0 104 0 0
10 894 0 0 128 0 0
12 902 0 0 126 0 0
14 884 0 0 144 0 0
16 878 0 0 158 0 0
18 871 0 0 170 0 0
20 878 0 0 159 0 0
22 868 0 0 163 0 0
24 852 0 0 183 0 0
26 854 0 0 178 0 0
28 878 0 0 151 0 0
30 871 0 0 164 0 0
32 859 0 0 173 0 0
34 859 0 0 182 0 0
36 853 0 0 179 0 0
38 855 0 0 186 0 0
40 855 0 0 191 0 0
42 851 0 0 188 0 0
44 852 0 0 188 0 0
46 845 0 0 203 0 0
48 842 0 0 206 0 0
50 856 0 0 195 0 0
52 849 0 0 200 4 0
54 846 0 1 190 5 0
56 850 0 2 188 10 0
58 834 0 3 195 18 0
60 842 0 4 185 28 0
62 852 0 5 166 36 0
64 839 0 12 162 36 0
66 840 0 14 156 40 0
68 839 0 17 151 39 0
70 839 0 23 142 41 0
72 834 0 28 141 45 0
74 826 0 28 147 51 0
76 831 0 33 136 48 0
78 832 0 37 127 55 0
80 812 0 42 142 60 0
82 814 0 43 128 60 0
84 785 0 51 153 57 0
86 790 0 59 134 56 0
88 786 0 56 132 60 0
90 791 0 60 123 65 0
92 768 0 64 132 72 0
94 758 0 67 136 78 0
96 763 0 79 130 67 0
98 771 0 82 118 70 0
100 753 0 80 122 91 0
102 758 0 96 113 78 0
104 738 0 105 135 67 0
106 732 0 107 132 83 0
108 719 0 114 135 80 0
110 733 0 118 117 89 0
112 717 0 126 124 84 0
114 710 0 130 127 83 0
116 703 0 134 120 88 0
118 702 0 145 120 89 0
120 686 0 138 132 97 0
122 683 0 144 123 89 0
124 685 0 153 115 83 0
126 676 0 155 118 81 0
128 684 0 158 106 79 0
130 668 0 175 118 65 0
132 671 0 174 115 75 0
134 671 0 171 110 87 0
136 661 0 180 111 74 0
138 651 0 186 113 72 0
140 641 0 185 116 78 0
142 654 0 195 95 79 0
144 645 0 197 104 81 0
146 648 0 194 95 97 0
148 638 0 196 93 106 0
150 616 0 205 114 101 0
152 618 0 217 114 91 0
154 607 0 219 118 94 0
156 604 0 228 117 85 0
158 607 0 233 102 92 0
160 607 0 235 95 89 0
162 596 0 238 108 88 0
164 601 0 235 97 86 0
166 606 0 230 89 95 0
168 608 0 236 77 79 0
170 589 0 242 92 87 0
172 590 0 246 93 87 0
174 599 0 244 81 107 0
176 591 0 251 83 85 0
178 582 0 255 83 90 0
180 586 0 256 76 90 0
182 574 0 259 84 107 0
184 569 0 268 90 90 0
186 570 0 275 79 92 0
188 569 0 283 81 87 0
190 547 0 282 100 92 0
192 558 0 289 87 94 0
194 547 0 284 93 96 0
196 539 0 284 102 100 0
198 541 0 289 86 109 0
200 530 0 288 91 103 0
