0 1186 0 0 0 0 0
2 1089 2 0 34 0 47
4.00004 1081 0 0 36 0 43
6 1050 0 0 41 0 72
8 1043 0 0 51 0 48
10 1039 0 0 57 0 53
12 1021 0 0 50 0 62
14 1009 0 0 57 0 74
16 1011 0 0 60 0 49
18 1021 0 0 58 0 46
20 1021 0 0 60 0 48
22 1026 0 0 44 0 44
24 995 0 0 54 0 61
26 997 0 0 54 0 65
28 990 0 0 59 0 56
30 991 0 0 47 0 51
32 988 0 0 47 0 61
34 986 0 0 51 0 62
36 972 0 0 58 0 62
38 970 0 0 58 0 56
40 961 0 0 43 0 76
42 950 0 0 45 0 53
44 925 0 0 66 0 65
46 942 0 0 48 0 58
48 931 0 0 51 0 60
50 935 0 0 59 0 53
52 808 0 144 13 82 3
54 699 0 258 7 74 0
56 600 0 322 12 100 0
58 531 0 416 5 91 0
60 472 0 479 8 96 0
62 405 0 531 7 118 0
64 337 0 603 6 122 0
66 288 0 644 3 108 0
68 251 0 680 1 91 0
70 219 0 698 6 110 0
72 188 0 724 6 109 1
74 166 0 759 4 85 0
76 143 0 770 2 104 0
78 123 0 795 2 98 0
80 111 0 801 6 110 0
82 94 0 822 3 95 0
84 78 0 830 2 104 0
86 68 0 826 5 112 0
88 62 0 837 6 91 0
90 56 0 840 7 94 0
92 51 0 864 5 85 0
94 48 0 879 3 88 0
96 39 0 871 2 114 0
98 35 0 866 3 113 0
100 33 0 868 2 100 0
102 28 0 875 0 97 0
104 22 0 876 3 106 0
106 21 0 885 4 92 0
108 18 0 890 5 103 0
110 17 0 908 1 93 0
112 16 0 904 1 99 0
114 14 0 905 4 110 0
116 12 0 913 1 121 0
118 12 0 907 0 88 0
120 11 0 910 4 96 0
122 11 0 920 2 105 0
124 9 0 912 0 112 0
126 5 0 918 2 106 0
128 5 0 904 5 99 0
130 3 0 894 2 117 0
132 3 0 897 0 104 0
134 3 0 893 2 114 0
136 3 0 905 2 106 0
138 3 0 897 4 108 0
140 3 0 896 1 109 0
142 2 0 908 3 108 0
144 2 0 905 0 96 0
146 2 0 896 1 101 0
148 1 0 883 0 114 0
150 1 0 875 2 114 0
152 1 0 873 1 105 0
154 1 0 886 2 106 0
156 1 0 889 1 94 0
158 1 0 893 1 90 0
160 1 0 910 3 83 0
162 1 0 892 0 112 0
164 1 0 901 1 104 0
166 1 0 904 1 90 0
168 1 0 907 1 106 0
170 1 0 898 1 94 0
172 1 0 910 0 78 0
174 1 0 899 0 90 0
176 0 0 891 0 97 0
178 0 0 884 1 102 0
180 0 0 878 2 96 0
182 0 0 859 2 112 0
184 0 0 859 1 105 0
186 0 0 857 0 108 0
188 0 0 849 1 109 0
190 0 0 861 1 97 0
192 0 0 860 0 101 0
194 0 0 868 1 94 0
196 0 0 854 0 104 0
198 0 0 833 0 114 0
200 0 0 828 0 110 0
