0 1051 0 0 0 0 0
2 1046 0 0 0 0 0
4.00004 1048 0 0 2 0 0
6 1049 0 0 1 0 0
8 1048 0 0 0 0 0
10 1043 0 0 1 0 0
12 1050 0 0 0 0 0
14 1047 0 0 0 0 0
16 1049 0 0 2 0 0
18 1048 0 0 1 0 0
20 1046 0 0 3 0 0
22 1048 0 0 1 0 0
24 1043 0 0 2 0 0
26 1039 0 0 2 0 0
28 1045 0 0 0 0 0
30 1051 0 0 1 0 0
32 1052 0 0 0 0 0
34 1057 0 0 1 0 0
36 1061 0 0 0 0 0
38 1065 0 0 0 0 0
40 1062 0 0 2 0 0
42 1064 0 0 1 0 0
44 1059 0 0 2 0 0
46 1065 0 0 1 0 0
48 1073 0 0 2 0 0
50 1077 0 0 1 0 0
52 1073 0 5 2 1 0
54 1064 0 10 3 0 0
56 1058 0 19 1 1 0
58 1053 0 20 2 2 0
60 1044 0 26 0 1 0
62 1041 0 33 0 0 0
64 1035 0 37 0 2 0
66 1031 0 44 1 1 0
68 1028 0 50 1 0 0
70 1023 0 55 1 0 0
72 1016 0 62 0 1 0
74 1003 0 66 1 1 0
76 997 0 73 2 1 0
78 996 0 77 0 0 0
80 988 0 86 1 0 0
82 982 0 87 1 2 0
84 975 0 95 2 0 0
86 973 0 96 0 1 0
88 970 0 103 0 3 0
90 964 0 105 2 0 0
92 961 0 107 1 0 0
94 950 0 109 2 2 0
96 948 0 114 0 1 0
98 942 0 114 0 2 0
100 937 0 118 0 3 0
102 935 0 125 0 1 0
104 925 0 133 2 0 0
106 920 0 143 0 1 0
108 912 0 150 0 2 0
110 900 0 160 4 1 0
112 899 0 168 2 0 0
114 896 0 173 0 0 0
116 889 0 180 1 0 0
118 883 0 183 0 1 0
120 879 0 184 1 0 0
122 870 0 188 1 1 0
124 864 0 188 1 2 0
126 858 0 197 3 1 0
128 854 0 199 0 0 0
130 852 0 202 1 2 0
132 850 0 205 0 0 0
134 844 0 207 0 0 0
136 836 0 212 3 1 0
138 830 0 213 0 1 0
140 825 0 220 0 2 0
142 824 0 229 0 3 0
144 819 0 240 1 0 0
146 815 0 249 0 1 0
148 807 0 253 1 1 0
150 803 0 258 1 2 0
152 801 0 267 0 2 0
154 796 0 273 0 0 0
156 787 0 270 2 3 0
158 784 0 278 1 1 0
160 782 0 283 0 1 0
162 774 0 287 3 1 0
164 772 0 290 0 2 0
166 768 0 289 0 0 0
168 763 0 290 2 0 0
170 761 0 296 2 2 0
172 759 0 297 0 4 0
174 754 0 307 2 1 0
176 752 0 310 2 0 0
178 745 0 311 0 4 0
180 737 0 316 3 2 0
182 737 0 318 0 3 0
184 731 0 322 1 2 0
186 731 0 336 0 2 0
188 728 0 344 2 0 0
190 724 0 349 1 1 0
192 721 0 348 1 1 0
194 717 0 354 1 2 0
196 711 0 358 1 1 0
198 705 0 357 1 0 0
200 702 0 362 1 1 0
