0 1023 0 0 0 0 0
2 1022 0 0 0 0 0
4.00004 1019 0 0 3 0 0
6 1021 0 0 3 0 0
8 1018 0 0 2 0 0
10 1018 0 0 1 0 0
12 1017 0 0 1 0 0
14 1016 0 0 1 0 0
16 1017 0 0 1 0 0
18 1015 0 0 1 0 0
20 1014 0 0 1 0 0
22 1014 0 0 1 0 0
24 1013 0 0 1 0 0
26 1014 0 0 1 0 0
28 1013 0 0 1 0 0
30 1012 0 0 0 0 0
32 1011 0 0 1 0 0
34 1012 0 0 0 0 0
36 1009 0 0 0 0 0
38 1014 0 0 0 0 0
40 1012 0 0 2 0 0
42 1014 0 0 2 0 0
44 1015 0 0 2 0 0
46 1016 0 0 0 0 0
48 1015 0 0 0 0 0
50 1019 0 0 0 0 0
52 1012 0 6 2 0 0
54 1006 0 13 1 1 0
56 1003 0 20 1 0 0
58 997 0 22 0 2 0
60 993 0 24 0 0 0
62 988 0 26 0 1 0
64 983 0 31 0 0 0
66 978 0 38 0 1 0
68 976 0 45 0 0 0
70 973 0 49 1 1 0
72 972 0 52 0 0 0
74 964 0 55 1 0 0
76 961 0 61 0 1 0
78 959 0 65 0 0 0
80 955 0 69 0 1 0
82 953 0 76 0 0 0
84 949 0 81 1 0 0
86 948 0 82 0 1 0
88 948 0 88 0 1 0
90 945 0 91 0 1 0
92 937 0 95 1 0 0
94 937 0 101 0 1 0
96 932 0 106 0 0 0
98 925 0 109 0 2 0
100 922 0 114 0 0 0
102 919 0 116 0 0 0
104 910 0 125 0 1 0
106 908 0 130 1 2 0
108 903 0 133 2 1 0
110 899 0 137 1 1 0
112 895 0 142 0 2 0
114 893 0 147 0 0 0
116 887 0 152 1 1 0
118 884 0 155 0 2 0
120 882 0 161 0 0 0
122 875 0 166 0 1 0
124 871 0 173 0 1 0
126 868 0 172 0 0 0
128 862 0 178 2 0 0
130 857 0 181 2 0 0
132 856 0 190 0 0 0
134 854 0 193 1 0 0
136 854 0 196 0 2 0
138 845 0 198 2 0 0
140 842 0 205 1 0 0
142 834 0 209 1 1 0
144 830 0 211 1 0 0
146 822 0 210 1 0 0
148 818 0 213 2 0 0
150 817 0 222 1 0 0
152 814 0 231 0 0 0
154 812 0 234 0 1 0
156 807 0 236 1 1 0
158 801 0 244 0 1 0
160 796 0 254 0 1 0
162 794 0 255 0 1 0
164 789 0 257 0 1 0
166 786 0 263 0 1 0
168 782 0 264 0 1 0
170 781 0 264 0 1 0
172 778 0 273 0 0 0
174 775 0 277 0 0 0
176 771 0 282 1 1 0
178 766 0 291 0 0 0
180 763 0 288 0 1 0
182 759 0 292 0 1 0
184 752 0 295 1 0 0
186 747 0 296 0 2 0
188 743 0 300 0 2 0
190 742 0 306 0 0 0
192 737 0 307 0 0 0
194 736 0 310 1 1 0
196 732 0 317 1 0 0
198 727 0 322 1 0 0
200 722 0 321 2 1 0
