0 913 0 0 0 0 0
2 879 40 0 1 0 0
4.00004 877 35 0 1 0 0
6 869 44 0 1 0 0
8 882 24 0 2 0 0
10 874 32 0 1 0 0
12 865 43 0 1 0 0
14 872 35 0 2 0 0
16 876 32 0 2 0 0
18 876 33 0 1 0 0
20 881 28 0 0 0 0
22 870 38 0 0 0 1
24 866 43 0 0 0 0
26 865 44 0 1 0 1
28 871 35 0 0 0 0
30 853 46 0 2 0 0
32 873 31 0 2 0 0
34 872 29 0 1 0 0
36 863 36 0 2 0 0
38 855 35 0 0 0 0
40 851 37 0 1 0 0
42 845 36 0 0 0 0
44 848 30 0 2 0 0
46 849 28 0 1 0 0
48 849 29 0 1 0 0
50 842 34 0 1 0 0
52 766 0 108 0 0 0
54 709 0 164 0 1 0
56 662 0 210 0 2 0
58 630 1 242 1 0 0
60 601 0 269 2 1 0
62 570 0 302 2 1 0
64 539 0 333 0 1 0
66 500 0 373 0 1 0
68 464 0 410 0 2 0
70 436 0 441 0 2 0
72 403 1 470 0 1 0
74 389 0 482 1 1 0
76 367 0 503 1 0 0
78 353 0 514 0 2 0
80 326 0 546 2 1 0
82 305 0 563 0 2 0
84 286 0 579 1 1 0
86 274 0 589 0 0 0
88 260 0 609 0 2 0
90 249 0 622 0 0 0
92 241 1 625 1 1 0
94 229 0 635 1 0 0
96 216 0 647 0 1 0
98 209 0 662 0 0 0
100 197 0 674 1 2 0
102 191 0 681 0 3 0
104 180 0 696 0 2 0
106 161 0 716 0 2 0
108 153 0 726 0 0 0
110 146 0 727 0 2 0
112 136 1 732 1 0 0
114 129 0 739 0 1 0
116 125 0 742 3 0 0
118 117 0 749 1 1 0
120 104 0 766 0 0 0
122 99 0 766 0 1 0
124 96 0 771 0 2 0
126 90 0 780 1 0 0
128 87 0 777 0 0 0
130 87 0 772 0 1 0
132 83 0 780 0 0 0
134 76 0 788 0 1 0
136 71 0 788 1 4 0
138 69 0 785 0 2 0
140 63 0 795 1 1 0
142 61 0 798 0 3 0
144 60 0 802 0 0 0
146 56 0 810 0 2 0
148 51 0 820 0 1 0
150 46 0 830 1 3 0
152 43 0 829 1 3 0
154 40 0 832 1 1 0
156 37 0 836 0 1 0
158 34 0 837 0 2 0
160 33 0 838 0 1 0
162 32 0 840 0 2 0
164 31 0 839 0 1 0
166 29 0 839 0 0 0
168 28 0 839 0 3 0
170 24 0 843 0 0 0
172 23 0 846 0 0 0
174 22 0 851 0 1 0
176 21 0 860 0 0 0
178 20 0 860 2 1 0
180 18 0 869 0 0 0
182 18 0 869 0 0 0
184 17 0 872 0 1 0
186 15 0 874 1 0 0
188 14 0 873 1 2 0
190 14 0 867 0 1 0
192 14 0 871 0 1 0
194 12 0 873 0 1 0
196 10 0 875 1 0 0
198 9 0 872 1 1 0
200 9 0 870 0 0 0
