0 861 0 0 0 0 0
2 828 34 0 3 0 0
4.00004 811 55 0 0 0 0
6 825 38 0 3 0 0
8 815 48 0 4 0 0
10 821 39 0 2 0 0
12 809 53 0 2 0 0
14 804 57 0 0 0 0
16 813 51 0 2 0 0
18 817 46 0 6 0 0
20 817 48 0 1 0 0
22 816 45 0 1 0 0
24 819 47 0 2 0 0
26 808 59 0 6 0 0
28 814 50 0 3 0 0
30 809 58 0 2 0 0
32 815 56 0 1 0 0
34 806 56 0 1 0 0
36 818 39 0 2 0 0
38 818 44 0 3 0 0
40 821 46 0 1 0 0
42 814 50 0 1 0 0
44 806 53 0 2 0 0
46 810 50 0 1 0 0
48 824 36 0 2 0 0
50 805 57 0 4 0 0
52 650 2 217 0 2 0
54 602 0 276 0 2 0
56 558 1 318 1 3 0
58 506 0 364 0 3 0
60 474 1 400 1 3 0
62 436 0 440 2 1 0
64 404 0 478 0 0 0
66 378 0 502 0 3 0
68 353 0 529 0 1 0
70 338 0 541 0 1 0
72 311 0 564 2 1 0
74 290 0 584 1 2 0
76 266 0 605 1 2 0
78 246 0 626 0 1 0
80 231 0 638 1 2 0
82 218 0 653 1 2 0
84 203 0 671 0 1 0
86 189 0 687 1 1 0
88 176 0 697 0 3 0
90 166 0 704 0 0 0
92 155 0 718 0 1 0
94 140 0 732 1 0 0
96 130 0 741 1 2 0
98 119 0 768 0 1 0
100 104 0 782 0 4 0
102 98 0 787 1 2 0
104 91 0 790 0 6 0
106 85 0 804 0 6 0
108 76 0 805 0 3 0
110 70 0 811 0 2 0
112 67 0 814 0 1 0
114 62 0 818 0 2 0
116 60 0 820 0 2 0
118 55 0 824 1 1 0
120 52 0 832 0 0 0
122 49 0 836 0 1 0
124 48 0 840 0 2 0
126 42 0 847 0 1 0
128 42 0 856 0 1 0
130 37 0 847 1 6 0
132 35 0 853 1 2 0
134 34 0 861 0 1 0
136 34 0 853 1 4 0
138 33 0 860 0 2 0
140 32 0 866 0 3 0
142 30 0 873 1 1 0
144 28 0 872 1 2 0
146 25 0 874 0 0 0
148 24 0 876 1 3 0
150 24 0 869 0 2 0
152 23 0 870 0 1 0
154 20 0 869 1 5 0
156 16 0 872 1 3 0
158 13 0 875 3 2 0
160 12 0 878 0 3 0
162 10 0 878 0 1 0
164 9 0 881 0 1 0
166 8 0 891 0 1 0
168 6 0 890 0 2 0
170 6 0 890 1 2 0
172 6 0 897 0 1 0
174 6 0 898 0 2 0
176 7 0 892 0 1 0
178 6 0 888 1 3 0
180 6 0 888 0 1 0
182 6 0 885 1 4 0
184 6 0 878 1 1 0
186 6 0 880 0 2 0
188 5 0 877 0 3 0
190 4 0 879 0 2 0
192 4 0 876 0 5 0
194 4 0 869 0 5 0
196 2 0 872 2 1 0
198 2 0 867 1 2 0
200 2 0 866 0 3 0
