0 1106 0 0 0 0 0
2 1106 0 0 2 0 0
4.00004 1107 0 0 2 0 0
6 1109 0 0 1 0 0
8 1115 0 0 1 0 0
10 1118 0 0 3 0 0
12 1115 0 0 1 0 0
14 1106 0 0 6 0 0
16 1109 0 0 1 0 0
18 1112 0 0 1 0 0
20 1111 0 0 1 0 0
22 1112 0 0 4 0 0
24 1110 0 0 2 0 0
26 1111 0 0 4 0 0
28 1110 0 0 0 0 0
30 1103 0 0 2 0 0
32 1102 0 0 1 0 0
34 1093 0 0 4 0 0
36 1098 0 0 2 0 0
38 1098 0 0 0 0 0
40 1095 0 0 4 0 0
42 1093 0 0 1 0 0
44 1089 0 0 2 0 0
46 1085 0 0 3 0 0
48 1080 0 0 5 0 0
50 1093 0 0 1 0 0
52 1084 0 9 0 1 0
54 1071 0 25 2 0 0
56 1064 0 34 0 2 0
58 1046 0 47 1 1 0
60 1039 0 54 2 0 0
62 1031 0 59 1 1 0
64 1021 0 71 1 0 0
66 1012 0 79 1 1 0
68 999 0 91 3 0 0
70 990 0 99 0 1 0
72 980 0 105 1 0 0
74 971 0 117 0 0 0
76 961 0 127 2 1 0
78 948 0 135 0 0 0
80 935 0 150 1 0 0
82 930 0 156 1 2 0
84 925 0 164 0 0 0
86 916 0 168 0 4 0
88 909 0 181 2 0 0
90 902 0 192 0 0 0
92 897 0 197 0 0 0
94 887 0 208 1 1 0
96 881 0 214 1 0 0
98 869 0 223 1 0 0
100 864 0 236 0 0 0
102 855 0 244 0 1 0
104 849 0 257 0 2 0
106 837 0 261 1 2 0
108 829 0 265 2 1 0
110 819 0 267 1 1 0
112 815 0 276 1 1 0
114 809 0 287 1 2 0
116 803 0 291 0 1 0
118 790 0 302 3 0 0
120 785 0 310 1 2 0
122 779 0 324 1 2 0
124 773 0 335 0 1 0
126 768 0 344 0 1 0
128 762 0 348 0 1 0
130 751 0 351 0 1 0
132 743 0 363 0 2 0
134 735 0 369 1 2 0
136 724 0 377 0 0 0
138 723 0 382 0 2 0
140 716 0 387 1 0 0
142 711 0 395 0 0 0
144 707 0 395 1 4 0
146 701 0 404 2 3 0
148 697 0 412 0 0 0
150 690 0 419 0 0 0
152 683 0 425 1 2 0
154 672 0 432 2 0 0
156 664 0 440 4 2 0
158 658 0 440 2 3 0
160 652 0 447 0 1 0
162 643 0 458 0 1 0
164 638 0 461 0 2 0
166 634 0 469 1 0 0
168 625 0 474 0 1 0
170 619 0 479 1 1 0
172 609 0 487 1 0 0
174 601 0 493 2 1 0
176 599 0 505 1 4 0
178 590 0 518 1 0 0
180 584 0 524 1 3 0
182 577 0 523 0 2 0
184 573 0 536 1 0 0
186 566 0 543 1 2 0
188 562 0 548 0 1 0
190 555 0 551 1 2 0
192 552 0 560 1 1 0
194 549 0 563 0 1 0
196 542 0 570 1 0 0
198 532 0 585 0 2 0
200 527 0 594 0 4 0
