0 1018 0 0 0 0 0
2 1015 0 0 2 0 0
4.00004 1022 0 0 1 0 0
6 1017 0 0 5 0 0
8 1015 0 0 1 0 0
10 1019 0 0 2 0 0
12 1020 0 0 0 0 0
14 1019 0 0 1 0 0
16 1019 0 0 1 0 0
18 1016 0 0 2 0 0
20 1016 0 0 2 0 0
22 1013 0 0 1 0 0
24 1011 0 0 4 0 0
26 1008 0 0 2 0 0
28 1009 0 0 2 0 0
30 1011 0 0 0 0 0
32 1010 0 0 2 0 0
34 1011 0 0 2 0 0
36 1012 0 0 3 0 0
38 1003 0 0 3 0 0
40 1002 0 0 2 0 0
42 1008 0 0 3 0 0
44 1012 0 0 3 0 0
46 1018 0 0 1 0 0
48 1018 0 0 1 0 0
50 1020 0 0 2 0 0
52 1009 0 7 3 1 0
54 1001 0 17 0 1 0
56 991 0 30 2 0 0
58 983 0 34 1 1 0
60 978 0 40 1 0 0
62 968 0 42 3 4 0
64 961 0 52 2 0 0
66 956 0 55 0 1 0
68 944 0 61 1 1 0
70 939 0 70 0 0 0
72 930 0 73 2 1 0
74 927 0 78 0 0 0
76 920 0 80 0 0 0
78 910 0 84 0 1 0
80 908 0 89 0 1 0
82 899 0 101 1 0 0
84 888 0 109 2 0 0
86 878 0 112 2 1 0
88 869 0 118 1 1 0
90 861 0 129 3 0 0
92 858 0 130 1 3 0
94 851 0 136 2 1 0
96 838 0 139 1 0 0
98 829 0 146 2 0 0
100 824 0 159 0 2 0
102 814 0 170 2 3 0
104 813 0 174 0 0 0
106 801 0 176 1 0 0
108 797 0 182 0 0 0
110 792 0 188 1 1 0
112 787 0 196 2 0 0
114 782 0 204 1 1 0
116 772 0 210 1 1 0
118 770 0 213 0 1 0
120 764 0 218 0 1 0
122 759 0 223 0 0 0
124 753 0 230 2 2 0
126 746 0 238 3 1 0
128 742 0 242 1 0 0
130 736 0 248 2 1 0
132 735 0 251 0 1 0
134 730 0 247 1 2 0
136 721 0 256 1 2 0
138 712 0 265 2 1 0
140 709 0 273 0 0 0
142 700 0 278 1 0 0
144 694 0 287 1 1 0
146 686 0 291 1 0 0
148 683 0 297 1 2 0
150 679 0 306 0 1 0
152 671 0 310 2 2 0
154 668 0 320 0 0 0
156 661 0 323 1 2 0
158 654 0 327 4 1 0
160 651 0 332 0 3 0
162 646 0 338 0 1 0
164 636 0 342 2 1 0
166 636 0 355 1 0 0
168 631 0 354 2 3 0
170 622 0 361 2 1 0
172 614 0 372 1 0 0
174 606 0 372 1 2 0
176 602 0 379 1 2 0
178 601 0 377 0 1 0
180 599 0 380 0 1 0
182 592 0 386 2 2 0
184 585 0 388 3 1 0
186 583 0 392 1 2 0
188 578 0 394 0 1 0
190 570 0 397 2 3 0
192 565 0 408 3 0 0
194 561 0 410 1 1 0
196 559 0 410 0 3 0
198 553 0 417 0 1 0
200 550 0 422 1 1 0
