0 852 0 0 0 0 0
2 836 17 0 0 0 1
4.00004 841 10 0 0 0 2
6 837 16 0 0 0 0
8 848 7 0 0 0 0
10 840 12 0 0 0 0
12 841 12 0 0 0 1
14 849 5 0 0 0 2
16 852 6 0 0 0 1
18 848 15 0 0 0 0
20 856 5 0 0 0 2
22 853 9 0 0 0 2
24 843 22 0 0 0 1
26 854 8 0 0 0 2
28 847 13 0 0 0 1
30 846 16 0 0 0 0
32 852 15 0 0 0 4
34 859 8 0 0 0 0
36 862 9 0 0 0 1
38 865 11 0 0 0 2
40 865 16 0 0 0 0
42 867 15 0 0 0 3
44 877 10 0 0 0 1
46 874 13 0 0 0 4
48 879 8 0 0 0 1
50 877 8 0 0 0 1
52 768 0 120 0 4 0
54 696 0 197 0 1 0
56 642 0 247 0 2 0
58 582 0 308 0 1 0
60 515 0 375 0 2 0
62 473 0 415 0 1 0
64 418 0 475 0 2 0
66 370 0 516 0 3 0
68 332 0 558 0 0 0
70 304 0 587 0 1 0
72 285 0 607 0 1 0
74 256 0 641 0 1 0
76 228 0 667 0 2 0
78 209 0 680 0 3 0
80 188 0 701 0 0 0
82 167 0 726 0 0 0
84 154 0 738 0 3 0
86 134 0 765 0 0 0
88 126 0 777 0 0 0
90 110 0 793 0 1 0
92 101 0 805 0 1 0
94 91 0 815 0 4 0
96 86 0 820 0 2 0
98 77 0 837 0 0 0
100 72 0 844 0 1 0
102 62 0 851 0 2 0
104 59 0 854 0 1 0
106 52 0 862 0 0 0
108 47 0 865 0 1 0
110 42 0 868 0 1 0
112 39 0 872 0 0 0
114 35 0 876 0 0 0
116 31 0 878 0 3 0
118 30 0 877 0 2 0
120 26 0 885 0 0 0
122 23 0 889 0 4 0
124 21 0 891 0 3 0
126 21 0 895 0 0 0
128 20 0 894 0 0 0
130 18 0 894 0 2 0
132 16 0 899 0 0 0
134 15 0 895 0 2 0
136 14 0 893 0 5 0
138 14 0 904 0 0 0
140 13 0 906 0 4 0
142 11 0 905 0 2 0
144 11 0 905 0 1 0
146 11 0 907 0 0 0
148 10 0 898 0 4 0
150 10 0 898 0 1 0
152 9 0 901 0 1 0
154 8 0 899 0 2 0
156 8 0 899 0 0 0
158 5 0 895 0 2 0
160 4 0 897 0 3 0
162 3 0 900 0 2 0
164 3 0 904 0 2 0
166 3 0 908 0 1 0
168 3 0 909 0 1 0
170 3 0 911 0 3 0
172 3 0 919 0 0 0
174 3 0 921 0 0 0
176 2 0 916 0 4 0
178 2 0 919 0 2 0
180 2 0 923 0 2 0
182 2 0 923 0 1 0
184 2 0 926 0 1 0
186 1 0 929 0 2 0
188 1 0 926 0 0 0
190 1 0 924 0 1 0
192 1 0 921 0 3 0
194 1 0 921 0 2 0
196 1 0 920 0 1 0
198 1 0 920 0 2 0
200 1 0 922 0 4 0
