0 1120 0 0 0 0 0
2 1084 0 0 49 0 0
4.00004 1068 0 0 53 0 0
6 1061 0 0 65 0 0
8 1063 0 0 59 0 0
10 1052 0 0 77 0 0
12 1051 0 0 72 0 0
14 1057 0 0 73 0 0
16 1053 0 0 77 0 0
18 1045 0 0 82 0 0
20 1060 0 0 64 0 0
22 1062 0 0 57 0 0
24 1068 0 0 45 0 0
26 1048 0 0 68 0 0
28 1056 0 0 61 0 0
30 1043 0 0 69 0 0
32 1035 0 0 73 0 0
34 1038 0 0 69 0 0
36 1027 0 0 82 0 0
38 1045 0 0 59 0 0
40 1045 0 0 61 0 0
42 1041 0 0 64 0 0
44 1044 0 0 68 0 0
46 1039 0 0 74 0 0
48 1041 0 0 70 0 0
50 1041 0 0 68 0 0
52 1045 0 0 55 5 0
54 1033 0 1 51 11 0
56 1031 0 6 55 20 0
58 1030 0 13 45 19 0
60 1028 0 19 45 14 0
62 1031 0 23 41 23 0
64 1028 0 29 39 20 0
66 1019 0 36 41 18 0
68 1009 0 40 53 21 0
70 996 0 51 53 14 0
72 994 0 59 36 18 0
74 990 0 63 36 18 0
76 977 0 64 46 16 0
78 978 0 68 40 21 0
80 959 0 73 51 22 0
82 962 0 76 38 29 0
84 956 0 82 39 27 0
86 946 0 83 40 26 0
88 940 0 90 39 26 0
90 929 0 100 44 25 0
92 928 0 105 40 25 0
94 913 0 112 44 29 0
96 907 0 119 42 32 0
98 910 0 124 35 28 0
100 895 0 131 42 23 0
102 881 0 140 45 16 0
104 870 0 143 41 16 0
106 863 0 144 41 24 0
108 868 0 145 33 28 0
110 864 0 152 29 26 0
112 852 0 157 43 27 0
114 848 0 162 40 28 0
116 854 0 174 27 25 0
118 842 0 178 37 28 0
120 834 0 186 41 20 0
122 823 0 186 42 26 0
124 808 0 195 53 29 0
126 821 0 203 28 18 0
128 810 0 205 30 25 0
130 797 0 208 44 30 0
132 802 0 216 36 32 0
134 779 0 224 50 25 0
136 787 0 229 39 31 0
138 781 0 237 39 27 0
140 777 0 242 32 25 0
142 773 0 243 28 32 0
144 755 0 252 48 23 0
146 767 0 256 29 27 0
148 769 0 256 19 38 0
150 755 0 266 29 30 0
152 749 0 269 32 31 0
154 742 0 277 34 28 0
156 734 0 284 39 20 0
158 722 0 280 42 33 0
160 728 0 291 30 27 0
162 723 0 290 32 36 0
164 727 0 300 22 30 0
166 717 0 306 30 31 0
168 714 0 312 29 23 0
170 703 0 307 33 39 0
172 700 0 314 34 31 0
174 701 0 322 28 32 0
176 694 0 323 30 29 0
178 695 0 330 30 44 0
180 681 0 343 38 36 0
182 681 0 345 32 34 0
184 673 0 350 41 36 0
186 675 0 354 34 34 0
188 682 0 364 17 32 0
190 681 0 362 18 33 0
192 671 0 360 27 40 0
194 661 0 370 32 30 0
196 665 0 370 24 39 0
198 667 0 379 18 27 0
200 663 0 376 21 37 0
