0 962 0 0 0 0 0
2 927 0 0 35 0 0
4.00004 919 0 0 43 0 0
6 911 0 0 59 0 0
8 912 0 0 51 0 0
10 912 0 0 45 0 0
12 906 0 0 51 0 0
14 912 0 0 44 0 0
16 909 0 0 42 0 0
18 908 0 0 46 0 0
20 903 0 0 47 0 0
22 898 0 0 54 0 0
24 891 0 0 58 0 0
26 906 0 0 38 0 0
28 899 0 0 47 0 0
30 895 0 0 45 0 0
32 890 0 0 46 0 0
34 896 0 0 43 0 0
36 885 0 0 57 0 0
38 886 0 0 45 0 0
40 885 0 0 44 0 0
42 888 0 0 40 0 0
44 886 0 0 40 0 0
46 881 0 0 44 0 0
48 881 0 0 37 0 0
50 873 0 0 56 0 0
52 870 0 0 52 2 0
54 873 0 1 42 6 0
56 864 0 2 36 5 0
58 865 0 4 36 10 0
60 861 0 6 39 10 0
62 854 0 10 41 11 0
64 856 0 13 32 10 0
66 844 0 16 39 14 0
68 834 0 23 40 10 0
70 843 0 28 29 8 0
72 826 0 31 37 11 0
74 830 0 35 37 11 0
76 827 0 41 32 11 0
78 815 0 42 42 10 0
80 808 0 44 39 10 0
82 807 0 49 35 8 0
84 808 0 54 28 7 0
86 789 0 56 41 14 0
88 787 0 62 42 14 0
90 797 0 62 27 25 0
92 789 0 74 27 17 0
94 779 0 78 30 22 0
96 776 0 84 28 13 0
98 769 0 87 26 20 0
100 767 0 93 29 20 0
102 758 0 91 31 23 0
104 751 0 99 35 20 0
106 747 0 102 34 15 0
108 741 0 109 37 16 0
110 748 0 108 27 29 0
112 741 0 114 26 25 0
114 744 0 116 22 30 0
116 743 0 120 20 23 0
118 733 0 131 27 16 0
120 729 0 134 28 18 0
122 725 0 136 22 18 0
124 722 0 139 20 18 0
126 714 0 142 27 26 0
128 719 0 151 21 22 0
130 720 0 155 14 15 0
132 717 0 158 18 17 0
134 710 0 160 25 23 0
136 704 0 166 21 22 0
138 706 0 174 20 18 0
140 706 0 178 19 21 0
142 697 0 177 22 25 0
144 695 0 182 23 22 0
146 694 0 191 19 19 0
148 690 0 197 20 17 0
150 681 0 191 27 28 0
152 681 0 198 23 19 0
154 676 0 204 20 18 0
156 667 0 209 24 18 0
158 671 0 211 18 18 0
160 666 0 212 18 21 0
162 667 0 223 15 18 0
164 655 0 226 20 20 0
166 645 0 224 32 28 0
168 648 0 233 24 20 0
170 640 0 239 27 22 0
172 635 0 241 29 17 0
174 638 0 244 19 19 0
176 630 0 250 23 19 0
178 625 0 252 26 10 0
180 630 0 252 20 19 0
182 620 0 255 26 26 0
184 619 0 254 25 26 0
186 615 0 253 24 26 0
188 616 0 252 18 27 0
190 612 0 253 25 29 0
192 604 0 263 26 28 0
194 601 0 268 29 26 0
196 599 0 274 24 18 0
198 601 0 272 20 34 0
200 598 0 281 18 26 0
