0 952 0 0 0 0 0
2 930 0 0 32 0 0
4.00004 924 0 0 46 0 0
6 906 0 0 52 0 0
8 905 0 0 60 0 0
10 888 0 0 69 0 0
12 876 0 0 74 0 0
14 880 0 0 70 0 0
16 873 0 0 80 0 0
18 874 0 0 70 0 0
20 862 0 0 82 0 0
22 872 0 0 71 0 0
24 861 0 0 87 0 0
26 862 0 0 82 0 0
28 848 0 0 97 0 0
30 848 0 0 98 0 0
32 858 0 0 87 0 0
34 854 0 0 90 0 0
36 858 0 0 83 0 0
38 851 0 0 92 0 0
40 841 0 0 101 0 0
42 848 0 0 92 0 0
44 855 0 0 81 0 0
46 858 0 0 88 0 0
48 860 0 0 85 0 0
50 861 0 0 89 0 0
52 851 0 0 100 0 0
54 860 0 0 89 0 0
56 857 0 0 86 1 0
58 851 0 0 88 6 0
60 847 0 0 92 9 0
62 844 0 1 90 7 0
64 849 0 1 83 12 0
66 853 0 2 72 16 0
68 847 0 4 81 12 0
70 843 0 6 75 14 0
72 830 0 8 82 16 0
74 826 0 11 84 16 0
76 827 0 13 82 18 0
78 831 0 16 71 15 0
80 829 0 18 71 20 0
82 827 0 19 71 29 0
84 832 0 21 63 25 0
86 827 0 22 63 30 0
88 822 0 27 63 27 0
90 817 0 29 68 23 0
92 814 0 31 66 32 0
94 800 0 36 76 30 0
96 798 0 38 74 31 0
98 797 0 41 72 29 0
100 799 0 51 65 18 0
102 795 0 51 68 21 0
104 790 0 50 70 35 0
106 783 0 52 74 36 0
108 779 0 60 70 33 0
110 773 0 65 69 31 0
112 769 0 69 69 25 0
114 771 0 70 67 30 0
116 758 0 72 82 29 0
118 760 0 77 70 29 0
120 764 0 80 61 25 0
122 760 0 87 62 20 0
124 741 0 88 81 23 0
126 750 0 90 67 25 0
128 752 0 91 59 25 0
130 751 0 92 55 28 0
132 750 0 92 56 28 0
134 736 0 96 65 24 0
136 733 0 97 63 33 0
138 726 0 100 69 28 0
140 725 0 103 62 33 0
142 720 0 104 70 30 0
144 734 0 110 50 26 0
146 732 0 111 50 26 0
148 730 0 116 50 29 0
150 723 0 119 57 30 0
152 717 0 124 66 33 0
154 715 0 122 61 38 0
156 724 0 126 48 34 0
158 713 0 127 59 29 0
160 713 0 132 58 28 0
162 702 0 130 70 35 0
164 702 0 134 65 35 0
166 700 0 135 63 34 0
168 702 0 137 62 30 0
170 705 0 137 55 33 0
172 701 0 140 48 25 0
174 702 0 139 44 29 0
176 701 0 140 40 31 0
178 688 0 150 55 21 0
180 688 0 148 54 30 0
182 681 0 149 54 33 0
184 682 0 154 52 28 0
186 685 0 153 46 38 0
188 682 0 152 47 39 0
190 679 0 150 47 49 0
192 675 0 152 46 43 0
194 676 0 151 45 44 0
196 678 0 152 41 46 0
198 677 0 154 41 49 0
200 670 0 161 48 47 0
