0 908 0 0 0 0 0
2 861 17 0 14 0 5
4.00004 848 16 0 32 0 5
6 851 13 0 32 0 7
8 837 18 0 41 0 6
10 846 14 0 34 0 4
12 845 17 0 31 0 2
14 844 12 0 34 0 6
16 838 19 0 41 0 6
18 833 15 0 45 0 4
20 831 15 0 51 0 3
22 833 13 0 44 0 5
24 825 18 0 45 0 3
26 826 12 0 47 0 7
28 822 16 0 40 0 8
30 815 20 0 53 0 5
32 822 12 0 50 0 5
34 831 7 0 51 0 3
36 831 9 0 48 0 4
38 827 10 0 48 0 2
40 818 14 0 45 0 5
42 817 11 0 53 0 4
44 821 12 0 44 0 5
46 822 13 0 43 0 4
48 817 15 0 44 0 6
50 820 14 0 43 0 4
52 629 0 209 20 19 0
54 524 0 306 20 29 0
56 419 1 415 20 27 0
58 351 0 479 17 38 0
60 280 0 556 10 33 0
62 222 0 612 14 35 0
64 171 0 661 20 40 0
66 140 0 694 18 39 0
68 111 0 724 15 38 0
70 87 0 738 11 49 0
72 71 0 761 17 39 0
74 56 0 769 16 48 0
76 47 0 778 14 51 0
78 39 0 791 8 46 0
80 34 0 799 12 39 0
82 26 0 807 17 37 0
84 20 0 809 13 45 0
86 18 0 813 13 47 0
88 15 0 820 12 43 0
90 15 0 825 15 36 0
92 13 0 829 24 39 0
94 9 0 830 17 43 0
96 9 0 833 6 45 0
98 5 0 835 7 39 0
100 3 0 833 10 40 0
102 3 0 841 11 29 0
104 3 0 827 11 44 0
106 3 0 834 10 37 0
108 3 0 826 8 41 0
110 2 0 837 8 40 0
112 2 0 831 8 43 0
114 2 0 835 14 39 0
116 2 0 837 15 39 0
118 2 0 837 9 38 0
120 2 0 826 9 50 0
122 2 0 836 9 40 0
124 1 0 825 6 53 0
126 1 0 823 10 43 0
128 1 0 831 8 42 0
130 1 0 823 12 48 0
132 1 0 826 10 45 0
134 1 0 830 11 47 0
136 1 0 839 7 33 0
138 1 0 831 6 47 0
140 1 0 839 6 37 0
142 1 0 832 6 43 0
144 0 0 831 6 36 0
146 0 0 823 10 48 0
148 0 0 826 13 41 0
150 0 0 818 15 49 0
152 0 0 825 12 43 0
154 0 0 818 12 45 0
156 0 0 818 10 44 0
158 0 0 815 12 49 0
160 0 0 817 18 43 0
162 0 0 827 17 37 0
164 0 0 829 14 40 0
166 0 0 831 11 41 0
168 0 0 831 9 38 0
170 0 0 825 12 40 0
172 0 0 826 20 43 0
174 0 0 833 19 37 0
176 0 0 832 17 36 0
178 0 0 827 19 48 0
180 0 0 843 15 31 0
182 0 0 847 7 32 0
184 0 0 834 6 49 0
186 0 0 841 8 36 0
188 0 0 836 9 34 0
190 0 0 833 8 48 0
192 0 0 847 11 31 0
194 0 0 839 16 51 0
196 0 0 828 12 56 0
198 0 0 841 13 40 0
200 0 0 843 13 45 0
