0 842 0 0 0 0 0
2 778 10 0 31 0 10
4.00004 769 12 0 42 0 10
6 757 15 0 48 0 14
8 759 13 0 72 0 11
10 759 10 0 68 0 13
12 760 12 0 75 0 8
14 757 4 0 74 0 14
16 748 15 0 70 0 11
18 761 7 0 65 0 12
20 750 8 0 76 0 12
22 757 9 0 57 0 14
24 763 7 0 53 0 15
26 749 9 0 64 0 19
28 754 7 0 85 0 10
30 755 7 0 73 0 16
32 752 9 0 84 0 16
34 767 3 0 71 0 17
36 756 10 0 67 0 18
38 762 10 0 78 0 11
40 756 8 0 79 0 12
42 762 11 0 75 0 9
44 759 6 0 74 0 15
46 767 9 0 67 0 12
48 765 9 0 83 0 9
50 762 12 0 72 0 11
52 520 0 261 47 36 0
54 402 0 378 41 51 0
56 305 1 477 29 44 0
58 244 0 532 22 59 0
60 190 1 592 32 48 0
62 143 0 636 23 64 0
64 112 0 666 18 73 0
66 87 0 695 17 60 0
68 64 0 718 16 67 0
70 55 0 731 15 66 0
72 42 0 743 14 70 0
74 39 0 741 20 68 0
76 28 0 770 15 55 0
78 17 0 771 16 70 0
80 9 0 771 15 72 0
82 7 0 771 14 77 0
84 7 0 783 10 65 0
86 5 0 770 19 72 0
88 5 0 767 22 68 0
90 3 0 777 13 66 0
92 3 0 783 8 63 0
94 2 0 772 11 74 0
96 2 0 776 16 70 0
98 1 0 776 17 75 0
100 1 0 777 12 77 0
102 0 0 786 21 66 0
104 0 0 793 12 64 0
106 0 0 795 11 61 0
108 0 0 796 14 59 0
110 0 0 789 14 67 0
112 0 0 781 14 72 0
114 0 0 796 11 62 0
116 0 0 790 16 59 0
118 0 0 791 18 63 0
120 0 0 787 16 66 0
122 0 0 805 13 54 0
124 0 0 796 11 63 0
126 0 0 782 18 74 0
128 0 0 774 16 83 0
130 0 0 780 11 73 0
132 0 0 787 14 70 0
134 0 0 789 12 64 0
136 0 0 790 11 57 0
138 0 0 790 17 63 0
140 0 0 781 12 72 0
142 0 0 785 11 74 0
144 0 0 786 14 73 0
146 0 0 792 11 71 0
148 0 0 799 9 57 0
150 0 0 809 10 52 0
152 0 0 805 18 55 0
154 0 0 789 15 75 0
156 0 0 797 15 71 0
158 0 0 802 10 62 0
160 0 0 804 19 61 0
162 0 0 794 16 73 0
164 0 0 786 9 75 0
166 0 0 779 12 87 0
168 0 0 780 14 89 0
170 0 0 775 15 92 0
172 0 0 786 17 80 0
174 0 0 790 20 79 0
176 0 0 797 15 78 0
178 0 0 802 12 74 0
180 0 0 813 12 68 0
182 0 0 809 8 75 0
184 0 0 818 6 74 0
186 0 0 817 13 77 0
188 0 0 809 14 76 0
190 0 0 822 10 65 0
192 0 0 823 15 65 0
194 0 0 826 12 71 0
196 0 0 830 15 78 0
198 0 0 812 8 90 0
200 0 0 826 10 71 0
