0 853 0 0 0 0 0
2 827 0 0 20 0 14
4.00004 836 0 0 17 0 9
6 835 0 0 17 0 11
8 842 0 0 18 0 12
10 834 0 0 21 0 15
12 842 0 0 19 0 17
14 836 0 0 25 0 19
16 834 0 0 29 0 19
18 844 0 0 28 0 13
20 849 0 0 21 0 19
22 853 0 0 30 0 19
24 858 0 0 23 0 19
26 871 0 0 15 0 14
28 876 0 0 21 0 12
30 870 0 0 19 0 20
32 875 0 0 19 0 11
34 866 0 0 25 0 20
36 874 0 0 24 0 10
38 875 0 0 23 0 13
40 876 0 0 23 0 17
42 869 0 0 29 0 15
44 879 0 0 20 0 21
46 878 0 0 23 0 17
48 878 0 0 27 0 18
50 863 0 0 26 0 28
52 768 0 112 6 33 1
54 687 0 203 9 26 0
56 595 0 295 3 32 0
58 527 0 360 2 31 0
60 473 0 410 5 34 1
62 419 0 475 6 24 0
64 382 0 519 6 32 0
66 345 0 558 6 27 0
68 298 0 602 3 39 0
70 267 0 653 6 22 0
72 220 0 681 2 35 0
74 193 0 699 3 46 0
76 166 0 741 7 31 0
78 152 0 756 4 30 0
80 134 0 758 3 44 0
82 124 0 778 1 27 0
84 107 0 793 5 30 0
86 93 0 812 6 29 0
88 82 0 834 3 21 0
90 73 0 837 2 35 0
92 65 0 853 1 31 0
94 53 0 872 6 22 0
96 42 0 870 4 39 0
98 36 0 878 5 30 0
100 33 0 874 4 32 0
102 30 0 872 5 34 0
104 25 0 880 1 35 0
106 23 0 870 4 37 0
108 19 0 874 4 35 0
110 17 0 882 4 34 0
112 15 0 878 3 42 0
114 14 0 890 1 31 0
116 12 0 892 1 41 0
118 10 0 901 2 24 0
120 9 0 888 4 43 0
122 8 0 893 3 30 0
124 8 0 891 5 33 0
126 7 0 892 1 33 0
128 6 0 906 1 32 0
130 6 0 909 1 38 0
132 6 0 916 4 28 0
134 4 0 917 4 32 0
136 4 0 925 3 30 0
138 4 0 931 4 32 0
140 4 0 938 1 26 0
142 4 0 926 4 46 0
144 3 0 927 1 40 0
146 3 0 939 3 23 0
148 3 0 944 4 23 0
150 3 0 945 5 25 0
152 3 0 942 2 33 0
154 2 0 940 4 32 1
156 1 0 945 0 32 0
158 1 0 943 4 36 0
160 1 0 940 3 47 0
162 0 0 940 4 42 0
164 0 0 953 3 35 0
166 0 0 955 4 27 0
168 0 0 952 3 30 0
170 0 0 945 1 32 0
172 0 0 947 2 32 0
174 0 0 939 1 41 0
176 0 0 943 1 35 0
178 0 0 943 3 35 0
180 0 0 941 1 32 0
182 0 0 937 2 30 0
184 0 0 937 0 30 0
186 0 0 938 1 34 0
188 0 0 936 0 39 0
190 0 0 936 3 33 0
192 0 0 934 3 39 0
194 0 0 930 8 35 0
196 0 0 940 2 36 0
198 0 0 947 0 27 0
200 0 0 942 1 33 0
