0 862 0 0 0 0
2 813 0 0 47 0
4.00004 815 0 0 44 0
6 794 0 0 73 0
8 793 0 0 60 0
10 786 0 0 79 0
12 794 0 0 72 0
14 796 0 0 73 0
16 797 0 0 70 0
18 798 0 0 79 0
20 816 0 0 61 0
22 820 0 0 62 0
24 808 0 0 71 0
26 810 0 0 67 0
28 813 0 0 62 0
30 794 0 0 70 0
32 815 0 0 65 0
34 801 0 0 86 0
36 816 0 0 79 0
38 824 0 0 72 0
40 829 0 0 71 0
42 841 0 0 56 0
44 838 0 0 69 0
46 839 0 0 76 0
48 848 0 0 79 0
50 850 0 0 82 0
52 861 0 0 64 0
54 851 0 0 76 0
56 846 0 0 76 0
58 853 0 1 66 0
60 847 0 1 75 0
62 838 0 2 73 5
64 830 0 4 84 9
66 833 0 7 65 8
68 830 0 10 58 9
70 824 0 12 64 12
72 828 0 20 64 11
74 824 0 22 65 12
76 820 0 28 61 10
78 812 0 31 62 12
80 809 0 34 64 13
82 808 0 38 49 7
84 802 0 36 49 15
86 793 0 42 56 13
88 793 0 46 57 22
90 786 0 53 47 18
92 779 0 60 52 15
94 779 0 65 52 20
96 782 0 72 44 25
98 768 0 75 47 23
100 761 0 84 48 20
102 751 0 94 50 16
104 749 0 100 51 20
106 751 0 101 39 26
108 736 0 105 44 20
110 730 0 109 50 31
112 720 0 121 41 28
114 711 0 135 49 22
116 718 0 138 35 28
118 711 0 144 36 33
120 695 0 152 52 32
122 702 0 163 42 33
124 687 0 165 46 40
126 688 0 179 41 32
128 684 0 188 39 28
130 687 0 196 37 28
132 674 0 200 39 27
134 674 0 205 36 39
136 648 0 216 53 35
138 645 0 217 46 35
140 635 0 225 53 37
142 636 0 240 47 34
144 628 0 242 47 40
146 621 0 250 49 48
148 620 0 265 46 41
150 617 0 269 49 43
152 610 0 276 46 44
154 620 0 290 35 39
156 619 0 291 23 49
158 594 0 295 44 48
160 598 0 305 38 44
162 585 0 314 39 44
164 591 0 328 34 38
166 598 0 334 29 38
168 585 0 332 36 42
170 580 0 322 37 59
172 577 0 351 35 31
174 570 0 355 36 40
176 564 0 359 35 36
178 557 0 361 41 44
180 560 0 364 28 41
182 551 0 370 33 44
184 543 0 382 34 40
186 550 0 390 23 39
188 545 0 386 26 46
190 547 0 401 26 34
192 538 0 401 26 39
194 520 0 392 43 49
196 516 0 401 28 50
198 512 0 406 39 55
200 515 0 412 27 54
