0 916 0 0 0 0
2 861 0 0 54 0
4.00004 845 0 0 75 0
6 837 0 0 95 0
8 823 0 0 103 0
10 807 0 0 123 0
12 826 0 0 109 0
14 825 0 0 114 0
16 824 0 0 105 0
18 835 0 0 89 0
20 830 0 0 100 0
22 820 0 0 116 0
24 821 0 0 113 0
26 819 0 0 114 0
28 821 0 0 106 0
30 824 0 0 104 0
32 812 0 0 106 0
34 804 0 0 117 0
36 813 0 0 115 0
38 811 0 0 103 0
40 811 0 0 98 0
42 814 0 0 94 0
44 807 0 0 103 0
46 807 0 0 109 0
48 787 0 0 127 0
50 782 0 0 131 0
52 799 0 0 112 0
54 810 0 0 110 1
56 813 0 0 114 4
58 823 0 1 101 3
60 833 0 1 104 7
62 825 0 3 104 9
64 828 0 5 90 9
66 817 0 9 86 13
68 804 0 10 97 18
70 806 0 15 96 19
72 798 0 18 101 21
74 803 0 22 88 23
76 811 0 28 78 21
78 803 0 31 77 24
80 788 0 40 87 22
82 778 0 47 83 23
84 775 0 54 86 19
86 766 0 58 96 27
88 761 0 65 100 21
90 763 0 69 87 20
92 760 0 70 77 30
94 747 0 73 92 32
96 742 0 77 89 26
98 742 0 83 79 29
100 737 0 85 78 36
102 734 0 95 72 40
104 728 0 102 75 34
106 708 0 110 79 28
108 708 0 113 66 35
110 708 0 116 61 35
112 693 0 120 69 36
114 703 0 123 62 36
116 686 0 133 77 39
118 691 0 140 54 38
120 666 0 148 65 35
122 665 0 151 65 39
124 663 0 157 61 46
126 647 0 153 77 41
128 651 0 163 68 31
130 637 0 162 82 46
132 639 0 175 67 37
134 644 0 177 60 41
136 628 0 185 67 35
138 637 0 186 52 47
140 629 0 186 57 44
142 619 0 194 63 40
144 625 0 199 50 36
146 622 0 198 56 43
148 624 0 211 46 44
150 603 0 213 63 40
152 599 0 214 61 48
154 595 0 225 60 29
156 587 0 221 63 47
158 583 0 224 56 47
160 586 0 220 52 53
162 575 0 228 55 53
164 574 0 229 47 66
166 565 0 235 57 62
168 557 0 250 55 53
170 549 0 252 62 55
172 550 0 261 57 50
174 542 0 258 64 54
176 542 0 257 50 69
178 536 0 274 54 60
180 519 0 277 71 69
182 529 0 286 54 56
184 523 0 298 53 45
186 523 0 293 47 51
188 513 0 292 59 50
190 518 0 298 45 61
192 518 0 296 43 58
194 515 0 303 41 53
196 511 0 306 36 60
198 501 0 310 43 69
200 493 0 321 47 65
