0 982 0 0 0 0
2 925 0 0 70 0
4.00004 915 0 0 94 0
6 892 0 0 107 0
8 884 0 0 119 0
10 866 0 0 135 0
12 858 0 0 143 0
14 847 0 0 146 0
16 837 0 0 161 0
18 828 0 0 168 0
20 818 0 0 173 0
22 821 0 0 173 0
24 801 0 0 192 0
26 802 0 0 205 0
28 816 0 0 189 0
30 815 0 0 196 0
32 810 0 0 207 0
34 813 0 0 198 0
36 819 0 0 199 0
38 807 0 0 205 0
40 814 0 0 204 0
42 817 0 0 198 0
44 801 0 0 213 0
46 802 0 0 214 0
48 803 0 0 215 0
50 809 0 0 210 0
52 821 0 0 206 0
54 811 0 0 214 0
56 809 0 0 227 0
58 806 0 0 237 0
60 811 0 0 221 1
62 829 0 0 204 4
64 824 0 0 205 7
66 835 0 0 197 7
68 825 0 0 199 10
70 847 0 0 173 14
72 835 0 0 176 21
74 846 0 0 165 22
76 845 0 2 160 23
78 833 0 3 177 27
80 830 0 4 173 34
82 829 0 6 163 30
84 833 0 10 153 40
86 836 0 13 158 37
88 832 0 15 172 41
90 829 0 17 168 51
92 825 0 23 167 47
94 815 0 26 172 41
96 810 0 28 171 46
98 797 0 29 174 55
100 815 0 29 157 65
102 803 0 34 156 57
104 802 0 42 153 61
106 796 0 46 163 64
108 804 0 53 146 65
110 804 0 58 147 54
112 798 0 61 143 61
114 772 0 60 164 62
116 792 0 68 142 63
118 780 0 70 137 62
120 780 0 72 136 64
122 772 0 81 150 51
124 764 0 86 146 55
126 759 0 91 148 53
128 768 0 92 137 56
130 756 0 90 140 70
132 741 0 96 151 71
134 750 0 96 135 80
136 747 0 90 137 83
138 747 0 100 132 79
140 756 0 102 126 76
142 741 0 105 137 76
144 731 0 114 143 71
146 712 0 117 155 72
148 728 0 116 139 72
150 719 0 123 140 78
152 727 0 126 125 77
154 700 0 125 149 82
156 699 0 129 144 91
158 700 0 130 134 88
160 677 0 141 153 83
162 678 0 151 155 79
164 663 0 150 164 80
166 654 0 155 164 80
168 673 0 153 144 73
170 672 0 162 135 73
172 666 0 167 138 69
174 676 0 166 130 91
176 664 0 169 135 87
178 672 0 170 126 102
180 650 0 174 143 106
182 666 0 176 128 91
184 670 0 179 122 87
186 665 0 174 124 113
188 676 0 184 110 90
190 655 0 182 125 111
192 654 0 183 121 109
194 664 0 190 109 113
196 648 0 203 115 105
198 645 0 211 111 96
200 638 0 211 115 96
