0 908 0 0 0 0
2 881 0 0 40 0
4.00004 848 0 0 72 0
6 831 0 0 90 0
8 821 0 0 103 0
10 818 0 0 99 0
12 793 0 0 133 0
14 781 0 0 144 0
16 773 0 0 155 0
18 777 0 0 147 0
20 772 0 0 159 0
22 782 0 0 149 0
24 770 0 0 156 0
26 765 0 0 166 0
28 754 0 0 162 0
30 751 0 0 178 0
32 755 0 0 163 0
34 752 0 0 176 0
36 750 0 0 163 0
38 750 0 0 165 0
40 744 0 0 166 0
42 761 0 0 151 0
44 757 0 0 156 0
46 768 0 0 151 0
48 775 0 0 142 0
50 771 0 0 158 0
52 767 0 0 154 0
54 762 0 0 165 0
56 771 0 0 159 0
58 762 0 0 170 1
60 768 0 0 161 2
62 775 0 0 155 3
64 757 0 0 162 7
66 779 0 0 145 9
68 774 0 1 137 8
70 780 0 1 130 11
72 770 0 2 126 18
74 754 0 4 153 22
76 757 0 7 151 20
78 754 0 7 142 27
80 747 0 9 146 27
82 753 0 9 145 25
84 753 0 13 136 21
86 743 0 15 142 32
88 735 0 18 155 30
90 728 0 20 159 29
92 737 0 21 148 34
94 728 0 25 155 39
96 741 0 31 143 41
98 743 0 32 125 38
100 730 0 38 133 38
102 739 0 38 121 43
104 724 0 44 133 39
106 718 0 49 129 39
108 709 0 52 143 45
110 710 0 57 136 36
112 708 0 60 136 39
114 712 0 56 127 38
116 707 0 60 134 46
118 698 0 68 134 36
120 696 0 71 128 43
122 688 0 71 130 43
124 682 0 72 133 42
126 688 0 74 118 49
128 689 0 75 109 49
130 704 0 81 90 44
132 692 0 79 99 52
134 674 0 84 113 59
136 686 0 88 100 52
138 696 0 92 93 46
140 677 0 92 106 55
142 680 0 94 103 56
144 679 0 95 103 61
146 681 0 104 95 57
148 678 0 110 90 60
150 668 0 109 99 62
152 667 0 116 97 54
154 672 0 117 93 59
156 666 0 121 101 67
158 655 0 130 99 59
160 654 0 133 95 62
162 649 0 128 93 63
164 644 0 143 91 57
166 640 0 146 94 60
168 633 0 149 103 59
170 623 0 148 107 58
172 614 0 145 112 66
174 605 0 149 112 67
176 599 0 154 109 71
178 597 0 160 105 61
180 595 0 163 101 52
182 595 0 168 101 65
184 591 0 173 101 59
186 587 0 179 99 56
188 573 0 172 110 65
190 574 0 177 103 74
192 560 0 181 110 74
194 564 0 194 108 71
196 556 0 199 110 67
198 565 0 202 99 65
200 565 0 211 87 58
