0 1192 0 0 0 0
2 1118 7 0 54 0
4.00004 1098 7 0 75 0
6 1080 8 0 91 0
8 1052 13 0 111 0
10 1057 7 0 119 0
12 1034 11 0 129 0
14 1031 11 0 133 0
16 1021 5 0 146 0
18 1008 7 0 161 0
20 1006 3 0 160 0
22 1005 5 0 159 0
24 990 3 0 181 0
26 989 7 0 173 0
28 999 4 0 181 0
30 1000 12 0 159 0
32 1010 9 0 163 0
34 1026 5 0 141 0
36 1006 7 0 174 0
38 1005 10 0 170 0
40 1008 4 0 178 0
42 994 9 0 185 0
44 1001 8 0 178 0
46 993 6 0 182 0
48 973 11 0 199 0
50 991 7 0 173 0
52 820 0 182 175 2
54 697 0 298 173 5
56 586 0 404 170 10
58 523 0 479 146 19
60 455 0 536 142 36
62 403 0 596 124 44
64 367 0 647 119 41
66 331 0 685 97 54
68 292 0 714 108 66
70 263 0 751 97 67
72 216 0 794 108 66
74 188 1 821 89 68
76 158 0 846 82 79
78 137 1 854 94 84
80 127 0 886 86 72
82 118 0 888 76 86
84 105 0 898 80 94
86 89 0 907 83 89
88 88 0 917 62 95
90 78 0 925 62 99
92 79 0 916 57 108
94 71 0 916 56 110
96 64 0 905 54 121
98 59 0 932 67 104
100 55 0 925 64 117
102 47 0 933 63 116
104 44 0 938 63 115
106 49 0 937 60 119
108 43 0 938 52 118
110 39 0 931 55 136
112 46 0 937 48 126
114 42 0 943 52 130
116 42 0 946 43 122
118 33 0 948 53 130
120 32 0 957 57 116
122 30 0 962 58 118
124 28 0 954 60 129
126 32 0 962 61 116
128 26 0 961 66 125
130 32 0 971 60 118
132 32 0 971 58 117
134 26 0 961 61 122
136 26 0 966 56 126
138 29 0 972 46 126
140 31 0 965 47 127
142 33 0 970 40 124
144 36 0 957 32 137
146 32 0 954 36 141
148 29 0 957 42 134
150 31 0 971 38 122
152 29 0 965 37 135
154 34 0 972 29 124
156 33 0 966 25 121
158 26 0 958 41 132
160 25 0 961 43 127
162 26 0 956 44 141
164 25 0 972 48 120
166 28 0 967 41 124
168 30 0 967 34 125
170 26 0 957 35 146
172 28 0 966 32 137
174 25 0 980 42 120
176 24 0 982 46 115
178 24 0 963 51 139
180 26 0 970 51 142
182 24 0 978 47 122
184 25 0 957 45 149
186 25 0 956 47 151
188 31 0 949 41 159
190 29 0 946 45 152
192 32 0 956 46 141
194 29 0 958 42 134
196 27 0 954 44 143
198 30 0 959 41 139
200 31 0 974 48 126
