0 985 0 0 0 0
2 949 0 0 36 0
4.00004 927 0 0 57 0
6 912 0 0 73 0
8 890 0 0 106 0
10 885 0 0 93 0
12 868 0 0 122 0
14 880 0 0 114 0
16 872 0 0 112 0
18 875 0 0 108 0
20 881 0 0 105 0
22 865 0 0 113 0
24 865 0 0 114 0
26 865 0 0 119 0
28 862 0 0 118 0
30 865 0 0 117 0
32 854 0 0 130 0
34 854 0 0 131 0
36 857 0 0 121 0
38 859 0 0 132 0
40 859 0 0 125 0
42 860 0 0 127 0
44 859 0 0 126 0
46 858 0 0 131 0
48 857 0 0 140 0
50 855 0 0 133 0
52 857 0 0 132 0
54 851 0 0 154 0
56 861 0 0 138 0
58 862 0 0 133 0
60 861 0 0 120 2
62 862 0 0 133 4
64 866 0 1 116 6
66 857 0 1 127 6
68 856 0 1 129 7
70 852 0 1 126 8
72 854 0 1 116 11
74 855 0 2 117 15
76 853 0 2 114 17
78 845 0 3 122 21
80 842 0 6 122 18
82 842 0 7 118 17
84 837 0 8 123 23
86 859 0 11 95 19
88 839 0 10 110 23
90 838 0 10 115 24
92 836 0 11 107 28
94 829 0 16 110 30
96 843 0 18 95 26
98 845 0 18 92 28
100 835 0 23 91 26
102 833 0 24 94 28
104 831 0 27 88 26
106 832 0 32 84 28
108 827 0 37 78 26
110 810 0 39 95 28
112 806 0 39 100 35
114 804 0 41 94 35
116 792 0 45 104 29
118 787 0 46 105 30
120 778 0 51 115 33
122 790 0 53 96 41
124 787 0 61 91 31
126 791 0 66 91 35
128 786 0 64 85 52
130 782 0 70 83 53
132 775 0 76 93 48
134 772 0 77 93 48
136 776 0 83 84 48
138 778 0 89 86 40
140 767 0 91 94 39
142 764 0 92 99 40
144 763 0 95 93 36
146 763 0 102 96 35
148 775 0 103 75 36
150 778 0 106 68 37
152 765 0 109 79 44
154 757 0 115 87 43
156 757 0 116 78 45
158 751 0 119 82 42
160 742 0 119 86 45
162 740 0 122 84 45
164 730 0 124 89 55
166 727 0 126 85 61
168 712 0 125 106 69
170 716 0 132 97 57
172 713 0 132 92 56
174 717 0 135 81 53
176 719 0 136 71 56
178 702 0 140 89 52
180 713 0 150 85 46
182 710 0 152 79 40
184 712 0 149 73 52
186 708 0 160 80 39
188 707 0 159 80 42
190 698 0 158 88 50
192 694 0 161 82 50
194 705 0 164 69 50
196 680 0 164 82 49
198 682 0 162 77 58
200 671 0 168 83 61
