0 34 0 0 0 63
2 20 0 15 0 51
4.00004 27 0 6 0 52
6 23 0 10 0 70
8 25 0 8 0 53
10 22 0 11 0 54
12 24 0 10 0 64
14 22 0 10 0 62
16 22 0 10 0 60
18 20 0 12 0 57
20 21 0 11 1 55
22 21 1 12 0 52
24 20 1 11 0 61
26 15 1 14 0 58
28 19 1 11 0 51
30 20 0 10 1 60
32 22 1 8 0 55
34 17 1 13 0 55
36 21 1 7 0 56
38 23 1 4 0 57
40 16 1 11 0 58
42 17 1 10 0 57
44 16 1 11 0 58
46 14 0 11 1 53
48 18 1 7 0 59
50 15 1 10 0 49
52 14 2 10 0 60
54 19 1 5 1 52
56 14 3 12 0 67
58 16 2 10 2 60
60 22 3 3 1 55
62 18 4 7 0 57
64 19 4 6 0 56
66 16 3 8 3 60
68 19 5 4 1 67
70 15 4 8 3 49
72 15 2 8 6 54
74 16 5 7 3 44
76 11 5 11 3 55
78 15 3 7 5 48
80 13 5 7 3 64
82 15 7 7 2 67
84 16 9 6 1 59
86 15 6 7 6 60
88 15 9 6 5 60
90 13 14 8 1 66
92 15 10 6 6 56
94 11 11 10 5 64
96 14 8 7 7 67
98 11 13 10 3 55
100 13 14 6 6 61
102 11 16 8 4 51
104 8 15 10 5 53
106 6 16 11 4 59
108 5 13 11 6 55
110 12 14 5 7 53
112 10 15 5 7 68
114 11 17 4 7 57
116 11 17 4 7 55
118 13 16 2 9 55
120 10 18 5 7 65
122 12 17 3 8 56
124 11 19 4 7 58
126 11 18 4 7 57
128 10 22 4 3 58
130 9 16 4 9 45
132 7 18 5 9 49
134 6 20 6 7 47
136 12 19 1 8 55
138 5 17 8 11 57
140 4 21 8 8 70
142 7 19 5 9 54
144 7 19 4 8 59
146 8 21 3 4 51
148 10 16 1 9 51
150 8 16 2 11 49
152 6 19 4 8 63
154 8 18 2 9 61
156 5 19 5 8 62
158 7 19 3 8 58
160 8 17 2 8 54
162 8 16 2 8 69
164 7 18 3 6 60
166 6 13 4 11 58
168 8 17 2 7 59
170 4 12 6 11 52
172 7 12 2 9 62
174 5 15 4 9 65
176 3 14 6 9 57
178 4 20 4 5 56
180 4 17 4 8 57
182 7 18 1 8 52
184 4 19 4 7 54
186 5 19 3 7 58
188 5 16 3 10 61
190 5 17 3 8 66
192 6 20 2 6 64
194 5 18 3 7 56
196 6 19 2 7 57
198 7 19 1 7 59
200 5 17 3 9 60
202 6 21 2 6 52
204 8 19 0 7 57
206 7 18 0 8 63
208 6 15 1 11 53
210 4 15 3 10 71
