0 116 0 0 0 60
2 109 0 6 0 66
4.00004 108 0 7 0 55
6 106 0 10 0 54
8 103 0 12 0 43
10 102 0 13 0 63
12 92 13 10 0 52
14 77 25 13 0 50
16 77 29 7 2 48
18 70 33 8 4 39
20 67 40 7 1 54
22 62 45 7 2 60
24 52 50 10 3 66
26 48 58 5 4 55
28 44 60 6 5 57
30 45 61 2 4 55
32 40 64 5 5 59
34 38 67 3 6 61
36 32 71 4 6 58
38 32 72 3 6 54
40 32 76 2 3 62
42 27 77 5 5 64
44 28 80 1 5 57
46 20 80 3 10 61
48 19 84 3 6 63
50 20 88 3 3 60
52 19 90 1 4 55
54 15 95 1 3 60
56 13 94 2 5 54
58 12 96 2 4 48
60 12 93 2 7 70
62 12 95 0 8 59
64 11 100 2 4 61
66 12 98 2 6 54
68 10 98 2 8 48
70 10 99 3 7 54
72 12 95 1 11 53
74 13 96 0 10 50
76 10 97 2 10 58
78 9 96 3 12 52
80 11 101 0 8 66
82 8 99 1 11 57
84 8 98 1 12 65
86 7 105 1 6 58
88 7 103 0 7 53
90 7 100 0 11 50
92 7 105 0 6 57
94 5 105 2 6 54
96 7 103 0 8 54
98 7 105 0 7 70
100 6 101 1 11 62
102 5 102 1 11 57
104 3 102 2 12 53
106 3 103 2 11 54
108 3 105 2 9 58
110 4 101 3 13 60
112 6 105 0 10 55
114 5 109 0 7 43
116 4 107 1 9 66
118 4 104 0 11 46
120 4 103 0 12 56
122 2 104 2 10 61
124 2 101 2 13 59
126 2 104 2 10 49
128 3 104 0 11 50
130 2 105 1 9 60
132 2 103 1 9 57
134 3 105 0 7 56
136 3 102 0 10 57
138 4 101 0 11 67
140 4 103 0 9 56
142 3 96 2 16 50
144 3 97 1 16 60
146 2 97 1 15 49
148 1 99 1 14 58
150 2 100 0 13 57
152 2 106 0 6 57
154 2 104 0 9 52
156 2 108 0 6 55
158 1 107 0 7 61
160 1 106 0 8 52
162 1 111 0 3 53
164 1 108 0 5 60
166 1 103 0 11 62
168 1 106 1 8 59
170 1 107 1 7 59
172 2 106 1 9 63
174 2 109 1 7 62
176 1 110 1 7 65
178 1 103 2 13 49
180 2 112 1 4 55
182 2 106 1 10 60
184 3 109 1 7 58
186 5 107 1 9 65
188 3 108 3 8 61
190 5 105 1 10 57
192 6 103 0 11 46
194 6 105 0 9 61
196 3 112 0 5 55
198 3 109 1 7 52
200 2 111 1 6 55
202 3 112 0 5 50
204 3 105 0 12 48
206 2 110 1 6 61
208 2 108 1 8 49
210 1 106 1 11 53
